<?xml version="1.0" encoding="utf-8"?>
<COLLADA xmlns="http://www.collada.org/2005/11/COLLADASchema" version="1.4.1">
  <asset>
    <contributor>
      <author></author>
      <authoring_tool>FBX COLLADA exporter</authoring_tool>
      <comments></comments>
    </contributor>
    <created>2012-08-07T21:23:12Z</created>
    <keywords></keywords>
    <modified>2012-08-07T21:23:12Z</modified>
    <revision></revision>
    <subject></subject>
    <title></title>
    <unit meter="0.010000" name="centimeter"></unit>
    <up_axis>Y_UP</up_axis>
  </asset>
  <library_images>
    <image id="engineroom_floor_02_file4-image" name="engineroom_floor_02_file4">
      <init_from>file://C:/Users/sindre/Desktop/Sindre/Amnesia - Freelance/Amnesia - Source/StaticObjects/teslabase/dressing/tesla_dressing_wires_01.jpg</init_from>
    </image>
  </library_images>
  <library_materials>
    <material id="engineroom_floor_02_tesla_wires" name="engineroom_floor_02_tesla_wires">
      <instance_effect url="#engineroom_floor_02_tesla_wires-fx"/>
    </material>
  </library_materials>
  <library_effects>
    <effect id="engineroom_floor_02_tesla_wires-fx" name="engineroom_floor_02_tesla_wires">
      <profile_COMMON>
        <technique sid="standard">
          <phong>
            <emission>
              <color sid="emission">0.000000  0.000000 0.000000 1.000000</color>
            </emission>
            <ambient>
              <color sid="ambient">0.000000  0.000000 0.000000 1.000000</color>
            </ambient>
            <diffuse>
              <texture texture="engineroom_floor_02_file4-image" texcoord="CHANNEL0">
                <extra>
                  <technique profile="MAYA">
                    <wrapU sid="wrapU0">TRUE</wrapU>
                    <wrapV sid="wrapV0">TRUE</wrapV>
                    <blend_mode>NONE</blend_mode>
                  </technique>
                </extra>
              </texture>
            </diffuse>
            <specular>
              <color sid="specular">0.500000  0.500000 0.500000 1.000000</color>
            </specular>
            <shininess>
              <float sid="shininess">1.245731</float>
            </shininess>
            <reflective>
              <color sid="reflective">0.000000  0.000000 0.000000 1.000000</color>
            </reflective>
            <reflectivity>
              <float sid="reflectivity">0.500000</float>
            </reflectivity>
            <transparent opaque="RGB_ZERO">
              <color sid="transparent">0.000000  0.000000 0.000000 1.000000</color>
            </transparent>
            <transparency>
              <float sid="transparency">1.000000</float>
            </transparency>
          </phong>
        </technique>
      </profile_COMMON>
    </effect>
  </library_effects>
  <library_geometries>
    <geometry id="floor_lip_railpost-lib" name="floor_lip_railpostMesh">
      <mesh>
        <source id="floor_lip_railpost-POSITION">
          <float_array id="floor_lip_railpost-POSITION-array" count="231">
-1.843475 -17.196793 -16.586153
-5.847931 -15.856888 -16.586153
5.847931 -15.857056 -16.586153
1.843475 -17.196991 -16.586153
-5.847931 -15.856888 9.194633
-1.843475 -17.196793 9.194633
-7.506561 -12.622070 -16.586153
7.506561 -12.622070 -16.586153
-7.506561 -12.622070 9.194633
-7.506165 -12.622032 3.308154
-5.851257 -15.856888 1.761682
0.002380 -17.196884 -3.697326
-1.839386 -17.196884 -5.418063
1.840149 -17.196991 -5.411140
5.844604 -15.857056 -9.145544
7.506958 -12.622108 -10.692716
-5.843842 -15.856964 -9.152467
-7.506165 -12.622116 -10.699673
1.843475 -17.196991 9.194633
-1.846802 -17.196823 -1.972722
1.847595 -17.196884 -1.979679
5.852020 -15.856964 1.754725
5.847931 -15.857056 9.194633
7.506958 -12.622025 3.301196
7.506561 -12.622070 9.194633
-13.822357 -17.196793 -1.976563
-13.822357 -15.856888 1.757845
-13.822357 -15.857056 -9.149364
-13.822357 -17.196991 -5.414956
13.822357 -15.856888 1.757845
13.822357 -17.196793 -1.976563
13.822357 -17.196991 -5.414956
13.822357 -15.857056 -9.149364
-13.822357 -12.621979 3.304664
-13.822357 -12.622116 -10.696182
13.822357 -12.621979 3.304664
13.822357 -12.622116 -10.696182
-5.847931 323.401733 9.194633
5.847931 323.401917 9.194633
1.843475 324.741821 9.194633
-1.843475 324.741638 9.194633
-1.843475 324.741638 -16.586153
1.843475 324.741821 -16.586153
5.847931 323.401917 -16.586153
-5.847931 323.401733 -16.586153
7.506561 320.167053 9.194633
7.506561 320.167053 -16.586153
-7.506561 320.166901 9.194633
-7.506561 320.166901 -16.586153
0.002380 324.741730 -3.694193
1.840149 324.741821 -1.980378
-1.846802 324.741669 -5.418797
5.844604 323.401917 1.754025
7.503204 320.167053 3.300829
-7.509888 320.166931 -10.700041
-5.851257 323.401733 -9.153201
7.510712 320.166992 -10.693083
-5.843842 323.401825 1.760948
-7.502472 320.166992 3.307787
-1.839386 324.741730 -1.973456
1.847595 324.741730 -5.411840
5.852020 323.401825 -9.146244
-13.822357 323.401733 -9.149364
-13.822357 323.401917 1.757845
-13.822357 324.741821 -1.976563
-13.822357 324.741638 -5.414956
13.822357 324.741638 -5.414956
13.822357 324.741821 -1.976563
13.822357 323.401917 1.757845
13.822357 323.401733 -9.149364
-13.822357 320.167053 3.304664
13.822357 320.167053 3.304664
-13.822357 320.166901 -10.696182
13.822357 320.166901 -10.696182
0.000000 324.741730 -16.586153
0.000000 323.401825 -16.586153
0.000000 320.166992 -16.586153
</float_array>
          <technique_common>
            <accessor source="#floor_lip_railpost-POSITION-array" count="77" stride="3">
              <param name="X" type="float"/>
              <param name="Y" type="float"/>
              <param name="Z" type="float"/>
            </accessor>
          </technique_common>
        </source>
        <source id="floor_lip_railpost-Normal0">
          <float_array id="floor_lip_railpost-Normal0-array" count="1350">
-0.000000 0.000000 -1.000000
-0.000000 0.000000 -1.000000
-0.000000 0.000000 -1.000000
-0.000000 0.000000 -1.000000
-0.000000 0.000000 -1.000000
-0.000000 0.000000 -1.000000
-0.000000 0.000000 1.000000
-0.000000 0.000000 1.000000
-0.000000 0.000000 1.000000
-0.000000 0.000000 1.000000
-0.000000 0.000000 1.000000
-0.000000 0.000000 1.000000
-0.000000 0.000000 -1.000000
-0.000000 0.000000 -1.000000
-0.000000 0.000000 -1.000000
-0.000000 0.000000 -1.000000
-0.000000 0.000000 -1.000000
-0.000000 0.000000 -1.000000
0.000000 0.000000 1.000000
0.000000 0.000000 1.000000
0.000000 0.000000 1.000000
0.000000 0.000000 1.000000
0.000000 0.000000 1.000000
0.000000 0.000000 1.000000
-0.651936 -0.758274 0.000167
-0.890036 -0.455891 0.000194
-0.651936 -0.758274 0.000167
-0.890036 -0.455891 0.000194
-0.651936 -0.758274 0.000167
-0.890036 -0.455891 0.000194
0.160754 -0.986994 0.000057
-0.160796 -0.986988 0.000066
-0.160796 -0.986988 0.000066
-0.160796 -0.986988 0.000066
0.160754 -0.986994 0.000057
-0.000041 -1.000000 -0.000002
0.160754 -0.986994 0.000057
-0.160796 -0.986988 0.000066
0.160754 -0.986994 0.000057
0.160754 -0.986994 0.000057
0.160754 -0.986994 0.000057
0.651667 -0.758505 0.000166
0.651667 -0.758505 0.000166
0.160754 -0.986994 0.000057
0.651667 -0.758505 0.000166
0.651667 -0.758505 0.000166
0.651667 -0.758505 0.000166
0.889665 -0.456614 0.000194
0.889665 -0.456614 0.000194
0.651667 -0.758505 0.000166
0.889665 -0.456614 0.000194
-0.889669 -0.456606 0.000295
-0.651671 -0.758501 0.000230
-0.651671 -0.758501 0.000230
-0.651671 -0.758501 0.000230
-0.889669 -0.456606 0.000295
-0.889669 -0.456606 0.000295
-0.160796 -0.986988 0.000066
-0.651671 -0.758501 0.000230
-0.651671 -0.758501 0.000230
-0.651671 -0.758501 0.000230
-0.160796 -0.986988 0.000066
-0.160796 -0.986988 0.000066
-0.160739 -0.986997 0.000057
-0.160739 -0.986997 0.000057
0.160704 -0.987003 0.000065
0.160704 -0.987003 0.000065
-0.160739 -0.986997 0.000057
-0.000034 -1.000000 -0.000002
-0.160739 -0.986997 0.000057
0.160704 -0.987003 0.000065
0.160704 -0.987003 0.000065
-0.160739 -0.986997 0.000057
-0.651936 -0.758274 0.000167
-0.160739 -0.986997 0.000057
-0.160739 -0.986997 0.000057
-0.651936 -0.758274 0.000167
-0.651936 -0.758274 0.000167
0.160704 -0.987003 0.000065
0.651931 -0.758278 0.000229
0.651931 -0.758278 0.000229
0.651931 -0.758278 0.000229
0.160704 -0.987003 0.000065
0.160704 -0.987003 0.000065
0.651931 -0.758278 0.000229
0.890031 -0.455900 0.000295
0.890031 -0.455900 0.000295
0.890031 -0.455900 0.000295
0.651931 -0.758278 0.000229
0.651931 -0.758278 0.000229
-1.000000 0.000001 0.000000
-1.000000 0.000001 0.000000
-1.000000 0.000001 0.000000
-1.000000 0.000001 0.000000
-1.000000 0.000001 0.000000
-1.000000 0.000001 0.000000
1.000000 0.000000 0.000000
1.000000 0.000000 0.000000
1.000000 0.000000 0.000000
1.000000 0.000000 0.000000
1.000000 0.000000 0.000000
1.000000 0.000000 0.000000
-1.000000 0.000000 0.000000
-1.000000 0.000000 0.000000
-1.000000 0.000000 0.000000
-1.000000 0.000000 0.000000
-1.000000 0.000000 0.000000
-1.000000 0.000000 0.000000
1.000000 0.000000 0.000000
1.000000 0.000000 0.000000
1.000000 0.000000 0.000000
1.000000 0.000000 0.000000
1.000000 0.000000 0.000000
1.000000 0.000000 0.000000
-0.000048 -0.985209 -0.171357
-0.000066 -0.985204 0.171383
-0.000066 -0.985204 0.171383
-0.000066 -0.985204 0.171383
-0.000048 -0.985209 -0.171357
0.000002 -1.000000 0.000036
-0.000048 -0.985209 -0.171357
-0.000066 -0.985204 0.171383
-0.000048 -0.985209 -0.171357
-0.000275 -0.742142 -0.670243
-0.000275 -0.742142 -0.670243
-0.000048 -0.985209 -0.171357
-0.000048 -0.985209 -0.171357
-0.000048 -0.985209 -0.171357
-0.000275 -0.742142 -0.670243
-0.000413 -0.431517 -0.902105
-0.000413 -0.431517 -0.902105
-0.000275 -0.742142 -0.670243
-0.000275 -0.742142 -0.670243
-0.000275 -0.742142 -0.670243
-0.000413 -0.431517 -0.902105
-0.000322 -0.742121 0.670265
-0.000464 -0.431445 0.902139
-0.000464 -0.431445 0.902139
-0.000464 -0.431445 0.902139
-0.000322 -0.742121 0.670265
-0.000322 -0.742121 0.670265
-0.000066 -0.985204 0.171383
-0.000322 -0.742121 0.670265
-0.000322 -0.742121 0.670265
-0.000322 -0.742121 0.670265
-0.000066 -0.985204 0.171383
-0.000066 -0.985204 0.171383
-0.000049 -0.985194 0.171442
-0.000065 -0.985200 -0.171410
-0.000049 -0.985194 0.171442
-0.000049 -0.985194 0.171442
-0.000065 -0.985200 -0.171410
-0.000065 -0.985200 -0.171410
-0.000065 -0.985200 -0.171410
-0.000049 -0.985194 0.171442
0.000001 -1.000000 0.000043
-0.000276 -0.742014 0.670384
-0.000276 -0.742014 0.670384
-0.000412 -0.431258 0.902229
-0.000412 -0.431258 0.902229
-0.000412 -0.431258 0.902229
-0.000276 -0.742014 0.670384
-0.000049 -0.985194 0.171442
-0.000049 -0.985194 0.171442
-0.000276 -0.742014 0.670384
-0.000276 -0.742014 0.670384
-0.000276 -0.742014 0.670384
-0.000049 -0.985194 0.171442
-0.000319 -0.742032 -0.670365
-0.000065 -0.985200 -0.171410
-0.000065 -0.985200 -0.171410
-0.000065 -0.985200 -0.171410
-0.000319 -0.742032 -0.670365
-0.000319 -0.742032 -0.670365
-0.000460 -0.431325 -0.902197
-0.000319 -0.742032 -0.670365
-0.000319 -0.742032 -0.670365
-0.000319 -0.742032 -0.670365
-0.000460 -0.431325 -0.902197
-0.000460 -0.431325 -0.902197
0.000000 0.000000 1.000000
0.000000 0.000000 1.000000
0.000000 0.000000 1.000000
0.000000 0.000000 1.000000
0.000000 0.000000 1.000000
0.000000 0.000000 1.000000
-0.000000 0.000000 -1.000000
-0.000000 0.000000 -1.000000
-0.000000 0.000000 -1.000000
-0.000000 0.000000 -1.000000
-0.000000 0.000000 -1.000000
-0.000000 0.000000 -1.000000
-0.000000 0.000000 1.000000
-0.000000 0.000000 1.000000
-0.000000 0.000000 1.000000
-0.000000 0.000000 1.000000
-0.000000 0.000000 1.000000
-0.000000 0.000000 1.000000
-0.000000 0.000000 -1.000000
-0.000000 0.000000 -1.000000
-0.000000 0.000000 -1.000000
-0.000000 0.000000 -1.000000
-0.000000 0.000000 -1.000000
-0.000000 0.000000 -1.000000
-0.000000 0.000000 1.000000
-0.000000 0.000000 1.000000
-0.000000 0.000000 1.000000
-0.000000 0.000000 1.000000
-0.000000 0.000000 1.000000
-0.000000 0.000000 1.000000
-0.809931 0.586525 -0.000226
-0.809931 0.586525 -0.000226
-0.999984 0.005573 -0.000252
-0.999984 0.005573 -0.000252
-0.999984 0.005573 -0.000252
-0.999984 0.005573 -0.000252
-0.999984 0.005573 -0.000252
-0.999984 0.005573 -0.000252
-0.999984 0.005573 -0.000252
-0.809931 0.586525 -0.000226
-0.999984 0.005573 -0.000252
-0.999984 0.005573 -0.000252
0.000000 0.000000 -1.000000
0.000000 0.000000 -1.000000
0.000000 0.000000 -1.000000
0.000000 0.000000 -1.000000
0.000000 0.000000 -1.000000
0.000000 0.000000 -1.000000
0.000000 0.000000 -1.000000
0.000000 0.000000 -1.000000
0.000000 0.000000 -1.000000
0.160753 0.986995 -0.000057
-0.160793 0.986988 -0.000066
-0.160793 0.986988 -0.000066
0.160753 0.986995 -0.000057
-0.160793 0.986988 -0.000066
0.160753 0.986995 -0.000057
-0.160793 0.986988 -0.000066
0.160753 0.986995 -0.000057
-0.000036 1.000000 0.000000
0.651854 0.758344 -0.000302
0.651854 0.758344 -0.000302
0.160753 0.986995 -0.000057
0.160753 0.986995 -0.000057
0.160753 0.986995 -0.000057
0.651854 0.758344 -0.000302
0.972083 0.234637 -0.000359
0.972083 0.234637 -0.000359
0.651854 0.758344 -0.000302
0.651854 0.758344 -0.000302
0.651854 0.758344 -0.000302
0.972083 0.234637 -0.000359
1.000000 0.000006 -0.000251
0.972083 0.234637 -0.000359
1.000000 0.000006 -0.000251
0.972083 0.234637 -0.000359
1.000000 0.000006 -0.000251
0.972083 0.234637 -0.000359
-0.651862 0.758338 -0.000360
-0.972084 0.234631 -0.000472
-0.972084 0.234631 -0.000472
-0.972084 0.234631 -0.000472
-0.651862 0.758338 -0.000360
-0.651862 0.758338 -0.000360
-0.160793 0.986988 -0.000066
-0.651862 0.758338 -0.000360
-0.651862 0.758338 -0.000360
-0.651862 0.758338 -0.000360
-0.160793 0.986988 -0.000066
-0.160793 0.986988 -0.000066
-0.160739 0.986997 -0.000058
-0.000032 1.000000 0.000001
-0.160739 0.986997 -0.000058
0.160703 0.987003 -0.000065
0.160703 0.987003 -0.000065
-0.000032 1.000000 0.000001
-0.000032 1.000000 0.000001
-0.160739 0.986997 -0.000058
0.160703 0.987003 -0.000065
0.160703 0.987003 -0.000065
-0.160739 0.986997 -0.000058
-0.000032 1.000000 0.000001
-0.160739 0.986997 -0.000058
-0.160739 0.986997 -0.000058
-0.809931 0.586525 -0.000226
-0.809931 0.586525 -0.000226
-0.160739 0.986997 -0.000058
-0.809931 0.586525 -0.000226
0.160703 0.987003 -0.000065
0.651729 0.758452 -0.000367
0.651729 0.758452 -0.000367
0.651729 0.758452 -0.000367
0.160703 0.987003 -0.000065
0.160703 0.987003 -0.000065
0.972058 0.234741 -0.000481
0.651729 0.758452 -0.000367
0.651729 0.758452 -0.000367
0.651729 0.758452 -0.000367
0.972058 0.234741 -0.000481
0.972058 0.234741 -0.000481
0.972058 0.234741 -0.000481
1.000000 -0.000006 -0.000386
1.000000 -0.000006 -0.000386
0.972058 0.234741 -0.000481
1.000000 -0.000006 -0.000386
0.972058 0.234741 -0.000481
-0.972084 0.234631 -0.000472
-1.000000 0.000006 -0.000381
-1.000000 0.000006 -0.000381
-1.000000 0.000006 -0.000381
-0.972084 0.234631 -0.000472
-0.972084 0.234631 -0.000472
-1.000000 -0.000001 0.000000
-1.000000 -0.000001 0.000000
-1.000000 -0.000001 0.000000
-1.000000 -0.000001 0.000000
-1.000000 -0.000001 0.000000
-1.000000 -0.000001 0.000000
1.000000 0.000000 0.000000
1.000000 0.000000 0.000000
1.000000 0.000000 0.000000
1.000000 0.000000 0.000000
1.000000 0.000000 0.000000
1.000000 0.000000 0.000000
-1.000000 -0.000000 0.000000
-1.000000 -0.000000 0.000000
-1.000000 -0.000000 0.000000
-1.000000 -0.000000 0.000000
-1.000000 -0.000000 0.000000
-1.000000 -0.000000 0.000000
-1.000000 -0.000000 0.000000
-1.000000 -0.000000 0.000000
-1.000000 -0.000000 0.000000
-1.000000 -0.000000 0.000000
-1.000000 -0.000000 0.000000
-1.000000 -0.000000 0.000000
1.000000 0.000000 0.000000
1.000000 0.000000 0.000000
1.000000 0.000000 0.000000
1.000000 0.000000 0.000000
1.000000 0.000000 0.000000
1.000000 0.000000 0.000000
-0.000520 -0.000001 -1.000000
-0.000465 0.221129 -0.975244
-0.000520 -0.000001 -1.000000
-0.000465 0.221129 -0.975244
-0.000520 -0.000001 -1.000000
-0.000465 0.221129 -0.975244
1.000000 0.000000 0.000000
1.000000 0.000000 0.000000
1.000000 0.000000 0.000000
1.000000 0.000000 0.000000
1.000000 0.000000 0.000000
1.000000 0.000000 0.000000
-0.000066 0.985205 -0.171379
-0.000048 0.985210 0.171349
0.000001 1.000000 -0.000038
-0.000048 0.985210 0.171349
-0.000066 0.985205 -0.171379
-0.000048 0.985210 0.171349
-0.000048 0.985210 0.171349
-0.000066 0.985205 -0.171379
-0.000066 0.985205 -0.171379
-0.000262 0.742130 0.670255
-0.000048 0.985210 0.171349
-0.000262 0.742130 0.670255
-0.000048 0.985210 0.171349
-0.000262 0.742130 0.670255
-0.000048 0.985210 0.171349
-0.000467 0.221218 0.975224
-0.000467 0.221218 0.975224
-0.000262 0.742130 0.670255
-0.000262 0.742130 0.670255
-0.000262 0.742130 0.670255
-0.000467 0.221218 0.975224
-0.000467 0.221218 0.975224
-0.000523 0.000001 1.000000
-0.000467 0.221218 0.975224
-0.000467 0.221218 0.975224
-0.000523 0.000001 1.000000
-0.000523 0.000001 1.000000
-0.000334 0.742145 -0.670239
-0.000548 0.221231 -0.975221
-0.000548 0.221231 -0.975221
-0.000548 0.221231 -0.975221
-0.000334 0.742145 -0.670239
-0.000334 0.742145 -0.670239
-0.000066 0.985205 -0.171379
-0.000334 0.742145 -0.670239
-0.000334 0.742145 -0.670239
-0.000334 0.742145 -0.670239
-0.000066 0.985205 -0.171379
-0.000066 0.985205 -0.171379
-0.000048 0.985195 -0.171436
-0.000048 0.985195 -0.171436
-0.000065 0.985200 0.171410
-0.000065 0.985200 0.171410
-0.000048 0.985195 -0.171436
0.000002 1.000000 -0.000033
-0.000048 0.985195 -0.171436
-0.000065 0.985200 0.171410
-0.000065 0.985200 0.171410
-0.000262 0.742034 -0.670362
-0.000262 0.742034 -0.670362
-0.000465 0.221129 -0.975244
-0.000465 0.221129 -0.975244
-0.000465 0.221129 -0.975244
-0.000262 0.742034 -0.670362
-0.000048 0.985195 -0.171436
-0.000048 0.985195 -0.171436
-0.000262 0.742034 -0.670362
-0.000262 0.742034 -0.670362
-0.000048 0.985195 -0.171436
-0.000262 0.742034 -0.670362
-0.000065 0.985200 0.171410
-0.000331 0.742021 0.670376
-0.000331 0.742021 0.670376
-0.000331 0.742021 0.670376
-0.000065 0.985200 0.171410
-0.000065 0.985200 0.171410
-0.000544 0.221117 0.975247
-0.000331 0.742021 0.670376
-0.000331 0.742021 0.670376
-0.000331 0.742021 0.670376
-0.000544 0.221117 0.975247
-0.000544 0.221117 0.975247
-0.000544 0.221117 0.975247
-0.000578 0.000001 1.000000
-0.000578 0.000001 1.000000
-0.000578 0.000001 1.000000
-0.000544 0.221117 0.975247
-0.000544 0.221117 0.975247
-0.000582 -0.000001 -1.000000
-0.000548 0.221231 -0.975221
-0.000582 -0.000001 -1.000000
-0.000548 0.221231 -0.975221
-0.000582 -0.000001 -1.000000
-0.000548 0.221231 -0.975221
-0.000000 0.000000 -1.000000
-0.000000 0.000000 -1.000000
-0.000000 0.000000 -1.000000
-0.000000 0.000000 -1.000000
-0.000000 0.000000 -1.000000
-0.000000 0.000000 -1.000000
-0.000000 0.000000 -1.000000
-0.000000 0.000000 -1.000000
-0.000000 0.000000 -1.000000
-0.000000 0.000000 -1.000000
-0.000000 0.000000 -1.000000
-0.000000 0.000000 -1.000000
</float_array>
          <technique_common>
            <accessor source="#floor_lip_railpost-Normal0-array" count="450" stride="3">
              <param name="X" type="float"/>
              <param name="Y" type="float"/>
              <param name="Z" type="float"/>
            </accessor>
          </technique_common>
        </source>
        <source id="floor_lip_railpost-UV0">
          <float_array id="floor_lip_railpost-UV0-array" count="352">
0.016872 0.695248
0.020413 0.677040
0.020412 0.728924
0.016872 0.710990
0.020415 0.729323
0.016875 0.711451
0.028961 0.668028
0.028961 0.737011
0.028964 0.737011
-0.034742 0.737011
-0.034742 0.720757
-0.023814 0.716640
-0.023814 0.737011
0.001141 0.702100
-0.006626 0.697511
-0.006626 0.667793
0.008870 0.667793
0.008870 0.697548
0.026058 0.667793
0.026058 0.687608
0.036986 0.667793
0.036986 0.683491
-0.034742 0.667793
-0.023814 0.667793
-0.023814 0.687571
-0.034742 0.683454
0.008870 0.737011
-0.006626 0.737011
-0.006626 0.706700
0.008870 0.706663
0.026058 0.716603
0.026058 0.737011
0.036986 0.720720
0.036986 0.737011
0.016872 0.695248
0.020413 0.677040
0.020412 0.728924
0.016872 0.710990
0.020415 0.729323
0.016875 0.711451
0.016875 0.695709
0.020415 0.677439
0.028961 0.668028
0.028961 0.737011
0.028964 0.737011
0.028963 0.668182
0.001138 0.702104
-0.006626 0.697511
-0.006626 0.667793
0.008870 0.667793
0.008870 0.697548
0.026058 0.667793
0.026058 0.687608
0.036986 0.667793
0.036986 0.683491
-0.034742 0.667793
-0.023814 0.667793
-0.023814 0.687571
-0.034742 0.683454
0.008870 0.737011
-0.006626 0.737011
-0.006626 0.706700
0.008870 0.706663
-0.034742 0.720757
-0.023814 0.716640
-0.023814 0.737011
-0.034742 0.737011
0.026058 0.716603
0.026058 0.737011
0.036986 0.720720
0.036986 0.737011
0.016875 0.695709
0.020415 0.677439
0.028963 0.668182
0.016872 0.695248
0.020413 0.677040
0.020412 0.728924
0.016872 0.710990
0.020415 0.729323
0.016875 0.711451
0.016875 0.703580
0.020415 0.703381
0.028961 0.668028
0.028961 0.737011
0.028964 0.737011
0.028963 0.702597
1.097414 0.667211
1.097414 0.737011
-0.034742 0.737011
-1.086534 0.737011
-1.086534 0.720757
-0.034742 0.720757
-0.023814 0.716640
-0.023814 0.737011
1.097417 0.667211
1.097417 0.737011
0.028963 0.668182
0.001141 0.702100
-0.006626 0.697511
-0.006626 0.667793
0.008870 0.667793
0.008870 0.697548
0.026058 0.667793
0.026058 0.687608
0.036986 0.667793
0.036986 0.683491
1.088782 0.667794
1.088782 0.683492
-0.034742 0.667793
-0.023814 0.667793
-0.023814 0.687571
-0.034742 0.683454
0.008870 0.737011
0.001122 0.737011
-0.006626 0.737011
-0.006626 0.706700
0.008870 0.706663
0.026058 0.716603
0.026058 0.737011
0.036986 0.720720
0.036986 0.737011
1.088782 0.720721
1.088782 0.737011
-1.086534 0.683454
-1.086534 0.667793
0.016872 0.695248
0.020413 0.677040
0.020412 0.728924
0.016872 0.710990
0.020415 0.729323
0.016875 0.711451
0.016875 0.695709
0.020415 0.677439
0.028961 0.668028
1.097414 0.667211
1.097414 0.737011
0.028961 0.737011
0.028964 0.737011
0.028963 0.668182
-1.086534 0.737011
-1.086534 0.720757
-0.034742 0.720757
-0.034742 0.737011
1.097417 0.737011
1.097417 0.667211
0.001138 0.702104
-0.006626 0.697511
-0.006626 0.667793
0.008870 0.667793
0.008870 0.697548
0.026058 0.667793
0.026058 0.687608
0.036986 0.667793
0.036986 0.683491
1.088782 0.667794
1.088782 0.683492
-0.034742 0.667793
-0.023814 0.667793
-0.023814 0.687571
-0.034742 0.683454
0.008870 0.737011
-0.006626 0.737011
-0.006626 0.706700
0.008870 0.706663
-0.023814 0.716640
-0.023814 0.737011
0.026058 0.716603
0.026058 0.737011
0.036986 0.720720
0.036986 0.737011
1.088782 0.720721
1.088782 0.737011
-1.086534 0.683454
-1.086534 0.667793
0.016875 0.695709
0.020415 0.677439
</float_array>
          <technique_common>
            <accessor source="#floor_lip_railpost-UV0-array" count="176" stride="2">
              <param name="S" type="float"/>
              <param name="T" type="float"/>
            </accessor>
          </technique_common>
        </source>
        <vertices id="floor_lip_railpost-VERTEX">
          <input semantic="POSITION" source="#floor_lip_railpost-POSITION"/>
        </vertices>
        <triangles count="150" material="engineroom_floor_02_tesla_wires">
          <input semantic="VERTEX" offset="0" source="#floor_lip_railpost-VERTEX"/>
          <input semantic="NORMAL" offset="1" source="#floor_lip_railpost-Normal0"/>
          <input semantic="TEXCOORD" offset="2" set="0" source="#floor_lip_railpost-UV0"/>
          <p> 1 0 1 2 1 2 0 2 0 0 3 0 2 4 2 3 5 3 5 6 5 22 7 72 4 8 4 22 9 72 5 10 5 18 11 71 6 12 6 7 13 7 1 14 1 1 15 1 7 16 7 2 17 2 24 18 73 8 19 8 4 20 4 24 21 73 4 22 4 22 23 72 4 24 12 9 25 10 10 26 11 9 27 10 4 28 12 8 29 9 3 30 16 12 31 14 0 32 15 12 33 14 13 34 17 11 35 13 13 36 17 12 37 14 3 38 16 13 39 17 3 40 16 14 41 19 14 42 19 3 43 16 2 44 18 14 45 19 2 46 18 15 47 21 15 48 21 2 49 18 7 50 20 17 51 25 1 52 23 16 53 24 1 54 23 17 55 25 6 56 22 0 57 15 16 58 24 1 59 23 16 60 24 0 61 15 12 62 14 5 63 27 19 64 28 18 65 26 20 66 29 19 67 28 11 68 13 19 69 28 20 70 29 18 71 26 5 72 27 10 73 11 19 74 28 5 75 27 4 76 12 10 77 11 18 78 26 21 79 30 22 80 31 21 81 30 18 82 26 20 83 29 22 84 31 23 85 32 24 86 33 23 87 32 22 88 31 21 89 30 26 90 35 27 91 36 25 92 34 25 93 34 27 94 36 28 95 37 30 96 39 32 97 41 29 98 38 32 99 41 30 100 39 31 101 40 33 102 42 34 103 43 26 104 35 26 105 35 34 106 43 27 107 36 29 108 38 36 109 45 35 110 44 36 111 45 29 112 38 32 113 41 28 114 49 19 115 47 25 116 48 19 117 47 12 118 50 11 119 46 12 120 50 19 121 47 28 122 49 27 123 51 16 124 52 28 125 49 12 126 50 28 127 49 16 128 52 34 129 53 17 130 54 27 131 51 16 132 52 27 133 51 17 134 54 26 135 56 9 136 58 33 137 55 9 138 58 26 139 56 10 140 57 25 141 48 10 142 57 26 143 56 10 144 57 25 145 48 19 146 47 20 147 61 31 148 59 30 149 60 20 150 61 13 151 62 31 152 59 13 153 62 20 154 61 11 155 46 21 156 64 29 157 65 23 158 63 35 159 66 23 160 63 29 161 65 20 162 61 30 163 60 21 164 64 29 165 65 21 166 64 30 167 60 14 168 67 31 169 59 13 170 62 31 171 59 14 172 67 32 173 68 15 174 69 32 175 68 14 176 67 32 177 68 15 178 69 36 179 70 37 180 75 38 181 76 40 182 74 40 183 74 38 184 76 39 185 77 75 186 81 44 187 78 41 188 79 75 189 81 41 190 79 74 191 80 47 192 82 45 193 83 37 194 75 37 195 75 45 196 83 38 197 76 44 198 78 76 199 85 48 200 84 76 201 85 44 202 78 75 203 81 24 204 87 45 205 83 47 206 82 47 207 82 8 208 86 24 209 87 55 210 92 44 211 93 54 212 91 54 213 91 6 214 89 17 215 90 6 216 89 54 217 91 48 218 88 44 219 93 48 220 88 54 221 91 6 222 95 76 223 85 7 224 94 76 225 85 6 226 95 48 227 84 7 228 94 76 229 85 46 230 96 39 231 100 59 232 98 40 233 99 50 234 101 59 235 98 39 236 100 59 237 98 50 238 101 49 239 97 38 240 102 52 241 103 39 242 100 50 243 101 39 244 100 52 245 103 45 246 104 53 247 105 38 248 102 52 249 103 38 250 102 53 251 105 23 252 107 45 253 104 24 254 106 45 255 104 23 256 107 53 257 105 37 258 109 58 259 111 47 260 108 58 261 111 37 262 109 57 263 110 40 264 99 57 265 110 37 266 109 57 267 110 40 268 99 59 269 98 51 270 115 74 271 113 41 272 114 60 273 116 42 274 112 74 275 113 74 276 113 51 277 115 60 278 116 60 279 116 51 280 115 49 281 97 51 282 115 41 283 114 55 284 92 55 285 92 41 286 114 44 287 93 42 288 112 61 289 117 43 290 118 61 291 117 42 292 112 60 293 116 56 294 119 43 295 118 61 296 117 43 297 118 56 298 119 46 299 120 56 300 119 15 301 121 7 302 122 56 303 119 7 304 122 46 305 120 47 306 108 9 307 123 8 308 124 9 309 123 47 310 108 58 311 111 62 312 126 63 313 127 65 314 125 65 315 125 63 316 127 64 317 128 68 318 132 66 319 130 67 320 131 66 321 130 68 322 132 69 323 129 70 324 136 62 325 126 72 326 133 62 327 126 70 328 136 63 329 127 70 330 136 72 331 133 33 332 135 33 333 135 72 334 133 34 335 134 71 336 138 69 337 129 68 338 132 69 339 129 71 340 138 73 341 137 15 342 140 73 343 142 36 344 139 73 345 142 15 346 140 56 347 141 35 348 144 73 349 137 71 350 138 73 351 137 35 352 144 36 353 143 51 354 146 59 355 149 49 356 145 59 357 149 51 358 146 64 359 148 64 360 148 51 361 146 65 362 147 57 363 151 64 364 148 63 365 150 64 366 148 57 367 151 59 368 149 70 369 152 58 370 153 63 371 150 57 372 151 63 373 150 58 374 153 70 375 152 33 376 154 58 377 153 58 378 153 33 379 154 9 380 155 62 381 157 54 382 159 72 383 156 54 384 159 62 385 157 55 386 158 65 387 147 55 388 158 62 389 157 55 390 158 65 391 147 51 392 146 66 393 161 60 394 162 67 395 160 50 396 163 60 397 162 49 398 145 60 399 162 50 400 163 67 401 160 61 402 164 69 403 165 56 404 141 73 405 142 56 406 141 69 407 165 60 408 162 66 409 161 61 410 164 61 411 164 66 412 161 69 413 165 67 414 160 52 415 166 68 416 167 52 417 166 67 418 160 50 419 163 53 420 168 68 421 167 52 422 166 68 423 167 53 424 168 71 425 169 71 426 169 23 427 170 35 428 171 23 429 170 71 430 169 53 431 168 34 432 173 54 433 159 17 434 172 54 435 159 34 436 173 72 437 156 43 438 175 75 439 81 42 440 174 75 441 81 74 442 80 42 443 174 46 444 96 76 445 85 43 446 175 76 447 85 75 448 81 43 449 175</p>
        </triangles>
      </mesh>
    </geometry>
  </library_geometries>
  <library_visual_scenes>
    <visual_scene id="" name="">
      <node name="floor_lip_railpost" id="floor_lip_railpost" sid="floor_lip_railpost">
        <matrix sid="matrix">1.000000 0.000000 0.000000 0.000000 0.000000 1.000000 0.000000 0.000000 0.000000 0.000000 1.000000 -0.000000 0.000000 0.000000 0.000000 1.000000</matrix>
        <instance_geometry url="#floor_lip_railpost-lib">
          <bind_material>
            <technique_common>
              <instance_material symbol="engineroom_floor_02_tesla_wires" target="#engineroom_floor_02_tesla_wires"/>
            </technique_common>
          </bind_material>
        </instance_geometry>
        <extra>
          <technique profile="FCOLLADA">
            <visibility>1.000000</visibility>
          </technique>
        </extra>
      </node>
      <extra>
        <technique profile="MAX3D">
          <frame_rate>24.000000</frame_rate>
        </technique>
        <technique profile="FCOLLADA">
          <start_time>0.041667</start_time>
          <end_time>2.000000</end_time>
        </technique>
      </extra>
    </visual_scene>
  </library_visual_scenes>
  <scene>
    <instance_visual_scene url="#"></instance_visual_scene>
  </scene>
</COLLADA>

