<?xml version="1.0" encoding="utf-8"?>
<COLLADA xmlns="http://www.collada.org/2005/11/COLLADASchema" version="1.4.1">
  <asset>
    <contributor>
      <author></author>
      <authoring_tool>FBX COLLADA exporter</authoring_tool>
      <comments></comments>
    </contributor>
    <created>2012-08-08T15:30:03Z</created>
    <keywords></keywords>
    <modified>2012-08-08T15:30:03Z</modified>
    <revision></revision>
    <subject></subject>
    <title></title>
    <unit meter="1.000000" name="centimeter"></unit>
    <up_axis>Y_UP</up_axis>
  </asset>
  <library_images>
    <image id="Map #25-image" name="Map #25">
      <init_from>file://C:\Users\WesleyTack\Desktop\amnesia_raw\StaticObjects\engineroom\structure\engineroom_floor_01_trans.tga</init_from>
    </image>
    <image id="Map #24-image" name="Map #24">
      <init_from>file://C:\Users\WesleyTack\Desktop\amnesia_raw\StaticObjects\engineroom\structure\engineroom_atlas_01.jpg</init_from>
    </image>
  </library_images>
  <library_materials>
    <material id="engineroom_floor_02SG" name="engineroom_floor_02SG">
      <instance_effect url="#engineroom_floor_02SG-fx"/>
    </material>
    <material id="blinn2SG" name="blinn2SG">
      <instance_effect url="#blinn2SG-fx"/>
    </material>
  </library_materials>
  <library_effects>
    <effect id="engineroom_floor_02SG-fx" name="engineroom_floor_02SG">
      <profile_COMMON>
        <technique sid="standard">
          <phong>
            <emission>
              <color sid="emission">0.000000  0.000000 0.000000 1.000000</color>
            </emission>
            <ambient>
              <color sid="ambient">0.000000  0.000000 0.000000 1.000000</color>
            </ambient>
            <diffuse>
              <texture texture="Map #25-image" texcoord="CHANNEL0">
                <extra>
                  <technique profile="MAYA">
                    <wrapU sid="wrapU0">TRUE</wrapU>
                    <wrapV sid="wrapV0">TRUE</wrapV>
                    <blend_mode>ADD</blend_mode>
                  </technique>
                </extra>
              </texture>
            </diffuse>
            <specular>
              <color sid="specular">0.500000  0.500000 0.500000 1.000000</color>
            </specular>
            <shininess>
              <float sid="shininess">8.000001</float>
            </shininess>
            <reflective>
              <color sid="reflective">0.000000  0.000000 0.000000 1.000000</color>
            </reflective>
            <reflectivity>
              <float sid="reflectivity">1.000000</float>
            </reflectivity>
            <transparent opaque="RGB_ZERO">
              <color sid="transparent">1.000000  1.000000 1.000000 1.000000</color>
            </transparent>
            <transparency>
              <float sid="transparency">0.000000</float>
            </transparency>
          </phong>
        </technique>
      </profile_COMMON>
    </effect>
    <effect id="blinn2SG-fx" name="blinn2SG">
      <profile_COMMON>
        <technique sid="standard">
          <phong>
            <emission>
              <color sid="emission">0.000000  0.000000 0.000000 1.000000</color>
            </emission>
            <ambient>
              <color sid="ambient">0.000000  0.000000 0.000000 1.000000</color>
            </ambient>
            <diffuse>
              <texture texture="Map #24-image" texcoord="CHANNEL0">
                <extra>
                  <technique profile="MAYA">
                    <wrapU sid="wrapU0">TRUE</wrapU>
                    <wrapV sid="wrapV0">TRUE</wrapV>
                    <blend_mode>ADD</blend_mode>
                  </technique>
                </extra>
              </texture>
            </diffuse>
            <specular>
              <color sid="specular">0.000000  0.000000 0.000000 1.000000</color>
            </specular>
            <shininess>
              <float sid="shininess">8.000001</float>
            </shininess>
            <reflective>
              <color sid="reflective">0.000000  0.000000 0.000000 1.000000</color>
            </reflective>
            <reflectivity>
              <float sid="reflectivity">1.000000</float>
            </reflectivity>
            <transparent opaque="RGB_ZERO">
              <color sid="transparent">1.000000  1.000000 1.000000 1.000000</color>
            </transparent>
            <transparency>
              <float sid="transparency">0.000000</float>
            </transparency>
          </phong>
        </technique>
      </profile_COMMON>
    </effect>
  </library_effects>
  <library_geometries>
    <geometry id="engine_floor_006-lib" name="engine_floor_006Mesh">
      <mesh>
        <source id="engine_floor_006-POSITION">
          <float_array id="engine_floor_006-POSITION-array" count="12">
3.999999 -4.000000 0.000000
4.000000 0.000000 0.000000
0.000000 0.000001 0.000000
-0.000000 -3.999999 0.000000
</float_array>
          <technique_common>
            <accessor source="#engine_floor_006-POSITION-array" count="4" stride="3">
              <param name="X" type="float"/>
              <param name="Y" type="float"/>
              <param name="Z" type="float"/>
            </accessor>
          </technique_common>
        </source>
        <source id="engine_floor_006-Normal0">
          <float_array id="engine_floor_006-Normal0-array" count="18">
0.000000 0.000000 1.000000
0.000000 0.000000 1.000000
0.000000 0.000000 1.000000
0.000000 0.000000 1.000000
0.000000 0.000000 1.000000
0.000000 0.000000 1.000000
</float_array>
          <technique_common>
            <accessor source="#engine_floor_006-Normal0-array" count="6" stride="3">
              <param name="X" type="float"/>
              <param name="Y" type="float"/>
              <param name="Z" type="float"/>
            </accessor>
          </technique_common>
        </source>
        <source id="engine_floor_006-UV0">
          <float_array id="engine_floor_006-UV0-array" count="8">
0.000000 0.000000
1.000000 0.000000
1.000000 1.000000
0.000000 1.000000
</float_array>
          <technique_common>
            <accessor source="#engine_floor_006-UV0-array" count="4" stride="2">
              <param name="S" type="float"/>
              <param name="T" type="float"/>
            </accessor>
          </technique_common>
        </source>
        <vertices id="engine_floor_006-VERTEX">
          <input semantic="POSITION" source="#engine_floor_006-POSITION"/>
        </vertices>
        <triangles count="2" material="engineroom_floor_02SG">
          <input semantic="VERTEX" offset="0" source="#engine_floor_006-VERTEX"/>
          <input semantic="NORMAL" offset="1" source="#engine_floor_006-Normal0"/>
          <input semantic="TEXCOORD" offset="2" set="0" source="#engine_floor_006-UV0"/>
          <p> 2 0 2 3 1 3 0 2 0 0 3 0 1 4 1 2 5 2</p>
        </triangles>
      </mesh>
    </geometry>
    <geometry id="engine_floor_04_box001-lib" name="engine_floor_04_box001Mesh">
      <mesh>
        <source id="engine_floor_04_box001-POSITION">
          <float_array id="engine_floor_04_box001-POSITION-array" count="144">
3.804033 -0.968920 -1.561324
3.947405 -0.052594 -1.089890
3.981155 -0.018844 -1.073873
4.000000 0.000000 -1.043877
4.000000 0.000000 -0.538653
3.880740 -0.119259 -0.538653
3.880740 -0.119259 -0.496914
3.933335 -0.066665 -0.450901
3.933335 -0.066665 -0.091377
3.857021 -0.142978 -0.047567
3.857021 -0.142978 -0.026083
3.976280 -0.023719 -0.026083
3.804036 -3.031079 -1.561324
3.947406 -3.947406 -1.089890
3.981155 -3.981156 -1.073873
4.000000 -4.000000 -1.043877
4.000000 -4.000000 -0.538653
3.880741 -3.880741 -0.538653
3.880741 -3.880741 -0.496914
3.933335 -3.933335 -0.450901
3.933335 -3.933335 -0.091377
3.857021 -3.857022 -0.047567
3.857021 -3.857022 -0.026083
3.976282 -3.976281 -0.026083
0.195967 -3.031080 -1.561324
0.052595 -3.947406 -1.089890
0.018845 -3.981156 -1.073873
0.000000 -4.000000 -1.043877
0.000000 -4.000000 -0.538653
0.119260 -3.880741 -0.538653
0.119260 -3.880741 -0.496914
0.066665 -3.933335 -0.450901
0.066665 -3.933335 -0.091377
0.142979 -3.857022 -0.047567
0.142979 -3.857022 -0.026083
0.023719 -3.976281 -0.026083
0.195964 -0.968921 -1.561324
0.052594 -0.052594 -1.089890
0.018845 -0.018844 -1.073873
0.000000 0.000000 -1.043877
0.000000 0.000000 -0.538653
0.119259 -0.119259 -0.538653
0.119259 -0.119259 -0.496914
0.066665 -0.066665 -0.450901
0.066665 -0.066665 -0.091377
0.142979 -0.142978 -0.047567
0.142979 -0.142978 -0.026083
0.023718 -0.023719 -0.026083
</float_array>
          <technique_common>
            <accessor source="#engine_floor_04_box001-POSITION-array" count="48" stride="3">
              <param name="X" type="float"/>
              <param name="Y" type="float"/>
              <param name="Z" type="float"/>
            </accessor>
          </technique_common>
        </source>
        <source id="engine_floor_04_box001-Normal0">
          <float_array id="engine_floor_04_box001-Normal0-array" count="810">
0.000000 0.000000 1.000000
0.000000 0.000000 1.000000
0.000000 0.000000 1.000000
0.000000 0.000000 1.000000
0.000000 0.000000 1.000000
0.000000 0.000000 1.000000
-0.957234 0.000000 0.289313
-0.956573 0.000000 0.291493
-0.956573 0.000000 0.291493
-0.956573 0.000000 0.291493
-0.957034 0.000000 0.289974
-0.957234 0.000000 0.289313
-0.664807 0.000000 0.747015
-0.426600 0.000000 0.904440
-0.426600 0.000000 0.904440
-0.426600 0.000000 0.904440
-0.664807 0.000000 0.747015
-0.664807 0.000000 0.747015
-0.961164 0.000000 0.275978
-0.664807 0.000000 0.747015
-0.664807 0.000000 0.747015
-0.664807 0.000000 0.747015
-0.961164 0.000000 0.275978
-0.961164 0.000000 0.275978
-1.000000 0.000000 0.000000
-0.961164 0.000000 0.275978
-0.961164 0.000000 0.275978
-0.961164 0.000000 0.275978
-1.000000 0.000000 0.000000
-1.000000 0.000000 0.000000
0.000000 0.000000 -1.000000
0.000000 0.000000 -1.000000
0.000000 0.000000 -1.000000
0.000000 0.000000 -1.000000
0.000000 0.000000 -1.000000
0.000000 0.000000 -1.000000
-1.000000 0.000000 0.000000
-1.000000 0.000000 0.000000
-1.000000 0.000000 0.000000
-1.000000 0.000000 0.000000
-1.000000 0.000000 0.000000
-1.000000 0.000000 0.000000
-0.658420 0.000000 0.752651
-0.659768 0.000000 0.751469
-0.658420 0.000000 0.752651
-0.658420 0.000000 0.752651
-0.658420 0.000000 0.752651
-0.658420 0.000000 0.752651
-1.000000 0.000000 0.000000
-1.000000 0.000000 0.000000
-1.000000 0.000000 0.000000
-1.000000 0.000000 0.000000
-1.000000 0.000000 0.000000
-1.000000 0.000000 0.000000
-0.496284 0.000000 -0.868161
-0.496300 0.000000 -0.868151
-0.496300 0.000000 -0.868151
-0.496300 0.000000 -0.868151
-0.496284 0.000000 -0.868161
-0.496284 0.000000 -0.868161
-1.000000 0.000000 0.000000
-1.000000 0.000000 0.000000
-1.000000 0.000000 0.000000
-1.000000 0.000000 0.000000
-1.000000 0.000000 0.000000
-1.000000 0.000000 0.000000
0.000000 0.000000 1.000000
0.000000 0.000000 1.000000
0.000000 0.000000 1.000000
0.000000 0.000000 1.000000
0.000000 0.000000 1.000000
0.000000 0.000000 1.000000
0.000000 0.457671 0.889122
0.000000 0.457187 0.889371
0.000000 0.457187 0.889371
0.000000 0.457187 0.889371
0.000000 0.457671 0.889122
0.000000 0.457671 0.889122
0.000000 0.664807 0.747015
0.000000 0.426600 0.904440
0.000000 0.426600 0.904440
0.000000 0.426600 0.904440
0.000000 0.664807 0.747015
0.000000 0.664807 0.747015
0.000000 0.961164 0.275978
0.000000 0.664807 0.747015
0.000000 0.664807 0.747015
0.000000 0.664807 0.747015
0.000000 0.961164 0.275978
0.000000 0.961164 0.275978
0.000000 1.000000 0.000000
0.000000 0.961164 0.275978
0.000000 0.961164 0.275978
0.000000 0.961164 0.275978
0.000000 1.000000 0.000000
0.000000 1.000000 0.000000
0.000000 0.000000 -1.000000
0.000000 0.000000 -1.000000
0.000000 0.000000 -1.000000
0.000000 0.000000 -1.000000
0.000000 0.000000 -1.000000
0.000000 0.000000 -1.000000
0.000000 1.000000 0.000000
0.000000 1.000000 0.000000
0.000000 1.000000 0.000000
0.000000 1.000000 0.000000
0.000000 1.000000 0.000000
0.000000 1.000000 0.000000
0.000000 0.658420 0.752651
0.000000 0.658420 0.752651
0.000000 0.658420 0.752651
0.000000 0.658420 0.752651
0.000000 0.658420 0.752651
0.000000 0.658420 0.752651
0.000000 1.000000 0.000000
0.000000 1.000000 0.000000
0.000000 1.000000 0.000000
0.000000 1.000000 0.000000
0.000000 1.000000 0.000000
0.000000 1.000000 0.000000
0.000000 0.498079 -0.867132
0.000000 0.496300 -0.868151
0.000000 0.496300 -0.868151
0.000000 0.496300 -0.868151
0.000000 0.498079 -0.867132
0.000000 0.498079 -0.867132
0.000000 1.000000 0.000000
0.000000 1.000000 0.000000
0.000000 1.000000 0.000000
0.000000 1.000000 0.000000
0.000000 1.000000 0.000000
0.000000 1.000000 0.000000
0.000000 0.000000 1.000000
0.000000 0.000000 1.000000
0.000000 0.000000 1.000000
0.000000 0.000000 1.000000
0.000000 0.000000 1.000000
0.000000 0.000000 1.000000
0.956766 0.000000 0.290859
0.956408 0.000000 0.292033
0.956408 0.000000 0.292033
0.956408 0.000000 0.292033
0.956769 0.000000 0.290849
0.956766 0.000000 0.290859
0.664204 0.000000 0.747551
0.428735 0.000000 0.903430
0.428735 0.000000 0.903430
0.428735 0.000000 0.903430
0.664204 0.000000 0.747551
0.664204 0.000000 0.747551
0.960987 0.000000 0.276595
0.664204 0.000000 0.747551
0.664204 0.000000 0.747551
0.664204 0.000000 0.747551
0.960987 0.000000 0.276595
0.960987 0.000000 0.276595
1.000000 0.000000 0.000000
0.960987 0.000000 0.276595
0.960987 0.000000 0.276595
0.960987 0.000000 0.276595
1.000000 0.000000 0.000000
1.000000 0.000000 0.000000
0.000000 0.000000 -1.000000
0.000000 0.000000 -1.000000
0.000000 0.000000 -1.000000
0.000000 0.000000 -1.000000
0.000000 0.000000 -1.000000
0.000000 0.000000 -1.000000
1.000000 0.000000 0.000000
1.000000 0.000000 0.000000
1.000000 0.000000 0.000000
1.000000 0.000000 0.000000
1.000000 0.000000 0.000000
1.000000 0.000000 0.000000
0.658484 0.000000 0.752595
0.658484 0.000000 0.752595
0.658484 0.000000 0.752595
0.658484 0.000000 0.752595
0.658484 0.000000 0.752595
0.658484 0.000000 0.752595
1.000000 0.000000 0.000000
1.000000 0.000000 0.000000
1.000000 0.000000 0.000000
1.000000 0.000000 0.000000
1.000000 0.000000 0.000000
1.000000 0.000000 0.000000
0.497855 0.000000 -0.867260
0.497855 0.000000 -0.867260
0.497855 0.000000 -0.867260
0.497855 0.000000 -0.867260
0.497855 0.000000 -0.867260
0.497855 0.000000 -0.867260
1.000000 0.000000 0.000000
1.000000 0.000000 0.000000
1.000000 0.000000 0.000000
1.000000 0.000000 0.000000
1.000000 0.000000 0.000000
1.000000 0.000000 0.000000
0.000000 0.000000 1.000000
0.000000 0.000000 1.000000
0.000000 0.000000 1.000000
0.000000 0.000000 1.000000
0.000000 0.000000 1.000000
0.000000 0.000000 1.000000
0.000000 -0.457259 0.889334
0.000000 -0.457187 0.889371
0.000000 -0.457187 0.889371
0.000000 -0.457187 0.889371
0.000000 -0.457229 0.889349
0.000000 -0.457259 0.889334
0.000000 -0.664215 0.747542
0.000000 -0.428735 0.903430
0.000000 -0.428735 0.903430
0.000000 -0.428735 0.903430
0.000000 -0.664215 0.747542
0.000000 -0.664215 0.747542
0.000000 -0.960987 0.276595
0.000000 -0.664215 0.747542
0.000000 -0.664215 0.747542
0.000000 -0.664215 0.747542
0.000000 -0.960987 0.276595
0.000000 -0.960987 0.276595
0.000000 -1.000000 0.000000
0.000000 -0.960987 0.276595
0.000000 -0.960987 0.276595
0.000000 -0.960987 0.276595
0.000000 -1.000000 0.000000
0.000000 -1.000000 0.000000
0.000000 0.000000 -1.000000
0.000000 0.000000 -1.000000
0.000000 0.000000 -1.000000
0.000000 0.000000 -1.000000
0.000000 0.000000 -1.000000
0.000000 0.000000 -1.000000
0.000000 -1.000000 0.000000
0.000000 -1.000000 0.000000
0.000000 -1.000000 0.000000
0.000000 -1.000000 0.000000
0.000000 -1.000000 0.000000
0.000000 -1.000000 0.000000
0.000000 -0.658526 0.752558
0.000000 -0.658484 0.752595
0.000000 -0.658484 0.752595
0.000000 -0.658484 0.752595
0.000000 -0.658526 0.752558
0.000000 -0.658526 0.752558
0.000000 -1.000000 0.000000
0.000000 -1.000000 0.000000
0.000000 -1.000000 0.000000
0.000000 -1.000000 0.000000
0.000000 -1.000000 0.000000
0.000000 -1.000000 0.000000
0.000000 -0.497967 -0.867196
0.000000 -0.497855 -0.867260
0.000000 -0.497911 -0.867228
0.000000 -0.497911 -0.867228
0.000000 -0.497967 -0.867196
0.000000 -0.497967 -0.867196
0.000000 -1.000000 0.000000
0.000000 -1.000000 0.000000
0.000000 -1.000000 0.000000
0.000000 -1.000000 0.000000
0.000000 -1.000000 0.000000
0.000000 -1.000000 0.000000
0.000000 0.000000 1.000000
0.000000 0.000000 1.000000
0.000000 0.000000 1.000000
0.000000 0.000000 1.000000
0.000000 0.000000 1.000000
0.000000 0.000000 1.000000
</float_array>
          <technique_common>
            <accessor source="#engine_floor_04_box001-Normal0-array" count="270" stride="3">
              <param name="X" type="float"/>
              <param name="Y" type="float"/>
              <param name="Z" type="float"/>
            </accessor>
          </technique_common>
        </source>
        <source id="engine_floor_04_box001-UV0">
          <float_array id="engine_floor_04_box001-UV0-array" count="296">
0.235482 0.070548
0.092367 0.173468
0.092367 0.173468
0.085309 0.181625
0.085309 0.181625
0.081369 0.189345
0.081369 0.189345
0.081369 0.297223
0.081369 0.297223
0.106308 0.334672
0.153478 0.610705
0.153478 0.618460
0.143777 0.629205
0.143777 0.702259
0.157853 0.712506
0.157851 0.716796
0.887940 0.334672
0.912879 0.297223
0.763740 0.070548
0.906841 0.173468
0.906841 0.173468
0.913899 0.181625
0.913899 0.181625
0.917839 0.189345
0.917839 0.189345
0.917839 0.297223
0.917839 0.297223
0.892900 0.334672
0.847304 0.610705
0.847304 0.618460
0.857005 0.629205
0.857006 0.702259
0.842929 0.712506
0.842927 0.716796
0.111268 0.334672
0.086329 0.297223
0.912879 0.297223
0.887940 0.334672
0.111268 0.334672
0.086329 0.297223
0.896643 0.070543
0.901028 0.173468
0.098180 0.173468
0.102567 0.070543
0.906841 0.173468
0.913899 0.181625
0.085309 0.181625
0.092367 0.173468
0.913899 0.181625
0.917839 0.189345
0.081369 0.189345
0.085309 0.181625
0.917839 0.189345
0.917839 0.297223
0.081369 0.297223
0.081369 0.189345
0.917839 0.297223
0.892900 0.334672
0.106308 0.334672
0.081369 0.297223
0.847304 0.610705
0.847304 0.618460
0.153478 0.618460
0.153478 0.610705
0.857005 0.629205
0.143777 0.629205
0.857006 0.702259
0.143777 0.702259
0.842929 0.712506
0.157853 0.712506
0.842929 0.716808
0.157853 0.716808
0.912879 0.297223
0.887940 0.334672
0.111268 0.334672
0.086329 0.297223
0.763726 0.070540
0.906841 0.173468
0.092367 0.173468
0.235468 0.070540
0.906841 0.173468
0.913899 0.181625
0.085309 0.181625
0.092367 0.173468
0.913899 0.181625
0.917839 0.189345
0.081369 0.189345
0.085309 0.181625
0.917839 0.189345
0.917839 0.297223
0.081369 0.297223
0.081369 0.189345
0.917839 0.297223
0.892900 0.334672
0.106308 0.334672
0.081369 0.297223
0.847304 0.610705
0.847304 0.618460
0.153478 0.618460
0.153478 0.610705
0.857005 0.629205
0.143777 0.629205
0.857006 0.702259
0.143777 0.702259
0.842929 0.712506
0.157853 0.712506
0.842940 0.716794
0.157864 0.716794
0.912879 0.297223
0.887940 0.334672
0.111268 0.334672
0.086329 0.297223
0.896642 0.070543
0.901028 0.173468
0.098180 0.173468
0.102566 0.070543
0.906841 0.173468
0.913899 0.181625
0.085309 0.181625
0.092367 0.173468
0.913899 0.181625
0.917839 0.189345
0.081369 0.189345
0.085309 0.181625
0.917839 0.189345
0.917839 0.297223
0.081369 0.297223
0.081369 0.189345
0.917839 0.297223
0.892900 0.334672
0.106308 0.334672
0.081369 0.297223
0.847304 0.610705
0.847304 0.618460
0.153478 0.618460
0.153478 0.610705
0.857005 0.629205
0.143777 0.629205
0.857006 0.702259
0.143777 0.702259
0.842929 0.712506
0.157853 0.712506
0.842929 0.716808
0.157853 0.716808
0.501623 0.614950
0.000745 0.614950
0.000745 0.333388
0.501624 0.333388
</float_array>
          <technique_common>
            <accessor source="#engine_floor_04_box001-UV0-array" count="148" stride="2">
              <param name="S" type="float"/>
              <param name="T" type="float"/>
            </accessor>
          </technique_common>
        </source>
        <vertices id="engine_floor_04_box001-VERTEX">
          <input semantic="POSITION" source="#engine_floor_04_box001-POSITION"/>
        </vertices>
        <triangles count="90" material="blinn2SG">
          <input semantic="VERTEX" offset="0" source="#engine_floor_04_box001-VERTEX"/>
          <input semantic="NORMAL" offset="1" source="#engine_floor_04_box001-Normal0"/>
          <input semantic="TEXCOORD" offset="2" set="0" source="#engine_floor_04_box001-UV0"/>
          <p> 22 0 34 23 1 35 11 2 17 11 3 17 10 4 16 22 5 34 1 6 1 0 7 0 12 8 18 12 9 18 13 10 19 1 11 1 2 12 3 1 13 2 13 14 20 13 15 20 14 16 21 2 17 3 3 18 5 2 19 4 14 20 22 14 21 22 15 22 23 3 23 5 4 24 7 3 25 6 15 26 24 15 27 24 16 28 25 4 29 7 5 30 9 4 31 8 16 32 26 16 33 26 17 34 27 5 35 9 6 36 11 5 37 10 17 38 28 17 39 28 18 40 29 6 41 11 7 42 12 6 43 11 18 44 29 18 45 29 19 46 30 7 47 12 8 48 13 7 49 12 19 50 30 19 51 30 20 52 31 8 53 13 9 54 14 8 55 13 20 56 31 20 57 31 21 58 32 9 59 14 10 60 15 9 61 14 21 62 32 21 63 32 22 64 33 10 65 15 34 66 38 35 67 39 23 68 36 23 69 36 22 70 37 34 71 38 13 72 42 12 73 43 24 74 40 24 75 40 25 76 41 13 77 42 14 78 46 13 79 47 25 80 44 25 81 44 26 82 45 14 83 46 15 84 50 14 85 51 26 86 48 26 87 48 27 88 49 15 89 50 16 90 54 15 91 55 27 92 52 27 93 52 28 94 53 16 95 54 17 96 58 16 97 59 28 98 56 28 99 56 29 100 57 17 101 58 18 102 62 17 103 63 29 104 60 29 105 60 30 106 61 18 107 62 19 108 65 18 109 62 30 110 61 30 111 61 31 112 64 19 113 65 20 114 67 19 115 65 31 116 64 31 117 64 32 118 66 20 119 67 21 120 69 20 121 67 32 122 66 32 123 66 33 124 68 21 125 69 22 126 71 21 127 69 33 128 68 33 129 68 34 130 70 22 131 71 46 132 74 47 133 75 35 134 72 35 135 72 34 136 73 46 137 74 25 138 78 24 139 79 36 140 76 36 141 76 37 142 77 25 143 78 26 144 82 25 145 83 37 146 80 37 147 80 38 148 81 26 149 82 27 150 86 26 151 87 38 152 84 38 153 84 39 154 85 27 155 86 28 156 90 27 157 91 39 158 88 39 159 88 40 160 89 28 161 90 29 162 94 28 163 95 40 164 92 40 165 92 41 166 93 29 167 94 30 168 98 29 169 99 41 170 96 41 171 96 42 172 97 30 173 98 31 174 101 30 175 98 42 176 97 42 177 97 43 178 100 31 179 101 32 180 103 31 181 101 43 182 100 43 183 100 44 184 102 32 185 103 33 186 105 32 187 103 44 188 102 44 189 102 45 190 104 33 191 105 34 192 107 33 193 105 45 194 104 45 195 104 46 196 106 34 197 107 10 198 110 11 199 111 47 200 108 47 201 108 46 202 109 10 203 110 37 204 114 36 205 115 0 206 112 0 207 112 1 208 113 37 209 114 38 210 118 37 211 119 1 212 116 1 213 116 2 214 117 38 215 118 39 216 122 38 217 123 2 218 120 2 219 120 3 220 121 39 221 122 40 222 126 39 223 127 3 224 124 3 225 124 4 226 125 40 227 126 41 228 130 40 229 131 4 230 128 4 231 128 5 232 129 41 233 130 42 234 134 41 235 135 5 236 132 5 237 132 6 238 133 42 239 134 43 240 137 42 241 134 6 242 133 6 243 133 7 244 136 43 245 137 44 246 139 43 247 137 7 248 136 7 249 136 8 250 138 44 251 139 45 252 141 44 253 139 8 254 138 8 255 138 9 256 140 45 257 141 46 258 143 45 259 141 9 260 140 9 261 140 10 262 142 46 263 143 24 264 146 12 265 147 0 266 144 0 267 144 36 268 145 24 269 146</p>
        </triangles>
      </mesh>
    </geometry>
  </library_geometries>
  <library_visual_scenes>
    <visual_scene id="" name="">
      <node name="engine_floor_006" id="engine_floor_006" layer="engineroom_floor_05" sid="engine_floor_006">
        <matrix sid="matrix">1.000000 0.000000 0.000000 0.000000 0.000000 0.000000 1.000000 0.000000 0.000000 -1.000000 0.000000 0.000000 0.000000 0.000000 0.000000 1.000000</matrix>
        <instance_geometry url="#engine_floor_006-lib">
          <bind_material>
            <technique_common>
              <instance_material symbol="engineroom_floor_02SG" target="#engineroom_floor_02SG"/>
            </technique_common>
          </bind_material>
        </instance_geometry>
        <extra>
          <technique profile="FCOLLADA">
            <visibility>1.000000</visibility>
          </technique>
        </extra>
      </node>
      <node name="engine_floor_04_box001" id="engine_floor_04_box001" layer="engineroom_floor_05" sid="engine_floor_04_box001">
        <matrix sid="matrix">1.000000 0.000000 0.000000 0.000000 0.000000 0.000000 1.000000 0.000000 0.000000 -1.000000 0.000000 0.000000 0.000000 0.000000 0.000000 1.000000</matrix>
        <instance_geometry url="#engine_floor_04_box001-lib">
          <bind_material>
            <technique_common>
              <instance_material symbol="blinn2SG" target="#blinn2SG"/>
            </technique_common>
          </bind_material>
        </instance_geometry>
        <extra>
          <technique profile="FCOLLADA">
            <visibility>1.000000</visibility>
          </technique>
        </extra>
      </node>
      <extra>
        <technique profile="MAX3D">
          <frame_rate>30.000000</frame_rate>
        </technique>
        <technique profile="FCOLLADA">
          <start_time>0.000000</start_time>
          <end_time>3.333333</end_time>
        </technique>
      </extra>
    </visual_scene>
  </library_visual_scenes>
  <scene>
    <instance_visual_scene url="#"></instance_visual_scene>
  </scene>
</COLLADA>

