<?xml version="1.0" encoding="utf-8"?>
<COLLADA xmlns="http://www.collada.org/2005/11/COLLADASchema" version="1.4.1">
  <asset>
    <contributor>
      <author>Marc</author>
      <authoring_tool>OpenCOLLADA2008</authoring_tool>
      <comments>
			ColladaMaya export options: 
			bakeTransforms=1;relativePaths=1;copyTextures=0;exportTriangles=1;exportCgfxFileReferences=0;
			isSampling=0;curveConstrainSampling=0;removeStaticCurves=0;exportPolygonMeshes=1;exportLights=0;
			exportCameras=0;exportJointsAndSkin=1;exportAnimations=1;exportInvisibleNodes=0;exportDefaultCameras=0;
			exportTexCoords=1;exportNormals=1;exportNormalsPerVertex=0;exportVertexColors=1;exportVertexColorsPerVertex=0;
			exportTexTangents=0;exportTangents=0;exportReferencedMaterials=0;exportMaterialsOnly=0;
			exportXRefs=0;dereferenceXRefs=1;exportCameraAsLookat=0;cameraXFov=0;cameraYFov=0;doublePrecision=0
		</comments>
      <source_data>file:///F:/pig/Game/redist/static_objects/teslabase/dressing/tesla_dressing_pipe_clusters_01.dae</source_data>
    </contributor>
    <created>2013-04-25T16:27:42</created>
    <modified>2013-04-25T16:27:42</modified>
    <unit name="meter" meter="1"/>
    <up_axis>Y_UP</up_axis>
  </asset>
  <library_materials>
    <material id="lambert1" name="lambert1">
      <instance_effect url="#lambert1-fx"/>
    </material>
    <material id="tesla_structure_piping_02_tesla_structure_pillar_core_02_tesla_structure_platform_01_tesla_structure_pillar_drum_01" name="tesla_structure_piping_02_tesla_structure_pillar_core_02_tesla_structure_platform_01_tesla_structure_pillar_drum_01">
      <instance_effect url="#tesla_structure_piping_02_tesla_structure_pillar_core_02_tesla_structure_platform_01_tesla_structure_pillar_drum_01-fx"/>
    </material>
    <material id="tesla_dressing_metal_details_01_blinn1" name="tesla_dressing_metal_details_01_blinn1">
      <instance_effect url="#tesla_dressing_metal_details_01_blinn1-fx"/>
    </material>
  </library_materials>
  <library_effects>
    <effect id="lambert1-fx">
      <profile_COMMON>
        <technique sid="common">
          <lambert>
            <emission>
              <color>0 0 0 1</color>
            </emission>
            <ambient>
              <color>0 0 0 1</color>
            </ambient>
            <diffuse>
              <color>0.4 0.4 0.4 1</color>
            </diffuse>
            <transparent opaque="RGB_ZERO">
              <color>0 0 0 1</color>
            </transparent>
            <transparency>
              <float>1</float>
            </transparency>
          </lambert>
        </technique>
      </profile_COMMON>
    </effect>
    <effect id="tesla_dressing_metal_details_01_blinn1-fx">
      <profile_COMMON>
        <newparam sid="tesla_dressing_metal_details_01_file1_image-surface">
          <surface type="2D">
            <init_from>tesla_dressing_metal_details_01_file1_image</init_from>
          </surface>
        </newparam>
        <newparam sid="tesla_dressing_metal_details_01_file1_image-sampler">
          <sampler2D>
            <source>tesla_dressing_metal_details_01_file1_image-surface</source>
          </sampler2D>
        </newparam>
        <technique sid="common">
          <phong>
            <emission>
              <color>0 0 0 1</color>
            </emission>
            <ambient>
              <color>0 0 0 1</color>
            </ambient>
            <diffuse>
              <texture texture="tesla_dressing_metal_details_01_file1_image-sampler" texcoord="TEX0">
                <extra>
                  <technique profile="OpenCOLLADAMaya">
                    <blend_mode>NONE</blend_mode>
                    <coverageU>1</coverageU>
                    <coverageV>1</coverageV>
                    <fast>0</fast>
                    <mirrorU>0</mirrorU>
                    <mirrorV>0</mirrorV>
                    <noiseU>0</noiseU>
                    <noiseV>0</noiseV>
                    <offsetU>0</offsetU>
                    <offsetV>0</offsetV>
                    <repeatU>1</repeatU>
                    <repeatV>1</repeatV>
                    <rotateFrame>0</rotateFrame>
                    <rotateUV>0</rotateUV>
                    <stagger>0</stagger>
                    <translateFrameU>0</translateFrameU>
                    <translateFrameV>0</translateFrameV>
                    <wrapU>1</wrapU>
                    <wrapV>1</wrapV>
                  </technique>
                </extra>
              </texture>
            </diffuse>
            <specular>
              <color>0.5 0.5 0.5 1</color>
            </specular>
            <shininess>
              <float>1.245731</float>
            </shininess>
            <reflective>
              <color>0 0 0 1</color>
            </reflective>
            <reflectivity>
              <float>0.5</float>
            </reflectivity>
            <transparent opaque="RGB_ZERO">
              <color>0 0 0 1</color>
            </transparent>
            <transparency>
              <float>1</float>
            </transparency>
          </phong>
        </technique>
      </profile_COMMON>
    </effect>
    <effect id="tesla_structure_piping_02_tesla_structure_pillar_core_02_tesla_structure_platform_01_tesla_structure_pillar_drum_01-fx">
      <profile_COMMON>
        <newparam sid="tesla_structure_piping_02_tesla_structure_pillar_core_02_tesla_structure_platform_01_file1_image-surface">
          <surface type="2D">
            <init_from>tesla_structure_piping_02_tesla_structure_pillar_core_02_tesla_structure_platform_01_file1_image</init_from>
          </surface>
        </newparam>
        <newparam sid="tesla_structure_piping_02_tesla_structure_pillar_core_02_tesla_structure_platform_01_file1_image-sampler">
          <sampler2D>
            <source>tesla_structure_piping_02_tesla_structure_pillar_core_02_tesla_structure_platform_01_file1_image-surface</source>
          </sampler2D>
        </newparam>
        <technique sid="common">
          <lambert>
            <emission>
              <color>0 0 0 1</color>
            </emission>
            <ambient>
              <color>0 0 0 1</color>
            </ambient>
            <diffuse>
              <texture texture="tesla_structure_piping_02_tesla_structure_pillar_core_02_tesla_structure_platform_01_file1_image-sampler" texcoord="TEX0">
                <extra>
                  <technique profile="OpenCOLLADAMaya">
                    <blend_mode>NONE</blend_mode>
                    <coverageU>1</coverageU>
                    <coverageV>1</coverageV>
                    <fast>0</fast>
                    <mirrorU>0</mirrorU>
                    <mirrorV>0</mirrorV>
                    <noiseU>0</noiseU>
                    <noiseV>0</noiseV>
                    <offsetU>0</offsetU>
                    <offsetV>0</offsetV>
                    <repeatU>1</repeatU>
                    <repeatV>1</repeatV>
                    <rotateFrame>0</rotateFrame>
                    <rotateUV>0</rotateUV>
                    <stagger>0</stagger>
                    <translateFrameU>0</translateFrameU>
                    <translateFrameV>0</translateFrameV>
                    <wrapU>1</wrapU>
                    <wrapV>1</wrapV>
                  </technique>
                </extra>
              </texture>
            </diffuse>
            <transparent opaque="A_ONE">
              <texture texture="tesla_structure_piping_02_tesla_structure_pillar_core_02_tesla_structure_platform_01_file1_image-sampler" texcoord="TEX1">
                <extra>
                  <technique profile="OpenCOLLADAMaya">
                    <blend_mode>NONE</blend_mode>
                    <coverageU>1</coverageU>
                    <coverageV>1</coverageV>
                    <fast>0</fast>
                    <mirrorU>0</mirrorU>
                    <mirrorV>0</mirrorV>
                    <noiseU>0</noiseU>
                    <noiseV>0</noiseV>
                    <offsetU>0</offsetU>
                    <offsetV>0</offsetV>
                    <repeatU>1</repeatU>
                    <repeatV>1</repeatV>
                    <rotateFrame>0</rotateFrame>
                    <rotateUV>0</rotateUV>
                    <stagger>0</stagger>
                    <translateFrameU>0</translateFrameU>
                    <translateFrameV>0</translateFrameV>
                    <wrapU>1</wrapU>
                    <wrapV>1</wrapV>
                  </technique>
                </extra>
              </texture>
            </transparent>
            <transparency>
              <float>1</float>
            </transparency>
          </lambert>
        </technique>
      </profile_COMMON>
    </effect>
  </library_effects>
  <library_images>
    <image id="tesla_dressing_metal_details_01_file1_image" name="tesla_dressing_metal_details_01_file1_image">
      <init_from>../../../../../../../C:/Users/sindre/Desktop/Sindre/Amnesia%20-%20Freelance/pig/Game/redist/static_objects/teslabase/dressing/tesla_dressing_metaldetails_01.dds</init_from>
      <extra>
        <technique profile="OpenCOLLADAMaya">
          <dgnode_type>kFile</dgnode_type>
          <image_sequence>0</image_sequence>
          <originalMayaNodeId>tesla_dressing_metal_details_01_file1_image</originalMayaNodeId>
        </technique>
      </extra>
    </image>
    <image id="tesla_structure_piping_02_tesla_structure_pillar_core_02_tesla_structure_platform_01_file1_image" name="tesla_structure_piping_02_tesla_structure_pillar_core_02_tesla_structure_platform_01_file1_image">
      <init_from>./tesla_dressing_wires_01.dds</init_from>
      <extra>
        <technique profile="OpenCOLLADAMaya">
          <dgnode_type>kFile</dgnode_type>
          <image_sequence>0</image_sequence>
          <originalMayaNodeId>tesla_structure_piping_02_tesla_structure_pillar_core_02_tesla_structure_platform_01_file1_image</originalMayaNodeId>
        </technique>
      </extra>
    </image>
  </library_images>
  <library_geometries>
    <geometry id="cluster_01_frameShape" name="cluster_01_frameShape">
      <mesh>
        <source id="cluster_01_frameShape-positions" name="cluster_01_frameShape-positions">
          <float_array id="cluster_01_frameShape-positions-array" count="480">1.621106 0.5832283 -1.70243 1.611868 0.507894 -1.70243 1.621106 0.5832283 1.68343 1.611868 0.507894 1.68343 1.632375 0.5832283 1.68343 1.641613 0.507894 1.68343 1.632375 0.5832283 -1.70243 1.641613 0.507894 -1.70243 1.602397 0 1.599313 1.602397 0 1.648863 1.602397 0.6224983 1.599313 1.602397 0.6224983 1.648863 1.651084 0.6224983 1.599313 1.651084 0.6224983 1.648863 1.651084 0 1.599313 1.651084 0 1.648863 1.602397 0 -0.02568711 1.602397 0 0.02386246 1.602397 0.6224983 -0.02568711 1.602397 0.6224983 0.02386246 1.651084 0.6224983 -0.02568711 1.651084 0.6224983 0.02386246 1.651084 0 -0.02568711 1.651084 0 0.02386246 1.602397 0 -1.650687 1.602397 0 -1.601138 1.602397 0.6224983 -1.650687 1.602397 0.6224983 -1.601138 1.651084 0.6224983 -1.650687 1.651084 0.6224983 -1.601138 1.651084 0 -1.650687 1.651084 0 -1.601138 -0.02349237 0 -0.02568717 -0.02349237 0 0.02386239 -0.02349237 0.6224983 -0.02568717 -0.02349237 0.6224983 0.02386239 0.02519457 0.6224983 -0.02568717 0.02519457 0.6224983 0.02386239 0.02519457 0 -0.02568717 0.02519457 0 0.02386239 -0.02349243 0 -1.650687 -0.02349243 0 -1.601138 -0.02349243 0.6224983 -1.650687 -0.02349243 0.6224983 -1.601138 0.02519455 0.6224983 -1.650687 0.02519455 0.6224983 -1.601138 0.02519455 0 -1.650687 0.02519455 0 -1.601138 -0.02349243 0 1.599313 -0.02349243 0 1.648862 -0.02349243 0.6224983 1.599313 -0.02349243 0.6224983 1.648862 0.02519455 0.6224983 1.599313 0.02519455 0.6224983 1.648862 0.02519455 0 1.599313 0.02519455 0 1.648862 -1.647603 0 1.599313 -1.647603 0 1.648863 -1.647603 0.6224983 1.599313 -1.647603 0.6224983 1.648863 -1.598916 0.6224983 1.599313 -1.598916 0.6224983 1.648862 -1.598916 0 1.599313 -1.598916 0 1.648862 -1.647603 0 -0.02568711 -1.647603 0 0.02386246 -1.647603 0.6224983 -0.02568711 -1.647603 0.6224983 0.02386246 -1.598916 0.6224983 -0.02568711 -1.598916 0.6224983 0.02386246 -1.598916 0 -0.02568711 -1.598916 0 0.02386246 -1.647603 0 -1.650687 -1.647603 0 -1.601138 -1.647603 0.6224983 -1.650687 -1.647603 0.6224983 -1.601138 -1.598916 0.6224983 -1.650687 -1.598916 0.6224983 -1.601138 -1.598916 0 -1.650687 -1.598916 0 -1.601138 1.611868 0.1974608 -1.70243 1.611868 0.1221264 -1.70243 1.611868 0.1974608 1.68343 1.611868 0.1221264 1.68343 1.641613 0.1974608 1.68343 1.641613 0.1221264 1.68343 1.641613 0.1974608 -1.70243 1.641613 0.1221264 -1.70243 -1.637795 0.1974608 -1.70243 -1.637795 0.1221264 -1.70243 -1.637795 0.1974608 1.68343 -1.637795 0.1221264 1.68343 -1.60805 0.1974608 1.68343 -1.60805 0.1221264 1.68343 -1.60805 0.1974608 -1.70243 -1.60805 0.1221264 -1.70243 -1.628282 0.5832283 -1.70243 -1.637795 0.507894 -1.70243 -1.628282 0.5832283 1.68343 -1.637795 0.507894 1.68343 -1.617564 0.5832283 1.68343 -1.60805 0.507894 1.68343 -1.617564 0.5832283 -1.70243 -1.60805 0.507894 -1.70243 -1.69293 0.5832283 1.629536 -1.69293 0.507894 1.63896 1.69293 0.5832283 1.629536 1.69293 0.507894 1.63896 1.69293 0.5832283 1.618639 1.69293 0.507894 1.609215 -1.69293 0.5832283 1.618639 -1.69293 0.507894 1.609215 -1.69293 0.1974608 1.63896 -1.69293 0.1221264 1.63896 1.69293 0.1974608 1.63896 1.69293 0.1221264 1.63896 1.69293 0.1974608 1.609215 1.69293 0.1221264 1.609215 -1.69293 0.1974608 1.609215 -1.69293 0.1221264 1.609215 -2 0.5832283 0.01396011 -2 0.507894 0.01396011 2 0.5832283 0.01396011 2 0.507894 0.01396011 2 0.5832283 -0.01578491 2 0.507894 -0.01578491 -2 0.5832283 -0.01578491 -2 0.507894 -0.01578491 -2 0.1974608 0.01396011 -2 0.1221264 0.01396011 2 0.1974608 0.01396011 2 0.1221264 0.01396011 2 0.1974608 -0.01578491 2 0.1221264 -0.01578491 -2 0.1974608 -0.01578491 -2 0.1221264 -0.01578491 -1.69293 0.5832283 -1.619977 -1.69293 0.507894 -1.61104 1.69293 0.5832283 -1.619977 1.69293 0.507894 -1.61104 1.69293 0.5832283 -1.631848 1.69293 0.507894 -1.640785 -1.69293 0.5832283 -1.631848 -1.69293 0.507894 -1.640785 -1.69293 0.1974608 -1.61104 -1.69293 0.1221264 -1.61104 1.69293 0.1974608 -1.61104 1.69293 0.1221264 -1.61104 1.69293 0.1974608 -1.640785 1.69293 0.1221264 -1.640785 -1.69293 0.1974608 -1.640785 -1.69293 0.1221264 -1.640785 -0.01247086 0.5832283 -1.70243 -0.01247086 0.507894 -1.70243 -0.01247086 0.5832283 1.68343 -0.01247086 0.507894 1.68343 0.01727417 0.5832283 1.68343 0.01727417 0.507894 1.68343 0.01727417 0.5832283 -1.70243 0.01727417 0.507894 -1.70243</float_array>
          <technique_common>
            <accessor source="#cluster_01_frameShape-positions-array" count="160" stride="3">
              <param name="X" type="float"/>
              <param name="Y" type="float"/>
              <param name="Z" type="float"/>
            </accessor>
          </technique_common>
        </source>
        <source id="cluster_01_frameShape-normals" name="cluster_01_frameShape-normals">
          <float_array id="cluster_01_frameShape-normals-array" count="1332">-0.9925656 0.1217103 0 -0.9925649 0.1217163 0 -0.9925649 0.1217163 0 -0.9925641 0.1217222 0 0.9925656 0.1217103 0 0.9925651 0.1217148 0 0.9925651 0.1217148 0 0.9925645 0.1217192 0 0 -0.9999999 0 0 -0.9999999 0 0 -0.9999999 0 0 -0.9999999 0 0 0.9999999 0 0 0.9999999 0 0 0.9999999 0 0 0.9999999 0 -0.9999999 0 0 -0.9999999 0 0 -0.9999999 0 0 -0.9999999 0 0 0 0.9999999 0 0 0.9999999 0 0 0.9999999 0 0 0.9999999 0 0.9999999 0 0 0.9999999 0 0 0.9999999 0 0 0.9999999 0 0 0 0 0.9999999 0 0 0.9999999 0 0 0.9999999 0 0 0.9999999 0 0 -0.9999999 0 0 -0.9999999 0 0 -0.9999999 0 0 -0.9999999 -0.9999999 0 0 -0.9999999 0 0 -1 0 0 -0.9999999 0 0 0 0.9999999 0 0 0.9999999 0 0 0.9999999 0 0 0.9999999 0 0.9999999 0 0 0.9999999 0 0 1 0 0 0.9999999 0 0 0 0 0.9999999 0 0 0.9999999 0 0 0.9999999 0 0 0.9999999 0 0 -0.9999999 0 0 -0.9999999 0 0 -0.9999999 0 0 -0.9999999 -0.9999999 0 0 -0.9999999 0 0 -0.9999999 0 0 -0.9999999 0 0 0 0.9999999 0 0 0.9999999 0 0 0.9999999 0 0 0.9999999 0 0.9999999 0 0 0.9999999 0 0 0.9999999 0 0 0.9999999 0 0 0 0 0.9999999 0 0 0.9999999 0 0 0.9999999 0 0 0.9999999 0 0 -0.9999999 0 0 -0.9999999 0 0 -0.9999999 0 0 -0.9999999 -0.9999999 0 0 -0.9999999 0 0 -0.9999999 0 0 -0.9999999 0 0 0 0.9999999 0 0 0.9999999 0 0 0.9999999 0 0 0.9999999 0 0.9999999 0 0 0.9999999 0 0 0.9999999 0 0 0.9999999 0 0 0 0 0.9999999 0 0 0.9999999 0 0 0.9999999 0 0 0.9999999 0 0 -0.9999999 0 0 -0.9999999 0 0 -0.9999999 0 0 -0.9999999 -0.9999999 0 0 -0.9999999 0 0 -0.9999999 0 0 -0.9999999 0 0 0 0.9999999 0 0 0.9999999 0 0 0.9999999 0 0 0.9999999 0 0.9999999 0 0 0.9999999 0 0 0.9999999 0 0 0.9999999 0 0 0 0 0.9999999 0 0 0.9999999 0 0 0.9999999 0 0 0.9999999 0 0 -0.9999999 0 0 -0.9999999 0 0 -0.9999999 0 0 -0.9999999 -0.9999999 0 0 -0.9999999 0 0 -0.9999999 0 0 -0.9999999 0 0 0 0.9999999 0 0 0.9999999 0 0 0.9999999 0 0 0.9999999 0 0.9999999 0 0 0.9999999 0 0 0.9999999 0 0 0.9999999 0 0 0 0 0.9999999 0 0 0.9999999 0 0 0.9999999 0 0 0.9999999 0 0 -0.9999999 0 0 -0.9999999 0 0 -0.9999999 0 0 -0.9999999 -0.9999999 0 0 -0.9999999 0 0 -0.9999999 0 0 -0.9999999 0 0 0 0.9999999 0 0 0.9999999 0 0 0.9999999 0 0 0.9999999 0 0.9999999 0 0 0.9999999 0 0 0.9999999 0 0 0.9999999 0 0 0 0 0.9999999 0 0 0.9999999 0 0 0.9999999 0 0 0.9999999 0 0 -0.9999999 0 0 -0.9999999 0 0 -0.9999999 0 0 -0.9999999 -0.9999999 0 0 -0.9999999 0 0 -1 0 0 -0.9999999 0 0 0 0.9999999 0 0 0.9999999 0 0 0.9999999 0 0 0.9999999 0 0.9999999 0 0 0.9999999 0 0 1 0 0 0.9999999 0 0 0 0 0.9999999 0 0 0.9999999 0 0 0.9999999 0 0 0.9999999 0 0 -0.9999999 0 0 -0.9999999 0 0 -0.9999999 0 0 -0.9999999 -0.9999999 0 0 -0.9999999 0 0 -0.9999999 0 0 -0.9999999 0 0 0 0.9999999 0 0 0.9999999 0 0 0.9999999 0 0 0.9999999 0 0.9999999 0 0 0.9999999 0 0 0.9999999 0 0 0.9999999 0 0 0 0 0.9999999 0 0 0.9999999 0 0 0.9999999 0 0 0.9999999 0 0 -0.9999999 0 0 -0.9999999 0 0 -0.9999999 0 0 -0.9999999 -0.9999999 0 0 -0.9999999 0 0 -0.9999999 0 0 -0.9999999 0 0 0.9999999 0 0 0.9999999 0 0 0.9999999 0 0 0.9999999 0 0 0 -0.9999999 0 0 -0.9999999 0 0 -0.9999999 0 0 -0.9999999 0 0 0.9999999 0 0 0.9999999 0 0 0.9999999 0 0 0.9999999 0 -0.9999999 0 0 -0.9999999 0 0 -0.9999999 0 0 -0.9999999 0 0 0.9999999 0 0 0.9999999 0 0 0.9999999 0 0 0.9999999 0 0 0 -0.9999999 0 0 -0.9999999 0 0 -0.9999999 0 0 -0.9999999 0 0 0.9999999 0 0 0.9999999 0 0 0.9999999 0 0 0.9999999 0 -0.9921201 0.12529 0 -0.9921201 0.12529 0 -0.9921201 0.12529 0 -0.9921201 0.12529 0 0.9921201 0.12529 0 0.9921201 0.12529 0 0.9921201 0.12529 0 0.9921201 0.12529 0 0 -0.9999999 0 0 -0.9999999 0 0 -0.9999999 0 0 -0.9999999 0 0 0.9999999 0 0 0.9999999 0 0 0.9999999 0 0 0.9999999 0 0 0.124127 0.9922662 0 0.124127 0.9922662 0 0.124126 0.9922664 0 0.1241281 0.9922662 0 0.124126 -0.9922664 0 0.124126 -0.9922664 0 0.124126 -0.9922664 0 0.124126 -0.9922664 0 -0.9999999 0 0 -0.9999999 0 0 -0.9999999 0 0 -1 0 0 0.9999999 0 0 0.9999999 0 0 0.9999999 0 0 0.9999999 0 0 0 0.9999999 0 0 0.9999999 0 0 0.9999999 0 0 0.9999999 0 0 -0.9999999 0 0 -0.9999999 0 0 -0.9999999 0 0 -0.9999999 0 -0.9999999 0 0 -0.9999999 0 0 -0.9999999 0 0 -1 0 0 0.9999999 0 0 0.9999999 0 0 0.9999999 0 0 1 0 0 0 0.9999999 0 0 0.9999999 0 0 0.9999999 0 0 0.9999999 0 0 -0.9999999 0 0 -0.9999999 0 0 -0.9999999 0 0 -0.9999999 0 -0.9999999 0 0 -0.9999999 0 0 -0.9999999 0 0 -0.9999999 0 0 0.9999999 0 0 0.9999999 0 0 0.9999999 0 0 0.9999999 0 0 0 0.9999999 0 0 0.9999999 0 0 0.9999999 0 0 0.9999999 0 0 -0.9999999 0 0 -0.9999999 0 0 -0.9999999 0 0 -0.9999999 0 -0.9999999 0 0 -0.9999999 0 0 -0.9999999 0 0 -0.9999999 0 0 0.9999999 0 0 0.9999999 0 0 0.9999999 0 0 0.9999999 0 0 0.11781 0.9930361 0 0.1178101 0.9930361 0 0.1178101 0.9930361 0 0.1178102 0.993036 0 0.11781 -0.9930361 0 0.11781 -0.9930361 0 0.11781 -0.9930361 0 0.11781 -0.9930361 0 -0.9999999 0 0 -0.9999999 0 0 -1 0 0 -0.9999999 0 0 0.9999999 0 0 0.9999999 0 0 0.9999999 0 0 0.9999999 0 0 0 0.9999999 0 0 0.9999999 0 0 0.9999999 0 0 0.9999999 0 0 -0.9999999 0 0 -0.9999999 0 0 -0.9999999 0 0 -0.9999999 0 -0.9999999 0 0 -0.9999999 0 0 -1 0 0 -0.9999999 0 0 0.9999999 0 0 0.9999999 0 0 1 0 0 0.9999999 0 -0.9999999 0 0 -0.9999999 0 0 -0.9999999 0 0 -0.9999999 0 0 0.9999999 0 0 0.9999999 0 0 0.9999999 0 0 0.9999999 0 0 0 -0.9999999 0 0 -0.9999999 0 0 -0.9999999 0 0 -0.9999999 0 0 0.9999999 0 0 0.9999999 0 0 0.9999999 0 0 0.9999999 0 0 0 -0.9999999 0 0 -0.9999999 0 0 -0.9999999 0 0 -0.9999999 0 0 0.9999999 0 0 0.9999999 0 0 0.9999999 0 0 0.9999999 0 0 -0.9999999 0 0 -0.9999999 0 0 -0.9999999 0 0 -0.9999999 0 0 0.9999999 0 0 0.9999999 0 0 0.9999999 0 0 0.9999999 0 0 -0.9999999 0 0 -0.9999999 0 0 -0.9999999 0 0 -0.9999999 0 0 0.9999999 0 0 0.9999999 0 0 0.9999999 0 0 0.9999999 0 0 -0.9999999 0 0 -0.9999999 0 0 -0.9999999 0 0 -0.9999999 0 0 0.9999999 0 0 0.9999999 0 0 0.9999999 0 0 0.9999999 -0.9999999 0 0 -0.9999999 0 0 -0.9999999 0 0 -0.9999999 0 0 0.9999999 0 0 0.9999999 0 0 0.9999999 0 0 0.9999999 0 0 -0.9999999 0 0 -0.9999999 0 0 -0.9999999 0 0 -0.9999999 0 0 0.9999999 0 0 0.9999999 0 0 0.9999999 0 0 0.9999999 0 0 -0.9999999 0 0 -0.9999999 0 0 -0.9999999 0 0 -0.9999999 0 0 0.9999999 0 0 0.9999999 0 0 0.9999999 0 0 0.9999999 0 0 -0.9999999 0 0 -0.9999999 0 0 -0.9999999 0 0 -0.9999999 0 0 0.9999999 0 0 0.9999999 0 0 0.9999999 0 0 0.9999999 0 0 -0.9999999 0 0 -0.9999999 0 0 -0.9999999 0 0 -0.9999999 0 0 0.9999999 0 0 0.9999999 0 0 0.9999999 0 0 0.9999999 0 0 -0.9999999 0 0 -0.9999999 0 0 -0.9999999 0 0 -0.9999999 0 0 0.9999999 0 0 0.9999999 0 0 0.9999999 0 0 0.9999999 0 0 0 0 -0.9999999 0 0 -0.9999999 0 0 -0.9999999 0 0 -0.9999999 0 0 0.9999999 0 0 0.9999999 0 0 0.9999999 0 0 0.9999999</float_array>
          <technique_common>
            <accessor source="#cluster_01_frameShape-normals-array" count="444" stride="3">
              <param name="X" type="float"/>
              <param name="Y" type="float"/>
              <param name="Z" type="float"/>
            </accessor>
          </technique_common>
        </source>
        <source id="cluster_01_frameShape-UVSet0" name="cluster_01_frameShape-UVSet0">
          <float_array id="cluster_01_frameShape-UVSet0-array" count="888">-1.580563 0.735198 -1.580563 0.670053 0.492895 0.670053 0.492895 0.735198 0.492895 0.551043 0.492895 0.612247 -1.580565 0.612247 -1.580565 0.551043 -1.580565 0.661724 -1.580565 0.61835 0.492895 0.618351 0.492895 0.661725 -1.580565 0.533271 -1.580565 0.51573 0.492895 0.51573 0.492895 0.533271 0.11923 0.735198 0.11923 0.670053 0.50044 0.670053 0.50044 0.735198 0.436848 0.500341 0.50044 0.500341 0.50044 0.548769 0.436848 0.548769 0.50044 0.551042 0.50044 0.612247 0.119229 0.612247 0.119229 0.551042 0.119229 0.661725 0.119229 0.61835 0.50044 0.61835 0.50044 0.661725 0.119229 0.547652 0.119229 0.501349 0.50044 0.501349 0.50044 0.547652 0.11923 0.735198 0.11923 0.670053 0.50044 0.670053 0.50044 0.735198 0.436848 0.500341 0.50044 0.500341 0.50044 0.548769 0.436848 0.548769 0.50044 0.551042 0.50044 0.612247 0.119229 0.612247 0.119229 0.551042 0.119229 0.661725 0.119229 0.61835 0.50044 0.61835 0.50044 0.661725 0.119229 0.547652 0.119229 0.501349 0.50044 0.501349 0.50044 0.547652 0.11923 0.735198 0.11923 0.670053 0.50044 0.670053 0.50044 0.735198 0.436848 0.500341 0.50044 0.500341 0.50044 0.548769 0.436848 0.548769 0.50044 0.551042 0.50044 0.612247 0.119229 0.612247 0.119229 0.551042 0.119229 0.661725 0.119229 0.61835 0.50044 0.61835 0.50044 0.661725 0.119229 0.547652 0.119229 0.501349 0.50044 0.501349 0.50044 0.547652 0.11923 0.735198 0.11923 0.670053 0.50044 0.670053 0.50044 0.735198 0.436848 0.500341 0.50044 0.500341 0.50044 0.548769 0.436848 0.548769 0.50044 0.551042 0.50044 0.612247 0.119229 0.612247 0.119229 0.551042 0.119229 0.661725 0.119229 0.61835 0.50044 0.61835 0.50044 0.661725 0.119229 0.547652 0.119229 0.501349 0.50044 0.501349 0.50044 0.547652 0.11923 0.735198 0.11923 0.670053 0.50044 0.670053 0.50044 0.735198 0.436848 0.500341 0.50044 0.500341 0.50044 0.548769 0.436848 0.548769 0.50044 0.551042 0.50044 0.612247 0.119229 0.612247 0.119229 0.551042 0.119229 0.661725 0.119229 0.61835 0.50044 0.61835 0.50044 0.661725 0.119229 0.547652 0.119229 0.501349 0.50044 0.501349 0.50044 0.547652 0.11923 0.735198 0.11923 0.670053 0.50044 0.670053 0.50044 0.735198 0.436848 0.500341 0.50044 0.500341 0.50044 0.548769 0.436848 0.548769 0.50044 0.551042 0.50044 0.612247 0.119229 0.612247 0.119229 0.551042 0.119229 0.661725 0.119229 0.61835 0.50044 0.61835 0.50044 0.661725 0.119229 0.547652 0.119229 0.501349 0.50044 0.501349 0.50044 0.547652 0.11923 0.735198 0.11923 0.670053 0.50044 0.670053 0.50044 0.735198 0.436848 0.500341 0.50044 0.500341 0.50044 0.548769 0.436848 0.548769 0.50044 0.551042 0.50044 0.612247 0.119229 0.612247 0.119229 0.551042 0.119229 0.661725 0.119229 0.61835 0.50044 0.61835 0.50044 0.661725 0.119229 0.547652 0.119229 0.501349 0.50044 0.501349 0.50044 0.547652 0.11923 0.735198 0.11923 0.670053 0.50044 0.670053 0.50044 0.735198 0.436848 0.500341 0.50044 0.500341 0.50044 0.548769 0.436848 0.548769 0.50044 0.551042 0.50044 0.612247 0.119229 0.612247 0.119229 0.551042 0.119229 0.661725 0.119229 0.61835 0.50044 0.61835 0.50044 0.661725 0.119229 0.547652 0.119229 0.501349 0.50044 0.501349 0.50044 0.547652 0.11923 0.735198 0.11923 0.670053 0.50044 0.670053 0.50044 0.735198 0.436848 0.500341 0.50044 0.500341 0.50044 0.548769 0.436848 0.548769 0.50044 0.551042 0.50044 0.612247 0.119229 0.612247 0.119229 0.551042 0.119229 0.661725 0.119229 0.61835 0.50044 0.61835 0.50044 0.661725 0.119229 0.547652 0.119229 0.501349 0.50044 0.501349 0.50044 0.547652 -1.580563 0.735198 -1.580563 0.670053 0.492895 0.670053 0.492895 0.735198 0.492895 0.551043 0.492895 0.612247 -1.580565 0.612247 -1.580565 0.551043 -1.580565 0.661724 -1.580565 0.61835 0.492895 0.618351 0.492895 0.661725 -1.580565 0.547652 -1.580565 0.501349 0.492895 0.501349 0.492895 0.547652 -1.580563 0.735198 -1.580563 0.670053 0.492895 0.670053 0.492895 0.735198 0.492895 0.551043 0.492895 0.612247 -1.580565 0.612247 -1.580565 0.551043 -1.580565 0.661724 -1.580565 0.61835 0.492895 0.618351 0.492895 0.661725 -1.580565 0.547652 -1.580565 0.501349 0.492895 0.501349 0.492895 0.547652 -1.580563 0.735198 -1.580563 0.670053 0.492895 0.670053 0.492895 0.735198 0.492895 0.551043 0.492895 0.612247 -1.580565 0.612247 -1.580565 0.551043 -1.580565 0.661724 -1.580565 0.61835 0.492895 0.618351 0.492895 0.661725 -1.580565 0.532843 -1.580565 0.516159 0.492895 0.516158 0.492895 0.532842 -1.580563 0.735198 -1.580563 0.670053 0.492895 0.670053 0.492895 0.735198 0.492895 0.551043 0.492895 0.612247 -1.580565 0.612247 -1.580565 0.551043 -1.580565 0.661724 -1.580565 0.61835 0.492895 0.618351 0.492895 0.661725 -1.580565 0.532982 -1.580565 0.516019 0.492895 0.516019 0.492895 0.532982 -1.580563 0.735198 -1.580563 0.670053 0.492895 0.670053 0.492895 0.735198 0.492895 0.551043 0.492895 0.612247 -1.580565 0.612247 -1.580565 0.551043 -1.580565 0.661724 -1.580565 0.61835 0.492895 0.618351 0.492895 0.661725 -1.580565 0.547652 -1.580565 0.501349 0.492895 0.501349 0.492895 0.547652 -1.580563 0.735198 -1.580563 0.670053 0.492895 0.670053 0.492895 0.735198 0.492895 0.551043 0.492895 0.612247 -1.580565 0.612247 -1.580565 0.551043 -1.580565 0.661724 -1.580565 0.61835 0.492895 0.618351 0.492895 0.661725 -1.580565 0.547652 -1.580565 0.501349 0.492895 0.501349 0.492895 0.547652 -1.580563 0.735198 -1.580563 0.670053 0.492895 0.670053 0.492895 0.735198 0.492895 0.551043 0.492895 0.612247 -1.580565 0.612247 -1.580565 0.551043 -1.580565 0.661724 -1.580565 0.61835 0.492895 0.618351 0.492895 0.661725 -1.580565 0.547652 -1.580565 0.501349 0.492895 0.501349 0.492895 0.547652 -1.580563 0.733607 -1.580563 0.670053 0.492895 0.670053 0.492895 0.733607 0.492895 0.552537 0.492895 0.612247 -1.580565 0.612247 -1.580565 0.552537 -1.580565 0.661724 -1.580565 0.61835 0.492895 0.618351 0.492895 0.661725 -1.580565 0.533738 -1.580565 0.515264 0.492895 0.515263 0.492895 0.533737 -1.580563 0.735198 -1.580563 0.670053 0.492895 0.670053 0.492895 0.735198 0.492895 0.551043 0.492895 0.612247 -1.580565 0.612247 -1.580565 0.551043 -1.580565 0.661724 -1.580565 0.61835 0.492895 0.618351 0.492895 0.661725 -1.580565 0.547652 -1.580565 0.501349 0.492895 0.501349 0.492895 0.547652 -1.580563 0.735198 -1.580563 0.670053 0.492895 0.670053 0.492895 0.735198 0.492895 0.551043 0.492895 0.612247 -1.580565 0.612247 -1.580565 0.551043 -1.580565 0.661724 -1.580565 0.61835 0.492895 0.618351 0.492895 0.661725 -1.580565 0.547652 -1.580565 0.501349 0.492895 0.501349 0.492895 0.547652 0.62547 0.549205 0.62547 0.612654 0.599846 0.612654 0.599846 0.549205 0.62547 0.549205 0.62547 0.612654 0.599846 0.612654 0.599846 0.549205 0.62547 0.549205 0.62547 0.612654 0.599846 0.612654 0.599846 0.549205 0.62547 0.549205 0.62547 0.612654 0.599846 0.612654 0.599846 0.549205 0.599846 0.549205 0.62547 0.549205 0.62547 0.612654 0.599846 0.612654 0.599846 0.549205 0.62547 0.549205 0.62547 0.612654 0.599846 0.612654 0.599846 0.549205 0.62547 0.549205 0.62547 0.612654 0.599846 0.612654 0.599846 0.549205 0.62547 0.549205 0.62547 0.612654 0.599846 0.612654 0.599846 0.549205 0.62547 0.549205 0.62547 0.612654 0.599846 0.612654 0.599846 0.549205 0.62547 0.549205 0.62547 0.612654 0.599846 0.612654 0.599846 0.549205 0.62547 0.549205 0.62547 0.612654 0.599846 0.612654 0.599846 0.549205 0.62547 0.549205 0.62547 0.612654 0.599846 0.612654 0.599846 0.549205 0.62547 0.549205 0.62547 0.612654 0.599846 0.612654 0.599846 0.549205 0.62547 0.549205 0.62547 0.612654 0.599846 0.612654 0.599846 0.549205 0.62547 0.549205 0.62547 0.612654 0.599846 0.612654 0.599846 0.549205 0.62547 0.549205 0.62547 0.612654 0.599846 0.612654 0.599846 0.549205 0.62547 0.549205 0.62547 0.612654 0.599846 0.612654 0.599846 0.549205 0.62547 0.549205 0.62547 0.612654 0.599846 0.612654 0.599846 0.549205 0.62547 0.549205 0.62547 0.612654 0.599846 0.612654 0.599846 0.549205 0.62547 0.549205 0.62547 0.612654 0.599846 0.612654 0.599846 0.549205 0.62547 0.549205 0.62547 0.612654 0.599846 0.612654 0.599846 0.549205 0.62547 0.549205 0.62547 0.612654 0.599846 0.612654</float_array>
          <technique_common>
            <accessor source="#cluster_01_frameShape-UVSet0-array" count="444" stride="2">
              <param name="S" type="float"/>
              <param name="T" type="float"/>
            </accessor>
          </technique_common>
        </source>
        <vertices id="cluster_01_frameShape-vertices" name="cluster_01_frameShape-vertices">
          <input semantic="POSITION" source="#cluster_01_frameShape-positions"/>
        </vertices>
        <triangles material="cluster_01_frameSG" count="222">
          <input semantic="VERTEX" source="#cluster_01_frameShape-vertices" offset="0"/>
          <input semantic="NORMAL" source="#cluster_01_frameShape-normals" offset="1"/>
          <input semantic="TEXCOORD" source="#cluster_01_frameShape-UVSet0" offset="2" set="0"/>
          <p>2 0 3 0 1 0 3 2 2 3 2 2 0 1 0 1 3 1 5 4 5 7 5 6 4 6 4 4 6 4 7 5 6 6 7 7 3 8 11 7 9 9 5 10 10 7 9 9 3 8 11 1 11 8 4 12 15 0 13 13 2 14 14 0 13 13 4 12 15 6 15 12 11 16 18 8 17 16 9 18 17 8 17 16 11 16 18 10 19 19 13 20 22 10 21 20 11 22 21 10 21 20 13 20 22 12 23 23 15 24 26 12 25 24 13 26 25 12 25 24 15 24 26 14 27 27 11 28 31 9 29 28 13 30 30 13 30 30 9 29 28 15 31 29 8 32 33 10 33 34 14 34 32 14 34 32 10 33 34 12 35 35 19 36 38 16 37 36 17 38 37 16 37 36 19 36 38 18 39 39 21 40 42 18 41 40 19 42 41 18 41 40 21 40 42 20 43 43 23 44 46 20 45 44 21 46 45 20 45 44 23 44 46 22 47 47 19 48 51 17 49 48 21 50 50 21 50 50 17 49 48 23 51 49 18 52 54 22 53 52 16 54 53 22 53 52 18 52 54 20 55 55 27 56 58 24 57 56 25 58 57 24 57 56 27 56 58 26 59 59 29 60 62 26 61 60 27 62 61 26 61 60 29 60 62 28 63 63 31 64 66 28 65 64 29 66 65 28 65 64 31 64 66 30 67 67 27 68 71 25 69 68 29 70 70 29 70 70 25 69 68 31 71 69 26 72 74 30 73 72 24 74 73 30 73 72 26 72 74 28 75 75 35 76 78 32 77 76 33 78 77 32 77 76 35 76 78 34 79 79 37 80 82 34 81 80 35 82 81 34 81 80 37 80 82 36 83 83 39 84 86 36 85 84 37 86 85 36 85 84 39 84 86 38 87 87 35 88 91 33 89 88 37 90 90 37 90 90 33 89 88 39 91 89 32 92 93 34 93 94 38 94 92 38 94 92 34 93 94 36 95 95 43 96 98 40 97 96 41 98 97 40 97 96 43 96 98 42 99 99 45 100 102 42 101 100 43 102 101 42 101 100 45 100 102 44 103 103 47 104 106 44 105 104 45 106 105 44 105 104 47 104 106 46 107 107 43 108 111 41 109 108 45 110 110 45 110 110 41 109 108 47 111 109 42 112 114 46 113 112 40 114 113 46 113 112 42 112 114 44 115 115 51 116 118 48 117 116 49 118 117 48 117 116 51 116 118 50 119 119 53 120 122 50 121 120 51 122 121 50 121 120 53 120 122 52 123 123 55 124 126 52 125 124 53 126 125 52 125 124 55 124 126 54 127 127 51 128 131 49 129 128 53 130 130 53 130 130 49 129 128 55 131 129 50 132 134 54 133 132 48 134 133 54 133 132 50 132 134 52 135 135 59 136 138 56 137 136 57 138 137 56 137 136 59 136 138 58 139 139 61 140 142 58 141 140 59 142 141 58 141 140 61 140 142 60 143 143 63 144 146 60 145 144 61 146 145 60 145 144 63 144 146 62 147 147 59 148 151 57 149 148 61 150 150 61 150 150 57 149 148 63 151 149 58 152 154 62 153 152 56 154 153 62 153 152 58 152 154 60 155 155 67 156 158 64 157 156 65 158 157 64 157 156 67 156 158 66 159 159 69 160 162 66 161 160 67 162 161 66 161 160 69 160 162 68 163 163 71 164 166 68 165 164 69 166 165 68 165 164 71 164 166 70 167 167 67 168 171 65 169 168 69 170 170 69 170 170 65 169 168 71 171 169 66 172 174 70 173 172 64 174 173 70 173 172 66 172 174 68 175 175 75 176 178 72 177 176 73 178 177 72 177 176 75 176 178 74 179 179 77 180 182 74 181 180 75 182 181 74 181 180 77 180 182 76 183 183 79 184 186 76 185 184 77 186 185 76 185 184 79 184 186 78 187 187 75 188 191 73 189 188 77 190 190 77 190 190 73 189 188 79 191 189 74 192 194 78 193 192 72 194 193 78 193 192 74 192 194 76 195 195 82 196 199 80 197 196 83 198 198 83 198 198 80 197 196 81 199 197 85 200 201 87 201 202 84 202 200 84 202 200 87 201 202 86 203 203 83 204 207 87 205 205 85 206 206 87 205 205 83 204 207 81 207 204 84 208 211 86 209 208 82 210 210 82 210 210 86 209 208 80 211 209 90 212 215 88 213 212 91 214 214 91 214 214 88 213 212 89 215 213 93 216 217 95 217 218 92 218 216 92 218 216 95 217 218 94 219 219 91 220 223 89 221 220 93 222 222 93 222 222 89 221 220 95 223 221 92 224 227 88 225 225 90 226 226 88 225 225 92 224 227 94 227 224 98 228 231 96 229 228 99 230 230 99 230 230 96 229 228 97 231 229 101 232 233 103 233 234 100 234 232 100 234 232 103 233 234 102 235 235 99 236 239 97 237 236 101 238 238 101 238 238 97 237 236 103 239 237 100 240 243 96 241 241 98 242 242 96 241 241 100 240 243 102 243 240 105 244 245 106 245 247 104 246 244 106 245 247 105 244 245 107 247 246 111 248 250 108 249 248 109 250 249 108 249 248 111 248 250 110 251 251 111 252 253 109 253 254 105 254 252 107 255 255 105 254 252 109 253 254 106 256 258 110 257 256 104 258 257 110 257 256 106 256 258 108 259 259 113 260 261 115 261 262 112 262 260 114 263 263 112 262 260 115 261 262 119 264 266 116 265 264 117 266 265 116 265 264 119 264 266 118 267 267 119 268 269 117 269 270 113 270 268 115 271 271 113 270 268 117 269 270 112 272 273 116 273 275 118 274 272 116 273 275 112 272 273 114 275 274 121 276 277 123 277 278 120 278 276 122 279 279 120 278 276 123 277 278 127 280 282 124 281 280 125 282 281 124 281 280 127 280 282 126 283 283 127 284 285 125 285 286 121 286 284 123 287 287 121 286 284 125 285 286 122 288 290 126 289 288 120 290 289 126 289 288 122 288 290 124 291 291 129 292 293 131 293 294 128 294 292 130 295 295 128 294 292 131 293 294 135 296 298 132 297 296 133 298 297 132 297 296 135 296 298 134 299 299 135 300 301 133 301 302 129 302 300 131 303 303 129 302 300 133 301 302 130 304 306 134 305 304 128 306 305 134 305 304 130 304 306 132 307 307 137 308 309 139 309 310 136 310 308 138 311 311 136 310 308 139 309 310 143 312 314 140 313 312 141 314 313 140 313 312 143 312 314 142 315 315 143 316 317 139 317 319 137 318 316 139 317 319 143 316 317 141 319 318 138 320 322 142 321 320 136 322 321 142 321 320 138 320 322 140 323 323 145 324 325 147 325 326 144 326 324 146 327 327 144 326 324 147 325 326 151 328 330 148 329 328 149 330 329 148 329 328 151 328 330 150 331 331 151 332 333 147 333 335 145 334 332 147 333 335 151 332 333 149 335 334 146 336 338 150 337 336 144 338 337 150 337 336 146 336 338 148 339 339 154 340 343 152 341 340 155 342 342 155 342 342 152 341 340 153 343 341 157 344 345 159 345 346 156 346 344 156 346 344 159 345 346 158 347 347 155 348 351 153 349 348 157 350 350 157 350 350 153 349 348 159 351 349 156 352 355 152 353 353 154 354 354 152 353 353 156 352 355 158 355 352 7 356 375 0 357 373 6 358 374 0 357 373 7 356 375 1 359 372 2 360 379 3 361 376 4 362 378 3 361 376 5 363 377 4 362 378 86 364 382 87 365 383 81 366 380 81 366 380 80 367 381 86 364 382 82 368 387 83 369 384 84 370 386 84 370 386 83 369 384 85 371 385 94 372 390 95 373 391 89 374 388 89 374 388 88 375 389 94 372 390 90 376 395 91 377 392 92 378 394 92 378 394 91 377 392 93 379 393 102 380 398 103 381 399 97 382 396 97 382 396 96 383 397 102 380 398 98 384 403 99 385 400 100 386 402 99 385 400 101 387 401 100 386 402 110 388 406 105 389 404 104 390 405 105 389 404 110 388 406 111 391 407 109 392 433 106 393 435 107 394 432 106 393 435 109 392 433 108 395 434 118 396 410 113 397 408 112 398 409 113 397 408 118 396 410 119 399 411 117 400 437 116 401 438 115 402 436 114 403 439 115 402 436 116 401 438 121 404 356 120 405 357 126 406 358 121 404 356 126 406 358 127 407 359 125 408 361 124 409 362 123 410 360 122 411 363 123 410 360 124 409 362 129 412 364 128 413 365 134 414 366 129 412 364 134 414 366 135 415 367 133 416 369 132 417 370 131 418 368 130 419 371 131 418 368 132 417 370 142 420 414 137 421 412 136 422 413 137 421 412 142 420 414 143 423 415 141 424 417 140 425 418 139 426 416 138 427 419 139 426 416 140 425 418 145 428 420 144 429 421 150 430 422 145 428 420 150 430 422 151 431 423 149 432 425 148 433 426 147 434 424 146 435 427 147 434 424 148 433 426 158 436 430 159 437 431 153 438 428 153 438 428 152 439 429 158 436 430 154 440 443 155 441 440 156 442 442 156 442 442 155 441 440 157 443 441</p>
        </triangles>
      </mesh>
      <extra>
        <technique profile="OpenCOLLADAMaya">
          <originalMayaNodeId>cluster_01_frameShape</originalMayaNodeId>
          <double_sided>1</double_sided>
        </technique>
      </extra>
    </geometry>
    <geometry id="cluster_01_pipesShape" name="cluster_01_pipesShape">
      <mesh>
        <source id="cluster_01_pipesShape-positions" name="cluster_01_pipesShape-positions">
          <float_array id="cluster_01_pipesShape-positions-array" count="840">-2.002756 0.2254638 0.7885065 -2.002756 0.3119543 0.7499979 -2.002756 0.3984525 0.7885065 -2.002756 0.4369582 0.8749969 -2.002756 0.3984525 0.9614951 -2.002756 0.3119543 0.9999979 -2.002756 0.2254638 0.9614951 -2.002756 0.1869581 0.8749969 1.997244 0.2254638 0.7885065 1.997244 0.3119543 0.749998 1.997244 0.3984525 0.7885065 1.997244 0.4369582 0.8749971 1.997244 0.3984525 0.9614952 1.997244 0.3119543 0.999998 1.997244 0.2254638 0.9614952 1.997244 0.1869581 0.8749971 -2.002756 0.2254638 0.5385065 -2.002756 0.3119543 0.4999979 -2.002756 0.3984525 0.5385065 -2.002756 0.4369582 0.6249969 -2.002756 0.3984525 0.7114951 -2.002756 0.2254638 0.7114951 -2.002756 0.1869581 0.6249969 1.997244 0.2254638 0.5385065 1.997244 0.3119543 0.499998 1.997244 0.3984525 0.5385065 1.997244 0.4369582 0.6249971 1.997244 0.3984525 0.7114952 1.997244 0.2254638 0.7114952 1.997244 0.1869581 0.6249971 -2.002756 0.2254638 1.038506 -2.002756 0.3984525 1.038506 -2.002756 0.4369582 1.124997 -2.002756 0.3984525 1.211495 -2.002756 0.3119543 1.249998 -2.002756 0.2254638 1.211495 -2.002756 0.1869581 1.124997 1.997244 0.2254638 1.038506 1.997244 0.3984525 1.038506 1.997244 0.4369582 1.124997 1.997244 0.3984525 1.211495 1.997244 0.3119543 1.249998 1.997244 0.2254638 1.211495 1.997244 0.1869581 1.124997 -2.002756 0.2254638 -0.9614935 -2.002756 0.3119543 -1.000002 -2.002756 0.3984525 -0.9614935 -2.002756 0.4369582 -0.8750029 -2.002756 0.3984525 -0.7885048 -2.002756 0.3119543 -0.750002 -2.002756 0.2254638 -0.7885048 -2.002756 0.1869581 -0.8750029 1.997244 0.2254638 -0.9614935 1.997244 0.3119543 -1.000002 1.997244 0.3984525 -0.9614935 1.997244 0.4369582 -0.8750027 1.997244 0.3984525 -0.7885046 1.997244 0.3119543 -0.7500018 1.997244 0.2254638 -0.7885046 1.997244 0.1869581 -0.8750027 -2.002756 0.2254638 -0.7114935 -2.002756 0.3984525 -0.7114935 -2.002756 0.4369582 -0.6250029 -2.002756 0.3984525 -0.5385048 -2.002756 0.3119543 -0.500002 -2.002756 0.2254638 -0.5385048 -2.002756 0.1869581 -0.6250029 1.997244 0.2254638 -0.7114935 1.997244 0.3984525 -0.7114935 1.997244 0.4369582 -0.6250029 1.997244 0.3984525 -0.5385048 1.997244 0.3119543 -0.500002 1.997244 0.2254638 -0.5385048 1.997244 0.1869581 -0.6250029 -2.002756 0.2254638 -1.211494 -2.002756 0.3119543 -1.250002 -2.002756 0.3984525 -1.211494 -2.002756 0.4369582 -1.125003 -2.002756 0.3984525 -1.038505 -2.002756 0.2254638 -1.038505 -2.002756 0.1869581 -1.125003 1.997244 0.2254638 -1.211494 1.997244 0.3119543 -1.250002 1.997244 0.3984525 -1.211494 1.997244 0.4369582 -1.125003 1.997244 0.3984525 -1.038505 1.997244 0.2254638 -1.038505 1.997244 0.1869581 -1.125003 1.852467 0.2022023 -0.5152461 1.852467 0.3119543 -0.4697836 1.852467 0.421714 -0.5152461 1.852467 0.4671728 -0.625002 1.852467 0.421714 -0.734754 1.852467 0.3119543 -0.7802164 1.852467 0.2022023 -0.734754 1.852467 0.1567435 -0.625002 1.997244 0.2022023 -0.5152461 1.997244 0.3119543 -0.4697836 1.997244 0.421714 -0.5152461 1.997244 0.4671728 -0.6250018 1.997244 0.421714 -0.734754 1.997244 0.3119543 -0.7802164 1.997244 0.2022023 -0.734754 1.997244 0.1567435 -0.6250018 1.852467 0.2022023 -1.015246 1.852467 0.3119543 -0.9697836 1.852467 0.421714 -1.015246 1.852467 0.4671728 -1.125002 1.852467 0.421714 -1.234754 1.852467 0.3119543 -1.280216 1.852467 0.2022023 -1.234754 1.852467 0.1567435 -1.125002 1.997244 0.2022023 -1.015246 1.997244 0.3119543 -0.9697836 1.997244 0.421714 -1.015246 1.997244 0.4671728 -1.125002 1.997244 0.421714 -1.234754 1.997244 0.3119543 -1.280216 1.997244 0.2022023 -1.234754 1.997244 0.1567435 -1.125002 1.852467 0.2022023 -0.765246 1.852467 0.3119543 -0.7197836 1.852467 0.421714 -0.765246 1.852467 0.4671728 -0.8750018 1.852467 0.421714 -0.984754 1.852467 0.3119543 -1.030217 1.852467 0.2022023 -0.984754 1.852467 0.1567436 -0.8750018 1.997244 0.2022023 -0.765246 1.997244 0.3119543 -0.7197836 1.997244 0.421714 -0.765246 1.997244 0.4671728 -0.8750018 1.997244 0.421714 -0.984754 1.997244 0.3119543 -1.030217 1.997244 0.2022023 -0.984754 1.997244 0.1567436 -0.8750018 1.852467 0.2022023 0.734754 1.852467 0.3119543 0.7802164 1.852467 0.421714 0.734754 1.852467 0.4671728 0.6249981 1.852467 0.421714 0.515246 1.852467 0.3119543 0.4697835 1.852467 0.2022023 0.515246 1.852467 0.1567435 0.6249981 1.997244 0.2022023 0.734754 1.997244 0.3119543 0.7802164 1.997244 0.421714 0.734754 1.997244 0.4671728 0.6249982 1.997244 0.421714 0.515246 1.997244 0.3119543 0.4697835 1.997244 0.2022023 0.515246 1.997244 0.1567435 0.6249982 1.852467 0.2022023 0.984754 1.852467 0.3119543 1.030216 1.852467 0.421714 0.984754 1.852467 0.4671728 0.8749981 1.852466 0.421714 0.765246 1.852467 0.3119543 0.7197835 1.852466 0.2022023 0.765246 1.852467 0.1567435 0.8749981 1.997244 0.2022023 0.984754 1.997244 0.3119543 1.030216 1.997244 0.421714 0.984754 1.997244 0.4671728 0.8749981 1.997244 0.421714 0.765246 1.997244 0.3119543 0.7197835 1.997244 0.2022023 0.765246 1.997244 0.1567435 0.8749981 1.852467 0.2022023 1.234754 1.852467 0.3119543 1.280217 1.852467 0.421714 1.234754 1.852467 0.4671728 1.124998 1.852466 0.421714 1.015246 1.852467 0.3119543 0.9697835 1.852466 0.2022023 1.015246 1.852467 0.1567435 1.124998 1.997244 0.2022023 1.234754 1.997244 0.3119543 1.280217 1.997244 0.421714 1.234754 1.997244 0.4671728 1.124998 1.997244 0.421714 1.015246 1.997244 0.3119543 0.9697835 1.997244 0.2022023 1.015246 1.997244 0.1567435 1.124998 -0.02253334 0.2022023 -0.5152461 -0.02253334 0.3119543 -0.4697836 -0.02253334 0.421714 -0.5152461 -0.0225333 0.4671728 -0.6250019 -0.02253334 0.421714 -0.734754 -0.02253334 0.3119543 -0.7802165 -0.02253334 0.2022023 -0.734754 -0.0225333 0.1567435 -0.6250019 0.1222439 0.2022023 -0.5152461 0.1222439 0.3119543 -0.4697836 0.1222439 0.421714 -0.5152461 0.1222439 0.4671728 -0.6250019 0.1222439 0.421714 -0.734754 0.1222439 0.3119543 -0.7802165 0.1222439 0.2022023 -0.734754 0.1222439 0.1567435 -0.6250019 -0.02253334 0.2022023 -1.015246 -0.02253334 0.3119543 -0.9697836 -0.02253334 0.421714 -1.015246 -0.02253334 0.4671728 -1.125002 -0.02253334 0.421714 -1.234754 -0.02253326 0.3119543 -1.280217 -0.02253334 0.2022023 -1.234754 -0.02253334 0.1567435 -1.125002 0.1222439 0.2022023 -1.015246 0.1222439 0.3119543 -0.9697836 0.1222439 0.421714 -1.015246 0.1222439 0.4671728 -1.125002 0.1222439 0.421714 -1.234754 0.1222439 0.3119543 -1.280216 0.1222439 0.2022023 -1.234754 0.1222439 0.1567435 -1.125002 -0.02253334 0.2022023 -0.7652461 -0.02253334 0.3119543 -0.7197836 -0.02253334 0.421714 -0.7652461 -0.02253334 0.4671728 -0.875002 -0.02253334 0.421714 -0.9847541 -0.02253334 0.3119543 -1.030217 -0.02253334 0.2022023 -0.9847541 -0.02253334 0.1567435 -0.875002 0.1222439 0.2022023 -0.7652461 0.1222439 0.3119543 -0.7197836 0.1222439 0.421714 -0.7652461 0.1222439 0.4671728 -0.875002 0.1222439 0.421714 -0.9847541 0.1222439 0.3119543 -1.030217 0.1222439 0.2022023 -0.9847541 0.1222439 0.1567435 -0.875002 -0.02253334 0.2022023 0.734754 -0.02253334 0.3119543 0.7802164 -0.02253334 0.421714 0.734754 -0.02253334 0.4671728 0.6249981 -0.02253334 0.421714 0.515246 -0.02253334 0.3119543 0.4697835 -0.02253334 0.2022023 0.515246 -0.02253334 0.1567435 0.6249981 0.1222439 0.2022023 0.734754 0.1222439 0.3119543 0.7802164 0.1222439 0.421714 0.734754 0.1222439 0.4671728 0.6249981 0.1222439 0.421714 0.515246 0.1222439 0.3119543 0.4697835 0.1222439 0.2022023 0.515246 0.1222439 0.1567435 0.6249981 -0.02253334 0.2022023 0.984754 -0.02253334 0.3119543 1.030216 -0.02253334 0.421714 0.984754 -0.02253334 0.4671728 0.8749981 -0.02253334 0.421714 0.765246 -0.02253334 0.3119543 0.7197835 -0.02253334 0.2022023 0.765246 -0.02253334 0.1567435 0.8749981 0.1222439 0.2022023 0.984754 0.1222439 0.3119543 1.030216 0.1222439 0.421714 0.984754 0.1222439 0.4671728 0.8749981 0.1222439 0.421714 0.765246 0.1222439 0.3119543 0.7197835 0.1222439 0.2022023 0.765246 0.1222439 0.1567435 0.8749981 -0.02253334 0.2022023 1.234754 -0.02253334 0.3119543 1.280217 -0.02253334 0.421714 1.234754 -0.02253334 0.4671728 1.124998 -0.02253334 0.421714 1.015246 -0.02253334 0.3119543 0.9697835 -0.02253334 0.2022023 1.015246 -0.02253334 0.1567435 1.124998 0.1222438 0.2022023 1.234754 0.122244 0.3119543 1.280217 0.1222438 0.421714 1.234754 0.1222439 0.4671728 1.124998 0.1222439 0.421714 1.015246 0.1222439 0.3119543 0.9697835 0.1222439 0.2022023 1.015246 0.1222439 0.1567435 1.124998</float_array>
          <technique_common>
            <accessor source="#cluster_01_pipesShape-positions-array" count="280" stride="3">
              <param name="X" type="float"/>
              <param name="Y" type="float"/>
              <param name="Z" type="float"/>
            </accessor>
          </technique_common>
        </source>
        <source id="cluster_01_pipesShape-normals" name="cluster_01_pipesShape-normals">
          <float_array id="cluster_01_pipesShape-normals-array" count="1590">0 -0.7071167 -0.7070969 0 -0.4067405 -0.9135437 0 -0.4067399 -0.9135439 0 -0.7071167 -0.7070968 0 0.40671 -0.9135572 0 0.4067108 -0.9135569 0 0.7071052 -0.7071083 0 0.7071052 -0.7071084 0 0.9891659 -0.1468021 0 0.9891706 0.1467702 0 0.7070972 0.7071164 0 0.7070975 0.7071161 0 0.4066602 0.9135794 0 0.4066602 0.9135794 0 -0.4066901 0.9135661 0 -0.4066901 0.9135661 0 -0.6116285 0.791145 0 -0.7911482 0.6116246 0 -0.9891706 0.1467705 0 -0.9891658 -0.1468023 0 -0.7911448 -0.6116288 0 -0.6116506 -0.791128 0 -0.1468135 -0.9891641 0 0.1467806 -0.9891691 0 0.7071052 -0.7071084 0 0.7071055 -0.7071081 0 0.9891659 -0.146802 0 0.9891706 0.14677 0 0.7070972 0.7071164 0 0.7070975 0.7071161 0 0.4066602 0.9135794 0 0.4066602 0.9135794 0 -0.4066901 0.9135661 0 -0.4066901 0.9135661 0 -0.6116285 0.791145 0 -0.7911482 0.6116246 0 -0.9891706 0.1467704 0 -0.9891658 -0.1468023 0 -0.7071167 -0.7070969 0 -0.4067405 -0.9135437 0 -0.4067399 -0.9135439 0 -0.7071167 -0.7070968 0 0.40671 -0.9135572 0 0.4067108 -0.9135569 0 0.7071052 -0.7071083 0 0.7071052 -0.7071084 0 0.9891659 -0.1468021 0 0.9891706 0.1467702 0 0.7070972 0.7071164 0 0.7070975 0.7071161 0 0.1467595 0.9891722 0 -0.1467919 0.9891675 0 -0.6116285 0.791145 0 -0.7911482 0.6116246 0 -0.9891706 0.1467705 0 -0.9891658 -0.1468023 0 -0.7071164 -0.7070972 0 -0.4067393 -0.9135442 0 -0.4067385 -0.9135445 0 -0.7071166 -0.7070969 0 0.4067087 -0.9135579 0 0.4067093 -0.9135576 0 0.7071047 -0.7071087 0 0.707105 -0.7071086 0 0.9891659 -0.1468017 0 0.9891706 0.1467706 0 0.707097 0.7071166 0 0.7070973 0.7071163 0 0.4066602 0.9135794 0 0.4066602 0.9135794 0 -0.4066901 0.9135661 0 -0.4066901 0.9135661 0 -0.6116286 0.791145 0 -0.7911482 0.6116244 0 -0.9891706 0.1467703 0 -0.9891658 -0.146802 0 -0.7071162 -0.7070972 0 -0.4067393 -0.9135442 0 -0.4067385 -0.9135445 0 -0.7071166 -0.7070969 0 0.4067087 -0.9135579 0 0.4067093 -0.9135576 0 0.6116323 -0.7911422 0 0.7911389 -0.6116365 0 1 0 0 0.9999999 0 0 0.7070971 0.7071164 0 0.7070971 0.7071164 0 0.1467595 0.9891722 0 -0.1467919 0.9891675 0 -0.6116287 0.791145 0 -0.7911482 0.6116245 0 -0.9891706 0.1467703 0 -0.9891659 -0.146802 0 -0.7071164 -0.7070972 0 0 -1 0 0 -0.9999999 0 -0.7071166 -0.7070969 0 0.7071047 -0.7071087 0 0.707105 -0.7071086 0 0.9891659 -0.1468017 0 0.9891706 0.1467706 0 0.707097 0.7071166 0 0.7070973 0.7071163 0 0.4066602 0.9135794 0 0.4066602 0.9135794 0 -0.4066901 0.9135661 0 -0.4066901 0.9135661 0 -0.6116286 0.791145 0 -0.7911482 0.6116244 0 -0.9891706 0.1467703 0 -0.9891658 -0.146802 0 -0.6037619 0.7971647 0 0.1367618 0.9906039 0 -0.1367862 0.9906005 0 -0.7971892 0.6037295 0 0.7071121 0.7071014 0 0.7071126 0.7071009 0 1 0 0 1 0 0 0.6037449 -0.7971776 0 0.7971795 -0.6037423 0 -0.1367857 -0.9906006 0 0.1367613 -0.9906039 0 -0.7971841 -0.6037364 0 -0.6037585 -0.7971673 0 -0.9906042 0.1367596 0 -0.9906027 -0.1367715 -0.9999999 0 0 -0.9999999 0 0 -0.9999999 0 0 -0.9999999 0 0 0.9999999 0 0 0.9999999 0 0 0.9999999 0 0 0.9999999 0 0 -0.9999999 0 0 -0.9999999 0 0 -0.9999999 0 0 -0.9999999 0 0 -0.9999999 0 0 -0.9999999 0 0 0.9999999 0 0 0.9999999 0 0 0.9999999 0 0 0.9999999 0 0 0.9999999 0 0 0.9999999 0 0 0.9999999 0 0 0.9999999 0 0 0 -0.6037614 0.7971651 0 0.1367613 0.9906039 0 -0.1367857 0.9906006 0 -0.7971891 0.6037296 0 0.7071121 0.7071015 0 0.7071123 0.7071013 0 0.9999999 0 0 0.9999999 0 0 0.6037449 -0.7971776 0 0.7971796 -0.6037421 0 -0.1367857 -0.9906006 0 0.1367613 -0.9906039 0 -0.7971842 -0.6037362 0 -0.6037586 -0.7971672 0 -0.9906043 0.1367593 0 -0.9906027 -0.1367713 -0.9999999 0 0 -0.9999999 0 0 -0.9999999 0 0 -0.9999999 0 0 0.9999999 0 0 0.9999999 0 0 0.9999999 0 0 0.9999999 0 0 -0.9999999 0 0 -0.9999999 0 0 -0.9999999 0 0 -0.9999999 0 0 -0.9999999 0 0 -0.9999999 0 0 0.9999999 0 0 0.9999999 0 0 0.9999999 0 0 0.9999999 0 0 0.9999999 0 0 0.9999999 0 0 0.9999999 0 0 0.9999999 0 0 0 -0.6037616 0.7971649 0 0.1367613 0.9906039 0 -0.1367857 0.9906006 0 -0.7971894 0.6037294 0 0.7071121 0.7071015 0 0.7071123 0.7071013 0 0.9906043 0.1367591 0 0.9906027 -0.1367715 0 0.7071088 -0.7071047 0 0.7071091 -0.7071044 0 -0.1367867 -0.9906005 0 0.1367622 -0.9906039 0 -0.7971845 -0.6037356 0 -0.6037599 -0.7971662 0 -0.9906045 0.1367591 0 -0.9906027 -0.1367712 -0.9999999 0 0 -0.9999999 0 0 -0.9999999 0 0 -0.9999999 0 0 0.9999999 0 0 0.9999999 0 0 0.9999999 0 0 0.9999999 0 0 -0.9999999 0 0 -0.9999999 0 0 -0.9999999 0 0 -0.9999999 0 0 0.9999999 0 0 0.9999999 0 0 0.9999999 0 0 0.9999999 0 0 0.9999999 0 0 0.9999999 0 0 0.9999999 0 0 0.9999999 0 0 0 -0.6037621 0.7971644 0 0.1367618 0.9906039 0 -0.1367862 0.9906005 0 -0.7971893 0.6037293 0 0.7071126 0.7071009 0 0.7071127 0.7071007 0 0.9999999 0 0 1 0 0 0.6037456 -0.797177 0 0.7971798 -0.6037421 0 -0.1367862 -0.9906005 0 0.1367618 -0.9906039 0 -0.7971843 -0.6037361 0 -0.6037592 -0.7971666 0 -0.9906043 0.1367593 0 -0.9906027 -0.1367715 -0.9999999 0 0 -0.9999999 0 0 -0.9999999 0 0 -0.9999999 0 0 0.9999999 0 0 0.9999999 0 0 0.9999999 0 0 0.9999999 0 0 -0.9999999 0 0 -0.9999999 0 0 -0.9999999 0 0 -0.9999999 0 0 -0.9999999 0 0 -0.9999999 0 0 0.9999999 0 0 0.9999999 0 0 0.9999999 0 0 0.9999999 0 0 0.9999999 0 0 0.9999999 0 0 0.9999999 0 0 0.9999999 0 0 0 -0.6037621 0.7971644 0 0.1367618 0.9906039 0 -0.1367862 0.9906005 0 -0.7971893 0.6037293 0 0.7071126 0.7071009 0 0.7071127 0.7071007 0 0.9906043 0.1367594 0 0.9906027 -0.1367715 0 0.7071084 -0.707105 0 0.7071083 -0.7071052 0 0 -1 0 0 -1 0 -0.7071171 -0.7070965 0 -0.707117 -0.7070966 0 -0.9906043 0.1367593 0 -0.9906027 -0.1367715 -0.9999999 0 0 -0.9999999 0 0 -0.9999999 0 0 -0.9999999 0 0 0.9999999 0 0 0.9999999 0 0 0.9999999 0 0 0.9999999 0 0 -0.9999999 0 0 -0.9999999 0 0 -0.9999999 0 0 -0.9999999 0 0 -0.9999999 0 0 -0.9999999 0 0 0.9999999 0 0 0.9999999 0 0 0.9999999 0 0 0.9999999 0 0 0.9999999 0 0 0.9999999 0 0 0.9999999 0 0 0.9999999 0 0 0 -0.6037623 0.7971644 0 0.1367618 0.990604 0 -0.1367864 0.9906005 0 -0.7971893 0.6037293 0 0.7071128 0.7071007 0 0.7071128 0.7071006 0 0.9906043 0.1367594 0 0.9906027 -0.1367715 0 0.7071084 -0.707105 0 0.7071083 -0.7071052 0 0 -1 0 0 -1 0 -0.7071171 -0.7070965 0 -0.707117 -0.7070966 0 -0.9906043 0.1367593 0 -0.9906027 -0.1367715 -0.9999999 0 0 -0.9999999 0 0 -0.9999999 0 0 -0.9999999 0 0 0.9999999 0 0 0.9999999 0 0 0.9999999 0 0 0.9999999 0 0 -0.9999999 0 0 -0.9999999 0 0 -0.9999999 0 0 -0.9999999 0 0 -0.9999999 0 0 -0.9999999 0 0 0.9999999 0 0 0.9999999 0 0 0.9999999 0 0 0.9999999 0 0 0.9999999 0 0 0.9999999 0 0 0.9999999 0 0 0.9999999 0 0 0 -0.7071214 0.7070922 0 0.1367618 0.9906039 0 -0.1367862 0.9906005 0 -0.7071214 0.7070923 0 0.7971849 0.6037354 0 0.6037486 0.7971747 0 0.9999999 0 0 1 0 0 0.7071084 -0.707105 0 0.7071083 -0.7071051 0 -0.1367862 -0.9906005 0 0.1367618 -0.9906039 0 -0.7971843 -0.603736 0 -0.6037592 -0.7971666 0 -0.9999999 0 0 -1 0 -0.9999999 0 0 -0.9999999 0 0 -0.9999999 0 0 -0.9999999 0 0 0.9999999 0 0 0.9999999 0 0 0.9999999 0 0 0.9999999 0 0 -0.9999999 0 0 -0.9999999 0 0 -0.9999999 0 0 -0.9999999 0 0 0.9999999 0 0 0.9999999 0 0 0.9999999 0 0 0.9999999 0 0 0 -0.6037622 0.7971644 0 0.1367618 0.9906039 0 -0.1367862 0.9906005 0 -0.7971893 0.6037293 0 0.7071127 0.707101 0 0.7071128 0.7071007 0 0.9999999 0 0 1 0 0 0.6037453 -0.7971773 0 0.7971799 -0.603742 0 0 -0.9999999 0 0 -1 0 -0.7071168 -0.7070969 0 -0.707117 -0.7070966 0 -0.9906043 0.1367594 0 -0.9906027 -0.1367714 -0.9999999 0 0 -0.9999999 0 0 -0.9999999 0 0 -0.9999999 0 0 0.9999999 0 0 0.9999999 0 0 0.9999999 0 0 0.9999999 0 0 -0.9999999 0 0 -0.9999999 0 0 -0.9999999 0 0 -0.9999999 0 0 0.9999999 0 0 0.9999999 0 0 0.9999999 0 0 0.9999999 0 0 0 -0.6037622 0.7971644 0 0.1367618 0.9906039 0 -0.1367862 0.9906005 0 -0.7971893 0.6037293 0 0.7071127 0.707101 0 0.7071128 0.7071007 0 1 0 0 1 0 0 0.6037457 -0.797177 0 0.7971799 -0.6037419 0 -0.1367862 -0.9906005 0 0.1367618 -0.9906039 0 -0.7971843 -0.603736 0 -0.6037593 -0.7971667 0 -0.9906043 0.1367594 0 -0.9906027 -0.1367713 -0.9999999 0 0 -0.9999999 0 0 -0.9999999 0 0 -0.9999999 0 0 0.9999999 0 0 0.9999999 0 0 0.9999999 0 0 0.9999999 0 0 -0.9999999 0 0 -0.9999999 0 0 -0.9999999 0 0 -0.9999999 0 0 0.9999999 0 0 0.9999999 0 0 0.9999999 0 0 0.9999999 0 0 0 -0.6037622 0.7971644 0 0.1367618 0.9906039 0 -0.1367862 0.9906005 0 -0.7971893 0.6037293 0 0.7071127 0.707101 0 0.7071128 0.7071007 0 1 0 0 1 0 0 0.6037457 -0.797177 0 0.7971799 -0.6037419 0 -0.1367862 -0.9906005 0 0.1367618 -0.9906039 0 -0.7971843 -0.603736 0 -0.6037593 -0.7971667 0 -0.9906043 0.1367594 0 -0.9906027 -0.1367713 -0.9999999 0 0 -0.9999999 0 0 -0.9999999 0 0 -0.9999999 0 0 0.9999999 0 0 0.9999999 0 0 0.9999999 0 0 0.9999999 0 0 -0.9999999 0 0 -0.9999999 0 0 -0.9999999 0 0 -0.9999999 0 0 0.9999999 0 0 0.9999999 0 0 0.9999999 0 0 0.9999999 0 0 0 -0.603762 0.7971645 0 0.1367616 0.9906039 0 -0.1367862 0.9906007 0 -0.7971892 0.6037294 0 0.7071127 0.707101 0 0.7071127 0.7071009 0 1 0 0 1 0 0 0.6037457 -0.797177 0 0.7971799 -0.6037419 0 -0.1367862 -0.9906005 0 0.1367618 -0.9906039 0 -0.7971843 -0.603736 0 -0.6037593 -0.7971667 0 -0.9906043 0.1367594 0 -0.9906027 -0.1367713 -0.9999999 0 0 -0.9999999 0 0 -0.9999999 0 0 -0.9999999 0 0 0.9999999 0 0 0.9999999 0 0 0.9999999 0 0 0.9999999 0 0 -0.9999999 0 0 -0.9999999 0 0 -0.9999999 0 0 -0.9999999 0 0 0.9999999 0 0 0.9999999 0 0 0.9999999 0 0 0.9999999 0 0 0 -0.7071216 0.7070919 0 0 1 0 0 1 0 -0.7071217 0.7070917 0 0.707113 0.7071005 0 0.7071131 0.7071004 0 0.9906043 0.1367592 0 0.9906027 -0.1367713 0 0.6037457 -0.797177 0 0.7971799 -0.6037419 0 -0.1367862 -0.9906005 0 0.1367618 -0.9906039 0 -0.707117 -0.7070965 0 -0.7071171 -0.7070963 0 -0.9906027 -0.1367712 0 -0.9906043 0.1367594 -0.9999999 0 0 -0.9999999 0 0 -0.9999999 0 0 -0.9999999 0 0 0.9999999 0 0 0.9999999 0 0 0.9999999 0 0 0.9999999 0 0 -0.9999999 0 0 -0.9999999 0 0 -0.9999999 0 0 -0.9999999 0 0 0.9999999 0 0 0.9999999 0 0 0.9999999 0 0 0.9999999 0 0</float_array>
          <technique_common>
            <accessor source="#cluster_01_pipesShape-normals-array" count="530" stride="3">
              <param name="X" type="float"/>
              <param name="Y" type="float"/>
              <param name="Z" type="float"/>
            </accessor>
          </technique_common>
        </source>
        <source id="cluster_01_pipesShape-UVSet0" name="cluster_01_pipesShape-UVSet0">
          <float_array id="cluster_01_pipesShape-UVSet0-array" count="1032">0.118442 0.511491 0.134431 0.511491 0.134431 0.963535 0.118442 0.963535 0.007555 0.511491 0.023545 0.511491 0.023545 0.963535 0.007555 0.963535 0.039361 0.511491 0.039361 0.963535 0.055177 0.511491 0.055177 0.963535 0.070993 0.511491 0.070993 0.963535 0.086809 0.511491 0.086809 0.963535 0.102626 0.511491 0.102626 0.963535 0.118442 0.511491 0.134431 0.511491 0.134431 0.963535 0.118442 0.963535 0.007555 0.511491 0.023545 0.511491 0.023545 0.963535 0.007555 0.963535 0.039361 0.511491 0.039361 0.963535 0.055177 0.511491 0.055177 0.963535 0.070993 0.511491 0.070993 0.963535 0.086809 0.511491 0.086809 0.963535 0.102626 0.511491 0.102626 0.963535 0.118442 0.511491 0.134431 0.511491 0.134431 0.963535 0.118442 0.963535 0.007555 0.511491 0.023545 0.511491 0.023545 0.963535 0.007555 0.963535 0.039361 0.511491 0.039361 0.963535 0.055177 0.511491 0.055177 0.963535 0.070993 0.511491 0.070993 0.963535 0.086809 0.511491 0.086809 0.963535 0.102626 0.511491 0.102626 0.963535 0.118442 0.511491 0.134431 0.511491 0.134431 0.963535 0.118442 0.963535 0.007555 0.511491 0.023545 0.511491 0.023545 0.963535 0.007555 0.963535 0.039361 0.511491 0.039361 0.963535 0.055177 0.511491 0.055177 0.963535 0.070993 0.511491 0.070993 0.963535 0.086809 0.511491 0.086809 0.963535 0.102626 0.511491 0.102626 0.963535 0.118442 0.511491 0.134431 0.511491 0.134431 0.963535 0.118442 0.963535 0.007555 0.511491 0.023545 0.511491 0.023545 0.963535 0.007555 0.963535 0.039361 0.511491 0.039361 0.963535 0.055177 0.511491 0.055177 0.963535 0.070993 0.511491 0.070993 0.963535 0.086809 0.511491 0.086809 0.963535 0.102626 0.511491 0.102626 0.963535 0.118442 0.511491 0.134431 0.511491 0.134431 0.963535 0.118442 0.963535 0.007555 0.511491 0.023545 0.511491 0.023545 0.963535 0.007555 0.963535 0.039361 0.511491 0.039361 0.963535 0.055177 0.511491 0.055177 0.963535 0.070993 0.511491 0.070993 0.963535 0.086809 0.511491 0.086809 0.963535 0.102626 0.511491 0.102626 0.963535 0.133484 0.503267 0.118335 0.503267 0.118335 0.442671 0.133484 0.442671 0.027441 0.503267 0.012292 0.503267 0.012292 0.442671 0.027441 0.442671 0.04259 0.442671 0.04259 0.503267 0.057739 0.503267 0.057739 0.442671 0.072888 0.503267 0.072888 0.442671 0.088037 0.503267 0.088037 0.442671 0.103186 0.503267 0.103186 0.442671 0.254296 0.032334 0.210725 0.050381 0.20325 0.032334 0.24682 0.014286 0.043069 0.18124 0.055162 0.196581 0.008329 0.191038 0.02367 0.178944 0.24682 0.050381 0.228773 0.057857 0.210725 0.014286 0.228773 0.006811 0.006033 0.210437 0.052866 0.21598 0.037526 0.228074 0.018126 0.225778 0.133484 0.503267 0.118335 0.503267 0.118335 0.442671 0.133484 0.442671 0.027441 0.503267 0.012292 0.503267 0.012292 0.442671 0.027441 0.442671 0.04259 0.442671 0.04259 0.503267 0.057739 0.503267 0.057739 0.442671 0.072888 0.503267 0.072888 0.442671 0.088037 0.503267 0.088037 0.442671 0.103186 0.503267 0.103186 0.442671 0.254296 0.032334 0.210725 0.050381 0.20325 0.032334 0.24682 0.014286 0.043069 0.18124 0.055162 0.196581 0.008329 0.191038 0.02367 0.178944 0.24682 0.050381 0.228773 0.057857 0.210725 0.014286 0.228773 0.006811 0.006033 0.210437 0.052866 0.21598 0.037526 0.228074 0.018126 0.225778 0.133484 0.503267 0.118335 0.503267 0.118335 0.442671 0.133484 0.442671 0.027441 0.503267 0.012292 0.503267 0.012292 0.442671 0.027441 0.442671 0.04259 0.442671 0.04259 0.503267 0.057739 0.503267 0.057739 0.442671 0.072888 0.503267 0.072888 0.442671 0.088037 0.503267 0.088037 0.442671 0.103186 0.503267 0.103186 0.442671 0.254296 0.032334 0.210725 0.050381 0.20325 0.032334 0.24682 0.014286 0.043069 0.18124 0.055162 0.196581 0.008329 0.191038 0.02367 0.178944 0.24682 0.050381 0.228773 0.057857 0.210725 0.014286 0.228773 0.006811 0.006033 0.210437 0.052866 0.21598 0.037526 0.228074 0.018126 0.225778 0.133484 0.503267 0.118335 0.503267 0.118335 0.442671 0.133484 0.442671 0.027441 0.503267 0.012292 0.503267 0.012292 0.442671 0.027441 0.442671 0.04259 0.442671 0.04259 0.503267 0.057739 0.503267 0.057739 0.442671 0.072888 0.503267 0.072888 0.442671 0.088037 0.503267 0.088037 0.442671 0.103186 0.503267 0.103186 0.442671 0.254296 0.032334 0.210725 0.050381 0.20325 0.032334 0.24682 0.014286 0.043069 0.18124 0.055162 0.196581 0.008329 0.191038 0.02367 0.178944 0.24682 0.050381 0.228773 0.057857 0.210725 0.014286 0.228773 0.006811 0.006033 0.210437 0.052866 0.21598 0.037526 0.228074 0.018126 0.225778 0.133484 0.503267 0.118335 0.503267 0.118335 0.442671 0.133484 0.442671 0.027441 0.503267 0.012292 0.503267 0.012292 0.442671 0.027441 0.442671 0.04259 0.442671 0.04259 0.503267 0.057739 0.503267 0.057739 0.442671 0.072888 0.503267 0.072888 0.442671 0.088037 0.503267 0.088037 0.442671 0.103186 0.503267 0.103186 0.442671 0.254296 0.032334 0.210725 0.050381 0.20325 0.032334 0.24682 0.014286 0.043069 0.18124 0.055162 0.196581 0.008329 0.191038 0.02367 0.178944 0.24682 0.050381 0.228773 0.057857 0.210725 0.014286 0.228773 0.006811 0.006033 0.210437 0.052866 0.21598 0.037526 0.228074 0.018126 0.225778 0.133484 0.503267 0.118335 0.503267 0.118335 0.442671 0.133484 0.442671 0.027441 0.503267 0.012292 0.503267 0.012292 0.442671 0.027441 0.442671 0.04259 0.442671 0.04259 0.503267 0.057739 0.503267 0.057739 0.442671 0.072888 0.503267 0.072888 0.442671 0.088037 0.503267 0.088037 0.442671 0.103186 0.503267 0.103186 0.442671 0.254296 0.032334 0.210725 0.050381 0.20325 0.032334 0.24682 0.014286 0.043069 0.18124 0.055162 0.196581 0.008329 0.191038 0.02367 0.178944 0.24682 0.050381 0.228773 0.057857 0.210725 0.014286 0.228773 0.006811 0.006033 0.210437 0.052866 0.21598 0.037526 0.228074 0.018126 0.225778 0.133484 0.503267 0.118335 0.503267 0.118335 0.442671 0.133484 0.442671 0.027441 0.503267 0.012292 0.503267 0.012292 0.442671 0.027441 0.442671 0.04259 0.442671 0.04259 0.503267 0.057739 0.503267 0.057739 0.442671 0.072888 0.503267 0.072888 0.442671 0.088037 0.503267 0.088037 0.442671 0.103186 0.503267 0.103186 0.442671 0.254296 0.032334 0.210725 0.050381 0.20325 0.032334 0.24682 0.014286 0.043069 0.18124 0.055162 0.196581 0.008329 0.191038 0.02367 0.178944 0.24682 0.050381 0.228773 0.057857 0.210725 0.014286 0.228773 0.006811 0.006033 0.210437 0.052866 0.21598 0.037526 0.228074 0.018126 0.225778 0.133484 0.503267 0.118335 0.503267 0.118335 0.442671 0.133484 0.442671 0.027441 0.503267 0.012292 0.503267 0.012292 0.442671 0.027441 0.442671 0.04259 0.442671 0.04259 0.503267 0.057739 0.503267 0.057739 0.442671 0.072888 0.503267 0.072888 0.442671 0.088037 0.503267 0.088037 0.442671 0.103186 0.503267 0.103186 0.442671 0.254296 0.032334 0.210725 0.050381 0.20325 0.032334 0.24682 0.014286 0.043069 0.18124 0.055162 0.196581 0.008329 0.191038 0.02367 0.178944 0.24682 0.050381 0.228773 0.057857 0.210725 0.014286 0.228773 0.006811 0.006033 0.210437 0.052866 0.21598 0.037526 0.228074 0.018126 0.225778 0.133484 0.503267 0.118335 0.503267 0.118335 0.442671 0.133484 0.442671 0.027441 0.503267 0.012292 0.503267 0.012292 0.442671 0.027441 0.442671 0.04259 0.442671 0.04259 0.503267 0.057739 0.503267 0.057739 0.442671 0.072888 0.503267 0.072888 0.442671 0.088037 0.503267 0.088037 0.442671 0.103186 0.503267 0.103186 0.442671 0.254296 0.032334 0.210725 0.050381 0.20325 0.032334 0.24682 0.014286 0.043069 0.18124 0.055162 0.196581 0.008329 0.191038 0.02367 0.178944 0.24682 0.050381 0.228773 0.057857 0.210725 0.014286 0.228773 0.006811 0.006033 0.210437 0.052866 0.21598 0.037526 0.228074 0.018126 0.225778 0.133484 0.503267 0.118335 0.503267 0.118335 0.442671 0.133484 0.442671 0.027441 0.503267 0.012292 0.503267 0.012292 0.442671 0.027441 0.442671 0.04259 0.442671 0.04259 0.503267 0.057739 0.503267 0.057739 0.442671 0.072888 0.503267 0.072888 0.442671 0.088037 0.503267 0.088037 0.442671 0.103186 0.503267 0.103186 0.442671 0.254296 0.032334 0.210725 0.050381 0.20325 0.032334 0.24682 0.014286 0.043069 0.18124 0.055162 0.196581 0.008329 0.191038 0.02367 0.178944 0.24682 0.050381 0.228773 0.057857 0.210725 0.014286 0.228773 0.006811 0.006033 0.210437 0.052866 0.21598 0.037526 0.228074 0.018126 0.225778 0.133484 0.503267 0.118335 0.503267 0.118335 0.442671 0.133484 0.442671 0.027441 0.503267 0.012292 0.503267 0.012292 0.442671 0.027441 0.442671 0.04259 0.442671 0.04259 0.503267 0.057739 0.503267 0.057739 0.442671 0.072888 0.503267 0.072888 0.442671 0.088037 0.503267 0.088037 0.442671 0.103186 0.503267 0.103186 0.442671 0.254296 0.032334 0.210725 0.050381 0.20325 0.032334 0.24682 0.014286 0.043069 0.18124 0.055162 0.196581 0.008329 0.191038 0.02367 0.178944 0.24682 0.050381 0.228773 0.057857 0.210725 0.014286 0.228773 0.006811 0.006033 0.210437 0.052866 0.21598 0.037526 0.228074 0.018126 0.225778 0.133484 0.503267 0.118335 0.503267 0.118335 0.442671 0.133484 0.442671 0.027441 0.503267 0.012292 0.503267 0.012292 0.442671 0.027441 0.442671 0.04259 0.442671 0.04259 0.503267 0.057739 0.503267 0.057739 0.442671 0.072888 0.503267 0.072888 0.442671 0.088037 0.503267 0.088037 0.442671 0.103186 0.503267 0.103186 0.442671 0.254296 0.032334 0.210725 0.050381 0.20325 0.032334 0.24682 0.014286 0.043069 0.18124 0.055162 0.196581 0.008329 0.191038 0.02367 0.178944 0.24682 0.050381 0.228773 0.057857 0.210725 0.014286 0.228773 0.006811 0.006033 0.210437 0.052866 0.21598 0.037526 0.228074 0.018126 0.225778</float_array>
          <technique_common>
            <accessor source="#cluster_01_pipesShape-UVSet0-array" count="516" stride="2">
              <param name="S" type="float"/>
              <param name="T" type="float"/>
            </accessor>
          </technique_common>
        </source>
        <vertices id="cluster_01_pipesShape-vertices" name="cluster_01_pipesShape-vertices">
          <input semantic="POSITION" source="#cluster_01_pipesShape-positions"/>
        </vertices>
        <triangles material="cluster_01_pipesSG" count="432">
          <input semantic="VERTEX" source="#cluster_01_pipesShape-vertices" offset="0"/>
          <input semantic="NORMAL" source="#cluster_01_pipesShape-normals" offset="1"/>
          <input semantic="TEXCOORD" source="#cluster_01_pipesShape-UVSet0" offset="2" set="0"/>
          <p>8 0 3 1 1 1 9 2 2 1 1 1 8 0 3 0 3 0 9 4 7 1 5 4 10 6 6 10 6 6 1 5 4 2 7 5 10 6 6 3 8 8 11 9 9 3 8 8 10 6 6 2 7 5 11 9 9 4 10 10 12 11 11 4 10 10 11 9 9 3 8 8 12 11 11 4 10 10 13 12 13 13 12 13 4 10 10 5 13 12 13 14 13 5 15 12 14 16 15 14 16 15 5 15 12 6 17 14 14 16 15 6 17 14 15 18 17 15 18 17 6 17 14 7 19 16 15 18 17 7 19 16 8 0 3 8 0 3 7 19 16 0 3 0 23 20 21 16 21 18 24 22 20 24 22 20 16 21 18 17 23 19 24 22 25 17 23 22 25 24 24 25 24 24 17 23 22 18 25 23 25 24 24 19 26 26 26 27 27 19 26 26 25 24 24 18 25 23 26 27 27 20 28 28 27 29 29 20 28 28 26 27 27 19 26 26 27 29 29 20 28 28 9 30 31 9 30 31 20 28 28 1 31 30 9 32 31 1 33 30 28 34 33 28 34 33 1 33 30 21 35 32 28 34 33 21 35 32 29 36 35 29 36 35 21 35 32 22 37 34 29 36 35 22 37 34 23 20 21 23 20 21 22 37 34 16 21 18 37 38 39 5 39 37 13 40 38 5 39 37 37 38 39 30 41 36 13 42 43 5 43 40 38 44 42 38 44 42 5 43 40 31 45 41 38 44 42 32 46 44 39 47 45 32 46 44 38 44 42 31 45 41 39 47 45 33 48 46 40 49 47 33 48 46 39 47 45 32 46 44 40 49 47 33 48 46 41 50 49 41 50 49 33 48 46 34 51 48 41 50 49 34 51 48 42 52 51 42 52 51 34 51 48 35 53 50 42 52 51 35 53 50 43 54 53 43 54 53 35 53 50 36 55 52 43 54 53 36 55 52 37 38 39 37 38 39 36 55 52 30 41 36 52 56 57 45 57 55 53 58 56 45 57 55 52 56 57 44 59 54 53 60 61 45 61 58 54 62 60 54 62 60 45 61 58 46 63 59 54 62 60 47 64 62 55 65 63 47 64 62 54 62 60 46 63 59 55 65 63 48 66 64 56 67 65 48 66 64 55 65 63 47 64 62 56 67 65 48 66 64 57 68 67 57 68 67 48 66 64 49 69 66 57 70 67 49 71 66 58 72 69 58 72 69 49 71 66 50 73 68 58 72 69 50 73 68 59 74 71 59 74 71 50 73 68 51 75 70 59 74 71 51 75 70 52 56 57 52 56 57 51 75 70 44 59 54 67 76 75 49 77 73 57 78 74 49 77 73 67 76 75 60 79 72 57 80 79 49 81 76 68 82 78 68 82 78 49 81 76 61 83 77 68 82 78 61 83 77 69 84 81 69 84 81 61 83 77 62 85 80 69 84 81 63 86 82 70 87 83 63 86 82 69 84 81 62 85 80 70 87 83 63 86 82 71 88 85 71 88 85 63 86 82 64 89 84 71 88 85 64 89 84 72 90 87 72 90 87 64 89 84 65 91 86 72 90 87 65 91 86 73 92 89 73 92 89 65 91 86 66 93 88 73 92 89 66 93 88 67 76 75 67 76 75 66 93 88 60 79 72 81 94 93 75 95 91 82 96 92 75 95 91 81 94 93 74 97 90 82 96 97 75 95 94 83 98 96 83 98 96 75 95 94 76 99 95 83 98 96 77 100 98 84 101 99 77 100 98 83 98 96 76 99 95 84 101 99 78 102 100 85 103 101 78 102 100 84 101 99 77 100 98 85 103 101 78 102 100 53 104 103 53 104 103 78 102 100 45 105 102 53 106 103 45 107 102 86 108 105 86 108 105 45 107 102 79 109 104 86 108 105 79 109 104 87 110 107 87 110 107 79 109 104 80 111 106 87 110 107 80 111 106 81 94 93 81 94 93 80 111 106 74 97 90 96 112 110 97 113 111 89 114 108 96 112 110 89 114 108 88 115 109 97 113 114 98 116 115 90 117 112 97 113 114 90 117 112 89 114 113 98 116 115 99 118 116 90 117 112 99 118 116 91 119 117 90 117 112 99 118 116 100 120 119 92 121 118 99 118 116 92 121 118 91 119 117 100 120 119 101 122 121 93 123 120 100 120 119 93 123 120 92 121 118 101 122 121 102 124 123 94 125 122 101 122 121 94 125 122 93 123 120 102 124 123 103 126 125 95 127 124 102 124 123 95 127 124 94 125 122 103 126 125 96 112 110 88 115 109 103 126 125 88 115 109 95 127 124 91 128 128 94 129 129 95 130 126 91 128 128 95 130 126 90 131 127 103 132 131 97 133 133 96 134 130 97 133 133 103 132 131 98 135 132 95 136 126 89 137 135 90 138 127 89 137 135 95 136 126 88 139 134 91 128 128 93 140 137 94 129 129 93 140 137 91 128 128 92 141 136 99 142 138 102 143 139 101 144 140 99 142 138 101 144 140 100 145 141 103 146 131 99 147 138 98 148 132 99 147 138 103 146 131 102 149 139 112 150 144 113 151 145 105 152 142 112 150 144 105 152 142 104 153 143 113 151 148 114 154 149 106 155 146 113 151 148 106 155 146 105 152 147 114 154 149 115 156 150 106 155 146 115 156 150 107 157 151 106 155 146 115 156 150 116 158 153 108 159 152 115 156 150 108 159 152 107 157 151 116 158 153 117 160 155 109 161 154 116 158 153 109 161 154 108 159 152 117 160 155 118 162 157 110 163 156 117 160 155 110 163 156 109 161 154 118 162 157 119 164 159 111 165 158 118 162 157 111 165 158 110 163 156 119 164 159 112 150 144 104 153 143 119 164 159 104 153 143 111 165 158 107 166 162 110 167 163 111 168 160 107 166 162 111 168 160 106 169 161 119 170 165 113 171 167 112 172 164 113 171 167 119 170 165 114 173 166 111 174 160 105 175 169 106 176 161 105 175 169 111 174 160 104 177 168 107 166 162 109 178 171 110 167 163 109 178 171 107 166 162 108 179 170 115 180 172 118 181 173 117 182 174 115 180 172 117 182 174 116 183 175 119 184 165 115 185 172 114 186 166 115 185 172 119 184 165 118 187 173 128 188 178 129 189 179 121 190 176 128 188 178 121 190 176 120 191 177 129 189 182 130 192 183 122 193 180 129 189 182 122 193 180 121 190 181 130 192 183 131 194 184 122 193 180 131 194 184 123 195 185 122 193 180 132 196 187 123 195 185 131 194 184 123 195 185 132 196 187 124 197 186 132 196 187 133 198 189 125 199 188 132 196 187 125 199 188 124 197 186 133 198 189 134 200 191 126 201 190 133 198 189 126 201 190 125 199 188 134 200 191 135 202 193 127 203 192 134 200 191 127 203 192 126 201 190 135 202 193 128 188 178 120 191 177 135 202 193 120 191 177 127 203 192 123 204 196 126 205 197 127 206 194 123 204 196 127 206 194 122 207 195 135 208 199 129 209 201 128 210 198 129 209 201 135 208 199 130 211 200 127 206 194 121 212 203 122 207 195 121 212 203 127 206 194 120 213 202 123 204 196 125 214 205 126 205 197 125 214 205 123 204 196 124 215 204 131 216 206 134 217 207 133 218 208 131 216 206 133 218 208 132 219 209 135 220 199 131 221 206 130 222 200 131 221 206 135 220 199 134 223 207 144 224 212 145 225 213 137 226 210 144 224 212 137 226 210 136 227 211 145 225 216 146 228 217 138 229 214 145 225 216 138 229 214 137 226 215 146 228 217 147 230 218 138 229 214 147 230 218 139 231 219 138 229 214 147 230 218 148 232 221 140 233 220 147 230 218 140 233 220 139 231 219 148 232 221 149 234 223 141 235 222 148 232 221 141 235 222 140 233 220 149 234 223 150 236 225 142 237 224 149 234 223 142 237 224 141 235 222 150 236 225 151 238 227 143 239 226 150 236 225 143 239 226 142 237 224 151 238 227 144 224 212 136 227 211 151 238 227 136 227 211 143 239 226 139 240 230 142 241 231 143 242 228 139 240 230 143 242 228 138 243 229 151 244 233 145 245 235 144 246 232 145 245 235 151 244 233 146 247 234 143 248 228 137 249 237 138 250 229 137 249 237 143 248 228 136 251 236 139 240 230 141 252 239 142 241 231 141 252 239 139 240 230 140 253 238 147 254 240 150 255 241 149 256 242 147 254 240 149 256 242 148 257 243 151 258 233 147 259 240 146 260 234 147 259 240 151 258 233 150 261 241 160 262 246 161 263 247 153 264 244 160 262 246 153 264 244 152 265 245 161 263 250 162 266 251 154 267 248 161 263 250 154 267 248 153 264 249 162 266 251 163 268 252 154 267 248 163 268 252 155 269 253 154 267 248 164 270 255 155 269 253 163 268 252 155 269 253 164 270 255 156 271 254 164 270 255 165 272 257 157 273 256 164 270 255 157 273 256 156 271 254 166 274 259 157 273 256 165 272 257 157 273 256 166 274 259 158 275 258 166 274 259 167 276 261 159 277 260 166 274 259 159 277 260 158 275 258 167 276 261 160 262 246 152 265 245 167 276 261 152 265 245 159 277 260 155 278 264 158 279 265 159 280 262 155 278 264 159 280 262 154 281 263 167 282 267 161 283 269 160 284 266 161 283 269 167 282 267 162 285 268 159 286 262 153 287 271 154 288 263 153 287 271 159 286 262 152 289 270 155 278 264 157 290 273 158 279 265 157 290 273 155 278 264 156 291 272 163 292 274 166 293 275 165 294 276 163 292 274 165 294 276 164 295 277 167 296 267 163 297 274 162 298 268 163 297 274 167 296 267 166 299 275 176 300 280 177 301 281 169 302 278 176 300 280 169 302 278 168 303 279 177 301 284 178 304 285 170 305 282 177 301 284 170 305 282 169 302 283 178 304 285 179 306 286 170 305 282 179 306 286 171 307 287 170 305 282 180 308 289 171 307 287 179 306 286 171 307 287 180 308 289 172 309 288 180 308 289 181 310 291 173 311 290 180 308 289 173 311 290 172 309 288 182 312 293 173 311 290 181 310 291 173 311 290 182 312 293 174 313 292 182 312 293 183 314 295 175 315 294 182 312 293 175 315 294 174 313 292 183 314 295 176 300 280 168 303 279 183 314 295 168 303 279 175 315 294 171 316 298 174 317 299 175 318 296 171 316 298 175 318 296 170 319 297 183 320 301 177 321 303 176 322 300 177 321 303 183 320 301 178 323 302 175 324 296 169 325 305 170 326 297 169 325 305 175 324 296 168 327 304 171 316 298 173 328 307 174 317 299 173 328 307 171 316 298 172 329 306 179 330 308 182 331 309 181 332 310 179 330 308 181 332 310 180 333 311 183 334 301 179 335 308 178 336 302 179 335 308 183 334 301 182 337 309 192 338 314 193 339 315 185 340 312 192 338 314 185 340 312 184 341 313 193 339 318 194 342 319 186 343 316 193 339 318 186 343 316 185 340 317 194 342 319 187 344 321 186 343 316 187 344 321 194 342 319 195 345 320 196 346 323 187 344 321 195 345 320 187 344 321 196 346 323 188 347 322 196 346 323 197 348 325 189 349 324 196 346 323 189 349 324 188 347 322 197 348 325 198 350 327 190 351 326 197 348 325 190 351 326 189 349 324 198 350 327 199 352 329 191 353 328 198 350 327 191 353 328 190 351 326 192 338 314 191 353 328 199 352 329 191 353 328 192 338 314 184 341 313 187 354 332 190 355 333 191 356 330 187 354 332 191 356 330 186 357 331 199 358 335 193 359 337 192 360 334 193 359 337 199 358 335 194 361 336 191 356 330 185 362 339 186 357 331 185 362 339 191 356 330 184 363 338 187 354 332 189 364 341 190 355 333 189 364 341 187 354 332 188 365 340 195 366 342 198 367 343 197 368 344 195 366 342 197 368 344 196 369 345 199 358 335 195 366 342 194 361 336 195 366 342 199 358 335 198 367 343 208 370 348 209 371 349 201 372 346 208 370 348 201 372 346 200 373 347 209 371 352 210 374 353 202 375 350 209 371 352 202 375 350 201 372 351 210 374 353 211 376 354 202 375 350 211 376 354 203 377 355 202 375 350 211 376 354 212 378 357 204 379 356 211 376 354 204 379 356 203 377 355 212 378 357 213 380 359 205 381 358 212 378 357 205 381 358 204 379 356 214 382 361 205 381 358 213 380 359 205 381 358 214 382 361 206 383 360 214 382 361 215 384 363 207 385 362 214 382 361 207 385 362 206 383 360 215 384 363 208 370 348 200 373 347 215 384 363 200 373 347 207 385 362 203 386 366 206 387 367 207 388 364 203 386 366 207 388 364 202 389 365 215 390 369 209 391 371 208 392 368 209 391 371 215 390 369 210 393 370 207 388 364 201 394 373 202 389 365 201 394 373 207 388 364 200 395 372 203 386 366 205 396 375 206 387 367 205 396 375 203 386 366 204 397 374 211 398 376 214 399 377 213 400 378 211 398 376 213 400 378 212 401 379 215 390 369 211 398 376 210 393 370 211 398 376 215 390 369 214 399 377 224 402 382 225 403 383 217 404 380 224 402 382 217 404 380 216 405 381 225 403 386 226 406 387 218 407 384 225 403 386 218 407 384 217 404 385 226 406 387 227 408 388 218 407 384 227 408 388 219 409 389 218 407 384 227 408 388 228 410 391 220 411 390 227 408 388 220 411 390 219 409 389 228 410 391 229 412 393 221 413 392 228 410 391 221 413 392 220 411 390 229 412 393 230 414 395 222 415 394 229 412 393 222 415 394 221 413 392 230 414 395 231 416 397 223 417 396 230 414 395 223 417 396 222 415 394 231 416 397 224 402 382 216 405 381 231 416 397 216 405 381 223 417 396 219 418 400 222 419 401 223 420 398 219 418 400 223 420 398 218 421 399 231 422 403 225 423 405 224 424 402 225 423 405 231 422 403 226 425 404 223 420 398 217 426 407 218 421 399 217 426 407 223 420 398 216 427 406 219 418 400 221 428 409 222 419 401 221 428 409 219 418 400 220 429 408 227 430 410 230 431 411 229 432 412 227 430 410 229 432 412 228 433 413 231 422 403 227 430 410 226 425 404 227 430 410 231 422 403 230 431 411 240 434 416 241 435 417 233 436 414 240 434 416 233 436 414 232 437 415 241 435 420 242 438 421 234 439 418 241 435 420 234 439 418 233 436 419 242 438 421 243 440 422 234 439 418 243 440 422 235 441 423 234 439 418 243 440 422 244 442 425 236 443 424 243 440 422 236 443 424 235 441 423 244 442 425 245 444 427 237 445 426 244 442 425 237 445 426 236 443 424 245 444 427 246 446 429 238 447 428 245 444 427 238 447 428 237 445 426 246 446 429 247 448 431 239 449 430 246 446 429 239 449 430 238 447 428 247 448 431 240 434 416 232 437 415 247 448 431 232 437 415 239 449 430 235 450 434 238 451 435 239 452 432 235 450 434 239 452 432 234 453 433 247 454 437 241 455 439 240 456 436 241 455 439 247 454 437 242 457 438 239 452 432 233 458 441 234 453 433 233 458 441 239 452 432 232 459 440 235 450 434 237 460 443 238 451 435 237 460 443 235 450 434 236 461 442 243 462 444 246 463 445 245 464 446 243 462 444 245 464 446 244 465 447 247 454 437 243 462 444 242 457 438 243 462 444 247 454 437 246 463 445 256 466 450 257 467 451 249 468 448 256 466 450 249 468 448 248 469 449 257 467 454 258 470 455 250 471 452 257 467 454 250 471 452 249 468 453 258 470 455 259 472 456 250 471 452 259 472 456 251 473 457 250 471 452 259 472 456 260 474 459 252 475 458 259 472 456 252 475 458 251 473 457 260 474 459 261 476 461 253 477 460 260 474 459 253 477 460 252 475 458 261 476 461 262 478 463 254 479 462 261 476 461 254 479 462 253 477 460 262 478 463 263 480 465 255 481 464 262 478 463 255 481 464 254 479 462 263 480 465 256 466 450 248 469 449 263 480 465 248 469 449 255 481 464 251 482 468 254 483 469 255 484 466 251 482 468 255 484 466 250 485 467 263 486 471 257 487 473 256 488 470 257 487 473 263 486 471 258 489 472 255 484 466 249 490 475 250 485 467 249 490 475 255 484 466 248 491 474 251 482 468 253 492 477 254 483 469 253 492 477 251 482 468 252 493 476 259 494 478 262 495 479 261 496 480 259 494 478 261 496 480 260 497 481 263 486 471 259 494 478 258 489 472 259 494 478 263 486 471 262 495 479 272 498 484 273 499 485 265 500 482 272 498 484 265 500 482 264 501 483 274 502 489 265 500 487 273 499 488 265 500 487 274 502 489 266 503 486 274 502 489 267 504 491 266 503 486 267 504 491 274 502 489 275 505 490 275 505 490 276 506 493 268 507 492 275 505 490 268 507 492 267 504 491 276 506 493 277 508 495 269 509 494 276 506 493 269 509 494 268 507 492 277 508 495 278 510 497 270 511 496 277 508 495 270 511 496 269 509 494 279 512 499 270 511 496 278 510 497 270 511 496 279 512 499 271 513 498 272 498 484 271 513 498 279 512 499 271 513 498 272 498 484 264 501 483 267 514 502 270 515 503 271 516 500 267 514 502 271 516 500 266 517 501 279 518 505 273 519 507 272 520 504 273 519 507 279 518 505 274 521 506 271 516 500 265 522 509 266 517 501 265 522 509 271 516 500 264 523 508 267 514 502 269 524 511 270 515 503 269 524 511 267 514 502 268 525 510 275 526 512 278 527 513 277 528 514 275 526 512 277 528 514 276 529 515 279 518 505 275 526 512 274 521 506 275 526 512 279 518 505 278 527 513</p>
        </triangles>
      </mesh>
      <extra>
        <technique profile="OpenCOLLADAMaya">
          <originalMayaNodeId>cluster_01_pipesShape</originalMayaNodeId>
          <double_sided>1</double_sided>
        </technique>
      </extra>
    </geometry>
  </library_geometries>
  <library_visual_scenes>
    <visual_scene id="VisualSceneNode" name="tesla_dressing_pipe_clusters_01">
      <node id="cluster_01_frame" name="cluster_01_frame" type="NODE">
        <matrix sid="transform">1 0 0 0 0 1 0 0 0 0 1 0 0 0 0 1</matrix>
        <instance_geometry url="#cluster_01_frameShape">
          <bind_material>
            <technique_common>
              <instance_material symbol="cluster_01_frameSG" target="#tesla_structure_piping_02_tesla_structure_pillar_core_02_tesla_structure_platform_01_tesla_structure_pillar_drum_01">
                <bind_vertex_input semantic="TEX0" input_semantic="TEXCOORD" input_set="0"/>
                <bind_vertex_input semantic="TEX1" input_semantic="TEXCOORD" input_set="0"/>
              </instance_material>
            </technique_common>
          </bind_material>
        </instance_geometry>
        <extra>
          <technique profile="OpenCOLLADAMaya">
            <originalMayaNodeId>cluster_01_frame</originalMayaNodeId>
          </technique>
        </extra>
      </node>
      <node id="cluster_01_pipes" name="cluster_01_pipes" type="NODE">
        <matrix sid="transform">1 0 0 0 0 1 0 0 0 0 1 0 0 0 0 1</matrix>
        <instance_geometry url="#cluster_01_pipesShape">
          <bind_material>
            <technique_common>
              <instance_material symbol="cluster_01_pipesSG" target="#tesla_dressing_metal_details_01_blinn1">
                <bind_vertex_input semantic="TEX0" input_semantic="TEXCOORD" input_set="0"/>
              </instance_material>
            </technique_common>
          </bind_material>
        </instance_geometry>
        <extra>
          <technique profile="OpenCOLLADAMaya">
            <originalMayaNodeId>cluster_01_pipes</originalMayaNodeId>
          </technique>
        </extra>
      </node>
    </visual_scene>
  </library_visual_scenes>
  <scene>
    <instance_visual_scene url="#VisualSceneNode"/>
  </scene>
</COLLADA>