<?xml version="1.0" encoding="utf-8"?>
<COLLADA xmlns="http://www.collada.org/2005/11/COLLADASchema" version="1.4.1">
  <asset>
    <contributor>
      <author></author>
      <authoring_tool>FBX COLLADA exporter</authoring_tool>
      <comments></comments>
    </contributor>
    <created>2012-07-09T10:37:14Z</created>
    <keywords></keywords>
    <modified>2012-07-09T10:37:14Z</modified>
    <revision></revision>
    <subject></subject>
    <title></title>
    <unit meter="0.010000" name="centimeter"></unit>
    <up_axis>Y_UP</up_axis>
  </asset>
  <library_images>
    <image id="tesla_structure_piping_02_tesla_structure_pillar_core_02_tesla_structure_platform_01_file1-image" name="tesla_structure_piping_02_tesla_structure_pillar_core_02_tesla_structure_platform_01_file1">
      <init_from>file://C:/Users/sindre/Desktop/Sindre/Amnesia - Freelance/Amnesia - Source/StaticObjects/teslabase/dressing/tesla_dressing_wires_01.tga</init_from>
    </image>
  </library_images>
  <library_materials>
    <material id="tesla_structure_piping_02_tesla_structure_pillar_core_02_tesla_structure_platform_01_tesla_structure_pillar_drum_01" name="tesla_structure_piping_02_tesla_structure_pillar_core_02_tesla_structure_platform_01_tesla_structure_pillar_drum_01">
      <instance_effect url="#tesla_structure_piping_02_tesla_structure_pillar_core_02_tesla_structure_platform_01_tesla_structure_pillar_drum_01-fx"/>
    </material>
  </library_materials>
  <library_effects>
    <effect id="tesla_structure_piping_02_tesla_structure_pillar_core_02_tesla_structure_platform_01_tesla_structure_pillar_drum_01-fx" name="tesla_structure_piping_02_tesla_structure_pillar_core_02_tesla_structure_platform_01_tesla_structure_pillar_drum_01">
      <profile_COMMON>
        <technique sid="standard">
          <lambert>
            <emission>
              <color sid="emission">0.000000  0.000000 0.000000 1.000000</color>
            </emission>
            <ambient>
              <color sid="ambient">0.000000  0.000000 0.000000 1.000000</color>
            </ambient>
            <diffuse>
              <texture texture="tesla_structure_piping_02_tesla_structure_pillar_core_02_tesla_structure_platform_01_file1-image" texcoord="CHANNEL0">
                <extra>
                  <technique profile="MAYA">
                    <wrapU sid="wrapU0">TRUE</wrapU>
                    <wrapV sid="wrapV0">TRUE</wrapV>
                    <blend_mode>NONE</blend_mode>
                  </technique>
                </extra>
              </texture>
            </diffuse>
            <transparent opaque="RGB_ZERO">
              <color sid="transparent">0.000000  0.000000 0.000000 1.000000</color>
            </transparent>
            <transparency>
              <float sid="transparency">1.000000</float>
            </transparency>
          </lambert>
        </technique>
      </profile_COMMON>
    </effect>
  </library_effects>
  <library_geometries>
    <geometry id="polySurface5-lib" name="polySurface5Mesh">
      <mesh>
        <source id="polySurface5-POSITION">
          <float_array id="polySurface5-POSITION-array" count="300">
202.598511 0.000000 -15.202987
202.598511 0.000000 -10.248031
202.598511 25.000000 -10.248031
202.598511 25.000000 -15.202987
207.467163 25.000000 -10.248031
207.467163 25.000000 -15.202987
207.467163 0.000000 -10.248031
207.467163 0.000000 -15.202987
-197.401489 0.012900 -15.202987
-197.401489 0.012900 -10.248031
-197.401489 25.000000 -15.202987
-197.401489 25.000000 -10.248031
-192.532837 25.000000 -15.202987
-192.532837 25.000000 -10.248031
-192.532837 0.012900 -15.202987
-192.532837 0.012900 -10.248031
-194.967163 22.594065 -11.238257
-194.967163 15.060633 -11.238257
205.032837 22.594065 -11.238257
205.032837 15.060633 -11.238257
205.032837 22.594065 -14.212760
205.032837 15.060633 -14.212760
-194.967163 22.594065 -14.212760
-194.967163 15.060633 -14.212760
-194.967163 15.579168 -11.810174
-194.967163 0.000001 -11.810174
205.032837 15.579168 -11.810174
205.032837 0.000001 -11.810174
205.032837 15.579168 -13.640843
205.032837 0.000001 -13.640843
-194.967163 15.579168 -13.640843
-194.967163 0.000001 -13.640843
202.598511 0.000000 22.522522
202.598511 0.000000 27.477478
202.598511 25.000000 27.477478
202.598511 25.000000 22.522522
207.467163 25.000000 27.477478
207.467163 25.000000 22.522522
207.467163 0.000000 27.477478
207.467163 0.000000 22.522522
-197.401489 0.012900 22.522522
-197.401489 0.012900 27.477478
-197.401489 25.000000 22.522522
-197.401489 25.000000 27.477478
-192.532837 25.000000 22.522522
-192.532837 25.000000 27.477478
-192.532837 0.012900 22.522522
-192.532837 0.012900 27.477478
-194.967163 22.594065 26.487251
-194.967163 15.060633 26.487251
205.032837 22.594065 26.487251
205.032837 15.060633 26.487251
205.032837 22.594065 23.512749
205.032837 15.060633 23.512749
-194.967163 22.594065 23.512749
-194.967163 15.060633 23.512749
-194.967163 15.579168 25.915337
-194.967163 0.000001 25.915337
205.032837 15.579168 25.915337
205.032837 0.000001 25.915337
205.032837 15.579168 24.084667
205.032837 0.000001 24.084667
-194.967163 15.579168 24.084667
-194.967163 0.000001 24.084667
203.545593 22.594065 -12.500000
203.545593 15.060633 -12.500000
203.545593 22.594065 25.000000
203.545593 15.060633 25.000000
206.520111 22.594065 25.000000
206.520111 15.060633 25.000000
206.520111 22.594065 -12.500000
206.520111 15.060633 -12.500000
204.117523 15.579168 -12.500000
204.117523 0.000001 -12.500000
204.117523 15.579168 25.000000
204.117523 0.000001 25.000000
205.948181 15.579168 25.000000
205.948181 0.000001 25.000000
205.948181 15.579168 -12.500000
205.948181 0.000001 -12.500000
-196.454407 22.594065 -12.500000
-196.454407 15.060633 -12.500000
-196.454407 22.594065 25.000000
-196.454407 15.060633 25.000000
-193.479919 22.594065 25.000000
-193.479919 15.060633 25.000000
-193.479919 22.594065 -12.500000
-193.479919 15.060633 -12.500000
-195.882507 15.579168 -12.500000
-195.882507 0.000001 -12.500000
-195.882507 15.579168 25.000000
-195.882507 0.000001 25.000000
-194.051819 15.579168 25.000000
-194.051819 0.000001 25.000000
-194.051819 15.579168 -12.500000
-194.051819 0.000001 -12.500000
-193.985168 7.493050 25.000000
205.275299 7.493050 25.000000
-193.985168 7.493050 -12.500000
205.275299 7.493050 -12.500000
</float_array>
          <technique_common>
            <accessor source="#polySurface5-POSITION-array" count="100" stride="3">
              <param name="X" type="float"/>
              <param name="Y" type="float"/>
              <param name="Z" type="float"/>
            </accessor>
          </technique_common>
        </source>
        <source id="polySurface5-Normal0">
          <float_array id="polySurface5-Normal0-array" count="882">
-1.000000 0.000000 0.000000
-1.000000 0.000000 0.000000
-1.000000 0.000000 0.000000
-1.000000 0.000000 0.000000
-1.000000 0.000000 0.000000
-1.000000 0.000000 0.000000
0.000000 1.000000 0.000000
0.000000 1.000000 0.000000
0.000000 1.000000 0.000000
0.000000 1.000000 0.000000
0.000000 1.000000 0.000000
0.000000 1.000000 0.000000
1.000000 0.000000 0.000000
1.000000 0.000000 0.000000
1.000000 0.000000 0.000000
1.000000 0.000000 0.000000
1.000000 0.000000 0.000000
1.000000 0.000000 0.000000
0.000000 0.000000 1.000000
0.000000 0.000000 1.000000
0.000000 0.000000 1.000000
0.000000 0.000000 1.000000
0.000000 0.000000 1.000000
0.000000 0.000000 1.000000
0.000000 0.000000 -1.000000
0.000000 0.000000 -1.000000
0.000000 0.000000 -1.000000
0.000000 0.000000 -1.000000
0.000000 0.000000 -1.000000
0.000000 0.000000 -1.000000
0.000000 -1.000000 0.000000
0.000000 -1.000000 0.000000
0.000000 -1.000000 0.000000
0.000000 -1.000000 0.000000
0.000000 -1.000000 0.000000
0.000000 -1.000000 0.000000
-1.000000 0.000000 0.000000
-1.000000 0.000000 0.000000
-1.000000 0.000000 0.000000
-1.000000 0.000000 0.000000
-1.000000 0.000000 0.000000
-1.000000 0.000000 0.000000
0.000000 1.000000 0.000000
0.000000 1.000000 0.000000
0.000000 1.000000 0.000000
0.000000 1.000000 0.000000
0.000000 1.000000 0.000000
0.000000 1.000000 0.000000
1.000000 0.000000 0.000000
1.000000 0.000000 0.000000
1.000000 0.000000 0.000000
1.000000 0.000000 0.000000
1.000000 0.000000 0.000000
1.000000 0.000000 0.000000
0.000000 0.000000 1.000000
0.000000 0.000000 1.000000
0.000000 0.000000 1.000000
0.000000 0.000000 1.000000
0.000000 0.000000 1.000000
0.000000 0.000000 1.000000
0.000000 0.000000 -1.000000
0.000000 0.000000 -1.000000
0.000000 0.000000 -1.000000
0.000000 0.000000 -1.000000
0.000000 0.000000 -1.000000
0.000000 0.000000 -1.000000
0.000000 0.000000 1.000000
0.000000 0.000000 1.000000
0.000000 0.000000 1.000000
0.000000 0.000000 1.000000
0.000000 0.000000 1.000000
0.000000 0.000000 1.000000
0.000000 0.000000 -1.000000
0.000000 0.000000 -1.000000
0.000000 0.000000 -1.000000
0.000000 0.000000 -1.000000
0.000000 0.000000 -1.000000
0.000000 0.000000 -1.000000
0.000000 -1.000000 0.000000
0.000000 -1.000000 0.000000
0.000000 -1.000000 0.000000
0.000000 -1.000000 0.000000
0.000000 -1.000000 0.000000
0.000000 -1.000000 0.000000
0.000000 1.000000 0.000000
0.000000 1.000000 0.000000
0.000000 1.000000 0.000000
0.000000 1.000000 0.000000
0.000000 1.000000 0.000000
0.000000 1.000000 0.000000
0.000000 -1.000000 0.000000
0.000000 -1.000000 0.000000
0.000000 -1.000000 0.000000
0.000000 -1.000000 0.000000
0.000000 -1.000000 0.000000
0.000000 -1.000000 0.000000
0.000000 0.000000 1.000000
0.000000 0.000000 1.000000
0.000000 0.000000 1.000000
0.000000 0.000000 1.000000
0.000000 0.000000 1.000000
0.000000 0.000000 1.000000
0.000000 0.000000 -1.000000
0.000000 0.000000 -1.000000
0.000000 0.000000 -1.000000
0.000000 0.000000 -1.000000
0.000000 0.000000 -1.000000
0.000000 0.000000 -1.000000
-1.000000 0.000000 0.000000
-1.000000 0.000000 0.000000
-1.000000 0.000000 0.000000
-1.000000 0.000000 0.000000
-1.000000 0.000000 0.000000
-1.000000 0.000000 0.000000
0.000000 1.000000 0.000000
0.000000 1.000000 0.000000
0.000000 1.000000 0.000000
0.000000 1.000000 0.000000
0.000000 1.000000 0.000000
0.000000 1.000000 0.000000
1.000000 0.000000 0.000000
1.000000 0.000000 0.000000
1.000000 0.000000 0.000000
1.000000 0.000000 0.000000
1.000000 0.000000 0.000000
1.000000 0.000000 0.000000
0.000000 0.000000 1.000000
0.000000 0.000000 1.000000
0.000000 0.000000 1.000000
0.000000 0.000000 1.000000
0.000000 0.000000 1.000000
0.000000 0.000000 1.000000
0.000000 0.000000 -1.000000
0.000000 0.000000 -1.000000
0.000000 0.000000 -1.000000
0.000000 0.000000 -1.000000
0.000000 0.000000 -1.000000
0.000000 0.000000 -1.000000
0.000000 -1.000000 0.000000
0.000000 -1.000000 0.000000
0.000000 -1.000000 0.000000
0.000000 -1.000000 0.000000
0.000000 -1.000000 0.000000
0.000000 -1.000000 0.000000
-1.000000 0.000000 0.000000
-1.000000 0.000000 0.000000
-1.000000 0.000000 0.000000
-1.000000 0.000000 0.000000
-1.000000 0.000000 0.000000
-1.000000 0.000000 0.000000
0.000000 1.000000 0.000000
0.000000 1.000000 0.000000
0.000000 1.000000 0.000000
0.000000 1.000000 0.000000
0.000000 1.000000 0.000000
0.000000 1.000000 0.000000
1.000000 0.000000 0.000000
1.000000 0.000000 0.000000
1.000000 0.000000 0.000000
1.000000 0.000000 0.000000
1.000000 0.000000 0.000000
1.000000 0.000000 0.000000
0.000000 0.000000 1.000000
0.000000 0.000000 1.000000
0.000000 0.000000 1.000000
0.000000 0.000000 1.000000
0.000000 0.000000 1.000000
0.000000 0.000000 1.000000
0.000000 0.000000 -1.000000
0.000000 0.000000 -1.000000
0.000000 0.000000 -1.000000
0.000000 0.000000 -1.000000
0.000000 0.000000 -1.000000
0.000000 0.000000 -1.000000
0.000000 0.000000 1.000000
0.000000 0.000000 1.000000
0.000000 0.000000 1.000000
0.000000 0.000000 1.000000
0.000000 0.000000 1.000000
0.000000 0.000000 1.000000
0.000000 0.000000 -1.000000
0.000000 0.000000 -1.000000
0.000000 0.000000 -1.000000
0.000000 0.000000 -1.000000
0.000000 0.000000 -1.000000
0.000000 0.000000 -1.000000
0.000000 -1.000000 0.000000
0.000000 -1.000000 0.000000
0.000000 -1.000000 0.000000
0.000000 -1.000000 0.000000
0.000000 -1.000000 0.000000
0.000000 -1.000000 0.000000
0.000000 1.000000 0.000000
0.000000 1.000000 0.000000
0.000000 1.000000 0.000000
0.000000 1.000000 0.000000
0.000000 1.000000 0.000000
0.000000 1.000000 0.000000
0.000000 -1.000000 0.000000
0.000000 -1.000000 0.000000
0.000000 -1.000000 0.000000
0.000000 -1.000000 0.000000
0.000000 -1.000000 0.000000
0.000000 -1.000000 0.000000
0.000000 0.000000 1.000000
0.000000 0.000000 1.000000
0.000000 0.000000 1.000000
0.000000 0.000000 1.000000
0.000000 0.000000 1.000000
0.000000 0.000000 1.000000
0.000000 0.000000 -1.000000
0.000000 0.000000 -1.000000
0.000000 0.000000 -1.000000
0.000000 0.000000 -1.000000
0.000000 0.000000 -1.000000
0.000000 0.000000 -1.000000
-1.000000 0.000000 0.000000
-1.000000 0.000000 0.000000
-1.000000 0.000000 0.000000
-1.000000 0.000000 0.000000
-1.000000 0.000000 0.000000
-1.000000 0.000000 0.000000
1.000000 0.000000 0.000000
1.000000 0.000000 0.000000
1.000000 0.000000 0.000000
1.000000 0.000000 0.000000
1.000000 0.000000 0.000000
1.000000 0.000000 0.000000
0.000000 -1.000000 0.000000
0.000000 -1.000000 0.000000
0.000000 -1.000000 0.000000
0.000000 -1.000000 0.000000
0.000000 -1.000000 0.000000
0.000000 -1.000000 0.000000
0.000000 1.000000 0.000000
0.000000 1.000000 0.000000
0.000000 1.000000 0.000000
0.000000 1.000000 0.000000
0.000000 1.000000 0.000000
0.000000 1.000000 0.000000
-1.000000 0.000000 0.000000
-1.000000 0.000000 0.000000
-1.000000 0.000000 0.000000
-1.000000 0.000000 0.000000
-1.000000 0.000000 0.000000
-1.000000 0.000000 0.000000
1.000000 0.000000 0.000000
1.000000 0.000000 0.000000
1.000000 0.000000 0.000000
1.000000 0.000000 0.000000
1.000000 0.000000 0.000000
1.000000 0.000000 0.000000
-1.000000 0.000000 0.000000
-1.000000 0.000000 0.000000
-1.000000 0.000000 0.000000
-1.000000 0.000000 0.000000
-1.000000 0.000000 0.000000
-1.000000 0.000000 0.000000
1.000000 0.000000 0.000000
1.000000 0.000000 0.000000
1.000000 0.000000 0.000000
1.000000 0.000000 0.000000
1.000000 0.000000 0.000000
1.000000 0.000000 0.000000
0.000000 -1.000000 0.000000
0.000000 -1.000000 0.000000
0.000000 -1.000000 0.000000
0.000000 -1.000000 0.000000
0.000000 -1.000000 0.000000
0.000000 -1.000000 0.000000
0.000000 1.000000 0.000000
0.000000 1.000000 0.000000
0.000000 1.000000 0.000000
0.000000 1.000000 0.000000
0.000000 1.000000 0.000000
0.000000 1.000000 0.000000
-1.000000 0.000000 0.000000
-1.000000 0.000000 0.000000
-1.000000 0.000000 0.000000
-1.000000 0.000000 0.000000
-1.000000 0.000000 0.000000
-1.000000 0.000000 0.000000
1.000000 0.000000 0.000000
1.000000 0.000000 0.000000
1.000000 0.000000 0.000000
1.000000 0.000000 0.000000
1.000000 0.000000 0.000000
1.000000 0.000000 0.000000
0.000000 1.000000 0.000000
0.000000 1.000000 0.000000
0.000000 1.000000 0.000000
0.000000 1.000000 0.000000
0.000000 1.000000 0.000000
0.000000 1.000000 0.000000
</float_array>
          <technique_common>
            <accessor source="#polySurface5-Normal0-array" count="294" stride="3">
              <param name="X" type="float"/>
              <param name="Y" type="float"/>
              <param name="Z" type="float"/>
            </accessor>
          </technique_common>
        </source>
        <source id="polySurface5-UV0">
          <float_array id="polySurface5-UV0-array" count="392">
0.214532 0.736478
0.214532 0.670053
0.500440 0.670053
0.500440 0.736478
0.436848 0.618509
0.500440 0.618509
0.500440 0.665469
0.436848 0.665469
0.500440 0.549478
0.500440 0.613881
0.214532 0.613881
0.214532 0.549478
0.214532 0.663394
0.214532 0.617082
0.500440 0.617082
0.500440 0.663394
0.214532 0.665469
0.214532 0.618509
0.500440 0.618509
0.500440 0.665469
0.436849 0.618509
0.500440 0.618509
0.500440 0.665469
0.436849 0.665469
0.214532 0.736478
0.214532 0.670053
0.500440 0.670053
0.500440 0.736478
0.343751 0.617082
0.407343 0.617082
0.407343 0.663394
0.343751 0.663394
0.500440 0.549478
0.500440 0.613881
0.214532 0.613881
0.214532 0.549478
0.214532 0.665469
0.214532 0.618509
0.500440 0.618509
0.500440 0.665469
0.214532 0.663394
0.214532 0.617082
0.500440 0.617082
0.500440 0.663394
-0.500000 0.736478
-0.500000 0.670165
1.500000 0.670165
1.500000 0.736478
1.500000 0.549478
1.500000 0.613881
-0.500000 0.613881
-0.500000 0.549478
-0.500000 0.665348
-0.500000 0.617143
1.500000 0.617143
1.500000 0.665348
-0.500000 0.547652
-0.500000 0.501350
1.500000 0.501350
1.500000 0.547651
0.343751 0.617082
0.407342 0.617082
0.407342 0.663394
0.343751 0.663394
-0.181592 0.921038
-0.181592 0.820710
1.181592 0.820710
1.181592 0.921038
1.181592 0.820710
1.181592 0.921038
-0.181592 0.921038
-0.181592 0.820710
0.214532 0.736478
0.214532 0.670053
0.500440 0.670053
0.500440 0.736478
0.436848 0.618509
0.500440 0.618509
0.500440 0.665469
0.436848 0.665469
0.500440 0.549478
0.500440 0.613881
0.214532 0.613881
0.214532 0.549478
0.214532 0.663394
0.214532 0.617082
0.500440 0.617082
0.500440 0.663394
0.214532 0.665469
0.214532 0.618509
0.500440 0.618509
0.500440 0.665469
0.436849 0.618509
0.500440 0.618509
0.500440 0.665469
0.436849 0.665469
0.214532 0.736478
0.214532 0.670053
0.500440 0.670053
0.500440 0.736478
0.343751 0.617082
0.407343 0.617082
0.407343 0.663394
0.343751 0.663394
0.500440 0.549478
0.500440 0.613881
0.214532 0.613881
0.214532 0.549478
0.214532 0.665469
0.214532 0.618509
0.500440 0.618509
0.500440 0.665469
0.214532 0.663394
0.214532 0.617082
0.500440 0.617082
0.500440 0.663394
-0.500000 0.736478
-0.500000 0.670165
1.500000 0.670165
1.500000 0.736478
1.500000 0.549478
1.500000 0.613881
-0.500000 0.613881
-0.500000 0.549478
-0.500000 0.665348
-0.500000 0.617143
1.500000 0.617143
1.500000 0.665348
-0.500000 0.547652
-0.500000 0.501350
1.500000 0.501350
1.500000 0.547651
0.343751 0.617082
0.407342 0.617082
0.407342 0.663394
0.343751 0.663394
-0.181592 0.921038
-0.181592 0.820710
1.181592 0.820710
1.181592 0.921038
1.181592 0.820710
1.181592 0.921038
-0.181592 0.921038
-0.181592 0.820710
0.312500 0.736478
0.312500 0.670165
0.500000 0.670165
0.500000 0.736478
0.500000 0.549478
0.500000 0.613881
0.312500 0.613881
0.312500 0.549478
0.312500 0.665348
0.312500 0.617143
0.500000 0.617143
0.500000 0.665348
0.312500 0.547651
0.312500 0.501350
0.500000 0.501350
0.500000 0.547651
0.372201 0.921038
0.372201 0.820710
0.500000 0.820710
0.500000 0.921038
0.500000 0.820710
0.500000 0.921038
0.372201 0.921038
0.372201 0.820710
0.312500 0.736478
0.312500 0.670165
0.500000 0.670165
0.500000 0.736478
0.500000 0.549478
0.500000 0.613881
0.312500 0.613881
0.312500 0.549478
0.312500 0.665348
0.312500 0.617143
0.500000 0.617143
0.500000 0.665348
0.312500 0.547651
0.312500 0.501350
0.500000 0.501350
0.500000 0.547651
0.372201 0.921038
0.372201 0.820710
0.500000 0.820710
0.500000 0.921038
0.500000 0.820710
0.500000 0.921038
0.372201 0.921038
0.372201 0.820710
0.032684 0.736950
1.000588 0.736950
1.000588 0.743011
0.032684 0.743011
</float_array>
          <technique_common>
            <accessor source="#polySurface5-UV0-array" count="196" stride="2">
              <param name="S" type="float"/>
              <param name="T" type="float"/>
            </accessor>
          </technique_common>
        </source>
        <vertices id="polySurface5-VERTEX">
          <input semantic="POSITION" source="#polySurface5-POSITION"/>
        </vertices>
        <triangles count="98" material="tesla_structure_piping_02_tesla_structure_pillar_core_02_tesla_structure_platform_01_tesla_structure_pillar_drum_01">
          <input semantic="VERTEX" offset="0" source="#polySurface5-VERTEX"/>
          <input semantic="NORMAL" offset="1" source="#polySurface5-Normal0"/>
          <input semantic="TEXCOORD" offset="2" set="0" source="#polySurface5-UV0"/>
          <p> 2 0 2 0 1 0 1 2 1 0 3 0 2 4 2 3 5 3 4 6 6 3 7 4 2 8 5 3 9 4 4 10 6 5 11 7 6 12 10 5 13 8 4 14 9 5 15 8 6 16 10 7 17 11 2 18 15 1 19 12 4 20 14 4 21 14 1 22 12 6 23 13 3 24 18 7 25 16 0 26 17 7 27 16 3 28 18 5 29 19 6 30 23 1 31 20 7 32 22 1 33 20 0 34 21 7 35 22 11 36 26 8 37 24 9 38 25 8 39 24 11 40 26 10 41 27 13 42 30 10 43 28 11 44 29 10 45 28 13 46 30 12 47 31 15 48 34 12 49 32 13 50 33 12 51 32 15 52 34 14 53 35 11 54 39 9 55 36 13 56 38 13 57 38 9 58 36 15 59 37 8 60 41 10 61 42 14 62 40 14 63 40 10 64 42 12 65 43 17 66 45 19 67 46 16 68 44 18 69 47 16 70 44 19 71 46 23 72 50 20 73 48 21 74 49 20 75 48 23 76 50 22 77 51 23 78 53 21 79 54 17 80 52 19 81 55 17 82 52 21 83 54 18 84 58 22 85 56 16 86 57 22 87 56 18 88 58 20 89 59 15 90 63 9 91 60 14 92 62 9 93 60 8 94 61 14 95 62 25 96 65 27 97 66 24 98 64 26 99 67 24 100 64 27 101 66 31 102 70 28 103 68 29 104 69 28 105 68 31 106 70 30 107 71 34 108 74 32 109 72 33 110 73 32 111 72 34 112 74 35 113 75 36 114 78 35 115 76 34 116 77 35 117 76 36 118 78 37 119 79 38 120 82 37 121 80 36 122 81 37 123 80 38 124 82 39 125 83 34 126 87 33 127 84 36 128 86 36 129 86 33 130 84 38 131 85 35 132 90 39 133 88 32 134 89 39 135 88 35 136 90 37 137 91 38 138 95 33 139 92 39 140 94 33 141 92 32 142 93 39 143 94 43 144 98 40 145 96 41 146 97 40 147 96 43 148 98 42 149 99 45 150 102 42 151 100 43 152 101 42 153 100 45 154 102 44 155 103 47 156 106 44 157 104 45 158 105 44 159 104 47 160 106 46 161 107 43 162 111 41 163 108 45 164 110 45 165 110 41 166 108 47 167 109 40 168 113 42 169 114 46 170 112 46 171 112 42 172 114 44 173 115 49 174 117 51 175 118 48 176 116 50 177 119 48 178 116 51 179 118 55 180 122 52 181 120 53 182 121 52 183 120 55 184 122 54 185 123 55 186 125 53 187 126 49 188 124 51 189 127 49 190 124 53 191 126 50 192 130 54 193 128 48 194 129 54 195 128 50 196 130 52 197 131 47 198 135 41 199 132 46 200 134 41 201 132 40 202 133 46 203 134 57 204 137 59 205 138 56 206 136 58 207 139 56 208 136 59 209 138 63 210 142 60 211 140 61 212 141 60 213 140 63 214 142 62 215 143 66 216 147 64 217 144 67 218 146 67 219 146 64 220 144 65 221 145 69 222 149 71 223 150 68 224 148 68 225 148 71 226 150 70 227 151 67 228 155 65 229 152 69 230 154 69 231 154 65 232 152 71 233 153 68 234 159 70 235 156 66 236 158 66 237 158 70 238 156 64 239 157 74 240 163 72 241 160 75 242 162 75 243 162 72 244 160 73 245 161 77 246 165 79 247 166 76 248 164 76 249 164 79 250 166 78 251 167 82 252 171 80 253 168 83 254 170 83 255 170 80 256 168 81 257 169 85 258 173 87 259 174 84 260 172 84 261 172 87 262 174 86 263 175 83 264 179 81 265 176 85 266 178 85 267 178 81 268 176 87 269 177 84 270 183 86 271 180 82 272 182 82 273 182 86 274 180 80 275 181 90 276 187 88 277 184 91 278 186 91 279 186 88 280 184 89 281 185 93 282 189 95 283 190 92 284 188 92 285 188 95 286 190 94 287 191 96 288 192 97 289 193 99 290 194 96 291 192 99 292 194 98 293 195</p>
        </triangles>
      </mesh>
    </geometry>
  </library_geometries>
  <library_visual_scenes>
    <visual_scene id="" name="">
      <node name="polySurface5" id="polySurface5" sid="polySurface5">
        <matrix sid="matrix">0.987975 0.000000 0.000000 -4.972316 0.000000 1.000000 0.000000 0.000000 0.000000 0.000000 0.937197 -0.000000 0.000000 0.000000 0.000000 1.000000</matrix>
        <instance_geometry url="#polySurface5-lib">
          <bind_material>
            <technique_common>
              <instance_material symbol="tesla_structure_piping_02_tesla_structure_pillar_core_02_tesla_structure_platform_01_tesla_structure_pillar_drum_01" target="#tesla_structure_piping_02_tesla_structure_pillar_core_02_tesla_structure_platform_01_tesla_structure_pillar_drum_01"/>
            </technique_common>
          </bind_material>
        </instance_geometry>
        <extra>
          <technique profile="FCOLLADA">
            <visibility>1.000000</visibility>
          </technique>
        </extra>
      </node>
      <extra>
        <technique profile="MAX3D">
          <frame_rate>24.000000</frame_rate>
        </technique>
        <technique profile="FCOLLADA">
          <start_time>0.041667</start_time>
          <end_time>2.000000</end_time>
        </technique>
      </extra>
    </visual_scene>
  </library_visual_scenes>
  <scene>
    <instance_visual_scene url="#"></instance_visual_scene>
  </scene>
</COLLADA>

