<?xml version="1.0" encoding="utf-8"?>
<COLLADA xmlns="http://www.collada.org/2005/11/COLLADASchema" version="1.4.1">
  <asset>
    <contributor>
      <author></author>
      <authoring_tool>FBX COLLADA exporter</authoring_tool>
      <comments></comments>
    </contributor>
    <created>2012-07-09T10:14:11Z</created>
    <keywords></keywords>
    <modified>2012-07-09T10:14:11Z</modified>
    <revision></revision>
    <subject></subject>
    <title></title>
    <unit meter="0.010000" name="centimeter"></unit>
    <up_axis>Y_UP</up_axis>
  </asset>
  <library_images>
    <image id="tesla_structure_piping_02_tesla_structure_pillar_core_02_tesla_structure_platform_01_file1-image" name="tesla_structure_piping_02_tesla_structure_pillar_core_02_tesla_structure_platform_01_file1">
      <init_from>file://C:/Users/sindre/Desktop/Sindre/Amnesia - Freelance/Amnesia - Source/StaticObjects/teslabase/dressing/tesla_dressing_wires_01.tga</init_from>
    </image>
  </library_images>
  <library_materials>
    <material id="tesla_structure_piping_02_tesla_structure_pillar_core_02_tesla_structure_platform_01_tesla_structure_pillar_drum_01" name="tesla_structure_piping_02_tesla_structure_pillar_core_02_tesla_structure_platform_01_tesla_structure_pillar_drum_01">
      <instance_effect url="#tesla_structure_piping_02_tesla_structure_pillar_core_02_tesla_structure_platform_01_tesla_structure_pillar_drum_01-fx"/>
    </material>
  </library_materials>
  <library_effects>
    <effect id="tesla_structure_piping_02_tesla_structure_pillar_core_02_tesla_structure_platform_01_tesla_structure_pillar_drum_01-fx" name="tesla_structure_piping_02_tesla_structure_pillar_core_02_tesla_structure_platform_01_tesla_structure_pillar_drum_01">
      <profile_COMMON>
        <technique sid="standard">
          <lambert>
            <emission>
              <color sid="emission">0.000000  0.000000 0.000000 1.000000</color>
            </emission>
            <ambient>
              <color sid="ambient">0.000000  0.000000 0.000000 1.000000</color>
            </ambient>
            <diffuse>
              <texture texture="tesla_structure_piping_02_tesla_structure_pillar_core_02_tesla_structure_platform_01_file1-image" texcoord="CHANNEL0">
                <extra>
                  <technique profile="MAYA">
                    <wrapU sid="wrapU0">TRUE</wrapU>
                    <wrapV sid="wrapV0">TRUE</wrapV>
                    <blend_mode>NONE</blend_mode>
                  </technique>
                </extra>
              </texture>
            </diffuse>
            <transparent opaque="RGB_ZERO">
              <color sid="transparent">0.000000  0.000000 0.000000 1.000000</color>
            </transparent>
            <transparency>
              <float sid="transparency">1.000000</float>
            </transparency>
          </lambert>
        </technique>
      </profile_COMMON>
    </effect>
  </library_effects>
  <library_geometries>
    <geometry id="tesla_dressing_generic_frame_01-lib" name="tesla_dressing_generic_frame_01Mesh">
      <mesh>
        <source id="tesla_dressing_generic_frame_01-POSITION">
          <float_array id="tesla_dressing_generic_frame_01-POSITION-array" count="288">
72.565674 -25.000000 -15.202987
72.565674 -25.000000 -10.248031
72.565674 25.000000 -10.248031
72.565674 25.000000 -15.202987
77.434326 25.000000 -10.248031
77.434326 25.000000 -15.202987
77.434326 -25.000000 -10.248031
77.434326 -25.000000 -15.202987
160.655212 -13.742083 -15.202987
160.655212 -13.742083 -10.248031
160.655212 17.691929 -15.202987
160.655212 17.691929 -10.248031
165.523895 17.691929 -15.202987
165.523895 17.691929 -10.248031
165.523895 -13.742083 -15.202987
165.523895 -13.742083 -10.248031
-77.434326 -25.000000 -15.202987
-77.434326 -25.000000 -10.248031
-77.434326 25.000000 -15.202987
-77.434326 25.000000 -10.248031
-72.565674 25.000000 -15.202987
-72.565674 25.000000 -10.248031
-72.565674 -25.000000 -15.202987
-72.565674 -25.000000 -10.248031
-164.344788 -13.742083 -15.202987
-164.344788 -13.742083 -10.248031
-164.344788 17.691929 -15.202987
-164.344788 17.691929 -10.248031
-159.476074 17.691929 -15.202987
-159.476074 17.691929 -10.248031
-159.476074 -13.742083 -15.202987
-159.476074 -13.742083 -10.248031
-200.000000 14.307831 -11.238257
-200.000000 6.774399 -11.238257
200.000000 14.307831 -11.238257
200.000000 6.774399 -11.238257
200.000000 14.307831 -14.212760
200.000000 6.774399 -14.212760
-200.000000 14.307831 -14.212760
-200.000000 6.774399 -14.212760
-200.000000 -3.702515 -11.238257
-200.000000 -11.235947 -11.238257
200.000000 -3.702515 -11.238257
200.000000 -11.235947 -11.238257
200.000000 -3.702515 -14.212760
200.000000 -11.235947 -14.212760
-200.000000 -3.702515 -14.212760
-200.000000 -11.235947 -14.212760
72.565674 -25.000000 -2.611749
72.565674 -25.000000 2.343207
72.565674 25.000000 2.343207
72.565674 25.000000 -2.611749
77.434326 25.000000 2.343207
77.434326 25.000000 -2.611749
77.434326 -25.000000 2.343207
77.434326 -25.000000 -2.611749
-77.434326 -25.000000 -2.611749
-77.434326 -25.000000 2.343207
-77.434326 25.000000 2.343207
-77.434326 25.000000 -2.611749
-72.565674 25.000000 2.343207
-72.565674 25.000000 -2.611749
-72.565674 -25.000000 2.343207
-72.565674 -25.000000 -2.611749
-76.038208 18.765182 -1.404702
-76.038208 22.224339 -1.404702
-76.038208 22.224339 -18.676422
-76.038208 18.765182 -18.676422
-73.961823 22.224339 -18.676422
-73.961823 18.765182 -18.676422
-73.961823 22.224339 -1.404702
-73.961823 18.765182 -1.404702
-76.038208 -19.413305 -1.404702
-76.038208 -15.954147 -1.404702
-76.038208 -15.954147 -18.676422
-76.038208 -19.413305 -18.676422
-73.961823 -15.954147 -18.676422
-73.961823 -19.413305 -18.676422
-73.961823 -15.954147 -1.404702
-73.961823 -19.413305 -1.404702
73.961792 18.765182 -1.404702
73.961792 22.224339 -1.404702
73.961792 22.224339 -18.676422
73.961792 18.765182 -18.676422
76.038177 22.224339 -18.676422
76.038177 18.765182 -18.676422
76.038177 22.224339 -1.404702
76.038177 18.765182 -1.404702
73.961792 -19.413305 -1.404702
73.961792 -15.954147 -1.404702
73.961792 -15.954147 -18.676422
73.961792 -19.413305 -18.676422
76.038177 -15.954147 -18.676422
76.038177 -19.413305 -18.676422
76.038177 -15.954147 -1.404702
76.038177 -19.413305 -1.404702
</float_array>
          <technique_common>
            <accessor source="#tesla_dressing_generic_frame_01-POSITION-array" count="96" stride="3">
              <param name="X" type="float"/>
              <param name="Y" type="float"/>
              <param name="Z" type="float"/>
            </accessor>
          </technique_common>
        </source>
        <source id="tesla_dressing_generic_frame_01-Normal0">
          <float_array id="tesla_dressing_generic_frame_01-Normal0-array" count="1152">
-1.000000 0.000000 0.000000
-1.000000 0.000000 0.000000
-1.000000 0.000000 0.000000
-1.000000 0.000000 0.000000
-1.000000 0.000000 0.000000
-1.000000 0.000000 0.000000
0.000000 1.000000 0.000000
0.000000 1.000000 0.000000
0.000000 1.000000 0.000000
0.000000 1.000000 0.000000
0.000000 1.000000 0.000000
0.000000 1.000000 0.000000
1.000000 0.000000 0.000000
1.000000 0.000000 0.000000
1.000000 0.000000 0.000000
1.000000 0.000000 0.000000
1.000000 0.000000 0.000000
1.000000 0.000000 0.000000
0.000000 0.000000 1.000000
0.000000 0.000000 1.000000
0.000000 0.000000 1.000000
0.000000 0.000000 1.000000
0.000000 0.000000 1.000000
0.000000 0.000000 1.000000
0.000000 0.000000 -1.000000
0.000000 0.000000 -1.000000
0.000000 0.000000 -1.000000
0.000000 0.000000 -1.000000
0.000000 0.000000 -1.000000
0.000000 0.000000 -1.000000
0.000000 -1.000000 0.000000
0.000000 -1.000000 0.000000
0.000000 -1.000000 0.000000
0.000000 -1.000000 0.000000
0.000000 -1.000000 0.000000
0.000000 -1.000000 0.000000
-1.000000 0.000000 0.000000
-1.000000 0.000000 0.000000
-1.000000 0.000000 0.000000
-1.000000 0.000000 0.000000
-1.000000 0.000000 0.000000
-1.000000 0.000000 0.000000
0.000000 1.000000 0.000000
0.000000 1.000000 0.000000
0.000000 1.000000 0.000000
0.000000 1.000000 0.000000
0.000000 1.000000 0.000000
0.000000 1.000000 0.000000
1.000000 0.000000 0.000000
1.000000 0.000000 0.000000
1.000000 0.000000 0.000000
1.000000 0.000000 0.000000
1.000000 0.000000 0.000000
1.000000 0.000000 0.000000
0.000000 0.000000 1.000000
0.000000 0.000000 1.000000
0.000000 0.000000 1.000000
0.000000 0.000000 1.000000
0.000000 0.000000 1.000000
0.000000 0.000000 1.000000
0.000000 0.000000 -1.000000
0.000000 0.000000 -1.000000
0.000000 0.000000 -1.000000
0.000000 0.000000 -1.000000
0.000000 0.000000 -1.000000
0.000000 0.000000 -1.000000
-1.000000 0.000000 0.000000
-1.000000 0.000000 0.000000
-1.000000 0.000000 0.000000
-1.000000 0.000000 0.000000
-1.000000 0.000000 0.000000
-1.000000 0.000000 0.000000
0.000000 1.000000 0.000000
0.000000 1.000000 0.000000
0.000000 1.000000 0.000000
0.000000 1.000000 0.000000
0.000000 1.000000 0.000000
0.000000 1.000000 0.000000
1.000000 0.000000 0.000000
1.000000 0.000000 0.000000
1.000000 0.000000 0.000000
1.000000 0.000000 0.000000
1.000000 0.000000 0.000000
1.000000 0.000000 0.000000
0.000000 0.000000 1.000000
0.000000 0.000000 1.000000
0.000000 0.000000 1.000000
0.000000 0.000000 1.000000
0.000000 0.000000 1.000000
0.000000 0.000000 1.000000
0.000000 0.000000 -1.000000
0.000000 0.000000 -1.000000
0.000000 0.000000 -1.000000
0.000000 0.000000 -1.000000
0.000000 0.000000 -1.000000
0.000000 0.000000 -1.000000
-1.000000 0.000000 0.000000
-1.000000 0.000000 0.000000
-1.000000 0.000000 0.000000
-1.000000 0.000000 0.000000
-1.000000 0.000000 0.000000
-1.000000 0.000000 0.000000
0.000000 1.000000 0.000000
0.000000 1.000000 0.000000
0.000000 1.000000 0.000000
0.000000 1.000000 0.000000
0.000000 1.000000 0.000000
0.000000 1.000000 0.000000
1.000000 0.000000 0.000000
1.000000 0.000000 0.000000
1.000000 0.000000 0.000000
1.000000 0.000000 0.000000
1.000000 0.000000 0.000000
1.000000 0.000000 0.000000
0.000000 0.000000 1.000000
0.000000 0.000000 1.000000
0.000000 0.000000 1.000000
0.000000 0.000000 1.000000
0.000000 0.000000 1.000000
0.000000 0.000000 1.000000
0.000000 0.000000 -1.000000
0.000000 0.000000 -1.000000
0.000000 0.000000 -1.000000
0.000000 0.000000 -1.000000
0.000000 0.000000 -1.000000
0.000000 0.000000 -1.000000
0.000000 0.000000 1.000000
0.000000 0.000000 1.000000
0.000000 0.000000 1.000000
0.000000 0.000000 1.000000
0.000000 0.000000 1.000000
0.000000 0.000000 1.000000
0.000000 0.000000 -1.000000
0.000000 0.000000 -1.000000
0.000000 0.000000 -1.000000
0.000000 0.000000 -1.000000
0.000000 0.000000 -1.000000
0.000000 0.000000 -1.000000
0.000000 -1.000000 0.000000
0.000000 -1.000000 0.000000
0.000000 -1.000000 0.000000
0.000000 -1.000000 0.000000
0.000000 -1.000000 0.000000
0.000000 -1.000000 0.000000
0.000000 1.000000 0.000000
0.000000 1.000000 0.000000
0.000000 1.000000 0.000000
0.000000 1.000000 0.000000
0.000000 1.000000 0.000000
0.000000 1.000000 0.000000
0.000000 0.000000 1.000000
0.000000 0.000000 1.000000
0.000000 0.000000 1.000000
0.000000 0.000000 1.000000
0.000000 0.000000 1.000000
0.000000 0.000000 1.000000
0.000000 0.000000 -1.000000
0.000000 0.000000 -1.000000
0.000000 0.000000 -1.000000
0.000000 0.000000 -1.000000
0.000000 0.000000 -1.000000
0.000000 0.000000 -1.000000
0.000000 -1.000000 0.000000
0.000000 -1.000000 0.000000
0.000000 -1.000000 0.000000
0.000000 -1.000000 0.000000
0.000000 -1.000000 0.000000
0.000000 -1.000000 0.000000
0.000000 1.000000 0.000000
0.000000 1.000000 0.000000
0.000000 1.000000 0.000000
0.000000 1.000000 0.000000
0.000000 1.000000 0.000000
0.000000 1.000000 0.000000
0.000000 -1.000000 0.000000
0.000000 -1.000000 0.000000
0.000000 -1.000000 0.000000
0.000000 -1.000000 0.000000
0.000000 -1.000000 0.000000
0.000000 -1.000000 0.000000
0.000000 -1.000000 0.000000
0.000000 -1.000000 0.000000
0.000000 -1.000000 0.000000
0.000000 -1.000000 0.000000
0.000000 -1.000000 0.000000
0.000000 -1.000000 0.000000
0.000000 -1.000000 0.000000
0.000000 -1.000000 0.000000
0.000000 -1.000000 0.000000
0.000000 -1.000000 0.000000
0.000000 -1.000000 0.000000
0.000000 -1.000000 0.000000
-1.000000 0.000000 0.000000
-1.000000 0.000000 0.000000
-1.000000 0.000000 0.000000
-1.000000 0.000000 0.000000
-1.000000 0.000000 0.000000
-1.000000 0.000000 0.000000
0.000000 1.000000 0.000000
0.000000 1.000000 0.000000
0.000000 1.000000 0.000000
0.000000 1.000000 0.000000
0.000000 1.000000 0.000000
0.000000 1.000000 0.000000
1.000000 0.000000 0.000000
1.000000 0.000000 0.000000
1.000000 0.000000 0.000000
1.000000 0.000000 0.000000
1.000000 0.000000 0.000000
1.000000 0.000000 0.000000
0.000000 0.000000 1.000000
0.000000 0.000000 1.000000
0.000000 0.000000 1.000000
0.000000 0.000000 1.000000
0.000000 0.000000 1.000000
0.000000 0.000000 1.000000
0.000000 0.000000 -1.000000
0.000000 0.000000 -1.000000
0.000000 0.000000 -1.000000
0.000000 0.000000 -1.000000
0.000000 0.000000 -1.000000
0.000000 0.000000 -1.000000
0.000000 -1.000000 0.000000
0.000000 -1.000000 0.000000
0.000000 -1.000000 0.000000
0.000000 -1.000000 0.000000
0.000000 -1.000000 0.000000
0.000000 -1.000000 0.000000
-1.000000 0.000000 0.000000
-1.000000 0.000000 0.000000
-1.000000 0.000000 0.000000
-1.000000 0.000000 0.000000
-1.000000 0.000000 0.000000
-1.000000 0.000000 0.000000
0.000000 1.000000 0.000000
0.000000 1.000000 0.000000
0.000000 1.000000 0.000000
0.000000 1.000000 0.000000
0.000000 1.000000 0.000000
0.000000 1.000000 0.000000
1.000000 0.000000 0.000000
1.000000 0.000000 0.000000
1.000000 0.000000 0.000000
1.000000 0.000000 0.000000
1.000000 0.000000 0.000000
1.000000 0.000000 0.000000
0.000000 0.000000 1.000000
0.000000 0.000000 1.000000
0.000000 0.000000 1.000000
0.000000 0.000000 1.000000
0.000000 0.000000 1.000000
0.000000 0.000000 1.000000
0.000000 0.000000 -1.000000
0.000000 0.000000 -1.000000
0.000000 0.000000 -1.000000
0.000000 0.000000 -1.000000
0.000000 0.000000 -1.000000
0.000000 0.000000 -1.000000
0.000000 -1.000000 0.000000
0.000000 -1.000000 0.000000
0.000000 -1.000000 0.000000
0.000000 -1.000000 0.000000
0.000000 -1.000000 0.000000
0.000000 -1.000000 0.000000
-1.000000 0.000000 0.000000
-1.000000 0.000000 0.000000
-1.000000 0.000000 0.000000
-1.000000 0.000000 0.000000
-1.000000 0.000000 0.000000
-1.000000 0.000000 0.000000
0.000000 0.000000 -1.000000
0.000000 0.000000 -1.000000
0.000000 0.000000 -1.000000
0.000000 0.000000 -1.000000
0.000000 0.000000 -1.000000
0.000000 0.000000 -1.000000
1.000000 0.000000 0.000000
1.000000 0.000000 0.000000
1.000000 0.000000 0.000000
1.000000 0.000000 0.000000
1.000000 0.000000 0.000000
1.000000 0.000000 0.000000
0.000000 1.000000 0.000000
0.000000 1.000000 0.000000
0.000000 1.000000 0.000000
0.000000 1.000000 0.000000
0.000000 1.000000 0.000000
0.000000 1.000000 0.000000
0.000000 -1.000000 0.000000
0.000000 -1.000000 0.000000
0.000000 -1.000000 0.000000
0.000000 -1.000000 0.000000
0.000000 -1.000000 0.000000
0.000000 -1.000000 0.000000
-1.000000 0.000000 0.000000
-1.000000 0.000000 0.000000
-1.000000 0.000000 0.000000
-1.000000 0.000000 0.000000
-1.000000 0.000000 0.000000
-1.000000 0.000000 0.000000
0.000000 0.000000 -1.000000
0.000000 0.000000 -1.000000
0.000000 0.000000 -1.000000
0.000000 0.000000 -1.000000
0.000000 0.000000 -1.000000
0.000000 0.000000 -1.000000
1.000000 0.000000 0.000000
1.000000 0.000000 0.000000
1.000000 0.000000 0.000000
1.000000 0.000000 0.000000
1.000000 0.000000 0.000000
1.000000 0.000000 0.000000
0.000000 1.000000 0.000000
0.000000 1.000000 0.000000
0.000000 1.000000 0.000000
0.000000 1.000000 0.000000
0.000000 1.000000 0.000000
0.000000 1.000000 0.000000
0.000000 -1.000000 0.000000
0.000000 -1.000000 0.000000
0.000000 -1.000000 0.000000
0.000000 -1.000000 0.000000
0.000000 -1.000000 0.000000
0.000000 -1.000000 0.000000
-1.000000 0.000000 0.000000
-1.000000 0.000000 0.000000
-1.000000 0.000000 0.000000
-1.000000 0.000000 0.000000
-1.000000 0.000000 0.000000
-1.000000 0.000000 0.000000
0.000000 0.000000 -1.000000
0.000000 0.000000 -1.000000
0.000000 0.000000 -1.000000
0.000000 0.000000 -1.000000
0.000000 0.000000 -1.000000
0.000000 0.000000 -1.000000
1.000000 0.000000 0.000000
1.000000 0.000000 0.000000
1.000000 0.000000 0.000000
1.000000 0.000000 0.000000
1.000000 0.000000 0.000000
1.000000 0.000000 0.000000
0.000000 1.000000 0.000000
0.000000 1.000000 0.000000
0.000000 1.000000 0.000000
0.000000 1.000000 0.000000
0.000000 1.000000 0.000000
0.000000 1.000000 0.000000
0.000000 -1.000000 0.000000
0.000000 -1.000000 0.000000
0.000000 -1.000000 0.000000
0.000000 -1.000000 0.000000
0.000000 -1.000000 0.000000
0.000000 -1.000000 0.000000
-1.000000 0.000000 0.000000
-1.000000 0.000000 0.000000
-1.000000 0.000000 0.000000
-1.000000 0.000000 0.000000
-1.000000 0.000000 0.000000
-1.000000 0.000000 0.000000
0.000000 0.000000 -1.000000
0.000000 0.000000 -1.000000
0.000000 0.000000 -1.000000
0.000000 0.000000 -1.000000
0.000000 0.000000 -1.000000
0.000000 0.000000 -1.000000
1.000000 0.000000 0.000000
1.000000 0.000000 0.000000
1.000000 0.000000 0.000000
1.000000 0.000000 0.000000
1.000000 0.000000 0.000000
1.000000 0.000000 0.000000
0.000000 1.000000 0.000000
0.000000 1.000000 0.000000
0.000000 1.000000 0.000000
0.000000 1.000000 0.000000
0.000000 1.000000 0.000000
0.000000 1.000000 0.000000
0.000000 -1.000000 0.000000
0.000000 -1.000000 0.000000
0.000000 -1.000000 0.000000
0.000000 -1.000000 0.000000
0.000000 -1.000000 0.000000
0.000000 -1.000000 0.000000
</float_array>
          <technique_common>
            <accessor source="#tesla_dressing_generic_frame_01-Normal0-array" count="384" stride="3">
              <param name="X" type="float"/>
              <param name="Y" type="float"/>
              <param name="Z" type="float"/>
            </accessor>
          </technique_common>
        </source>
        <source id="tesla_dressing_generic_frame_01-UV0">
          <float_array id="tesla_dressing_generic_frame_01-UV0-array" count="512">
0.119230 0.735198
0.119230 0.670053
0.500440 0.670053
0.500440 0.735198
0.436848 0.500341
0.500440 0.500341
0.500440 0.548769
0.436848 0.548769
0.500440 0.551042
0.500440 0.612247
0.119229 0.612247
0.119229 0.551042
0.119229 0.661725
0.119229 0.618350
0.500440 0.618350
0.500440 0.661725
0.119229 0.547652
0.119229 0.501349
0.500440 0.501349
0.500440 0.547652
0.436848 0.500341
0.500440 0.500341
0.500440 0.548769
0.436848 0.548769
0.205062 0.735198
0.205062 0.670053
0.444722 0.670053
0.444722 0.735198
0.436848 0.500342
0.500440 0.500342
0.500440 0.548769
0.436848 0.548769
0.444722 0.551043
0.444722 0.612247
0.205062 0.612247
0.205063 0.551042
0.205062 0.661725
0.205062 0.618350
0.444722 0.618351
0.444722 0.661725
0.205062 0.547652
0.205062 0.501349
0.444722 0.501349
0.444722 0.547652
0.119230 0.735198
0.119230 0.670053
0.500440 0.670053
0.500440 0.735198
0.436848 0.500341
0.500440 0.500341
0.500440 0.548769
0.436848 0.548769
0.500440 0.551042
0.500440 0.612247
0.119229 0.612247
0.119229 0.551042
0.119229 0.661725
0.119229 0.618350
0.500440 0.618350
0.500440 0.661725
0.119229 0.547652
0.119229 0.501349
0.500440 0.501349
0.500440 0.547652
0.205062 0.735195
0.205062 0.670050
0.444721 0.670050
0.444721 0.735195
0.436848 0.500342
0.500440 0.500342
0.500440 0.548769
0.436848 0.548769
0.444722 0.551046
0.444722 0.612250
0.205063 0.612250
0.205063 0.551046
0.205062 0.661725
0.205062 0.618350
0.444722 0.618351
0.444722 0.661725
0.205062 0.547652
0.205062 0.501349
0.444722 0.501349
0.444722 0.547652
-0.500000 0.665348
-0.500000 0.617143
1.500000 0.617143
1.500000 0.665348
1.500000 0.617143
1.500000 0.665348
-0.500000 0.665348
-0.500000 0.617143
-0.500000 0.665348
-0.500000 0.617143
1.500000 0.617143
1.500000 0.665348
-0.500000 0.547652
-0.500000 0.501350
1.500000 0.501349
1.500000 0.547651
-0.500000 0.733893
-0.500000 0.668748
1.500000 0.668748
1.500000 0.733893
1.500000 0.501553
1.500000 0.547683
-0.500000 0.547683
-0.500000 0.501553
-0.500000 0.665348
-0.500000 0.617143
1.500000 0.617143
1.500000 0.665348
-0.500000 0.547652
-0.500000 0.501350
1.500000 0.501349
1.500000 0.547651
0.436848 0.500342
0.500440 0.500342
0.500440 0.548769
0.436848 0.548769
0.436848 0.500341
0.500440 0.500341
0.500440 0.548769
0.436848 0.548769
0.436848 0.500341
0.500440 0.500342
0.500440 0.548769
0.436848 0.548769
0.119230 0.735198
0.119230 0.670053
0.500440 0.670053
0.500440 0.735198
0.436848 0.500341
0.500440 0.500341
0.500440 0.548769
0.436848 0.548769
0.500440 0.551042
0.500440 0.612247
0.119229 0.612247
0.119229 0.551042
0.119229 0.661725
0.119229 0.618350
0.500440 0.618350
0.500440 0.661725
0.119229 0.547652
0.119229 0.501349
0.500440 0.501349
0.500440 0.547652
0.436848 0.500341
0.500440 0.500341
0.500440 0.548769
0.436848 0.548769
0.119230 0.735198
0.119230 0.670053
0.500440 0.670053
0.500440 0.735198
0.436848 0.500341
0.500440 0.500341
0.500440 0.548769
0.436848 0.548769
0.500440 0.551042
0.500440 0.612247
0.119229 0.612247
0.119229 0.551042
0.119229 0.661725
0.119229 0.618350
0.500440 0.618350
0.500440 0.661725
0.119229 0.547652
0.119229 0.501349
0.500440 0.501349
0.500440 0.547652
0.436848 0.500341
0.500440 0.500341
0.500440 0.548769
0.436848 0.548769
0.368756 0.735198
0.368756 0.670053
0.500440 0.670053
0.500440 0.735198
0.436848 0.500341
0.500440 0.500341
0.500440 0.548769
0.436848 0.548769
0.500440 0.551042
0.500440 0.612247
0.368757 0.612248
0.368757 0.551044
0.368757 0.661725
0.368757 0.618350
0.500440 0.618350
0.500440 0.661725
0.368757 0.547652
0.368757 0.501349
0.500440 0.501349
0.500440 0.547652
0.368756 0.735198
0.368756 0.670053
0.500440 0.670053
0.500440 0.735198
0.436848 0.500341
0.500440 0.500341
0.500440 0.548769
0.436848 0.548769
0.500440 0.551042
0.500440 0.612247
0.368757 0.612248
0.368757 0.551044
0.368757 0.661725
0.368757 0.618350
0.500440 0.618350
0.500440 0.661725
0.368757 0.547652
0.368757 0.501349
0.500440 0.501349
0.500440 0.547652
0.368756 0.735198
0.368756 0.670053
0.500440 0.670053
0.500440 0.735198
0.436848 0.500341
0.500440 0.500341
0.500440 0.548769
0.436848 0.548769
0.500440 0.551042
0.500440 0.612247
0.368757 0.612248
0.368757 0.551044
0.368757 0.661725
0.368757 0.618350
0.500440 0.618350
0.500440 0.661725
0.368757 0.547652
0.368757 0.501349
0.500440 0.501349
0.500440 0.547652
0.368756 0.735198
0.368756 0.670053
0.500440 0.670053
0.500440 0.735198
0.436848 0.500341
0.500440 0.500341
0.500440 0.548769
0.436848 0.548769
0.500440 0.551042
0.500440 0.612247
0.368757 0.612248
0.368757 0.551044
0.368757 0.661725
0.368757 0.618350
0.500440 0.618350
0.500440 0.661725
0.368757 0.547652
0.368757 0.501349
0.500440 0.501349
0.500440 0.547652
</float_array>
          <technique_common>
            <accessor source="#tesla_dressing_generic_frame_01-UV0-array" count="256" stride="2">
              <param name="S" type="float"/>
              <param name="T" type="float"/>
            </accessor>
          </technique_common>
        </source>
        <vertices id="tesla_dressing_generic_frame_01-VERTEX">
          <input semantic="POSITION" source="#tesla_dressing_generic_frame_01-POSITION"/>
        </vertices>
        <triangles count="128" material="tesla_structure_piping_02_tesla_structure_pillar_core_02_tesla_structure_platform_01_tesla_structure_pillar_drum_01">
          <input semantic="VERTEX" offset="0" source="#tesla_dressing_generic_frame_01-VERTEX"/>
          <input semantic="NORMAL" offset="1" source="#tesla_dressing_generic_frame_01-Normal0"/>
          <input semantic="TEXCOORD" offset="2" set="0" source="#tesla_dressing_generic_frame_01-UV0"/>
          <p> 2 0 2 0 1 0 1 2 1 0 3 0 2 4 2 3 5 3 4 6 6 3 7 4 2 8 5 3 9 4 4 10 6 5 11 7 6 12 10 5 13 8 4 14 9 5 15 8 6 16 10 7 17 11 2 18 15 1 19 12 4 20 14 4 21 14 1 22 12 6 23 13 0 24 17 3 25 18 7 26 16 7 27 16 3 28 18 5 29 19 6 30 23 1 31 20 7 32 22 1 33 20 0 34 21 7 35 22 11 36 26 8 37 24 9 38 25 8 39 24 11 40 26 10 41 27 13 42 30 10 43 28 11 44 29 10 45 28 13 46 30 12 47 31 15 48 34 12 49 32 13 50 33 12 51 32 15 52 34 14 53 35 11 54 39 9 55 36 13 56 38 13 57 38 9 58 36 15 59 37 8 60 41 10 61 42 14 62 40 14 63 40 10 64 42 12 65 43 19 66 46 16 67 44 17 68 45 16 69 44 19 70 46 18 71 47 21 72 50 18 73 48 19 74 49 18 75 48 21 76 50 20 77 51 23 78 54 20 79 52 21 80 53 20 81 52 23 82 54 22 83 55 19 84 59 17 85 56 21 86 58 21 87 58 17 88 56 23 89 57 16 90 61 18 91 62 22 92 60 22 93 60 18 94 62 20 95 63 27 96 66 24 97 64 25 98 65 24 99 64 27 100 66 26 101 67 29 102 70 26 103 68 27 104 69 26 105 68 29 106 70 28 107 71 31 108 74 28 109 72 29 110 73 28 111 72 31 112 74 30 113 75 27 114 79 25 115 76 29 116 78 29 117 78 25 118 76 31 119 77 26 120 82 30 121 80 24 122 81 30 123 80 26 124 82 28 125 83 33 126 85 35 127 86 32 128 84 34 129 87 32 130 84 35 131 86 39 132 90 36 133 88 37 134 89 36 135 88 39 136 90 38 137 91 39 138 93 37 139 94 33 140 92 35 141 95 33 142 92 37 143 94 34 144 98 38 145 96 32 146 97 38 147 96 34 148 98 36 149 99 41 150 101 43 151 102 40 152 100 42 153 103 40 154 100 43 155 102 47 156 106 44 157 104 45 158 105 44 159 104 47 160 106 46 161 107 47 162 109 45 163 110 41 164 108 43 165 111 41 166 108 45 167 110 42 168 114 46 169 112 40 170 113 46 171 112 42 172 114 44 173 115 31 174 119 25 175 116 30 176 118 25 177 116 24 178 117 30 179 118 23 180 123 17 181 120 22 182 122 17 183 120 16 184 121 22 185 122 15 186 127 9 187 124 14 188 126 9 189 124 8 190 125 14 191 126 50 192 130 48 193 128 49 194 129 48 195 128 50 196 130 51 197 131 52 198 134 51 199 132 50 200 133 51 201 132 52 202 134 53 203 135 54 204 138 53 205 136 52 206 137 53 207 136 54 208 138 55 209 139 50 210 143 49 211 140 52 212 142 52 213 142 49 214 140 54 215 141 48 216 145 51 217 146 55 218 144 55 219 144 51 220 146 53 221 147 54 222 151 49 223 148 55 224 150 49 225 148 48 226 149 55 227 150 58 228 154 56 229 152 57 230 153 56 231 152 58 232 154 59 233 155 60 234 158 59 235 156 58 236 157 59 237 156 60 238 158 61 239 159 62 240 162 61 241 160 60 242 161 61 243 160 62 244 162 63 245 163 58 246 167 57 247 164 60 248 166 60 249 166 57 250 164 62 251 165 56 252 169 59 253 170 63 254 168 63 255 168 59 256 170 61 257 171 62 258 175 57 259 172 63 260 174 57 261 172 56 262 173 63 263 174 65 264 177 66 265 178 64 266 176 64 267 176 66 268 178 67 269 179 69 270 183 67 271 180 68 272 182 67 273 180 66 274 181 68 275 182 71 276 187 69 277 184 70 278 186 70 279 186 69 280 184 68 281 185 70 282 189 68 283 190 65 284 188 65 285 188 68 286 190 66 287 191 64 288 193 67 289 194 71 290 192 71 291 192 67 292 194 69 293 195 73 294 197 74 295 198 72 296 196 72 297 196 74 298 198 75 299 199 77 300 203 75 301 200 76 302 202 75 303 200 74 304 201 76 305 202 79 306 207 77 307 204 78 308 206 78 309 206 77 310 204 76 311 205 78 312 209 76 313 210 73 314 208 73 315 208 76 316 210 74 317 211 72 318 213 75 319 214 79 320 212 79 321 212 75 322 214 77 323 215 81 324 217 82 325 218 80 326 216 80 327 216 82 328 218 83 329 219 85 330 223 83 331 220 84 332 222 83 333 220 82 334 221 84 335 222 87 336 227 85 337 224 86 338 226 86 339 226 85 340 224 84 341 225 86 342 229 84 343 230 81 344 228 81 345 228 84 346 230 82 347 231 80 348 233 83 349 234 87 350 232 87 351 232 83 352 234 85 353 235 89 354 237 90 355 238 88 356 236 88 357 236 90 358 238 91 359 239 93 360 243 91 361 240 92 362 242 91 363 240 90 364 241 92 365 242 95 366 247 93 367 244 94 368 246 94 369 246 93 370 244 92 371 245 94 372 249 92 373 250 89 374 248 89 375 248 92 376 250 90 377 251 88 378 253 91 379 254 95 380 252 95 381 252 91 382 254 93 383 255</p>
        </triangles>
      </mesh>
    </geometry>
  </library_geometries>
  <library_visual_scenes>
    <visual_scene id="" name="">
      <node name="tesla_dressing_generic_frame_01" id="tesla_dressing_generic_frame_01" sid="tesla_dressing_generic_frame_01">
        <matrix sid="matrix">1.000000 0.000000 0.000000 0.000000 0.000000 1.000000 0.000000 0.000000 0.000000 0.000000 1.000000 0.000000 0.000000 0.000000 0.000000 1.000000</matrix>
        <instance_geometry url="#tesla_dressing_generic_frame_01-lib">
          <bind_material>
            <technique_common>
              <instance_material symbol="tesla_structure_piping_02_tesla_structure_pillar_core_02_tesla_structure_platform_01_tesla_structure_pillar_drum_01" target="#tesla_structure_piping_02_tesla_structure_pillar_core_02_tesla_structure_platform_01_tesla_structure_pillar_drum_01"/>
            </technique_common>
          </bind_material>
        </instance_geometry>
        <extra>
          <technique profile="FCOLLADA">
            <visibility>1.000000</visibility>
          </technique>
        </extra>
      </node>
      <extra>
        <technique profile="MAX3D">
          <frame_rate>24.000000</frame_rate>
        </technique>
        <technique profile="FCOLLADA">
          <start_time>0.041667</start_time>
          <end_time>2.000000</end_time>
        </technique>
      </extra>
    </visual_scene>
  </library_visual_scenes>
  <scene>
    <instance_visual_scene url="#"></instance_visual_scene>
  </scene>
</COLLADA>

