<?xml version="1.0" encoding="utf-8"?>
<COLLADA xmlns="http://www.collada.org/2005/11/COLLADASchema" version="1.4.1">
  <asset>
    <contributor>
      <author>Marc</author>
      <authoring_tool>OpenCOLLADA2008</authoring_tool>
      <comments>
			ColladaMaya export options: 
			bakeTransforms=1;relativePaths=1;copyTextures=0;exportTriangles=1;exportCgfxFileReferences=0;
			isSampling=0;curveConstrainSampling=0;removeStaticCurves=0;exportPolygonMeshes=1;exportLights=0;
			exportCameras=0;exportJointsAndSkin=1;exportAnimations=1;exportInvisibleNodes=0;exportDefaultCameras=0;
			exportTexCoords=1;exportNormals=1;exportNormalsPerVertex=0;exportVertexColors=1;exportVertexColorsPerVertex=0;
			exportTexTangents=0;exportTangents=0;exportReferencedMaterials=0;exportMaterialsOnly=0;
			exportXRefs=0;dereferenceXRefs=1;exportCameraAsLookat=0;cameraXFov=0;cameraYFov=0;doublePrecision=0
		</comments>
      <source_data>file:///F:/pig/Game/redist/static_objects/teslabase/tesla_modules1_floor_01.dae</source_data>
    </contributor>
    <created>2013-04-25T10:36:17</created>
    <modified>2013-04-25T10:36:17</modified>
    <unit name="meter" meter="1"/>
    <up_axis>Y_UP</up_axis>
  </asset>
  <library_materials>
    <material id="lambert1" name="lambert1">
      <instance_effect url="#lambert1-fx"/>
    </material>
    <material id="Core1_tesla_structure_pillar_core_02_tesla_structure_interior_01_tesla_structure_platform_01_tesla_structure_pillar_drum_01" name="Core1_tesla_structure_pillar_core_02_tesla_structure_interior_01_tesla_structure_platform_01_tesla_structure_pillar_drum_01">
      <instance_effect url="#Core1_tesla_structure_pillar_core_02_tesla_structure_interior_01_tesla_structure_platform_01_tesla_structure_pillar_drum_01-fx"/>
    </material>
  </library_materials>
  <library_effects>
    <effect id="Core1_tesla_structure_pillar_core_02_tesla_structure_interior_01_tesla_structure_platform_01_tesla_structure_pillar_drum_01-fx">
      <profile_COMMON>
        <newparam sid="Core1_tesla_structure_pillar_core_02_tesla_structure_interior_01_tesla_structure_platform_01_file1_image-surface">
          <surface type="2D">
            <init_from>Core1_tesla_structure_pillar_core_02_tesla_structure_interior_01_tesla_structure_platform_01_file1_image</init_from>
          </surface>
        </newparam>
        <newparam sid="Core1_tesla_structure_pillar_core_02_tesla_structure_interior_01_tesla_structure_platform_01_file1_image-sampler">
          <sampler2D>
            <source>Core1_tesla_structure_pillar_core_02_tesla_structure_interior_01_tesla_structure_platform_01_file1_image-surface</source>
          </sampler2D>
        </newparam>
        <technique sid="common">
          <lambert>
            <emission>
              <color>0 0 0 1</color>
            </emission>
            <ambient>
              <color>0 0 0 1</color>
            </ambient>
            <diffuse>
              <texture texture="Core1_tesla_structure_pillar_core_02_tesla_structure_interior_01_tesla_structure_platform_01_file1_image-sampler" texcoord="TEX0">
                <extra>
                  <technique profile="OpenCOLLADAMaya">
                    <blend_mode>NONE</blend_mode>
                    <coverageU>1</coverageU>
                    <coverageV>1</coverageV>
                    <fast>0</fast>
                    <mirrorU>0</mirrorU>
                    <mirrorV>0</mirrorV>
                    <noiseU>0</noiseU>
                    <noiseV>0</noiseV>
                    <offsetU>0</offsetU>
                    <offsetV>0</offsetV>
                    <repeatU>1</repeatU>
                    <repeatV>1</repeatV>
                    <rotateFrame>0</rotateFrame>
                    <rotateUV>0</rotateUV>
                    <stagger>0</stagger>
                    <translateFrameU>0</translateFrameU>
                    <translateFrameV>0</translateFrameV>
                    <wrapU>1</wrapU>
                    <wrapV>1</wrapV>
                  </technique>
                </extra>
              </texture>
            </diffuse>
            <transparent opaque="RGB_ZERO">
              <color>0 0 0 1</color>
            </transparent>
            <transparency>
              <float>1</float>
            </transparency>
          </lambert>
        </technique>
      </profile_COMMON>
    </effect>
    <effect id="lambert1-fx">
      <profile_COMMON>
        <technique sid="common">
          <lambert>
            <emission>
              <color>0 0 0 1</color>
            </emission>
            <ambient>
              <color>0 0 0 1</color>
            </ambient>
            <diffuse>
              <color>0.4 0.4 0.4 1</color>
            </diffuse>
            <transparent opaque="RGB_ZERO">
              <color>0 0 0 1</color>
            </transparent>
            <transparency>
              <float>1</float>
            </transparency>
          </lambert>
        </technique>
      </profile_COMMON>
    </effect>
  </library_effects>
  <library_images>
    <image id="Core1_tesla_structure_pillar_core_02_tesla_structure_interior_01_tesla_structure_platform_01_file1_image" name="Core1_tesla_structure_pillar_core_02_tesla_structure_interior_01_tesla_structure_platform_01_file1_image">
      <init_from>./tesla_modules_floor_01.dds</init_from>
      <extra>
        <technique profile="OpenCOLLADAMaya">
          <dgnode_type>kFile</dgnode_type>
          <image_sequence>0</image_sequence>
          <originalMayaNodeId>Core1_tesla_structure_pillar_core_02_tesla_structure_interior_01_tesla_structure_platform_01_file1_image</originalMayaNodeId>
        </technique>
      </extra>
    </image>
  </library_images>
  <library_geometries>
    <geometry id="Tesla_Floor_01_and_02_polySurface97Shape" name="Tesla_Floor_01_and_02_polySurface97Shape">
      <mesh>
        <source id="Tesla_Floor_01_and_02_polySurface97Shape-positions" name="Tesla_Floor_01_and_02_polySurface97Shape-positions">
          <float_array id="Tesla_Floor_01_and_02_polySurface97Shape-positions-array" count="447">3.555575 0.124044 0.449343 3.690331 0.124041 0.65096 3.863912 0.107848 0.575819 3.689755 0.107848 0.315174 3.429111 0.107848 0.141017 3.353957 0.124041 0.314586 3.121659 0.107848 0.080051 3.112914 0.124035 0.26752 3.737397 0.124035 0.892003 3.922504 0.107848 0.88327 0.891993 0.124035 0.265157 0.88326 0.107848 0.080051 3.86096 0.047208 0.580465 3.68612 0.047208 0.318798 3.424452 0.047208 0.143956 3.115794 0.047208 0.080051 3.922504 0.047208 0.889123 0.889112 0.047208 0.080051 3.933761 0.047208 0.550236 3.999989 0.047208 0.881178 3.741849 0.047208 0.263068 3.454681 0.047208 0.071156 3.123739 0.047208 7e-6 0.881167 0.047208 7e-6 3.933761 0 0.550236 3.741849 0 0.263068 3.454681 0 0.071156 3.114764 0 7e-6 3.999989 0 0.878588 0.893545 0 7e-6 3.548063 0.114293 0.456853 3.548064 0.047171 0.456853 3.680581 0.047171 0.655181 3.680581 0.114293 0.655181 3.349736 0.114293 0.324335 3.349736 0.047171 0.324335 3.112419 0.114293 0.278133 3.112419 0.047171 0.278133 3.726783 0.047171 0.892497 3.726783 0.114293 0.892497 0.892487 0.047171 0.275771 0.892487 0.114293 0.275771 0.575809 0.107848 0.138642 0.315164 0.107848 0.312799 0.449332 0.124044 0.446979 0.65095 0.124041 0.312224 0.141006 0.107848 0.573444 0.314576 0.124041 0.648597 0.08004 0.107848 0.880896 0.26751 0.124035 0.88964 0.580455 0.047208 0.141594 0.318787 0.047208 0.316435 0.143946 0.047208 0.578102 0.08004 0.047208 0.88676 0.550226 0.047208 0.068794 0.263058 0.047208 0.260705 0.071146 0.047208 0.547873 -1.1e-5 0.047208 0.878815 0.550226 0 0.068794 0.263058 0 0.260705 0.071146 0 0.547873 -1.1e-5 0 0.878315 0.65517 0.047171 0.321973 0.65517 0.114293 0.321973 0.456843 0.114293 0.454491 0.456843 0.047171 0.454491 0.325865 0.114293 0.650513 0.326845 0.047171 0.649047 0.278123 0.114293 0.890135 0.278123 0.047171 0.890135 0.312213 0.124041 3.351605 0.138631 0.107848 3.426746 0.312789 0.107848 3.687389 0.446969 0.124044 3.553221 0.573434 0.107848 3.861548 0.648586 0.124041 3.687978 0.88963 0.124035 3.735044 0.880885 0.107848 3.922514 0.08004 0.107848 3.119294 0.265147 0.124035 3.110561 3.119284 0.107848 3.922514 3.110551 0.124035 3.737407 0.141584 0.047208 3.4221 0.316424 0.047208 3.683767 0.578092 0.047208 3.858608 0.88675 0.047208 3.922514 0.08004 0.047208 3.113442 3.113431 0.047208 3.922514 -1.1e-5 0.047208 3.121387 0.068783 0.047208 3.452328 0.260694 0.047208 3.739497 0.547862 0.047208 3.931409 0.878805 0.047208 4.000007 3.121376 0.047208 4.000007 0.068783 0 3.452328 0.260694 0 3.739497 0.547862 0 3.931409 0.879328 0 4.000007 -1.1e-5 0 3.121253 3.123451 0 4.000007 0.321963 0.047171 3.347384 0.324116 0.114293 3.350607 0.45448 0.114293 3.545711 0.45448 0.047171 3.545711 0.652807 0.114293 3.678229 0.652807 0.047171 3.678229 0.890124 0.114293 3.724431 0.890124 0.047171 3.724431 0.27615 0.114293 3.112067 0.275761 0.047171 3.110067 3.110057 0.114293 3.726793 3.110057 0.047171 3.726793 3.426735 0.107848 3.863922 3.68738 0.107848 3.689765 3.553212 0.124044 3.555585 3.351594 0.124041 3.69034 3.687968 0.124041 3.353968 3.861537 0.107848 3.42912 3.922504 0.107848 3.121669 3.735034 0.124035 3.112924 3.683757 0.047208 3.68613 3.422089 0.047208 3.86097 3.858598 0.047208 3.424462 3.922504 0.047208 3.115804 3.452319 0.047208 3.933771 3.739487 0.047208 3.74186 3.931398 0.047208 3.454692 3.999989 0.047208 3.123749 3.452319 0 3.933771 3.739487 0 3.74186 3.931398 0 3.454692 3.999989 0 3.123921 3.347374 0.114293 3.680591 3.545701 0.114293 3.548074 3.545701 0.047171 3.548074 3.347374 0.047171 3.680591 3.678219 0.114293 3.349747 3.678219 0.047171 3.349747 3.724421 0.114293 3.11243 3.724421 0.047171 3.11243 -1.1e-5 0 7e-6 -1.2e-5 -0.997805 7e-6 -1.1e-5 0 4.000007 -1.2e-5 -0.997805 4.000007 3.999989 0 7e-6 3.999989 -0.997805 7e-6 3.999989 -0.997805 4.000007 3.999989 0 4.000007 3.56172 0 3.561964</float_array>
          <technique_common>
            <accessor source="#Tesla_Floor_01_and_02_polySurface97Shape-positions-array" count="149" stride="3">
              <param name="X" type="float"/>
              <param name="Y" type="float"/>
              <param name="Z" type="float"/>
            </accessor>
          </technique_common>
        </source>
        <source id="Tesla_Floor_01_and_02_polySurface97Shape-normals" name="Tesla_Floor_01_and_02_polySurface97Shape-normals">
          <float_array id="Tesla_Floor_01_and_02_polySurface97Shape-normals-array" count="2628">0.06013501 0.9963772 -0.06013602 -0.1277659 0.9835404 0.1277659 0.07668404 0.9963475 -0.03756902 -0.1277659 0.9835404 0.1277659 -0.2857371 0.9468392 0.147817 0.07668404 0.9963475 -0.03756902 -0.147742 0.9467779 0.285979 -0.1277659 0.9835404 0.1277659 0.03777301 0.9963464 -0.07659803 -0.1277659 0.9835404 0.1277659 0.06013501 0.9963772 -0.06013602 0.03777301 0.9963464 -0.07659803 0.03777301 0.9963464 -0.07659803 0.008421 0.99626 -0.085995 -0.147742 0.9467779 0.285979 -0.147742 0.9467779 0.285979 0.008421 0.99626 -0.085995 -0.04437099 0.8894508 0.4548719 0.08642798 0.9961967 -0.011063 -0.2857371 0.9468392 0.147817 -0.3202839 0.9462785 0.04444298 -0.2857371 0.9468392 0.147817 0.08642798 0.9961967 -0.011063 0.07668404 0.9963475 -0.03756902 0.008421 0.99626 -0.085995 0.04444601 0.9462754 0.3202931 -0.04437099 0.8894508 0.4548719 0.04444601 0.9462754 0.3202931 0.008421 0.99626 -0.085995 -0.011063 0.9961967 -0.08642798 0.8950789 -0.077218 -0.4391709 0.5156148 0.6843128 -0.5156138 0.7045876 -0.08434495 -0.7045866 0.5156148 0.6843128 -0.5156138 0.8950789 -0.077218 -0.4391709 0.6825657 0.6940097 -0.2290299 0.5156148 0.6843128 -0.5156138 0.441354 -0.077247 -0.894002 0.7045876 -0.08434495 -0.7045866 0.441354 -0.077247 -0.894002 0.5156148 0.6843128 -0.5156138 0.2325361 0.6936512 -0.6817442 0.2325361 0.6936512 -0.6817442 0.1329121 -0.02745502 -0.9907476 0.441354 -0.077247 -0.894002 0.1329121 -0.02745502 -0.9907476 0.2325361 0.6936512 -0.6817442 0.04804701 0.7064502 -0.7061302 0.9951676 -0.02033001 -0.09606406 0.6825657 0.6940097 -0.2290299 0.8950789 -0.077218 -0.4391709 0.6825657 0.6940097 -0.2290299 0.9951676 -0.02033001 -0.09606406 0.705282 0.7055 -0.069622 0.04804701 0.7064502 -0.7061302 -0.09606197 -0.02032899 -0.9951677 0.1329121 -0.02745502 -0.9907476 -0.09606197 -0.02032899 -0.9951677 0.04804701 0.7064502 -0.7061302 -0.069621 0.7055 -0.705282 0.6825657 0.6940097 -0.2290299 0 1 0 0 1 0 0 1 0 0.6825657 0.6940097 -0.2290299 0.705282 0.7055 -0.069622 0 1 0 0.5156148 0.6843128 -0.5156138 0.6825657 0.6940097 -0.2290299 0.5156148 0.6843128 -0.5156138 0 1 0 0 1 0 0.5156148 0.6843128 -0.5156138 0 1 0 0.2325361 0.6936512 -0.6817442 0 1 0 0.5156148 0.6843128 -0.5156138 0 1 0 0.2325361 0.6936512 -0.6817442 0 1 0 0.04804701 0.7064502 -0.7061302 0 1 0 0.2325361 0.6936512 -0.6817442 0 1 0 0 1 0 0 1 0 0.04804701 0.7064502 -0.7061302 0.04804701 0.7064502 -0.7061302 0 1 0 -0.069621 0.7055 -0.705282 0.8961253 0 -0.4438011 0.7071074 0 -0.7071064 0.9467432 0.003649001 -0.3219691 0.7071074 0 -0.7071064 0.8961253 0 -0.4438011 0.7071074 0 -0.7071064 0.7071074 0 -0.7071064 0.3885939 -0.009908999 -0.9213559 0.7071074 0 -0.7071064 0.7071074 0 -0.7071064 0.3885939 -0.009908999 -0.9213559 0.3898291 0 -0.9208872 0.3885939 -0.009908999 -0.9213559 0.10431 -0.009783997 -0.9944968 0.3898291 0 -0.9208872 0.10431 -0.009783997 -0.9944968 0.3885939 -0.009908999 -0.9213559 0.05139099 -0.009769999 -0.9986309 0.9467432 0.003649001 -0.3219691 0.9978335 0.003606002 -0.06569103 0.9912579 0.003606 -0.131889 0.9467432 0.003649001 -0.3219691 0.9912579 0.003606 -0.131889 0.8961253 0 -0.4438011 0.10431 -0.009783997 -0.9944968 -0.03937002 -0.010323 -0.9991714 -0.1338739 -0.01722999 -0.9908485 -0.03937002 -0.010323 -0.9991714 0.10431 -0.009783997 -0.9944968 0.05139099 -0.009769999 -0.9986309 -0.8971283 0 0.4417701 -0.646569 0.404839 0.646571 -0.7071078 0 0.7071058 -0.646569 0.404839 0.646571 -0.8971283 0 0.4417701 -0.8669693 0.4045852 0.2909901 -0.646569 0.404839 0.646571 -0.3808022 0 0.9246565 -0.7071078 0 0.7071058 -0.3808022 0 0.9246565 -0.646569 0.404839 0.646571 -0.3057691 0.4836761 0.8200992 -0.3057691 0.4836761 0.8200992 -0.09310904 0.2658281 0.9595135 -0.3808022 0 0.9246565 -0.3808022 0 0.9246565 -0.09310904 0.2658281 0.9595135 -0.09652199 0 0.9953309 -0.9954331 0 0.09546202 -0.8669693 0.4045852 0.2909901 -0.8971283 0 0.4417701 -0.8669693 0.4045852 0.2909901 -0.9954331 0 0.09546202 -0.8735179 0.4818009 0.06953 -0.09310904 0.2658281 0.9595135 0.06325198 0 0.9979976 -0.09652199 0 0.9953309 0.06325198 0 0.9979976 -0.09310904 0.2658281 0.9595135 0.09310203 0.4032052 0.9103613 0.1991549 0.9651545 0.1697469 -0.03756902 0.9963475 -0.07668404 -0.06013601 0.9963771 -0.06013601 -0.03756902 0.9963475 -0.07668404 0.1991549 0.9651545 0.1697469 0.147823 0.9468331 0.285754 -0.07659803 0.9963464 -0.03777301 0.1991549 0.9651545 0.1697469 -0.06013601 0.9963771 -0.06013601 0.1991549 0.9651545 0.1697469 -0.07659803 0.9963464 -0.03777301 0.296368 0.9497239 0.100949 0.296368 0.9497239 0.100949 -0.085995 0.99626 -0.008421 0.3204769 0.9467407 0.03125099 -0.085995 0.99626 -0.008421 0.296368 0.9497239 0.100949 -0.07659803 0.9963464 -0.03777301 -0.011063 0.9961967 -0.08642798 0.147823 0.9468331 0.285754 0.04444601 0.9462754 0.3202931 0.147823 0.9468331 0.285754 -0.011063 0.9961967 -0.08642798 -0.03756902 0.9963475 -0.07668404 -0.229028 0.694008 -0.682568 -0.5156139 0.6843118 -0.5156159 -0.4391691 -0.07722501 -0.8950793 -0.4391691 -0.07722501 -0.8950793 -0.5156139 0.6843118 -0.5156159 -0.7045863 -0.08434203 -0.7045882 -0.8940021 -0.07724601 -0.4413541 -0.5156139 0.6843118 -0.5156159 -0.681745 0.69365 -0.232537 -0.5156139 0.6843118 -0.5156159 -0.8940021 -0.07724601 -0.4413541 -0.7045863 -0.08434203 -0.7045882 -0.681745 0.69365 -0.232537 -0.9907473 -0.02745801 -0.132913 -0.8940021 -0.07724601 -0.4413541 -0.9907473 -0.02745801 -0.132913 -0.681745 0.69365 -0.232537 -0.7061296 0.7064506 -0.04804797 -0.069621 0.7055 -0.705282 -0.229028 0.694008 -0.682568 -0.09606197 -0.02032899 -0.9951677 -0.09606197 -0.02032899 -0.9951677 -0.229028 0.694008 -0.682568 -0.4391691 -0.07722501 -0.8950793 0 1 0 0 1 0 -0.229028 0.694008 -0.682568 0 1 0 -0.229028 0.694008 -0.682568 -0.069621 0.7055 -0.705282 0 1 0 -0.5156139 0.6843118 -0.5156159 -0.229028 0.694008 -0.682568 -0.5156139 0.6843118 -0.5156159 0 1 0 0 1 0 -0.681745 0.69365 -0.232537 -0.5156139 0.6843118 -0.5156159 0 1 0 0 1 0 -0.5156139 0.6843118 -0.5156159 0 1 0 -0.681745 0.69365 -0.232537 0 1 0 -0.7061296 0.7064506 -0.04804797 0 1 0 -0.681745 0.69365 -0.232537 0 1 0 -0.3239271 -0.017443 -0.9459212 -0.6587958 0 -0.7523218 -0.4455329 0 -0.8952657 -0.4455329 0 -0.8952657 -0.6587958 0 -0.7523218 -0.7523214 0 -0.6587963 -0.8942159 0 -0.4476359 -0.7523214 0 -0.6587963 -0.6587958 0 -0.7523218 -0.7523214 0 -0.6587963 -0.8942159 0 -0.4476359 -0.94375 7.54e-4 -0.330659 -0.9964149 4.48e-4 -0.08459999 -0.94375 7.54e-4 -0.330659 -0.8942159 0 -0.4476359 -0.94375 7.54e-4 -0.330659 -0.9964149 4.48e-4 -0.08459999 -0.9975172 7.46e-4 -0.07042001 -0.1338739 -0.01722999 -0.9908485 -0.3239271 -0.017443 -0.9459212 -0.4455329 0 -0.8952657 -0.3239271 -0.017443 -0.9459212 -0.1338739 -0.01722999 -0.9908485 -0.03937002 -0.010323 -0.9991714 0.30577 0.483681 0.820096 0.6482859 0.346441 0.6780149 0.3808031 0 0.9246562 0.3808031 0 0.9246562 0.6482859 0.346441 0.6780149 0.7071058 0 0.7071078 0.9912332 0.003340001 0.132082 0.9414109 0.279614 0.188578 0.8816887 0.4663908 0.07144698 0.9414109 0.279614 0.188578 0.9912332 0.003340001 0.132082 0.9801361 0.009978001 0.198075 0.09310203 0.4032052 0.9103613 0.3808031 0 0.9246562 0.06325198 0 0.9979976 0.3808031 0 0.9246562 0.09310203 0.4032052 0.9103613 0.30577 0.483681 0.820096 -0.07668404 0.9963475 0.03756902 0.1991631 0.9651514 -0.1697561 0.2933159 0.9507055 -0.100622 0.1991631 0.9651514 -0.1697561 -0.07668404 0.9963475 0.03756902 -0.06013601 0.9963771 0.06013601 -0.06013601 0.9963771 0.06013601 -0.03777402 0.9963464 0.07659803 0.1991631 0.9651514 -0.1697561 -0.03777402 0.9963464 0.07659803 0.147747 0.9467738 -0.2859899 0.1991631 0.9651514 -0.1697561 -0.008421 0.99626 0.085995 0.147747 0.9467738 -0.2859899 -0.03777402 0.9963464 0.07659803 0.147747 0.9467738 -0.2859899 -0.008421 0.99626 0.085995 0.04437201 0.8894472 -0.4548791 0.2933159 0.9507055 -0.100622 0.3179639 0.9478827 -0.02043199 -0.08642798 0.9961967 0.011063 -0.08642798 0.9961967 0.011063 -0.07668404 0.9963475 0.03756902 0.2933159 0.9507055 -0.100622 -0.04444601 0.9462754 -0.3202931 -0.008421 0.99626 0.085995 0.011064 0.9961967 0.08642798 -0.008421 0.99626 0.085995 -0.04444601 0.9462754 -0.3202931 0.04437201 0.8894472 -0.4548791 -0.5156113 0.6843164 0.5156123 -0.8950781 -0.077222 0.4391721 -0.6825688 0.6940068 0.2290289 -0.8950781 -0.077222 0.4391721 -0.5156113 0.6843164 0.5156123 -0.7045879 -0.08431499 0.70459 -0.5156113 0.6843164 0.5156123 -0.2325368 0.6936515 0.6817435 -0.4413561 -0.07723202 0.8940023 -0.4413561 -0.07723202 0.8940023 -0.7045879 -0.08431499 0.70459 -0.5156113 0.6843164 0.5156123 -0.1329141 -0.02745501 0.9907473 -0.2325368 0.6936515 0.6817435 -0.04804801 0.70645 0.7061301 -0.2325368 0.6936515 0.6817435 -0.1329141 -0.02745501 0.9907473 -0.4413561 -0.07723202 0.8940023 -0.8950781 -0.077222 0.4391721 -0.9951677 -0.020331 0.09606197 -0.6825688 0.6940068 0.2290289 -0.705282 0.7055 0.069622 -0.6825688 0.6940068 0.2290289 -0.9951677 -0.020331 0.09606197 -0.04804801 0.70645 0.7061301 0.069622 0.7055 0.705282 0.09606406 -0.02033001 0.9951676 0.09606406 -0.02033001 0.9951676 -0.1329141 -0.02745501 0.9907473 -0.04804801 0.70645 0.7061301 0 1 0 -0.6825688 0.6940068 0.2290289 -0.705282 0.7055 0.069622 -0.6825688 0.6940068 0.2290289 0 1 0 0 1 0 0 1 0 -0.5156113 0.6843164 0.5156123 -0.6825688 0.6940068 0.2290289 -0.5156113 0.6843164 0.5156123 0 1 0 0 1 0 0 1 0 -0.5156113 0.6843164 0.5156123 0 1 0 -0.5156113 0.6843164 0.5156123 0 1 0 -0.2325368 0.6936515 0.6817435 0 1 0 -0.2325368 0.6936515 0.6817435 0 1 0 -0.2325368 0.6936515 0.6817435 0 1 0 -0.04804801 0.70645 0.7061301 0.069622 0.7055 0.705282 -0.04804801 0.70645 0.7061301 0 1 0 0 1 0 -0.04804801 0.70645 0.7061301 0 1 0 -0.9222178 -1.47e-4 0.3866709 -0.7071084 0 0.7071053 -0.7071084 0 0.7071053 -0.9222178 -1.47e-4 0.3866709 -0.7071084 0 0.7071053 -0.9222102 0 0.3866891 -0.3864299 0 0.9223188 -0.7071084 0 0.7071053 -0.3863571 -5.72e-4 0.9223492 -0.3863571 -5.72e-4 0.9223492 -0.7071084 0 0.7071053 -0.7071084 0 0.7071053 -0.135837 -7.52e-4 0.990731 -0.3863571 -5.72e-4 0.9223492 -0.03387401 -3.75e-4 0.9994261 -0.3863571 -5.72e-4 0.9223492 -0.135837 -7.52e-4 0.990731 -0.3864299 0 0.9223188 -0.9222178 -1.47e-4 0.3866709 -0.9906689 -1.94e-4 0.136291 -0.9991663 -1.16e-4 0.04082601 -0.9906689 -1.94e-4 0.136291 -0.9222178 -1.47e-4 0.3866709 -0.9222102 0 0.3866891 0.06569903 0.002888001 0.9978353 -0.03387401 -3.75e-4 0.9994261 0.07911003 0.001733001 0.9968644 -0.03387401 -3.75e-4 0.9994261 0.06569903 0.002888001 0.9978353 -0.135837 -7.52e-4 0.990731 0.8314711 0 -0.555568 0.5981103 0.4829492 -0.6395502 0.7071084 0 -0.7071053 0.8314711 0 -0.555568 0.7071084 0 -0.7071053 0.8314711 0 -0.555568 0.3808019 0 -0.9246566 0.7071084 0 -0.7071053 0.3374451 0.3469571 -0.8750723 0.3374451 0.3469571 -0.8750723 0.7071084 0 -0.7071053 0.5981103 0.4829492 -0.6395502 0.128273 0 -0.991739 0.3374451 0.3469571 -0.8750723 0.07071503 0.3210271 -0.9444264 0.3374451 0.3469571 -0.8750723 0.128273 0 -0.991739 0.3808019 0 -0.9246566 0.9809192 -0.010988 -0.194105 0.9801393 -0.02198101 -0.197089 0.9809192 -0.010988 -0.194105 0.9809192 -0.010988 -0.194105 0.9809192 -0.010988 -0.194105 0.9815714 0 -0.1910961 -0.06325297 0 -0.9979975 0.07071503 0.3210271 -0.9444264 -0.09310302 0.4032051 -0.9103612 0.07071503 0.3210271 -0.9444264 -0.06325297 0 -0.9979975 0.128273 0 -0.991739 -0.127762 0.9835414 -0.127763 -0.147826 0.9468312 -0.2857591 0.03756902 0.9963475 0.07668404 0.03756902 0.9963475 0.07668404 0.06013601 0.9963771 0.06013601 -0.127762 0.9835414 -0.127763 -0.127762 0.9835414 -0.127763 0.07659803 0.9963464 0.03777402 -0.2859752 0.9467795 -0.1477391 0.07659803 0.9963464 0.03777402 -0.127762 0.9835414 -0.127763 0.06013601 0.9963771 0.06013601 0.085995 0.99626 0.008421 -0.2859752 0.9467795 -0.1477391 0.07659803 0.9963464 0.03777402 -0.2859752 0.9467795 -0.1477391 0.085995 0.99626 0.008421 -0.4548692 0.8894523 -0.04437102 -0.147826 0.9468312 -0.2857591 -0.04444601 0.9462754 -0.3202931 0.011064 0.9961967 0.08642798 -0.147826 0.9468312 -0.2857591 0.011064 0.9961967 0.08642798 0.03756902 0.9963475 0.07668404 0.7045879 -0.08433099 0.7045879 0.4391702 -0.07721703 0.8950794 0.5156117 0.6843166 0.5156117 0.5156117 0.6843166 0.5156117 0.4391702 -0.07721703 0.8950794 0.2290291 0.6940084 0.6825673 0.8940032 -0.07723302 0.4413541 0.5156117 0.6843166 0.5156117 0.681742 0.693653 0.232537 0.5156117 0.6843166 0.5156117 0.8940032 -0.07723302 0.4413541 0.7045879 -0.08433099 0.7045879 0.9907471 -0.027458 0.132915 0.681742 0.693653 0.232537 0.7061312 0.7064492 0.04804801 0.681742 0.693653 0.232537 0.9907471 -0.027458 0.132915 0.8940032 -0.07723302 0.4413541 0.2290291 0.6940084 0.6825673 0.09606406 -0.02033001 0.9951676 0.069622 0.7055 0.705282 0.09606406 -0.02033001 0.9951676 0.2290291 0.6940084 0.6825673 0.4391702 -0.07721703 0.8950794 0.2290291 0.6940084 0.6825673 0 1 0 0 1 0 0 1 0 0.2290291 0.6940084 0.6825673 0.069622 0.7055 0.705282 0 1 0 0.5156117 0.6843166 0.5156117 0.2290291 0.6940084 0.6825673 0.5156117 0.6843166 0.5156117 0 1 0 0 1 0 0 1 0 0 1 0 0.5156117 0.6843166 0.5156117 0.5156117 0.6843166 0.5156117 0 1 0 0.681742 0.693653 0.232537 0 1 0 0.681742 0.693653 0.232537 0 1 0 0.681742 0.693653 0.232537 0 1 0 0.7061312 0.7064492 0.04804801 0.443717 0 0.896167 0.7523218 0 0.6587958 0.6587963 0 0.7523214 0.6587963 0 0.7523214 0.321886 0.002925 0.946774 0.443717 0 0.896167 0.7523218 0 0.6587958 0.9223137 1.87e-4 0.3864419 0.6587963 0 0.7523214 0.9223137 1.87e-4 0.3864419 0.7523218 0 0.6587958 0.9223041 0 0.3864651 0.9223137 1.87e-4 0.3864419 0.9947813 1.87e-4 0.102031 0.9947839 3.68e-4 0.102005 0.9947813 1.87e-4 0.102031 0.9223137 1.87e-4 0.3864419 0.9223041 0 0.3864651 0.321886 0.002925 0.946774 0.07911003 0.001733001 0.9968644 0.443717 0 0.896167 0.07911003 0.001733001 0.9968644 0.321886 0.002925 0.946774 0.06569903 0.002888001 0.9978353 -0.658774 0 -0.752341 -0.35886 0.405292 -0.840808 -0.648825 0.4611281 -0.6052991 -0.35886 0.405292 -0.840808 -0.658774 0 -0.752341 -0.318127 0 -0.9480481 -0.9246562 0 -0.3808031 -0.658774 0 -0.752341 -0.648825 0.4611281 -0.6052991 -0.9246562 0 -0.3808031 -0.648825 0.4611281 -0.6052991 -0.8201006 0.4836738 -0.3057688 -0.9246562 0 -0.3808031 -0.9595129 0.26583 -0.09311 -0.9953309 0 -0.09652199 -0.9595129 0.26583 -0.09311 -0.9246562 0 -0.3808031 -0.8201006 0.4836738 -0.3057688 -0.09310302 0.4032051 -0.9103612 -0.35886 0.405292 -0.840808 -0.318127 0 -0.9480481 -0.318127 0 -0.9480481 -0.06325297 0 -0.9979975 -0.09310302 0.4032051 -0.9103612 0.9947813 1.87e-4 0.102031 0.9978335 0.003606002 -0.06569103 0.9947839 3.68e-4 0.102005 0.9978335 0.003606002 -0.06569103 0.9947813 1.87e-4 0.102031 0.9912579 0.003606 -0.131889 0 1 0 0.7061312 0.7064492 0.04804801 0 1 0 0.7061312 0.7064492 0.04804801 0 1 0 0.705282 0.7055 -0.069622 0.9951676 -0.02033001 -0.09606406 0.7061312 0.7064492 0.04804801 0.705282 0.7055 -0.069622 0.7061312 0.7064492 0.04804801 0.9951676 -0.02033001 -0.09606406 0.9907471 -0.027458 0.132915 0.085995 0.99626 0.008421 0.08642798 0.9961967 -0.011063 -0.3202839 0.9462785 0.04444298 0.085995 0.99626 0.008421 -0.3202839 0.9462785 0.04444298 -0.4548692 0.8894523 -0.04437102 -0.9954331 0 0.09546202 -0.9953309 0 -0.09652199 -0.9595129 0.26583 -0.09311 -0.9954331 0 0.09546202 -0.9595129 0.26583 -0.09311 -0.8735179 0.4818009 0.06953 -0.9991663 -1.16e-4 0.04082601 -0.9975172 7.46e-4 -0.07042001 -0.9964149 4.48e-4 -0.08459999 -0.9975172 7.46e-4 -0.07042001 -0.9991663 -1.16e-4 0.04082601 -0.9906689 -1.94e-4 0.136291 -0.7061296 0.7064506 -0.04804797 0 1 0 -0.705282 0.7055 0.069622 0 1 0 -0.7061296 0.7064506 -0.04804797 0 1 0 -0.7061296 0.7064506 -0.04804797 -0.705282 0.7055 0.069622 -0.9951677 -0.020331 0.09606197 -0.7061296 0.7064506 -0.04804797 -0.9951677 -0.020331 0.09606197 -0.9907473 -0.02745801 -0.132913 -0.085995 0.99626 -0.008421 0.3179639 0.9478827 -0.02043199 0.3204769 0.9467407 0.03125099 0.3179639 0.9478827 -0.02043199 -0.085995 0.99626 -0.008421 -0.08642798 0.9961967 0.011063 0.9999954 -0.002909001 9.76e-4 0.8816887 0.4663908 0.07144698 0.9130188 0.4079169 8.11e-4 0.8816887 0.4663908 0.07144698 0.9999954 -0.002909001 9.76e-4 0.9912332 0.003340001 0.132082 0 1 0 0 1 0 0 1 0 0 1 0 0 1 0 0 1 0 -0.2857371 0.9468392 0.147817 -0.1277659 0.9835404 0.1277659 -0.646569 0.404839 0.646571 -0.646569 0.404839 0.646571 -0.8669693 0.4045852 0.2909901 -0.2857371 0.9468392 0.147817 -0.8669693 0.4045852 0.2909901 -0.3202839 0.9462785 0.04444298 -0.2857371 0.9468392 0.147817 -0.3202839 0.9462785 0.04444298 -0.8669693 0.4045852 0.2909901 -0.8735179 0.4818009 0.06953 -0.646569 0.404839 0.646571 -0.147742 0.9467779 0.285979 -0.3057691 0.4836761 0.8200992 -0.147742 0.9467779 0.285979 -0.646569 0.404839 0.646571 -0.1277659 0.9835404 0.1277659 -0.147742 0.9467779 0.285979 -0.04437099 0.8894508 0.4548719 -0.3057691 0.4836761 0.8200992 -0.3057691 0.4836761 0.8200992 -0.04437099 0.8894508 0.4548719 -0.09310904 0.2658281 0.9595135 0.09310203 0.4032052 0.9103613 -0.09310904 0.2658281 0.9595135 -0.04437099 0.8894508 0.4548719 -0.04437099 0.8894508 0.4548719 0.04444601 0.9462754 0.3202931 0.09310203 0.4032052 0.9103613 -0.4548692 0.8894523 -0.04437102 -0.3202839 0.9462785 0.04444298 -0.8735179 0.4818009 0.06953 -0.4548692 0.8894523 -0.04437102 -0.8735179 0.4818009 0.06953 -0.9595129 0.26583 -0.09311 0.6482859 0.346441 0.6780149 0.147823 0.9468331 0.285754 0.1991549 0.9651545 0.1697469 0.147823 0.9468331 0.285754 0.6482859 0.346441 0.6780149 0.30577 0.483681 0.820096 0.30577 0.483681 0.820096 0.09310203 0.4032052 0.9103613 0.04444601 0.9462754 0.3202931 0.04444601 0.9462754 0.3202931 0.147823 0.9468331 0.285754 0.30577 0.483681 0.820096 0.8816887 0.4663908 0.07144698 0.296368 0.9497239 0.100949 0.3204769 0.9467407 0.03125099 0.296368 0.9497239 0.100949 0.8816887 0.4663908 0.07144698 0.9414109 0.279614 0.188578 0.8816887 0.4663908 0.07144698 0.3179639 0.9478827 -0.02043199 0.9130188 0.4079169 8.11e-4 0.3179639 0.9478827 -0.02043199 0.8816887 0.4663908 0.07144698 0.3204769 0.9467407 0.03125099 0.5676394 0.7306724 -0.3793463 0.1991631 0.9651514 -0.1697561 0.5981103 0.4829492 -0.6395502 0.1991631 0.9651514 -0.1697561 0.5676394 0.7306724 -0.3793463 0.2933159 0.9507055 -0.100622 0.6450378 0.7533928 -0.127771 0.2933159 0.9507055 -0.100622 0.6223061 0.7727072 -0.125135 0.2933159 0.9507055 -0.100622 0.6450378 0.7533928 -0.127771 0.3179639 0.9478827 -0.02043199 0.147747 0.9467738 -0.2859899 0.5981103 0.4829492 -0.6395502 0.1991631 0.9651514 -0.1697561 0.5981103 0.4829492 -0.6395502 0.147747 0.9467738 -0.2859899 0.3374451 0.3469571 -0.8750723 0.3374451 0.3469571 -0.8750723 0.04437201 0.8894472 -0.4548791 0.07071503 0.3210271 -0.9444264 0.147747 0.9467738 -0.2859899 0.04437201 0.8894472 -0.4548791 0.3374451 0.3469571 -0.8750723 -0.09310302 0.4032051 -0.9103612 0.04437201 0.8894472 -0.4548791 -0.04444601 0.9462754 -0.3202931 0.04437201 0.8894472 -0.4548791 -0.09310302 0.4032051 -0.9103612 0.07071503 0.3210271 -0.9444264 -0.147826 0.9468312 -0.2857591 -0.648825 0.4611281 -0.6052991 -0.35886 0.405292 -0.840808 -0.648825 0.4611281 -0.6052991 -0.147826 0.9468312 -0.2857591 -0.127762 0.9835414 -0.127763 -0.04444601 0.9462754 -0.3202931 -0.147826 0.9468312 -0.2857591 -0.35886 0.405292 -0.840808 -0.35886 0.405292 -0.840808 -0.09310302 0.4032051 -0.9103612 -0.04444601 0.9462754 -0.3202931 -0.648825 0.4611281 -0.6052991 -0.2859752 0.9467795 -0.1477391 -0.8201006 0.4836738 -0.3057688 -0.2859752 0.9467795 -0.1477391 -0.648825 0.4611281 -0.6052991 -0.127762 0.9835414 -0.127763 -0.8201006 0.4836738 -0.3057688 -0.4548692 0.8894523 -0.04437102 -0.9595129 0.26583 -0.09311 -0.4548692 0.8894523 -0.04437102 -0.8201006 0.4836738 -0.3057688 -0.2859752 0.9467795 -0.1477391 0 0 -1 0 0 -1 0 0 -1 -1 0 0 -0.9964149 4.48e-4 -0.08459999 -1 0 0 -1 0 0 -1 0 0 -1 0 0 0 0 1 -0.03387401 -3.75e-4 0.9994261 0 0 1 1 0 0 1 0 0 1 0 0 0 0 -1 0.05139099 -0.009769999 -0.9986309 0 0 -1 0 0 1 0 0 1 0.07911003 0.001733001 0.9968644 1 0 0 1 0 0 1 0 0 1 0 0 1 0 0 1 0 0 1 0 0 1 0 0 1 0 0 -0.9991663 -1.16e-4 0.04082601 -1 0 0 -1 0 0 -1 0 0 -0.9991663 -1.16e-4 0.04082601 -0.9964149 4.48e-4 -0.08459999 0 0 -1 -0.03937002 -0.010323 -0.9991714 0.05139099 -0.009769999 -0.9986309 -0.03937002 -0.010323 -0.9991714 0 0 -1 0 0 -1 -0.03387401 -3.75e-4 0.9994261 0 0 1 0.07911003 0.001733001 0.9968644 0 0 1 0 0 1 -0.03387401 -3.75e-4 0.9994261 0 1 0 0 1 0 0 1 0 0 1 0 0 1 0 0 1 0 0 1 0 0 1 0 0 1 0 0 -1 0 0 -1 0 0 -1 0 0 1 0 0 1 0 0 1 0 0 1 0 0 1 0 0 1 0 0 1 0 0 1 0 0 1 0 0 1 0 0 1 0 0 1 0 0 1 0 0 1 0 0 1 0 0 1 0 0 1 0 0 1 0 0 -1 0 0 -1 0 0 -1 0 0 -1 0 0 -1 0 0 -1 0 0 -1 0 0 -1 0 0 -1 0 0 -1 0 0 -1 0 0 -1 0 0 -1 0 0 -1 0 0 -1 0 0 1 0 0 1 0 0 1 0 0 1 0 0 1 0 0 1 0 0 -1 0 0 -1 0 0 -1 0 0 1 0 0 1 0 0 1 0 0 1 0 0 1 0 0 1 0 0.8314686 0 0.5555717 0.6482859 0.346441 0.6780149 0.8314686 0 0.5555717 0.6482859 0.346441 0.6780149 0.8314686 0 0.5555717 0.7071058 0 0.7071078 0.5676363 0.7306764 0.3793432 0.1991549 0.9651545 0.1697469 0.296368 0.9497239 0.100949 0.1991549 0.9651545 0.1697469 0.5676363 0.7306764 0.3793432 0.6482859 0.346441 0.6780149 0 1 0 0 1 0 0 1 0 0 1 0 0 1 0 0 1 0 0 1 0 0 1 0 0 1 0 0 1 0 0 1 0 0 1 0 0 1 0 0 1 0 0 1 0 0 1 0 0 1 0 0 1 0 0 1 0 0 1 0 0 1 0 0 1 0 0 1 0 0 1 0 0 1 0 0 1 0 0 1 0 0 1 0 0 1 0 0 1 0 0 1 0 0 1 0 0 1 0 0 1 0 0 1 0 0 1 0 0 1 0 0 1 0 0 1 0 0 1 0 0 1 0 0 1 0</float_array>
          <technique_common>
            <accessor source="#Tesla_Floor_01_and_02_polySurface97Shape-normals-array" count="876" stride="3">
              <param name="X" type="float"/>
              <param name="Y" type="float"/>
              <param name="Z" type="float"/>
            </accessor>
          </technique_common>
        </source>
        <source id="Tesla_Floor_01_and_02_polySurface97Shape-Tesla_Floor_01_and_02_polySurface97Shape-UVSet0" name="Tesla_Floor_01_and_02_polySurface97Shape-Tesla_Floor_01_and_02_polySurface97Shape-UVSet0">
          <float_array id="Tesla_Floor_01_and_02_polySurface97Shape-Tesla_Floor_01_and_02_polySurface97Shape-UVSet0-array" count="538">0.165 0.1667 0.1322 0.2133 0.0945 0.1947 0.1355 0.1359 0.195 0.097 0.212 0.1351 0.2646 0.082 0.2673 0.1215 0.117 0.2689 0.077 0.2648 0.7279 0.1209 0.7306 0.0816 0.077 0.1859 0.1216 0.1215 0.1313 0.1316 0.0898 0.1911 0.1868 0.0794 0.1915 0.0923 0.2626 0.0641 0.2619 0.0771 0.0588 0.2624 0.0721 0.2621 0.7325 0.0637 0.7333 0.0767 0.0547 0.1741 0.0721 0.1822 0.0536 0.2596 0.0362 0.2572 0.1038 0.1028 0.1172 0.117 0.1758 0.0567 0.1831 0.0744 0.2599 0.0589 0.2581 0.0415 0.737 0.041 0.7352 0.0585 0.0992 0.0982 0.0496 0.1703 0.039 0.1654 0.091 0.0895 0.1676 0.0408 0.1721 0.0516 0.2554 0.0362 0.2571 0.0257 0.0309 0.2543 0.0201 0.2531 0.7372 0.0252 0.7397 0.0357 0.1672 0.169 0.183 0.1854 0.1557 0.2243 0.135 0.2147 0.2133 0.138 0.2222 0.1588 0.2675 0.1245 0.2688 0.148 0.1441 0.2713 0.1201 0.2692 0.7263 0.1475 0.7277 0.1239 0.8009 0.0957 0.8608 0.1345 0.8316 0.1651 0.784 0.1336 0.9017 0.1937 0.8643 0.2122 0.9192 0.2643 0.8785 0.2684 0.8044 0.091 0.8091 0.0781 0.8746 0.1202 0.865 0.1303 0.9192 0.1849 0.9064 0.1901 0.9375 0.2619 0.9241 0.2615 0.8127 0.0732 0.82 0.0555 0.8925 0.1015 0.879 0.1157 0.9415 0.1732 0.9241 0.1812 0.9426 0.259 0.9607 0.2566 0.8237 0.0503 0.8282 0.0395 0.9052 0.0882 0.897 0.0969 0.9571 0.1644 0.9465 0.1694 0.9768 0.2531 0.966 0.2538 0.7742 0.1569 0.7828 0.1365 0.8294 0.1674 0.8142 0.1834 0.861028 0.212964 0.840687 0.222345 0.8755 0.2688 0.8513 0.271 0.8645 0.7955 0.9019 0.814 0.8609 0.8731 0.8318 0.8424 0.8009 0.9119 0.7841 0.8739 0.7279 0.8868 0.7307 0.9265 0.919 0.7436 0.8789 0.7395 0.2659 0.9262 0.2687 0.8871 0.8651 0.8774 0.9066 0.8176 0.9194 0.8228 0.8747 0.8875 0.8044 0.9166 0.809 0.9295 0.7326 0.9444 0.7334 0.9314 0.9239 0.7464 0.9373 0.746 0.2632 0.9311 0.2639 0.9441 0.9243 0.8266 0.9425 0.7488 0.9605 0.7513 0.9417 0.8347 0.8926 0.9062 0.8791 0.892 0.8199 0.9521 0.8127 0.9344 0.7353 0.9496 0.7371 0.9665 0.2594 0.9662 0.2612 0.9492 0.8971 0.9108 0.9467 0.8385 0.9574 0.8435 0.9053 0.9195 0.8281 0.968 0.8236 0.9572 0.7399 0.9823 0.7398 0.9718 0.9658 0.7541 0.9766 0.7547 0.256 0.9819 0.2567 0.9715 0.8414 0.7845 0.861178 0.794847 0.8296 0.8401 0.8144 0.824 0.7829 0.8711 0.7743 0.8506 0.7277 0.8838 0.7262 0.8602 0.875681 0.739663 0.8517 0.7371 0.2689 0.884 0.2703 0.8605 0.1958 0.9119 0.1358 0.8732 0.1649 0.8426 0.2126 0.8738 0.1322 0.7958 0.0948 0.8143 0.0772 0.744 0.1178 0.7399 0.122 0.8876 0.1316 0.8775 0.1923 0.9166 0.1877 0.9295 0.0774 0.8231 0.0901 0.8179 0.0589 0.7464 0.0723 0.7467 0.1768 0.9521 0.184 0.9345 0.1041 0.9063 0.1176 0.8921 0.0551 0.8349 0.0724 0.8268 0.0538 0.7492 0.0363 0.7516 0.0996 0.9109 0.1731 0.9573 0.1686 0.9681 0.0914 0.9196 0.05 0.8387 0.0394 0.8437 0.0203 0.7552 0.031 0.7545 0.2139 0.8709 0.167 0.8403 0.1821 0.8242 0.2226 0.8502 0.135 0.7944 0.1552 0.7847 0.1209 0.7395 0.145 0.7374 0.2286 0.1669 0.2742 0.1564 0.7209 0.1559 0.1637 0.2309 0.7677 0.165 0.8067 0.1909 0.843 0.2764 0.832696 0.228864 0.8434 0.7316 0.8334 0.7779 0.7679 0.8425 0.8069 0.8165 0.7209 0.8519 0.2757 0.8521 0.1895 0.8167 0.229 0.8421 0.1632 0.7781 0.1533 0.7319 0.1524 0.2768 0.1903 0.1928 0.9651 0.8492 0.9847 0.759 0.9853 0.9905 0.8337 0.9759 0.744 0.9904 0.9122 0.9266 0.9121 0.0812 0.8338 0.0317 0.7412 0.0171 0.986 0.0167 0.9849 0.2488 0.9649 0.1586 0.0312 0.1596 0.012 0.2489 0.012 0.0176 0.253 0.0176 0.1619 0.033 0.0841 0.0825 0.0845 0.9267 0.163 0.976 0.2519 0.99 0.0121 0.7594 0.0114 0.9905 0.0316 0.8495 0.132 0.8747 1.013638 0.782571 1.221901 0.782679 1.013512 0.989605 1.9878 0.990108 1.77094 0.782963 1.989942 0.783071 1.9878 0.990108 1.77094 0.782963 1.989942 0.783071 1.221901 0.782679 1.013512 0.989605 1.013638 0.782571 1.9878 0.990108 1.77094 0.782963 1.987926 0.783074 1.011498 0.989602 1.221901 0.782679 1.011623 0.782569 1.013638 0.782571 1.224416 0.782681 1.013512 0.989605 1.989816 0.990105 1.773751 0.782961 1.989942 0.783071</float_array>
          <technique_common>
            <accessor source="#Tesla_Floor_01_and_02_polySurface97Shape-Tesla_Floor_01_and_02_polySurface97Shape-UVSet0-array" count="269" stride="2">
              <param name="S" type="float"/>
              <param name="T" type="float"/>
            </accessor>
          </technique_common>
        </source>
        <vertices id="Tesla_Floor_01_and_02_polySurface97Shape-vertices" name="Tesla_Floor_01_and_02_polySurface97Shape-vertices">
          <input semantic="POSITION" source="#Tesla_Floor_01_and_02_polySurface97Shape-positions"/>
        </vertices>
        <triangles material="Core1_tesla_structure_pillar_core_02_tesla_structure_interior_01_tesla_structure_platform_01_tesla_structure_pillar_drum_01SG" count="292">
          <input semantic="VERTEX" source="#Tesla_Floor_01_and_02_polySurface97Shape-vertices" offset="0"/>
          <input semantic="NORMAL" source="#Tesla_Floor_01_and_02_polySurface97Shape-normals" offset="1"/>
          <input semantic="TEXCOORD" source="#Tesla_Floor_01_and_02_polySurface97Shape-Tesla_Floor_01_and_02_polySurface97Shape-UVSet0" offset="2" set="0"/>
          <p>3 0 3 0 1 0 2 2 2 0 3 0 1 4 1 2 5 2 5 6 5 0 7 0 4 8 4 0 9 0 3 10 3 4 11 4 4 12 4 6 13 6 5 14 5 5 15 5 6 16 6 7 17 7 9 18 9 1 19 1 8 20 8 1 21 1 9 22 9 2 23 2 6 24 6 10 25 10 7 26 7 10 27 10 6 28 6 11 29 11 2 30 15 13 31 13 3 32 14 13 33 13 2 34 15 12 35 12 13 36 13 4 37 17 3 38 14 4 39 17 13 40 13 14 41 16 14 42 16 6 43 19 4 44 17 6 45 19 14 46 16 15 47 18 9 48 21 12 49 12 2 50 15 12 51 12 9 52 21 16 53 20 15 54 18 11 55 23 6 56 19 11 57 23 15 58 18 17 59 22 12 60 25 19 61 27 18 62 24 19 63 27 12 64 25 16 65 26 18 66 24 13 67 29 12 68 25 13 69 29 18 70 24 20 71 28 13 72 29 21 73 30 14 74 31 21 75 30 13 76 29 20 77 28 14 78 31 22 79 33 15 80 32 22 81 33 14 82 31 21 83 30 22 84 33 23 85 34 15 86 32 15 87 32 23 88 34 17 89 35 24 90 38 20 91 36 18 92 37 20 93 36 24 94 38 25 95 39 25 96 39 26 97 40 20 98 36 20 99 36 26 100 40 21 101 41 26 102 40 22 103 42 21 104 41 22 105 42 26 106 40 27 107 43 18 108 37 19 109 44 28 110 45 18 111 37 28 112 45 24 113 38 22 114 42 29 115 46 23 116 47 29 117 46 22 118 42 27 119 43 32 120 50 30 121 48 31 122 49 30 123 48 32 124 50 33 125 51 30 126 48 35 127 53 31 128 49 35 129 53 30 130 48 34 131 52 34 132 52 36 133 54 35 134 53 35 135 53 36 136 54 37 137 55 38 138 56 33 139 51 32 140 50 33 141 51 38 142 56 39 143 57 36 144 54 40 145 58 37 146 55 40 147 58 36 148 54 41 149 59 44 150 62 42 151 60 43 152 61 42 153 60 44 154 62 45 155 63 46 156 64 44 157 62 43 158 61 44 159 62 46 160 64 47 161 65 47 162 65 48 163 66 49 164 67 48 165 66 47 166 65 46 167 64 11 168 11 45 169 63 10 170 10 45 171 63 11 172 11 42 173 60 50 174 69 51 175 70 42 176 68 42 177 68 51 178 70 43 179 71 46 180 73 51 181 70 52 182 72 51 183 70 46 184 73 43 185 71 52 186 72 48 187 75 46 188 73 48 189 75 52 190 72 53 191 74 17 192 22 50 193 69 11 194 23 11 195 23 50 196 69 42 197 68 23 198 34 54 199 77 50 200 76 23 201 34 50 202 76 17 203 35 54 204 77 51 205 79 50 206 76 51 207 79 54 208 77 55 209 78 52 210 81 51 211 79 56 212 80 56 213 80 51 214 79 55 215 78 52 216 81 57 217 83 53 218 82 57 219 83 52 220 81 56 221 80 58 222 85 59 223 86 54 224 84 54 225 84 59 226 86 55 227 87 60 228 88 55 229 87 59 230 86 55 231 87 60 232 88 56 233 89 61 234 90 56 235 89 60 236 88 56 237 89 61 238 90 57 239 91 23 240 47 58 241 85 54 242 84 58 243 85 23 244 47 29 245 46 63 246 93 64 247 94 62 248 92 62 249 92 64 250 94 65 251 95 69 252 99 66 253 96 68 254 98 66 255 96 69 256 99 67 257 97 41 258 59 62 259 92 40 260 58 62 261 92 41 262 59 63 263 93 71 264 101 73 265 103 70 266 100 73 267 103 71 268 101 72 269 102 72 270 102 74 271 104 73 272 103 74 273 104 75 274 105 73 275 103 77 276 107 75 277 105 74 278 104 75 279 105 77 280 107 76 281 106 70 282 100 79 283 109 78 284 108 78 285 108 71 286 101 70 287 100 81 288 111 77 289 107 80 290 110 77 291 107 81 292 111 76 293 106 83 294 115 71 295 113 82 296 114 71 297 113 83 298 115 72 299 112 83 300 115 84 301 117 74 302 116 74 303 116 72 304 112 83 305 115 77 306 119 84 307 117 85 308 118 84 309 117 77 310 119 74 311 116 71 312 113 78 313 120 82 314 114 86 315 121 82 316 114 78 317 120 85 318 118 87 319 123 80 320 122 80 321 122 77 322 119 85 323 118 88 324 126 82 325 124 86 326 125 82 327 124 88 328 126 89 329 127 89 330 127 83 331 129 82 332 124 83 333 129 89 334 127 90 335 128 91 336 130 83 337 129 90 338 128 83 339 129 91 340 130 84 341 131 92 342 133 84 343 131 91 344 130 84 345 131 92 346 133 85 347 132 87 348 135 85 349 132 93 350 134 93 351 134 85 352 132 92 353 133 94 354 138 95 355 139 90 356 136 94 357 138 90 358 136 89 359 137 91 360 141 90 361 136 96 362 140 96 363 140 90 364 136 95 365 139 92 366 143 96 367 140 97 368 142 96 369 140 92 370 143 91 371 141 94 372 138 88 373 144 98 374 145 88 375 144 94 376 138 89 377 137 93 378 147 97 379 142 99 380 146 97 381 142 93 382 147 92 383 143 101 384 149 102 385 150 103 386 151 101 387 149 103 388 151 100 389 148 105 390 153 103 391 151 104 392 152 104 393 152 103 394 151 102 395 150 107 396 155 104 397 152 106 398 154 104 399 152 107 400 155 105 401 153 108 402 156 101 403 149 100 404 148 108 405 156 100 406 148 109 407 157 111 408 159 106 409 154 110 410 158 106 411 154 111 412 159 107 413 155 114 414 162 115 415 163 112 416 160 112 417 160 113 418 161 114 419 162 114 420 162 117 421 165 116 422 164 117 423 165 114 424 162 113 425 161 118 426 166 116 427 164 117 428 165 116 429 164 118 430 166 119 431 167 115 432 163 81 433 111 80 434 110 115 435 163 80 436 110 112 437 160 113 438 169 112 439 170 120 440 168 120 441 168 112 442 170 121 443 171 117 444 173 120 445 168 122 446 172 120 447 168 117 448 173 113 449 169 118 450 175 122 451 172 123 452 174 122 453 172 118 454 175 117 455 173 121 456 171 80 457 122 87 458 123 80 459 122 121 460 171 112 461 170 121 462 177 93 463 134 124 464 176 93 465 134 121 466 177 87 467 135 124 468 176 120 469 179 121 470 177 120 471 179 124 472 176 125 473 178 125 474 178 126 475 180 120 476 179 120 477 179 126 478 180 122 479 181 127 480 183 122 481 181 126 482 180 122 483 181 127 484 183 123 485 182 128 486 186 129 487 187 125 488 184 125 489 184 124 490 185 128 491 186 129 492 187 126 493 188 125 494 184 126 495 188 129 496 187 130 497 189 126 498 188 131 499 190 127 500 191 131 501 190 126 502 188 130 503 189 124 504 185 99 505 146 128 506 186 99 507 146 124 508 185 93 509 147 134 510 194 132 511 192 133 512 193 132 513 192 134 514 194 135 515 195 137 516 197 134 517 194 133 518 193 137 519 197 133 520 193 136 521 196 137 522 197 138 523 198 139 524 199 138 525 198 137 526 197 136 527 196 110 528 158 132 529 192 135 530 195 135 531 195 111 532 159 110 533 158 131 534 190 19 535 44 127 536 191 19 537 44 131 538 190 28 539 45 19 540 27 123 541 182 127 542 183 123 543 182 19 544 27 16 545 26 9 546 21 123 547 174 16 548 20 123 549 174 9 550 21 118 551 175 118 552 166 9 553 9 8 554 8 118 555 166 8 556 8 119 557 167 38 558 56 139 559 199 138 560 198 38 561 56 138 562 198 39 563 57 98 564 145 57 565 91 61 566 90 57 567 91 98 568 145 88 569 144 53 570 82 88 571 126 86 572 125 88 573 126 53 574 82 57 575 83 53 576 74 86 577 121 78 578 120 53 579 74 78 580 120 48 581 75 48 582 66 79 583 109 49 584 67 79 585 109 48 586 66 78 587 108 109 588 157 68 589 98 108 590 156 68 591 98 109 592 157 69 593 99 107 594 212 135 595 215 105 596 210 135 597 215 107 598 212 111 599 213 1 600 1 0 601 0 30 602 48 30 603 48 33 604 51 1 605 1 33 606 51 8 607 8 1 608 1 8 609 8 33 610 51 39 611 57 30 612 48 5 613 5 34 614 52 5 615 5 30 616 48 0 617 0 5 618 5 7 619 7 34 620 52 34 621 52 7 622 7 36 623 54 41 624 59 36 625 54 7 626 7 7 627 7 10 628 10 41 629 59 119 630 167 8 631 8 39 632 57 119 633 167 39 634 57 138 635 198 64 636 94 45 637 63 44 638 62 45 639 63 64 640 94 63 641 93 63 642 93 41 643 59 10 644 10 10 645 10 45 646 63 63 647 93 68 648 98 47 649 65 49 650 67 47 651 65 68 652 98 66 653 96 68 654 98 79 655 109 108 656 156 79 657 109 68 658 98 49 659 67 101 660 149 73 661 103 102 662 150 73 663 103 101 664 149 70 665 100 108 666 156 70 667 100 101 668 149 70 669 100 108 670 156 79 671 109 75 672 105 102 673 150 73 674 103 102 675 150 75 676 105 104 677 152 104 678 152 76 679 106 106 680 154 75 681 105 76 682 106 104 683 152 110 684 158 76 685 106 81 686 111 76 687 106 110 688 158 106 689 154 115 690 163 133 691 193 132 692 192 133 693 193 115 694 163 114 695 162 81 696 111 115 697 163 132 698 192 132 699 192 110 700 158 81 701 111 133 702 193 116 703 164 136 704 196 116 705 164 133 706 193 114 707 162 136 708 196 119 709 167 138 710 198 119 711 167 136 712 196 116 713 164 140 714 245 29 715 246 141 716 247 141 717 251 61 718 252 140 719 253 142 720 256 98 721 254 143 722 255 143 723 257 97 724 258 142 725 259 144 726 263 28 727 264 145 728 265 145 729 248 27 730 249 144 731 250 146 732 260 147 733 262 99 734 261 147 735 268 146 736 266 131 737 267 146 738 266 145 739 265 28 740 264 146 741 266 28 742 264 131 743 267 98 744 254 141 745 251 143 746 255 141 747 251 98 748 254 61 749 252 145 750 248 29 751 246 27 752 249 29 753 246 145 754 248 141 755 247 97 756 258 146 757 260 99 758 261 143 759 257 146 760 260 97 761 258 98 762 221 142 763 222 94 764 220 96 765 223 94 766 220 142 767 222 142 768 222 97 769 224 96 770 223 95 771 225 94 772 220 96 773 223 58 774 227 140 775 229 59 776 226 29 777 228 140 778 229 58 779 227 140 780 229 61 781 230 60 782 231 59 783 226 140 784 229 60 785 231 28 786 233 144 787 234 24 788 232 144 789 234 27 790 235 24 791 232 24 792 232 27 793 235 26 794 236 24 795 232 26 796 236 25 797 237 131 798 241 129 799 238 148 800 244 148 801 244 128 802 239 99 803 240 128 804 239 148 805 244 129 806 238 99 807 240 147 808 242 148 809 244 147 810 242 131 811 241 148 812 244 129 813 238 131 814 241 130 815 243 37 816 201 62 817 204 35 818 200 62 819 204 37 820 201 40 821 202 67 822 97 64 823 94 66 824 96 64 825 94 67 826 97 65 827 95 66 828 96 44 829 62 47 830 65 44 831 62 66 832 96 64 833 94 38 834 218 67 835 207 69 836 206 67 837 207 38 838 218 32 839 203 139 840 217 100 841 209 137 842 216 100 843 209 139 844 217 109 845 208 137 846 216 103 847 211 134 848 214 137 849 216 100 850 209 103 851 211 134 852 214 103 853 211 105 854 210 134 855 214 105 856 210 135 857 215 139 858 217 38 859 218 69 860 206 139 861 217 69 862 206 109 863 208 31 864 219 67 865 207 32 866 203 67 867 207 31 868 219 65 869 205 65 870 205 31 871 219 35 872 200 65 873 205 35 874 200 62 875 204</p>
        </triangles>
      </mesh>
      <extra>
        <technique profile="OpenCOLLADAMaya">
          <originalMayaNodeId>Tesla_Floor_01_and_02_polySurface97Shape</originalMayaNodeId>
          <double_sided>1</double_sided>
        </technique>
      </extra>
    </geometry>
  </library_geometries>
  <library_visual_scenes>
    <visual_scene id="VisualSceneNode" name="tesla_modules1_floor_01">
      <node id="Tesla_Floor_01_and_02_polySurface97" name="Tesla_Floor_01_and_02_polySurface97" type="NODE">
        <matrix sid="transform">1 0 0 0 0 1 0 0 0 0 1 0 0 0 0 1</matrix>
        <instance_geometry url="#Tesla_Floor_01_and_02_polySurface97Shape">
          <bind_material>
            <technique_common>
              <instance_material symbol="Core1_tesla_structure_pillar_core_02_tesla_structure_interior_01_tesla_structure_platform_01_tesla_structure_pillar_drum_01SG" target="#Core1_tesla_structure_pillar_core_02_tesla_structure_interior_01_tesla_structure_platform_01_tesla_structure_pillar_drum_01">
                <bind_vertex_input semantic="TEX0" input_semantic="TEXCOORD" input_set="0"/>
              </instance_material>
            </technique_common>
          </bind_material>
        </instance_geometry>
        <extra>
          <technique profile="OpenCOLLADAMaya">
            <originalMayaNodeId>Tesla_Floor_01_and_02_polySurface97</originalMayaNodeId>
          </technique>
        </extra>
      </node>
    </visual_scene>
  </library_visual_scenes>
  <scene>
    <instance_visual_scene url="#VisualSceneNode"/>
  </scene>
</COLLADA>