<?xml version="1.0" encoding="utf-8"?>
<COLLADA xmlns="http://www.collada.org/2005/11/COLLADASchema" version="1.4.1">
  <asset>
    <contributor>
      <author>Marcus Johansson</author>
      <authoring_tool>Maya8.5 | ColladaMaya v3.05B</authoring_tool>
      <comments>ColladaMaya export options: bakeTransforms=0;exportPolygonMeshes=1;bakeLighting=0;isSampling=1;
curveConstrainSampling=1;removeStaticCurves=1;exportCameraAsLookat=0;
exportLights=1;exportCameras=0;exportJointsAndSkin=1;
exportAnimations=1;exportTriangles=1;exportInvisibleNodes=1;
exportNormals=1;exportTexCoords=1;
exportVertexColors=1;exportVertexColorsAnimation=0;exportTangents=0;
exportTexTangents=0;exportConstraints=0;exportPhysics=0;exportXRefs=1;
dereferenceXRefs=0;cameraXFov=0;cameraYFov=1</comments>
      <source_data>file:///E:/Projects/3d/work/amnesia%20game/arbetsmapp/</source_data>
    </contributor>
    <created>2010-02-23T13:38:33Z</created>
    <modified>2010-02-23T13:38:33Z</modified>
    <unit meter="1" name="meter"/>
    <up_axis>Y_UP</up_axis>
  </asset>
  <library_images>
    <image id="file1" name="file1">
      <init_from>file:///E:/Projects/3d/work/amnesia%20game/SVN/redist/static_objects/dungeonbase/dungeonbase.dds</init_from>
      <extra>
        <technique profile="MAYA">
          <dgnode_type>kFile</dgnode_type>
          <image_sequence>0</image_sequence>
        </technique>
      </extra>
    </image>
  </library_images>
  <library_materials>
    <material id="dungeonbase_mat" name="dungeonbase_mat">
      <instance_effect url="#dungeonbase_mat-fx"/>
    </material>
  </library_materials>
  <library_effects>
    <effect id="dungeonbase_mat-fx">
      <profile_COMMON>
        <newparam sid="file1-surface">
          <surface type="2D">
            <init_from>file1</init_from>
            <format>A8R8G8B8</format>
          </surface>
        </newparam>
        <newparam sid="file1-sampler">
          <sampler2D>
            <source>file1-surface</source>
            <wrap_s>WRAP</wrap_s>
            <wrap_t>WRAP</wrap_t>
            <minfilter>NONE</minfilter>
            <magfilter>NONE</magfilter>
            <mipfilter>NONE</mipfilter>
          </sampler2D>
        </newparam>
        <technique sid="common">
          <lambert>
            <emission>
              <color>0 0 0 1</color>
            </emission>
            <ambient>
              <color>0 0 0 1</color>
            </ambient>
            <diffuse>
              <texture texture="file1-sampler" texcoord="TEX0">
                <extra>
                  <technique profile="MAYA">
                    <wrapU>1</wrapU>
                    <wrapV>1</wrapV>
                    <mirrorU>0</mirrorU>
                    <mirrorV>0</mirrorV>
                    <coverageU>1</coverageU>
                    <coverageV>1</coverageV>
                    <translateFrameU>0</translateFrameU>
                    <translateFrameV>0</translateFrameV>
                    <rotateFrame>0</rotateFrame>
                    <stagger>0</stagger>
                    <fast>0</fast>
                    <repeatU>1</repeatU>
                    <repeatV>1</repeatV>
                    <offsetU>0</offsetU>
                    <offsetV>0</offsetV>
                    <rotateUV>0</rotateUV>
                    <noiseU>0</noiseU>
                    <noiseV>0</noiseV>
                    <blend_mode>NONE</blend_mode>
                  </technique>
                </extra>
              </texture>
            </diffuse>
            <transparent opaque="RGB_ZERO">
              <color>0 0 0 1</color>
            </transparent>
            <transparency>
              <float>1</float>
            </transparency>
          </lambert>
          <extra>
            <technique profile="FCOLLADA"/>
          </extra>
        </technique>
      </profile_COMMON>
    </effect>
  </library_effects>
  <library_geometries>
    <geometry id="polySurfaceShape63" name="polySurfaceShape63">
      <mesh>
        <source id="polySurfaceShape63-positions" name="position">
          <float_array id="polySurfaceShape63-positions-array" count="543">-0.340038 1.27809 0.388615 0.340038 1.27809 0.388615 -0.340038 1.42775 0.388615 0.340038 1.42775 0.388615 -0.388615 1.42775 -0.340038 0.340038 1.42775 -0.388615 -0.388615 1.27809 -0.340038 0.340038 1.27809 -0.388615 0.388615 1.42775 0.340038 0.19059 1.61509 0.190589 -0.388615 1.42775 0.340038 -0.388615 1.27809 0.340038 0.340038 1.24661 0.340038 0.388615 1.27809 0.340038 0.388615 1.42775 -0.340038 0.19059 1.61509 -0.190589 0.340038 1.24661 -0.340038 0.388615 1.27809 -0.340038 -0.19059 1.61509 0.190589 -0.19059 1.61509 -0.190589 -0.340038 1.42775 -0.388615 -0.340038 1.27809 -0.388615 -0.340038 1.24661 -0.340038 -0.340038 1.24661 0.340038 0.335117 0.225291 -0.189241 0.196582 0.225291 -0.327776 -0.181901 0.225291 -0.327776 -0.320435 0.225291 -0.189241 -0.320435 0.225291 0.189241 -0.181901 0.225291 0.327776 0.196582 0.225291 0.327776 0.335117 0.225291 0.189241 0.335117 1.28094 -0.189241 0.196582 1.28094 -0.327776 -0.181901 1.28094 -0.327776 -0.320435 1.28094 -0.189241 -0.320435 1.28094 0.189241 -0.181901 1.28094 0.327776 0.196582 1.28094 0.327776 0.335117 1.28094 0.189241 0.177262 0.709534 0.296842 0.307434 0.726677 0.16667 0.307434 0.7165 -0.188967 0.177262 0.685084 -0.319139 -0.178375 0.688253 -0.319139 -0.308547 0.689786 -0.188967 -0.308547 0.68974 0.16667 -0.178375 0.694273 0.296842 -0.4375 0.04345 0.5 0.4375 0.04345 0.5 -0.4375 0.250054 0.5 0.4375 0.250054 0.5 -0.5 0.250054 -0.4375 0.4375 0.250054 -0.5 -0.5 0.04345 -0.4375 0.4375 0.04345 -0.5 0.5 0.250054 0.4375 0.4375 0.293504 0.4375 -0.5 0.250054 0.4375 -0.5 0.04345 0.4375 0.4375 0 0.4375 0.5 0.04345 0.4375 0.5 0.250054 -0.4375 0.4375 0.293504 -0.4375 0.4375 0 -0.4375 0.5 0.04345 -0.4375 -0.4375 0.293504 0.4375 -0.4375 0.293504 -0.4375 -0.4375 0.250054 -0.5 -0.4375 0.04345 -0.5 -0.4375 0 -0.4375 -0.4375 0 0.4375 0.143374 1.60264 -0.106314 0.054195 1.60264 -0.171106 -0.056035 1.60264 -0.171106 -0.145214 1.60264 -0.106314 -0.179277 1.60264 -0.001478 -0.145214 1.60264 0.103358 -0.056035 1.60264 0.16815 0.054195 1.60264 0.16815 0.143374 1.60264 0.103358 0.177438 1.60264 -0.001478 0.154526 1.70163 -0.114416 0.058455 1.70163 -0.184216 -0.060295 1.70163 -0.184216 -0.156366 1.70163 -0.114416 -0.193062 1.70163 -0.001478 -0.156366 1.70163 0.11146 -0.060295 1.70163 0.18126 0.058455 1.70163 0.18126 0.154526 1.70163 0.11146 0.191222 1.70163 -0.001478 0.123738 1.78065 -0.092047 0.046695 1.78065 -0.148023 -0.048535 1.78065 -0.148023 -0.125578 1.78065 -0.092047 -0.155006 1.78065 -0.001478 -0.125578 1.78065 0.089091 -0.048534 1.78065 0.145066 0.046695 1.78065 0.145066 0.123738 1.78065 0.089091 0.153166 1.78065 -0.001478 0.06826 1.83534 -0.05174 0.025504 1.83534 -0.082804 -0.027344 1.83534 -0.082804 -0.070099 1.83534 -0.05174 -0.086431 1.83534 -0.001478 -0.070099 1.83534 0.048784 -0.027344 1.83534 0.079848 0.025504 1.83534 0.079848 0.06826 1.83534 0.048784 0.084591 1.83534 -0.001478 -0.000919 1.85486 -0.001478 0.348347 0.239482 0.336786 -0.335594 0.239482 0.336786 0.348347 0.239482 -0.336505 -0.335595 0.239482 -0.336505 0.348347 0.318126 -0.362466 -0.335594 0.318126 -0.362466 -0.362913 0.318126 -0.336505 -0.362913 0.318126 0.336786 0.348347 0.318126 0.364216 -0.335594 0.318126 0.364216 0.375951 0.318126 -0.336505 0.375951 0.318126 0.336786 -0.159136 0.893668 0.318444 0.205669 0.912677 0.318723 0.325257 0.915767 0.20153 0.326115 0.916578 -0.163624 0.205955 0.912922 -0.287209 -0.159643 0.918335 -0.287314 -0.292925 0.901071 -0.163306 -0.292982 0.902894 0.20174 0.360965 0.942488 -0.175806 0.360115 0.941684 0.213753 0.217858 0.938625 0.356426 -0.171356 0.9198 0.35615 -0.314133 0.928937 0.213961 -0.314076 0.927131 -0.175491 -0.171858 0.944228 -0.318583 0.218141 0.938868 -0.318479 0.196582 0.487962 -0.327776 -0.181901 0.489439 -0.327776 -0.320435 0.477536 -0.189241 -0.320435 0.476766 0.189241 -0.181901 0.455152 0.327776 0.196582 0.47756 0.327776 0.335117 0.492864 0.189241 0.335117 0.495204 -0.189241 0.197962 0.51748 -0.360232 0.345502 0.52428 -0.212692 0.345502 0.52833 0.190395 0.197962 0.511611 0.337935 -0.205124 0.488627 0.337935 -0.352664 0.507866 0.190395 -0.352664 0.508583 -0.212692 -0.205124 0.519325 -0.360232 0.212813 1.11488 0.347657 0.351464 1.12951 0.208739 0.351989 1.10295 -0.17063 0.213046 1.0832 -0.309649 -0.166688 1.0952 -0.309656 -0.305325 1.10025 -0.170457 -0.305414 1.08691 0.208921 -0.166381 1.10171 0.347539 -0.198551 1.12724 0.363462 -0.34751 1.11366 0.214883 -0.347429 1.1259 -0.191654 -0.198832 1.12127 -0.340765 0.208031 1.11026 -0.340759 0.356908 1.12838 -0.191813 0.356426 1.15275 0.214716 0.207817 1.13933 0.36357 -0.197986 0.678108 0.32557 -0.3403 0.676043 0.183256 -0.3403 0.676172 -0.205553 -0.197986 0.675976 -0.347867 0.190823 0.672718 -0.347867 0.333138 0.704907 -0.205553 0.333138 0.713887 0.183256 0.190823 0.695466 0.32557</float_array>
          <technique_common>
            <accessor source="#polySurfaceShape63-positions-array" count="181" stride="3">
              <param name="X" type="float"/>
              <param name="Y" type="float"/>
              <param name="Z" type="float"/>
            </accessor>
          </technique_common>
        </source>
        <source id="polySurfaceShape63-normals" name="normal">
          <float_array id="polySurfaceShape63-normals-array" count="555">-0.82977 0.447241 0.333852 -0.333851 0.447241 0.82977 -0.309036 0.899441 0.309036 -0.82977 0.447241 -0.333852 -0.333852 0.447241 -0.82977 -0.351925 -0.468279 -0.810471 -0.81047 -0.46828 -0.351926 0.351925 -0.468279 0.810471 0.81047 -0.46828 0.351927 0.82977 0.447241 0.333852 0.333851 0.447241 0.82977 -0.81047 -0.46828 0.351927 -0.351925 -0.468279 0.810471 0.309036 0.899441 0.309036 0.82977 0.447241 -0.333852 0.309036 0.899441 -0.309036 -0.309036 0.899441 -0.309036 -0.275425 -0.921022 -0.275425 -0.275425 -0.921022 0.275426 0.275425 -0.921022 0.275426 0.275425 -0.921022 -0.275425 0.81047 -0.46828 -0.351926 0.333852 0.447241 -0.82977 0.351925 -0.468279 -0.810471 0.742763 0.568724 -0.353351 0.264532 0.608665 -0.748031 0.350962 -0.421717 -0.83605 0.808776 -0.485617 -0.331748 -0.280989 0.646279 -0.709485 -0.340865 -0.36531 -0.866233 -0.71418 0.635019 -0.294443 -0.86447 -0.339361 -0.370844 -0.745553 0.587323 0.314965 -0.852777 -0.391093 0.346147 -0.322973 0.528084 0.785376 -0.325573 -0.501177 0.801763 0.292534 0.494805 0.818286 0.337953 -0.54728 0.765684 0.786749 0.515247 0.33992 0.780862 -0.537378 0.318558 0.388349 -0.139513 0.91089 0.914859 -0.145586 0.376614 0.918844 -0.107716 0.379635 0.387827 -0.101768 0.916097 0.901025 -0.260185 -0.347069 0.909274 -0.221204 -0.352548 0.367042 -0.39384 -0.842716 0.371662 -0.353803 -0.858307 -0.332365 -0.408714 -0.849992 -0.325342 -0.44749 -0.83301 -0.826048 -0.445263 -0.345522 -0.842851 -0.407267 -0.351762 -0.857177 -0.379051 0.348665 -0.870117 -0.342031 0.35484 -0.36453 -0.251193 0.896672 -0.367914 -0.213028 0.905129 -0.346947 -0.442834 0.826756 0.356159 -0.458852 0.814006 -0.863971 -0.370053 0.34149 -0.856935 -0.365368 -0.36355 -0.338938 -0.405708 -0.848836 0.346401 -0.427667 -0.83493 0.829545 -0.440615 -0.343093 0.825204 -0.451354 0.339585 -0.818132 0.452525 0.354797 -0.354797 0.452525 0.818132 -0.268309 0.924985 0.269096 -0.818132 0.452525 -0.354797 -0.354797 0.452525 -0.818132 -0.354797 -0.452525 -0.818132 -0.818132 -0.452525 -0.354797 0.354797 -0.452525 0.818132 0.818132 -0.452525 0.354797 0.818132 0.452525 0.354797 0.354797 0.452525 0.818132 -0.818132 -0.452525 0.354797 -0.354797 -0.452525 0.818132 0.280302 0.920831 0.271111 0.279384 0.921308 -0.270438 0.818132 0.452525 -0.354797 -0.267506 0.925408 -0.268442 -0.289927 -0.912077 0.289927 -0.289927 -0.912077 -0.289927 0.289927 -0.912077 0.289927 0.289927 -0.912077 -0.289927 0.818132 -0.452525 -0.354797 0.354797 0.452525 -0.818132 0.354797 -0.452525 -0.818132 -0.400581 0.895255 -0.195072 -0.396951 0.895408 0.20168 0.801285 -0.137923 -0.582168 0.306064 -0.137923 -0.941967 0.305243 0.155814 -0.939441 0.799136 0.155813 -0.580606 -0.306065 -0.137923 -0.941967 -0.305243 0.155813 -0.939441 -0.801286 -0.137923 -0.582167 -0.799136 0.155813 -0.580606 -0.990443 -0.137923 0 -0.987787 0.155813 -0.000000 -0.801285 -0.137923 0.582168 -0.799136 0.155813 0.580606 -0.306064 -0.137923 0.941967 -0.305243 0.155814 0.939441 0.306064 -0.137923 0.941967 0.305243 0.155814 0.939441 0.801285 -0.137923 0.582168 0.799136 0.155813 0.580606 0.990443 -0.137923 -0.000000 0.987787 0.155813 0 0.241137 0.625362 -0.742143 0.631305 0.625362 -0.458669 -0.241137 0.625362 -0.742143 -0.631305 0.625362 -0.458669 -0.780335 0.625361 -0.000000 -0.631305 0.625362 0.458669 -0.241137 0.625361 0.742143 0.241137 0.625361 0.742143 0.631304 0.625362 0.458669 0.780335 0.625361 0.000000 0.133521 0.901834 -0.410936 0.349563 0.901834 -0.253972 -0.133521 0.901834 -0.410936 -0.349563 0.901834 -0.253972 -0.432083 0.901834 0 -0.349563 0.901834 0.253972 -0.133521 0.901833 0.410936 0.133521 0.901833 0.410936 0.349563 0.901834 0.253972 0.432083 0.901834 0 0 1 0 0.1912 0.883056 0.42855 -0.187109 0.884728 0.426904 0 1 0 0 1 0 0 1 0 0 1 0 0.653246 0.35374 0.669431 0.415684 0.88703 0.20096 0.419349 0.886754 -0.194457 0.659733 0.362247 -0.658429 -0.651133 0.355352 0.670634 0.195476 0.887593 -0.417096 -0.191195 0.889307 -0.415425 -0.657623 0.363876 -0.659642 0.920292 -0.107147 0.376273 0.9212 -0.175213 -0.347406 0.926187 -0.136999 -0.351296 0.925729 -0.029375 0.377044 0.393145 -0.20328 0.896724 0.397771 -0.102236 0.911771 -0.33005 -0.256805 0.90836 -0.31813 -0.348357 0.881726 -0.809191 -0.466574 0.357097 -0.840351 -0.398372 0.367573 -0.803334 -0.495994 -0.329612 -0.823784 -0.453852 -0.339704 -0.335796 -0.463308 -0.820114 -0.338045 -0.442001 -0.830879 0.38483 -0.350728 -0.853754 0.386629 -0.335694 -0.858969 0.382683 0 -0.92388 -0.382684 0 -0.923879 -0.923879 0 -0.382684 -0.92388 0 0.382683 -0.382683 0 0.92388 0.382683 0 0.92388 0.923879 0 0.382684 0.923879 0 -0.382684 0.259721 0.608917 -0.74951 0.709265 0.616382 -0.342076 0.72869 0.606005 0.319013 0.268301 0.588084 0.763002 -0.315844 0.591744 0.741675 -0.73344 0.609686 0.300581 -0.725182 0.621881 -0.295591 -0.292022 0.623262 -0.725443 -0.376044 0.248266 0.892723 -0.904942 0.210519 0.369812 -0.911793 0.160931 -0.377802 -0.378311 0.113837 -0.918652 0.378677 0.099573 -0.920157 0.912749 0.139143 -0.384095 0.903725 0.21146 0.372243 0.364627 0.255426 0.895436</float_array>
          <technique_common>
            <accessor source="#polySurfaceShape63-normals-array" count="185" stride="3">
              <param name="X" type="float"/>
              <param name="Y" type="float"/>
              <param name="Z" type="float"/>
            </accessor>
          </technique_common>
        </source>
        <source id="polySurfaceShape63-map1" name="map1">
          <float_array id="polySurfaceShape63-map1-array" count="556">0.339526 0.152469 0.214922 0.15247 0.214922 0.186495 0.234606 0.186495 0.373574 0.186495 0.373574 0.15247 0.234606 0.15247 0.339526 0.186495 0.849075 0.536678 0.203678 0.186495 0.06594 0.186495 0.849075 0.663812 0.848988 0.536069 0.06594 0.15247 0.203678 0.15247 0.848988 0.663203 0.857021 0.544623 0.224838 0.186495 0.823554 0.570145 0.328282 0.186495 0.729886 0.544623 0.328282 0.152469 0.7298 0.655257 0.848988 0.655257 0.856934 0.655257 0.224838 0.15247 0.857021 0.655866 0.363658 0.186495 0.823554 0.630345 0.17086 0.186494 0.729886 0.655866 0.17086 0.152469 0.7298 0.544015 0.848988 0.544015 0.856934 0.544015 0.363658 0.15247 0.737832 0.536678 0.046256 0.186495 0.700404 0.197888 0.763353 0.630345 0.223362 0.186495 0.737832 0.663812 0.737746 0.536069 0.223362 0.15247 0.737746 0.544015 0.737746 0.655257 0.046256 0.152469 0.737746 0.663203 0.002647 0.553272 0.044051 0.555046 0.126859 0.553858 0.168263 0.547639 0.251072 0.547628 0.292475 0.548776 0.375283 0.55264 0.416687 0.556981 0.499496 0.553272 0.375283 0.498496 0.416687 0.498496 0.416687 0.605733 0.375283 0.601392 0.499496 0.498496 0.499496 0.588786 0.002647 0.498496 0.044051 0.498496 0.044051 0.595201 0.002647 0.588786 0.126859 0.498496 0.126859 0.596003 0.168263 0.498496 0.168263 0.596391 0.251072 0.498496 0.251072 0.59638 0.292475 0.498496 0.292475 0.597528 0.375283 0.641054 0.292475 0.641054 0.251072 0.641054 0.168263 0.641054 0.126859 0.641054 0.044051 0.641054 0.002647 0.641054 0.499496 0.641054 0.416687 0.641054 0.729886 0.544623 0.737832 0.536678 0.737832 0.544623 0.234606 0.186495 0.223362 0.186495 0.223362 0.15247 0.234606 0.15247 0.214922 0.15247 0.224838 0.15247 0.224838 0.186495 0.214922 0.186495 0.328282 0.152469 0.339526 0.152469 0.339526 0.186495 0.328282 0.186495 0.849075 0.536678 0.857021 0.544623 0.849075 0.544623 0.857021 0.655866 0.849075 0.655866 0.729886 0.655866 0.737832 0.655866 0.17086 0.186494 0.17086 0.152469 0.737746 0.544015 0.737746 0.655257 0.7298 0.655257 0.7298 0.544015 0.856934 0.655257 0.848988 0.655257 0.848988 0.544015 0.856934 0.544015 0.363658 0.186495 0.363658 0.15247 0.849075 0.663812 0.737832 0.663812 0.373574 0.15247 0.373574 0.186495 0.06594 0.15247 0.06594 0.186495 0.737746 0.536069 0.848988 0.536069 0.848988 0.663203 0.737746 0.663203 0.203678 0.186495 0.046256 0.186495 0.046256 0.152469 0.203678 0.15247 0.763353 0.570145 0.700404 0.495033 0.99755 0.495033 0.99755 0.197888 0.783236 0.681262 0.783236 0.665381 0.802844 0.665381 0.802844 0.681262 0.783236 0.6495 0.802844 0.6495 0.783236 0.633619 0.802844 0.633619 0.783236 0.617737 0.802844 0.617737 0.783236 0.601856 0.802844 0.601856 0.783236 0.585975 0.802844 0.585975 0.783236 0.570093 0.802844 0.570093 0.783236 0.554212 0.802844 0.554212 0.783236 0.538331 0.802844 0.538331 0.783236 0.522449 0.802844 0.522449 0.822452 0.665381 0.822452 0.681262 0.822452 0.6495 0.822452 0.633619 0.822452 0.617737 0.822452 0.601856 0.822452 0.585975 0.822452 0.570093 0.822452 0.554212 0.822452 0.538331 0.822452 0.522449 0.842059 0.665381 0.842059 0.681262 0.842059 0.6495 0.84206 0.633619 0.842059 0.617737 0.842059 0.601856 0.842059 0.585975 0.842059 0.570093 0.842059 0.554212 0.842059 0.538331 0.842059 0.522449 0.861667 0.673322 0.861667 0.65744 0.861667 0.641559 0.861667 0.625678 0.861667 0.609797 0.861667 0.593915 0.861667 0.578034 0.861667 0.562153 0.861667 0.546271 0.861667 0.53039 0.737832 0.544623 0.737832 0.655866 0.849075 0.655866 0.849075 0.544623 0.833066 0.562029 0.755462 0.562029 0.833066 0.638425 0.755462 0.638425 0.83774 0.646326 0.750788 0.646326 0.747315 0.643026 0.747315 0.557428 0.83774 0.55394 0.750788 0.55394 0.84125 0.643026 0.84125 0.557428 0.292475 0.548809 0.375283 0.600083 0.416687 0.600966 0.499496 0.597139 0.002647 0.597139 0.044051 0.595711 0.126859 0.59701 0.168263 0.597156 0.251072 0.59759 0.499496 0.557565 0.002647 0.557565 0.416687 0.560362 0.375283 0.55954 0.292475 0.555209 0.251072 0.55722 0.168263 0.556816 0.126859 0.560633 0.044051 0.55941 0.044051 0.553467 0.126859 0.553831 0.168263 0.551362 0.251072 0.5512 0.292475 0.546737 0.375283 0.551675 0.416687 0.555163 0.499496 0.554996 0.002647 0.554996 0.044051 0.55907 0.499496 0.560422 0.002647 0.560422 0.416687 0.561952 0.375283 0.55835 0.292475 0.553556 0.251072 0.557266 0.168263 0.557408 0.126859 0.559493 0.375283 0.601529 0.416687 0.60506 0.499496 0.598579 0.002647 0.598579 0.044051 0.59388 0.126859 0.596729 0.168263 0.598019 0.251072 0.594833 0.292475 0.598415 0.292475 0.604557 0.251072 0.601491 0.168263 0.604218 0.126859 0.603113 0.044051 0.600675 0.499496 0.604697 0.002647 0.604697 0.416687 0.610245 0.375283 0.607222 0.292475 0.587055 0.251072 0.586484 0.168263 0.586511 0.126859 0.586416 0.044051 0.585658 0.499496 0.585998 0.002647 0.585998 0.416687 0.595283 0.375283 0.59103 0.251072 0.55097 0.292475 0.595429 0.168263 0.550536 0.126859 0.554638 0.044051 0.553323 0.499496 0.550526 0.002647 0.550526 0.416687 0.554346 0.375283 0.553463</float_array>
          <technique_common>
            <accessor source="#polySurfaceShape63-map1-array" count="278" stride="2">
              <param name="S" type="float"/>
              <param name="T" type="float"/>
            </accessor>
          </technique_common>
        </source>
        <vertices id="polySurfaceShape63-vertices">
          <input semantic="POSITION" source="#polySurfaceShape63-positions"/>
        </vertices>
        <triangles material="lambert2SG" count="326">
          <input semantic="VERTEX" source="#polySurfaceShape63-vertices" offset="0"/>
          <input semantic="NORMAL" source="#polySurfaceShape63-normals" offset="1"/>
          <input semantic="TEXCOORD" source="#polySurfaceShape63-map1" offset="2" set="0"/>
          <p>10 0 20 2 1 36 18 2 132 4 3 3 20 4 40 6 6 6 6 6 6 20 4 40 21 5 43 1 7 1 13 8 25 3 10 2 3 10 2 13 8 25 8 9 17 11 11 21 0 12 0 10 0 19 10 0 19 0 12 0 2 1 7 3 10 8 8 9 16 9 13 18 9 13 18 8 9 16 15 15 28 15 15 28 8 9 16 14 14 26 4 3 30 10 0 20 19 16 39 19 16 39 10 0 20 18 2 132 11 11 21 10 0 19 6 6 31 6 6 31 10 0 19 4 3 29 22 17 44 23 18 45 6 6 32 6 6 32 23 18 45 11 11 22 13 8 24 12 19 23 17 21 34 17 21 34 12 19 23 16 20 33 14 14 27 8 9 17 17 21 35 17 21 35 8 9 17 13 8 25 15 15 28 14 14 26 5 22 11 4 3 30 19 16 39 20 4 41 14 14 27 17 21 35 5 22 4 5 22 4 17 21 35 7 23 5 18 2 132 2 1 36 9 13 18 9 13 18 2 1 36 3 10 8 19 16 133 18 2 38 15 15 134 15 15 134 18 2 38 9 13 135 5 22 11 20 4 41 15 15 28 15 15 28 20 4 41 19 16 39 7 23 13 21 5 43 5 22 10 5 22 10 21 5 43 20 4 40 16 20 33 22 17 44 7 23 12 7 23 12 22 17 44 21 5 42 12 19 23 23 18 45 16 20 33 16 20 33 23 18 45 22 17 44 1 7 15 0 12 47 12 19 23 12 19 23 0 12 47 23 18 45 3 10 9 2 1 37 1 7 14 1 7 14 2 1 37 0 12 46 1 7 15 12 19 23 13 8 24 11 11 22 23 18 45 0 12 47 6 6 32 21 5 42 22 17 44 17 21 34 16 20 33 7 23 12 43 25 49 129 26 211 42 24 48 42 24 48 129 26 211 128 27 210 44 28 50 130 29 212 43 25 49 43 25 49 130 29 212 129 26 211 45 30 51 131 31 213 44 28 50 44 28 50 131 31 213 130 29 212 45 30 51 46 32 52 131 31 213 131 31 213 46 32 52 132 33 214 46 32 52 47 34 53 132 33 214 132 33 214 47 34 53 125 35 270 47 34 53 40 36 54 125 35 270 125 35 270 40 36 54 126 37 207 40 36 54 41 38 55 126 37 207 126 37 207 41 38 55 127 39 208 42 24 56 128 27 209 41 38 55 41 38 55 128 27 209 127 39 208 146 40 229 147 41 230 152 43 237 152 43 237 147 41 230 151 42 236 147 41 230 148 44 231 151 42 236 151 42 236 148 44 231 150 45 234 148 44 232 141 46 224 150 45 235 150 45 235 141 46 224 149 47 233 156 48 241 149 47 233 142 49 225 142 49 225 149 47 233 141 46 224 143 50 226 155 51 240 142 49 225 142 49 225 155 51 240 156 48 241 155 51 240 143 50 226 154 53 239 154 53 239 143 50 226 144 52 227 145 54 228 153 55 238 144 52 227 144 52 227 153 55 238 154 53 239 153 55 238 145 54 228 152 43 237 152 43 237 145 54 228 146 40 229 125 35 206 126 37 277 136 56 219 136 56 219 126 37 277 135 57 218 132 33 269 125 35 206 137 58 220 137 58 220 125 35 206 136 56 219 131 31 271 132 33 269 138 59 221 138 59 221 132 33 269 137 58 220 131 31 271 138 59 221 130 29 272 130 29 272 138 59 221 139 60 222 129 26 273 130 29 272 140 61 223 140 61 223 130 29 272 139 60 222 129 26 273 140 61 223 128 27 275 128 27 275 140 61 223 133 62 216 127 39 276 128 27 274 134 63 217 134 63 217 128 27 274 133 62 215 127 39 276 134 63 217 126 37 277 126 37 277 134 63 217 135 57 218 58 64 84 50 65 85 66 66 190 52 67 87 68 68 88 54 70 90 54 70 90 68 68 88 69 69 89 49 71 91 61 72 92 51 74 94 51 74 94 61 72 92 56 73 93 59 75 95 48 76 96 58 64 98 58 64 98 48 76 96 50 65 97 51 74 99 56 73 100 57 77 101 63 78 103 57 77 101 62 79 102 62 79 102 57 77 101 56 73 100 52 67 104 58 64 84 67 80 105 67 80 105 58 64 84 66 66 190 59 75 95 58 64 98 54 70 107 54 70 107 58 64 98 52 67 106 71 81 109 59 75 110 70 82 108 70 82 108 59 75 110 54 70 111 61 72 112 60 83 113 65 85 115 65 85 115 60 83 113 64 84 114 62 79 116 56 73 93 65 85 117 65 85 117 56 73 93 61 72 92 63 78 103 62 79 102 53 86 118 52 67 104 67 80 105 68 68 119 62 79 116 65 85 117 53 86 121 53 86 121 65 85 117 55 87 120 51 74 99 57 77 101 50 65 85 50 65 85 57 77 101 66 66 190 124 88 205 57 77 193 123 89 204 123 89 204 57 77 193 63 78 192 67 80 105 63 78 103 68 68 119 68 68 119 63 78 103 53 86 118 53 86 123 55 87 122 68 68 88 68 68 88 55 87 122 69 69 89 55 87 125 64 84 114 69 69 124 69 69 124 64 84 114 70 82 108 71 81 109 70 82 108 60 83 113 60 83 113 70 82 108 64 84 114 60 83 113 49 71 126 71 81 109 71 81 109 49 71 126 48 76 127 49 71 131 51 74 128 48 76 130 48 76 130 51 74 128 50 65 129 49 71 126 60 83 113 61 72 112 59 75 110 71 81 109 48 76 127 54 70 111 69 69 124 70 82 108 65 85 115 64 84 114 55 87 125 72 90 136 73 91 137 82 93 139 82 93 139 73 91 137 83 92 138 73 91 137 74 94 140 83 92 138 83 92 138 74 94 140 84 95 141 74 94 140 75 96 142 84 95 141 84 95 141 75 96 142 85 97 143 75 96 142 76 98 144 85 97 143 85 97 143 76 98 144 86 99 145 76 98 144 77 100 146 86 99 145 86 99 145 77 100 146 87 101 147 77 100 146 78 102 148 87 101 147 87 101 147 78 102 148 88 103 149 78 102 148 79 104 150 88 103 149 88 103 149 79 104 150 89 105 151 79 104 150 80 106 152 89 105 151 89 105 151 80 106 152 90 107 153 80 106 152 81 108 154 90 107 153 90 107 153 81 108 154 91 109 155 81 108 154 72 90 156 91 109 155 91 109 155 72 90 156 82 93 157 82 93 139 83 92 138 92 111 159 92 111 159 83 92 138 93 110 158 83 92 138 84 95 141 93 110 158 93 110 158 84 95 141 94 112 160 84 95 141 85 97 143 94 112 160 94 112 160 85 97 143 95 113 161 85 97 143 86 99 145 95 113 161 95 113 161 86 99 145 96 114 162 86 99 145 87 101 147 96 114 162 96 114 162 87 101 147 97 115 163 87 101 147 88 103 149 97 115 163 97 115 163 88 103 149 98 116 164 88 103 149 89 105 151 98 116 164 98 116 164 89 105 151 99 117 165 89 105 151 90 107 153 99 117 165 99 117 165 90 107 153 100 118 166 90 107 153 91 109 155 100 118 166 100 118 166 91 109 155 101 119 167 91 109 155 82 93 157 101 119 167 101 119 167 82 93 157 92 111 168 92 111 159 93 110 158 102 121 170 102 121 170 93 110 158 103 120 169 93 110 158 94 112 160 103 120 169 103 120 169 94 112 160 104 122 171 94 112 160 95 113 161 104 122 171 104 122 171 95 113 161 105 123 172 95 113 161 96 114 162 105 123 172 105 123 172 96 114 162 106 124 173 96 114 162 97 115 163 106 124 173 106 124 173 97 115 163 107 125 174 97 115 163 98 116 164 107 125 174 107 125 174 98 116 164 108 126 175 98 116 164 99 117 165 108 126 175 108 126 175 99 117 165 109 127 176 99 117 165 100 118 166 109 127 176 109 127 176 100 118 166 110 128 177 100 118 166 101 119 167 110 128 177 110 128 177 101 119 167 111 129 178 101 119 167 92 111 168 111 129 178 111 129 178 92 111 168 102 121 179 102 121 170 103 120 169 112 130 180 103 120 169 104 122 171 112 130 181 104 122 171 105 123 172 112 130 182 105 123 172 106 124 173 112 130 183 106 124 173 107 125 174 112 130 184 107 125 174 108 126 175 112 130 185 108 126 175 109 127 176 112 130 186 109 127 176 110 128 177 112 130 187 110 128 177 111 129 178 112 130 188 111 129 178 102 121 179 112 130 189 117 132 198 63 78 192 118 131 199 118 131 199 63 78 192 67 80 191 116 133 197 114 134 195 115 136 196 115 136 196 114 134 195 113 135 194 116 137 197 119 138 200 114 140 195 114 140 195 119 138 200 120 139 201 118 131 199 116 137 197 117 132 198 117 132 198 116 137 197 115 141 196 119 138 200 118 131 199 67 80 191 114 140 195 122 142 203 113 144 194 113 144 194 122 142 203 121 143 202 114 140 195 120 139 201 122 142 203 117 132 198 115 141 196 123 89 204 115 141 196 113 144 194 123 89 204 123 89 204 113 144 194 124 88 205 113 144 194 121 143 202 124 88 205 118 131 199 119 138 200 116 137 197 123 89 204 63 78 192 117 132 198 66 66 86 57 77 193 122 142 203 122 142 203 57 77 193 121 143 202 121 143 202 57 77 193 124 88 205 67 80 191 66 66 86 119 138 200 119 138 200 66 66 86 120 139 201 66 66 86 122 142 203 120 139 201 158 145 243 159 146 244 171 148 258 171 148 258 159 146 244 170 147 256 158 145 243 171 148 258 157 149 242 157 149 242 171 148 258 172 150 259 165 151 251 164 152 250 172 150 259 172 150 259 164 152 250 157 149 242 164 152 250 165 151 251 163 153 249 163 153 249 165 151 251 166 154 252 163 153 249 166 154 252 162 155 248 162 155 248 166 154 252 167 156 253 161 157 247 162 155 248 168 158 254 168 158 254 162 155 248 167 156 253 160 159 246 161 157 247 169 160 255 169 160 255 161 157 247 168 158 254 159 146 245 160 159 246 170 147 257 170 147 257 160 159 246 169 160 255 25 161 64 26 162 67 141 46 224 141 46 224 26 162 67 142 49 225 27 163 69 143 50 226 26 162 67 26 162 67 143 50 226 142 49 225 143 50 226 27 163 69 144 52 227 144 52 227 27 163 69 28 164 71 29 165 73 145 54 228 28 164 71 28 164 71 145 54 228 144 52 227 146 40 229 145 54 228 30 166 57 30 166 57 145 54 228 29 165 73 30 166 57 31 167 58 146 40 229 146 40 229 31 167 58 147 41 230 148 44 231 147 41 230 24 168 61 24 168 61 147 41 230 31 167 58 25 161 64 141 46 224 24 168 63 24 168 63 141 46 224 148 44 232 149 47 233 177 169 264 150 45 235 150 45 235 177 169 264 178 170 266 179 171 267 151 42 236 178 170 265 178 170 265 151 42 236 150 45 234 152 43 237 151 42 236 180 172 268 180 172 268 151 42 236 179 171 267 180 172 268 173 173 260 152 43 237 152 43 237 173 173 260 153 55 238 153 55 238 173 173 260 154 53 239 154 53 239 173 173 260 174 174 261 175 175 262 155 51 240 174 174 261 174 174 261 155 51 240 154 53 239 155 51 240 175 175 262 156 48 241 156 48 241 175 175 262 176 176 263 149 47 233 156 48 241 177 169 264 177 169 264 156 48 241 176 176 263 135 57 218 134 63 217 157 149 242 157 149 242 134 63 217 158 145 243 133 62 215 159 146 244 134 63 217 134 63 217 159 146 244 158 145 243 140 61 223 160 159 246 133 62 216 133 62 216 160 159 246 159 146 245 140 61 223 139 60 222 160 159 246 160 159 246 139 60 222 161 157 247 138 59 221 162 155 248 139 60 222 139 60 222 162 155 248 161 157 247 137 58 220 163 153 249 138 59 221 138 59 221 163 153 249 162 155 248 137 58 220 136 56 219 163 153 249 163 153 249 136 56 219 164 152 250 157 149 242 164 152 250 135 57 218 135 57 218 164 152 250 136 56 219 165 151 251 37 177 76 166 154 252 166 154 252 37 177 76 36 178 77 166 154 252 36 178 77 167 156 253 167 156 253 36 178 77 35 179 78 167 156 253 35 179 78 168 158 254 168 158 254 35 179 78 34 180 79 168 158 254 34 180 79 169 160 255 169 160 255 34 180 79 33 181 80 169 160 255 33 181 80 170 147 257 170 147 257 33 181 80 32 182 81 171 148 258 170 147 256 39 183 83 39 183 83 170 147 256 32 182 82 172 150 259 171 148 258 38 184 75 38 184 75 171 148 258 39 183 83 165 151 251 172 150 259 37 177 76 37 177 76 172 150 259 38 184 75 174 174 261 173 173 260 46 32 72 46 32 72 173 173 260 47 34 74 45 30 70 175 175 262 46 32 72 46 32 72 175 175 262 174 174 261 175 175 262 45 30 70 176 176 263 176 176 263 45 30 70 44 28 68 43 25 65 177 169 264 44 28 68 44 28 68 177 169 264 176 176 263 177 169 264 43 25 65 178 170 266 178 170 266 43 25 65 42 24 66 41 38 59 179 171 267 42 24 62 42 24 62 179 171 267 178 170 265 180 172 268 179 171 267 40 36 60 40 36 60 179 171 267 41 38 59 173 173 260 180 172 268 47 34 74 47 34 74 180 172 268 40 36 60</p>
        </triangles>
      </mesh>
      <extra>
        <technique profile="MAYA">
          <double_sided>1</double_sided>
        </technique>
      </extra>
    </geometry>
  </library_geometries>
  <library_visual_scenes>
    <visual_scene id="VisualSceneNode" name="stairs_spiral">
      <node id="polySurface63" name="polySurface63" type="NODE">
        <rotate sid="rotateZ">0 0 1 0</rotate>
        <rotate sid="rotateY">0 1 0 0</rotate>
        <rotate sid="rotateX">1 0 0 0</rotate>
        <instance_geometry url="#polySurfaceShape63">
          <bind_material>
            <technique_common>
              <instance_material symbol="lambert2SG" target="#dungeonbase_mat">
                <bind_vertex_input semantic="TEX0" input_semantic="TEXCOORD" input_set="0"/>
              </instance_material>
            </technique_common>
          </bind_material>
        </instance_geometry>
      </node>
      <extra>
        <technique profile="FCOLLADA">
          <start_time>0.041666</start_time>
          <end_time>2</end_time>
        </technique>
      </extra>
    </visual_scene>
  </library_visual_scenes>
  <scene>
    <instance_visual_scene url="#VisualSceneNode"/>
  </scene>
</COLLADA>
