<?xml version="1.0" encoding="utf-8"?>
<COLLADA xmlns="http://www.collada.org/2005/11/COLLADASchema" version="1.4.1">
  <asset>
    <contributor>
      <author>Admin</author>
      <authoring_tool>OpenCOLLADA2010</authoring_tool>
      <comments>
			ColladaMaya export options: 
			bakeTransforms=0;relativePaths=1;copyTextures=0;exportTriangles=1;exportCgfxFileReferences=1;
			isSampling=0;curveConstrainSampling=0;removeStaticCurves=0;exportPolygonMeshes=1;exportLights=0;
			exportCameras=0;exportJointsAndSkin=0;exportAnimations=0;exportInvisibleNodes=0;exportDefaultCameras=0;
			exportTexCoords=1;exportNormals=1;exportNormalsPerVertex=0;exportVertexColors=0;exportVertexColorsPerVertex=0;
			exportTexTangents=0;exportTangents=0;exportReferencedMaterials=0;exportMaterialsOnly=0;
			exportXRefs=1;dereferenceXRefs=1;exportCameraAsLookat=0;cameraXFov=0;cameraYFov=1;doublePrecision=0
		</comments>
      <source_data>file:///D:/My%20Documents/GAMES/snow_pile.mb</source_data>
    </contributor>
    <created>2012-11-29T18:38:29</created>
    <modified>2012-11-29T18:38:29</modified>
    <unit name="meter" meter="1"/>
    <up_axis>Y_UP</up_axis>
  </asset>
  <library_materials>
    <material id="lambert2" name="lambert2">
      <instance_effect url="#lambert2-fx"/>
    </material>
  </library_materials>
  <library_effects>
    <effect id="lambert2-fx">
      <profile_COMMON>
        <newparam sid="file1-surface">
          <surface type="2D">
            <init_from>file1</init_from>
          </surface>
        </newparam>
        <newparam sid="file1-sampler">
          <sampler2D>
            <source>file1-surface</source>
          </sampler2D>
        </newparam>
        <newparam sid="file2-surface">
          <surface type="2D">
            <init_from>file2</init_from>
          </surface>
        </newparam>
        <newparam sid="file2-sampler">
          <sampler2D>
            <source>file2-surface</source>
          </sampler2D>
        </newparam>
        <technique sid="common">
          <lambert>
            <emission>
              <color>0 0 0 1</color>
            </emission>
            <ambient>
              <color>0 0 0 1</color>
            </ambient>
            <diffuse>
              <texture texture="file1-sampler" texcoord="TEX0">
                <extra>
                  <technique profile="OpenCOLLADAMaya">
                    <blend_mode>NONE</blend_mode>
                    <coverageU>1</coverageU>
                    <coverageV>1</coverageV>
                    <fast>0</fast>
                    <mirrorU>0</mirrorU>
                    <mirrorV>0</mirrorV>
                    <noiseU>0</noiseU>
                    <noiseV>0</noiseV>
                    <offsetU>0</offsetU>
                    <offsetV>0</offsetV>
                    <repeatU>1</repeatU>
                    <repeatV>1</repeatV>
                    <rotateFrame>0</rotateFrame>
                    <rotateUV>0</rotateUV>
                    <stagger>0</stagger>
                    <translateFrameU>0</translateFrameU>
                    <translateFrameV>0</translateFrameV>
                    <wrapU>1</wrapU>
                    <wrapV>1</wrapV>
                  </technique>
                </extra>
              </texture>
            </diffuse>
            <transparent opaque="RGB_ZERO">
              <color>0 0 0 1</color>
            </transparent>
            <transparency>
              <float>1</float>
            </transparency>
          </lambert>
          <extra>
            <technique profile="OpenCOLLADAMaya">
              <bump>
                <texture texture="file2-sampler" texcoord="TEX1">
                  <extra>
                    <technique profile="OpenCOLLADA3dsMax">
                      <amount>1</amount>
                      <bumpInterp>0</bumpInterp>
                    </technique>
                    <technique profile="OpenCOLLADAMaya">
                      <blend_mode>NONE</blend_mode>
                      <coverageU>1</coverageU>
                      <coverageV>1</coverageV>
                      <fast>0</fast>
                      <mirrorU>0</mirrorU>
                      <mirrorV>0</mirrorV>
                      <noiseU>0</noiseU>
                      <noiseV>0</noiseV>
                      <offsetU>0</offsetU>
                      <offsetV>0</offsetV>
                      <repeatU>1</repeatU>
                      <repeatV>1</repeatV>
                      <rotateFrame>0</rotateFrame>
                      <rotateUV>0</rotateUV>
                      <stagger>0</stagger>
                      <translateFrameU>0</translateFrameU>
                      <translateFrameV>0</translateFrameV>
                      <wrapU>1</wrapU>
                      <wrapV>1</wrapV>
                    </technique>
                  </extra>
                </texture>
              </bump>
            </technique>
          </extra>
        </technique>
      </profile_COMMON>
    </effect>
  </library_effects>
  <library_images>
    <image id="file1" name="file1">
      <init_from>../snow_piles/snow_1.dds</init_from>
      <extra>
        <technique profile="OpenCOLLADAMaya">
          <dgnode_type>kFile</dgnode_type>
          <image_sequence>0</image_sequence>
          <originalMayaNodeId>file1</originalMayaNodeId>
        </technique>
      </extra>
    </image>
    <image id="file2" name="file2">
      <init_from>../snow_piles/snow_1_nrm.dds</init_from>
      <extra>
        <technique profile="OpenCOLLADAMaya">
          <dgnode_type>kFile</dgnode_type>
          <image_sequence>0</image_sequence>
          <originalMayaNodeId>file2</originalMayaNodeId>
        </technique>
      </extra>
    </image>
  </library_images>
  <library_geometries>
    <geometry id="snowpile_bigShape" name="snowpile_bigShape">
      <mesh>
        <source id="snowpile_bigShape-positions" name="snowpile_bigShape-positions">
          <float_array id="snowpile_bigShape-positions-array" count="210">-0.88549 0 1.283833 -0.1902154 0 1.509461 -1.21439 0 0.6507009 0.4575436 0 1.25739 -1.099773 0 1.03078 -1.221838 0 0.2296532 -0.5879875 0 1.462041 0.1874196 0 1.450494 -1.096293 0 -0.2115078 0.6353519 0 0.9479546 0.7293923 0 0.6375938 0.8613722 0 0.3670318 1.021365 0 0.1132629 1.160947 0 -0.1868813 1.221838 0 -0.4987792 -0.7296178 0 -0.9870621 -0.8779314 0 -0.5757629 -0.4946783 0 -1.326504 1.178347 0 -0.886398 -0.123676 0 -1.490773 0.2757968 0 -1.509461 0.968454 0 -1.215238 0.6596142 0 -1.427016 -0.774799 0.1329589 1.123347 -0.5144859 0.1329589 1.279278 -0.1664374 0.1329589 1.32077 0.1639912 0.1329589 1.269174 0.4003482 0.1329589 1.100209 0.5559295 0.1329589 0.8294551 0.617786 0.1329589 0.5130022 0.7157414 0.1329589 0.2661177 0.9045218 0.1329589 0.1053588 1.027113 0.1329589 -0.1334821 1.069101 0.1329589 -0.4364292 1.031047 0.1329589 -0.7755936 0.847392 0.1329589 -1.063327 0.5771589 0.1329589 -1.248632 0.2413207 0.1329589 -1.32077 -0.1082158 0.1329589 -1.304418 -0.4328408 0.1329589 -1.160683 -0.6384116 0.1329589 -0.863674 -0.7681852 0.1329589 -0.5037894 -0.9544823 0.1329589 -0.1837308 -1.069101 0.1329589 0.2009453 -1.062584 0.1329589 0.5693598 -0.9622953 0.1329589 0.901927 -0.6455199 0.2932227 0.6862921 -0.3605322 0.2921973 0.8964693 0.06410933 0.2935238 0.9090906 0.2805488 0.2921973 0.7709846 0.3895743 0.2921973 0.5812507 0.4804664 0.29122 0.2182886 0.6338543 0.2921973 0.07383152 0.7382578 0.2934264 -0.1544318 0.7225188 0.2921973 -0.5435064 0.59382 0.2921973 -0.7451387 0.4044509 0.2921973 -0.8749934 -0.01132934 0.2932393 -0.9289885 -0.3033183 0.2921973 -0.8133629 -0.4473746 0.2921973 -0.6052299 -0.6052384 0.2938107 -0.2121809 -0.7491856 0.2921973 0.1408148 -0.7446186 0.2921973 0.3989857 -0.2204749 0.3880135 0.3207132 0.1041123 0.3891849 0.3175787 0.3023452 0.3885605 -0.1595838 0.06827715 0.3875603 -0.3798502 -0.1615004 0.3874937 -0.2730067 -0.2949455 0.3880824 0.01847431 0.1082661 0.4013824 0.07893738</float_array>
          <technique_common>
            <accessor source="#snowpile_bigShape-positions-array" count="70" stride="3">
              <param name="X" type="float"/>
              <param name="Y" type="float"/>
              <param name="Z" type="float"/>
            </accessor>
          </technique_common>
        </source>
        <source id="snowpile_bigShape-normals" name="snowpile_bigShape-normals">
          <float_array id="snowpile_bigShape-normals-array" count="210">-0.1492963 0.9884661 -0.0254065 0.07740885 0.9959126 0.04653837 -0.1228462 0.9886242 -0.08678051 0.01272983 0.9934782 -0.1133091 -0.1801624 0.8284754 0.5302545 -0.1595601 0.8682383 0.4697902 -0.3414152 0.825876 0.4487368 -0.3127782 0.8832923 0.3492341 -0.01500667 0.8182437 0.5746757 0.01975955 0.877496 0.4791767 0.1856148 0.8036935 0.5653529 0.2302898 0.8484045 0.4766302 0.4599858 0.7533902 0.4699108 0.4314553 0.8221617 0.3713441 0.664539 0.6776454 0.3149356 0.5965376 0.7698878 0.2267502 0.6749412 0.7056122 0.2157912 0.5938038 0.7827359 0.1863376 0.5616987 0.7477011 0.3541715 0.4678664 0.8024588 0.3703524 0.6967067 0.6133418 0.3720371 0.5251545 0.7668274 0.3690373 0.7150596 0.6722332 0.1918129 0.6293472 0.7441874 0.2238463 0.6557857 0.7549394 -0.003426658 0.5703682 0.8209441 0.0270288 0.5471076 0.8030239 -0.2362748 0.4815915 0.8624975 -0.1554591 0.3802868 0.824658 -0.4187136 0.3445925 0.8820463 -0.3213253 0.221175 0.828149 -0.5150251 0.1959481 0.8679613 -0.4563415 0.0709295 0.8214436 -0.5658616 0.02903627 0.8803869 -0.4733664 -0.09974673 0.8138807 -0.5724061 -0.1392702 0.860772 -0.4895664 -0.3524607 0.7898592 -0.5018902 -0.3474639 0.8518016 -0.3920493 -0.5988187 0.7255232 -0.339164 -0.5332223 0.8030365 -0.2660948 -0.6446092 0.7021177 -0.3025054 -0.5418817 0.8034809 -0.2465414 -0.6406282 0.7265612 -0.2484033 -0.5352055 0.8078511 -0.246843 -0.6614936 0.7478881 -0.05558348 -0.5606877 0.8238284 -0.08328183 -0.615591 0.7783438 0.1234036 -0.5261514 0.8469059 0.07690974 -0.4944402 0.8119445 0.3102819 -0.4669666 0.8559222 0.2221247 -0.09355468 0.9576146 0.2724366 -0.2597423 0.9516422 0.1640454 0.08998688 0.9561775 0.278616 0.2928085 0.9271773 0.2336777 0.4299855 0.8913529 0.1435352 0.3880332 0.9004965 0.1963061 0.3277792 0.9049666 0.2712865 0.3820816 0.9186617 0.1003705 0.3089843 0.9480213 -0.07605535 0.1988803 0.9641582 -0.1756289 0.1094836 0.956239 -0.2713306 -0.05319861 0.952126 -0.3010416 -0.2077514 0.9519256 -0.2251151 -0.3533124 0.9194764 -0.1724344 -0.3358723 0.9297879 -0.1506129 -0.3563312 0.9311416 -0.07748263 -0.3073277 0.9506863 0.0417736 -0.07055756 0.9935357 0.08892884 0.143443 0.9841939 0.1038566 0.150563 0.9885852 -0.005483977</float_array>
          <technique_common>
            <accessor source="#snowpile_bigShape-normals-array" count="70" stride="3">
              <param name="X" type="float"/>
              <param name="Y" type="float"/>
              <param name="Z" type="float"/>
            </accessor>
          </technique_common>
        </source>
        <source id="snowpile_bigShape-map1" name="snowpile_bigShape-map1">
          <float_array id="snowpile_bigShape-map1-array" count="140">-0.3552881 -0.01559794 -0.1047248 -0.04745936 -0.276992 0.166416 -0.3050212 -0.201046 -0.1367459 0.2354466 -0.5599892 0.1256865 -0.1047779 -0.1953993 -0.6332892 -0.2600638 0.01086539 0.1035776 -0.3735706 0.5040217 -0.6414634 -0.09936905 -0.4634649 0.3741338 -0.1237097 -0.5659943 0.1404231 -0.134331 -0.5660001 -0.4364421 0.2293257 -0.03483236 0.1845278 0.4731537 -0.1934319 0.5788187 -0.8055608 0.1073138 -0.6958658 0.3214207 -0.386613 -0.5629724 0.009723604 -0.4799904 0.0790782 -0.3629962 -0.8517978 -0.3799024 -0.8665032 -0.1438428 0.2860562 0.1105361 0.06529182 0.5509075 0.2676324 0.3506022 -0.4691443 0.7393035 -0.6052823 0.5523133 -0.2618507 -0.8475263 0.09953731 -0.7040348 0.2594031 -0.3350641 0.3212084 -0.1744127 -0.6538399 -0.7278525 -0.7778986 -0.5897834 0.4277275 -0.05583644 0.3522431 0.6911016 0.4752654 0.5110779 -0.2630345 0.8340628 -0.03919077 0.8491865 -0.9317647 0.132226 -0.8024411 0.3830794 -0.4849266 -0.8235755 -0.05144942 -0.8107065 0.2053048 -0.5355304 -0.9784408 -0.4443585 -0.9984049 -0.1652166 0.5107681 0.29598 0.4931712 0.1020243 0.1767521 0.8058478 -0.5274886 0.8710862 -0.6927742 0.6521385 -0.2746919 -0.9984049 -0.02437222 -0.955294 0.1574706 -0.830291 0.2878062 -0.6321507 0.3627322 -0.430088 0.4462404 -0.2483007 -0.7399625 -0.8554327 -0.8879966 -0.6921943 0.5418633 -0.07337749 0.4472129 0.8116684 0.5947394 0.5984787 0.6405389 0.3433459 -0.2819755 0.9825583 -0.01678598 1 -0.5392551 -0.9687215 0.6165199 0.1335332 0.2388049 0.947681</float_array>
          <technique_common>
            <accessor source="#snowpile_bigShape-map1-array" count="70" stride="2">
              <param name="S" type="float"/>
              <param name="T" type="float"/>
            </accessor>
          </technique_common>
        </source>
        <vertices id="snowpile_bigShape-vertices" name="snowpile_bigShape-vertices">
          <input semantic="POSITION" source="#snowpile_bigShape-positions"/>
        </vertices>
        <triangles material="lambert2SG" count="115">
          <input semantic="VERTEX" source="#snowpile_bigShape-vertices" offset="0"/>
          <input semantic="NORMAL" source="#snowpile_bigShape-normals" offset="1"/>
          <input semantic="TEXCOORD" source="#snowpile_bigShape-map1" offset="2" set="0"/>
          <p>68 0 0 69 1 1 67 2 2 67 2 2 69 1 1 66 3 4 6 4 67 24 5 43 0 6 59 0 6 59 24 5 43 23 7 34 6 4 67 1 8 53 24 5 43 24 5 43 1 8 53 25 9 30 1 8 53 7 10 54 25 9 30 25 9 30 7 10 54 26 11 44 7 10 54 3 12 55 26 11 44 26 11 44 3 12 55 27 13 31 3 12 55 9 14 56 27 13 31 27 13 31 9 14 56 28 15 45 9 14 56 10 16 57 28 15 45 28 15 45 10 16 57 29 17 32 10 16 57 11 18 58 29 17 32 29 17 32 11 18 58 30 19 33 12 20 61 31 21 36 11 18 58 11 18 58 31 21 36 30 19 33 13 22 68 32 23 49 12 20 61 12 20 61 32 23 49 31 21 36 14 24 64 33 25 48 13 22 68 13 22 68 33 25 48 32 23 49 18 26 63 34 27 38 14 24 64 14 24 64 34 27 38 33 25 48 21 28 62 35 29 37 18 26 63 18 26 63 35 29 37 34 27 38 22 30 69 36 31 50 21 28 62 21 28 62 36 31 50 35 29 37 22 30 69 20 32 66 36 31 50 36 31 50 20 32 66 37 33 40 20 32 66 19 34 65 37 33 40 37 33 40 19 34 65 38 35 39 19 34 65 17 36 51 38 35 39 38 35 39 17 36 51 39 37 28 17 36 51 15 38 52 39 37 28 39 37 28 15 38 52 40 39 29 15 38 52 16 40 42 40 39 29 40 39 29 16 40 42 41 41 19 8 42 41 42 43 18 16 40 42 16 40 42 42 43 18 41 41 19 5 44 47 43 45 24 8 42 41 8 42 41 43 45 24 42 43 18 2 46 46 44 47 23 5 44 47 5 44 47 44 47 23 43 45 24 4 48 60 45 49 35 2 46 46 2 46 46 45 49 35 44 47 23 0 6 59 23 7 34 4 48 60 4 48 60 23 7 34 45 49 35 24 5 43 47 50 20 23 7 34 23 7 34 47 50 20 46 51 14 24 5 43 25 9 30 47 50 20 47 50 20 25 9 30 48 52 12 25 9 30 26 11 44 48 52 12 26 11 44 27 13 31 48 52 12 48 52 12 27 13 31 49 53 21 27 13 31 28 15 45 49 53 21 49 53 21 28 15 45 50 54 22 28 15 45 29 17 32 50 54 22 50 54 22 29 17 32 51 55 13 29 17 32 30 19 33 51 55 13 31 21 36 52 56 15 30 19 33 30 19 33 52 56 15 51 55 13 32 23 49 53 57 25 31 21 36 31 21 36 53 57 25 52 56 15 33 25 48 53 57 25 32 23 49 34 27 38 54 58 27 33 25 48 33 25 48 54 58 27 53 57 25 35 29 37 55 59 16 34 27 38 34 27 38 55 59 16 54 58 27 36 31 50 56 60 26 35 29 37 35 29 37 56 60 26 55 59 16 36 31 50 37 33 40 56 60 26 56 60 26 37 33 40 57 61 17 37 33 40 38 35 39 57 61 17 38 35 39 39 37 28 57 61 17 57 61 17 39 37 28 58 62 9 39 37 28 40 39 29 58 62 9 58 62 9 40 39 29 59 63 11 40 39 29 41 41 19 59 63 11 59 63 11 41 41 19 60 64 5 42 43 18 60 64 5 41 41 19 43 45 24 61 65 10 42 43 18 42 43 18 61 65 10 60 64 5 44 47 23 62 66 7 43 45 24 43 45 24 62 66 7 61 65 10 45 49 35 46 51 14 44 47 23 44 47 23 46 51 14 62 66 7 23 7 34 46 51 14 45 49 35 47 50 20 63 67 3 46 51 14 47 50 20 48 52 12 63 67 3 63 67 3 48 52 12 64 68 6 48 52 12 49 53 21 64 68 6 49 53 21 50 54 22 64 68 6 50 54 22 51 55 13 64 68 6 64 68 6 51 55 13 69 1 1 52 56 15 69 1 1 51 55 13 53 57 25 65 69 8 52 56 15 52 56 15 65 69 8 69 1 1 54 58 27 65 69 8 53 57 25 55 59 16 65 69 8 54 58 27 56 60 26 66 3 4 55 59 16 55 59 16 66 3 4 65 69 8 56 60 26 57 61 17 66 3 4 57 61 17 58 62 9 66 3 4 66 3 4 58 62 9 67 2 2 58 62 9 59 63 11 67 2 2 59 63 11 60 64 5 67 2 2 60 64 5 68 0 0 67 2 2 61 65 10 68 0 0 60 64 5 62 66 7 68 0 0 61 65 10 46 51 14 63 67 3 62 66 7 62 66 7 63 67 3 68 0 0 63 67 3 69 1 1 68 0 0 63 67 3 64 68 6 69 1 1 66 3 4 69 1 1 65 69 8</p>
        </triangles>
      </mesh>
      <extra>
        <technique profile="OpenCOLLADAMaya">
          <originalMayaNodeId>snowpile_bigShape</originalMayaNodeId>
          <double_sided>1</double_sided>
        </technique>
      </extra>
    </geometry>
  </library_geometries>
  <library_visual_scenes>
    <visual_scene id="VisualSceneNode" name="snow_pile">
      <node id="snowpile_big" name="snowpile_big" type="NODE">
        <translate sid="translate">0 0 0</translate>
        <rotate sid="rotateZ">0 0 1 0</rotate>
        <rotate sid="rotateY">0 1 0 0</rotate>
        <rotate sid="rotateX">1 0 0 0</rotate>
        <scale sid="scale">1 1 1</scale>
        <instance_geometry url="#snowpile_bigShape">
          <bind_material>
            <technique_common>
              <instance_material symbol="lambert2SG" target="#lambert2">
                <bind_vertex_input semantic="TEX0" input_semantic="TEXCOORD" input_set="0"/>
                <bind_vertex_input semantic="TEX1" input_semantic="TEXCOORD" input_set="0"/>
              </instance_material>
            </technique_common>
          </bind_material>
        </instance_geometry>
        <extra>
          <technique profile="OpenCOLLADAMaya">
            <originalMayaNodeId>snowpile_big</originalMayaNodeId>
          </technique>
        </extra>
      </node>
    </visual_scene>
  </library_visual_scenes>
  <scene>
    <instance_visual_scene url="#VisualSceneNode"/>
  </scene>
</COLLADA>