<?xml version="1.0" encoding="utf-8"?>
<COLLADA xmlns="http://www.collada.org/2005/11/COLLADASchema" version="1.4.1">
  <asset>
    <contributor>
      <author>Admin</author>
      <authoring_tool>OpenCOLLADA2010</authoring_tool>
      <comments>
			ColladaMaya export options: 
			bakeTransforms=0;relativePaths=1;copyTextures=0;exportTriangles=1;exportCgfxFileReferences=1;
			isSampling=0;curveConstrainSampling=0;removeStaticCurves=0;exportPolygonMeshes=1;exportLights=0;
			exportCameras=0;exportJointsAndSkin=0;exportAnimations=0;exportInvisibleNodes=0;exportDefaultCameras=0;
			exportTexCoords=1;exportNormals=1;exportNormalsPerVertex=0;exportVertexColors=0;exportVertexColorsPerVertex=0;
			exportTexTangents=0;exportTangents=0;exportReferencedMaterials=0;exportMaterialsOnly=0;
			exportXRefs=1;dereferenceXRefs=1;exportCameraAsLookat=0;cameraXFov=0;cameraYFov=1;doublePrecision=0
		</comments>
      <source_data>file:///D:/My%20Documents/GAMES/hunting_lodge_bench_1.mb</source_data>
    </contributor>
    <created>2012-12-01T04:03:11</created>
    <modified>2012-12-01T04:03:11</modified>
    <unit name="meter" meter="1"/>
    <up_axis>Y_UP</up_axis>
  </asset>
  <library_materials>
    <material id="lambert6" name="lambert6">
      <instance_effect url="#lambert6-fx"/>
    </material>
    <material id="lambert1" name="lambert1">
      <instance_effect url="#lambert1-fx"/>
    </material>
  </library_materials>
  <library_effects>
    <effect id="lambert1-fx">
      <profile_COMMON>
        <technique sid="common">
          <lambert>
            <emission>
              <color>0 0 0 1</color>
            </emission>
            <ambient>
              <color>0 0 0 1</color>
            </ambient>
            <diffuse>
              <color>0.4 0.4 0.4 1</color>
            </diffuse>
            <transparent opaque="RGB_ZERO">
              <color>0 0 0 1</color>
            </transparent>
            <transparency>
              <float>1</float>
            </transparency>
          </lambert>
        </technique>
      </profile_COMMON>
    </effect>
    <effect id="lambert6-fx">
      <profile_COMMON>
        <newparam sid="file2-surface">
          <surface type="2D">
            <init_from>file2</init_from>
          </surface>
        </newparam>
        <newparam sid="file2-sampler">
          <sampler2D>
            <source>file2-surface</source>
          </sampler2D>
        </newparam>
        <newparam sid="file3-surface">
          <surface type="2D">
            <init_from>file3</init_from>
          </surface>
        </newparam>
        <newparam sid="file3-sampler">
          <sampler2D>
            <source>file3-surface</source>
          </sampler2D>
        </newparam>
        <technique sid="common">
          <lambert>
            <emission>
              <color>0 0 0 1</color>
            </emission>
            <ambient>
              <color>0 0 0 1</color>
            </ambient>
            <diffuse>
              <texture texture="file2-sampler" texcoord="TEX0">
                <extra>
                  <technique profile="OpenCOLLADAMaya">
                    <blend_mode>NONE</blend_mode>
                    <coverageU>1</coverageU>
                    <coverageV>1</coverageV>
                    <fast>0</fast>
                    <mirrorU>0</mirrorU>
                    <mirrorV>0</mirrorV>
                    <noiseU>0</noiseU>
                    <noiseV>0</noiseV>
                    <offsetU>0</offsetU>
                    <offsetV>0</offsetV>
                    <repeatU>1</repeatU>
                    <repeatV>1</repeatV>
                    <rotateFrame>0</rotateFrame>
                    <rotateUV>0</rotateUV>
                    <stagger>0</stagger>
                    <translateFrameU>0</translateFrameU>
                    <translateFrameV>0</translateFrameV>
                    <wrapU>1</wrapU>
                    <wrapV>1</wrapV>
                  </technique>
                </extra>
              </texture>
            </diffuse>
            <transparent opaque="RGB_ZERO">
              <color>0 0 0 1</color>
            </transparent>
            <transparency>
              <float>1</float>
            </transparency>
          </lambert>
          <extra>
            <technique profile="OpenCOLLADAMaya">
              <bump>
                <texture texture="file3-sampler" texcoord="TEX1">
                  <extra>
                    <technique profile="OpenCOLLADA3dsMax">
                      <amount>1</amount>
                      <bumpInterp>0</bumpInterp>
                    </technique>
                    <technique profile="OpenCOLLADAMaya">
                      <blend_mode>NONE</blend_mode>
                      <coverageU>1</coverageU>
                      <coverageV>1</coverageV>
                      <fast>0</fast>
                      <mirrorU>0</mirrorU>
                      <mirrorV>0</mirrorV>
                      <noiseU>0</noiseU>
                      <noiseV>0</noiseV>
                      <offsetU>0</offsetU>
                      <offsetV>0</offsetV>
                      <repeatU>1</repeatU>
                      <repeatV>1</repeatV>
                      <rotateFrame>0</rotateFrame>
                      <rotateUV>0</rotateUV>
                      <stagger>0</stagger>
                      <translateFrameU>0</translateFrameU>
                      <translateFrameV>0</translateFrameV>
                      <wrapU>1</wrapU>
                      <wrapV>1</wrapV>
                    </technique>
                  </extra>
                </texture>
              </bump>
            </technique>
          </extra>
        </technique>
      </profile_COMMON>
    </effect>
  </library_effects>
  <library_images>
    <image id="file2" name="file2">
      <init_from>./furniture_wooden_planks_1.dds</init_from>
      <extra>
        <technique profile="OpenCOLLADAMaya">
          <dgnode_type>kFile</dgnode_type>
          <image_sequence>0</image_sequence>
          <originalMayaNodeId>file2</originalMayaNodeId>
        </technique>
      </extra>
    </image>
    <image id="file3" name="file3">
      <init_from>./furniture_wooden_planks_1_nrm.dds</init_from>
      <extra>
        <technique profile="OpenCOLLADAMaya">
          <dgnode_type>kFile</dgnode_type>
          <image_sequence>0</image_sequence>
          <originalMayaNodeId>file3</originalMayaNodeId>
        </technique>
      </extra>
    </image>
  </library_images>
  <library_geometries>
    <geometry id="wooden_bench_pureShape" name="wooden_bench_pureShape">
      <mesh>
        <source id="wooden_bench_pureShape-positions" name="wooden_bench_pureShape-positions">
          <float_array id="wooden_bench_pureShape-positions-array" count="1464">0.01978886 0.4954126 -0.7525814 0.01978884 0.4954126 -0.8434196 -0.01978886 0.4954126 -0.7525814 -0.01978887 0.4954126 -0.8434195 0.1063162 0.4954126 -0.7525814 0.1063163 0.4954126 -0.8434196 -0.1063162 0.4954126 -0.7525814 -0.1063163 0.4954126 -0.8434195 -0.1049013 0.4825275 -0.8434195 -0.1049013 0.4825275 -0.7525814 -0.09712856 0.4674208 -0.8434195 -0.09712856 0.4674208 -0.7525814 -0.09491869 0.4509811 -0.8434195 -0.09491864 0.4509811 -0.7525814 -0.09708014 0.4323199 -0.8434195 -0.09708012 0.4323199 -0.7525814 -0.1052024 0.4149915 -0.8434195 -0.1052024 0.4149915 -0.7525814 -0.1153114 0.4034394 -0.8434195 -0.1153114 0.4034394 -0.7525814 -0.1285996 0.3941088 -0.8434195 -0.1285996 0.394109 -0.7525814 -0.1430798 0.385667 -0.8434195 -0.1430798 0.385667 -0.7525814 -0.1550012 0.372367 -0.8434195 -0.1550012 0.372367 -0.7525814 -0.1653331 0.3537354 -0.8434195 -0.1653332 0.3537353 -0.7525814 -0.1704991 0.3333263 -0.8434195 -0.1704991 0.3333263 -0.7525814 -0.1716912 0.3124732 -0.8434195 -0.1716912 0.3124731 -0.7525814 -0.1677175 0.2902872 -0.8434195 -0.1677175 0.2902872 -0.7525814 -0.1565907 0.2752104 -0.8434195 -0.1565907 0.2752104 -0.7525814 -0.1418877 0.266798 -0.8434195 -0.1418877 0.2667979 -0.7525814 -0.1239139 0.2626949 -0.8434195 -0.1239139 0.2626948 -0.7525814 -0.105096 0.2627339 -0.8434195 -0.1050959 0.2627338 -0.7525814 -0.08623868 0.2675487 -0.8434195 -0.08623868 0.2675487 -0.7525814 -0.06540438 0.2774045 -0.8434195 -0.06540439 0.2774044 -0.7525814 -0.07986047 0.2358195 -0.8434195 -0.07986041 0.2358195 -0.7525814 -0.1040164 0.2011067 -0.8434195 -0.1040163 0.2011066 -0.7525814 -0.1319185 0.169768 -0.8434195 -0.1319185 0.169768 -0.7525814 -0.160898 0.1502548 -0.8434195 -0.160898 0.1502548 -0.7525814 -0.1877221 0.1238771 -0.8434195 -0.1877221 0.1238771 -0.7525814 -0.2056255 0.09398705 -0.8434195 -0.2056255 0.09398697 -0.7525813 -0.2100846 0.062658 -0.8434195 -0.2100846 0.062658 -0.7525813 -0.2044715 0.031329 -0.8434195 -0.2044715 0.03132896 -0.7525813 -0.181097 0 -0.8434195 -0.181097 0 -0.7525814 -0.07053946 0 -0.8434195 -0.07053946 0 -0.7525814 -0.06503816 0.02839886 -0.8434195 -0.06503816 0.02839882 -0.7525814 -0.06794857 0.0579216 -0.8434195 -0.06794852 0.0579216 -0.7525814 -0.07826123 0.08636913 -0.8434195 -0.07826119 0.08636909 -0.7525814 -0.07738854 0.1148064 -0.8434195 -0.07738851 0.1148064 -0.7525814 -0.0652731 0.1357465 -0.8434195 -0.06527307 0.1357465 -0.7525814 -0.04427205 0.1434653 -0.8434195 -0.04427205 0.1434653 -0.7525814 -0.03805016 0.1169305 -0.8434195 -0.03805011 0.1169305 -0.7525814 -0.0242761 0.09393524 -0.8434196 -0.0242761 0.09393524 -0.7525814 0 0.07897205 -0.8434196 0 0.07897202 -0.7525814 0 0.3016406 -0.7525814 0 0.3016406 -0.8434196 -0.0144872 0.3089937 -0.8434196 -0.01448718 0.3089937 -0.7525814 -0.02558682 0.3310123 -0.8434195 -0.02558682 0.3310123 -0.7525814 -0.02970618 0.3584457 -0.8434195 -0.02970616 0.3584457 -0.7525814 -0.04143157 0.3655079 -0.8434195 -0.04143159 0.3655079 -0.7525814 -0.04919188 0.376419 -0.8434195 -0.04919188 0.376419 -0.7525814 -0.05217943 0.3945859 -0.8434195 -0.05217943 0.3945859 -0.7525814 -0.05062662 0.4155779 -0.8434195 -0.05062662 0.4155778 -0.7525814 -0.04244599 0.4357482 -0.8434195 -0.04244599 0.4357482 -0.7525814 -0.03075879 0.4500955 -0.8434195 -0.03075879 0.4500955 -0.7525813 -0.02125957 0.4710241 -0.8434195 -0.02125957 0.4710241 -0.7525814 0.02427608 0.0939352 -0.7525814 0.03805011 0.1169305 -0.7525814 0.044272 0.1434653 -0.7525814 0.06527306 0.1357465 -0.7525814 0.07738846 0.1148063 -0.7525814 0.07826116 0.08636909 -0.7525814 0.06794849 0.05792156 -0.7525814 0.06503813 0.02839878 -0.7525814 0.07053943 0 -0.7525814 0.1810971 0 -0.7525815 0.2044715 0.03132893 -0.7525815 0.2100846 0.06265793 -0.7525815 0.2056255 0.09398693 -0.7525815 0.1877221 0.123877 -0.7525815 0.160898 0.1502547 -0.7525814 0.1319185 0.1697679 -0.7525814 0.1040163 0.2011066 -0.7525814 0.0798604 0.2358194 -0.7525814 0.06540435 0.2774044 -0.7525814 0.08623866 0.2675486 -0.7525814 0.1050959 0.2627338 -0.7525814 0.1239139 0.2626948 -0.7525814 0.1418877 0.2667978 -0.7525814 0.1565907 0.2752103 -0.7525814 0.1677175 0.2902871 -0.7525815 0.1716912 0.3124731 -0.7525815 0.1704992 0.3333262 -0.7525815 0.1653332 0.3537353 -0.7525815 0.1550012 0.372367 -0.7525814 0.1430798 0.385667 -0.7525814 0.1285996 0.3941088 -0.7525814 0.1153114 0.4034394 -0.7525814 0.1052024 0.4149915 -0.7525814 0.09708012 0.4323199 -0.7525814 0.09491868 0.4509811 -0.7525814 0.09712855 0.4674208 -0.7525814 0.1049013 0.4825275 -0.7525814 0.02125955 0.4710241 -0.7525814 0.03075877 0.4500955 -0.7525814 0.04244597 0.4357482 -0.7525814 0.0506266 0.4155778 -0.7525814 0.05217941 0.3945859 -0.7525814 0.04919186 0.3764189 -0.7525814 0.04143156 0.3655078 -0.7525814 0.02970613 0.3584457 -0.7525814 0.02558678 0.3310123 -0.7525814 0.01448716 0.3089936 -0.7525814 0.1049013 0.4825275 -0.8434196 0.09712858 0.4674208 -0.8434196 0.0949187 0.4509811 -0.8434196 0.09708014 0.4323199 -0.8434196 0.1052024 0.4149915 -0.8434196 0.1153114 0.4034394 -0.8434196 0.1285996 0.3941088 -0.8434196 0.1430798 0.385667 -0.8434196 0.1550012 0.372367 -0.8434196 0.1653332 0.3537353 -0.8434196 0.1704992 0.3333263 -0.8434196 0.1716912 0.3124731 -0.8434196 0.1677175 0.2902872 -0.8434196 0.1565907 0.2752103 -0.8434196 0.1418877 0.2667979 -0.8434196 0.1239139 0.2626948 -0.8434196 0.1050959 0.2627338 -0.8434196 0.08623868 0.2675487 -0.8434196 0.06540436 0.2774044 -0.8434196 0.0798604 0.2358194 -0.8434195 0.1040163 0.2011067 -0.8434195 0.1319185 0.169768 -0.8434195 0.160898 0.1502547 -0.8434195 0.1877221 0.1238771 -0.8434195 0.2056255 0.09398697 -0.8434195 0.2100846 0.06265793 -0.8434195 0.2044715 0.03132893 -0.8434195 0.1810971 0 -0.8434195 0.07053943 0 -0.8434195 0.06503813 0.02839882 -0.8434195 0.06794852 0.0579216 -0.8434195 0.07826119 0.08636909 -0.8434195 0.07738851 0.1148063 -0.8434195 0.06527306 0.1357465 -0.8434195 0.04427203 0.1434653 -0.8434195 0.03805012 0.1169305 -0.8434195 0.02427609 0.09393524 -0.8434195 0.01448717 0.3089936 -0.8434196 0.02558681 0.3310123 -0.8434196 0.02970615 0.3584457 -0.8434196 0.04143157 0.3655078 -0.8434196 0.04919188 0.3764189 -0.8434196 0.05217941 0.3945859 -0.8434196 0.05062662 0.4155778 -0.8434196 0.04244597 0.4357482 -0.8434196 0.03075879 0.4500955 -0.8434196 0.02125957 0.4710241 -0.8434196 -0.01978887 0.4954126 0.7525814 -0.01978885 0.4954126 0.8434196 0.01978885 0.4954126 0.7525814 0.01978886 0.4954126 0.8434195 -0.1063162 0.4954126 0.7525814 -0.1063163 0.4954126 0.8434196 0.1063162 0.4954126 0.7525814 0.1063163 0.4954126 0.8434195 0.1049013 0.4825275 0.8434195 0.1049013 0.4825275 0.7525814 0.09712856 0.4674208 0.8434195 0.09712856 0.4674208 0.7525814 0.09491869 0.4509811 0.8434195 0.09491864 0.4509811 0.7525814 0.09708014 0.4323199 0.8434195 0.09708012 0.4323199 0.7525814 0.1052024 0.4149915 0.8434195 0.1052024 0.4149915 0.7525814 0.1153114 0.4034394 0.8434195 0.1153114 0.4034394 0.7525814 0.1285996 0.3941088 0.8434195 0.1285996 0.394109 0.7525814 0.1430798 0.385667 0.8434195 0.1430798 0.385667 0.7525814 0.1550012 0.372367 0.8434195 0.1550012 0.372367 0.7525814 0.1653331 0.3537354 0.8434195 0.1653332 0.3537353 0.7525814 0.1704991 0.3333263 0.8434195 0.1704991 0.3333263 0.7525814 0.1716912 0.3124732 0.8434195 0.1716912 0.3124731 0.7525814 0.1677175 0.2902872 0.8434195 0.1677175 0.2902872 0.7525814 0.1565907 0.2752104 0.8434195 0.1565907 0.2752104 0.7525814 0.1418877 0.266798 0.8434195 0.1418877 0.2667979 0.7525814 0.1239139 0.2626949 0.8434195 0.1239139 0.2626948 0.7525814 0.105096 0.2627339 0.8434195 0.1050959 0.2627338 0.7525814 0.08623868 0.2675487 0.8434195 0.08623868 0.2675487 0.7525814 0.06540437 0.2774045 0.8434195 0.06540438 0.2774044 0.7525814 0.07986046 0.2358195 0.8434195 0.0798604 0.2358195 0.7525814 0.1040164 0.2011067 0.8434195 0.1040163 0.2011066 0.7525814 0.1319185 0.169768 0.8434195 0.1319185 0.169768 0.7525814 0.160898 0.1502548 0.8434195 0.160898 0.1502548 0.7525814 0.1877221 0.1238771 0.8434195 0.1877221 0.1238771 0.7525814 0.2056255 0.09398705 0.8434195 0.2056255 0.09398697 0.7525813 0.2100846 0.062658 0.8434195 0.2100846 0.062658 0.7525813 0.2044715 0.031329 0.8434195 0.2044715 0.03132896 0.7525813 0.181097 0 0.8434195 0.181097 0 0.7525814 0.07053945 0 0.8434195 0.07053945 0 0.7525814 0.06503815 0.02839886 0.8434195 0.06503815 0.02839882 0.7525814 0.06794856 0.0579216 0.8434195 0.06794851 0.0579216 0.7525814 0.07826122 0.08636913 0.8434195 0.07826118 0.08636909 0.7525814 0.07738853 0.1148064 0.8434195 0.0773885 0.1148064 0.7525814 0.06527309 0.1357465 0.8434195 0.06527306 0.1357465 0.7525814 0.04427204 0.1434653 0.8434195 0.04427204 0.1434653 0.7525814 0.03805015 0.1169305 0.8434195 0.0380501 0.1169305 0.7525814 0.02427609 0.09393524 0.8434196 0.02427609 0.09393524 0.7525814 0 0.07897205 0.8434196 0 0.07897202 0.7525814 0 0.3016406 0.7525814 0 0.3016406 0.8434196 0.01448719 0.3089937 0.8434196 0.01448717 0.3089937 0.7525814 0.02558681 0.3310123 0.8434195 0.02558681 0.3310123 0.7525814 0.02970617 0.3584457 0.8434195 0.02970615 0.3584457 0.7525814 0.04143157 0.3655079 0.8434195 0.04143158 0.3655079 0.7525814 0.04919188 0.376419 0.8434195 0.04919188 0.376419 0.7525814 0.05217942 0.3945859 0.8434195 0.05217942 0.3945859 0.7525814 0.05062661 0.4155779 0.8434195 0.05062661 0.4155778 0.7525814 0.04244598 0.4357482 0.8434195 0.04244598 0.4357482 0.7525814 0.03075878 0.4500955 0.8434195 0.03075878 0.4500955 0.7525813 0.02125956 0.4710241 0.8434195 0.02125956 0.4710241 0.7525814 -0.02427609 0.0939352 0.7525814 -0.03805012 0.1169305 0.7525814 -0.04427201 0.1434653 0.7525814 -0.06527307 0.1357465 0.7525814 -0.07738847 0.1148063 0.7525814 -0.07826117 0.08636909 0.7525814 -0.0679485 0.05792156 0.7525814 -0.06503814 0.02839878 0.7525814 -0.07053944 0 0.7525814 -0.1810971 0 0.7525815 -0.2044715 0.03132893 0.7525815 -0.2100846 0.06265793 0.7525815 -0.2056255 0.09398693 0.7525815 -0.1877221 0.123877 0.7525815 -0.160898 0.1502547 0.7525814 -0.1319185 0.1697679 0.7525814 -0.1040163 0.2011066 0.7525814 -0.07986041 0.2358194 0.7525814 -0.06540436 0.2774044 0.7525814 -0.08623866 0.2675486 0.7525814 -0.1050959 0.2627338 0.7525814 -0.1239139 0.2626948 0.7525814 -0.1418877 0.2667978 0.7525814 -0.1565907 0.2752103 0.7525814 -0.1677175 0.2902871 0.7525815 -0.1716912 0.3124731 0.7525815 -0.1704992 0.3333262 0.7525815 -0.1653332 0.3537353 0.7525815 -0.1550012 0.372367 0.7525814 -0.1430798 0.385667 0.7525814 -0.1285996 0.3941088 0.7525814 -0.1153114 0.4034394 0.7525814 -0.1052024 0.4149915 0.7525814 -0.09708012 0.4323199 0.7525814 -0.09491868 0.4509811 0.7525814 -0.09712855 0.4674208 0.7525814 -0.1049013 0.4825275 0.7525814 -0.02125956 0.4710241 0.7525814 -0.03075878 0.4500955 0.7525814 -0.04244598 0.4357482 0.7525814 -0.05062661 0.4155778 0.7525814 -0.05217942 0.3945859 0.7525814 -0.04919187 0.3764189 0.7525814 -0.04143157 0.3655078 0.7525814 -0.02970614 0.3584457 0.7525814 -0.02558679 0.3310123 0.7525814 -0.01448717 0.3089936 0.7525814 -0.1049013 0.4825275 0.8434196 -0.09712858 0.4674208 0.8434196 -0.0949187 0.4509811 0.8434196 -0.09708014 0.4323199 0.8434196 -0.1052024 0.4149915 0.8434196 -0.1153114 0.4034394 0.8434196 -0.1285996 0.3941088 0.8434196 -0.1430798 0.385667 0.8434196 -0.1550012 0.372367 0.8434196 -0.1653332 0.3537353 0.8434196 -0.1704992 0.3333263 0.8434196 -0.1716912 0.3124731 0.8434196 -0.1677175 0.2902872 0.8434196 -0.1565907 0.2752103 0.8434196 -0.1418877 0.2667979 0.8434196 -0.1239139 0.2626948 0.8434196 -0.1050959 0.2627338 0.8434196 -0.08623868 0.2675487 0.8434196 -0.06540437 0.2774044 0.8434196 -0.07986041 0.2358194 0.8434195 -0.1040163 0.2011067 0.8434195 -0.1319185 0.169768 0.8434195 -0.160898 0.1502547 0.8434195 -0.1877221 0.1238771 0.8434195 -0.2056255 0.09398697 0.8434195 -0.2100846 0.06265793 0.8434195 -0.2044715 0.03132893 0.8434195 -0.1810971 0 0.8434195 -0.07053944 0 0.8434195 -0.06503814 0.02839882 0.8434195 -0.06794853 0.0579216 0.8434195 -0.0782612 0.08636909 0.8434195 -0.07738852 0.1148063 0.8434195 -0.06527307 0.1357465 0.8434195 -0.04427204 0.1434653 0.8434195 -0.03805013 0.1169305 0.8434195 -0.0242761 0.09393524 0.8434195 -0.01448718 0.3089936 0.8434196 -0.02558681 0.3310123 0.8434196 -0.02970616 0.3584457 0.8434196 -0.04143158 0.3655078 0.8434196 -0.04919189 0.3764189 0.8434196 -0.05217942 0.3945859 0.8434196 -0.05062663 0.4155778 0.8434196 -0.04244598 0.4357482 0.8434196 -0.0307588 0.4500955 0.8434196 -0.02125958 0.4710241 0.8434196 -0.2070867 0.4954126 1 0.2070867 0.4954126 1 -0.2070867 0.5454126 1 0.2070867 0.5454126 1 -0.2070867 0.5454126 -1 0.2070867 0.5454126 -1 -0.2070867 0.4954126 -1 0.2070867 0.4954126 -1 -0.2070868 0.5454129 -0.7480004 0.2070868 0.5454129 -0.7480004 -0.2146458 0.5767889 -0.7480004 0.2146458 0.5767889 -0.7480004 -0.2558257 0.6004304 -0.7480004 0.2558257 0.6004304 -0.7480004 -0.260531 0.6234234 -0.7480004 0.260531 0.6234234 -0.7480004 -0.260531 0.6454129 -0.7480004 0.260531 0.6454129 -0.7480004 -0.2605311 0.6454129 -0.8480004 0.2605311 0.6454129 -0.8480004 -0.260531 0.6234234 -0.8480004 0.260531 0.6234234 -0.8480004 -0.2558257 0.6004304 -0.8480004 0.2558257 0.6004304 -0.8480004 -0.2146458 0.5767889 -0.8480004 0.2146458 0.5767889 -0.8480004 -0.2070868 0.5454129 -0.8480004 0.2070868 0.5454129 -0.8480004 0.238704 0.5853254 -0.7480004 -0.238704 0.5853254 -0.7480004 -0.238704 0.5853254 -0.8480004 0.238704 0.5853254 -0.8480004 -0.2070868 0.5454129 0.05000002 0.2070868 0.5454129 0.05000002 -0.2146458 0.5767889 0.05000002 0.2146458 0.5767889 0.05000002 -0.2558257 0.6004304 0.05000002 0.2558257 0.6004304 0.05000002 -0.260531 0.6234234 0.05000002 0.260531 0.6234234 0.05000002 -0.260531 0.6454129 0.05000002 0.260531 0.6454129 0.05000002 -0.2605311 0.6454129 -0.04999998 0.2605311 0.6454129 -0.04999998 -0.260531 0.6234234 -0.04999998 0.260531 0.6234234 -0.04999998 -0.2558257 0.6004304 -0.04999998 0.2558257 0.6004304 -0.04999998 -0.2146458 0.5767889 -0.04999998 0.2146458 0.5767889 -0.04999998 -0.2070868 0.5454129 -0.04999998 0.2070868 0.5454129 -0.04999998 0.238704 0.5853254 0.05000002 -0.238704 0.5853254 0.05000002 -0.238704 0.5853254 -0.04999998 0.238704 0.5853254 -0.04999998 -0.2070868 0.5454129 0.8480005 0.2070868 0.5454129 0.8480005 -0.2146458 0.5767889 0.8480005 0.2146458 0.5767889 0.8480005 -0.2558257 0.6004304 0.8480005 0.2558257 0.6004304 0.8480005 -0.260531 0.6234234 0.8480005 0.260531 0.6234234 0.8480005 -0.260531 0.6454129 0.8480005 0.260531 0.6454129 0.8480005 -0.2605311 0.6454129 0.7480005 0.2605311 0.6454129 0.7480005 -0.260531 0.6234234 0.7480005 0.260531 0.6234234 0.7480005 -0.2558257 0.6004304 0.7480005 0.2558257 0.6004304 0.7480005 -0.2146458 0.5767889 0.7480005 0.2146458 0.5767889 0.7480005 -0.2070868 0.5454129 0.7480005 0.2070868 0.5454129 0.7480005 0.238704 0.5853254 0.8480005 -0.238704 0.5853254 0.8480005 -0.238704 0.5853254 0.7480005 0.238704 0.5853254 0.7480005 0.3405354 0.7161528 1.14014 -0.3405354 0.7161528 1.14014 0.3405354 0.6454129 1.14014 -0.3405354 0.6454129 1.14014 0.3405354 0.6454129 -1.14014 -0.3405354 0.6454129 -1.14014 0.3405354 0.7161528 -1.14014 -0.3405354 0.7161528 -1.14014</float_array>
          <technique_common>
            <accessor source="#wooden_bench_pureShape-positions-array" count="488" stride="3">
              <param name="X" type="float"/>
              <param name="Y" type="float"/>
              <param name="Z" type="float"/>
            </accessor>
          </technique_common>
        </source>
        <source id="wooden_bench_pureShape-normals" name="wooden_bench_pureShape-normals">
          <float_array id="wooden_bench_pureShape-normals-array" count="3216">-0.9940246 -0.1091557 0 -0.9940246 -0.1091557 0 -0.9575878 -0.2881415 0 -0.9575878 -0.2881415 0 -0.9540237 -0.2997308 0 -0.9540237 -0.2997308 0 -0.9999581 -0.00915565 0 -0.9999581 -0.00915565 0 -0.9619309 0.273293 0 -0.9619309 0.273293 0 -0.8372308 0.5468497 0 -0.8372308 0.5468497 0 -0.6683953 0.7438062 0 -0.6683953 0.7438062 0 -0.5396321 0.8419009 0 -0.5396321 0.8419009 0 -0.6318309 0.7751062 0 -0.6318309 0.7751062 0 -0.8147166 0.5798593 0 -0.8147166 0.5798593 0 -0.9297301 0.3682417 0 -0.9297301 0.3682417 0 -0.9883931 0.1519174 0 -0.9883931 0.1519174 0 -0.9981968 -0.06002764 0 -0.9981968 -0.06002764 0 -0.9185086 -0.395401 0 -0.9185086 -0.395401 0 -0.6648972 -0.7469348 0 -0.6648972 -0.7469348 0 -0.3635396 -0.9315788 0 -0.3635396 -0.9315788 0 -0.1109519 -0.9938257 0 -0.1109519 -0.9938257 0 0.1256972 -0.9920686 0 0.1256972 -0.9920686 0 0.3390664 -0.9407624 0 0.3390664 -0.9407624 0 0.4276214 -0.9039579 0 0.4276214 -0.9039579 0 -0.9445552 0.3283527 0 -0.9445552 0.3283527 0 -0.8909983 0.4540066 0 -0.8909983 0.4540066 0 -0.7852451 0.6191849 0 -0.7852451 0.6191849 0 -0.6578625 0.7531381 0 -0.6578625 0.7531381 0 -0.6325257 0.7745394 0 -0.6325257 0.7745394 0 -0.7858505 0.6184165 0 -0.7858505 0.6184165 0 -0.9425797 0.3339812 0 -0.9425797 0.3339812 0 -0.9998389 -0.01794943 0 -0.9998389 -0.01794943 0 -0.9174626 -0.397822 0 -0.9174626 -0.397822 0 -0.801499 -0.597996 0 -0.801499 -0.597996 0 0 -0.9999999 0 0 -0.9999999 0 0 -0.9999999 0 0 -0.9999999 0 0.9817491 -0.1901799 0 0.9817491 -0.1901799 0 0.9989172 -0.04652406 0 0.9989172 -0.04652406 0 0.9752334 0.221178 0 0.9752334 0.221178 0 0.9874571 0.1578877 0 0.9874571 0.1578877 0 0.9617165 -0.2740462 0 0.9617165 -0.2740462 0 0.6436433 -0.7653257 0 0.6436433 -0.7653257 0 0.3449816 -0.9386094 0 0.3449816 -0.9386094 0 -0.9735934 -0.228289 0 -0.9735934 -0.228289 0 -0.9267983 -0.3755596 0 -0.9267983 -0.3755596 0 -0.71158 -0.7026049 0 -0.71158 -0.7026049 0 -0.5247095 -0.8512813 0 -0.5247095 -0.8512813 0 0 1 0 0 1 0 0.7080786 0.7061335 0 0.7080786 0.7061335 0 0.9529466 0.3031381 0 0.9529466 0.3031381 0 0.9889134 0.1484933 0 0.9889134 0.1484933 0 0.5159383 0.8566257 0 0.5159383 0.8566257 0 0.6796892 0.7335003 0 0.6796892 0.7335003 0 0.9246783 0.3807491 0 0.9246783 0.3807491 0 0.9990066 0.04456221 0 0.9990066 0.04456221 0 0.9737641 -0.22756 0 0.9737641 -0.22756 0 0.8605539 -0.5093594 0 0.8605539 -0.5093594 0 0.849991 -0.5267973 0 0.849991 -0.5267973 0 0.970583 -0.2407667 0 0.970583 -0.2407667 0 0.9981866 -0.06019377 0 0.9981866 -0.06019377 0 0 0 1 0 0 1 0 0 1 0 0 1 0 0 1 0 0 1 0 0 1 0 0 1 0 0 1 0 0 1 0 0 1 0 0 1 0 0 1 0 0 1 0 0 1 0 0 1 0 0 1 0 0 1 0 0 1 0 0 1 0 0 1 0 0 1 0 0 1 0 0 1 0 0 1 0 0 1 0 0 1 0 0 1 0 0 1 0 0 1 0 0 1 0 0 1 0 0 1 0 0 1 0 0 1 0 0 1 0 0 1 0 0 1 0 0 1 0 0 1 0 0 1 0 0 1 0 0 1 0 0 1 0 0 1 0 0 1 0 0 1 0 0 1 0 0 1 0 0 1 0 0 1 0 0 1 0 0 1 0 0 1 0 0 1 0 0 1 0 0 1 0 0 1 0 0 1 0 0 1 0 0 1 0 0 1 0 0 1 0 0 1 0 0 1 0 0 1 0 0 1 0 0 1 0 0 1 0 0 1 0 0 1 0 0 1 0 0 1 0 0 1 0 0 1 0 0 1 0 0 1 0 0 1 0 0 1 0 0 1 0 0 1 0 0 1 0 0 1 0 0 1 0 0 1 0 0 1 0 0 1 0 0 1 0 0 1 0 0 1 0 0 1 0 0 1 0 0 1 0 0 1 0 0 1 0 0 1 0 0 1 0 0 1 0 0 1 0 0 1 0 0 -0.9999999 0 0 -0.9999999 0 0 -0.9999999 0 0 -0.9999999 0 0 -0.9999999 0 0 -0.9999999 0 0 -0.9999999 0 0 -0.9999999 0 0 -0.9999999 0 0 -0.9999999 0 0 -0.9999999 0 0 -0.9999999 0 0 -0.9999999 0 0 -0.9999999 0 0 -0.9999999 0 0 -0.9999999 0 0 -0.9999999 0 0 -0.9999999 0 0 -0.9999999 0 0 -0.9999999 0 0 -0.9999999 0 0 -0.9999999 0 0 -0.9999999 0 0 -0.9999999 0 0 -0.9999999 0 0 -0.9999999 0 0 -0.9999999 0 0 -0.9999999 0 0 -0.9999999 0 0 -0.9999999 0 0 -0.9999999 0 0 -0.9999999 0 0 -0.9999999 0 0 -0.9999999 0 0 -0.9999999 0 0 -0.9999999 0 0 -0.9999999 0 0 -0.9999999 0 0 -0.9999999 0 0 -0.9999999 0 0 -0.9999999 0 0 -0.9999999 0 0 -0.9999999 0 0 -0.9999999 0 0 -0.9999999 0 0 -0.9999999 0 0 -0.9999999 0 0 -0.9999999 0 0 -0.9999999 0 0 -0.9999999 0 0 -0.9999999 0 0 -0.9999999 0 0 -0.9999999 0 0 -0.9999999 0 0 -0.9999999 0 0 -0.9999999 0 0 -0.9999999 0 0 -0.9999999 0 0 -0.9999999 0 0 -0.9999999 0 0 -0.9999999 0 0 -0.9999999 0 0 -0.9999999 0 0 -0.9999999 0 0 -0.9999999 0 0 -0.9999999 0 0 -0.9999999 0 0 -0.9999999 0 0 -0.9999999 0 0 -0.9999999 0 0 -0.9999999 0 0 -0.9999999 0 0 -0.9999999 0 0 -0.9999999 0 0 -0.9999999 0 0 -0.9999999 0 0 -0.9999999 0 0 -0.9999999 0 0 -0.9999999 0 0 -0.9999999 0 0 -0.9999999 0 0 -0.9999999 0 0 -0.9999999 0 0 -0.9999999 0 0 -0.9999999 0 0 -0.9999999 0 0 -0.9999999 0 0 -0.9999999 0 0 -0.9999999 0 0 -0.9999999 0 0 -0.9999999 0 0 -0.9999999 0 0 -0.9999999 0 0 -0.9999999 0 0 -0.9999999 0 0 -0.9999999 0 0 -0.9999999 0 0 -0.9999999 0 0 -0.9999999 0 0 -0.9999999 0.5247092 -0.8512815 0 0.7115803 -0.7026047 0 0.7115803 -0.7026047 0 0.5247092 -0.8512815 0 0.9267985 -0.375559 0 0.9267985 -0.375559 0 0.9735934 -0.2282887 0 0.9735934 -0.2282887 0 -0.6436437 -0.7653254 0 -0.3449814 -0.9386095 0 -0.3449814 -0.9386095 0 -0.6436437 -0.7653254 0 -0.9617166 -0.2740458 0 -0.9617166 -0.2740458 0 -0.987457 0.1578875 0 -0.987457 0.1578875 0 -0.9752335 0.2211777 0 -0.9752335 0.2211777 0 -0.9989172 -0.04652432 0 -0.9989172 -0.04652432 0 -0.9817491 -0.1901799 0 -0.9817491 -0.1901799 0 0 -0.9999999 0 0 -0.9999999 0 0 -0.9999999 0 0 -0.9999999 0 0.9174625 -0.3978221 0 0.8014988 -0.5979962 0 0.8014988 -0.5979962 0 0.9174625 -0.3978221 0 0.9998389 -0.01794986 0 0.9998389 -0.01794986 0 0.9425796 0.3339812 0 0.9425796 0.3339812 0 0.78585 0.6184173 0 0.78585 0.6184173 0 0.6325253 0.7745396 0 0.6325253 0.7745396 0 0.6578628 0.7531378 0 0.6578628 0.7531378 0 0.7852451 0.619185 0 0.7852451 0.619185 0 0.8909981 0.454007 0 0.8909981 0.454007 0 0.9445553 0.3283523 0 0.9445553 0.3283523 0 -0.3390667 -0.9407624 0 -0.4276216 -0.9039578 0 -0.4276216 -0.9039578 0 -0.3390667 -0.9407624 0 -0.1256981 -0.9920685 0 -0.1256981 -0.9920685 0 0.1109514 -0.9938257 0 0.1109514 -0.9938257 0 0.3635402 -0.9315785 0 0.3635402 -0.9315785 0 0.6648974 -0.7469347 0 0.6648974 -0.7469347 0 0.9185086 -0.3954011 0 0.9185086 -0.3954011 0 0.9981968 -0.0600284 0 0.9981968 -0.0600284 0 0.9883932 0.1519173 0 0.9883932 0.1519173 0 0.9297302 0.3682415 0 0.9297302 0.3682415 0 0.8147162 0.5798599 0 0.8147162 0.5798599 0 0.6318296 0.7751073 0 0.6318296 0.7751073 0 0.5396329 0.8419005 0 0.5396329 0.8419005 0 0.6683965 0.7438051 0 0.6683965 0.7438051 0 0.8372315 0.5468486 0 0.8372315 0.5468486 0 0.9619311 0.2732919 0 0.9619311 0.2732919 0 0.999958 -0.00915557 0 0.999958 -0.00915557 0 0.954024 -0.2997304 0 0.954024 -0.2997304 0 0.9575881 -0.288141 0 0.9575881 -0.288141 0 0.9940248 -0.1091544 0 0.9940248 -0.1091544 0 -0.9981866 -0.06019408 0 -0.9981866 -0.06019408 0 -0.970583 -0.2407669 0 -0.970583 -0.2407669 0 -0.849991 -0.5267974 0 -0.849991 -0.5267974 0 -0.860554 -0.5093592 0 -0.860554 -0.5093592 0 -0.9737641 -0.2275597 0 -0.9737641 -0.2275597 0 -0.9990066 0.04456187 0 -0.9990066 0.04456187 0 -0.9246784 0.380749 0 -0.9246784 0.380749 0 -0.6796868 0.7335024 0 -0.6796868 0.7335024 0 -0.5159335 0.8566285 0 -0.5159335 0.8566285 0 -0.9529467 0.3031379 0 -0.9889134 0.1484932 0 -0.9889134 0.1484932 0 -0.9529467 0.3031379 0 -0.7080786 0.7061338 0 -0.7080786 0.7061338 0 0.9940246 -0.1091557 0 0.9940246 -0.1091557 0 0.9575878 -0.2881415 0 0.9575878 -0.2881415 0 0.9540237 -0.2997308 0 0.9540237 -0.2997308 0 0.9999581 -0.00915565 0 0.9999581 -0.00915565 0 0.9619309 0.273293 0 0.9619309 0.273293 0 0.8372308 0.5468497 0 0.8372308 0.5468497 0 0.6683953 0.7438062 0 0.6683953 0.7438062 0 0.5396321 0.8419009 0 0.5396321 0.8419009 0 0.6318309 0.7751062 0 0.6318309 0.7751062 0 0.8147166 0.5798593 0 0.8147166 0.5798593 0 0.9297301 0.3682417 0 0.9297301 0.3682417 0 0.9883931 0.1519174 0 0.9883931 0.1519174 0 0.9981968 -0.06002764 0 0.9981968 -0.06002764 0 0.9185086 -0.395401 0 0.9185086 -0.395401 0 0.6648972 -0.7469348 0 0.6648972 -0.7469348 0 0.3635396 -0.9315788 0 0.3635396 -0.9315788 0 0.1109519 -0.9938257 0 0.1109519 -0.9938257 0 -0.1256972 -0.9920686 0 -0.1256972 -0.9920686 0 -0.3390664 -0.9407625 0 -0.3390664 -0.9407625 0 -0.4276212 -0.903958 0 -0.4276212 -0.903958 0 0.9445552 0.3283527 0 0.9445552 0.3283527 0 0.8909983 0.4540067 0 0.8909983 0.4540067 0 0.7852451 0.6191849 0 0.7852451 0.6191849 0 0.6578625 0.7531381 0 0.6578625 0.7531381 0 0.6325257 0.7745394 0 0.6325257 0.7745394 0 0.7858505 0.6184165 0 0.7858505 0.6184165 0 0.9425797 0.3339812 0 0.9425797 0.3339812 0 0.9998389 -0.01794943 0 0.9998389 -0.01794943 0 0.9174626 -0.397822 0 0.9174626 -0.397822 0 0.801499 -0.597996 0 0.801499 -0.597996 0 0 -0.9999999 0 0 -0.9999999 0 0 -0.9999999 0 0 -0.9999999 0 -0.9817491 -0.1901799 0 -0.9817491 -0.1901799 0 -0.9989172 -0.04652406 0 -0.9989172 -0.04652406 0 -0.9752334 0.221178 0 -0.9752334 0.221178 0 -0.9874571 0.1578877 0 -0.9874571 0.1578877 0 -0.9617165 -0.2740463 0 -0.9617165 -0.2740463 0 -0.6436433 -0.7653256 0 -0.6436433 -0.7653256 0 -0.3449817 -0.9386094 0 -0.3449817 -0.9386094 0 0.9735934 -0.2282892 0 0.9735934 -0.2282892 0 0.9267983 -0.3755597 0 0.9267983 -0.3755597 0 0.7115801 -0.7026049 0 0.7115801 -0.7026049 0 0.5247095 -0.8512813 0 0.5247095 -0.8512813 0 0 1 0 0 1 0 -0.7080786 0.7061335 0 -0.7080786 0.7061335 0 -0.9529466 0.3031381 0 -0.9529466 0.3031381 0 -0.9889134 0.1484933 0 -0.9889134 0.1484933 0 -0.5159381 0.8566257 0 -0.5159381 0.8566257 0 -0.6796892 0.7335004 0 -0.6796892 0.7335004 0 -0.9246783 0.380749 0 -0.9246783 0.380749 0 -0.9990066 0.04456219 0 -0.9990066 0.04456219 0 -0.9737641 -0.2275599 0 -0.9737641 -0.2275599 0 -0.8605539 -0.5093594 0 -0.8605539 -0.5093594 0 -0.849991 -0.5267974 0 -0.849991 -0.5267974 0 -0.970583 -0.2407666 0 -0.970583 -0.2407666 0 -0.9981866 -0.06019377 0 -0.9981866 -0.06019377 0 0 0 -1 0 0 -1 0 0 -1 0 0 -1 0 0 -1 0 0 -1 0 0 -1 0 0 -1 0 0 -1 0 0 -1 0 0 -1 0 0 -1 0 0 -1 0 0 -1 0 0 -1 0 0 -1 0 0 -1 0 0 -1 0 0 -1 0 0 -1 0 0 -1 0 0 -1 0 0 -1 0 0 -1 0 0 -1 0 0 -1 0 0 -1 0 0 -1 0 0 -1 0 0 -1 0 0 -1 0 0 -1 0 0 -1 0 0 -1 0 0 -1 0 0 -1 0 0 -1 0 0 -1 0 0 -1 0 0 -1 0 0 -1 0 0 -1 0 0 -1 0 0 -1 0 0 -1 0 0 -1 0 0 -1 0 0 -1 0 0 -1 0 0 -1 0 0 -1 0 0 -1 0 0 -1 0 0 -1 0 0 -1 0 0 -1 0 0 -1 0 0 -1 0 0 -1 0 0 -1 0 0 -1 0 0 -1 0 0 -1 0 0 -1 0 0 -1 0 0 -1 0 0 -1 0 0 -1 0 0 -1 0 0 -1 0 0 -1 0 0 -1 0 0 -1 0 0 -1 0 0 -1 0 0 -1 0 0 -1 0 0 -1 0 0 -1 0 0 -1 0 0 -1 0 0 -1 0 0 -1 0 0 -1 0 0 -1 0 0 -1 0 0 -1 0 0 -1 0 0 -1 0 0 -1 0 0 -1 0 0 -1 0 0 -1 0 0 -1 0 0 -1 0 0 -1 0 0 -1 0 0 -1 0 0 -1 0 0 -1 0 0 1 0 0 1 0 0 1 0 0 1 0 0 1 0 0 1 0 0 1 0 0 1 0 0 1 0 0 1 0 0 1 0 0 1 0 0 1 0 0 1 0 0 1 0 0 1 0 0 1 0 0 1 0 0 1 0 0 1 0 0 1 0 0 1 0 0 1 0 0 1 0 0 1 0 0 1 0 0 1 0 0 1 0 0 1 0 0 1 0 0 1 0 0 1 0 0 1 0 0 1 0 0 1 0 0 1 0 0 1 0 0 1 0 0 1 0 0 1 0 0 1 0 0 1 0 0 1 0 0 1 0 0 1 0 0 1 0 0 1 0 0 1 0 0 1 0 0 1 0 0 1 0 0 1 0 0 1 0 0 1 0 0 1 0 0 1 0 0 1 0 0 1 0 0 1 0 0 1 0 0 1 0 0 1 0 0 1 0 0 1 0 0 1 0 0 1 0 0 1 0 0 1 0 0 1 0 0 1 0 0 1 0 0 1 0 0 1 0 0 1 0 0 1 0 0 1 0 0 1 0 0 1 0 0 1 0 0 1 0 0 1 0 0 1 0 0 1 0 0 1 0 0 1 0 0 1 0 0 1 0 0 1 0 0 1 0 0 1 0 0 1 0 0 1 0 0 1 0 0 1 0 0 1 0 0 1 0 0 1 0 0 1 0 0 1 0 0 1 -0.5247092 -0.8512815 0 -0.7115803 -0.7026046 0 -0.7115803 -0.7026046 0 -0.5247092 -0.8512815 0 -0.9267986 -0.3755589 0 -0.9267986 -0.3755589 0 -0.9735934 -0.2282887 0 -0.9735934 -0.2282887 0 0.6436437 -0.7653254 0 0.3449814 -0.9386095 0 0.3449814 -0.9386095 0 0.6436437 -0.7653254 0 0.9617166 -0.2740458 0 0.9617166 -0.2740458 0 0.987457 0.1578874 0 0.987457 0.1578874 0 0.9752335 0.2211777 0 0.9752335 0.2211777 0 0.9989172 -0.04652425 0 0.9989172 -0.04652425 0 0.9817492 -0.1901798 0 0.9817492 -0.1901798 0 0 -0.9999999 0 0 -0.9999999 0 0 -0.9999999 0 0 -0.9999999 0 -0.9174625 -0.3978221 0 -0.8014988 -0.5979962 0 -0.8014988 -0.5979962 0 -0.9174625 -0.3978221 0 -0.9998389 -0.01794986 0 -0.9998389 -0.01794986 0 -0.9425796 0.3339812 0 -0.9425796 0.3339812 0 -0.78585 0.6184173 0 -0.78585 0.6184173 0 -0.6325253 0.7745396 0 -0.6325253 0.7745396 0 -0.6578628 0.7531378 0 -0.6578628 0.7531378 0 -0.7852452 0.6191849 0 -0.7852452 0.6191849 0 -0.8909981 0.4540069 0 -0.8909981 0.4540069 0 -0.9445553 0.3283522 0 -0.9445553 0.3283522 0 0.3390668 -0.9407623 0 0.4276218 -0.9039577 0 0.4276218 -0.9039577 0 0.3390668 -0.9407623 0 0.1256981 -0.9920685 0 0.1256981 -0.9920685 0 -0.1109514 -0.9938257 0 -0.1109514 -0.9938257 0 -0.3635402 -0.9315785 0 -0.3635402 -0.9315785 0 -0.6648974 -0.7469347 0 -0.6648974 -0.7469347 0 -0.9185086 -0.3954011 0 -0.9185086 -0.3954011 0 -0.9981968 -0.0600284 0 -0.9981968 -0.0600284 0 -0.9883932 0.1519173 0 -0.9883932 0.1519173 0 -0.9297302 0.3682415 0 -0.9297302 0.3682415 0 -0.8147162 0.5798599 0 -0.8147162 0.5798599 0 -0.6318296 0.7751073 0 -0.6318296 0.7751073 0 -0.5396329 0.8419005 0 -0.5396329 0.8419005 0 -0.6683965 0.7438051 0 -0.6683965 0.7438051 0 -0.8372315 0.5468486 0 -0.8372315 0.5468486 0 -0.9619311 0.2732919 0 -0.9619311 0.2732919 0 -0.999958 -0.00915557 0 -0.999958 -0.00915557 0 -0.954024 -0.2997304 0 -0.954024 -0.2997304 0 -0.9575881 -0.288141 0 -0.9575881 -0.288141 0 -0.9940248 -0.1091544 0 -0.9940248 -0.1091544 0 0.9981866 -0.06019408 0 0.9981866 -0.06019408 0 0.970583 -0.2407669 0 0.970583 -0.2407669 0 0.849991 -0.5267973 0 0.849991 -0.5267973 0 0.860554 -0.5093592 0 0.860554 -0.5093592 0 0.9737641 -0.2275597 0 0.9737641 -0.2275597 0 0.9990066 0.04456187 0 0.9990066 0.04456187 0 0.9246784 0.380749 0 0.9246784 0.380749 0 0.6796868 0.7335024 0 0.6796868 0.7335024 0 0.5159335 0.8566285 0 0.5159335 0.8566285 0 0.9529466 0.3031378 0 0.9889134 0.1484932 0 0.9889134 0.1484932 0 0.9529466 0.3031378 0 0.7080785 0.7061338 0 0.7080785 0.7061338 0 0 0 0.9999999 0 0 0.9999999 0 0 0.9999999 0 0 0.9999999 0 0.9999999 0 0 0.9999999 0 0 0.9999999 0 0 0.9999999 0 0 0 -0.9999999 0 0 -0.9999999 0 0 -0.9999999 0 0 -0.9999999 0 -0.9999999 0 0 -0.9999999 0 0 -0.9999999 0 0 -0.9999999 0 0.9999999 0 0 0.9999999 0 0 0.9999999 0 0 0.9999999 0 0 -0.9999999 0 0 -0.9999999 0 0 -0.9999999 0 0 -0.9999999 0 0 0 0 0.9999999 0 0 0.9999999 0 0 0.9999999 0 0 0.9999999 0 0 0.9999999 0 0 0.9999999 0 0 0.9999999 0 0 0.9999999 0 0 0.9999999 0 0 0.9999999 0 0 0.9999999 0 0 0.9999999 0 0.9999999 0 0 0.9999999 0 0 0.9999999 0 0 0.9999999 0 0 0 -0.9999999 0 0 -0.9999999 0 0 -0.9999999 0 0 -0.9999999 0 0 -0.9999999 0 0 -0.9999999 0 0 -0.9999999 0 0 -0.9999999 0 0 -0.9999999 0 0 -0.9999999 0 0 -0.9999999 0 0 -0.9999999 0 -0.9999999 0 0 -0.9999999 0 0 -0.9999999 0 0 -0.9999999 0 0.9721847 -0.2342152 0 0.9721847 -0.2342152 0 0.9721847 -0.2342152 0 0.9721847 -0.2342152 0 0.3343983 -0.9424318 0 0.3343983 -0.9424318 0 0.507202 -0.8618273 0 0.507202 -0.8618273 0 0.8653867 -0.5011046 0 0.8653867 -0.5011046 0 0.994911 -0.1007569 0 0.994911 -0.1007569 0 0.9999999 0 0 0.9999999 0 0 -0.9721847 -0.2342152 0 -0.9721847 -0.2342152 0 -0.9721847 -0.2342152 0 -0.9721847 -0.2342152 0 -0.3343983 -0.9424318 0 -0.3343983 -0.9424318 0 -0.507202 -0.8618273 0 -0.507202 -0.8618273 0 -0.8653867 -0.5011046 0 -0.8653867 -0.5011046 0 -0.994911 -0.1007569 0 -0.994911 -0.1007569 0 -0.9999999 0 0 -0.9999999 0 0 0 0 0.9999999 0 0 0.9999999 0 0 0.9999999 0 0 0.9999999 0 0 0.9999999 0 0 0.9999999 0 0 0.9999999 0 0 0.9999999 0 0 0.9999999 0 0 0.9999999 0 0 0.9999999 0 0 0.9999999 0 0.9999999 0 0 0.9999999 0 0 0.9999999 0 0 0.9999999 0 0 0 -0.9999999 0 0 -0.9999999 0 0 -0.9999999 0 0 -0.9999999 0 0 -0.9999999 0 0 -0.9999999 0 0 -0.9999999 0 0 -0.9999999 0 0 -0.9999999 0 0 -0.9999999 0 0 -0.9999999 0 0 -0.9999999 0 -0.9999999 0 0 -0.9999999 0 0 -0.9999999 0 0 -0.9999999 0 0.9721847 -0.2342153 0 0.9721847 -0.2342153 0 0.9721847 -0.2342153 0 0.9721847 -0.2342153 0 0.3343983 -0.9424318 0 0.3343983 -0.9424318 0 0.507202 -0.8618273 0 0.507202 -0.8618273 0 0.8653867 -0.5011046 0 0.8653867 -0.5011046 0 0.9949111 -0.1007569 0 0.9949111 -0.1007569 0 0.9999999 0 0 0.9999999 0 0 -0.9721846 -0.2342158 0 -0.9721846 -0.2342158 0 -0.9721846 -0.2342158 0 -0.9721846 -0.2342158 0 -0.3343983 -0.9424318 0 -0.3343983 -0.9424318 0 -0.5072021 -0.8618271 0 -0.5072021 -0.8618271 0 -0.8653868 -0.5011044 0 -0.8653868 -0.5011044 0 -0.9949111 -0.1007569 0 -0.9949111 -0.1007569 0 -0.9999999 0 0 -0.9999999 0 0 0 0 0.9999999 0 0 0.9999999 0 0 0.9999999 0 0 0.9999999 0 0 0.9999999 0 0 0.9999999 0 0 0.9999999 0 0 0.9999999 0 0 0.9999999 0 0 0.9999999 0 0 0.9999999 0 0 0.9999999 0 0.9999999 0 0 0.9999999 0 0 0.9999999 0 0 0.9999999 0 0 0 -0.9999999 0 0 -0.9999999 0 0 -0.9999999 0 0 -0.9999999 0 0 -0.9999999 0 0 -0.9999999 0 0 -0.9999999 0 0 -0.9999999 0 0 -0.9999999 0 0 -0.9999999 0 0 -0.9999999 0 0 -0.9999999 0 -0.9999999 0 0 -0.9999999 0 0 -0.9999999 0 0 -0.9999999 0 0.9721847 -0.2342155 0 0.9721847 -0.2342155 0 0.9721847 -0.2342155 0 0.9721847 -0.2342155 0 0.3343984 -0.9424317 0 0.3343984 -0.9424317 0 0.507202 -0.8618273 0 0.507202 -0.8618273 0 0.8653867 -0.5011046 0 0.8653867 -0.5011046 0 0.994911 -0.1007569 0 0.994911 -0.1007569 0 0.9999999 0 0 0.9999999 0 0 -0.9721846 -0.2342159 0 -0.9721846 -0.2342159 0 -0.9721846 -0.2342159 0 -0.9721846 -0.2342159 0 -0.3343984 -0.9424317 0 -0.3343984 -0.9424317 0 -0.507202 -0.8618273 0 -0.507202 -0.8618273 0 -0.8653868 -0.5011043 0 -0.8653868 -0.5011043 0 -0.994911 -0.1007573 0 -0.994911 -0.1007573 0 -0.9999999 0 0 -0.9999999 0 0 0 0 1 0 0 1 0 0 1 0 0 1 0 -0.9999999 0 0 -0.9999999 0 0 -0.9999999 0 0 -0.9999999 0 0 0 -1 0 0 -1 0 0 -1 0 0 -1 0 0.9999999 0 0 0.9999999 0 0 0.9999999 0 0 0.9999999 0 -0.9999999 0 0 -0.9999999 0 0 -0.9999999 0 0 -0.9999999 0 0 0.9999999 0 0 0.9999999 0 0 0.9999999 0 0 0.9999999 0 0</float_array>
          <technique_common>
            <accessor source="#wooden_bench_pureShape-normals-array" count="1072" stride="3">
              <param name="X" type="float"/>
              <param name="Y" type="float"/>
              <param name="Z" type="float"/>
            </accessor>
          </technique_common>
        </source>
        <source id="wooden_bench_pureShape-map1" name="wooden_bench_pureShape-map1">
          <float_array id="wooden_bench_pureShape-map1-array" count="1996">0.02283182 0.01687126 0.02283182 0.1017381 0.04430434 0.01687113 0.04430434 0.1017381 0.06159295 0.01687113 0.06159293 0.1017381 0.08192818 0.01687113 0.08192839 0.1017383 0.101594 0.01687097 0.1015939 0.1017384 0.1187948 0.01687084 0.1187949 0.1017383 0.131304 0.01687084 0.1313042 0.1017385 0.1440924 0.01687084 0.1440924 0.1017385 0.4084398 0.102159 0.4084398 0.01754508 0.387031 0.102159 0.3870312 0.01754505 0.2311118 0.266033 0.2385058 0.2668462 0.2471799 0.2712884 0.2566116 0.2725356 0.2673094 0.2712685 0.2772307 0.2665787 0.2838351 0.2607567 0.2891584 0.2531139 0.2939698 0.2447886 0.3015736 0.2379205 0.3122398 0.2319526 0.3239368 0.2289445 0.3358974 0.228215 0.3486337 0.2304462 0.3573074 0.2367965 0.3621656 0.2452133 0.3645588 0.2555158 0.3645773 0.2663118 0.3618561 0.2771407 0.3562472 0.2891148 0.3800682 0.2807234 0.3999235 0.2667838 0.4178342 0.2507026 0.4289584 0.2340314 0.4440257 0.21858 0.4611296 0.2082376 0.4790912 0.2056043 0.4970769 0.2087491 0.5159715 0.2220829 0.5159715 0.2855058 0.499093 0.2887299 0.4821497 0.2871313 0.4658056 0.2812837 0.4494942 0.2818527 0.4375105 0.2888533 0.4331323 0.3009195 0.4483691 0.3044258 0.4615932 0.3122728 0.4702347 0.3261637 0.4617084 0.3401255 0.4485495 0.3480817 0.4333422 0.3517139 0.4378201 0.3637428 0.4498616 0.3706426 0.4661771 0.3710747 0.4824717 0.3650903 0.4994009 0.3633496 0.5159715 0.3664372 0.5159715 0.4298604 0.4980553 0.443345 0.4800963 0.4466403 0.4621132 0.4441577 0.4449231 0.4339589 0.4297265 0.4186342 0.4184626 0.4020564 0.4004174 0.3861245 0.3804459 0.3723494 0.3565552 0.3641548 0.3622585 0.3760825 0.3650655 0.3868881 0.3651328 0.3976826 0.362822 0.4080027 0.3580315 0.4164569 0.3494095 0.4228756 0.3366924 0.425208 0.3247275 0.424574 0.3130078 0.4216594 0.3022955 0.4157771 0.2946377 0.4089704 0.2897605 0.4006841 0.2843765 0.3930838 0.2777257 0.3873126 0.2677664 0.3826947 0.2570568 0.3814995 0.247632 0.3828064 0.2389851 0.3873011 0.2315973 0.3881435 -0.02015153 0.3278319 -0.01158035 0.3140084 0.001646549 0.306131 0.01693265 0.3025348 0.01243215 0.2906239 3.28669e-4 0.2837906 -0.01607133 0.2833606 -0.032451 0.2892839 -0.04946797 0.2910052 -0.06641883 0.2879461 -0.06641883 0.2251493 -0.04810563 0.2118002 -0.03005342 0.2085395 -0.0119776 0.2109999 0.005300019 0.2210999 0.02057327 0.236275 0.03189334 0.2526901 0.05003006 0.2684659 0.07010376 0.2821058 0.09411754 0.2902204 0.08838407 0.278408 0.08556259 0.2677068 0.0854954 0.2570168 0.08781897 0.2467967 0.09263568 0.2384246 0.1013042 0.2320685 0.1140897 0.2297592 0.1261188 0.2303877 0.1379012 0.2332747 0.1486707 0.2391004 0.1563693 0.2458417 0.1612722 0.2540478 0.1666847 0.2615747 0.1733711 0.2672903 0.1833843 0.2718638 0.1941521 0.273048 0.2036283 0.2717541 0.2123227 0.2673031 0.2197508 0.2664692 0.2202205 0.3872657 0.2127878 0.3864909 0.2040596 0.3821098 0.1945757 0.3808915 0.1838209 0.3821609 0.1738483 0.3868129 0.1672107 0.3925805 0.1618614 0.4001488 0.1570272 0.4083923 0.1493858 0.4151934 0.1386666 0.4211039 0.1269107 0.4240842 0.1148895 0.4248086 0.102088 0.4226019 0.09336919 0.4163166 0.08848473 0.4079848 0.08607756 0.3977857 0.08605675 0.3870976 0.08878962 0.3763763 0.09442448 0.3645208 0.07047939 0.372828 0.05051981 0.3866288 0.03251465 0.40255 0.02133093 0.4190558 0.006183799 0.4343531 -0.01100986 0.4445918 -0.02906486 0.4471973 -0.04714369 0.4440818 -0.06641883 0.4308775 -0.06641883 0.3680801 -0.04916171 0.3648895 -0.0321308 0.3664741 -0.01570253 0.3722658 6.93478e-4 0.3717043 0.01273982 0.3647742 0.0171414 0.3528279 0.001826158 0.3493555 -0.01146589 0.3415856 0.369794 0.102159 0.369794 0.01754505 0.3495193 0.102159 0.3495192 0.017545 0.3299122 0.102159 0.3299123 0.01754497 0.3127626 0.102159 0.3127628 0.01754494 -1.33995e-4 0.1069424 0.02681709 0.1069424 0.02681543 0.1915773 -1.35823e-4 0.1915767 0.05445734 0.106943 0.05445538 0.191578 0.08265031 0.1069436 0.08264807 0.1915789 0.1091583 0.1069443 0.1091559 0.1915797 0.1316989 0.1069449 0.1316963 0.1915804 0.1779394 0.1069464 0.1525458 0.1069456 0.1525431 0.1915811 0.1779366 0.191582 0.2294842 0.106948 0.2560513 0.1915848 0.2560542 0.1069489 0.2294813 0.1915839 0.2029141 0.1069472 0.2029113 0.1915828 0.3763157 0.1915888 0.3272668 0.1915873 0.3272696 0.1069513 0.3763183 0.1069528 0.4045089 0.1915897 0.4045114 0.1069536 0.281029 0.1069498 0.2810261 0.1915856 0.3064227 0.1069506 0.3064198 0.1915865 0.4321494 0.1915905 0.4321518 0.1069544 0.3498075 0.191588 0.3498102 0.106952 0.4591012 0.1915912 0.4591036 0.1069552 -0.09829773 0.3633364 -0.09829773 0.3018058 -0.07090262 0.3018058 -0.07090262 0.3633364 -0.09860387 0.3687832 -0.07120874 0.3687832 -0.07120874 0.4303138 -0.09860387 0.4303138 0.06603386 -0.1719203 0.06603386 -0.08749434 0.03628897 -0.08749434 0.03628897 -0.1719203 0.09560767 -0.1719203 0.09560767 -0.08749447 -4.15756e-4 -0.08749434 -4.15756e-4 -0.1719203 0.1281693 -0.1719201 0.1281693 -0.0874946 0.1633279 -0.1719201 0.1633279 -0.08749471 0.1959783 -0.17192 0.1959783 -0.08749484 0.2351923 -0.1719199 0.2351923 -0.08749484 0.274715 -0.1719198 0.274715 -0.08749484 0.3158595 -0.1719196 0.3158595 -0.08749484 0.3255807 0.3120787 0.3098313 0.3097759 0.3057534 0.3030639 0.2994758 0.2986354 0.2890428 0.2969605 0.2769945 0.2978938 0.2654258 0.3026223 0.257204 0.309349 0.2452017 0.3148257 0.2200244 0.3381213 0.2199557 0.3156261 0.2058863 0.3148474 0.1937934 0.3094997 0.185491 0.3028935 0.1738386 0.298293 0.1617282 0.2974597 0.3466148 -0.1723653 0.3466148 -0.08719887 0.325006 -0.08719897 0.325006 -0.1723655 0.3648619 -0.1723653 0.3648619 -0.0871985 0.3825051 -0.1723653 0.3825051 -0.08719823 0.3997903 -0.1723651 0.3997903 -0.08719812 0.4156724 -0.172365 0.4156724 -0.08719796 0.4332406 -0.172365 0.4332406 -0.08719796 0.4543726 -0.1723649 0.4543726 -0.08719796 0.654931 -0.08719988 0.654931 -0.172364 0.4739558 -0.1723648 0.4739558 -0.08719796 0.4936943 -0.1723647 0.4936943 -0.08719812 0.5136688 -0.1723644 0.5136688 -0.08719823 0.5304146 -0.1723642 0.5304146 -0.08719833 0.5461293 -0.1723641 0.5461293 -0.0871986 0.6427784 -0.08719978 0.6427784 -0.1723638 0.5613523 -0.172364 0.5613523 -0.08719887 0.5757442 -0.172364 0.5757442 -0.08719914 0.5936865 -0.1723638 0.5936865 -0.08719935 0.611299 -0.1723638 0.611299 -0.08719951 0.6268502 -0.08719961 0.6268502 -0.1723638 0.1512579 0.2991991 0.1449836 0.303633 0.1409384 0.3103104 0.1251266 0.3127141 0.1124539 0.3190698 0.1082472 0.3273155 0.1125211 0.3355279 0.1252433 0.3417832 0.141071 0.3440609 0.14517 0.3507048 0.1514791 0.3550878 0.1619612 0.3567436 0.1740617 0.3558145 0.1856734 0.3511229 0.1939195 0.344453 0.2059654 0.339011 0 0.1017381 0 0.01687126 0.2875407 0.102159 0.3002907 0.102159 0.3002908 0.01754494 0.2875407 0.01754489 0.1518884 0.101895 0.2797192 0.101895 0.2797191 0.01731616 0.1518884 0.01731621 0.2309307 0.01731621 0.2158038 0.01731621 0.1777178 0.01731621 0.1777179 0.101895 0.2006769 0.01731621 0.2006768 0.1018951 0.2538898 0.1018951 0.2538897 0.01731621 0.2158038 0.1018951 0.2309307 0.1018951 0.3158595 0.007954475 0.274715 0.007954475 0.274715 -0.0769385 0.3158595 -0.07693831 0.2351923 0.007954367 0.2351923 -0.07693884 0.1959783 0.007954154 0.1959783 -0.07693908 0.1633279 0.007953941 0.1633279 -0.07693921 0.1281693 0.007953754 0.1281693 -0.07693937 0.09560767 0.007953621 0.09560767 -0.07693943 0.06603386 0.007953567 0.06603386 -0.07693948 0.03628897 0.007953487 0.03628897 -0.07693948 -2.40962e-4 0.007953487 -2.40879e-4 -0.07693948 0.3257082 0.3414414 0.3383125 0.335021 0.3059584 0.3506133 0.3099814 0.3438703 0.2893041 0.3568483 0.2997181 0.355091 0.342496 0.3266923 0.3382419 0.3183981 0.2656693 0.3513636 0.277259 0.3560079 0.2453838 0.339295 0.2574115 0.344694 0.2312048 0.315697 0.2313905 0.3385097 0.4311985 0.0175451 0.4311984 0.102159 0.654931 0.008087586 0.6427784 0.008087506 0.6427784 -0.07682499 0.654931 -0.07682446 0.6268502 0.008087025 0.6268502 -0.07682563 0.611299 0.008086491 0.611299 -0.07682627 0.5936865 0.008085825 0.5936865 -0.07682712 0.5757442 0.008085051 0.5757442 -0.07682798 0.5613523 0.008084384 0.5613523 -0.07682884 0.3466148 -0.07684538 0.5461293 0.008083584 0.5461293 -0.07682969 0.3466148 0.008068322 0.5304146 0.008082703 0.5304146 -0.07683065 0.5136688 0.008081689 0.5136688 -0.07683183 0.4936943 0.008080328 0.4936943 -0.07683321 0.325006 -0.07684735 0.4739558 0.008078914 0.4739558 -0.0768347 0.325006 0.008066374 0.4543726 0.008077446 0.4543726 -0.0768362 0.4332406 0.008075766 0.4332406 -0.0768379 0.4156724 0.008074352 0.4156724 -0.07683945 0.3648619 -0.07684378 0.3997903 0.008072991 0.3997903 -0.07684074 0.3648619 0.008069923 0.3825051 0.00807147 0.3825051 -0.07684228 0.654931 -0.172364 0.654931 -0.08719988 0.6427784 -0.08719978 0.6427784 -0.1723638 0.6268502 -0.08719961 0.6268502 -0.1723638 0.611299 -0.08719951 0.611299 -0.1723638 0.5936865 -0.08719935 0.5936865 -0.1723638 0.5757442 -0.08719914 0.5757442 -0.172364 0.5613523 -0.08719887 0.5613523 -0.172364 0.5461293 -0.0871986 0.5461293 -0.1723641 0.5304146 -0.08719833 0.5304146 -0.1723642 0.5136688 -0.08719823 0.5136688 -0.1723644 0.4936943 -0.08719812 0.4936943 -0.1723647 0.4739558 -0.08719796 0.4739558 -0.1723648 0.4543726 -0.08719796 0.4543726 -0.1723649 0.4332406 -0.08719796 0.4332406 -0.172365 0.4156724 -0.08719796 0.4156724 -0.172365 0.3997903 -0.08719812 0.3997903 -0.1723651 0.3825051 -0.08719823 0.3825051 -0.1723653 0.3648619 -0.0871985 0.3648619 -0.1723653 0.3466148 -0.08719887 0.3466148 -0.1723653 0.325006 -0.08719897 0.325006 -0.1723655 0.3158595 -0.1719196 0.3158595 -0.08749484 0.274715 -0.08749484 0.274715 -0.1719198 0.2351923 -0.08749484 0.2351923 -0.1719199 0.1959783 -0.08749484 0.1959783 -0.17192 0.1633279 -0.08749471 0.1633279 -0.1719201 0.1281693 -0.0874946 0.1281693 -0.1719201 0.09560767 -0.08749447 0.09560767 -0.1719203 0.06603386 -0.08749434 0.06603386 -0.1719203 0.03628897 -0.08749434 0.03628897 -0.1719203 -4.15756e-4 -0.08749434 -4.15756e-4 -0.1719203 -0.09860387 0.3687832 -0.07120874 0.3687832 -0.07120874 0.4303138 -0.09860387 0.4303138 0.4591036 0.1069552 0.4591012 0.1915912 0.4321494 0.1915905 0.4321518 0.1069544 0.4045089 0.1915897 0.4045114 0.1069536 0.3763157 0.1915888 0.3763183 0.1069528 0.3498075 0.191588 0.3498102 0.106952 0.3272668 0.1915873 0.3272696 0.1069513 0.3064198 0.1915865 0.3064227 0.1069506 0.2810261 0.1915856 0.281029 0.1069498 0.2560513 0.1915848 0.2560542 0.1069489 0.2294813 0.1915839 0.2294842 0.106948 0.2158038 0.01731621 0.2158038 0.1018951 0.2006768 0.1018951 0.2006769 0.01731621 0.1777179 0.101895 0.1777178 0.01731621 0.1518884 0.101895 0.1518884 0.01731621 0.1440924 0.01687084 0.1440924 0.1017385 0.1313042 0.1017385 0.131304 0.01687084 0.1187949 0.1017383 0.1187948 0.01687084 0.1015939 0.1017384 0.101594 0.01687097 0.08192839 0.1017383 0.08192818 0.01687113 0.06159293 0.1017381 0.06159295 0.01687113 0.04430434 0.1017381 0.04430434 0.01687113 0.02283182 0.1017381 0.02283182 0.01687126 0 0.1017381 0 0.01687126 0.2200244 0.3381213 0.2202205 0.3872657 0.2127878 0.3864909 0.2040596 0.3821098 0.1945757 0.3808915 0.1838209 0.3821609 0.1738483 0.3868129 0.1672107 0.3925805 0.1618614 0.4001488 0.1570272 0.4083923 0.1493858 0.4151934 0.1386666 0.4211039 0.1269107 0.4240842 0.1148895 0.4248086 0.102088 0.4226019 0.09336919 0.4163166 0.08848473 0.4079848 0.08607756 0.3977857 0.08605675 0.3870976 0.08878962 0.3763763 0.09442448 0.3645208 0.07047939 0.372828 0.05051981 0.3866288 0.03251465 0.40255 0.02133093 0.4190558 0.006183799 0.4343531 -0.01100986 0.4445918 -0.02906486 0.4471973 -0.04714369 0.4440818 -0.06641883 0.4308775 -0.06641883 0.3680801 -0.04916171 0.3648895 -0.0321308 0.3664741 -0.01570253 0.3722658 6.93478e-4 0.3717043 0.01273982 0.3647742 0.0171414 0.3528279 0.001826158 0.3493555 -0.01146589 0.3415856 -0.02015153 0.3278319 -0.01158035 0.3140084 0.001646549 0.306131 0.01693265 0.3025348 0.01243215 0.2906239 3.28669e-4 0.2837906 -0.01607133 0.2833606 -0.032451 0.2892839 -0.04946797 0.2910052 -0.06641883 0.2879461 -0.06641883 0.2251493 -0.04810563 0.2118002 -0.03005342 0.2085395 -0.0119776 0.2109999 0.005300019 0.2210999 0.02057327 0.236275 0.03189334 0.2526901 0.05003006 0.2684659 0.07010376 0.2821058 0.09411754 0.2902204 0.08838407 0.278408 0.08556259 0.2677068 0.0854954 0.2570168 0.08781897 0.2467967 0.09263568 0.2384246 0.1013042 0.2320685 0.1140897 0.2297592 0.1261188 0.2303877 0.1379012 0.2332747 0.1486707 0.2391004 0.1563693 0.2458417 0.1612722 0.2540478 0.1666847 0.2615747 0.1733711 0.2672903 0.1833843 0.2718638 0.1941521 0.273048 0.2036283 0.2717541 0.2123227 0.2673031 0.2197508 0.2664692 0.2199557 0.3156261 0.2058863 0.3148474 0.1937934 0.3094997 0.185491 0.3028935 0.1738386 0.298293 0.1617282 0.2974597 0.1512579 0.2991991 0.1449836 0.303633 0.1409384 0.3103104 0.1251266 0.3127141 0.1124539 0.3190698 0.1082472 0.3273155 0.1125211 0.3355279 0.1252433 0.3417832 0.141071 0.3440609 0.14517 0.3507048 0.1514791 0.3550878 0.1619612 0.3567436 0.1740617 0.3558145 0.1856734 0.3511229 0.1939195 0.344453 0.2059654 0.339011 0.2312048 0.315697 0.2311117 0.266033 0.2385058 0.2668462 0.2471799 0.2712884 0.2566116 0.2725356 0.2673094 0.2712685 0.2772307 0.2665787 0.2838351 0.2607567 0.2891584 0.2531139 0.2939698 0.2447886 0.3015736 0.2379205 0.3122398 0.2319526 0.3239368 0.2289445 0.3358974 0.228215 0.3486337 0.2304462 0.3573074 0.2367965 0.3621656 0.2452133 0.3645588 0.2555158 0.3645773 0.2663118 0.3618561 0.2771407 0.3562472 0.2891148 0.3800682 0.2807234 0.3999235 0.2667838 0.4178342 0.2507026 0.4289584 0.2340314 0.4440257 0.21858 0.4611296 0.2082376 0.4790912 0.2056043 0.4970769 0.2087491 0.5159715 0.2220829 0.5159715 0.2855058 0.499093 0.2887299 0.4821497 0.2871313 0.4658056 0.2812837 0.4494942 0.2818527 0.4375105 0.2888533 0.4331323 0.3009195 0.4483691 0.3044258 0.4615932 0.3122728 0.4702347 0.3261637 0.4617084 0.3401255 0.4485495 0.3480817 0.4333422 0.3517139 0.4378201 0.3637428 0.4498616 0.3706426 0.4661771 0.3710747 0.4824717 0.3650903 0.4994009 0.3633496 0.5159715 0.3664372 0.5159715 0.4298604 0.4980553 0.443345 0.4800963 0.4466403 0.4621132 0.4441577 0.4449231 0.4339589 0.4297265 0.4186342 0.4184626 0.4020564 0.4004174 0.3861245 0.3804459 0.3723494 0.3565552 0.3641548 0.3622585 0.3760825 0.3650655 0.3868881 0.3651328 0.3976826 0.362822 0.4080027 0.3580315 0.4164569 0.3494095 0.4228756 0.3366924 0.425208 0.3247275 0.424574 0.3130078 0.4216594 0.3022955 0.4157771 0.2946377 0.4089704 0.2897605 0.4006841 0.2843765 0.3930838 0.2777257 0.3873126 0.2677664 0.3826947 0.2570568 0.3814995 0.247632 0.3828064 0.2389851 0.3873011 0.2315973 0.3881435 0.2313905 0.3385097 0.2453838 0.339295 0.2574115 0.344694 0.2656693 0.3513636 0.277259 0.3560079 0.2893041 0.3568483 0.2997181 0.355091 0.3059584 0.3506133 0.3099814 0.3438703 0.3257082 0.3414414 0.3383125 0.335021 0.342496 0.3266923 0.3382419 0.3183981 0.3255807 0.3120787 0.3098313 0.3097759 0.3057534 0.3030639 0.2994758 0.2986354 0.2890428 0.2969605 0.2769945 0.2978938 0.2654258 0.3026223 0.257204 0.309349 0.2452017 0.3148257 0.2029113 0.1915828 0.2029141 0.1069472 0.1779394 0.1069463 0.1779366 0.191582 0.1525458 0.1069456 0.1525431 0.1915811 0.1316989 0.1069449 0.1316963 0.1915804 0.1091583 0.1069443 0.1091559 0.1915797 0.08265031 0.1069436 0.08264807 0.1915789 0.05445734 0.106943 0.05445538 0.191578 0.02681709 0.1069424 0.02681543 0.1915773 -1.33995e-4 0.1069424 -1.35823e-4 0.1915767 -0.09829773 0.3633364 -0.09829773 0.3018058 -0.07090262 0.3018058 -0.07090262 0.3633364 0.03628897 0.007953487 -2.40962e-4 0.007953487 -2.40879e-4 -0.07693948 0.03628897 -0.07693948 0.06603386 0.007953567 0.06603386 -0.07693948 0.09560767 0.007953621 0.09560767 -0.07693943 0.1281693 0.007953754 0.1281693 -0.07693937 0.1633279 0.007953941 0.1633279 -0.07693921 0.1959783 0.007954154 0.1959783 -0.07693908 0.2351923 0.007954367 0.2351923 -0.07693884 0.274715 0.007954475 0.274715 -0.0769385 0.3158595 0.007954475 0.3158595 -0.07693831 0.3466148 0.008068322 0.325006 0.008066374 0.325006 -0.07684735 0.3466148 -0.07684538 0.3648619 0.008069922 0.3648619 -0.07684378 0.3825051 0.00807147 0.3825051 -0.07684228 0.3997903 0.008072991 0.3997903 -0.07684074 0.4156724 0.008074352 0.4156724 -0.07683945 0.4332406 0.008075766 0.4332406 -0.0768379 0.4543726 0.008077446 0.4543726 -0.0768362 0.4739558 0.008078914 0.4739558 -0.0768347 0.4936943 0.008080328 0.4936943 -0.07683321 0.5136688 0.008081689 0.5136688 -0.07683183 0.5304146 0.008082703 0.5304146 -0.07683065 0.5461293 0.008083584 0.5461293 -0.07682969 0.5613523 0.008084384 0.5613523 -0.07682883 0.5757442 0.008085051 0.5757442 -0.07682798 0.5936865 0.008085825 0.5936865 -0.07682712 0.611299 0.008086491 0.611299 -0.07682627 0.6268502 0.008087025 0.6268502 -0.07682563 0.6427784 0.008087506 0.6427784 -0.07682499 0.654931 0.008087586 0.654931 -0.07682446 0.4311985 0.0175451 0.4311984 0.102159 0.4084398 0.102159 0.4084398 0.01754508 0.3870312 0.01754505 0.387031 0.102159 0.369794 0.01754505 0.369794 0.102159 0.3495192 0.017545 0.3495193 0.102159 0.3299123 0.01754497 0.3299122 0.102159 0.3127628 0.01754494 0.3127626 0.102159 0.3002908 0.01754494 0.3002907 0.102159 0.2875407 0.01754489 0.2875407 0.102159 0.2538897 0.01731621 0.2797191 0.01731616 0.2797192 0.101895 0.2538898 0.1018951 0.2309307 0.01731621 0.2309307 0.1018951 -0.0393162 1.606552 -0.0393163 1.287458 -7.94358e-4 1.287458 -7.944e-4 1.606552 1.540079 1.287458 1.540079 1.606552 1.578601 1.287458 1.578601 1.606552 -1.58019 1.606552 -1.580189 1.287458 -7.94326e-4 1.248936 1.540079 1.248936 1.540079 1.645074 -7.94265e-4 1.645074 0.455885 0.6277197 0.1367533 0.6277228 0.1309285 0.6035466 0.4617094 0.6035435 0.1123909 0.5969692 0.4802468 0.5969659 0.4934395 0.5853268 0.099198 0.5853305 0.0955722 0.5676138 0.497065 0.5676099 0.09557206 0.5506703 0.4970649 0.5506664 0.09557107 0.4736173 0.4970644 0.4736134 0.09557093 0.4566738 0.4970642 0.4566699 0.09919641 0.4389569 0.4934385 0.4389532 0.4802456 0.4273145 0.112389 0.4273179 0.1309265 0.4207402 0.4617079 0.420737 0.1369579 0.3965639 0.4556761 0.3965609 0.1371644 0.3197111 0.4554682 0.3197081 -0.001585692 0.5506713 -0.001586964 0.4736189 0.02328063 0.4736185 0.0232819 0.5506709 0.04295047 0.4736181 0.0429516 0.5506707 0.0605445 0.5506705 0.06054344 0.4736178 0.07862742 0.4736175 0.07862847 0.5506704 0.5942224 0.4736133 0.5942225 0.5506656 0.5693549 0.5506658 0.5693547 0.4736133 0.5496852 0.5506659 0.5496849 0.4736133 0.532092 0.4736133 0.5320923 0.550666 0.5140084 0.5506663 0.514008 0.4736134 0.4558849 0.4504815 0.1367533 0.4504846 0.1309285 0.4263084 0.4617093 0.4263053 0.1123909 0.419731 0.4802468 0.4197277 0.4934394 0.4080886 0.09919798 0.4080923 0.09557219 0.3903756 0.4970649 0.3903717 0.09557205 0.373432 0.4970649 0.3734281 0.09557106 0.2963791 0.4970643 0.2963752 0.09557092 0.2794356 0.4970641 0.2794317 0.0991964 0.2617187 0.4934384 0.261715 0.4802455 0.2500763 0.112389 0.2500797 0.1309265 0.243502 0.4617079 0.2434988 0.1369579 0.2193258 0.455676 0.2193227 0.1371644 0.142473 0.4554681 0.1424699 -0.001585692 0.3734331 -0.001586964 0.2963807 0.02328062 0.2963803 0.0232819 0.3734327 0.04295047 0.2963799 0.0429516 0.3734325 0.06054449 0.3734323 0.06054343 0.2963795 0.07862741 0.2963793 0.07862847 0.3734322 0.5942223 0.2963751 0.5942225 0.3734274 0.5693548 0.3734276 0.5693547 0.2963751 0.5496852 0.3734276 0.5496848 0.296375 0.5320919 0.2963751 0.5320923 0.3734278 0.5140083 0.373428 0.5140079 0.2963752 0.4558849 0.2732434 0.1367533 0.2732465 0.1309285 0.2490703 0.4617093 0.2490672 0.1123909 0.2424929 0.4802468 0.2424896 0.4934395 0.2308505 0.09919799 0.2308542 0.0955722 0.2131374 0.497065 0.2131336 0.09557205 0.1961939 0.4970649 0.1961901 0.09557106 0.119141 0.4970644 0.1191371 0.09557092 0.1021975 0.4970642 0.1021936 0.0991964 0.08448058 0.4934385 0.08447684 0.4802456 0.07283811 0.112389 0.07284158 0.1309265 0.06626385 0.4617079 0.06626067 0.1369579 0.04208761 0.4556761 0.04208457 0.1371644 -0.03476518 0.4554681 -0.03476822 -0.001585692 0.196195 -0.001586964 0.1191425 0.02328063 0.1191422 0.0232819 0.1961946 0.04295047 0.1191418 0.0429516 0.1961944 0.06054449 0.1961942 0.06054344 0.1191414 0.07862742 0.1191412 0.07862847 0.1961941 0.5942224 0.119137 0.5942225 0.1961893 0.569355 0.1961894 0.5693548 0.119137 0.5496852 0.1961896 0.5496849 0.1191369 0.532092 0.119137 0.5320924 0.1961897 0.5140084 0.1961899 0.514008 0.119137 -0.05406517 0.8084278 -0.05406474 0.2837074 4.35824e-4 0.2837067 4.35608e-4 0.8084282 1.757247 0.2837071 1.757247 0.8084298 1.811748 0.2837071 1.811748 0.8084301 -1.810872 0.8084263 -1.810871 0.2837057 4.35824e-4 0.2292062 1.757247 0.2292065 1.757247 0.8629305 4.35608e-4 0.8629289</float_array>
          <technique_common>
            <accessor source="#wooden_bench_pureShape-map1-array" count="998" stride="2">
              <param name="S" type="float"/>
              <param name="T" type="float"/>
            </accessor>
          </technique_common>
        </source>
        <vertices id="wooden_bench_pureShape-vertices" name="wooden_bench_pureShape-vertices">
          <input semantic="POSITION" source="#wooden_bench_pureShape-positions"/>
        </vertices>
        <triangles material="lambert6SG" count="940">
          <input semantic="VERTEX" source="#wooden_bench_pureShape-vertices" offset="0"/>
          <input semantic="NORMAL" source="#wooden_bench_pureShape-normals" offset="1"/>
          <input semantic="TEXCOORD" source="#wooden_bench_pureShape-map1" offset="2" set="0"/>
          <p>6 0 281 7 1 280 9 3 293 9 3 293 7 1 280 8 2 292 9 3 293 8 2 292 11 5 303 11 5 303 8 2 292 10 4 302 11 5 303 10 4 302 13 7 300 13 7 300 10 4 302 12 6 301 13 7 300 12 6 301 15 9 298 15 9 298 12 6 301 14 8 299 15 9 298 14 8 299 17 11 296 17 11 296 14 8 299 16 10 297 17 11 296 16 10 297 19 13 294 19 13 294 16 10 297 18 12 295 19 13 294 18 12 295 21 15 290 21 15 290 18 12 295 20 14 291 21 15 290 20 14 291 23 17 288 23 17 288 20 14 291 22 16 289 23 17 288 22 16 289 25 19 286 25 19 286 22 16 289 24 18 287 25 19 286 24 18 287 27 21 284 27 21 284 24 18 287 26 20 285 27 21 284 26 20 285 29 23 282 29 23 282 26 20 285 28 22 283 29 23 282 28 22 283 31 25 278 31 25 278 28 22 283 30 24 279 31 25 278 30 24 279 33 27 276 33 27 276 30 24 279 32 26 277 33 27 276 32 26 277 35 29 274 35 29 274 32 26 277 34 28 275 35 29 274 34 28 275 37 31 272 37 31 272 34 28 275 36 30 273 37 31 272 36 30 273 39 33 270 39 33 270 36 30 273 38 32 271 39 33 270 38 32 271 41 35 268 41 35 268 38 32 271 40 34 269 41 35 268 40 34 269 43 37 264 43 37 264 40 34 269 42 36 265 43 37 264 42 36 265 45 39 267 45 39 267 42 36 265 44 38 266 45 40 246 44 41 247 47 43 244 47 43 244 44 41 247 46 42 245 47 43 244 46 42 245 49 45 242 49 45 242 46 42 245 48 44 243 49 45 242 48 44 243 51 47 240 51 47 240 48 44 243 50 46 241 51 47 240 50 46 241 53 49 238 53 49 238 50 46 241 52 48 239 53 49 238 52 48 239 55 51 236 55 51 236 52 48 239 54 50 237 55 51 236 54 50 237 57 53 232 57 53 232 54 50 237 56 52 233 57 53 232 56 52 233 59 55 228 59 55 228 56 52 233 58 54 229 59 55 228 58 54 229 61 57 231 61 57 231 58 54 229 60 56 230 61 57 231 60 56 230 63 59 235 63 59 235 60 56 230 62 58 234 63 60 224 62 61 225 65 63 227 65 63 227 62 61 225 64 62 226 65 64 219 64 65 218 67 67 215 67 67 215 64 65 218 66 66 214 67 67 215 66 66 214 69 69 209 69 69 209 66 66 214 68 68 208 69 69 209 68 68 208 71 71 207 71 71 207 68 68 208 70 70 204 71 71 207 70 70 204 73 73 217 73 73 217 70 70 204 72 72 216 73 73 217 72 72 216 75 75 206 75 75 206 72 72 216 74 74 205 75 75 206 74 74 205 77 77 212 77 77 212 74 74 205 76 76 213 77 78 212 76 79 213 79 81 210 79 81 210 76 79 213 78 80 211 79 81 210 78 80 211 81 83 200 81 83 200 78 80 211 80 82 199 82 84 201 83 85 198 80 82 199 80 82 199 83 85 198 81 83 200 84 86 331 85 87 338 87 89 334 87 89 334 85 87 338 86 88 335 87 89 334 86 88 335 89 91 332 89 91 332 86 88 335 88 90 333 89 91 332 88 90 333 91 93 329 91 93 329 88 90 333 90 92 326 91 94 14 90 95 15 93 97 12 93 97 12 90 95 15 92 96 13 93 97 12 92 96 13 95 99 10 95 99 10 92 96 13 94 98 11 95 99 10 94 98 11 97 101 8 97 101 8 94 98 11 96 100 9 97 101 8 96 100 9 99 103 6 99 103 6 96 100 9 98 102 7 99 103 6 98 102 7 101 105 4 101 105 4 98 102 7 100 104 5 101 105 4 100 104 5 103 107 2 103 107 2 100 104 5 102 106 3 103 107 2 102 106 3 105 109 0 105 109 0 102 106 3 104 108 1 3 110 320 2 111 321 104 108 1 104 108 1 2 111 321 105 109 0 6 113 136 9 114 137 2 112 257 9 114 137 11 115 138 2 112 257 2 112 257 11 115 138 105 211 319 105 211 319 11 115 138 103 210 318 103 210 318 11 115 138 101 209 317 11 115 138 13 116 139 101 209 317 13 116 139 15 117 140 101 209 317 101 209 317 15 117 140 99 208 316 4 189 135 0 190 258 142 188 134 142 188 134 0 190 258 141 187 133 0 190 258 143 191 259 141 187 133 143 191 259 144 192 260 141 187 133 144 192 260 145 193 261 141 187 133 141 187 133 145 193 261 140 186 132 140 186 132 145 193 261 139 185 131 145 193 261 146 194 262 139 185 131 15 117 140 17 118 141 99 208 316 99 208 316 17 118 141 97 207 315 139 185 131 146 194 262 138 184 130 146 194 262 147 195 263 138 184 130 65 142 165 67 143 166 63 141 164 67 143 166 69 144 167 63 141 164 69 144 167 71 145 168 63 141 164 63 141 164 71 145 168 61 140 163 61 140 163 71 145 168 59 139 162 59 139 162 71 145 168 57 138 161 57 138 161 71 145 168 55 137 160 55 137 160 71 145 168 53 136 159 71 145 168 73 146 169 53 136 159 53 136 159 73 146 169 51 135 158 73 146 169 75 147 170 51 135 158 51 135 158 75 147 170 49 134 157 75 147 170 77 148 171 49 134 157 49 134 157 77 148 171 47 133 156 114 160 106 115 161 107 113 159 105 113 159 105 115 161 107 112 158 104 112 158 104 115 161 107 111 157 103 115 161 107 116 162 108 111 157 103 116 162 108 117 163 109 111 157 103 117 163 109 118 164 110 111 157 103 118 164 110 119 165 111 111 157 103 119 165 111 120 166 112 111 157 103 111 157 103 120 166 112 110 156 102 120 166 112 121 167 113 110 156 102 110 156 102 121 167 113 109 155 101 121 167 113 122 168 114 109 155 101 109 155 101 122 168 114 108 154 100 122 168 114 123 169 115 108 154 100 17 118 141 19 119 142 97 207 315 97 207 315 19 119 142 95 206 314 138 184 130 147 195 263 137 183 129 147 195 263 148 196 304 137 183 129 83 151 97 106 152 98 81 150 173 81 150 173 106 152 98 79 149 172 106 152 98 107 153 99 79 149 172 79 149 172 107 153 99 77 148 171 107 153 99 108 154 100 77 148 171 77 148 171 108 154 100 47 133 156 108 154 100 123 169 115 47 133 156 47 133 156 123 169 115 45 132 155 123 169 115 124 170 116 45 132 155 19 119 142 21 120 143 95 206 314 137 183 129 148 196 304 136 182 128 150 198 306 151 199 307 149 197 305 91 204 312 93 205 313 89 203 311 33 126 149 35 127 150 31 125 148 130 176 122 131 177 123 129 175 121 23 121 144 25 122 145 21 120 143 27 123 146 29 124 147 25 122 145 37 128 151 39 129 152 35 127 150 128 174 120 129 175 121 127 173 119 133 179 125 134 180 126 132 178 124 135 181 127 136 182 128 134 180 126 41 130 153 43 131 154 39 129 152 125 171 117 126 172 118 124 170 116 21 120 143 25 122 145 95 206 314 25 122 145 29 124 147 95 206 314 95 206 314 29 124 147 93 205 313 93 205 313 29 124 147 89 203 311 29 124 147 31 125 148 89 203 311 31 125 148 35 127 150 89 203 311 35 127 150 39 129 152 89 203 311 39 129 152 43 131 154 89 203 311 43 131 154 45 132 155 89 203 311 89 203 311 45 132 155 87 202 310 87 202 310 45 132 155 84 201 309 45 132 155 124 170 116 84 201 309 84 201 309 124 170 116 152 200 308 152 200 308 124 170 116 151 199 307 151 199 307 124 170 116 149 197 305 124 170 116 126 172 118 149 197 305 149 197 305 126 172 118 148 196 304 148 196 304 126 172 118 136 182 128 136 182 128 126 172 118 134 180 126 134 180 126 126 172 118 132 178 124 132 178 124 126 172 118 131 177 123 126 172 118 127 173 119 131 177 123 127 173 119 129 175 121 131 177 123 5 213 20 153 214 21 1 212 372 153 214 21 154 215 22 1 212 372 1 212 372 154 215 22 199 311 256 199 311 256 154 215 22 198 310 255 198 310 255 154 215 22 197 309 254 154 215 22 155 216 23 197 309 254 155 216 23 156 217 24 197 309 254 197 309 254 156 217 24 196 308 253 7 289 96 3 290 373 8 288 95 8 288 95 3 290 373 10 287 94 3 290 373 104 291 370 10 287 94 104 291 370 102 292 371 10 287 94 102 292 371 100 293 368 10 287 94 10 287 94 100 293 368 12 286 93 12 286 93 100 293 368 14 285 92 100 293 368 98 294 369 14 285 92 156 217 24 157 218 25 196 308 253 196 308 253 157 218 25 195 307 252 14 285 92 98 294 369 16 284 91 98 294 369 96 295 364 16 284 91 181 242 49 182 243 50 180 241 48 182 243 50 183 244 51 180 241 48 183 244 51 184 245 52 180 241 48 180 241 48 184 245 52 179 240 47 179 240 47 184 245 52 178 239 46 178 239 46 184 245 52 177 238 45 177 238 45 184 245 52 176 237 44 176 237 44 184 245 52 175 236 43 184 245 52 185 246 53 175 236 43 175 236 43 185 246 53 174 235 42 185 246 53 186 247 54 174 235 42 174 235 42 186 247 54 173 234 41 186 247 54 187 248 55 173 234 41 173 234 41 187 248 55 172 233 40 64 260 67 62 261 68 66 259 66 66 259 66 62 261 68 68 258 65 68 258 65 62 261 68 70 257 64 62 261 68 60 262 69 70 257 64 60 262 69 58 263 70 70 257 64 58 263 70 56 264 71 70 257 64 56 264 71 54 265 72 70 257 64 54 265 72 52 266 73 70 257 64 70 257 64 52 266 73 72 256 63 52 266 73 50 267 74 72 256 63 72 256 63 50 267 74 74 255 62 50 267 74 48 268 75 74 255 62 74 255 62 48 268 75 76 254 61 48 268 75 46 269 76 76 254 61 157 218 25 158 219 26 195 307 252 195 307 252 158 219 26 194 306 251 16 284 91 96 295 364 18 283 90 96 295 364 94 296 365 18 283 90 82 251 58 80 252 59 189 250 57 189 250 57 80 252 59 188 249 56 80 252 59 78 253 60 188 249 56 188 249 56 78 253 60 187 248 55 78 253 60 76 254 61 187 248 55 187 248 55 76 254 61 172 233 40 76 254 61 46 269 76 172 233 40 172 233 40 46 269 76 171 232 39 46 269 76 44 270 77 171 232 39 158 219 26 159 220 27 194 306 251 18 283 90 94 296 365 20 282 89 90 298 363 88 299 360 92 297 362 192 304 249 193 305 250 191 303 248 165 226 33 166 227 34 164 225 32 32 276 83 30 277 84 34 275 82 160 221 28 161 222 29 159 220 27 162 223 30 163 224 31 161 222 29 167 228 35 168 229 36 166 227 34 36 274 81 34 275 82 38 273 80 26 279 86 24 280 87 28 278 85 22 281 88 20 282 89 24 280 87 169 230 37 170 231 38 168 229 36 42 271 78 40 272 79 44 270 77 159 220 27 161 222 29 194 306 251 161 222 29 163 224 31 194 306 251 194 306 251 163 224 31 193 305 250 193 305 250 163 224 31 191 303 248 163 224 31 164 225 32 191 303 248 164 225 32 166 227 34 191 303 248 166 227 34 168 229 36 191 303 248 168 229 36 170 231 38 191 303 248 170 231 38 171 232 39 191 303 248 191 303 248 171 232 39 190 302 367 190 302 367 171 232 39 85 301 366 171 232 39 44 270 77 85 301 366 85 301 366 44 270 77 86 300 361 86 300 361 44 270 77 88 299 360 88 299 360 44 270 77 92 297 362 44 270 77 40 272 79 92 297 362 92 297 362 40 272 79 94 296 365 94 296 365 40 272 79 20 282 89 20 282 89 40 272 79 24 280 87 24 280 87 40 272 79 28 278 85 28 278 85 40 272 79 30 277 84 40 272 79 38 273 80 30 277 84 38 273 80 34 275 82 30 277 84 82 312 201 189 313 203 83 315 198 83 315 198 189 313 203 106 314 202 107 316 194 106 314 202 188 317 197 188 317 197 106 314 202 189 313 203 108 318 195 107 316 194 187 319 196 187 319 196 107 316 194 188 317 197 109 320 192 108 321 195 186 323 193 186 323 193 108 321 195 187 322 196 110 324 190 109 320 192 185 325 191 185 325 191 109 320 192 186 323 193 111 326 188 110 324 190 184 327 189 184 327 189 110 324 190 185 325 191 112 328 186 111 326 188 183 329 187 183 329 187 111 326 188 184 327 189 113 330 183 112 328 186 182 331 184 182 331 184 112 328 186 183 329 187 114 332 182 113 330 183 181 333 185 181 333 185 113 330 183 182 331 184 115 334 220 114 335 221 180 337 223 180 337 223 114 335 221 181 336 222 116 338 356 115 339 358 179 341 357 179 341 357 115 339 358 180 340 359 117 342 354 116 338 356 178 343 355 178 343 355 116 338 356 179 341 357 118 344 352 117 342 354 177 345 353 177 345 353 117 342 354 178 343 355 119 346 350 118 344 352 176 347 351 176 347 351 118 344 352 177 345 353 120 348 348 119 346 350 175 349 349 175 349 349 119 346 350 176 347 351 121 350 346 120 348 348 174 351 347 174 351 347 120 348 348 175 349 349 122 352 344 121 350 346 173 353 345 173 353 345 121 350 346 174 351 347 123 354 341 122 352 344 172 355 342 172 355 342 122 352 344 173 353 345 124 356 340 123 354 341 171 357 343 171 357 343 123 354 341 172 355 342 125 358 393 124 359 403 170 361 390 170 361 390 124 359 403 171 360 400 126 362 413 125 358 393 169 363 410 169 363 410 125 358 393 170 361 390 127 364 414 126 362 413 168 365 415 168 365 415 126 362 413 169 363 410 128 366 411 127 364 414 167 367 412 167 367 412 127 364 414 168 365 415 129 368 408 128 366 411 166 369 409 166 369 409 128 366 411 167 367 412 130 370 406 129 368 408 165 371 407 165 371 407 129 368 408 166 369 409 131 372 404 130 370 406 164 373 405 164 373 405 130 370 406 165 371 407 132 374 401 131 372 404 163 375 402 163 375 402 131 372 404 164 373 405 133 376 398 132 374 401 162 377 399 162 377 399 132 374 401 163 375 402 134 378 396 133 376 398 161 379 397 161 379 397 133 376 398 162 377 399 135 380 394 134 378 396 160 381 395 160 381 395 134 378 396 161 379 397 136 382 391 135 380 394 159 383 392 159 383 392 135 380 394 160 381 395 137 384 388 136 382 391 158 385 389 158 385 389 136 382 391 159 383 392 138 386 386 137 384 388 157 387 387 157 387 387 137 384 388 158 385 389 139 388 384 138 386 386 156 389 385 156 389 385 138 386 386 157 387 387 140 390 382 139 388 384 155 391 383 155 391 383 139 388 384 156 389 385 141 392 380 140 390 382 154 393 381 154 393 381 140 390 382 155 391 383 142 394 377 141 392 380 153 395 378 153 395 378 141 392 380 154 393 381 4 396 376 142 394 377 5 397 379 5 397 379 142 394 377 153 395 378 0 398 374 1 399 375 143 401 17 143 401 17 1 399 375 199 400 16 144 402 19 143 401 17 198 403 18 198 403 18 143 401 17 199 400 16 145 404 175 144 402 19 197 405 174 197 405 174 144 402 19 198 403 18 146 406 177 145 404 175 196 407 176 196 407 176 145 404 175 197 405 174 147 408 179 146 406 177 195 409 178 195 409 178 146 406 177 196 407 176 148 410 181 147 408 179 194 411 180 194 411 180 147 408 179 195 409 178 149 412 324 148 410 181 193 413 323 193 413 323 148 410 181 194 411 180 150 414 325 149 412 324 192 415 322 192 415 322 149 412 324 193 413 323 151 416 337 150 417 328 191 419 336 191 419 336 150 417 328 192 418 327 152 420 330 151 416 337 190 421 339 190 421 339 151 416 337 191 419 336 84 86 331 152 420 330 85 87 338 85 87 338 152 420 330 190 421 339 206 422 416 207 423 417 209 425 419 209 425 419 207 423 417 208 424 418 209 425 419 208 424 418 211 427 421 211 427 421 208 424 418 210 426 420 211 427 421 210 426 420 213 429 423 213 429 423 210 426 420 212 428 422 213 429 423 212 428 422 215 431 425 215 431 425 212 428 422 214 430 424 215 431 425 214 430 424 217 433 427 217 433 427 214 430 424 216 432 426 217 433 427 216 432 426 219 435 429 219 435 429 216 432 426 218 434 428 219 435 429 218 434 428 221 437 431 221 437 431 218 434 428 220 436 430 221 437 431 220 436 430 223 439 433 223 439 433 220 436 430 222 438 432 223 439 433 222 438 432 225 441 435 225 441 435 222 438 432 224 440 434 225 441 435 224 440 434 227 443 437 227 443 437 224 440 434 226 442 436 227 443 437 226 442 436 229 445 439 229 445 439 226 442 436 228 444 438 229 445 439 228 444 438 231 447 441 231 447 441 228 444 438 230 446 440 231 447 441 230 446 440 233 449 443 233 449 443 230 446 440 232 448 442 233 449 443 232 448 442 235 451 445 235 451 445 232 448 442 234 450 444 235 451 445 234 450 444 237 453 447 237 453 447 234 450 444 236 452 446 237 453 447 236 452 446 239 455 449 239 455 449 236 452 446 238 454 448 239 455 449 238 454 448 241 457 451 241 457 451 238 454 448 240 456 450 241 457 451 240 456 450 243 459 453 243 459 453 240 456 450 242 458 452 243 459 453 242 458 452 245 461 455 245 461 455 242 458 452 244 460 454 245 462 456 244 463 457 247 465 459 247 465 459 244 463 457 246 464 458 247 465 459 246 464 458 249 467 461 249 467 461 246 464 458 248 466 460 249 467 461 248 466 460 251 469 463 251 469 463 248 466 460 250 468 462 251 469 463 250 468 462 253 471 465 253 471 465 250 468 462 252 470 464 253 471 465 252 470 464 255 473 467 255 473 467 252 470 464 254 472 466 255 473 467 254 472 466 257 475 469 257 475 469 254 472 466 256 474 468 257 475 469 256 474 468 259 477 471 259 477 471 256 474 468 258 476 470 259 477 471 258 476 470 261 479 473 261 479 473 258 476 470 260 478 472 261 479 473 260 478 472 263 481 475 263 481 475 260 478 472 262 480 474 263 482 476 262 483 477 265 485 479 265 485 479 262 483 477 264 484 478 265 486 480 264 487 481 267 489 483 267 489 483 264 487 481 266 488 482 267 489 483 266 488 482 269 491 485 269 491 485 266 488 482 268 490 484 269 491 485 268 490 484 271 493 487 271 493 487 268 490 484 270 492 486 271 493 487 270 492 486 273 495 489 273 495 489 270 492 486 272 494 488 273 495 489 272 494 488 275 497 491 275 497 491 272 494 488 274 496 490 275 497 491 274 496 490 277 499 493 277 499 493 274 496 490 276 498 492 277 500 493 276 501 492 279 503 495 279 503 495 276 501 492 278 502 494 279 503 495 278 502 494 281 505 497 281 505 497 278 502 494 280 504 496 282 506 498 283 507 499 280 504 496 280 504 496 283 507 499 281 505 497 284 508 500 285 509 501 287 511 503 287 511 503 285 509 501 286 510 502 287 511 503 286 510 502 289 513 505 289 513 505 286 510 502 288 512 504 289 513 505 288 512 504 291 515 507 291 515 507 288 512 504 290 514 506 291 516 508 290 517 509 293 519 511 293 519 511 290 517 509 292 518 510 293 519 511 292 518 510 295 521 513 295 521 513 292 518 510 294 520 512 295 521 513 294 520 512 297 523 515 297 523 515 294 520 512 296 522 514 297 523 515 296 522 514 299 525 517 299 525 517 296 522 514 298 524 516 299 525 517 298 524 516 301 527 519 301 527 519 298 524 516 300 526 518 301 527 519 300 526 518 303 529 521 303 529 521 300 526 518 302 528 520 303 529 521 302 528 520 305 531 523 305 531 523 302 528 520 304 530 522 203 532 524 202 533 525 304 530 522 304 530 522 202 533 525 305 531 523 206 535 527 209 536 528 202 534 526 209 536 528 211 537 529 202 534 526 202 534 526 211 537 529 305 633 625 305 633 625 211 537 529 303 632 624 303 632 624 211 537 529 301 631 623 211 537 529 213 538 530 301 631 623 213 538 530 215 539 531 301 631 623 301 631 623 215 539 531 299 630 622 204 611 603 200 612 604 342 610 602 342 610 602 200 612 604 341 609 601 200 612 604 343 613 605 341 609 601 343 613 605 344 614 606 341 609 601 344 614 606 345 615 607 341 609 601 341 609 601 345 615 607 340 608 600 340 608 600 345 615 607 339 607 599 345 615 607 346 616 608 339 607 599 215 539 531 217 540 532 299 630 622 299 630 622 217 540 532 297 629 621 339 607 599 346 616 608 338 606 598 346 616 608 347 617 609 338 606 598 265 564 556 267 565 557 263 563 555 267 565 557 269 566 558 263 563 555 269 566 558 271 567 559 263 563 555 263 563 555 271 567 559 261 562 554 261 562 554 271 567 559 259 561 553 259 561 553 271 567 559 257 560 552 257 560 552 271 567 559 255 559 551 255 559 551 271 567 559 253 558 550 271 567 559 273 568 560 253 558 550 253 558 550 273 568 560 251 557 549 273 568 560 275 569 561 251 557 549 251 557 549 275 569 561 249 556 548 275 569 561 277 570 562 249 556 548 249 556 548 277 570 562 247 555 547 314 582 574 315 583 575 313 581 573 313 581 573 315 583 575 312 580 572 312 580 572 315 583 575 311 579 571 315 583 575 316 584 576 311 579 571 316 584 576 317 585 577 311 579 571 317 585 577 318 586 578 311 579 571 318 586 578 319 587 579 311 579 571 319 587 579 320 588 580 311 579 571 311 579 571 320 588 580 310 578 570 320 588 580 321 589 581 310 578 570 310 578 570 321 589 581 309 577 569 321 589 581 322 590 582 309 577 569 309 577 569 322 590 582 308 576 568 322 590 582 323 591 583 308 576 568 217 540 532 219 541 533 297 629 621 297 629 621 219 541 533 295 628 620 338 606 598 347 617 609 337 605 597 347 617 609 348 618 610 337 605 597 283 573 565 306 574 566 281 572 564 281 572 564 306 574 566 279 571 563 306 574 566 307 575 567 279 571 563 279 571 563 307 575 567 277 570 562 307 575 567 308 576 568 277 570 562 277 570 562 308 576 568 247 555 547 308 576 568 323 591 583 247 555 547 247 555 547 323 591 583 245 554 546 323 591 583 324 592 584 245 554 546 219 541 533 221 542 534 295 628 620 337 605 597 348 618 610 336 604 596 350 620 612 351 621 613 349 619 611 291 626 618 293 627 619 289 625 617 233 548 540 235 549 541 231 547 539 330 598 590 331 599 591 329 597 589 223 543 535 225 544 536 221 542 534 227 545 537 229 546 538 225 544 536 237 550 542 239 551 543 235 549 541 328 596 588 329 597 589 327 595 587 333 601 593 334 602 594 332 600 592 335 603 595 336 604 596 334 602 594 241 552 544 243 553 545 239 551 543 325 593 585 326 594 586 324 592 584 221 542 534 225 544 536 295 628 620 225 544 536 229 546 538 295 628 620 295 628 620 229 546 538 293 627 619 293 627 619 229 546 538 289 625 617 229 546 538 231 547 539 289 625 617 231 547 539 235 549 541 289 625 617 235 549 541 239 551 543 289 625 617 239 551 543 243 553 545 289 625 617 243 553 545 245 554 546 289 625 617 289 625 617 245 554 546 287 624 616 287 624 616 245 554 546 284 623 615 245 554 546 324 592 584 284 623 615 284 623 615 324 592 584 352 622 614 352 622 614 324 592 584 351 621 613 351 621 613 324 592 584 349 619 611 324 592 584 326 594 586 349 619 611 349 619 611 326 594 586 348 618 610 348 618 610 326 594 586 336 604 596 336 604 596 326 594 586 334 602 594 334 602 594 326 594 586 332 600 592 332 600 592 326 594 586 331 599 591 326 594 586 327 595 587 331 599 591 327 595 587 329 597 589 331 599 591 205 635 627 353 636 628 201 634 626 353 636 628 354 637 629 201 634 626 201 634 626 354 637 629 399 733 725 399 733 725 354 637 629 398 732 724 398 732 724 354 637 629 397 731 723 354 637 629 355 638 630 397 731 723 355 638 630 356 639 631 397 731 723 397 731 723 356 639 631 396 730 722 207 711 703 203 712 704 208 710 702 208 710 702 203 712 704 210 709 701 203 712 704 304 713 705 210 709 701 304 713 705 302 714 706 210 709 701 302 714 706 300 715 707 210 709 701 210 709 701 300 715 707 212 708 700 212 708 700 300 715 707 214 707 699 300 715 707 298 716 708 214 707 699 356 639 631 357 640 632 396 730 722 396 730 722 357 640 632 395 729 721 214 707 699 298 716 708 216 706 698 298 716 708 296 717 709 216 706 698 381 664 656 382 665 657 380 663 655 382 665 657 383 666 658 380 663 655 383 666 658 384 667 659 380 663 655 380 663 655 384 667 659 379 662 654 379 662 654 384 667 659 378 661 653 378 661 653 384 667 659 377 660 652 377 660 652 384 667 659 376 659 651 376 659 651 384 667 659 375 658 650 384 667 659 385 668 660 375 658 650 375 658 650 385 668 660 374 657 649 385 668 660 386 669 661 374 657 649 374 657 649 386 669 661 373 656 648 386 669 661 387 670 662 373 656 648 373 656 648 387 670 662 372 655 647 264 682 674 262 683 675 266 681 673 266 681 673 262 683 675 268 680 672 268 680 672 262 683 675 270 679 671 262 683 675 260 684 676 270 679 671 260 684 676 258 685 677 270 679 671 258 685 677 256 686 678 270 679 671 256 686 678 254 687 679 270 679 671 254 687 679 252 688 680 270 679 671 270 679 671 252 688 680 272 678 670 252 688 680 250 689 681 272 678 670 272 678 670 250 689 681 274 677 669 250 689 681 248 690 682 274 677 669 274 677 669 248 690 682 276 676 668 248 690 682 246 691 683 276 676 668 357 640 632 358 641 633 395 729 721 395 729 721 358 641 633 394 728 720 216 706 698 296 717 709 218 705 697 296 717 709 294 718 710 218 705 697 282 673 665 280 674 666 389 672 664 389 672 664 280 674 666 388 671 663 280 674 666 278 675 667 388 671 663 388 671 663 278 675 667 387 670 662 278 675 667 276 676 668 387 670 662 387 670 662 276 676 668 372 655 647 276 676 668 246 691 683 372 655 647 372 655 647 246 691 683 371 654 646 246 691 683 244 692 684 371 654 646 358 641 633 359 642 634 394 728 720 218 705 697 294 718 710 220 704 696 290 720 712 288 721 713 292 719 711 392 726 718 393 727 719 391 725 717 365 648 640 366 649 641 364 647 639 232 698 690 230 699 691 234 697 689 360 643 635 361 644 636 359 642 634 362 645 637 363 646 638 361 644 636 367 650 642 368 651 643 366 649 641 236 696 688 234 697 689 238 695 687 226 701 693 224 702 694 228 700 692 222 703 695 220 704 696 224 702 694 369 652 644 370 653 645 368 651 643 242 693 685 240 694 686 244 692 684 359 642 634 361 644 636 394 728 720 361 644 636 363 646 638 394 728 720 394 728 720 363 646 638 393 727 719 393 727 719 363 646 638 391 725 717 363 646 638 364 647 639 391 725 717 364 647 639 366 649 641 391 725 717 366 649 641 368 651 643 391 725 717 368 651 643 370 653 645 391 725 717 370 653 645 371 654 646 391 725 717 391 725 717 371 654 646 390 724 716 390 724 716 371 654 646 285 723 715 371 654 646 244 692 684 285 723 715 285 723 715 244 692 684 286 722 714 286 722 714 244 692 684 288 721 713 288 721 713 244 692 684 292 719 711 244 692 684 240 694 686 292 719 711 292 719 711 240 694 686 294 718 710 294 718 710 240 694 686 220 704 696 220 704 696 240 694 686 224 702 694 224 702 694 240 694 686 228 700 692 228 700 692 240 694 686 230 699 691 240 694 686 238 695 687 230 699 691 238 695 687 234 697 689 230 699 691 282 734 498 389 735 726 283 737 499 283 737 499 389 735 726 306 736 727 307 738 728 306 736 727 388 739 729 388 739 729 306 736 727 389 735 726 308 740 730 307 738 728 387 741 731 387 741 731 307 738 728 388 739 729 309 742 732 308 743 730 386 745 733 386 745 733 308 743 730 387 744 731 310 746 734 309 742 732 385 747 735 385 747 735 309 742 732 386 745 733 311 748 736 310 746 734 384 749 737 384 749 737 310 746 734 385 747 735 312 750 738 311 748 736 383 751 739 383 751 739 311 748 736 384 749 737 313 752 740 312 750 738 382 753 741 382 753 741 312 750 738 383 751 739 314 754 742 313 752 740 381 755 743 381 755 743 313 752 740 382 753 741 315 756 744 314 757 745 380 759 747 380 759 747 314 757 745 381 758 746 316 760 748 315 761 749 379 763 751 379 763 751 315 761 749 380 762 750 317 764 752 316 760 748 378 765 753 378 765 753 316 760 748 379 763 751 318 766 754 317 764 752 377 767 755 377 767 755 317 764 752 378 765 753 319 768 756 318 766 754 376 769 757 376 769 757 318 766 754 377 767 755 320 770 758 319 768 756 375 771 759 375 771 759 319 768 756 376 769 757 321 772 760 320 770 758 374 773 761 374 773 761 320 770 758 375 771 759 322 774 762 321 772 760 373 775 763 373 775 763 321 772 760 374 773 761 323 776 764 322 774 762 372 777 765 372 777 765 322 774 762 373 775 763 324 778 766 323 776 764 371 779 767 371 779 767 323 776 764 372 777 765 325 780 768 324 781 769 370 783 771 370 783 771 324 781 769 371 782 770 326 784 772 325 780 768 369 785 773 369 785 773 325 780 768 370 783 771 327 786 774 326 784 772 368 787 775 368 787 775 326 784 772 369 785 773 328 788 776 327 786 774 367 789 777 367 789 777 327 786 774 368 787 775 329 790 778 328 788 776 366 791 779 366 791 779 328 788 776 367 789 777 330 792 780 329 790 778 365 793 781 365 793 781 329 790 778 366 791 779 331 794 782 330 792 780 364 795 783 364 795 783 330 792 780 365 793 781 332 796 784 331 794 782 363 797 785 363 797 785 331 794 782 364 795 783 333 798 786 332 796 784 362 799 787 362 799 787 332 796 784 363 797 785 334 800 788 333 798 786 361 801 789 361 801 789 333 798 786 362 799 787 335 802 790 334 800 788 360 803 791 360 803 791 334 800 788 361 801 789 336 804 792 335 802 790 359 805 793 359 805 793 335 802 790 360 803 791 337 806 794 336 804 792 358 807 795 358 807 795 336 804 792 359 805 793 338 808 796 337 806 794 357 809 797 357 809 797 337 806 794 358 807 795 339 810 798 338 808 796 356 811 799 356 811 799 338 808 796 357 809 797 340 812 800 339 810 798 355 813 801 355 813 801 339 810 798 356 811 799 341 814 802 340 812 800 354 815 803 354 815 803 340 812 800 355 813 801 342 816 804 341 814 802 353 817 805 353 817 805 341 814 802 354 815 803 204 818 806 342 816 804 205 819 807 205 819 807 342 816 804 353 817 805 200 820 808 201 821 809 343 823 811 343 823 811 201 821 809 399 822 810 344 824 812 343 823 811 398 825 813 398 825 813 343 823 811 399 822 810 345 826 814 344 824 812 397 827 815 397 827 815 344 824 812 398 825 813 346 828 816 345 826 814 396 829 817 396 829 817 345 826 814 397 827 815 347 830 818 346 828 816 395 831 819 395 831 819 346 828 816 396 829 817 348 832 820 347 830 818 394 833 821 394 833 821 347 830 818 395 831 819 349 834 822 348 832 820 393 835 823 393 835 823 348 832 820 394 833 821 350 836 824 349 834 822 392 837 825 392 837 825 349 834 822 393 835 823 351 838 826 350 839 827 391 841 829 391 841 829 350 839 827 392 840 828 352 842 830 351 838 826 390 843 831 390 843 831 351 838 826 391 841 829 284 508 500 352 842 830 285 509 501 285 509 501 352 842 830 390 843 831 400 844 832 401 845 833 402 847 835 402 847 835 401 845 833 403 846 834 402 848 835 403 849 834 404 851 837 404 851 837 403 849 834 405 850 836 404 852 837 405 853 836 406 855 839 406 855 839 405 853 836 407 854 838 406 856 840 407 857 841 400 859 832 400 859 832 407 857 841 401 858 833 401 860 842 407 861 843 403 863 834 403 863 834 407 861 843 405 862 836 406 864 844 400 865 845 404 867 837 404 867 837 400 865 845 402 866 835 408 868 846 409 869 847 410 871 849 410 871 849 409 869 847 411 870 848 410 871 849 411 870 848 429 873 851 429 873 851 411 870 848 428 872 850 412 874 852 413 875 853 414 877 855 414 877 855 413 875 853 415 876 854 414 877 855 415 876 854 416 879 857 416 879 857 415 876 854 417 878 856 416 880 857 417 881 856 418 883 859 418 883 859 417 881 856 419 882 858 418 884 859 419 885 858 420 887 861 420 887 861 419 885 858 421 886 860 420 887 861 421 886 860 422 889 863 422 889 863 421 886 860 423 888 862 430 890 864 431 891 865 424 893 867 424 893 867 431 891 865 425 892 866 424 893 867 425 892 866 426 895 869 426 895 869 425 892 866 427 894 868 426 896 869 427 897 868 408 899 871 408 899 871 427 897 868 409 898 870 409 900 872 427 901 873 411 903 875 411 903 875 427 901 873 425 902 874 411 904 875 425 905 874 428 907 877 428 907 877 425 905 874 431 906 876 413 908 878 423 909 879 415 911 881 415 911 881 423 909 879 421 910 880 415 911 881 421 910 880 417 913 856 417 913 856 421 910 880 419 912 858 426 914 882 408 915 883 424 917 885 424 917 885 408 915 883 410 916 884 424 918 885 410 919 884 430 921 887 430 921 887 410 919 884 429 920 886 422 922 888 412 923 889 420 925 891 420 925 891 412 923 889 414 924 890 420 925 891 414 924 890 418 927 859 418 927 859 414 924 890 416 926 857 429 873 851 428 872 850 412 874 852 412 874 852 428 872 850 413 875 853 430 921 887 429 920 886 422 922 888 422 922 888 429 920 886 412 923 889 422 889 863 423 888 862 430 890 864 430 890 864 423 888 862 431 891 865 428 907 877 431 906 876 413 908 878 413 908 878 431 906 876 423 909 879 432 928 892 433 929 893 434 931 895 434 931 895 433 929 893 435 930 894 434 931 895 435 930 894 453 933 897 453 933 897 435 930 894 452 932 896 436 934 898 437 935 899 438 937 901 438 937 901 437 935 899 439 936 900 438 937 901 439 936 900 440 939 903 440 939 903 439 936 900 441 938 902 440 940 903 441 941 902 442 943 905 442 943 905 441 941 902 443 942 904 442 944 905 443 945 904 444 947 907 444 947 907 443 945 904 445 946 906 444 947 907 445 946 906 446 949 909 446 949 909 445 946 906 447 948 908 454 950 910 455 951 911 448 953 913 448 953 913 455 951 911 449 952 912 448 953 913 449 952 912 450 955 915 450 955 915 449 952 912 451 954 914 450 956 915 451 957 914 432 959 917 432 959 917 451 957 914 433 958 916 433 960 918 451 961 919 435 963 921 435 963 921 451 961 919 449 962 920 435 964 921 449 965 920 452 967 923 452 967 923 449 965 920 455 966 922 437 968 924 447 969 925 439 971 927 439 971 927 447 969 925 445 970 926 439 971 927 445 970 926 441 973 902 441 973 902 445 970 926 443 972 904 450 974 928 432 975 929 448 977 931 448 977 931 432 975 929 434 976 930 448 978 931 434 979 930 454 981 933 454 981 933 434 979 930 453 980 932 446 982 934 436 983 935 444 985 937 444 985 937 436 983 935 438 984 936 444 985 937 438 984 936 442 987 905 442 987 905 438 984 936 440 986 903 453 933 897 452 932 896 436 934 898 436 934 898 452 932 896 437 935 899 454 981 933 453 980 932 446 982 934 446 982 934 453 980 932 436 983 935 446 949 909 447 948 908 454 950 910 454 950 910 447 948 908 455 951 911 452 967 923 455 966 922 437 968 924 437 968 924 455 966 922 447 969 925 456 988 938 457 989 939 458 991 941 458 991 941 457 989 939 459 990 940 458 991 941 459 990 940 477 993 943 477 993 943 459 990 940 476 992 942 460 994 944 461 995 945 462 997 947 462 997 947 461 995 945 463 996 946 462 997 947 463 996 946 464 999 949 464 999 949 463 996 946 465 998 948 464 1000 949 465 1001 948 466 1003 951 466 1003 951 465 1001 948 467 1002 950 466 1004 951 467 1005 950 468 1007 953 468 1007 953 467 1005 950 469 1006 952 468 1007 953 469 1006 952 470 1009 955 470 1009 955 469 1006 952 471 1008 954 478 1010 956 479 1011 957 472 1013 959 472 1013 959 479 1011 957 473 1012 958 472 1013 959 473 1012 958 474 1015 961 474 1015 961 473 1012 958 475 1014 960 474 1016 961 475 1017 960 456 1019 963 456 1019 963 475 1017 960 457 1018 962 457 1020 964 475 1021 965 459 1023 967 459 1023 967 475 1021 965 473 1022 966 459 1024 967 473 1025 966 476 1027 969 476 1027 969 473 1025 966 479 1026 968 461 1028 970 471 1029 971 463 1031 973 463 1031 973 471 1029 971 469 1030 972 463 1031 973 469 1030 972 465 1033 948 465 1033 948 469 1030 972 467 1032 950 474 1034 974 456 1035 975 472 1037 977 472 1037 977 456 1035 975 458 1036 976 472 1038 977 458 1039 976 478 1041 979 478 1041 979 458 1039 976 477 1040 978 470 1042 980 460 1043 981 468 1045 983 468 1045 983 460 1043 981 462 1044 982 468 1045 983 462 1044 982 466 1047 951 466 1047 951 462 1044 982 464 1046 949 477 993 943 476 992 942 460 994 944 460 994 944 476 992 942 461 995 945 478 1041 979 477 1040 978 470 1042 980 470 1042 980 477 1040 978 460 1043 981 470 1009 955 471 1008 954 478 1010 956 478 1010 956 471 1008 954 479 1011 957 476 1027 969 479 1026 968 461 1028 970 461 1028 970 479 1026 968 471 1029 971 480 1048 984 481 1049 985 482 1051 987 482 1051 987 481 1049 985 483 1050 986 482 1052 987 483 1053 986 484 1055 989 484 1055 989 483 1053 986 485 1054 988 484 1056 989 485 1057 988 486 1059 991 486 1059 991 485 1057 988 487 1058 990 486 1060 992 487 1061 993 480 1063 984 480 1063 984 487 1061 993 481 1062 985 481 1064 994 487 1065 995 483 1067 986 483 1067 986 487 1065 995 485 1066 988 486 1068 996 480 1069 997 484 1071 989 484 1071 989 480 1069 997 482 1070 987</p>
        </triangles>
      </mesh>
      <extra>
        <technique profile="OpenCOLLADAMaya">
          <originalMayaNodeId>wooden_bench_pureShape</originalMayaNodeId>
          <double_sided>1</double_sided>
        </technique>
      </extra>
    </geometry>
  </library_geometries>
  <library_visual_scenes>
    <visual_scene id="VisualSceneNode" name="hunting_lodge_bench_1">
      <node id="wooden_bench_pure" name="wooden_bench_pure" type="NODE">
        <translate sid="translate">0 0 0</translate>
        <rotate sid="rotateZ">0 0 1 0</rotate>
        <rotate sid="rotateY">0 1 0 0</rotate>
        <rotate sid="rotateX">1 0 0 0</rotate>
        <scale sid="scale">1 1 1</scale>
        <instance_geometry url="#wooden_bench_pureShape">
          <bind_material>
            <technique_common>
              <instance_material symbol="lambert6SG" target="#lambert6">
                <bind_vertex_input semantic="TEX0" input_semantic="TEXCOORD" input_set="0"/>
                <bind_vertex_input semantic="TEX1" input_semantic="TEXCOORD" input_set="0"/>
              </instance_material>
            </technique_common>
          </bind_material>
        </instance_geometry>
        <extra>
          <technique profile="OpenCOLLADAMaya">
            <originalMayaNodeId>wooden_bench_pure</originalMayaNodeId>
          </technique>
        </extra>
      </node>
    </visual_scene>
  </library_visual_scenes>
  <scene>
    <instance_visual_scene url="#VisualSceneNode"/>
  </scene>
</COLLADA>