<?xml version="1.0" encoding="utf-8"?>
<COLLADA xmlns="http://www.collada.org/2005/11/COLLADASchema" version="1.4.1">
  <asset>
    <contributor>
      <author></author>
      <authoring_tool>FBX COLLADA exporter</authoring_tool>
      <comments></comments>
    </contributor>
    <created>2012-08-07T15:32:31Z</created>
    <keywords></keywords>
    <modified>2012-08-07T15:32:31Z</modified>
    <revision></revision>
    <subject></subject>
    <title></title>
    <unit meter="1.000000" name="centimeter"></unit>
    <up_axis>Z_UP</up_axis>
  </asset>
  <library_images>
    <image id="Map #5-image" name="Map #5">
      <init_from>file://C:\AMFP\Game\redist\entities\gameplay\candle_stick_grab\candlestick_grab.dds</init_from>
    </image>
  </library_images>
  <library_materials>
    <material id="Material #7" name="Material #7">
      <instance_effect url="#Material #7-fx"/>
    </material>
  </library_materials>
  <library_effects>
    <effect id="Material #7-fx" name="Material #7">
      <profile_COMMON>
        <technique sid="standard">
          <phong>
            <emission>
              <color sid="emission">0.000000  0.000000 0.000000 1.000000</color>
            </emission>
            <ambient>
              <color sid="ambient">0.588000  0.588000 0.588000 1.000000</color>
            </ambient>
            <diffuse>
              <texture texture="Map #5-image" texcoord="CHANNEL0">
                <extra>
                  <technique profile="MAYA">
                    <wrapU sid="wrapU0">TRUE</wrapU>
                    <wrapV sid="wrapV0">TRUE</wrapV>
                    <blend_mode>ADD</blend_mode>
                  </technique>
                </extra>
              </texture>
            </diffuse>
            <specular>
              <color sid="specular">0.000000  0.000000 0.000000 1.000000</color>
            </specular>
            <shininess>
              <float sid="shininess">2.000000</float>
            </shininess>
            <reflective>
              <color sid="reflective">0.000000  0.000000 0.000000 1.000000</color>
            </reflective>
            <reflectivity>
              <float sid="reflectivity">1.000000</float>
            </reflectivity>
            <transparent opaque="RGB_ZERO">
              <color sid="transparent">1.000000  1.000000 1.000000 1.000000</color>
            </transparent>
            <transparency>
              <float sid="transparency">0.000000</float>
            </transparency>
          </phong>
        </technique>
      </profile_COMMON>
    </effect>
  </library_effects>
  <library_geometries>
    <geometry id="Box003-lib" name="Box003Mesh">
      <mesh>
        <source id="Box003-POSITION">
          <float_array id="Box003-POSITION-array" count="438">
-0.105604 0.138720 -0.017736
-0.105604 0.138720 -0.139676
0.000000 0.138720 -0.200644
0.105604 0.138720 -0.139676
0.105604 0.138720 -0.017736
0.000000 0.138720 0.043232
0.105604 0.132804 -0.017736
0.105604 0.132804 -0.139676
0.000000 0.132804 -0.200644
-0.105604 0.132804 -0.139676
-0.105604 0.132804 -0.017736
0.000000 0.132804 0.043232
0.046536 0.099176 -0.051836
0.046536 0.099176 -0.105572
0.000000 0.099176 -0.132440
-0.046536 0.099176 -0.105572
-0.046536 0.099176 -0.051836
0.000000 0.099176 -0.024968
0.018912 0.092860 -0.067784
0.018912 0.092860 -0.089624
0.000000 0.092860 -0.100544
-0.018912 0.092860 -0.089624
-0.018912 0.092860 -0.067784
0.000000 0.092860 -0.056868
0.000000 0.121536 0.006812
0.074060 0.121536 -0.035948
0.074060 0.121536 -0.121464
0.000000 0.121536 -0.164220
-0.074060 0.121536 -0.121464
-0.074060 0.121536 -0.035948
-0.015636 0.131064 -0.078816
0.000000 0.133136 -0.086756
0.015636 0.131064 -0.078816
0.015636 0.126920 -0.062924
0.000000 0.124848 -0.054984
-0.015636 0.126920 -0.062924
-0.033048 -0.077656 0.277516
-0.033048 -0.115816 0.285956
0.000000 -0.134900 0.286344
0.033048 -0.115816 0.267904
0.033048 -0.077656 0.259716
0.000000 -0.058576 0.284356
0.000000 -0.096736 0.267256
0.015792 -0.087620 -0.027864
0.015792 -0.105852 -0.027864
0.000000 -0.114968 -0.027864
-0.015792 -0.105852 -0.027864
-0.015792 -0.087620 -0.027864
0.000000 -0.078504 -0.027864
0.000000 -0.133868 0.021556
-0.032156 -0.115304 0.021556
-0.032156 -0.078172 0.021556
0.000000 -0.059608 0.021556
0.032156 -0.078172 0.021556
0.032156 -0.115304 0.021556
0.000000 -0.143044 0.029976
-0.040100 -0.119888 0.029976
-0.040100 -0.073584 0.029976
0.000000 -0.050432 0.029976
0.040100 -0.073584 0.029976
0.040100 -0.119888 0.029976
0.000000 -0.134396 0.039524
-0.032612 -0.115564 0.039524
-0.032612 -0.077908 0.039524
0.000000 -0.059080 0.039524
0.032612 -0.077908 0.039524
0.032612 -0.115564 0.039524
0.015792 -0.006452 -0.115564
0.015792 -0.005068 -0.097284
0.000000 -0.004376 -0.088144
-0.015792 -0.005068 -0.097284
-0.015792 -0.006452 -0.115564
0.000000 -0.007144 -0.124704
0.015792 -0.068792 -0.073684
0.000000 -0.062156 -0.068304
-0.015792 -0.068792 -0.073684
-0.015792 -0.082060 -0.084464
0.000000 -0.088696 -0.089856
0.015792 -0.082060 -0.084464
0.000000 -0.194832 0.027224
-0.084952 -0.145784 0.027224
-0.084952 -0.047688 0.027224
0.000000 0.001360 0.027224
0.084952 -0.047688 0.027224
0.084952 -0.145784 0.027224
-0.002548 -0.095920 0.266156
0.002548 -0.095920 0.266156
0.000000 -0.091552 0.266784
-0.002548 -0.101920 0.308156
0.002548 -0.101920 0.308156
0.000000 -0.097552 0.308776
0.000000 -0.100464 0.308364
0.000000 -0.143140 0.029688
-0.040100 -0.119988 0.029688
-0.040100 -0.073684 0.029688
0.000000 -0.050532 0.029688
0.040100 -0.073684 0.029688
0.040100 -0.119988 0.029688
0.000000 -0.194932 0.026940
-0.084952 -0.145884 0.026940
-0.084952 -0.047788 0.026940
0.000000 0.001260 0.026940
0.084952 -0.047788 0.026940
0.084952 -0.145884 0.026940
-0.120496 0.139140 -0.078704
-0.060248 0.139140 0.025648
-0.060248 0.139140 -0.183060
0.060248 0.139140 -0.183060
0.120496 0.139140 -0.078704
0.060248 0.139140 0.025648
0.120496 0.132388 -0.078704
0.060248 0.132388 0.025648
0.060248 0.132388 -0.183060
-0.060248 0.132388 -0.183060
-0.120496 0.132388 -0.078704
-0.060248 0.132388 0.025648
0.000000 -0.143044 0.029976
-0.040100 -0.119888 0.029976
-0.040100 -0.119888 0.029976
-0.040100 -0.073584 0.029976
-0.040100 -0.073584 0.029976
0.000000 -0.050432 0.029976
0.000000 -0.050432 0.029976
0.040100 -0.073584 0.029976
0.040100 -0.073584 0.029976
0.040100 -0.119888 0.029976
0.040100 -0.119888 0.029976
0.000000 -0.143044 0.029976
0.000000 -0.143044 0.029976
-0.040100 -0.119888 0.029976
-0.040100 -0.073584 0.029976
0.000000 -0.050432 0.029976
0.040100 -0.073584 0.029976
0.040100 -0.119888 0.029976
0.000000 -0.194832 0.027224
-0.084952 -0.145784 0.027224
-0.084952 -0.047688 0.027224
0.000000 0.001360 0.027224
0.084952 -0.047688 0.027224
0.084952 -0.145784 0.027224
0.000000 -0.194832 0.027224
-0.084952 -0.145784 0.027224
-0.084952 -0.047688 0.027224
0.000000 0.001360 0.027224
0.084952 -0.047688 0.027224
0.084952 -0.145784 0.027224
</float_array>
          <technique_common>
            <accessor source="#Box003-POSITION-array" count="146" stride="3">
              <param name="X" type="float"/>
              <param name="Y" type="float"/>
              <param name="Z" type="float"/>
            </accessor>
          </technique_common>
        </source>
        <source id="Box003-Normal0">
          <float_array id="Box003-Normal0-array" count="1827">
0.322693 -0.922981 -0.209703
0.726422 -0.554165 0.406463
0.342963 -0.922977 0.174613
-0.020259 -0.922977 -0.384322
0.715226 -0.554166 -0.425855
0.322693 -0.922981 -0.209703
-0.342947 -0.922983 -0.174614
-0.011200 -0.554174 -0.832326
-0.020259 -0.922977 -0.384322
-0.322706 -0.922978 0.209698
-0.726425 -0.554164 -0.406459
-0.342947 -0.922983 -0.174614
0.020266 -0.922971 0.384336
-0.715223 -0.554165 0.425860
-0.322706 -0.922978 0.209698
0.342963 -0.922977 0.174613
0.011203 -0.554165 0.832331
0.020266 -0.922971 0.384336
0.112192 -0.991573 -0.064771
0.388067 -0.893985 -0.224043
0.388072 -0.893977 0.224064
0.112192 -0.991573 -0.064771
0.388072 -0.893977 0.224064
0.112189 -0.991573 0.064776
-0.000003 -0.991572 -0.129554
-0.000008 -0.893975 -0.448117
0.388067 -0.893985 -0.224043
-0.000003 -0.991572 -0.129554
0.388067 -0.893985 -0.224043
0.112192 -0.991573 -0.064771
-0.112192 -0.991573 -0.064774
-0.388066 -0.893984 -0.224050
-0.000008 -0.893975 -0.448117
-0.112192 -0.991573 -0.064774
-0.000008 -0.893975 -0.448117
-0.000003 -0.991572 -0.129554
-0.112188 -0.991573 0.064787
-0.388070 -0.893978 0.224066
-0.388066 -0.893984 -0.224050
-0.112188 -0.991573 0.064787
-0.388066 -0.893984 -0.224050
-0.112192 -0.991573 -0.064774
-0.000010 -0.991575 0.129534
-0.000003 -0.893976 0.448115
-0.388070 -0.893978 0.224066
-0.000010 -0.991575 0.129534
-0.388070 -0.893978 0.224066
-0.112188 -0.991573 0.064787
0.112189 -0.991573 0.064776
0.388072 -0.893977 0.224064
-0.000003 -0.893976 0.448115
0.112189 -0.991573 0.064776
-0.000003 -0.893976 0.448115
-0.000010 -0.991575 0.129534
0.388072 -0.893977 0.224064
0.342963 -0.922977 0.174613
0.020266 -0.922971 0.384336
0.388072 -0.893977 0.224064
0.020266 -0.922971 0.384336
-0.000003 -0.893976 0.448115
0.388067 -0.893985 -0.224043
0.322693 -0.922981 -0.209703
0.342963 -0.922977 0.174613
0.388067 -0.893985 -0.224043
0.342963 -0.922977 0.174613
0.388072 -0.893977 0.224064
-0.000008 -0.893975 -0.448117
-0.020259 -0.922977 -0.384322
0.322693 -0.922981 -0.209703
-0.000008 -0.893975 -0.448117
0.322693 -0.922981 -0.209703
0.388067 -0.893985 -0.224043
-0.388066 -0.893984 -0.224050
-0.342947 -0.922983 -0.174614
-0.020259 -0.922977 -0.384322
-0.388066 -0.893984 -0.224050
-0.020259 -0.922977 -0.384322
-0.000008 -0.893975 -0.448117
-0.388070 -0.893978 0.224066
-0.322706 -0.922978 0.209698
-0.342947 -0.922983 -0.174614
-0.388070 -0.893978 0.224066
-0.342947 -0.922983 -0.174614
-0.388066 -0.893984 -0.224050
-0.000003 -0.893976 0.448115
0.020266 -0.922971 0.384336
-0.322706 -0.922978 0.209698
-0.000003 -0.893976 0.448115
-0.322706 -0.922978 0.209698
-0.388070 -0.893978 0.224066
0.112189 -0.991573 0.064776
-0.000010 -0.991575 0.129534
-0.112188 -0.991573 0.064787
0.112189 -0.991573 0.064776
-0.112188 -0.991573 0.064787
-0.112192 -0.991573 -0.064774
0.112192 -0.991573 -0.064771
0.112189 -0.991573 0.064776
-0.112192 -0.991573 -0.064774
0.112192 -0.991573 -0.064771
-0.112192 -0.991573 -0.064774
-0.000003 -0.991572 -0.129554
0.260169 0.077278 0.962466
-0.666566 0.395114 0.632119
-0.597153 -0.277262 0.752685
0.260169 0.077278 0.962466
-0.597153 -0.277262 0.752685
0.114525 -0.628152 0.769616
0.260169 0.077278 0.962466
0.114525 -0.628152 0.769616
0.772655 -0.295670 0.561768
0.260169 0.077278 0.962466
0.772655 -0.295670 0.561768
0.803315 0.401763 0.439625
0.260169 0.077278 0.962466
0.803315 0.401763 0.439625
0.103814 0.607411 0.787575
0.260169 0.077278 0.962466
0.103814 0.607411 0.787575
-0.666566 0.395114 0.632119
0.693371 0.400311 -0.599156
0.693373 -0.400354 -0.599125
0.802009 -0.513515 -0.305096
0.693371 0.400311 -0.599156
0.802009 -0.513515 -0.305096
0.887970 0.446308 -0.110992
0.693373 -0.400354 -0.599125
0.000000 -0.800569 -0.599241
0.000000 -0.928316 -0.371793
0.693373 -0.400354 -0.599125
0.000000 -0.928316 -0.371793
0.802009 -0.513515 -0.305096
0.000000 -0.928316 -0.371793
0.000000 -0.800569 -0.599241
-0.693373 -0.400354 -0.599125
-0.693373 -0.400354 -0.599125
-0.802009 -0.513515 -0.305096
0.000000 -0.928316 -0.371793
-0.802009 -0.513515 -0.305096
-0.693373 -0.400354 -0.599125
-0.693372 0.400302 -0.599160
-0.693372 0.400302 -0.599160
-0.887970 0.446308 -0.110991
-0.802009 -0.513515 -0.305096
-0.693372 0.400302 -0.599160
0.000009 0.800590 -0.599213
0.000000 0.999909 0.013482
-0.693372 0.400302 -0.599160
0.000000 0.999909 0.013482
-0.887970 0.446308 -0.110991
0.000000 0.999909 0.013482
0.000009 0.800590 -0.599213
0.693371 0.400311 -0.599156
0.693371 0.400311 -0.599156
0.887970 0.446308 -0.110992
0.000000 0.999909 0.013482
0.000000 -0.999265 -0.038335
-0.865413 -0.499594 -0.038289
-0.693373 -0.400354 -0.599125
0.000000 -0.999265 -0.038335
-0.693373 -0.400354 -0.599125
0.000000 -0.800569 -0.599241
-0.693373 -0.400354 -0.599125
-0.865413 -0.499594 -0.038289
-0.865379 0.499650 -0.038331
-0.865379 0.499650 -0.038331
-0.693372 0.400302 -0.599160
-0.693373 -0.400354 -0.599125
-0.693372 0.400302 -0.599160
-0.865379 0.499650 -0.038331
0.000002 0.999264 -0.038354
0.000002 0.999264 -0.038354
0.000009 0.800590 -0.599213
-0.693372 0.400302 -0.599160
0.000009 0.800590 -0.599213
0.000002 0.999264 -0.038354
0.865378 0.499651 -0.038336
0.865378 0.499651 -0.038336
0.693371 0.400311 -0.599156
0.000009 0.800590 -0.599213
0.693371 0.400311 -0.599156
0.865378 0.499651 -0.038336
0.865413 -0.499594 -0.038289
0.865413 -0.499594 -0.038289
0.693373 -0.400354 -0.599125
0.693371 0.400311 -0.599156
0.693373 -0.400354 -0.599125
0.865413 -0.499594 -0.038289
0.000000 -0.999265 -0.038335
0.000000 -0.999265 -0.038335
0.000000 -0.800569 -0.599241
0.693373 -0.400354 -0.599125
-0.792136 -0.457289 0.404236
-0.865413 -0.499594 -0.038289
0.000000 -0.999265 -0.038335
-0.792136 -0.457289 0.404236
0.000000 -0.999265 -0.038335
-0.000021 -0.914640 0.404269
-0.792122 0.457326 0.404223
-0.865379 0.499650 -0.038331
-0.865413 -0.499594 -0.038289
-0.792122 0.457326 0.404223
-0.865413 -0.499594 -0.038289
-0.792136 -0.457289 0.404236
-0.000026 0.914659 0.404226
0.000002 0.999264 -0.038354
-0.865379 0.499650 -0.038331
-0.000026 0.914659 0.404226
-0.865379 0.499650 -0.038331
-0.792122 0.457326 0.404223
0.792152 0.457339 0.404149
0.865378 0.499651 -0.038336
0.000002 0.999264 -0.038354
0.792152 0.457339 0.404149
0.000002 0.999264 -0.038354
-0.000026 0.914659 0.404226
0.792164 -0.457307 0.404162
0.865413 -0.499594 -0.038289
0.865378 0.499651 -0.038336
0.792164 -0.457307 0.404162
0.865378 0.499651 -0.038336
0.792152 0.457339 0.404149
-0.000021 -0.914640 0.404269
0.000000 -0.999265 -0.038335
0.865413 -0.499594 -0.038289
-0.000021 -0.914640 0.404269
0.865413 -0.499594 -0.038289
0.792164 -0.457307 0.404162
-0.000021 -0.914640 0.404269
0.114525 -0.628152 0.769616
-0.597153 -0.277262 0.752685
-0.597153 -0.277262 0.752685
-0.792136 -0.457289 0.404236
-0.000021 -0.914640 0.404269
-0.792136 -0.457289 0.404236
-0.597153 -0.277262 0.752685
-0.666566 0.395114 0.632119
-0.666566 0.395114 0.632119
-0.792122 0.457326 0.404223
-0.792136 -0.457289 0.404236
-0.666566 0.395114 0.632119
0.103814 0.607411 0.787575
-0.000026 0.914659 0.404226
-0.666566 0.395114 0.632119
-0.000026 0.914659 0.404226
-0.792122 0.457326 0.404223
-0.000026 0.914659 0.404226
0.103814 0.607411 0.787575
0.803315 0.401763 0.439625
0.803315 0.401763 0.439625
0.792152 0.457339 0.404149
-0.000026 0.914659 0.404226
0.803315 0.401763 0.439625
0.772655 -0.295670 0.561768
0.792164 -0.457307 0.404162
0.803315 0.401763 0.439625
0.792164 -0.457307 0.404162
0.792152 0.457339 0.404149
0.772655 -0.295670 0.561768
0.114525 -0.628152 0.769616
-0.000021 -0.914640 0.404269
0.772655 -0.295670 0.561768
-0.000021 -0.914640 0.404269
0.792164 -0.457307 0.404162
0.802009 -0.513515 -0.305096
0.000000 -0.928316 -0.371793
-0.000000 -0.715838 -0.698267
0.804744 -0.414895 -0.424559
0.802009 -0.513515 -0.305096
-0.000000 -0.715838 -0.698267
-0.000000 -0.715838 -0.698267
0.000000 -0.928316 -0.371793
-0.802009 -0.513515 -0.305096
-0.000000 -0.715838 -0.698267
-0.802009 -0.513515 -0.305096
-0.804744 -0.414895 -0.424559
-0.804744 -0.414895 -0.424559
-0.802009 -0.513515 -0.305096
-0.887970 0.446308 -0.110991
-0.804744 -0.414895 -0.424559
-0.887970 0.446308 -0.110991
-0.916645 0.281741 0.283520
-0.916645 0.281741 0.283520
-0.887970 0.446308 -0.110991
0.000000 0.999909 0.013482
-0.916645 0.281741 0.283520
0.000000 0.999909 0.013482
0.000000 0.682427 0.730954
0.000000 0.999909 0.013482
0.887970 0.446308 -0.110992
0.916645 0.281741 0.283520
0.000000 0.682427 0.730954
0.000000 0.999909 0.013482
0.916645 0.281741 0.283520
0.887970 0.446308 -0.110992
0.802009 -0.513515 -0.305096
0.804744 -0.414895 -0.424559
0.916645 0.281741 0.283520
0.887970 0.446308 -0.110992
0.804744 -0.414895 -0.424559
0.822585 -0.035518 -0.567532
0.856902 0.135131 -0.497453
0.856165 -0.127928 0.500616
0.856165 -0.127928 0.500616
0.906296 0.018917 0.422220
0.822585 -0.035518 -0.567532
-0.000000 0.034495 0.999405
0.906296 0.018917 0.422220
0.856165 -0.127928 0.500616
0.000000 -0.248556 0.968617
-0.000000 0.034495 0.999405
0.856165 -0.127928 0.500616
-0.856165 -0.127928 0.500616
-0.906296 0.018917 0.422220
-0.000000 0.034495 0.999405
-0.856165 -0.127928 0.500616
-0.000000 0.034495 0.999405
0.000000 -0.248556 0.968617
-0.856165 -0.127928 0.500616
-0.856902 0.135131 -0.497453
-0.822585 -0.035518 -0.567532
-0.856165 -0.127928 0.500616
-0.822585 -0.035518 -0.567532
-0.906296 0.018917 0.422220
-0.856902 0.135131 -0.497453
-0.000000 0.261130 -0.965304
0.000000 -0.066108 -0.997812
-0.856902 0.135131 -0.497453
0.000000 -0.066108 -0.997812
-0.822585 -0.035518 -0.567532
0.000000 -0.066108 -0.997812
-0.000000 0.261130 -0.965304
0.856902 0.135131 -0.497453
0.856902 0.135131 -0.497453
0.822585 -0.035518 -0.567532
0.000000 -0.066108 -0.997812
0.000000 0.682427 0.730954
0.916645 0.281741 0.283520
0.906296 0.018917 0.422220
-0.000000 0.034495 0.999405
0.000000 0.682427 0.730954
0.906296 0.018917 0.422220
-0.906296 0.018917 0.422220
-0.916645 0.281741 0.283520
0.000000 0.682427 0.730954
-0.906296 0.018917 0.422220
0.000000 0.682427 0.730954
-0.000000 0.034495 0.999405
-0.822585 -0.035518 -0.567532
-0.804744 -0.414895 -0.424559
-0.916645 0.281741 0.283520
-0.822585 -0.035518 -0.567532
-0.916645 0.281741 0.283520
-0.906296 0.018917 0.422220
0.000000 -0.066108 -0.997812
-0.000000 -0.715838 -0.698267
-0.804744 -0.414895 -0.424559
0.000000 -0.066108 -0.997812
-0.804744 -0.414895 -0.424559
-0.822585 -0.035518 -0.567532
0.804744 -0.414895 -0.424559
-0.000000 -0.715838 -0.698267
0.000000 -0.066108 -0.997812
0.822585 -0.035518 -0.567532
0.804744 -0.414895 -0.424559
0.000000 -0.066108 -0.997812
0.916645 0.281741 0.283520
0.804744 -0.414895 -0.424559
0.822585 -0.035518 -0.567532
0.906296 0.018917 0.422220
0.916645 0.281741 0.283520
0.822585 -0.035518 -0.567532
-0.030621 -0.053036 0.998123
-0.030621 -0.053036 0.998123
-0.030621 -0.053036 0.998123
-0.030628 -0.053040 0.998123
-0.030628 -0.053040 0.998123
-0.030628 -0.053040 0.998123
-0.061242 -0.000000 0.998123
-0.061242 -0.000000 0.998123
-0.061242 -0.000000 0.998123
-0.061242 -0.000000 0.998123
-0.061242 -0.000000 0.998123
-0.061242 -0.000000 0.998123
-0.030621 0.053036 0.998123
-0.030621 0.053036 0.998123
-0.030621 0.053036 0.998123
-0.030621 0.053036 0.998123
-0.030621 0.053036 0.998123
-0.030621 0.053036 0.998123
0.030621 0.053036 0.998123
0.030621 0.053036 0.998123
0.030621 0.053036 0.998123
0.030621 0.053036 0.998123
0.030621 0.053036 0.998123
0.030621 0.053036 0.998123
0.061242 -0.000000 0.998123
0.061242 -0.000000 0.998123
0.061242 -0.000000 0.998123
0.061242 -0.000000 0.998123
0.061242 -0.000000 0.998123
0.061242 -0.000000 0.998123
0.030623 -0.053040 0.998123
0.030623 -0.053040 0.998123
0.030623 -0.053040 0.998123
0.030623 -0.053032 0.998123
0.030623 -0.053032 0.998123
0.030623 -0.053032 0.998123
-0.720593 -0.490158 0.490398
-0.865822 -0.495325 -0.070748
0.865820 -0.495327 -0.070761
-0.720593 -0.490158 0.490398
0.865820 -0.495327 -0.070761
0.720589 -0.490160 0.490402
0.720589 -0.490160 0.490402
0.865820 -0.495327 -0.070761
-0.000004 0.989947 0.141436
0.720589 -0.490160 0.490402
-0.000004 0.989947 0.141436
-0.000003 0.745658 0.666329
-0.000004 0.989947 0.141436
-0.865822 -0.495325 -0.070748
-0.000003 0.745658 0.666329
-0.000003 0.745658 0.666329
-0.865822 -0.495325 -0.070748
-0.720593 -0.490158 0.490398
0.000000 -0.140534 0.990076
-0.720593 -0.490158 0.490398
0.720589 -0.490160 0.490402
0.000000 -0.140534 0.990076
0.720589 -0.490160 0.490402
-0.000003 0.745658 0.666329
0.000000 -0.140534 0.990076
-0.000003 0.745658 0.666329
-0.720593 -0.490158 0.490398
0.000000 0.052984 -0.998595
0.000000 0.052984 -0.998595
0.045886 0.026492 -0.998595
0.045887 0.026492 -0.998595
0.000000 0.052984 -0.998595
0.045886 0.026492 -0.998595
0.045887 0.026492 -0.998595
0.045886 0.026492 -0.998595
0.045886 -0.026492 -0.998595
0.045887 -0.026492 -0.998595
0.045887 0.026492 -0.998595
0.045886 -0.026492 -0.998595
0.045887 -0.026492 -0.998595
0.045886 -0.026492 -0.998595
-0.000000 -0.052984 -0.998595
-0.000000 -0.052984 -0.998595
0.045887 -0.026492 -0.998595
-0.000000 -0.052984 -0.998595
-0.000000 -0.052984 -0.998595
-0.000000 -0.052984 -0.998595
-0.045886 -0.026492 -0.998595
-0.045887 -0.026492 -0.998595
-0.000000 -0.052984 -0.998595
-0.045886 -0.026492 -0.998595
-0.045887 -0.026492 -0.998595
-0.045886 -0.026492 -0.998595
-0.045886 0.026492 -0.998595
-0.045887 0.026492 -0.998595
-0.045887 -0.026492 -0.998595
-0.045886 0.026492 -0.998595
-0.045887 0.026492 -0.998595
-0.045886 0.026492 -0.998595
0.000000 0.052984 -0.998595
0.000000 0.052984 -0.998595
-0.045887 0.026492 -0.998595
0.000000 0.052984 -0.998595
0.750650 0.660697 0.002021
0.665554 0.639838 -0.384246
0.373569 0.660688 -0.651105
0.660733 0.647215 0.380190
0.750650 0.660697 0.002021
0.373569 0.660688 -0.651105
0.373569 0.660688 -0.651105
0.000000 0.648238 -0.761438
0.660733 0.647215 0.380190
-0.373569 0.660688 -0.651105
-0.665554 0.639838 -0.384246
-0.750650 0.660697 0.002021
-0.750650 0.660697 0.002021
-0.660733 0.647215 0.380191
0.000000 0.648238 -0.761438
0.000000 0.648238 -0.761438
-0.373569 0.660688 -0.651105
-0.750650 0.660697 0.002021
0.715226 -0.554166 -0.425855
0.808959 -0.587719 0.013064
0.322693 -0.922981 -0.209703
0.808959 -0.587719 0.013064
0.726422 -0.554165 0.406463
0.322693 -0.922981 -0.209703
-0.011200 -0.554174 -0.832326
0.415774 -0.587716 -0.694062
-0.020259 -0.922977 -0.384322
0.415774 -0.587716 -0.694062
0.715226 -0.554166 -0.425855
-0.020259 -0.922977 -0.384322
-0.726425 -0.554164 -0.406459
-0.393156 -0.587716 -0.707120
-0.342947 -0.922983 -0.174614
-0.393156 -0.587716 -0.707120
-0.011200 -0.554174 -0.832326
-0.342947 -0.922983 -0.174614
-0.715223 -0.554165 0.425860
-0.808961 -0.587717 -0.013051
-0.322706 -0.922978 0.209698
-0.808961 -0.587717 -0.013051
-0.726425 -0.554164 -0.406459
-0.322706 -0.922978 0.209698
0.011203 -0.554165 0.832331
-0.415776 -0.587712 0.694064
0.020266 -0.922971 0.384336
-0.415776 -0.587712 0.694064
-0.715223 -0.554165 0.425860
0.020266 -0.922971 0.384336
0.726422 -0.554165 0.406463
0.393156 -0.587716 0.707120
0.342963 -0.922977 0.174613
0.393156 -0.587716 0.707120
0.011203 -0.554165 0.832331
0.342963 -0.922977 0.174613
-0.660733 0.647215 0.380191
-0.375283 0.659652 0.651169
0.000000 0.648238 -0.761438
-0.375283 0.659652 0.651169
-0.000000 0.647542 0.762030
0.000000 0.648238 -0.761438
-0.000000 0.647542 0.762030
0.375283 0.659652 0.651169
0.000000 0.648238 -0.761438
0.375283 0.659652 0.651169
0.660733 0.647215 0.380190
0.000000 0.648238 -0.761438
-0.726425 -0.554164 -0.406459
-0.808961 -0.587717 -0.013051
-0.750650 0.660697 0.002021
-0.750650 0.660697 0.002021
-0.665554 0.639838 -0.384246
-0.726425 -0.554164 -0.406459
-0.660733 0.647215 0.380191
-0.750650 0.660697 0.002021
-0.808961 -0.587717 -0.013051
-0.808961 -0.587717 -0.013051
-0.715223 -0.554165 0.425860
-0.660733 0.647215 0.380191
-0.375283 0.659652 0.651169
-0.660733 0.647215 0.380191
-0.715223 -0.554165 0.425860
-0.715223 -0.554165 0.425860
-0.415776 -0.587712 0.694064
-0.375283 0.659652 0.651169
-0.415776 -0.587712 0.694064
0.011203 -0.554165 0.832331
-0.000000 0.647542 0.762030
-0.000000 0.647542 0.762030
-0.375283 0.659652 0.651169
-0.415776 -0.587712 0.694064
-0.000000 0.647542 0.762030
0.011203 -0.554165 0.832331
0.393156 -0.587716 0.707120
0.393156 -0.587716 0.707120
0.375283 0.659652 0.651169
-0.000000 0.647542 0.762030
0.660733 0.647215 0.380190
0.375283 0.659652 0.651169
0.393156 -0.587716 0.707120
0.393156 -0.587716 0.707120
0.726422 -0.554165 0.406463
0.660733 0.647215 0.380190
0.660733 0.647215 0.380190
0.726422 -0.554165 0.406463
0.808959 -0.587719 0.013064
0.808959 -0.587719 0.013064
0.750650 0.660697 0.002021
0.660733 0.647215 0.380190
0.665554 0.639838 -0.384246
0.750650 0.660697 0.002021
0.808959 -0.587719 0.013064
0.808959 -0.587719 0.013064
0.715226 -0.554166 -0.425855
0.665554 0.639838 -0.384246
0.665554 0.639838 -0.384246
0.715226 -0.554166 -0.425855
0.415774 -0.587716 -0.694062
0.415774 -0.587716 -0.694062
0.373569 0.660688 -0.651105
0.665554 0.639838 -0.384246
0.000000 0.648238 -0.761438
0.373569 0.660688 -0.651105
0.415774 -0.587716 -0.694062
0.415774 -0.587716 -0.694062
-0.011200 -0.554174 -0.832326
0.000000 0.648238 -0.761438
0.000000 0.648238 -0.761438
-0.011200 -0.554174 -0.832326
-0.393156 -0.587716 -0.707120
-0.393156 -0.587716 -0.707120
-0.373569 0.660688 -0.651105
0.000000 0.648238 -0.761438
-0.665554 0.639838 -0.384246
-0.373569 0.660688 -0.651105
-0.393156 -0.587716 -0.707120
-0.393156 -0.587716 -0.707120
-0.726425 -0.554164 -0.406459
-0.665554 0.639838 -0.384246
</float_array>
          <technique_common>
            <accessor source="#Box003-Normal0-array" count="609" stride="3">
              <param name="X" type="float"/>
              <param name="Y" type="float"/>
              <param name="Z" type="float"/>
            </accessor>
          </technique_common>
        </source>
        <source id="Box003-UV0">
          <float_array id="Box003-UV0-array" count="1218">
0.386520 0.639750
0.436980 0.826860
0.386520 0.799790
0.247920 0.559740
0.436980 0.608310
0.386520 0.639750
0.109330 0.639750
0.247710 0.499030
0.247920 0.559740
0.109330 0.799790
0.058440 0.608310
0.109330 0.639750
0.247920 0.879800
0.058440 0.826860
0.109330 0.799790
0.386520 0.799790
0.247710 0.936140
0.247920 0.879800
0.288430 0.703290
0.343840 0.669630
0.343840 0.779830
0.288430 0.703290
0.343840 0.779830
0.288430 0.749320
0.248560 0.680270
0.248410 0.614530
0.343840 0.669630
0.248560 0.680270
0.343840 0.669630
0.288430 0.703290
0.208700 0.703290
0.152970 0.669630
0.248410 0.614530
0.208700 0.703290
0.248410 0.614530
0.248560 0.680270
0.208700 0.749320
0.152970 0.779830
0.152970 0.669630
0.208700 0.749320
0.152970 0.669630
0.208700 0.703290
0.248560 0.772340
0.248410 0.834930
0.152970 0.779830
0.248560 0.772340
0.152970 0.779830
0.208700 0.749320
0.288430 0.749320
0.343840 0.779830
0.248410 0.834930
0.288430 0.749320
0.248410 0.834930
0.248560 0.772340
0.343840 0.779830
0.386520 0.799790
0.247920 0.879800
0.343840 0.779830
0.247920 0.879800
0.248410 0.834930
0.343840 0.669630
0.386520 0.639750
0.386520 0.799790
0.343840 0.669630
0.386520 0.799790
0.343840 0.779830
0.248410 0.614530
0.247920 0.559740
0.386520 0.639750
0.248410 0.614530
0.386520 0.639750
0.343840 0.669630
0.152970 0.669630
0.109330 0.639750
0.247920 0.559740
0.152970 0.669630
0.247920 0.559740
0.248410 0.614530
0.152970 0.779830
0.109330 0.799790
0.109330 0.639750
0.152970 0.779830
0.109330 0.639750
0.152970 0.669630
0.248410 0.834930
0.247920 0.879800
0.109330 0.799790
0.248410 0.834930
0.109330 0.799790
0.152970 0.779830
0.288430 0.749320
0.248560 0.772340
0.208700 0.749320
0.288430 0.749320
0.208700 0.749320
0.208700 0.703290
0.288430 0.703290
0.288430 0.749320
0.208700 0.703290
0.288430 0.703290
0.208700 0.703290
0.248560 0.680270
0.635490 0.563640
0.595400 0.494210
0.675580 0.494210
0.635490 0.563640
0.675580 0.494210
0.715670 0.563640
0.635490 0.563640
0.715670 0.563640
0.675580 0.633070
0.635490 0.563640
0.675580 0.633070
0.595400 0.633070
0.635490 0.563640
0.595400 0.633070
0.555310 0.563640
0.635490 0.563640
0.555310 0.563640
0.595400 0.494210
0.539130 0.349420
0.539130 0.394210
0.474510 0.394210
0.539130 0.349420
0.474510 0.394210
0.474510 0.349420
0.539130 0.394210
0.539130 0.439010
0.474510 0.439010
0.539130 0.394210
0.474510 0.439010
0.474510 0.394210
0.474510 0.439010
0.539130 0.439010
0.539130 0.483810
0.539130 0.483810
0.474510 0.483810
0.474510 0.439010
0.474510 0.215030
0.539130 0.215030
0.539130 0.259820
0.539130 0.259820
0.474510 0.259820
0.474510 0.215030
0.539130 0.259820
0.539130 0.304620
0.474510 0.304620
0.539130 0.259820
0.474510 0.304620
0.474510 0.259820
0.474510 0.304620
0.539130 0.304620
0.539130 0.349420
0.539130 0.349420
0.474510 0.349420
0.474510 0.304620
0.501920 0.563440
0.564070 0.456250
0.576390 0.477490
0.501920 0.563440
0.576390 0.477490
0.526550 0.563440
0.576390 0.477490
0.564070 0.456250
0.688370 0.456250
0.688370 0.456250
0.676060 0.477490
0.576390 0.477490
0.676060 0.477490
0.688370 0.456250
0.750530 0.563440
0.750530 0.563440
0.725900 0.563440
0.676060 0.477490
0.725900 0.563440
0.750530 0.563440
0.688370 0.670640
0.688370 0.670640
0.676060 0.649400
0.725900 0.563440
0.676060 0.649400
0.688370 0.670640
0.564070 0.670640
0.564070 0.670640
0.576390 0.649400
0.676060 0.649400
0.576390 0.649400
0.564070 0.670640
0.501920 0.563440
0.501920 0.563440
0.526550 0.563440
0.576390 0.649400
0.575680 0.476270
0.564070 0.456250
0.501920 0.563440
0.575680 0.476270
0.501920 0.563440
0.525140 0.563440
0.676770 0.476270
0.688370 0.456250
0.564070 0.456250
0.676770 0.476270
0.564070 0.456250
0.575680 0.476270
0.727310 0.563440
0.750530 0.563440
0.688370 0.456250
0.727310 0.563440
0.688370 0.456250
0.676770 0.476270
0.676770 0.650620
0.688370 0.670640
0.750530 0.563440
0.676770 0.650620
0.750530 0.563440
0.727310 0.563440
0.575680 0.650620
0.564070 0.670640
0.688370 0.670640
0.575680 0.650620
0.688370 0.670640
0.676770 0.650620
0.525140 0.563440
0.501920 0.563440
0.564070 0.670640
0.525140 0.563440
0.564070 0.670640
0.575680 0.650620
0.976620 0.764270
0.679730 0.764270
0.680210 0.703640
0.680210 0.703640
0.976620 0.703640
0.976620 0.764270
0.976620 0.985590
0.680210 0.985590
0.690360 0.944560
0.690360 0.944560
0.976620 0.944560
0.976620 0.985590
0.690360 0.944560
0.682130 0.899490
0.976620 0.899490
0.690360 0.944560
0.976620 0.899490
0.976620 0.944560
0.976620 0.899490
0.682130 0.899490
0.711760 0.854420
0.711760 0.854420
0.976620 0.854420
0.976620 0.899490
0.711760 0.854420
0.701920 0.809340
0.976620 0.809340
0.711760 0.854420
0.976620 0.809340
0.976620 0.854420
0.701920 0.809340
0.679730 0.764270
0.976620 0.764270
0.701920 0.809340
0.976620 0.764270
0.976620 0.809340
0.579200 0.434310
0.552410 0.434310
0.556320 0.341060
0.582920 0.341060
0.579200 0.434310
0.556320 0.341060
0.722220 0.341060
0.722540 0.434310
0.695840 0.434310
0.722220 0.341060
0.695840 0.434310
0.695610 0.341060
0.695610 0.341060
0.695840 0.434310
0.665140 0.434310
0.695610 0.341060
0.665140 0.434310
0.666180 0.341060
0.666180 0.341060
0.665140 0.434310
0.638560 0.434310
0.666180 0.341060
0.638560 0.434310
0.638560 0.341060
0.638560 0.434310
0.611000 0.434310
0.611930 0.341060
0.638560 0.341060
0.638560 0.434310
0.611930 0.341060
0.611000 0.434310
0.579200 0.434310
0.582920 0.341060
0.611930 0.341060
0.611000 0.434310
0.582920 0.341060
0.582600 0.247810
0.584000 0.014690
0.611510 0.014690
0.611510 0.014690
0.612550 0.247810
0.582600 0.247810
0.638560 0.247810
0.612550 0.247810
0.611510 0.014690
0.638560 0.014690
0.638560 0.247810
0.611510 0.014690
0.665750 0.014690
0.664020 0.247810
0.638560 0.247810
0.665750 0.014690
0.638560 0.247810
0.638560 0.014690
0.665750 0.014690
0.693150 0.014690
0.693960 0.247810
0.665750 0.014690
0.693960 0.247810
0.664020 0.247810
0.693150 0.014690
0.719340 0.014690
0.720950 0.247810
0.693150 0.014690
0.720950 0.247810
0.693960 0.247810
0.556210 0.247810
0.557380 0.014690
0.584000 0.014690
0.584000 0.014690
0.582600 0.247810
0.556210 0.247810
0.638560 0.341060
0.611930 0.341060
0.612550 0.247810
0.638560 0.247810
0.638560 0.341060
0.612550 0.247810
0.664020 0.247810
0.666180 0.341060
0.638560 0.341060
0.664020 0.247810
0.638560 0.341060
0.638560 0.247810
0.693960 0.247810
0.695610 0.341060
0.666180 0.341060
0.693960 0.247810
0.666180 0.341060
0.664020 0.247810
0.720950 0.247810
0.722220 0.341060
0.695610 0.341060
0.720950 0.247810
0.695610 0.341060
0.693960 0.247810
0.582920 0.341060
0.556320 0.341060
0.556210 0.247810
0.582600 0.247810
0.582920 0.341060
0.556210 0.247810
0.611930 0.341060
0.582920 0.341060
0.582600 0.247810
0.612550 0.247810
0.611930 0.341060
0.582600 0.247810
0.395630 0.395620
0.451510 0.428180
0.341850 0.491490
0.341850 0.491490
0.341850 0.426080
0.395630 0.395620
0.395630 0.333830
0.451510 0.301560
0.451510 0.428180
0.451510 0.428180
0.395630 0.395620
0.395630 0.333830
0.341850 0.303080
0.341850 0.238250
0.451510 0.301560
0.451510 0.301560
0.395630 0.333830
0.341850 0.303080
0.287780 0.334410
0.232190 0.301560
0.341850 0.238250
0.341850 0.238250
0.341850 0.303080
0.287780 0.334410
0.289510 0.396780
0.232190 0.428180
0.232190 0.301560
0.232190 0.301560
0.287780 0.334410
0.289510 0.396780
0.341850 0.426080
0.341850 0.491490
0.232190 0.428180
0.232190 0.428180
0.289510 0.396780
0.341850 0.426080
0.320060 0.942200
0.452260 0.895520
0.458250 0.912470
0.320060 0.942200
0.458250 0.912470
0.326050 0.959160
0.326050 0.959160
0.458250 0.912470
0.464240 0.929430
0.326050 0.959160
0.464240 0.929430
0.332040 0.976120
0.464240 0.929430
0.470230 0.946390
0.332040 0.976120
0.332040 0.976120
0.470230 0.946390
0.338030 0.993080
0.077290 0.951290
0.058460 0.984230
0.058460 0.918350
0.077290 0.951290
0.058460 0.918350
0.114940 0.951290
0.077290 0.951290
0.114940 0.951290
0.058460 0.984230
0.341850 0.426080
0.341850 0.491490
0.451510 0.428180
0.395630 0.395620
0.341850 0.426080
0.451510 0.428180
0.395630 0.395620
0.451510 0.428180
0.451510 0.301560
0.395630 0.333830
0.395630 0.395620
0.451510 0.301560
0.395630 0.333830
0.451510 0.301560
0.341850 0.238250
0.341850 0.303080
0.395630 0.333830
0.341850 0.238250
0.341850 0.303080
0.341850 0.238250
0.232190 0.301560
0.287780 0.334410
0.341850 0.303080
0.232190 0.301560
0.287780 0.334410
0.232190 0.301560
0.232190 0.428180
0.289510 0.396780
0.287780 0.334410
0.232190 0.428180
0.289510 0.396780
0.232190 0.428180
0.341850 0.491490
0.341850 0.426080
0.289510 0.396780
0.341850 0.491490
0.268500 0.161670
0.268500 0.237310
0.203000 0.275130
0.268500 0.086030
0.268500 0.161670
0.203000 0.275130
0.203000 0.275130
0.137490 0.312950
0.268500 0.086030
0.071980 0.275130
0.006480 0.237310
0.006480 0.161670
0.006480 0.161670
0.006480 0.086030
0.137490 0.312950
0.137490 0.312950
0.071980 0.275130
0.006480 0.161670
0.436980 0.608310
0.464030 0.717660
0.386520 0.639750
0.464030 0.717660
0.436980 0.826860
0.386520 0.639750
0.247710 0.499030
0.355870 0.530340
0.247920 0.559740
0.355870 0.530340
0.436980 0.608310
0.247920 0.559740
0.058440 0.608310
0.139570 0.530340
0.109330 0.639750
0.139570 0.530340
0.247710 0.499030
0.109330 0.639750
0.058440 0.826860
0.031410 0.717660
0.109330 0.799790
0.031410 0.717660
0.058440 0.608310
0.109330 0.799790
0.247710 0.936140
0.139570 0.904990
0.247920 0.879800
0.139570 0.904990
0.058440 0.826860
0.247920 0.879800
0.436980 0.826860
0.355870 0.904990
0.386520 0.799790
0.355870 0.904990
0.247710 0.936140
0.386520 0.799790
0.006480 0.086030
0.071980 0.048210
0.137490 0.312950
0.071980 0.048210
0.137490 0.010390
0.137490 0.312950
0.137490 0.010390
0.203000 0.048210
0.137490 0.312950
0.203000 0.048210
0.268500 0.086030
0.137490 0.312950
0.058440 0.608310
0.031410 0.717660
0.036640 0.716440
0.036640 0.716440
0.062440 0.609610
0.058440 0.608310
0.062440 0.823420
0.036640 0.716440
0.031410 0.717660
0.031410 0.717660
0.058440 0.826860
0.062440 0.823420
0.142120 0.899130
0.062440 0.823420
0.058440 0.826860
0.058440 0.826860
0.139570 0.904990
0.142120 0.899130
0.139570 0.904990
0.247710 0.936140
0.247610 0.930320
0.247610 0.930320
0.142120 0.899130
0.139570 0.904990
0.247610 0.930320
0.247710 0.936140
0.355870 0.904990
0.355870 0.904990
0.353080 0.899130
0.247610 0.930320
0.432770 0.823420
0.353080 0.899130
0.355870 0.904990
0.355870 0.904990
0.436980 0.826860
0.432770 0.823420
0.432770 0.823420
0.436980 0.826860
0.464030 0.717660
0.464030 0.717660
0.458560 0.716440
0.432770 0.823420
0.432770 0.609610
0.458560 0.716440
0.464030 0.717660
0.464030 0.717660
0.436980 0.608310
0.432770 0.609610
0.432770 0.609610
0.436980 0.608310
0.355870 0.530340
0.355870 0.530340
0.353080 0.533740
0.432770 0.609610
0.247610 0.502700
0.353080 0.533740
0.355870 0.530340
0.355870 0.530340
0.247710 0.499030
0.247610 0.502700
0.247610 0.502700
0.247710 0.499030
0.139570 0.530340
0.139570 0.530340
0.142120 0.533740
0.247610 0.502700
0.062440 0.609610
0.142120 0.533740
0.139570 0.530340
0.139570 0.530340
0.058440 0.608310
0.062440 0.609610
</float_array>
          <technique_common>
            <accessor source="#Box003-UV0-array" count="609" stride="2">
              <param name="S" type="float"/>
              <param name="T" type="float"/>
            </accessor>
          </technique_common>
        </source>
        <vertices id="Box003-VERTEX">
          <input semantic="POSITION" source="#Box003-POSITION"/>
        </vertices>
        <triangles count="203" material="Material #7">
          <input semantic="VERTEX" offset="0" source="#Box003-VERTEX"/>
          <input semantic="NORMAL" offset="1" source="#Box003-Normal0"/>
          <input semantic="TEXCOORD" offset="2" set="0" source="#Box003-UV0"/>
          <p> 26 0 0 6 1 1 25 2 2 27 3 3 7 4 4 26 5 5 28 6 6 8 7 7 27 8 8 29 9 9 9 10 10 28 11 11 24 12 12 10 13 13 29 14 14 25 15 15 11 16 16 24 17 17 19 18 18 13 19 19 12 20 20 19 21 21 12 22 22 18 23 23 20 24 24 14 25 25 13 26 26 20 27 27 13 28 28 19 29 29 21 30 30 15 31 31 14 32 32 21 33 33 14 34 34 20 35 35 22 36 36 16 37 37 15 38 38 22 39 39 15 40 40 21 41 41 23 42 42 17 43 43 16 44 44 23 45 45 16 46 46 22 47 47 18 48 48 12 49 49 17 50 50 18 51 51 17 52 52 23 53 53 12 54 54 25 55 55 24 56 56 12 57 57 24 58 58 17 59 59 13 60 60 26 61 61 25 62 62 13 63 63 25 64 64 12 65 65 14 66 66 27 67 67 26 68 68 14 69 69 26 70 70 13 71 71 15 72 72 28 73 73 27 74 74 15 75 75 27 76 76 14 77 77 16 78 78 29 79 79 28 80 80 16 81 81 28 82 82 15 83 83 17 84 84 24 85 85 29 86 86 17 87 87 29 88 88 16 89 89 18 90 90 23 91 91 22 92 92 18 93 93 22 94 94 21 95 95 19 96 96 18 97 97 21 98 98 19 99 99 21 100 100 20 101 101 42 102 102 36 103 103 37 104 104 42 105 105 37 106 106 38 107 107 42 108 108 38 109 109 39 110 110 42 111 111 39 112 112 40 113 113 42 114 114 40 115 115 41 116 116 42 117 117 41 118 118 36 119 119 53 120 120 54 121 121 44 122 122 53 123 123 44 124 124 43 125 125 54 126 126 49 127 127 45 128 128 54 129 129 45 130 130 44 131 131 45 132 132 49 133 133 50 134 134 50 135 135 46 136 136 45 137 137 46 138 138 50 139 139 51 140 140 51 141 141 47 142 142 46 143 143 51 144 144 52 145 145 48 146 146 51 147 147 48 148 148 47 149 149 48 150 150 52 151 151 53 152 152 53 153 153 43 154 154 48 155 155 128 156 156 129 157 157 50 158 158 128 159 159 50 160 160 49 161 161 50 162 162 129 163 163 130 164 164 130 165 165 51 166 166 50 167 167 51 168 168 130 169 169 131 170 170 131 171 171 52 172 172 51 173 173 52 174 174 131 175 175 132 176 176 132 177 177 53 178 178 52 179 179 53 180 180 132 181 181 133 182 182 133 183 183 54 184 184 53 185 185 54 186 186 133 187 187 128 188 188 128 189 189 49 190 190 54 191 191 62 192 192 129 193 193 128 194 194 62 195 195 128 196 196 61 197 197 63 198 198 130 199 199 129 200 200 63 201 201 129 202 202 62 203 203 64 204 204 131 205 205 130 206 206 64 207 207 130 208 208 63 209 209 65 210 210 132 211 211 131 212 212 65 213 213 131 214 214 64 215 215 66 216 216 133 217 217 132 218 218 66 219 219 132 220 220 65 221 221 61 222 222 128 223 223 133 224 224 61 225 225 133 226 226 66 227 227 61 228 228 38 229 229 37 230 230 37 231 231 62 232 232 61 233 233 62 234 234 37 235 235 36 236 236 36 237 237 63 238 238 62 239 239 36 240 240 41 241 241 64 242 242 36 243 243 64 244 244 63 245 245 64 246 246 41 247 247 40 248 248 40 249 249 65 250 250 64 251 251 40 252 252 39 253 253 66 254 254 40 255 255 66 256 256 65 257 257 39 258 258 38 259 259 61 260 260 39 261 261 61 262 262 66 263 263 44 264 264 45 265 265 77 266 266 78 267 267 44 268 268 77 269 269 77 270 270 45 271 271 46 272 272 77 273 273 46 274 274 76 275 275 76 276 276 46 277 277 47 278 278 76 279 279 47 280 280 75 281 281 75 282 282 47 283 283 48 284 284 75 285 285 48 286 286 74 287 287 48 288 288 43 289 289 73 290 290 74 291 291 48 292 292 73 293 293 43 294 294 44 295 295 78 296 296 73 297 297 43 298 298 78 299 299 67 300 300 32 301 301 33 302 302 33 303 303 68 304 304 67 305 305 69 306 306 68 307 307 33 308 308 34 309 309 69 310 310 33 311 311 35 312 312 70 313 313 69 314 314 35 315 315 69 316 316 34 317 317 35 318 318 30 319 319 71 320 320 35 321 321 71 322 322 70 323 323 30 324 324 31 325 325 72 326 326 30 327 327 72 328 328 71 329 329 72 330 330 31 331 331 32 332 332 32 333 333 67 334 334 72 335 335 74 336 336 73 337 337 68 338 338 69 339 339 74 340 340 68 341 341 70 342 342 75 343 343 74 344 344 70 345 345 74 346 346 69 347 347 71 348 348 76 349 349 75 350 350 71 351 351 75 352 352 70 353 353 72 354 354 77 355 355 76 356 356 72 357 357 76 358 358 71 359 359 78 360 360 77 361 361 72 362 362 67 363 363 78 364 364 72 365 365 73 366 366 78 367 367 67 368 368 68 369 369 73 370 370 67 371 371 56 372 372 80 373 373 79 374 374 134 375 375 116 376 376 117 377 377 57 378 378 81 379 379 135 380 380 141 381 381 118 382 382 119 383 383 58 384 384 82 385 385 136 386 386 142 387 387 120 388 388 121 389 389 59 390 390 83 391 391 137 392 392 143 393 393 122 394 394 123 395 395 60 396 396 84 397 397 138 398 398 144 399 399 124 400 400 125 401 401 55 402 402 140 403 403 139 404 404 145 405 405 126 406 406 127 407 407 88 408 408 85 409 409 86 410 410 88 411 411 86 412 412 89 413 413 89 414 414 86 415 415 87 416 416 89 417 417 87 418 418 90 419 419 87 420 420 85 421 421 90 422 422 90 423 423 85 424 424 88 425 425 91 426 426 88 427 427 89 428 428 91 429 429 89 430 430 90 431 431 91 432 432 90 433 433 88 434 434 92 435 435 98 436 436 99 437 437 93 438 438 92 439 439 99 440 440 93 441 441 99 442 442 100 443 443 94 444 444 93 445 445 100 446 446 94 447 447 100 448 448 101 449 449 95 450 450 94 451 451 101 452 452 95 453 453 101 454 454 102 455 455 96 456 456 95 457 457 102 458 458 96 459 459 102 460 460 103 461 461 97 462 462 96 463 463 103 464 464 97 465 465 103 466 466 98 467 467 92 468 468 97 469 469 98 470 470 108 471 471 3 472 472 107 473 473 4 474 474 108 475 475 107 476 476 107 477 477 2 478 478 4 479 479 106 480 480 1 481 481 104 482 482 104 483 483 0 484 484 2 485 485 2 486 486 106 487 487 104 488 488 7 489 489 110 490 490 26 491 491 110 492 492 6 493 493 26 494 494 8 495 495 112 496 496 27 497 497 112 498 498 7 499 499 27 500 500 9 501 501 113 502 502 28 503 503 113 504 504 8 505 505 28 506 506 10 507 507 114 508 508 29 509 509 114 510 510 9 511 511 29 512 512 11 513 513 115 514 514 24 515 515 115 516 516 10 517 517 24 518 518 6 519 519 111 520 520 25 521 521 111 522 522 11 523 523 25 524 524 0 525 525 105 526 526 2 527 527 105 528 528 5 529 529 2 530 530 5 531 531 109 532 532 2 533 533 109 534 534 4 535 535 2 536 536 9 537 537 114 538 538 104 539 539 104 540 540 1 541 541 9 542 542 0 543 543 104 544 544 114 545 545 114 546 546 10 547 547 0 548 548 105 549 549 0 550 550 10 551 551 10 552 552 115 553 553 105 554 554 115 555 555 11 556 556 5 557 557 5 558 558 105 559 559 115 560 560 5 561 561 11 562 562 111 563 563 111 564 564 109 565 565 5 566 566 4 567 567 109 568 568 111 569 569 111 570 570 6 571 571 4 572 572 4 573 573 6 574 574 110 575 575 110 576 576 108 577 577 4 578 578 3 579 579 108 580 580 110 581 581 110 582 582 7 583 583 3 584 584 3 585 585 7 586 586 112 587 587 112 588 588 107 589 589 3 590 590 2 591 591 107 592 592 112 593 593 112 594 594 8 595 595 2 596 596 2 597 597 8 598 598 113 599 599 113 600 600 106 601 601 2 602 602 1 603 603 106 604 604 113 605 605 113 606 606 9 607 607 1 608 608</p>
        </triangles>
      </mesh>
    </geometry>
  </library_geometries>
  <library_visual_scenes>
    <visual_scene id="" name="">
      <node name="Box003" id="Box003" sid="Box003">
        <matrix sid="matrix">1.000000 0.000000 0.000000 0.000000 0.000000 1.000000 0.000000 0.000000 0.000000 0.000000 1.000000 0.000000 0.000000 0.000000 0.000000 1.000000</matrix>
        <instance_geometry url="#Box003-lib">
          <bind_material>
            <technique_common>
              <instance_material symbol="Material #7" target="#Material #7"/>
            </technique_common>
          </bind_material>
        </instance_geometry>
        <extra>
          <technique profile="FCOLLADA">
            <visibility>1.000000</visibility>
          </technique>
        </extra>
      </node>
      <extra>
        <technique profile="MAX3D">
          <frame_rate>30.000000</frame_rate>
        </technique>
        <technique profile="FCOLLADA">
          <start_time>0.000000</start_time>
          <end_time>3.333333</end_time>
        </technique>
      </extra>
    </visual_scene>
  </library_visual_scenes>
  <scene>
    <instance_visual_scene url="#"></instance_visual_scene>
  </scene>
</COLLADA>

