﻿<?xml version="1.0" encoding="utf-8"?>
<COLLADA xmlns="http://www.collada.org/2005/11/COLLADASchema" version="1.4.1">
  <asset>
    <contributor>
      <author>marc</author>
      <authoring_tool>Maya7.0 | ColladaMaya v3.05B</authoring_tool>
      <comments>ColladaMaya export options: bakeTransforms=0;exportPolygonMeshes=1;bakeLighting=0;isSampling=0;
curveConstrainSampling=0;removeStaticCurves=1;exportCameraAsLookat=0;
exportLights=1;exportCameras=1;exportJointsAndSkin=1;
exportAnimations=1;exportTriangles=1;exportInvisibleNodes=0;
exportNormals=1;exportTexCoords=1;
exportVertexColors=1;exportVertexColorsAnimation=0;exportTangents=0;
exportTexTangents=0;exportConstraints=1;exportPhysics=1;exportXRefs=1;
dereferenceXRefs=0;cameraXFov=0;cameraYFov=1</comments>
      <source_data>file:///E:/lux/work_static_objects/castlebase/ceiling/hole_Lconcave.mb</source_data>
    </contributor>
    <created>2009-03-19T21:10:19Z</created>
    <modified>2009-03-19T21:10:19Z</modified>
    <up_axis>Y_UP</up_axis>
    <hpl2scaling />
  </asset>
  <library_physics_scenes>
    <physics_scene id="MayaNativePhysicsScene">
      <technique_common>
        <gravity>0 -980 0</gravity>
        <time_step>0.083</time_step>
      </technique_common>
    </physics_scene>
  </library_physics_scenes>
  <library_images>
    <image id="file2" name="file2">
      <init_from>file:///E:/lux/redist/static_objects/castlebase/ceiling/broken_rock.dds</init_from>
      <extra>
        <technique profile="MAYA">
          <dgnode_type>kFile</dgnode_type>
          <image_sequence>0</image_sequence>
        </technique>
      </extra>
    </image>
  </library_images>
  <library_materials>
    <material id="lambert3" name="lambert3">
      <instance_effect url="#lambert3-fx" />
    </material>
  </library_materials>
  <library_effects>
    <effect id="lambert3-fx">
      <profile_COMMON>
        <newparam sid="file2-surface">
          <surface type="2D">
            <init_from>file2</init_from>
            <format>A8R8G8B8</format>
          </surface>
        </newparam>
        <newparam sid="file2-sampler">
          <sampler2D>
            <source>file2-surface</source>
            <wrap_s>WRAP</wrap_s>
            <wrap_t>WRAP</wrap_t>
            <minfilter>NONE</minfilter>
            <magfilter>NONE</magfilter>
            <mipfilter>NONE</mipfilter>
          </sampler2D>
        </newparam>
        <technique sid="common">
          <lambert>
            <emission>
              <color>0 0 0 1</color>
            </emission>
            <ambient>
              <color>0 0 0 1</color>
            </ambient>
            <diffuse>
              <texture texture="file2-sampler" texcoord="TEX0">
                <extra>
                  <technique profile="MAYA">
                    <wrapU>1</wrapU>
                    <wrapV>1</wrapV>
                    <mirrorU>0</mirrorU>
                    <mirrorV>0</mirrorV>
                    <coverageU>1</coverageU>
                    <coverageV>1</coverageV>
                    <translateFrameU>0</translateFrameU>
                    <translateFrameV>0</translateFrameV>
                    <rotateFrame>0</rotateFrame>
                    <stagger>0</stagger>
                    <fast>0</fast>
                    <repeatU>1</repeatU>
                    <repeatV>1</repeatV>
                    <offsetU>0</offsetU>
                    <offsetV>0</offsetV>
                    <rotateUV>0</rotateUV>
                    <noiseU>0</noiseU>
                    <noiseV>0</noiseV>
                    <blend_mode>NONE</blend_mode>
                  </technique>
                </extra>
              </texture>
            </diffuse>
            <transparent opaque="A_ONE">
              <texture texture="file2-sampler" texcoord="TEX1">
                <extra>
                  <technique profile="MAYA">
                    <wrapU>1</wrapU>
                    <wrapV>1</wrapV>
                    <mirrorU>0</mirrorU>
                    <mirrorV>0</mirrorV>
                    <coverageU>1</coverageU>
                    <coverageV>1</coverageV>
                    <translateFrameU>0</translateFrameU>
                    <translateFrameV>0</translateFrameV>
                    <rotateFrame>0</rotateFrame>
                    <stagger>0</stagger>
                    <fast>0</fast>
                    <repeatU>1</repeatU>
                    <repeatV>1</repeatV>
                    <offsetU>0</offsetU>
                    <offsetV>0</offsetV>
                    <rotateUV>0</rotateUV>
                    <noiseU>0</noiseU>
                    <noiseV>0</noiseV>
                    <blend_mode>NONE</blend_mode>
                  </technique>
                </extra>
              </texture>
            </transparent>
            <transparency>
              <float>1</float>
            </transparency>
          </lambert>
          <extra>
            <technique profile="FCOLLADA" />
          </extra>
        </technique>
      </profile_COMMON>
    </effect>
  </library_effects>
  <library_geometries>
    <geometry id="polySurfaceShape9" name="polySurfaceShape9">
      <mesh>
        <source id="polySurfaceShape9-positions" name="position">
          <float_array id="polySurfaceShape9-positions-array" count="105">0.84961 -0.130062 0 1.09961 -0.264151 0 0.84961 0.082404 0 0.853285 0.014929 -0.413324 0.808232 -0.130062 -0.413324 1.09286 -0.264151 -0.541024 0.992387 0.260723 -0.541024 1 0.260723 0 0.84961 -0.266797 0 0.853285 -0.266797 -0.413324 0.28804 -0.091019 -0.84961 0.439896 -0.264151 -1.00203 0.28804 0.082404 -0.84961 0 0.082404 -0.84961 0 -0.130062 -0.84961 0 -0.264151 -1.09961 0 0.260723 -1 0.439896 0.260723 -1.00203 0.28804 -0.176405 -0.84961 0 -0.266797 -0.84961 0.868392 0.260723 -0.870631 0.956715 -0.264151 -0.951041 0.638202 -0.221601 -0.725363 0.615676 -0.11054 -0.725363 0.638202 0.048667 -0.725363 1.33126 -0.249037 -0.54733 1.25 -0.249036 0 1.33126 0.266797 -0.537112 1.25 0.266797 0 0.000000 -0.249037 -1.25 0.438819 -0.249037 -1.33244 0 0.266797 -1.25 0.420476 0.266797 -1.33244 1.06544 0.276288 -1.14935 1.0975 -0.249037 -1.06822</float_array>
          <technique_common>
            <accessor source="#polySurfaceShape9-positions-array" count="35" stride="3">
              <param name="X" type="float" />
              <param name="Y" type="float" />
              <param name="Z" type="float" />
            </accessor>
          </technique_common>
        </source>
        <source id="polySurfaceShape9-normals" name="normal">
          <float_array id="polySurfaceShape9-normals-array" count="105">-0.999004 -0.018905 0.040409 0.044225 -0.999018 0.00264 -0.936708 0.350112 -0.000443 -0.873297 0.421734 0.243912 -0.953224 -0.021443 0.301502 0.018576 -0.999767 -0.010992 -0.413638 0.905412 0.095565 -0.479788 0.877133 -0.021025 -0.642347 -0.765842 0.029598 -0.610844 -0.772184 0.174935 -0.175208 -0.004223 0.984522 0.002897 -0.996495 0.083597 -0.144443 0.373162 0.916453 0.00113 0.344427 0.938812 0 0 1 0.045217 -0.995036 0.088651 0.002286 0.902953 0.429733 -0.056089 0.911984 0.406374 -0.113178 -0.633303 0.765584 0.056073 -0.614762 0.786717 -0.230673 0.926726 0.296594 -0.023233 -0.999374 0.026693 -0.438057 -0.723092 0.534082 -0.62126 -0.016152 0.783438 -0.547073 0.451321 0.704997 0.074001 -0.997194 -0.011328 0.077599 -0.99697 0.005312 -0.024823 0.999638 0.010338 -0.020616 0.999786 -0.001408 0.001081 -0.998029 -0.062749 0.008878 -0.998007 -0.062471 0.002047 0.99978 0.020857 -0.007837 0.999642 0.025597 -0.023374 0.999383 0.026209 0.04355 -0.998033 -0.045101</float_array>
          <technique_common>
            <accessor source="#polySurfaceShape9-normals-array" count="35" stride="3">
              <param name="X" type="float" />
              <param name="Y" type="float" />
              <param name="Z" type="float" />
            </accessor>
          </technique_common>
        </source>
        <source id="polySurfaceShape9-map1" name="map1">
          <float_array id="polySurfaceShape9-map1-array" count="86">0.998746 0.551619 0.434002 0.132054 0.652253 0.132054 0.654131 0.259861 0.998746 0.447135 0.809756 0.447135 0.809756 0.321554 0.998746 0.342754 0.809756 0.150761 0.998746 0.150761 1.56572 0.642289 -0.111655 0.132054 0.018052 0.132054 0.019569 0.236136 1.56572 0.552833 1.37673 0.462024 1.42144 0.321554 1.56572 0.376002 1.37673 0.150761 1.56572 0.20521 1.18774 0.451377 1.18774 0.352974 1.18774 0.549548 0.239988 0.132054 1.18774 0.150761 1.56572 0.00462 1.39594 0.00462 0.457808 0.004611 0.647722 0.004611 1.21656 0.00462 0.274841 0.004611 0.963512 0.00462 -0.013588 0.004611 0.809756 0.00462 -0.113443 0.004611 0.202828 0.251004 0.412489 0.248237 1.37673 0.571518 -0.111255 0.263556 0.809756 0.542919 1.10446 0.00462 0.274841 0.004611 0.457808 0.004611</float_array>
          <technique_common>
            <accessor source="#polySurfaceShape9-map1-array" count="43" stride="2">
              <param name="S" type="float" />
              <param name="T" type="float" />
            </accessor>
          </technique_common>
        </source>
        <vertices id="polySurfaceShape9-vertices">
          <input semantic="POSITION" source="#polySurfaceShape9-positions" />
          <input semantic="NORMAL" source="#polySurfaceShape9-normals" />
        </vertices>
        <triangles material="lambert3SG" count="48">
          <input semantic="VERTEX" source="#polySurfaceShape9-vertices" offset="0" />
          <input semantic="TEXCOORD" source="#polySurfaceShape9-map1" offset="1" set="0" />
          <p>1 2 8 3 5 1 9 36 5 1 8 3 0 5 2 6 4 4 4 4 2 6 3 7 6 9 3 7 7 8 2 6 7 8 3 7 4 4 9 0 0 5 9 0 8 39 0 5 11 12 18 13 15 11 19 38 15 11 18 13 14 14 10 15 13 17 10 15 12 16 13 17 17 18 16 19 12 16 12 16 16 19 13 17 14 14 19 10 10 15 19 10 18 37 10 15 24 21 12 16 23 20 12 16 10 15 23 20 22 22 23 20 18 37 23 20 10 15 18 37 21 23 22 35 11 12 22 35 18 13 11 12 20 24 17 18 24 21 24 21 17 18 12 16 22 35 21 23 9 36 9 36 21 23 5 1 9 0 4 4 22 22 4 4 23 20 22 22 3 7 24 21 4 4 24 21 23 20 4 4 3 7 6 9 24 21 6 9 20 24 24 21 25 42 26 28 5 1 1 2 5 1 26 28 27 31 6 9 28 33 6 9 7 8 28 33 11 12 15 11 30 32 15 11 29 34 30 32 32 26 31 25 17 18 16 19 17 18 31 25 33 29 20 24 27 31 20 24 6 9 27 31 34 30 21 23 30 32 21 23 11 12 30 32 33 40 32 26 20 24 17 18 20 24 32 26 25 27 5 1 34 41 5 1 21 23 34 41</p>
        </triangles>
      </mesh>
      <extra>
        <technique profile="MAYA">
          <double_sided>1</double_sided>
        </technique>
      </extra>
    </geometry>
  </library_geometries>
  <library_visual_scenes>
    <visual_scene id="VisualSceneNode" name="hole_Lconcave">
      <node id="polySurface9" name="polySurface9" type="NODE">
        <rotate sid="rotateZ">0 0 1 0</rotate>
        <rotate sid="rotateY">0 1 0 0</rotate>
        <rotate sid="rotateX">1 0 0 0</rotate>
        <instance_geometry url="#polySurfaceShape9">
          <bind_material>
            <technique_common>
              <instance_material symbol="lambert3SG" target="#lambert3">
                <bind_vertex_input semantic="TEX0" input_semantic="TEXCOORD" input_set="0" />
                <bind_vertex_input semantic="TEX1" input_semantic="TEXCOORD" input_set="0" />
              </instance_material>
            </technique_common>
          </bind_material>
        </instance_geometry>
      </node>
      <extra>
        <technique profile="FCOLLADA">
          <start_time>0.041666</start_time>
          <end_time>2</end_time>
        </technique>
      </extra>
    </visual_scene>
  </library_visual_scenes>
  <scene>
    <instance_physics_scene url="#MayaNativePhysicsScene" />
    <instance_visual_scene url="#VisualSceneNode" />
  </scene>
</COLLADA>