<?xml version="1.0" encoding="utf-8"?>
<COLLADA xmlns="http://www.collada.org/2005/11/COLLADASchema" version="1.4.1">
  <asset>
    <contributor>
      <author></author>
      <authoring_tool>FBX COLLADA exporter</authoring_tool>
      <comments></comments>
    </contributor>
    <created>2012-05-05T10:47:35Z</created>
    <keywords></keywords>
    <modified>2012-05-05T10:47:35Z</modified>
    <revision></revision>
    <subject></subject>
    <title></title>
    <unit meter="1.000000" name="centimeter"></unit>
    <up_axis>Y_UP</up_axis>
  </asset>
  <library_images>
    <image id="Map #3-image" name="Map #3">
      <init_from>file://C:\Users\WesleyTack\Desktop\amnesia_raw\StaticObjects\Spraylock\gauges.psd</init_from>
    </image>
  </library_images>
  <library_materials>
    <material id="gauges" name="gauges">
      <instance_effect url="#gauges-fx"/>
    </material>
  </library_materials>
  <library_effects>
    <effect id="gauges-fx" name="gauges">
      <profile_COMMON>
        <technique sid="standard">
          <phong>
            <emission>
              <color sid="emission">0.000000  0.000000 0.000000 1.000000</color>
            </emission>
            <ambient>
              <color sid="ambient">0.588235  0.588235 0.588235 1.000000</color>
            </ambient>
            <diffuse>
              <texture texture="Map #3-image" texcoord="CHANNEL0">
                <extra>
                  <technique profile="MAYA">
                    <wrapU sid="wrapU0">TRUE</wrapU>
                    <wrapV sid="wrapV0">TRUE</wrapV>
                    <blend_mode>ADD</blend_mode>
                  </technique>
                </extra>
              </texture>
              <texture texture="Map #3-image" texcoord="CHANNEL0">
                <extra>
                  <technique profile="MAYA">
                    <wrapU sid="wrapU0">TRUE</wrapU>
                    <wrapV sid="wrapV0">TRUE</wrapV>
                    <blend_mode>ADD</blend_mode>
                  </technique>
                </extra>
              </texture>
            </diffuse>
            <specular>
              <color sid="specular">0.000000  0.000000 0.000000 1.000000</color>
            </specular>
            <shininess>
              <float sid="shininess">2.000000</float>
            </shininess>
            <reflective>
              <color sid="reflective">0.000000  0.000000 0.000000 1.000000</color>
            </reflective>
            <reflectivity>
              <float sid="reflectivity">1.000000</float>
            </reflectivity>
            <transparent opaque="RGB_ZERO">
              <color sid="transparent">1.000000  1.000000 1.000000 1.000000</color>
            </transparent>
            <transparency>
              <float sid="transparency">0.000000</float>
            </transparency>
          </phong>
        </technique>
      </profile_COMMON>
    </effect>
  </library_effects>
  <library_geometries>
    <geometry id="Box361-lib" name="Box361Mesh">
      <mesh>
        <source id="Box361-POSITION">
          <float_array id="Box361-POSITION-array" count="21">
0.084347 -0.025643 -0.014963
0.084347 -0.028103 -0.009322
0.084347 -0.003317 -0.009690
0.084347 -0.009047 0.003450
0.084347 0.010500 -0.003664
0.084347 0.004770 0.009475
0.084347 0.089669 0.037908
</float_array>
          <technique_common>
            <accessor source="#Box361-POSITION-array" count="7" stride="3">
              <param name="X" type="float"/>
              <param name="Y" type="float"/>
              <param name="Z" type="float"/>
            </accessor>
          </technique_common>
        </source>
        <source id="Box361-Normal0">
          <float_array id="Box361-Normal0-array" count="45">
1.000000 -0.000000 0.000000
1.000000 -0.000001 0.000001
1.000000 -0.000001 0.000001
1.000000 -0.000001 0.000001
1.000000 0.000000 0.000000
1.000000 -0.000000 0.000000
1.000000 -0.000001 0.000001
1.000000 -0.000000 0.000001
1.000000 -0.000000 0.000001
1.000000 -0.000000 0.000001
1.000000 -0.000001 0.000001
1.000000 -0.000001 0.000001
1.000000 -0.000000 0.000001
1.000000 -0.000000 0.000001
1.000000 -0.000000 0.000001
</float_array>
          <technique_common>
            <accessor source="#Box361-Normal0-array" count="15" stride="3">
              <param name="X" type="float"/>
              <param name="Y" type="float"/>
              <param name="Z" type="float"/>
            </accessor>
          </technique_common>
        </source>
        <source id="Box361-UV0">
          <float_array id="Box361-UV0-array" count="14">
0.644797 0.601093
0.652964 0.556017
0.665253 0.556017
0.673421 0.601093
0.644797 0.631194
0.673421 0.631194
0.657701 0.809295
</float_array>
          <technique_common>
            <accessor source="#Box361-UV0-array" count="7" stride="2">
              <param name="S" type="float"/>
              <param name="T" type="float"/>
            </accessor>
          </technique_common>
        </source>
        <vertices id="Box361-VERTEX">
          <input semantic="POSITION" source="#Box361-POSITION"/>
        </vertices>
        <triangles count="5" material="gauges">
          <input semantic="VERTEX" offset="0" source="#Box361-VERTEX"/>
          <input semantic="NORMAL" offset="1" source="#Box361-Normal0"/>
          <input semantic="TEXCOORD" offset="2" set="0" source="#Box361-UV0"/>
          <p> 0 0 1 2 1 0 3 2 3 3 3 3 1 4 2 0 5 1 2 6 0 4 7 4 5 8 5 5 9 5 3 10 3 2 11 0 6 12 6 5 13 5 4 14 4</p>
        </triangles>
      </mesh>
    </geometry>
    <geometry id="Box362-lib" name="Box362Mesh">
      <mesh>
        <source id="Box362-POSITION">
          <float_array id="Box362-POSITION-array" count="288">
0.006553 0.000000 -0.163181
0.026604 0.034731 -0.163181
0.066708 0.034731 -0.163181
0.086760 0.000000 -0.163181
0.066708 -0.034731 -0.163181
0.026604 -0.034731 -0.163181
0.006553 0.000000 -0.198913
0.026604 0.034731 -0.198913
0.066708 0.034731 -0.198913
0.086760 0.000000 -0.198913
0.066708 -0.034731 -0.198913
0.026604 -0.034731 -0.198913
0.079398 0.000000 -0.271502
0.066450 0.018450 -0.268033
0.045500 0.011403 -0.262419
0.045500 -0.011402 -0.262419
0.066450 -0.018450 -0.268033
0.064865 0.000000 -0.197891
0.051460 0.018450 -0.197891
0.029771 0.011403 -0.197891
0.029771 -0.011402 -0.197891
0.051460 -0.018450 -0.197891
0.044233 0.018450 -0.318961
0.053711 0.000000 -0.328439
0.044233 -0.018450 -0.318961
0.028896 -0.011402 -0.303624
0.028896 0.011403 -0.303624
-0.003475 0.018450 -0.330526
-0.003475 0.000000 -0.343931
-0.003475 -0.018450 -0.330526
-0.003475 -0.011402 -0.308837
-0.003475 0.011403 -0.308837
-0.000132 0.170294 -0.000079
-0.000132 0.157331 0.065090
-0.000132 0.120416 0.120337
-0.000132 0.065169 0.157252
-0.000132 0.000000 0.170215
-0.000132 -0.065169 0.157252
-0.000132 -0.120416 0.120337
-0.000132 -0.157331 0.065090
-0.000132 -0.170294 -0.000079
-0.000132 -0.157332 -0.065248
-0.000132 -0.120416 -0.120496
-0.000132 -0.065169 -0.157411
-0.000132 0.000000 -0.170374
-0.000132 0.065169 -0.157411
-0.000132 0.120416 -0.120496
-0.000132 0.157332 -0.065248
0.092869 0.170294 -0.000079
0.092869 0.157331 0.065090
0.092869 0.120416 0.120337
0.092869 0.065169 0.157252
0.092869 0.000000 0.170215
0.092869 -0.065169 0.157252
0.092869 -0.120416 0.120337
0.092869 -0.157331 0.065090
0.092869 -0.170294 -0.000079
0.092869 -0.157331 -0.065248
0.092869 -0.120416 -0.120496
0.092869 -0.065169 -0.157411
0.092869 0.000000 -0.170374
0.092869 0.065169 -0.157411
0.092869 0.120416 -0.120496
0.092869 0.157332 -0.065248
0.092869 0.149311 -0.000079
0.092869 0.137945 0.057059
0.092869 0.105579 0.105499
0.092869 0.057139 0.137866
0.092869 0.000000 0.149231
0.092869 -0.057139 0.137866
0.092869 -0.105579 0.105499
0.092869 -0.137945 0.057059
0.092869 -0.149311 -0.000079
0.092869 -0.137945 -0.057218
0.092869 -0.105579 -0.105658
0.092869 -0.057139 -0.138024
0.092869 0.000000 -0.149390
0.092869 0.057139 -0.138024
0.092869 0.105579 -0.105658
0.092869 0.137945 -0.057218
0.082578 0.138819 -0.000079
0.082578 0.128252 0.053044
0.082578 0.098160 0.098080
0.082578 0.053124 0.128173
0.082578 0.000000 0.138740
0.082578 -0.053124 0.128173
0.082578 -0.098160 0.098080
0.082578 -0.128252 0.053044
0.082578 -0.138819 -0.000079
0.082578 -0.128252 -0.053203
0.082578 -0.098160 -0.098239
0.082578 -0.053124 -0.128331
0.082578 0.000000 -0.138898
0.082578 0.053124 -0.128331
0.082578 0.098160 -0.098239
0.082578 0.128252 -0.053203
</float_array>
          <technique_common>
            <accessor source="#Box362-POSITION-array" count="96" stride="3">
              <param name="X" type="float"/>
              <param name="Y" type="float"/>
              <param name="Z" type="float"/>
            </accessor>
          </technique_common>
        </source>
        <source id="Box362-Normal0">
          <float_array id="Box362-Normal0-array" count="1530">
-0.866026 0.500000 -0.000002
-0.866026 0.500000 -0.000002
-0.866026 0.500000 -0.000002
-0.866026 0.500000 -0.000002
-0.866026 0.500000 -0.000002
-0.866026 0.500000 -0.000002
0.000003 1.000000 0.000000
0.000003 1.000000 0.000000
0.000003 1.000000 0.000000
-0.000000 1.000000 -0.000003
-0.000000 1.000000 -0.000003
-0.000000 1.000000 -0.000003
0.866025 0.500001 -0.000002
0.866025 0.500001 -0.000002
0.866025 0.500001 -0.000002
0.866026 0.499999 0.000000
0.866026 0.499999 0.000000
0.866026 0.499999 0.000000
0.866025 -0.500000 0.000002
0.866025 -0.500000 0.000002
0.866025 -0.500000 0.000002
0.866026 -0.500000 0.000001
0.866026 -0.500000 0.000001
0.866026 -0.500000 0.000001
0.000000 -1.000000 0.000003
0.000000 -1.000000 0.000003
0.000000 -1.000000 0.000003
0.000000 -1.000000 0.000003
0.000000 -1.000000 0.000003
0.000000 -1.000000 0.000003
-0.866025 -0.500000 0.000002
-0.866025 -0.500000 0.000002
-0.866025 -0.500000 0.000002
-0.866026 -0.500000 0.000002
-0.866026 -0.500000 0.000002
-0.866026 -0.500000 0.000002
-0.000001 -0.000001 -1.000000
-0.000001 -0.000001 -1.000000
-0.000001 -0.000001 -1.000000
0.000000 -0.000002 -1.000000
0.000000 -0.000002 -1.000000
0.000000 -0.000002 -1.000000
-0.000001 0.000000 -1.000000
-0.000001 0.000000 -1.000000
-0.000001 0.000000 -1.000000
0.000000 0.000000 -1.000000
0.000000 0.000000 -1.000000
0.000000 0.000000 -1.000000
0.992305 0.003089 -0.123779
0.410160 0.911550 -0.029093
0.238326 0.970140 0.045039
0.238326 0.970140 0.045039
0.979801 0.004399 0.199929
0.992305 0.003089 -0.123779
0.410160 0.911550 -0.029093
-0.763144 0.644507 0.047132
-0.821018 0.536245 -0.195883
-0.821018 0.536245 -0.195883
0.238326 0.970140 0.045039
0.410160 0.911550 -0.029093
-0.763144 0.644507 0.047132
-0.760776 -0.647212 0.048338
-0.819018 -0.537917 -0.199634
-0.819018 -0.537917 -0.199634
-0.821018 0.536245 -0.195883
-0.763144 0.644507 0.047132
-0.760776 -0.647212 0.048338
0.404688 -0.913957 -0.030154
0.231683 -0.971781 0.044325
0.231683 -0.971781 0.044325
-0.819018 -0.537917 -0.199634
-0.760776 -0.647212 0.048338
0.404688 -0.913957 -0.030154
0.992305 0.003089 -0.123779
0.979801 0.004399 0.199929
0.979801 0.004399 0.199929
0.231683 -0.971781 0.044325
0.404688 -0.913957 -0.030154
0.410160 0.911550 -0.029093
0.992305 0.003089 -0.123779
0.655029 -0.001266 -0.755602
0.655029 -0.001266 -0.755602
0.281534 0.895161 -0.345580
0.410160 0.911550 -0.029093
0.992305 0.003089 -0.123779
0.404688 -0.913957 -0.030154
0.277109 -0.893536 -0.353276
0.277109 -0.893536 -0.353276
0.655029 -0.001266 -0.755602
0.992305 0.003089 -0.123779
0.404688 -0.913957 -0.030154
-0.760776 -0.647212 0.048338
-0.435619 -0.693995 0.573242
-0.435619 -0.693995 0.573242
0.277109 -0.893536 -0.353276
0.404688 -0.913957 -0.030154
-0.760776 -0.647212 0.048338
-0.763144 0.644507 0.047132
-0.445772 0.697999 0.560433
-0.445772 0.697999 0.560433
-0.435619 -0.693995 0.573242
-0.760776 -0.647212 0.048338
-0.763144 0.644507 0.047132
0.410160 0.911550 -0.029093
0.281534 0.895161 -0.345580
0.281534 0.895161 -0.345580
-0.445772 0.697999 0.560433
-0.763144 0.644507 0.047132
0.281534 0.895161 -0.345580
0.655029 -0.001266 -0.755602
0.252198 -0.005629 -0.967659
0.252198 -0.005629 -0.967659
0.100256 0.920731 -0.377097
0.281534 0.895161 -0.345580
0.655029 -0.001266 -0.755602
0.277109 -0.893536 -0.353276
0.106475 -0.915340 -0.388350
0.106475 -0.915340 -0.388350
0.252198 -0.005629 -0.967659
0.655029 -0.001266 -0.755602
0.277109 -0.893536 -0.353276
-0.435619 -0.693995 0.573242
-0.138612 -0.605476 0.783700
-0.138612 -0.605476 0.783700
0.106475 -0.915340 -0.388350
0.277109 -0.893536 -0.353276
-0.435619 -0.693995 0.573242
-0.445772 0.697999 0.560433
-0.125623 0.612934 0.780084
-0.125623 0.612934 0.780084
-0.138612 -0.605476 0.783700
-0.435619 -0.693995 0.573242
-0.445772 0.697999 0.560433
0.281534 0.895161 -0.345580
0.100256 0.920731 -0.377097
0.100256 0.920731 -0.377097
-0.125623 0.612934 0.780084
-0.445772 0.697999 0.560433
0.000000 1.000000 0.000001
0.000000 0.923879 0.382684
0.000000 0.923879 0.382684
0.000000 0.923879 0.382684
0.000000 1.000000 0.000001
0.000000 1.000000 0.000001
0.000000 0.923879 0.382684
0.000000 0.707107 0.707107
0.000000 0.707107 0.707107
0.000000 0.707107 0.707107
0.000000 0.923879 0.382684
0.000000 0.923879 0.382684
0.000000 0.707107 0.707107
-0.000000 0.382684 0.923879
-0.000000 0.382684 0.923879
-0.000000 0.382684 0.923879
0.000000 0.707107 0.707107
0.000000 0.707107 0.707107
-0.000000 0.382684 0.923879
-0.000000 0.000000 1.000000
-0.000000 0.000000 1.000000
-0.000000 0.000000 1.000000
-0.000000 0.382684 0.923879
-0.000000 0.382684 0.923879
-0.000000 0.000000 1.000000
-0.000000 -0.382684 0.923879
-0.000000 -0.382684 0.923879
-0.000000 -0.382684 0.923879
-0.000000 0.000000 1.000000
-0.000000 0.000000 1.000000
-0.000000 -0.382684 0.923879
0.000000 -0.707107 0.707107
0.000000 -0.707107 0.707107
0.000000 -0.707107 0.707107
-0.000000 -0.382684 0.923879
-0.000000 -0.382684 0.923879
0.000000 -0.707107 0.707107
0.000000 -0.923879 0.382684
0.000000 -0.923879 0.382684
0.000000 -0.923879 0.382684
0.000000 -0.707107 0.707107
0.000000 -0.707107 0.707107
0.000000 -0.923879 0.382684
0.000000 -1.000000 0.000001
0.000000 -1.000000 0.000000
0.000000 -1.000000 0.000000
0.000000 -0.923879 0.382684
0.000000 -0.923879 0.382684
0.000000 -1.000000 0.000001
0.000001 -0.923880 -0.382683
0.000001 -0.923880 -0.382683
0.000001 -0.923880 -0.382683
0.000000 -1.000000 0.000000
0.000000 -1.000000 0.000001
0.000001 -0.923880 -0.382683
0.000000 -0.707107 -0.707107
0.000000 -0.707107 -0.707107
0.000000 -0.707107 -0.707107
0.000001 -0.923880 -0.382683
0.000001 -0.923880 -0.382683
0.000000 -0.707107 -0.707107
0.000000 -0.382683 -0.923880
0.000000 -0.382683 -0.923880
0.000000 -0.382683 -0.923880
0.000000 -0.707107 -0.707107
0.000000 -0.707107 -0.707107
0.000000 -0.382683 -0.923880
0.000000 -0.000000 -1.000000
0.000000 -0.000000 -1.000000
0.000000 -0.000000 -1.000000
0.000000 -0.382683 -0.923880
0.000000 -0.382683 -0.923880
0.000000 -0.000000 -1.000000
0.000000 0.382683 -0.923880
0.000000 0.382683 -0.923880
0.000000 0.382683 -0.923880
0.000000 -0.000000 -1.000000
0.000000 -0.000000 -1.000000
0.000000 0.382683 -0.923880
0.000000 0.707107 -0.707107
0.000000 0.707107 -0.707107
0.000000 0.707107 -0.707107
0.000000 0.382683 -0.923880
0.000000 0.382683 -0.923880
0.000000 0.707107 -0.707107
0.000000 0.923880 -0.382683
0.000000 0.923880 -0.382683
0.000000 0.923880 -0.382683
0.000000 0.707107 -0.707107
0.000000 0.707107 -0.707107
0.000000 0.923880 -0.382683
0.000000 1.000000 0.000001
0.000000 1.000000 0.000001
0.000000 1.000000 0.000001
0.000000 0.923880 -0.382683
0.000000 0.923880 -0.382683
-1.000000 -0.000000 0.000000
-1.000000 -0.000000 0.000000
-1.000000 -0.000000 0.000000
-1.000000 0.000000 0.000001
-1.000000 0.000000 0.000001
-1.000000 0.000000 0.000001
-1.000000 0.000000 0.000000
-1.000000 0.000000 0.000000
-1.000000 0.000000 0.000000
-1.000000 -0.000000 -0.000000
-1.000000 -0.000000 -0.000000
-1.000000 -0.000000 -0.000000
-1.000000 0.000000 0.000000
-1.000000 0.000000 0.000000
-1.000000 0.000000 0.000000
-1.000000 0.000000 0.000000
-1.000000 0.000000 0.000000
-1.000000 0.000000 0.000000
-1.000000 0.000000 0.000000
-1.000000 0.000000 0.000000
-1.000000 0.000000 0.000000
-1.000000 0.000000 0.000000
-1.000000 0.000000 0.000000
-1.000000 0.000000 0.000000
-1.000000 -0.000001 -0.000000
-1.000000 -0.000001 -0.000000
-1.000000 -0.000001 -0.000000
-1.000000 0.000000 0.000000
-1.000000 0.000000 0.000000
-1.000000 0.000000 0.000000
-1.000000 -0.000000 0.000000
-1.000000 -0.000000 0.000000
-1.000000 -0.000000 0.000000
-1.000000 -0.000000 0.000000
-1.000000 -0.000000 0.000000
-1.000000 -0.000000 0.000000
-1.000000 -0.000000 0.000000
-1.000000 -0.000000 0.000000
-1.000000 -0.000000 0.000000
-1.000000 -0.000000 0.000000
-1.000000 -0.000000 0.000000
-1.000000 -0.000000 0.000000
1.000000 0.000000 0.000000
1.000000 0.000000 0.000000
1.000000 0.000000 0.000000
1.000000 0.000000 0.000000
1.000000 0.000000 0.000000
1.000000 0.000000 0.000000
1.000000 0.000000 0.000000
1.000000 0.000000 0.000000
1.000000 0.000000 0.000000
1.000000 0.000000 0.000000
1.000000 0.000000 0.000000
1.000000 0.000000 0.000000
1.000000 0.000001 0.000000
1.000000 0.000001 0.000000
1.000000 0.000001 0.000000
1.000000 0.000000 0.000000
1.000000 0.000000 0.000000
1.000000 0.000000 0.000000
1.000000 0.000000 0.000000
1.000000 0.000000 0.000000
1.000000 0.000000 0.000000
1.000000 0.000000 0.000000
1.000000 0.000000 0.000000
1.000000 0.000000 0.000000
1.000000 0.000000 0.000000
1.000000 0.000000 0.000000
1.000000 0.000000 0.000000
1.000000 0.000000 0.000000
1.000000 0.000000 0.000000
1.000000 0.000000 0.000000
1.000000 0.000000 0.000000
1.000000 0.000000 0.000000
1.000000 0.000000 0.000000
1.000000 0.000000 0.000000
1.000000 0.000000 0.000000
1.000000 0.000000 0.000000
1.000000 0.000000 0.000000
1.000000 0.000000 0.000000
1.000000 0.000000 0.000000
1.000000 0.000000 0.000000
1.000000 0.000000 0.000000
1.000000 0.000000 0.000000
1.000000 -0.000000 0.000000
1.000000 -0.000000 0.000000
1.000000 -0.000000 0.000000
1.000000 0.000000 0.000000
1.000000 0.000000 0.000000
1.000000 0.000000 0.000000
1.000000 0.000000 -0.000000
1.000000 0.000000 -0.000000
1.000000 0.000000 -0.000000
1.000000 0.000000 -0.000000
1.000000 0.000000 -0.000000
1.000000 0.000000 -0.000000
1.000000 -0.000000 -0.000001
1.000000 -0.000000 -0.000001
1.000000 -0.000000 -0.000001
1.000000 0.000000 0.000000
1.000000 0.000000 0.000000
1.000000 0.000000 0.000000
1.000000 0.000000 0.000000
1.000000 0.000000 0.000000
1.000000 0.000000 0.000000
1.000000 0.000000 -0.000001
1.000000 0.000000 -0.000001
1.000000 0.000000 -0.000001
1.000000 0.000000 0.000000
1.000000 0.000000 0.000000
1.000000 0.000000 0.000000
1.000000 0.000000 0.000000
1.000000 0.000000 0.000000
1.000000 0.000000 0.000000
1.000000 0.000000 0.000000
1.000000 0.000000 0.000000
1.000000 0.000000 0.000000
1.000000 0.000000 0.000000
1.000000 0.000000 0.000000
1.000000 0.000000 0.000000
1.000000 0.000000 0.000000
1.000000 0.000000 0.000000
1.000000 0.000000 0.000000
1.000000 0.000000 0.000000
1.000000 0.000000 0.000000
1.000000 0.000000 0.000000
1.000000 0.000000 0.000000
1.000000 0.000000 0.000000
1.000000 0.000000 0.000000
1.000000 0.000000 0.000000
1.000000 0.000000 0.000000
1.000000 0.000000 0.000000
1.000000 0.000000 0.000000
1.000000 0.000000 0.000000
1.000000 0.000000 0.000000
1.000000 0.000000 0.000000
1.000000 0.000000 0.000000
1.000000 0.000000 0.000000
1.000000 0.000000 -0.000000
1.000000 0.000000 -0.000000
1.000000 0.000000 -0.000000
1.000000 0.000000 -0.000000
1.000000 0.000000 -0.000000
1.000000 0.000000 -0.000000
1.000000 0.000000 -0.000000
1.000000 0.000000 -0.000000
1.000000 0.000000 -0.000000
1.000000 0.000000 -0.000000
1.000000 0.000000 -0.000000
1.000000 0.000000 -0.000000
1.000000 -0.000000 0.000000
1.000000 -0.000000 0.000000
1.000000 -0.000000 0.000000
1.000000 -0.000000 0.000000
1.000000 -0.000000 0.000000
1.000000 -0.000000 0.000000
1.000000 0.000000 0.000000
1.000000 0.000000 0.000000
1.000000 0.000000 0.000000
1.000000 0.000000 0.000000
1.000000 0.000000 0.000000
1.000000 0.000000 0.000000
1.000000 0.000000 0.000000
1.000000 0.000000 0.000000
1.000000 0.000000 0.000000
1.000000 0.000000 0.000000
1.000000 0.000000 0.000000
1.000000 0.000000 0.000000
1.000000 0.000000 0.000000
1.000000 0.000000 0.000000
1.000000 0.000000 0.000000
1.000000 0.000000 0.000000
1.000000 0.000000 0.000000
1.000000 0.000000 0.000000
1.000000 0.000000 -0.000000
1.000000 0.000000 -0.000000
1.000000 0.000000 -0.000000
1.000000 -0.000000 -0.000000
1.000000 -0.000000 -0.000000
1.000000 -0.000000 -0.000000
0.713932 -0.700215 -0.000000
0.713931 -0.646915 -0.267961
0.713931 -0.646915 -0.267961
0.713931 -0.646915 -0.267961
0.713933 -0.700214 -0.000000
0.713932 -0.700215 -0.000000
0.713931 -0.646915 -0.267961
0.713933 -0.495126 -0.495126
0.713933 -0.495127 -0.495126
0.713933 -0.495127 -0.495126
0.713931 -0.646915 -0.267961
0.713931 -0.646915 -0.267961
0.713933 -0.495126 -0.495126
0.713932 -0.267960 -0.646915
0.713932 -0.267961 -0.646914
0.713932 -0.267961 -0.646914
0.713933 -0.495127 -0.495126
0.713933 -0.495126 -0.495126
0.713932 -0.267960 -0.646915
0.713932 0.000000 -0.700215
0.713932 0.000000 -0.700215
0.713932 0.000000 -0.700215
0.713932 -0.267961 -0.646914
0.713932 -0.267960 -0.646915
0.713932 0.000000 -0.700215
0.713932 0.267961 -0.646914
0.713932 0.267961 -0.646914
0.713932 0.267961 -0.646914
0.713932 0.000000 -0.700215
0.713932 0.000000 -0.700215
0.713932 0.267961 -0.646914
0.713932 0.495127 -0.495126
0.713933 0.495127 -0.495126
0.713933 0.495127 -0.495126
0.713932 0.267961 -0.646914
0.713932 0.267961 -0.646914
0.713932 0.495127 -0.495126
0.713930 0.646916 -0.267961
0.713930 0.646916 -0.267961
0.713930 0.646916 -0.267961
0.713933 0.495127 -0.495126
0.713932 0.495127 -0.495126
0.713930 0.646916 -0.267961
0.713932 0.700215 -0.000000
0.713932 0.700215 -0.000000
0.713932 0.700215 -0.000000
0.713930 0.646916 -0.267961
0.713930 0.646916 -0.267961
0.713932 0.700215 -0.000000
0.713930 0.646916 0.267962
0.713930 0.646916 0.267962
0.713930 0.646916 0.267962
0.713932 0.700215 -0.000000
0.713932 0.700215 -0.000000
0.713930 0.646916 0.267962
0.713933 0.495127 0.495126
0.713933 0.495127 0.495126
0.713933 0.495127 0.495126
0.713930 0.646916 0.267962
0.713930 0.646916 0.267962
0.713933 0.495127 0.495126
0.713933 0.267961 0.646913
0.713933 0.267960 0.646914
0.713933 0.267960 0.646914
0.713933 0.495127 0.495126
0.713933 0.495127 0.495126
0.713933 0.267961 0.646913
0.713933 -0.000000 0.700215
0.713933 -0.000000 0.700215
0.713933 -0.000000 0.700215
0.713933 0.267960 0.646914
0.713933 0.267961 0.646913
0.713933 -0.000000 0.700215
0.713933 -0.267960 0.646913
0.713933 -0.267960 0.646914
0.713933 -0.267960 0.646914
0.713933 -0.000000 0.700215
0.713933 -0.000000 0.700215
0.713933 -0.267960 0.646913
0.713934 -0.495126 0.495125
0.713934 -0.495126 0.495125
0.713934 -0.495126 0.495125
0.713933 -0.267960 0.646914
0.713933 -0.267960 0.646913
0.713934 -0.495126 0.495125
0.713935 -0.646912 0.267959
0.713935 -0.646912 0.267960
0.713935 -0.646912 0.267960
0.713934 -0.495126 0.495125
0.713934 -0.495126 0.495125
0.713935 -0.646912 0.267959
0.713932 -0.700215 -0.000000
0.713933 -0.700214 -0.000000
0.713933 -0.700214 -0.000000
0.713935 -0.646912 0.267960
0.713935 -0.646912 0.267959
</float_array>
          <technique_common>
            <accessor source="#Box362-Normal0-array" count="510" stride="3">
              <param name="X" type="float"/>
              <param name="Y" type="float"/>
              <param name="Z" type="float"/>
            </accessor>
          </technique_common>
        </source>
        <source id="Box362-UV0">
          <float_array id="Box362-UV0-array" count="284">
0.693951 0.294134
0.612102 0.294134
0.612102 0.369655
0.693951 0.369655
0.611692 0.294134
0.693992 0.294134
0.693992 0.369655
0.611692 0.369655
0.611713 0.294134
0.693582 0.294134
0.693971 0.294134
0.693971 0.369654
0.693582 0.369655
0.611713 0.369655
0.615292 0.048714
0.636892 0.011303
0.680091 0.011303
0.701690 0.048714
0.680091 0.086125
0.636892 0.086125
0.257599 0.282932
0.242439 0.282932
0.305378 0.282932
0.288036 0.282932
0.242439 0.225934
0.257599 0.225934
0.272625 0.282932
0.272625 0.225934
0.228544 0.282932
0.257599 0.325686
0.228544 0.225934
0.257599 0.370614
0.288036 0.225934
0.305378 0.325686
0.305378 0.370614
0.305378 0.225934
0.242439 0.325686
0.228544 0.325686
0.228544 0.370614
0.288036 0.325686
0.272625 0.325686
0.288036 0.370614
0.242439 0.370614
0.272625 0.370614
0.213545 0.006735
0.117929 0.006735
0.213545 0.625748
0.213545 0.682549
0.117929 0.682549
0.117929 0.625748
0.213545 0.749551
0.117929 0.749551
0.213545 0.816553
0.117929 0.816553
0.213545 0.873354
0.117929 0.873354
0.213545 0.930155
0.117929 0.930155
0.213545 0.997156
0.117929 0.997156
0.213545 0.073736
0.117929 0.073736
0.213545 0.130537
0.117929 0.130537
0.961289 0.834026
0.951439 0.883544
0.923389 0.925523
0.881410 0.953573
0.831892 0.963422
0.782374 0.953573
0.740395 0.925523
0.712345 0.883544
0.702496 0.834026
0.712345 0.784508
0.740395 0.742528
0.782374 0.714479
0.831892 0.704629
0.881410 0.714479
0.923389 0.742529
0.951439 0.784508
0.990628 0.834026
0.978545 0.894771
0.960474 0.887286
0.971068 0.834026
0.944135 0.946269
0.930305 0.932438
0.892638 0.980678
0.885153 0.962608
0.831892 0.992761
0.831892 0.973202
0.771146 0.980678
0.778632 0.962608
0.719649 0.946269
0.733480 0.932438
0.685239 0.894771
0.703310 0.887286
0.673156 0.834026
0.692716 0.834026
0.685239 0.773280
0.703310 0.780765
0.719649 0.721783
0.733479 0.735613
0.771146 0.687373
0.778632 0.705444
0.831892 0.675290
0.831892 0.694849
0.892638 0.687373
0.885153 0.705444
0.944135 0.721783
0.930305 0.735613
0.978545 0.773280
0.960474 0.780765
0.213545 0.254340
0.213545 0.321342
0.117929 0.321342
0.117929 0.254340
0.213545 0.378143
0.117929 0.378143
0.213545 0.187339
0.117929 0.187339
0.213545 0.434944
0.117929 0.434944
0.213545 0.501946
0.117929 0.501946
0.213545 0.568947
0.117929 0.568947
0.338459 0.440703
0.373040 0.388971
0.424787 0.354411
0.485820 0.342284
0.546848 0.354436
0.598579 0.389018
0.633140 0.440764
0.645267 0.501797
0.633114 0.562825
0.598533 0.614557
0.546786 0.649117
0.485754 0.661244
0.424726 0.649092
0.372994 0.614510
0.338434 0.562764
0.326307 0.501731
</float_array>
          <technique_common>
            <accessor source="#Box362-UV0-array" count="142" stride="2">
              <param name="S" type="float"/>
              <param name="T" type="float"/>
            </accessor>
          </technique_common>
        </source>
        <vertices id="Box362-VERTEX">
          <input semantic="POSITION" source="#Box362-POSITION"/>
        </vertices>
        <triangles count="170" material="gauges">
          <input semantic="VERTEX" offset="0" source="#Box362-VERTEX"/>
          <input semantic="NORMAL" offset="1" source="#Box362-Normal0"/>
          <input semantic="TEXCOORD" offset="2" set="0" source="#Box362-UV0"/>
          <p> 0 0 8 1 1 9 7 2 12 7 3 12 6 4 13 0 5 8 1 6 0 2 7 1 8 8 2 8 9 2 7 10 3 1 11 0 2 12 1 3 13 10 9 14 11 9 15 11 8 16 2 2 17 1 3 18 10 4 19 4 10 20 7 10 21 7 9 22 11 3 23 10 4 24 4 5 25 5 11 26 6 11 27 6 10 28 7 4 29 4 5 30 5 0 31 8 6 32 13 6 33 13 11 34 6 5 35 5 7 36 15 8 37 16 9 38 17 9 39 17 10 40 18 11 41 19 7 42 15 9 43 17 11 44 19 6 45 14 7 46 15 11 47 19 12 48 20 13 49 21 18 50 24 18 51 24 17 52 25 12 53 20 13 54 21 14 55 28 19 56 30 19 57 30 18 58 24 13 59 21 14 60 22 15 61 23 20 62 32 20 63 32 19 64 35 14 65 22 15 66 23 16 67 26 21 68 27 21 69 27 20 70 32 15 71 23 16 72 26 12 73 20 17 74 25 17 75 25 21 76 27 16 77 26 13 78 21 12 79 20 23 80 29 23 81 29 22 82 36 13 83 21 12 84 20 16 85 26 24 86 40 24 87 40 23 88 29 12 89 20 16 90 26 15 91 23 25 92 39 25 93 39 24 94 40 16 95 26 15 96 23 14 97 22 26 98 33 26 99 33 25 100 39 15 101 23 14 102 28 13 103 21 22 104 36 22 105 36 26 106 37 14 107 28 22 108 36 23 109 29 28 110 31 28 111 31 27 112 42 22 113 36 23 114 29 24 115 40 29 116 43 29 117 43 28 118 31 23 119 29 24 120 40 25 121 39 30 122 41 30 123 41 29 124 43 24 125 40 25 126 39 26 127 33 31 128 34 31 129 34 30 130 41 25 131 39 26 132 37 22 133 36 27 134 42 27 135 42 31 136 38 26 137 37 32 138 112 33 139 113 49 140 114 49 141 114 48 142 115 32 143 112 33 144 113 34 145 116 50 146 117 50 147 117 49 148 114 33 149 113 34 150 116 35 151 120 51 152 121 51 153 121 50 154 117 34 155 116 35 156 120 36 157 122 52 158 123 52 159 123 51 160 121 35 161 120 36 162 122 37 163 124 53 164 125 53 165 125 52 166 123 36 167 122 37 168 124 38 169 46 54 170 49 54 171 49 53 172 125 37 173 124 38 174 46 39 175 47 55 176 48 55 177 48 54 178 49 38 179 46 39 180 47 40 181 50 56 182 51 56 183 51 55 184 48 39 185 47 40 186 50 41 187 52 57 188 53 57 189 53 56 190 51 40 191 50 41 192 52 42 193 54 58 194 55 58 195 55 57 196 53 41 197 52 42 198 54 43 199 56 59 200 57 59 201 57 58 202 55 42 203 54 43 204 56 44 205 58 60 206 59 60 207 59 59 208 57 43 209 56 44 210 44 45 211 60 61 212 61 61 213 61 60 214 45 44 215 44 45 216 60 46 217 62 62 218 63 62 219 63 61 220 61 45 221 60 46 222 62 47 223 118 63 224 119 63 225 119 62 226 63 46 227 62 47 228 118 32 229 112 48 230 115 48 231 115 63 232 119 47 233 118 46 234 127 45 235 128 44 236 129 44 237 129 43 238 130 42 239 131 42 240 131 41 241 132 40 242 133 44 243 129 42 244 131 40 245 133 40 246 133 39 247 134 38 248 135 38 249 135 37 250 136 36 251 137 40 252 133 38 253 135 36 254 137 36 255 137 35 256 138 34 257 139 34 258 139 33 259 140 32 260 141 36 261 137 34 262 139 32 263 141 40 264 133 36 265 137 32 266 141 44 267 129 40 268 133 32 269 141 46 270 127 44 271 129 32 272 141 47 273 126 46 274 127 32 275 141 81 276 65 82 277 66 83 278 67 83 279 67 84 280 68 85 281 69 85 282 69 86 283 70 87 284 71 83 285 67 85 286 69 87 287 71 87 288 71 88 289 72 89 290 73 89 291 73 90 292 74 91 293 75 87 294 71 89 295 73 91 296 75 91 297 75 92 298 76 93 299 77 93 300 77 94 301 78 95 302 79 91 303 75 93 304 77 95 305 79 87 306 71 91 307 75 95 308 79 83 309 67 87 310 71 95 311 79 81 312 65 83 313 67 95 314 79 80 315 64 81 316 65 95 317 79 48 318 80 49 319 81 65 320 82 65 321 82 64 322 83 48 323 80 49 324 81 50 325 84 66 326 85 66 327 85 65 328 82 49 329 81 50 330 84 51 331 86 67 332 87 67 333 87 66 334 85 50 335 84 51 336 86 52 337 88 68 338 89 68 339 89 67 340 87 51 341 86 52 342 88 53 343 90 69 344 91 69 345 91 68 346 89 52 347 88 53 348 90 54 349 92 70 350 93 70 351 93 69 352 91 53 353 90 54 354 92 55 355 94 71 356 95 71 357 95 70 358 93 54 359 92 55 360 94 56 361 96 72 362 97 72 363 97 71 364 95 55 365 94 56 366 96 57 367 98 73 368 99 73 369 99 72 370 97 56 371 96 57 372 98 58 373 100 74 374 101 74 375 101 73 376 99 57 377 98 58 378 100 59 379 102 75 380 103 75 381 103 74 382 101 58 383 100 59 384 102 60 385 104 76 386 105 76 387 105 75 388 103 59 389 102 60 390 104 61 391 106 77 392 107 77 393 107 76 394 105 60 395 104 61 396 106 62 397 108 78 398 109 78 399 109 77 400 107 61 401 106 62 402 108 63 403 110 79 404 111 79 405 111 78 406 109 62 407 108 63 408 110 48 409 80 64 410 83 64 411 83 79 412 111 63 413 110 64 414 83 65 415 82 81 416 65 81 417 65 80 418 64 64 419 83 65 420 82 66 421 85 82 422 66 82 423 66 81 424 65 65 425 82 66 426 85 67 427 87 83 428 67 83 429 67 82 430 66 66 431 85 67 432 87 68 433 89 84 434 68 84 435 68 83 436 67 67 437 87 68 438 89 69 439 91 85 440 69 85 441 69 84 442 68 68 443 89 69 444 91 70 445 93 86 446 70 86 447 70 85 448 69 69 449 91 70 450 93 71 451 95 87 452 71 87 453 71 86 454 70 70 455 93 71 456 95 72 457 97 88 458 72 88 459 72 87 460 71 71 461 95 72 462 97 73 463 99 89 464 73 89 465 73 88 466 72 72 467 97 73 468 99 74 469 101 90 470 74 90 471 74 89 472 73 73 473 99 74 474 101 75 475 103 91 476 75 91 477 75 90 478 74 74 479 101 75 480 103 76 481 105 92 482 76 92 483 76 91 484 75 75 485 103 76 486 105 77 487 107 93 488 77 93 489 77 92 490 76 76 491 105 77 492 107 78 493 109 94 494 78 94 495 78 93 496 77 77 497 107 78 498 109 79 499 111 95 500 79 95 501 79 94 502 78 78 503 109 79 504 111 64 505 83 80 506 64 80 507 64 95 508 79 79 509 111</p>
        </triangles>
      </mesh>
    </geometry>
  </library_geometries>
  <library_animations>
    <animation id="Box361-anim" name="Box361">
      <animation>
        <source id="Box361-Matrix-animation-input">
          <float_array id="Box361-Matrix-animation-input-array" count="6">

0.000000 0.033333 0.066667 0.100000 0.133333 0.166667</float_array>
          <technique_common>
            <accessor source="#Box361-Matrix-animation-input-array" count="6">
              <param name="TIME" type="float"/>
            </accessor>
          </technique_common>
        </source>
        <source id="Box361-Matrix-animation-output-transform">
          <float_array id="Box361-Matrix-animation-output-transform-array" count="96">

1.000000 0.000000 0.000000 6.073019 0.000000 0.000000 1.000000 1.909093 0.000000 -1.000000 0.000000 1.673830 0.000000 0.000000 0.000000 1.000000
1.000000 0.000000 0.000000 6.073019 0.000000 0.045239 0.998976 1.909093 0.000000 -0.998976 0.045239 1.673830 0.000000 0.000000 0.000000 1.000000
1.000000 0.000000 0.000000 6.073019 0.000000 0.128919 0.991655 1.909093 0.000000 -0.991655 0.128919 1.673830 0.000000 0.000000 0.000000 1.000000
1.000000 0.000000 0.000000 6.073019 0.000000 0.173648 0.984808 1.909093 0.000000 -0.984808 0.173648 1.673830 0.000000 0.000000 0.000000 1.000000
1.000000 0.000000 0.000000 6.073019 0.000000 0.087156 0.996195 1.909093 0.000000 -0.996195 0.087156 1.673830 0.000000 0.000000 0.000000 1.000000
1.000000 0.000000 0.000000 6.073019 0.000000 0.000000 1.000000 1.909093 0.000000 -1.000000 0.000000 1.673830 0.000000 0.000000 0.000000 1.000000</float_array>
          <technique_common>
            <accessor source="#Box361-Matrix-animation-output-transform-array" count="6" stride="16">
              <param type="float4x4"/>
            </accessor>
          </technique_common>
        </source>
        <source id="Box361-Interpolations">
          <Name_array id="Box361-Interpolations-array" count="6">
 LINEAR LINEAR LINEAR LINEAR LINEAR LINEAR</Name_array>
          <technique_common>
            <accessor source="#Box361-Interpolations-array" count="6">
              <param type="name"/>
            </accessor>
          </technique_common>
        </source>
        <sampler id="Box361-Matrix-animation-transform">
          <input semantic="INPUT" source="#Box361-Matrix-animation-input"/>
          <input semantic="OUTPUT" source="#Box361-Matrix-animation-output-transform"/>
          <input semantic="INTERPOLATION" source="#Box361-Interpolations"/>
        </sampler>
        <channel source="#Box361-Matrix-animation-transform" target="Box361/matrix"/>
      </animation>
    </animation>
    <animation id="Box362-anim" name="Box362">
      <animation>
        <source id="Box362-Matrix-animation-input">
          <float_array id="Box362-Matrix-animation-input-array" count="6">

0.000000 0.033333 0.066667 0.100000 0.133333 0.166667</float_array>
          <technique_common>
            <accessor source="#Box362-Matrix-animation-input-array" count="6">
              <param name="TIME" type="float"/>
            </accessor>
          </technique_common>
        </source>
        <source id="Box362-Matrix-animation-output-transform">
          <float_array id="Box362-Matrix-animation-output-transform-array" count="96">

1.000000 0.000000 0.000000 6.069887 0.000000 0.000000 1.000000 1.909093 0.000000 -1.000000 0.000000 1.673830 0.000000 0.000000 0.000000 1.000000
1.000000 0.000000 0.000000 6.069887 0.000000 0.000000 1.000000 1.909093 0.000000 -1.000000 0.000000 1.673830 0.000000 0.000000 0.000000 1.000000
1.000000 0.000000 0.000000 6.069887 0.000000 0.000000 1.000000 1.909093 0.000000 -1.000000 0.000000 1.673830 0.000000 0.000000 0.000000 1.000000
1.000000 0.000000 0.000000 6.069887 0.000000 0.000000 1.000000 1.909093 0.000000 -1.000000 0.000000 1.673830 0.000000 0.000000 0.000000 1.000000
1.000000 0.000000 0.000000 6.069887 0.000000 0.000000 1.000000 1.909093 0.000000 -1.000000 0.000000 1.673830 0.000000 0.000000 0.000000 1.000000
1.000000 0.000000 0.000000 6.069887 0.000000 0.000000 1.000000 1.909093 0.000000 -1.000000 0.000000 1.673830 0.000000 0.000000 0.000000 1.000000</float_array>
          <technique_common>
            <accessor source="#Box362-Matrix-animation-output-transform-array" count="6" stride="16">
              <param type="float4x4"/>
            </accessor>
          </technique_common>
        </source>
        <source id="Box362-Interpolations">
          <Name_array id="Box362-Interpolations-array" count="6">
 LINEAR LINEAR LINEAR LINEAR LINEAR LINEAR</Name_array>
          <technique_common>
            <accessor source="#Box362-Interpolations-array" count="6">
              <param type="name"/>
            </accessor>
          </technique_common>
        </source>
        <sampler id="Box362-Matrix-animation-transform">
          <input semantic="INPUT" source="#Box362-Matrix-animation-input"/>
          <input semantic="OUTPUT" source="#Box362-Matrix-animation-output-transform"/>
          <input semantic="INTERPOLATION" source="#Box362-Interpolations"/>
        </sampler>
        <channel source="#Box362-Matrix-animation-transform" target="Box362/matrix"/>
      </animation>
    </animation>
  </library_animations>
  <library_visual_scenes>
    <visual_scene id="" name="">
      <node name="Box361" id="Box361" layer="door_valve_gauge_01_on" sid="Box361">
        <matrix sid="matrix">1.000000 0.000000 0.000000 6.073019 0.000000 0.000000 1.000000 1.909093 0.000000 -1.000000 0.000000 1.673830 0.000000 0.000000 0.000000 1.000000</matrix>
        <instance_geometry url="#Box361-lib">
          <bind_material>
            <technique_common>
              <instance_material symbol="gauges" target="#gauges"/>
            </technique_common>
          </bind_material>
        </instance_geometry>
        <extra>
          <technique profile="FCOLLADA">
            <visibility>1.000000</visibility>
          </technique>
        </extra>
      </node>
      <node name="Box362" id="Box362" layer="door_valve_gauge_01_on" sid="Box362">
        <matrix sid="matrix">1.000000 0.000000 0.000000 6.069887 0.000000 0.000000 1.000000 1.909093 0.000000 -1.000000 0.000000 1.673830 0.000000 0.000000 0.000000 1.000000</matrix>
        <instance_geometry url="#Box362-lib">
          <bind_material>
            <technique_common>
              <instance_material symbol="gauges" target="#gauges"/>
            </technique_common>
          </bind_material>
        </instance_geometry>
        <extra>
          <technique profile="FCOLLADA">
            <visibility>1.000000</visibility>
          </technique>
        </extra>
      </node>
      <extra>
        <technique profile="MAX3D">
          <frame_rate>30.000000</frame_rate>
        </technique>
        <technique profile="FCOLLADA">
          <start_time>0.000000</start_time>
          <end_time>0.166667</end_time>
        </technique>
      </extra>
    </visual_scene>
  </library_visual_scenes>
  <scene>
    <instance_visual_scene url="#"></instance_visual_scene>
  </scene>
</COLLADA>

