<?xml version="1.0" encoding="utf-8"?>
<COLLADA xmlns="http://www.collada.org/2005/11/COLLADASchema" version="1.4.1">
  <asset>
    <contributor>
      <author></author>
      <authoring_tool>FBX COLLADA exporter</authoring_tool>
      <comments></comments>
    </contributor>
    <created>2012-05-04T16:15:14Z</created>
    <keywords></keywords>
    <modified>2012-05-04T16:15:14Z</modified>
    <revision></revision>
    <subject></subject>
    <title></title>
    <unit meter="1.000000" name="centimeter"></unit>
    <up_axis>Y_UP</up_axis>
  </asset>
  <library_images>
    <image id="Map #14-image" name="Map #14">
      <init_from>file://C:\Users\WesleyTack\Desktop\amnesia_raw\StaticObjects\spraylock\power_green_light.psd</init_from>
    </image>
  </library_images>
  <library_materials>
    <material id="_04 - Default" name="_04 - Default">
      <instance_effect url="#_04 - Default-fx"/>
    </material>
  </library_materials>
  <library_effects>
    <effect id="_04 - Default-fx" name="_04 - Default">
      <profile_COMMON>
        <technique sid="standard">
          <phong>
            <emission>
              <color sid="emission">0.000000  0.000000 0.000000 1.000000</color>
            </emission>
            <ambient>
              <color sid="ambient">0.588235  0.588235 0.588235 1.000000</color>
            </ambient>
            <diffuse>
              <texture texture="Map #14-image" texcoord="CHANNEL0">
                <extra>
                  <technique profile="MAYA">
                    <wrapU sid="wrapU0">TRUE</wrapU>
                    <wrapV sid="wrapV0">TRUE</wrapV>
                    <blend_mode>ADD</blend_mode>
                  </technique>
                </extra>
              </texture>
            </diffuse>
            <specular>
              <color sid="specular">0.000000  0.000000 0.000000 1.000000</color>
            </specular>
            <shininess>
              <float sid="shininess">2.000000</float>
            </shininess>
            <reflective>
              <color sid="reflective">0.000000  0.000000 0.000000 1.000000</color>
            </reflective>
            <reflectivity>
              <float sid="reflectivity">1.000000</float>
            </reflectivity>
            <transparent opaque="RGB_ZERO">
              <color sid="transparent">1.000000  1.000000 1.000000 1.000000</color>
            </transparent>
            <transparency>
              <float sid="transparency">0.000000</float>
            </transparency>
          </phong>
        </technique>
      </profile_COMMON>
    </effect>
  </library_effects>
  <library_geometries>
    <geometry id="Sphere001-lib" name="Sphere001Mesh">
      <mesh>
        <source id="Sphere001-POSITION">
          <float_array id="Sphere001-POSITION-array" count="63">
-1.929895 0.176234 1.923243
-1.939662 0.166960 1.951837
-1.939662 0.151924 1.940925
-1.939662 0.146174 1.923259
-1.939662 0.151906 1.905587
-1.939662 0.166930 1.894659
-1.939662 0.185508 1.894649
-1.939662 0.200544 1.905562
-1.939662 0.206294 1.923228
-1.939662 0.200562 1.940899
-1.939662 0.185538 1.951827
-1.962575 0.163018 1.963990
-1.962575 0.141592 1.948439
-1.962575 0.133398 1.923265
-1.962575 0.141566 1.898082
-1.962575 0.162976 1.882510
-1.962575 0.189450 1.882496
-1.962575 0.210876 1.898047
-1.962575 0.219070 1.923221
-1.962575 0.210902 1.948404
-1.962575 0.189492 1.963976
</float_array>
          <technique_common>
            <accessor source="#Sphere001-POSITION-array" count="21" stride="3">
              <param name="X" type="float"/>
              <param name="Y" type="float"/>
              <param name="Z" type="float"/>
            </accessor>
          </technique_common>
        </source>
        <source id="Sphere001-Normal0">
          <float_array id="Sphere001-Normal0-array" count="270">
1.000000 0.000000 -0.000000
0.738124 -0.208152 0.641752
0.738124 -0.545611 0.396840
1.000000 0.000000 -0.000000
0.738124 -0.545611 0.396840
0.738124 -0.674665 0.000348
1.000000 0.000000 -0.000000
0.738124 -0.674665 0.000348
0.738124 -0.546020 -0.396277
1.000000 0.000000 -0.000000
0.738124 -0.546020 -0.396277
0.738124 -0.208814 -0.641537
1.000000 0.000000 -0.000000
0.738124 -0.208814 -0.641537
0.738124 0.208152 -0.641752
1.000000 0.000000 -0.000000
0.738124 0.208152 -0.641752
0.738124 0.545611 -0.396840
1.000000 0.000000 -0.000000
0.738124 0.545611 -0.396840
0.738124 0.674665 -0.000348
1.000000 0.000000 -0.000000
0.738124 0.674665 -0.000348
0.738124 0.546020 0.396277
1.000000 0.000000 -0.000000
0.738124 0.546020 0.396277
0.738124 0.208814 0.641537
1.000000 0.000000 -0.000000
0.738124 0.208814 0.641537
0.738124 -0.208152 0.641752
0.487012 -0.706327 0.513733
0.738124 -0.545611 0.396840
0.738124 -0.208152 0.641752
0.738124 -0.208152 0.641752
0.487012 -0.269466 0.830787
0.487012 -0.706327 0.513733
0.487012 -0.873395 0.000450
0.738124 -0.674665 0.000348
0.738124 -0.545611 0.396840
0.738124 -0.545611 0.396840
0.487012 -0.706327 0.513733
0.487012 -0.873395 0.000450
0.487012 -0.706856 -0.513004
0.738124 -0.546020 -0.396277
0.738124 -0.674665 0.000348
0.738124 -0.674665 0.000348
0.487012 -0.873395 0.000450
0.487012 -0.706856 -0.513004
0.487012 -0.270323 -0.830509
0.738124 -0.208814 -0.641537
0.738124 -0.546020 -0.396277
0.738124 -0.546020 -0.396277
0.487012 -0.706856 -0.513004
0.487012 -0.270323 -0.830509
0.487012 0.269466 -0.830787
0.738124 0.208152 -0.641752
0.738124 -0.208814 -0.641537
0.738124 -0.208814 -0.641537
0.487012 -0.270323 -0.830509
0.487012 0.269466 -0.830787
0.487012 0.706327 -0.513733
0.738124 0.545611 -0.396840
0.738124 0.208152 -0.641752
0.738124 0.208152 -0.641752
0.487012 0.269466 -0.830787
0.487012 0.706327 -0.513733
0.487012 0.873395 -0.000450
0.738124 0.674665 -0.000348
0.738124 0.545611 -0.396840
0.738124 0.545611 -0.396840
0.487012 0.706327 -0.513733
0.487012 0.873395 -0.000450
0.487012 0.706856 0.513005
0.738124 0.546020 0.396277
0.738124 0.674665 -0.000348
0.738124 0.674665 -0.000348
0.487012 0.873395 -0.000450
0.487012 0.706856 0.513005
0.487012 0.270322 0.830509
0.738124 0.208814 0.641537
0.738124 0.546020 0.396277
0.738124 0.546020 0.396277
0.487012 0.706856 0.513005
0.487012 0.270322 0.830509
0.487012 -0.269466 0.830787
0.738124 -0.208152 0.641752
0.738124 0.208814 0.641537
0.738124 0.208814 0.641537
0.487012 0.270322 0.830509
0.487012 -0.269466 0.830787
</float_array>
          <technique_common>
            <accessor source="#Sphere001-Normal0-array" count="90" stride="3">
              <param name="X" type="float"/>
              <param name="Y" type="float"/>
              <param name="Z" type="float"/>
            </accessor>
          </technique_common>
        </source>
        <source id="Sphere001-UV0">
          <float_array id="Sphere001-UV0-array" count="42">
0.500000 0.500000
0.593512 0.803093
0.745116 0.687424
0.803093 0.500164
0.745299 0.312842
0.593810 0.197008
0.406488 0.196907
0.254884 0.312576
0.196907 0.499836
0.254700 0.687158
0.406191 0.802992
0.646454 0.974690
0.883888 0.793534
0.974690 0.500257
0.884176 0.206883
0.646920 0.025469
0.353546 0.025310
0.116111 0.206466
0.025310 0.499743
0.115824 0.793118
0.353080 0.974531
</float_array>
          <technique_common>
            <accessor source="#Sphere001-UV0-array" count="21" stride="2">
              <param name="S" type="float"/>
              <param name="T" type="float"/>
            </accessor>
          </technique_common>
        </source>
        <vertices id="Sphere001-VERTEX">
          <input semantic="POSITION" source="#Sphere001-POSITION"/>
        </vertices>
        <triangles count="30" material="_04 - Default">
          <input semantic="VERTEX" offset="0" source="#Sphere001-VERTEX"/>
          <input semantic="NORMAL" offset="1" source="#Sphere001-Normal0"/>
          <input semantic="TEXCOORD" offset="2" set="0" source="#Sphere001-UV0"/>
          <p> 0 0 0 1 1 1 2 2 2 0 3 0 2 4 2 3 5 3 0 6 0 3 7 3 4 8 4 0 9 0 4 10 4 5 11 5 0 12 0 5 13 5 6 14 6 0 15 0 6 16 6 7 17 7 0 18 0 7 19 7 8 20 8 0 21 0 8 22 8 9 23 9 0 24 0 9 25 9 10 26 10 0 27 0 10 28 10 1 29 1 12 30 12 2 31 2 1 32 1 1 33 1 11 34 11 12 35 12 13 36 13 3 37 3 2 38 2 2 39 2 12 40 12 13 41 13 14 42 14 4 43 4 3 44 3 3 45 3 13 46 13 14 47 14 15 48 15 5 49 5 4 50 4 4 51 4 14 52 14 15 53 15 16 54 16 6 55 6 5 56 5 5 57 5 15 58 15 16 59 16 17 60 17 7 61 7 6 62 6 6 63 6 16 64 16 17 65 17 18 66 18 8 67 8 7 68 7 7 69 7 17 70 17 18 71 18 19 72 19 9 73 9 8 74 8 8 75 8 18 76 18 19 77 19 20 78 20 10 79 10 9 80 9 9 81 9 19 82 19 20 83 20 11 84 11 1 85 1 10 86 10 10 87 10 20 88 20 11 89 11</p>
        </triangles>
      </mesh>
    </geometry>
  </library_geometries>
  <library_visual_scenes>
    <visual_scene id="" name="">
      <node name="Sphere001" id="Sphere001" layer="green_light" sid="Sphere001">
        <matrix sid="matrix">1.000000 0.000000 0.000000 0.000000 0.000000 0.000000 1.000000 0.000000 0.000000 -1.000000 0.000000 0.000000 0.000000 0.000000 0.000000 1.000000</matrix>
        <instance_geometry url="#Sphere001-lib">
          <bind_material>
            <technique_common>
              <instance_material symbol="_04 - Default" target="#_04 - Default"/>
            </technique_common>
          </bind_material>
        </instance_geometry>
        <extra>
          <technique profile="FCOLLADA">
            <visibility>1.000000</visibility>
          </technique>
        </extra>
      </node>
      <extra>
        <technique profile="MAX3D">
          <frame_rate>30.000000</frame_rate>
        </technique>
        <technique profile="FCOLLADA">
          <start_time>0.000000</start_time>
          <end_time>0.166667</end_time>
        </technique>
      </extra>
    </visual_scene>
  </library_visual_scenes>
  <scene>
    <instance_visual_scene url="#"></instance_visual_scene>
  </scene>
</COLLADA>

