<?xml version="1.0" encoding="utf-8"?>
<COLLADA xmlns="http://www.collada.org/2005/11/COLLADASchema" version="1.4.1">
  <asset>
    <contributor>
      <author></author>
      <authoring_tool>FBX COLLADA exporter</authoring_tool>
      <comments></comments>
    </contributor>
    <created>2012-05-05T13:44:33Z</created>
    <keywords></keywords>
    <modified>2012-05-05T13:44:33Z</modified>
    <revision></revision>
    <subject></subject>
    <title></title>
    <unit meter="1.000000" name="centimeter"></unit>
    <up_axis>Y_UP</up_axis>
  </asset>
  <library_images>
    <image id="Map #14-image" name="Map #14">
      <init_from>file://C:\Users\WesleyTack\Desktop\amnesia_raw\StaticObjects\spraylock\spraysystem.psd</init_from>
    </image>
    <image id="Map #13-image" name="Map #13">
      <init_from>file://C:\Users\WesleyTack\Desktop\amnesia_raw\StaticObjects\Spraylock\gauges.psd</init_from>
    </image>
  </library_images>
  <library_materials>
    <material id="spraysystem" name="spraysystem">
      <instance_effect url="#spraysystem-fx"/>
    </material>
    <material id="gauges" name="gauges">
      <instance_effect url="#gauges-fx"/>
    </material>
  </library_materials>
  <library_effects>
    <effect id="spraysystem-fx" name="spraysystem">
      <profile_COMMON>
        <technique sid="standard">
          <phong>
            <emission>
              <color sid="emission">0.000000  0.000000 0.000000 1.000000</color>
            </emission>
            <ambient>
              <color sid="ambient">0.588235  0.588235 0.588235 1.000000</color>
            </ambient>
            <diffuse>
              <texture texture="Map #14-image" texcoord="CHANNEL0">
                <extra>
                  <technique profile="MAYA">
                    <wrapU sid="wrapU0">TRUE</wrapU>
                    <wrapV sid="wrapV0">TRUE</wrapV>
                    <blend_mode>ADD</blend_mode>
                  </technique>
                </extra>
              </texture>
              <texture texture="Map #14-image" texcoord="CHANNEL0">
                <extra>
                  <technique profile="MAYA">
                    <wrapU sid="wrapU0">TRUE</wrapU>
                    <wrapV sid="wrapV0">TRUE</wrapV>
                    <blend_mode>ADD</blend_mode>
                  </technique>
                </extra>
              </texture>
            </diffuse>
            <specular>
              <color sid="specular">0.000000  0.000000 0.000000 1.000000</color>
            </specular>
            <shininess>
              <float sid="shininess">2.000000</float>
            </shininess>
            <reflective>
              <color sid="reflective">0.000000  0.000000 0.000000 1.000000</color>
            </reflective>
            <reflectivity>
              <float sid="reflectivity">1.000000</float>
            </reflectivity>
            <transparent opaque="RGB_ZERO">
              <color sid="transparent">1.000000  1.000000 1.000000 1.000000</color>
            </transparent>
            <transparency>
              <float sid="transparency">0.000000</float>
            </transparency>
          </phong>
        </technique>
      </profile_COMMON>
    </effect>
    <effect id="gauges-fx" name="gauges">
      <profile_COMMON>
        <technique sid="standard">
          <phong>
            <emission>
              <color sid="emission">0.000000  0.000000 0.000000 1.000000</color>
            </emission>
            <ambient>
              <color sid="ambient">0.588235  0.588235 0.588235 1.000000</color>
            </ambient>
            <diffuse>
              <texture texture="Map #13-image" texcoord="CHANNEL0">
                <extra>
                  <technique profile="MAYA">
                    <wrapU sid="wrapU0">TRUE</wrapU>
                    <wrapV sid="wrapV0">TRUE</wrapV>
                    <blend_mode>ADD</blend_mode>
                  </technique>
                </extra>
              </texture>
            </diffuse>
            <specular>
              <color sid="specular">0.000000  0.000000 0.000000 1.000000</color>
            </specular>
            <shininess>
              <float sid="shininess">2.000000</float>
            </shininess>
            <reflective>
              <color sid="reflective">0.000000  0.000000 0.000000 1.000000</color>
            </reflective>
            <reflectivity>
              <float sid="reflectivity">1.000000</float>
            </reflectivity>
            <transparent opaque="RGB_ZERO">
              <color sid="transparent">1.000000  1.000000 1.000000 1.000000</color>
            </transparent>
            <transparency>
              <float sid="transparency">0.000000</float>
            </transparency>
          </phong>
        </technique>
      </profile_COMMON>
    </effect>
  </library_effects>
  <library_geometries>
    <geometry id="Object599-lib" name="Object599Mesh">
      <mesh>
        <source id="Object599-POSITION">
          <float_array id="Object599-POSITION-array" count="36">
0.000000 -0.028837 -0.000214
0.000000 0.028837 -0.000214
0.000000 -0.008524 0.020344
0.000000 0.008525 0.020344
0.000000 -0.007192 0.037432
0.000000 0.007142 0.037432
0.000000 -0.000730 0.134694
0.000000 -0.014639 0.007883
0.000000 0.014640 0.007883
0.000000 -0.000712 -0.029987
0.000000 0.012405 -0.011805
0.000000 -0.013117 -0.011805
</float_array>
          <technique_common>
            <accessor source="#Object599-POSITION-array" count="12" stride="3">
              <param name="X" type="float"/>
              <param name="Y" type="float"/>
              <param name="Z" type="float"/>
            </accessor>
          </technique_common>
        </source>
        <source id="Object599-Normal0">
          <float_array id="Object599-Normal0-array" count="90">
-1.000000 0.000000 0.000000
-1.000000 0.000000 0.000000
-1.000000 0.000000 0.000000
-1.000000 0.000000 0.000000
-1.000000 0.000000 0.000000
-1.000000 0.000000 0.000000
-1.000000 0.000000 0.000000
-1.000000 0.000000 0.000000
-1.000000 0.000000 0.000000
-1.000000 0.000000 0.000000
-1.000000 0.000000 0.000000
-1.000000 0.000000 0.000000
-1.000000 0.000000 0.000000
-1.000000 0.000000 0.000000
-1.000000 0.000000 0.000000
-1.000000 0.000000 0.000000
-1.000000 0.000000 0.000000
-1.000000 0.000000 0.000000
-1.000000 0.000000 0.000000
-1.000000 0.000000 0.000000
-1.000000 0.000000 0.000000
-1.000000 0.000000 0.000000
-1.000000 0.000000 0.000000
-1.000000 0.000000 0.000000
-1.000000 0.000000 0.000000
-1.000000 0.000000 0.000000
-1.000000 0.000000 0.000000
-1.000000 0.000000 0.000000
-1.000000 0.000000 0.000000
-1.000000 0.000000 0.000000
</float_array>
          <technique_common>
            <accessor source="#Object599-Normal0-array" count="30" stride="3">
              <param name="X" type="float"/>
              <param name="Y" type="float"/>
              <param name="Z" type="float"/>
            </accessor>
          </technique_common>
        </source>
        <source id="Object599-UV0">
          <float_array id="Object599-UV0-array" count="24">
0.035112 0.575696
0.056119 0.575696
0.063654 0.587917
0.027577 0.587917
0.036753 0.558937
0.054415 0.558937
0.044715 0.463547
0.060900 0.607226
0.029453 0.607226
0.044738 0.625059
0.081148 0.595858
0.010082 0.595858
</float_array>
          <technique_common>
            <accessor source="#Object599-UV0-array" count="12" stride="2">
              <param name="S" type="float"/>
              <param name="T" type="float"/>
            </accessor>
          </technique_common>
        </source>
        <vertices id="Object599-VERTEX">
          <input semantic="POSITION" source="#Object599-POSITION"/>
        </vertices>
        <triangles count="10" material="spraysystem">
          <input semantic="VERTEX" offset="0" source="#Object599-VERTEX"/>
          <input semantic="NORMAL" offset="1" source="#Object599-Normal0"/>
          <input semantic="TEXCOORD" offset="2" set="0" source="#Object599-UV0"/>
          <p> 3 0 1 8 1 2 7 2 3 7 3 3 2 4 0 3 5 1 2 6 0 4 7 4 5 8 5 5 9 5 3 10 1 2 11 0 6 12 6 5 13 5 4 14 4 10 15 7 11 16 8 7 17 3 7 18 3 8 19 2 10 20 7 10 21 7 9 22 9 11 23 8 8 24 2 1 25 10 10 26 7 11 27 8 0 28 11 7 29 3</p>
        </triangles>
      </mesh>
    </geometry>
    <geometry id="Object600-lib" name="Object600Mesh">
      <mesh>
        <source id="Object600-POSITION">
          <float_array id="Object600-POSITION-array" count="84">
0.070072 -0.803147 0.179905
0.093392 -0.792171 0.229915
0.113162 -0.760914 0.272311
0.126371 -0.714135 0.300639
0.131010 -0.658956 0.310587
0.126371 -0.603776 0.300639
0.113162 -0.556997 0.272311
0.093392 -0.525740 0.229915
0.070072 -0.514764 0.179905
0.046752 -0.525740 0.129895
0.026983 -0.556997 0.087499
0.013773 -0.603776 0.059171
0.009134 -0.658955 0.049224
0.013773 -0.714135 0.059171
0.026983 -0.760914 0.087499
0.046752 -0.792171 0.129895
0.074710 -0.635084 0.195785
0.062572 -0.685143 0.169841
0.062899 -0.642505 0.170473
0.059311 -0.657303 0.162804
0.056355 -0.635175 0.156430
0.053338 -0.647617 0.149982
0.019342 -0.592481 0.077002
0.068754 -0.643386 0.183028
0.062592 -0.668799 0.169857
0.079705 -0.674282 0.206558
0.070279 -0.676637 0.186352
0.075651 -0.654485 0.197833
</float_array>
          <technique_common>
            <accessor source="#Object600-POSITION-array" count="28" stride="3">
              <param name="X" type="float"/>
              <param name="Y" type="float"/>
              <param name="Z" type="float"/>
            </accessor>
          </technique_common>
        </source>
        <source id="Object600-Normal0">
          <float_array id="Object600-Normal0-array" count="216">
-0.906307 -0.000001 0.422620
-0.906307 -0.000001 0.422620
-0.906307 -0.000001 0.422620
-0.906304 0.000000 0.422627
-0.906304 0.000000 0.422627
-0.906304 0.000000 0.422627
-0.906307 0.000002 0.422620
-0.906307 0.000002 0.422620
-0.906307 0.000002 0.422620
-0.906308 0.000000 0.422618
-0.906308 0.000000 0.422618
-0.906308 0.000000 0.422618
-0.906307 -0.000002 0.422619
-0.906307 -0.000002 0.422619
-0.906307 -0.000002 0.422619
-0.906312 0.000008 0.422610
-0.906312 0.000008 0.422610
-0.906312 0.000008 0.422610
-0.906307 -0.000002 0.422619
-0.906307 -0.000002 0.422619
-0.906307 -0.000002 0.422619
-0.906310 0.000000 0.422614
-0.906310 0.000000 0.422614
-0.906310 0.000000 0.422614
-0.906312 -0.000008 0.422610
-0.906312 -0.000008 0.422610
-0.906312 -0.000008 0.422610
-0.906308 0.000000 0.422618
-0.906308 0.000000 0.422618
-0.906308 0.000000 0.422618
-0.906308 0.000000 0.422618
-0.906308 0.000000 0.422618
-0.906308 0.000000 0.422618
-0.906308 0.000000 0.422618
-0.906308 0.000000 0.422618
-0.906308 0.000000 0.422618
-0.906308 0.000000 0.422618
-0.906308 0.000000 0.422618
-0.906308 0.000000 0.422618
-0.906308 -0.000007 0.422618
-0.906308 -0.000007 0.422618
-0.906308 -0.000007 0.422618
-0.906277 0.000692 0.422683
-0.906275 0.000685 0.422688
-0.906277 0.000684 0.422684
-0.906277 0.000684 0.422684
-0.906276 0.000684 0.422686
-0.906277 0.000692 0.422683
-0.906276 0.000684 0.422686
-0.906279 0.000668 0.422679
-0.906280 0.000676 0.422678
-0.906280 0.000676 0.422678
-0.906277 0.000692 0.422683
-0.906276 0.000684 0.422686
-0.906280 0.000669 0.422678
-0.906280 0.000676 0.422678
-0.906279 0.000668 0.422679
-0.906276 0.000685 0.422687
-0.906277 0.000685 0.422683
-0.906277 0.000684 0.422684
-0.906277 0.000684 0.422684
-0.906275 0.000685 0.422688
-0.906276 0.000685 0.422687
-0.906276 0.000685 0.422687
-0.906276 0.000688 0.422686
-0.906277 0.000685 0.422683
-0.906275 0.000685 0.422688
-0.906276 0.000675 0.422685
-0.906276 0.000685 0.422687
-0.906277 0.000685 0.422683
-0.906281 0.000674 0.422676
-0.906277 0.000684 0.422684
</float_array>
          <technique_common>
            <accessor source="#Object600-Normal0-array" count="72" stride="3">
              <param name="X" type="float"/>
              <param name="Y" type="float"/>
              <param name="Z" type="float"/>
            </accessor>
          </technique_common>
        </source>
        <source id="Object600-UV0">
          <float_array id="Object600-UV0-array" count="56">
0.993399 0.595693
0.983699 0.644461
0.956074 0.685804
0.914731 0.713429
0.865963 0.723129
0.817196 0.713429
0.775853 0.685804
0.748228 0.644461
0.738527 0.595694
0.748228 0.546926
0.775852 0.505583
0.817196 0.477958
0.865963 0.468258
0.914731 0.477958
0.956074 0.505583
0.983699 0.546926
0.028743 0.945373
0.049751 0.945373
0.057285 0.957594
0.021208 0.957594
0.030385 0.928614
0.048047 0.928614
0.038347 0.833224
0.054532 0.976903
0.023084 0.976903
0.038369 0.994736
0.074780 0.965535
0.003714 0.965535
</float_array>
          <technique_common>
            <accessor source="#Object600-UV0-array" count="28" stride="2">
              <param name="S" type="float"/>
              <param name="T" type="float"/>
            </accessor>
          </technique_common>
        </source>
        <vertices id="Object600-VERTEX">
          <input semantic="POSITION" source="#Object600-POSITION"/>
        </vertices>
        <triangles count="24" material="spraysystem">
          <input semantic="VERTEX" offset="0" source="#Object600-VERTEX"/>
          <input semantic="NORMAL" offset="1" source="#Object600-Normal0"/>
          <input semantic="TEXCOORD" offset="2" set="0" source="#Object600-UV0"/>
          <p> 1 0 1 2 1 2 3 2 3 3 3 3 4 4 4 5 5 5 5 6 5 6 7 6 7 8 7 3 9 3 5 10 5 7 11 7 7 12 7 8 13 8 9 14 9 9 15 9 10 16 10 11 17 11 7 18 7 9 19 9 11 20 11 11 21 11 12 22 12 13 23 13 13 24 13 14 25 14 15 26 15 11 27 11 13 28 13 15 29 15 7 30 7 11 31 11 15 32 15 3 33 3 7 34 7 15 35 15 1 36 1 3 37 3 15 38 15 0 39 0 1 40 1 15 41 15 19 42 17 24 43 18 23 44 19 23 45 19 18 46 16 19 47 17 18 48 16 20 49 20 21 50 21 21 51 21 19 52 17 18 53 16 22 54 22 21 55 21 20 56 20 26 57 23 27 58 24 23 59 19 23 60 19 24 61 18 26 62 23 26 63 23 25 64 25 27 65 24 24 66 18 17 67 26 26 68 23 27 69 24 16 70 27 23 71 19</p>
        </triangles>
      </mesh>
    </geometry>
    <geometry id="Object601-lib" name="Object601Mesh">
      <mesh>
        <source id="Object601-POSITION">
          <float_array id="Object601-POSITION-array" count="354">
0.058234 -0.221516 0.065682
0.031510 -0.247409 0.081111
0.037568 -0.287078 0.077613
0.070349 -0.300855 0.058687
0.097073 -0.274963 0.043259
0.091015 -0.235293 0.046756
0.076179 -0.221516 0.096764
0.049456 -0.247409 0.112193
0.055514 -0.287079 0.108696
0.088295 -0.300855 0.089770
0.115019 -0.274963 0.074340
0.108960 -0.235293 0.077838
0.096531 -0.497140 0.123515
0.065674 -0.497140 0.149408
0.072668 -0.497140 0.189078
0.110521 -0.497140 0.202855
0.141378 -0.497140 0.176963
0.134383 -0.497140 0.137292
0.096531 -0.461250 0.123515
0.065674 -0.461250 0.149408
0.072669 -0.461249 0.189078
0.110521 -0.461249 0.202855
0.141379 -0.461250 0.176962
0.134383 -0.461250 0.137293
0.073064 -0.658956 -0.009389
0.078543 -0.724124 0.002359
0.094144 -0.779372 0.035816
0.117492 -0.816287 0.085887
0.145034 -0.829250 0.144950
0.172575 -0.816287 0.204013
0.195924 -0.779372 0.254084
0.211525 -0.724124 0.287541
0.217003 -0.658956 0.299289
0.211525 -0.593787 0.287541
0.195924 -0.538539 0.254084
0.172575 -0.501624 0.204013
0.145034 -0.488661 0.144950
0.117492 -0.501624 0.085887
0.094144 -0.538539 0.035816
0.078543 -0.593787 0.002359
-0.011223 -0.658956 0.029915
-0.005744 -0.724124 0.041663
0.009857 -0.779372 0.075120
0.033205 -0.816287 0.125191
0.060747 -0.829250 0.184254
0.088288 -0.816287 0.243317
0.111637 -0.779372 0.293388
0.127238 -0.724124 0.326845
0.132716 -0.658956 0.338593
0.127238 -0.593787 0.326845
0.111637 -0.538539 0.293388
0.088288 -0.501624 0.243317
0.060747 -0.488661 0.184254
0.033205 -0.501624 0.125191
0.009857 -0.538539 0.075119
-0.005744 -0.593787 0.041663
-0.002355 -0.658955 0.048932
0.002449 -0.716094 0.059233
0.016127 -0.764534 0.088567
0.036599 -0.796901 0.132468
0.060747 -0.808266 0.184254
0.084895 -0.796901 0.236039
0.105366 -0.764534 0.279941
0.119045 -0.716094 0.309275
0.123848 -0.658956 0.319575
0.119045 -0.601817 0.309275
0.105366 -0.553377 0.279941
0.084895 -0.521010 0.236039
0.060747 -0.509645 0.184254
0.036599 -0.521010 0.132468
0.016127 -0.553377 0.088567
0.002449 -0.601817 0.059233
0.011405 -0.658955 0.054092
0.015871 -0.712079 0.063669
0.028589 -0.757115 0.090942
0.047622 -0.787207 0.131759
0.070073 -0.797774 0.179905
0.092524 -0.787207 0.228051
0.111557 -0.757115 0.268868
0.124275 -0.712079 0.296141
0.128740 -0.658956 0.305717
0.124274 -0.605832 0.296141
0.111557 -0.560796 0.268868
0.092524 -0.530704 0.228051
0.070073 -0.520137 0.179905
0.047622 -0.530704 0.131759
0.028589 -0.560796 0.090942
0.015871 -0.605832 0.063669
0.110004 -0.370556 0.148461
0.131108 -0.368443 0.156843
0.129500 -0.366074 0.179468
0.107403 -0.366722 0.185069
0.095354 -0.369491 0.165906
0.096976 -0.476189 0.143684
0.118481 -0.479328 0.150595
0.118940 -0.477376 0.173311
0.097718 -0.473031 0.180441
0.084144 -0.472297 0.162130
0.123870 -0.289386 0.131584
0.104253 -0.299753 0.126318
0.088405 -0.292815 0.141177
0.098228 -0.278159 0.155626
0.120147 -0.276039 0.149698
0.098789 -0.263964 0.078474
0.084597 -0.280176 0.085946
0.067539 -0.269996 0.097146
0.071189 -0.247491 0.096596
0.090502 -0.243763 0.085056
0.130907 -0.325799 0.151172
0.110546 -0.332039 0.144348
0.095297 -0.328038 0.160500
0.106233 -0.319325 0.177306
0.128242 -0.317941 0.171541
0.113283 -0.270541 0.107593
0.096378 -0.283831 0.108696
0.079925 -0.275271 0.121725
0.086661 -0.256691 0.128675
0.107278 -0.253767 0.119941
</float_array>
          <technique_common>
            <accessor source="#Object601-POSITION-array" count="118" stride="3">
              <param name="X" type="float"/>
              <param name="Y" type="float"/>
              <param name="Z" type="float"/>
            </accessor>
          </technique_common>
        </source>
        <source id="Object601-Normal0">
          <float_array id="Object601-Normal0-array" count="1728">
-0.556677 0.766041 0.321391
-0.556677 0.766041 0.321391
-0.556677 0.766041 0.321391
-0.556670 0.766044 0.321394
-0.556670 0.766044 0.321394
-0.556670 0.766044 0.321394
-0.852864 -0.173636 0.492416
-0.852864 -0.173636 0.492416
-0.852864 -0.173636 0.492416
-0.852868 -0.173645 0.492406
-0.852868 -0.173645 0.492406
-0.852868 -0.173645 0.492406
-0.296196 -0.939694 0.171010
-0.296196 -0.939694 0.171010
-0.296196 -0.939693 0.171010
-0.296195 -0.939694 0.171006
-0.296195 -0.939695 0.171006
-0.296195 -0.939694 0.171006
0.556664 -0.766047 -0.321399
0.556664 -0.766047 -0.321399
0.556664 -0.766047 -0.321399
0.556663 -0.766051 -0.321391
0.556663 -0.766050 -0.321392
0.556663 -0.766051 -0.321391
0.852867 0.173645 -0.492408
0.852867 0.173646 -0.492408
0.852867 0.173645 -0.492408
0.852855 0.173662 -0.492423
0.852855 0.173662 -0.492423
0.852855 0.173662 -0.492423
0.296195 0.939694 -0.171008
0.296195 0.939694 -0.171008
0.296195 0.939694 -0.171008
0.296201 0.939692 -0.171006
0.296201 0.939692 -0.171006
0.296201 0.939692 -0.171006
0.500000 0.000004 0.866025
0.500000 0.000004 0.866025
0.500000 0.000004 0.866025
0.500005 0.000001 0.866023
0.500005 0.000001 0.866023
0.500005 0.000001 0.866023
0.499999 0.000003 0.866026
0.499999 0.000003 0.866026
0.499999 0.000003 0.866026
0.500000 0.000002 0.866026
0.500000 0.000002 0.866026
0.500000 0.000002 0.866026
-0.642792 -0.000008 -0.766041
-0.642792 -0.000008 -0.766041
-0.642792 -0.000008 -0.766041
-0.642787 0.000000 -0.766045
-0.642787 0.000000 -0.766045
-0.642787 0.000000 -0.766045
-0.984810 0.000018 0.173635
-0.984810 0.000018 0.173635
-0.984810 0.000018 0.173635
-0.984807 0.000002 0.173649
-0.984808 0.000002 0.173649
-0.984808 0.000002 0.173649
-0.342015 0.000000 0.939694
-0.342015 0.000000 0.939694
-0.342015 0.000000 0.939694
-0.342016 0.000001 0.939694
-0.342016 0.000001 0.939694
-0.342016 0.000001 0.939694
0.642788 -0.000008 0.766044
0.642788 -0.000008 0.766044
0.642788 -0.000008 0.766044
0.642782 0.000000 0.766049
0.642782 0.000000 0.766049
0.642782 0.000000 0.766049
0.984809 0.000001 -0.173643
0.984809 0.000001 -0.173643
0.984809 0.000001 -0.173643
0.984805 -0.000021 -0.173662
0.984805 -0.000021 -0.173662
0.984805 -0.000021 -0.173662
0.342016 0.000000 -0.939694
0.342016 0.000000 -0.939694
0.342016 0.000000 -0.939694
0.342021 0.000006 -0.939692
0.342021 0.000006 -0.939692
0.342021 0.000006 -0.939692
0.000002 1.000000 -0.000006
0.000002 1.000000 -0.000006
0.000002 1.000000 -0.000006
0.000007 1.000000 -0.000001
0.000007 1.000000 -0.000001
0.000007 1.000000 -0.000001
-0.000001 1.000000 -0.000004
-0.000001 1.000000 -0.000004
-0.000001 1.000000 -0.000004
0.000000 1.000000 0.000000
0.000000 1.000000 0.000000
0.000000 1.000000 0.000000
-0.422619 -0.000001 -0.906308
-0.390449 -0.382683 -0.837319
-0.390449 -0.382684 -0.837319
-0.390449 -0.382684 -0.837319
-0.422619 -0.000001 -0.906308
-0.422619 -0.000001 -0.906308
-0.390449 -0.382683 -0.837319
-0.298837 -0.707106 -0.640857
-0.298837 -0.707106 -0.640857
-0.298837 -0.707106 -0.640857
-0.390449 -0.382684 -0.837319
-0.390449 -0.382683 -0.837319
-0.298837 -0.707106 -0.640857
-0.161728 -0.923880 -0.346829
-0.161729 -0.923880 -0.346829
-0.161729 -0.923880 -0.346829
-0.298837 -0.707106 -0.640857
-0.298837 -0.707106 -0.640857
-0.161728 -0.923880 -0.346829
0.000000 -1.000000 -0.000000
0.000000 -1.000000 -0.000001
0.000000 -1.000000 -0.000001
-0.161729 -0.923880 -0.346829
-0.161728 -0.923880 -0.346829
0.000000 -1.000000 -0.000000
0.161731 -0.923879 0.346830
0.161731 -0.923879 0.346830
0.161731 -0.923879 0.346830
0.000000 -1.000000 -0.000001
0.000000 -1.000000 -0.000000
0.161731 -0.923879 0.346830
0.298837 -0.707107 0.640856
0.298838 -0.707106 0.640856
0.298838 -0.707106 0.640856
0.161731 -0.923879 0.346830
0.161731 -0.923879 0.346830
0.298837 -0.707107 0.640856
0.390448 -0.382684 0.837319
0.390449 -0.382684 0.837319
0.390449 -0.382684 0.837319
0.298838 -0.707106 0.640856
0.298837 -0.707107 0.640856
0.390448 -0.382684 0.837319
0.422619 -0.000000 0.906308
0.422619 -0.000000 0.906308
0.422619 -0.000000 0.906308
0.390449 -0.382684 0.837319
0.390448 -0.382684 0.837319
0.422619 -0.000000 0.906308
0.390449 0.382683 0.837319
0.390449 0.382683 0.837319
0.390449 0.382683 0.837319
0.422619 -0.000000 0.906308
0.422619 -0.000000 0.906308
0.390449 0.382683 0.837319
0.298836 0.707106 0.640857
0.298837 0.707107 0.640857
0.298837 0.707107 0.640857
0.390449 0.382683 0.837319
0.390449 0.382683 0.837319
0.298836 0.707106 0.640857
0.161729 0.923879 0.346829
0.161729 0.923880 0.346829
0.161729 0.923880 0.346829
0.298837 0.707107 0.640857
0.298836 0.707106 0.640857
0.161729 0.923879 0.346829
-0.000001 1.000000 0.000001
-0.000000 1.000000 0.000000
-0.000000 1.000000 0.000000
0.161729 0.923880 0.346829
0.161729 0.923879 0.346829
-0.000001 1.000000 0.000001
-0.161730 0.923879 -0.346829
-0.161730 0.923880 -0.346828
-0.161730 0.923880 -0.346828
-0.000000 1.000000 0.000000
-0.000001 1.000000 0.000001
-0.161730 0.923879 -0.346829
-0.298837 0.707105 -0.640858
-0.298837 0.707106 -0.640857
-0.298837 0.707106 -0.640857
-0.161730 0.923880 -0.346828
-0.161730 0.923879 -0.346829
-0.298837 0.707105 -0.640858
-0.390449 0.382682 -0.837320
-0.390449 0.382682 -0.837319
-0.390449 0.382682 -0.837319
-0.298837 0.707106 -0.640857
-0.298837 0.707105 -0.640858
-0.390449 0.382682 -0.837320
-0.422619 -0.000001 -0.906308
-0.422619 -0.000001 -0.906308
-0.422619 -0.000001 -0.906308
-0.390449 0.382682 -0.837319
-0.390449 0.382682 -0.837320
0.906308 0.000002 -0.422619
0.906308 0.000002 -0.422619
0.906308 0.000002 -0.422619
0.906308 -0.000001 -0.422619
0.906308 -0.000001 -0.422619
0.906308 -0.000001 -0.422619
0.906309 0.000001 -0.422616
0.906309 0.000001 -0.422616
0.906309 0.000001 -0.422616
0.906308 0.000000 -0.422618
0.906308 0.000000 -0.422618
0.906308 0.000000 -0.422618
0.906307 -0.000000 -0.422620
0.906307 -0.000000 -0.422620
0.906307 -0.000000 -0.422620
0.906309 -0.000002 -0.422616
0.906309 -0.000002 -0.422616
0.906309 -0.000002 -0.422616
0.906309 -0.000002 -0.422617
0.906309 -0.000002 -0.422617
0.906309 -0.000002 -0.422617
0.906308 0.000000 -0.422618
0.906308 0.000000 -0.422618
0.906308 0.000000 -0.422618
0.906309 0.000000 -0.422616
0.906309 0.000000 -0.422616
0.906309 0.000000 -0.422616
0.906308 -0.000001 -0.422619
0.906307 -0.000001 -0.422619
0.906308 -0.000001 -0.422619
0.906308 -0.000000 -0.422618
0.906308 -0.000000 -0.422618
0.906308 -0.000000 -0.422618
0.906308 0.000000 -0.422618
0.906308 0.000000 -0.422618
0.906308 0.000000 -0.422618
0.906308 0.000000 -0.422618
0.906308 0.000000 -0.422618
0.906308 0.000000 -0.422618
0.906310 -0.000002 -0.422614
0.906310 -0.000002 -0.422614
0.906310 -0.000002 -0.422614
-0.906308 -0.000000 0.422618
-0.906308 -0.000000 0.422617
-0.906308 -0.000000 0.422618
-0.906307 0.000002 0.422620
-0.906307 0.000002 0.422620
-0.906307 0.000002 0.422620
-0.906305 0.000006 0.422624
-0.906305 0.000006 0.422624
-0.906305 0.000006 0.422624
-0.906308 -0.000003 0.422618
-0.906308 -0.000003 0.422618
-0.906308 -0.000003 0.422618
-0.906305 0.000008 0.422624
-0.906305 0.000008 0.422624
-0.906305 0.000008 0.422624
-0.906305 0.000007 0.422623
-0.906305 0.000007 0.422623
-0.906305 0.000007 0.422623
-0.906307 0.000000 0.422619
-0.906307 0.000000 0.422619
-0.906307 0.000000 0.422619
-0.906308 0.000011 0.422618
-0.906308 0.000011 0.422618
-0.906308 0.000011 0.422618
-0.906307 0.000001 0.422619
-0.906307 0.000001 0.422619
-0.906307 0.000001 0.422619
-0.906307 0.000000 0.422619
-0.906307 0.000000 0.422619
-0.906307 0.000000 0.422619
-0.906308 0.000001 0.422617
-0.906308 0.000001 0.422617
-0.906308 0.000001 0.422617
-0.906308 0.000000 0.422618
-0.906308 0.000000 0.422618
-0.906308 0.000000 0.422618
-0.906308 -0.000001 0.422617
-0.906308 -0.000001 0.422617
-0.906308 -0.000001 0.422617
-0.906309 -0.000001 0.422616
-0.906309 -0.000001 0.422616
-0.906309 -0.000001 0.422615
-0.906308 0.000001 0.422618
-0.906308 0.000001 0.422618
-0.906308 0.000001 0.422618
-0.906308 0.000001 0.422618
-0.906308 0.000001 0.422618
-0.906308 0.000001 0.422618
-0.906308 -0.000001 0.422618
-0.906308 -0.000001 0.422618
-0.906308 -0.000001 0.422618
-0.906308 -0.000001 0.422618
-0.906308 -0.000001 0.422618
-0.906308 -0.000001 0.422618
-0.906308 -0.000001 0.422617
-0.906308 -0.000001 0.422617
-0.906308 -0.000001 0.422617
-0.906308 0.000000 0.422618
-0.906308 0.000000 0.422617
-0.906308 0.000000 0.422617
-0.906308 -0.000000 0.422618
-0.906308 -0.000000 0.422618
-0.906308 -0.000000 0.422618
-0.906308 -0.000001 0.422617
-0.906308 -0.000001 0.422617
-0.906308 -0.000001 0.422617
-0.906308 0.000002 0.422618
-0.906308 0.000002 0.422618
-0.906308 0.000002 0.422618
-0.906308 -0.000001 0.422618
-0.906308 -0.000001 0.422618
-0.906308 -0.000001 0.422618
-0.906309 -0.000000 0.422616
-0.906309 -0.000000 0.422616
-0.906309 -0.000000 0.422616
-0.906309 0.000002 0.422615
-0.906309 0.000002 0.422615
-0.906309 0.000002 0.422615
-0.906307 -0.000002 0.422621
-0.906307 -0.000002 0.422621
-0.906307 -0.000002 0.422621
-0.906308 0.000000 0.422618
-0.906308 0.000000 0.422618
-0.906308 0.000000 0.422618
-0.906309 0.000002 0.422616
-0.906309 0.000002 0.422616
-0.906309 0.000002 0.422616
-0.906306 0.000000 0.422623
-0.906306 0.000000 0.422623
-0.906306 0.000000 0.422623
-0.906307 0.000000 0.422620
-0.906307 0.000000 0.422620
-0.906307 0.000000 0.422620
-0.906309 -0.000000 0.422615
-0.906309 -0.000000 0.422615
-0.906309 -0.000000 0.422615
-0.351127 -0.000001 0.936328
-0.373647 0.267960 0.888023
-0.373647 0.267962 0.888023
-0.373647 0.267962 0.888023
-0.351126 -0.000001 0.936328
-0.351127 -0.000001 0.936328
-0.373647 0.267960 0.888023
-0.437799 0.495122 0.750457
-0.437799 0.495122 0.750457
-0.437799 0.495122 0.750457
-0.373647 0.267962 0.888023
-0.373647 0.267960 0.888023
-0.437799 0.495122 0.750457
-0.533804 0.646907 0.544578
-0.533805 0.646906 0.544577
-0.533805 0.646906 0.544577
-0.437799 0.495122 0.750457
-0.437799 0.495122 0.750457
-0.533804 0.646907 0.544578
-0.647041 0.700217 0.301719
-0.647041 0.700217 0.301719
-0.647041 0.700217 0.301719
-0.533805 0.646906 0.544577
-0.533804 0.646907 0.544578
-0.647041 0.700217 0.301719
-0.760290 0.646911 0.058868
-0.760289 0.646911 0.058869
-0.760289 0.646911 0.058869
-0.647041 0.700217 0.301719
-0.647041 0.700217 0.301719
-0.760290 0.646911 0.058868
-0.856292 0.495126 -0.147017
-0.856292 0.495126 -0.147016
-0.856292 0.495126 -0.147016
-0.760289 0.646911 0.058869
-0.760290 0.646911 0.058868
-0.856292 0.495126 -0.147017
-0.920439 0.267959 -0.284587
-0.920439 0.267960 -0.284587
-0.920439 0.267960 -0.284587
-0.856292 0.495126 -0.147016
-0.856292 0.495126 -0.147017
-0.920439 0.267959 -0.284587
-0.942969 0.000001 -0.332880
-0.942969 0.000001 -0.332881
-0.942969 0.000001 -0.332881
-0.920439 0.267960 -0.284587
-0.920439 0.267959 -0.284587
-0.942969 0.000001 -0.332880
-0.920442 -0.267959 -0.284577
-0.920443 -0.267957 -0.284577
-0.920443 -0.267957 -0.284577
-0.942969 0.000001 -0.332881
-0.942969 0.000001 -0.332880
-0.920442 -0.267959 -0.284577
-0.856293 -0.495126 -0.147015
-0.856293 -0.495126 -0.147014
-0.856293 -0.495126 -0.147014
-0.920443 -0.267957 -0.284577
-0.920442 -0.267959 -0.284577
-0.856293 -0.495126 -0.147015
-0.760287 -0.646915 0.058865
-0.760287 -0.646915 0.058866
-0.760287 -0.646915 0.058866
-0.856293 -0.495126 -0.147014
-0.856293 -0.495126 -0.147015
-0.760287 -0.646915 0.058865
-0.647043 -0.700215 0.301720
-0.647041 -0.700216 0.301722
-0.647041 -0.700216 0.301722
-0.760287 -0.646915 0.058866
-0.760287 -0.646915 0.058865
-0.647043 -0.700215 0.301720
-0.533806 -0.646907 0.544576
-0.533805 -0.646908 0.544575
-0.533805 -0.646908 0.544575
-0.647041 -0.700216 0.301722
-0.647043 -0.700215 0.301720
-0.533806 -0.646907 0.544576
-0.437805 -0.495119 0.750456
-0.437807 -0.495119 0.750455
-0.437807 -0.495119 0.750455
-0.533805 -0.646908 0.544575
-0.533806 -0.646907 0.544576
-0.437805 -0.495119 0.750456
-0.373643 -0.267959 0.888025
-0.373644 -0.267960 0.888025
-0.373644 -0.267960 0.888025
-0.437807 -0.495119 0.750455
-0.437805 -0.495119 0.750456
-0.373643 -0.267959 0.888025
-0.351127 -0.000001 0.936328
-0.351126 -0.000001 0.936328
-0.351126 -0.000001 0.936328
-0.373644 -0.267960 0.888025
-0.373643 -0.267959 0.888025
-0.229783 -0.016855 -0.973096
0.869472 -0.059165 -0.490427
0.786061 -0.062371 -0.614995
0.786061 -0.062371 -0.614995
-0.269796 0.068486 -0.960479
-0.229783 -0.016855 -0.973096
0.869472 -0.059165 -0.490427
0.756743 0.016752 0.653498
0.834600 -0.120017 0.537623
0.834600 -0.120017 0.537623
0.786061 -0.062371 -0.614995
0.869472 -0.059165 -0.490427
0.756743 0.016752 0.653498
-0.341053 0.067965 0.937584
-0.297807 -0.021195 0.954391
-0.297807 -0.021195 0.954391
0.834600 -0.120017 0.537623
0.756743 0.016752 0.653498
-0.341053 0.067965 0.937584
-0.997553 0.056379 -0.041337
-0.993996 0.100735 -0.042713
-0.993996 0.100735 -0.042713
-0.297807 -0.021195 0.954391
-0.341053 0.067965 0.937584
-0.997553 0.056379 -0.041337
-0.229783 -0.016855 -0.973096
-0.269796 0.068486 -0.960479
-0.269796 0.068486 -0.960479
-0.993996 0.100735 -0.042713
-0.997553 0.056379 -0.041337
-0.229783 -0.016855 -0.973096
-0.200663 -0.303260 -0.931541
0.896473 -0.065527 -0.438227
0.896473 -0.065527 -0.438227
0.869472 -0.059165 -0.490427
-0.229783 -0.016855 -0.973096
-0.229783 -0.016855 -0.973096
-0.997553 0.056379 -0.041337
-0.996029 -0.089024 -0.000180
-0.996029 -0.089024 -0.000180
-0.200663 -0.303260 -0.931541
-0.229783 -0.016855 -0.973096
-0.997553 0.056379 -0.041337
-0.341053 0.067965 0.937584
-0.350808 0.263182 0.898704
-0.350808 0.263182 0.898704
-0.996029 -0.089024 -0.000180
-0.997553 0.056379 -0.041337
0.756743 0.016752 0.653498
0.725989 0.285273 0.625747
-0.350808 0.263182 0.898704
-0.350808 0.263182 0.898704
-0.341053 0.067965 0.937584
0.756743 0.016752 0.653498
0.869472 -0.059165 -0.490427
0.896473 -0.065527 -0.438227
0.725989 0.285273 0.625747
0.725989 0.285273 0.625747
0.756743 0.016752 0.653498
0.869472 -0.059165 -0.490427
-0.129558 -0.645244 -0.752911
-0.006202 -0.901212 -0.433334
0.890348 -0.049887 -0.452539
0.890348 -0.049887 -0.452539
0.899945 -0.049686 -0.433163
-0.129558 -0.645244 -0.752911
-0.129558 -0.645244 -0.752911
-0.964967 -0.253842 0.066346
-0.902207 -0.351705 0.249653
-0.902207 -0.351705 0.249653
-0.006202 -0.901212 -0.433334
-0.129558 -0.645244 -0.752911
-0.964967 -0.253842 0.066346
-0.401310 0.503338 0.765245
-0.464680 0.676179 0.571712
-0.464680 0.676179 0.571712
-0.902207 -0.351705 0.249653
-0.964967 -0.253842 0.066346
-0.401310 0.503338 0.765245
0.650744 0.606214 0.457207
0.547761 0.821059 0.160687
0.547761 0.821059 0.160687
-0.464680 0.676179 0.571712
-0.401310 0.503338 0.765245
0.899945 -0.049686 -0.433163
0.890348 -0.049887 -0.452539
0.547761 0.821059 0.160687
0.547761 0.821059 0.160687
0.650744 0.606214 0.457207
0.899945 -0.049686 -0.433163
-0.129558 -0.645244 -0.752911
0.899945 -0.049686 -0.433163
0.896473 -0.065527 -0.438227
0.896473 -0.065527 -0.438227
-0.200663 -0.303260 -0.931541
-0.129558 -0.645244 -0.752911
-0.996029 -0.089024 -0.000180
-0.964967 -0.253842 0.066346
-0.129558 -0.645244 -0.752911
-0.129558 -0.645244 -0.752911
-0.200663 -0.303260 -0.931541
-0.996029 -0.089024 -0.000180
-0.350808 0.263182 0.898704
-0.401310 0.503338 0.765245
-0.964967 -0.253842 0.066346
-0.964967 -0.253842 0.066346
-0.996029 -0.089024 -0.000180
-0.350808 0.263182 0.898704
0.725989 0.285273 0.625747
0.650744 0.606214 0.457207
-0.401310 0.503338 0.765245
-0.401310 0.503338 0.765245
-0.350808 0.263182 0.898704
0.725989 0.285273 0.625747
0.899945 -0.049686 -0.433163
0.650744 0.606214 0.457207
0.725989 0.285273 0.625747
0.725989 0.285273 0.625747
0.896473 -0.065527 -0.438227
0.899945 -0.049686 -0.433163
0.089519 -0.968183 -0.233682
0.890939 -0.091370 -0.444837
0.890348 -0.049887 -0.452539
0.890348 -0.049887 -0.452539
-0.006202 -0.901212 -0.433334
0.089519 -0.968183 -0.233682
-0.902207 -0.351705 0.249653
-0.843596 -0.422877 0.330941
0.089519 -0.968183 -0.233682
0.089519 -0.968183 -0.233682
-0.006202 -0.901212 -0.433334
-0.902207 -0.351705 0.249653
-0.464680 0.676179 0.571712
-0.494115 0.743020 0.451411
-0.843596 -0.422877 0.330941
-0.843596 -0.422877 0.330941
-0.902207 -0.351705 0.249653
-0.464680 0.676179 0.571712
0.547761 0.821059 0.160687
0.513156 0.858295 -0.000629
-0.494115 0.743020 0.451411
-0.494115 0.743020 0.451411
-0.464680 0.676179 0.571712
0.547761 0.821059 0.160687
0.890939 -0.091370 -0.444837
0.513156 0.858295 -0.000629
0.547761 0.821059 0.160687
0.547761 0.821059 0.160687
0.890348 -0.049887 -0.452539
0.890939 -0.091370 -0.444837
</float_array>
          <technique_common>
            <accessor source="#Object601-Normal0-array" count="576" stride="3">
              <param name="X" type="float"/>
              <param name="Y" type="float"/>
              <param name="Z" type="float"/>
            </accessor>
          </technique_common>
        </source>
        <source id="Object601-UV0">
          <float_array id="Object601-UV0-array" count="348">
0.693951 0.294134
0.612102 0.294134
0.612102 0.369655
0.693951 0.369655
0.611692 0.294134
0.693992 0.294134
0.693992 0.369655
0.611692 0.369655
0.611713 0.294134
0.693582 0.294134
0.693971 0.294134
0.693971 0.369654
0.693582 0.369655
0.611713 0.369655
0.615292 0.048714
0.636892 0.011303
0.680091 0.011303
0.701690 0.048714
0.680091 0.086125
0.636892 0.086125
0.693951 0.294134
0.612102 0.294134
0.612102 0.369655
0.693951 0.369655
0.611692 0.294134
0.693992 0.294134
0.693992 0.369655
0.611692 0.369655
0.611713 0.294134
0.693582 0.294134
0.693971 0.294134
0.693971 0.369654
0.693582 0.369655
0.611713 0.369655
0.615292 0.048714
0.636892 0.011303
0.680091 0.011303
0.701690 0.048714
0.680091 0.086125
0.636892 0.086125
0.213504 0.254169
0.213504 0.321170
0.117888 0.321170
0.117888 0.254169
0.213504 0.377971
0.117888 0.377971
0.213504 0.130366
0.213504 0.187167
0.117888 0.187167
0.117888 0.130366
0.213504 0.625577
0.213504 0.682378
0.117888 0.682378
0.117888 0.625577
0.213504 0.749379
0.117888 0.749379
0.213504 0.816381
0.117888 0.816381
0.213504 0.873182
0.117888 0.873182
0.213504 0.434772
0.117888 0.434772
0.213504 0.501774
0.117888 0.501774
0.213504 0.568776
0.117888 0.568776
0.338461 0.440703
0.373042 0.388971
0.424789 0.354411
0.485821 0.342284
0.546849 0.354436
0.598581 0.389018
0.633141 0.440764
0.645268 0.501797
0.633116 0.562825
0.598535 0.614556
0.546788 0.649117
0.485756 0.661244
0.424728 0.649092
0.372996 0.614510
0.338436 0.562764
0.326308 0.501731
0.213504 0.929983
0.117888 0.929983
0.213504 0.996985
0.117888 0.996985
0.213504 0.073565
0.117888 0.073565
0.961288 0.502990
0.951439 0.552508
0.923389 0.594487
0.881410 0.622537
0.831892 0.632387
0.782374 0.622537
0.740395 0.594487
0.712345 0.552508
0.702496 0.502990
0.712345 0.453472
0.740395 0.411493
0.782374 0.383443
0.831892 0.373594
0.881410 0.383443
0.923389 0.411493
0.951439 0.453472
0.990628 0.502990
0.978545 0.563736
0.960474 0.556251
0.971068 0.502990
0.944135 0.615233
0.930305 0.601403
0.892638 0.649643
0.885152 0.631572
0.831892 0.661726
0.831892 0.642167
0.771146 0.649643
0.778632 0.631572
0.719649 0.615233
0.733480 0.601403
0.685239 0.563736
0.703310 0.556251
0.673156 0.502990
0.692716 0.502990
0.685239 0.442245
0.703310 0.449730
0.719649 0.390747
0.733479 0.404578
0.771146 0.356338
0.778632 0.374408
0.831892 0.344254
0.831892 0.363814
0.892638 0.356338
0.885152 0.374408
0.944135 0.390747
0.930305 0.404578
0.978545 0.442245
0.960474 0.449730
0.213504 0.006563
0.117888 0.006563
0.257599 0.282932
0.242439 0.282932
0.305378 0.282932
0.288036 0.282932
0.242439 0.225934
0.257599 0.225934
0.272625 0.282932
0.272625 0.225934
0.228544 0.282932
0.257599 0.325686
0.228544 0.225934
0.257599 0.370614
0.288036 0.225934
0.305378 0.325686
0.305378 0.370614
0.305378 0.225934
0.242439 0.325686
0.228544 0.325686
0.228544 0.370614
0.288036 0.325686
0.272625 0.325686
0.288036 0.370614
0.242439 0.370614
0.272625 0.370614
0.242439 0.304309
0.257599 0.304309
0.272625 0.304309
0.288036 0.304309
0.305378 0.304309
0.228544 0.304309
0.242439 0.348150
0.257599 0.348150
0.272625 0.348150
0.288036 0.348150
0.305378 0.348150
0.228544 0.348150
</float_array>
          <technique_common>
            <accessor source="#Object601-UV0-array" count="174" stride="2">
              <param name="S" type="float"/>
              <param name="T" type="float"/>
            </accessor>
          </technique_common>
        </source>
        <vertices id="Object601-VERTEX">
          <input semantic="POSITION" source="#Object601-POSITION"/>
        </vertices>
        <triangles count="192" material="gauges">
          <input semantic="VERTEX" offset="0" source="#Object601-VERTEX"/>
          <input semantic="NORMAL" offset="1" source="#Object601-Normal0"/>
          <input semantic="TEXCOORD" offset="2" set="0" source="#Object601-UV0"/>
          <p> 0 0 8 1 1 9 7 2 12 7 3 12 6 4 13 0 5 8 1 6 0 2 7 1 8 8 2 8 9 2 7 10 3 1 11 0 2 12 1 3 13 10 9 14 11 9 15 11 8 16 2 2 17 1 3 18 10 4 19 4 10 20 7 10 21 7 9 22 11 3 23 10 4 24 4 5 25 5 11 26 6 11 27 6 10 28 7 4 29 4 5 30 5 0 31 8 6 32 13 6 33 13 11 34 6 5 35 5 7 36 15 8 37 16 9 38 17 9 39 17 10 40 18 11 41 19 7 42 15 9 43 17 11 44 19 6 45 14 7 46 15 11 47 19 12 48 28 13 49 29 19 50 32 19 51 32 18 52 33 12 53 28 13 54 20 14 55 21 20 56 22 20 57 22 19 58 23 13 59 20 14 60 21 15 61 30 21 62 31 21 63 31 20 64 22 14 65 21 15 66 30 16 67 24 22 68 27 22 69 27 21 70 31 15 71 30 16 72 24 17 73 25 23 74 26 23 75 26 22 76 27 16 77 24 17 78 25 12 79 28 18 80 33 18 81 33 23 82 26 17 83 25 19 84 35 20 85 36 21 86 37 21 87 37 22 88 38 23 89 39 19 90 35 21 91 37 23 92 39 18 93 34 19 94 35 23 95 39 24 96 40 25 97 41 41 98 42 41 99 42 40 100 43 24 101 40 25 102 41 26 103 44 42 104 45 42 105 45 41 106 42 25 107 41 26 108 44 27 109 60 43 110 61 43 111 61 42 112 45 26 113 44 27 114 60 28 115 62 44 116 63 44 117 63 43 118 61 27 119 60 28 120 62 29 121 64 45 122 65 45 123 65 44 124 63 28 125 62 29 126 64 30 127 50 46 128 53 46 129 53 45 130 65 29 131 64 30 132 50 31 133 51 47 134 52 47 135 52 46 136 53 30 137 50 31 138 51 32 139 54 48 140 55 48 141 55 47 142 52 31 143 51 32 144 54 33 145 56 49 146 57 49 147 57 48 148 55 32 149 54 33 150 56 34 151 58 50 152 59 50 153 59 49 154 57 33 155 56 34 156 58 35 157 82 51 158 83 51 159 83 50 160 59 34 161 58 35 162 82 36 163 84 52 164 85 52 165 85 51 166 83 35 167 82 36 168 136 37 169 86 53 170 87 53 171 87 52 172 137 36 173 136 37 174 86 38 175 46 54 176 49 54 177 49 53 178 87 37 179 86 38 180 46 39 181 47 55 182 48 55 183 48 54 184 49 38 185 46 39 186 47 24 187 40 40 188 43 40 189 43 55 190 48 39 191 47 38 192 67 37 193 68 36 194 69 36 195 69 35 196 70 34 197 71 34 198 71 33 199 72 32 200 73 36 201 69 34 202 71 32 203 73 32 204 73 31 205 74 30 206 75 30 207 75 29 208 76 28 209 77 32 210 73 30 211 75 28 212 77 28 213 77 27 214 78 26 215 79 26 216 79 25 217 80 24 218 81 28 219 77 26 220 79 24 221 81 32 222 73 28 223 77 24 224 81 36 225 69 32 226 73 24 227 81 38 228 67 36 229 69 24 230 81 39 231 66 38 232 67 24 233 81 40 234 104 41 235 105 57 236 106 57 237 106 56 238 107 40 239 104 41 240 105 42 241 108 58 242 109 58 243 109 57 244 106 41 245 105 42 246 108 43 247 110 59 248 111 59 249 111 58 250 109 42 251 108 43 252 110 44 253 112 60 254 113 60 255 113 59 256 111 43 257 110 44 258 112 45 259 114 61 260 115 61 261 115 60 262 113 44 263 112 45 264 114 46 265 116 62 266 117 62 267 117 61 268 115 45 269 114 46 270 116 47 271 118 63 272 119 63 273 119 62 274 117 46 275 116 47 276 118 48 277 120 64 278 121 64 279 121 63 280 119 47 281 118 48 282 120 49 283 122 65 284 123 65 285 123 64 286 121 48 287 120 49 288 122 50 289 124 66 290 125 66 291 125 65 292 123 49 293 122 50 294 124 51 295 126 67 296 127 67 297 127 66 298 125 50 299 124 51 300 126 52 301 128 68 302 129 68 303 129 67 304 127 51 305 126 52 306 128 53 307 130 69 308 131 69 309 131 68 310 129 52 311 128 53 312 130 54 313 132 70 314 133 70 315 133 69 316 131 53 317 130 54 318 132 55 319 134 71 320 135 71 321 135 70 322 133 54 323 132 55 324 134 40 325 104 56 326 107 56 327 107 71 328 135 55 329 134 56 330 107 57 331 106 73 332 89 73 333 89 72 334 88 56 335 107 57 336 106 58 337 109 74 338 90 74 339 90 73 340 89 57 341 106 58 342 109 59 343 111 75 344 91 75 345 91 74 346 90 58 347 109 59 348 111 60 349 113 76 350 92 76 351 92 75 352 91 59 353 111 60 354 113 61 355 115 77 356 93 77 357 93 76 358 92 60 359 113 61 360 115 62 361 117 78 362 94 78 363 94 77 364 93 61 365 115 62 366 117 63 367 119 79 368 95 79 369 95 78 370 94 62 371 117 63 372 119 64 373 121 80 374 96 80 375 96 79 376 95 63 377 119 64 378 121 65 379 123 81 380 97 81 381 97 80 382 96 64 383 121 65 384 123 66 385 125 82 386 98 82 387 98 81 388 97 65 389 123 66 390 125 67 391 127 83 392 99 83 393 99 82 394 98 66 395 125 67 396 127 68 397 129 84 398 100 84 399 100 83 400 99 67 401 127 68 402 129 69 403 131 85 404 101 85 405 101 84 406 100 68 407 129 69 408 131 70 409 133 86 410 102 86 411 102 85 412 101 69 413 131 70 414 133 71 415 135 87 416 103 87 417 103 86 418 102 70 419 133 71 420 135 56 421 107 72 422 88 72 423 88 87 424 103 71 425 135 88 426 138 89 427 139 94 428 142 94 429 142 93 430 143 88 431 138 89 432 139 90 433 146 95 434 148 95 435 148 94 436 142 89 437 139 90 438 140 91 439 141 96 440 150 96 441 150 95 442 153 90 443 140 91 444 141 92 445 144 97 446 145 97 447 145 96 448 150 91 449 141 92 450 144 88 451 138 93 452 143 93 453 143 97 454 145 92 455 144 88 456 138 109 457 163 108 458 162 108 459 162 89 460 139 88 461 138 88 462 138 92 463 144 110 464 164 110 465 164 109 466 163 88 467 138 92 468 144 91 469 141 111 470 165 111 471 165 110 472 164 92 473 144 90 474 140 112 475 166 111 476 165 111 477 165 91 478 141 90 479 140 89 480 139 108 481 162 112 482 167 112 483 167 90 484 146 89 485 139 99 486 147 114 487 169 113 488 168 113 489 168 98 490 154 99 491 147 99 492 147 100 493 158 115 494 170 115 495 170 114 496 169 99 497 147 100 498 158 101 499 157 116 500 171 116 501 171 115 502 170 100 503 158 101 504 157 102 505 151 117 506 172 117 507 172 116 508 171 101 509 157 98 510 154 113 511 168 117 512 173 117 513 173 102 514 155 98 515 154 99 516 147 98 517 154 108 518 162 108 519 162 109 520 163 99 521 147 110 522 164 100 523 158 99 524 147 99 525 147 109 526 163 110 527 164 111 528 165 101 529 157 100 530 158 100 531 158 110 532 164 111 533 165 112 534 166 102 535 151 101 536 157 101 537 157 111 538 165 112 539 166 98 540 154 102 541 155 112 542 167 112 543 167 108 544 162 98 545 154 104 546 149 103 547 160 113 548 168 113 549 168 114 550 169 104 551 149 115 552 170 105 553 161 104 554 149 104 555 149 114 556 169 115 557 170 116 558 171 106 559 159 105 560 161 105 561 161 115 562 170 116 563 171 117 564 172 107 565 152 106 566 159 106 567 159 116 568 171 117 569 172 103 570 160 107 571 156 117 572 173 117 573 173 113 574 168 103 575 160</p>
        </triangles>
      </mesh>
    </geometry>
  </library_geometries>
  <library_animations>
    <animation id="Object599-anim" name="Object599">
      <animation>
        <source id="Object599-Matrix-animation-input">
          <float_array id="Object599-Matrix-animation-input-array" count="6">

0.000000 0.033333 0.066667 0.100000 0.133333 0.166667</float_array>
          <technique_common>
            <accessor source="#Object599-Matrix-animation-input-array" count="6">
              <param name="TIME" type="float"/>
            </accessor>
          </technique_common>
        </source>
        <source id="Object599-Matrix-animation-output-transform">
          <float_array id="Object599-Matrix-animation-output-transform-array" count="96">

0.906308 -0.211309 -0.365998 1.203570 -0.422618 -0.453154 -0.784886 1.702008 -0.000000 0.866025 -0.500000 0.420761 0.000000 0.000000 0.000000 1.000000
0.906308 -0.204629 -0.369774 1.203570 -0.422618 -0.438829 -0.792983 1.702008 -0.000000 0.874960 -0.484195 0.420761 0.000000 0.000000 0.000000 1.000000
0.906308 -0.188438 -0.378282 1.203570 -0.422618 -0.404107 -0.811229 1.702008 -0.000000 0.895092 -0.445882 0.420761 0.000000 0.000000 0.000000 1.000000
0.906308 -0.168655 -0.387507 1.203570 -0.422618 -0.361683 -0.831011 1.702008 -0.000000 0.916919 -0.399073 0.420761 0.000000 0.000000 0.000000 1.000000
0.906308 -0.151730 -0.394442 1.203570 -0.422618 -0.325386 -0.845883 1.702008 -0.000000 0.933328 -0.359024 0.420761 0.000000 0.000000 0.000000 1.000000
0.906308 -0.144544 -0.397131 1.203570 -0.422618 -0.309976 -0.851651 1.702008 -0.000000 0.939693 -0.342020 0.420761 0.000000 0.000000 0.000000 1.000000</float_array>
          <technique_common>
            <accessor source="#Object599-Matrix-animation-output-transform-array" count="6" stride="16">
              <param type="float4x4"/>
            </accessor>
          </technique_common>
        </source>
        <source id="Object599-Interpolations">
          <Name_array id="Object599-Interpolations-array" count="6">
 LINEAR LINEAR LINEAR LINEAR LINEAR LINEAR</Name_array>
          <technique_common>
            <accessor source="#Object599-Interpolations-array" count="6">
              <param type="name"/>
            </accessor>
          </technique_common>
        </source>
        <sampler id="Object599-Matrix-animation-transform">
          <input semantic="INPUT" source="#Object599-Matrix-animation-input"/>
          <input semantic="OUTPUT" source="#Object599-Matrix-animation-output-transform"/>
          <input semantic="INTERPOLATION" source="#Object599-Interpolations"/>
        </sampler>
        <channel source="#Object599-Matrix-animation-transform" target="Object599/matrix"/>
      </animation>
    </animation>
    <animation id="Object600-anim" name="Object600">
      <animation>
        <source id="Object600-Matrix-animation-input">
          <float_array id="Object600-Matrix-animation-input-array" count="6">

0.000000 0.033333 0.066667 0.100000 0.133333 0.166667</float_array>
          <technique_common>
            <accessor source="#Object600-Matrix-animation-input-array" count="6">
              <param name="TIME" type="float"/>
            </accessor>
          </technique_common>
        </source>
        <source id="Object600-Matrix-animation-output-transform">
          <float_array id="Object600-Matrix-animation-output-transform-array" count="96">

1.000000 0.000000 0.000000 1.137659 0.000000 0.000000 1.000000 1.517717 0.000000 -1.000000 0.000000 -0.239256 0.000000 0.000000 0.000000 1.000000
1.000000 0.000000 0.000000 1.137659 0.000000 0.000000 1.000000 1.517717 0.000000 -1.000000 0.000000 -0.239256 0.000000 0.000000 0.000000 1.000000
1.000000 0.000000 0.000000 1.137659 0.000000 0.000000 1.000000 1.517717 0.000000 -1.000000 0.000000 -0.239256 0.000000 0.000000 0.000000 1.000000
1.000000 0.000000 0.000000 1.137659 0.000000 0.000000 1.000000 1.517717 0.000000 -1.000000 0.000000 -0.239256 0.000000 0.000000 0.000000 1.000000
1.000000 0.000000 0.000000 1.137659 0.000000 0.000000 1.000000 1.517717 0.000000 -1.000000 0.000000 -0.239256 0.000000 0.000000 0.000000 1.000000
1.000000 0.000000 0.000000 1.137659 0.000000 0.000000 1.000000 1.517717 0.000000 -1.000000 0.000000 -0.239256 0.000000 0.000000 0.000000 1.000000</float_array>
          <technique_common>
            <accessor source="#Object600-Matrix-animation-output-transform-array" count="6" stride="16">
              <param type="float4x4"/>
            </accessor>
          </technique_common>
        </source>
        <source id="Object600-Interpolations">
          <Name_array id="Object600-Interpolations-array" count="6">
 LINEAR LINEAR LINEAR LINEAR LINEAR LINEAR</Name_array>
          <technique_common>
            <accessor source="#Object600-Interpolations-array" count="6">
              <param type="name"/>
            </accessor>
          </technique_common>
        </source>
        <sampler id="Object600-Matrix-animation-transform">
          <input semantic="INPUT" source="#Object600-Matrix-animation-input"/>
          <input semantic="OUTPUT" source="#Object600-Matrix-animation-output-transform"/>
          <input semantic="INTERPOLATION" source="#Object600-Interpolations"/>
        </sampler>
        <channel source="#Object600-Matrix-animation-transform" target="Object600/matrix"/>
      </animation>
    </animation>
    <animation id="Object601-anim" name="Object601">
      <animation>
        <source id="Object601-Matrix-animation-input">
          <float_array id="Object601-Matrix-animation-input-array" count="6">

0.000000 0.033333 0.066667 0.100000 0.133333 0.166667</float_array>
          <technique_common>
            <accessor source="#Object601-Matrix-animation-input-array" count="6">
              <param name="TIME" type="float"/>
            </accessor>
          </technique_common>
        </source>
        <source id="Object601-Matrix-animation-output-transform">
          <float_array id="Object601-Matrix-animation-output-transform-array" count="96">

1.000000 -0.000000 -0.000000 1.137659 0.000000 0.000000 1.000000 1.517717 -0.000000 -1.000000 0.000000 -0.239256 0.000000 0.000000 0.000000 1.000000
1.000000 -0.000000 -0.000000 1.137659 0.000000 0.000000 1.000000 1.517717 -0.000000 -1.000000 0.000000 -0.239256 0.000000 0.000000 0.000000 1.000000
1.000000 -0.000000 -0.000000 1.137659 0.000000 0.000000 1.000000 1.517717 -0.000000 -1.000000 0.000000 -0.239256 0.000000 0.000000 0.000000 1.000000
1.000000 -0.000000 -0.000000 1.137659 0.000000 0.000000 1.000000 1.517717 -0.000000 -1.000000 0.000000 -0.239256 0.000000 0.000000 0.000000 1.000000
1.000000 -0.000000 -0.000000 1.137659 0.000000 0.000000 1.000000 1.517717 -0.000000 -1.000000 0.000000 -0.239256 0.000000 0.000000 0.000000 1.000000
1.000000 -0.000000 -0.000000 1.137659 0.000000 0.000000 1.000000 1.517717 -0.000000 -1.000000 0.000000 -0.239256 0.000000 0.000000 0.000000 1.000000</float_array>
          <technique_common>
            <accessor source="#Object601-Matrix-animation-output-transform-array" count="6" stride="16">
              <param type="float4x4"/>
            </accessor>
          </technique_common>
        </source>
        <source id="Object601-Interpolations">
          <Name_array id="Object601-Interpolations-array" count="6">
 LINEAR LINEAR LINEAR LINEAR LINEAR LINEAR</Name_array>
          <technique_common>
            <accessor source="#Object601-Interpolations-array" count="6">
              <param type="name"/>
            </accessor>
          </technique_common>
        </source>
        <sampler id="Object601-Matrix-animation-transform">
          <input semantic="INPUT" source="#Object601-Matrix-animation-input"/>
          <input semantic="OUTPUT" source="#Object601-Matrix-animation-output-transform"/>
          <input semantic="INTERPOLATION" source="#Object601-Interpolations"/>
        </sampler>
        <channel source="#Object601-Matrix-animation-transform" target="Object601/matrix"/>
      </animation>
    </animation>
  </library_animations>
  <library_visual_scenes>
    <visual_scene id="" name="">
      <node name="Object599" id="Object599" layer="switch_gauges_on" sid="Object599">
        <matrix sid="matrix">0.906308 -0.211309 -0.365998 1.203570 -0.422618 -0.453154 -0.784886 1.702008 -0.000000 0.866025 -0.500000 0.420761 0.000000 0.000000 0.000000 1.000000</matrix>
        <instance_geometry url="#Object599-lib">
          <bind_material>
            <technique_common>
              <instance_material symbol="spraysystem" target="#spraysystem"/>
            </technique_common>
          </bind_material>
        </instance_geometry>
        <extra>
          <technique profile="FCOLLADA">
            <visibility>1.000000</visibility>
          </technique>
        </extra>
      </node>
      <node name="Object600" id="Object600" layer="switch_gauges_on" sid="Object600">
        <matrix sid="matrix">1.000000 0.000000 0.000000 1.137659 0.000000 0.000000 1.000000 1.517717 0.000000 -1.000000 0.000000 -0.239256 0.000000 0.000000 0.000000 1.000000</matrix>
        <instance_geometry url="#Object600-lib">
          <bind_material>
            <technique_common>
              <instance_material symbol="spraysystem" target="#spraysystem"/>
            </technique_common>
          </bind_material>
        </instance_geometry>
        <extra>
          <technique profile="FCOLLADA">
            <visibility>1.000000</visibility>
          </technique>
        </extra>
      </node>
      <node name="Object601" id="Object601" layer="switch_gauges_on" sid="Object601">
        <matrix sid="matrix">1.000000 -0.000000 -0.000000 1.137659 0.000000 0.000000 1.000000 1.517717 -0.000000 -1.000000 0.000000 -0.239256 0.000000 0.000000 0.000000 1.000000</matrix>
        <instance_geometry url="#Object601-lib">
          <bind_material>
            <technique_common>
              <instance_material symbol="gauges" target="#gauges"/>
            </technique_common>
          </bind_material>
        </instance_geometry>
        <extra>
          <technique profile="FCOLLADA">
            <visibility>1.000000</visibility>
          </technique>
        </extra>
      </node>
      <extra>
        <technique profile="MAX3D">
          <frame_rate>30.000000</frame_rate>
        </technique>
        <technique profile="FCOLLADA">
          <start_time>0.000000</start_time>
          <end_time>0.166667</end_time>
        </technique>
      </extra>
    </visual_scene>
  </library_visual_scenes>
  <scene>
    <instance_visual_scene url="#"></instance_visual_scene>
  </scene>
</COLLADA>

