<?xml version="1.0" encoding="utf-8"?>
<COLLADA xmlns="http://www.collada.org/2005/11/COLLADASchema" version="1.4.1">
  <asset>
    <contributor>
      <author></author>
      <authoring_tool>FBX COLLADA exporter</authoring_tool>
      <comments></comments>
    </contributor>
    <created>2012-07-12T23:06:58Z</created>
    <keywords></keywords>
    <modified>2012-07-12T23:06:58Z</modified>
    <revision></revision>
    <subject></subject>
    <title></title>
    <unit meter="1.000000" name="centimeter"></unit>
    <up_axis>Y_UP</up_axis>
  </asset>
  <library_images>
    <image id="Map #2-image" name="Map #2">
      <init_from>file://C:\Users\WesleyTack\Desktop\amnesia_raw\entities\furniture\billiard_table\balls.psd</init_from>
    </image>
  </library_images>
  <library_materials>
    <material id="_01 - Default" name="_01 - Default">
      <instance_effect url="#_01 - Default-fx"/>
    </material>
  </library_materials>
  <library_effects>
    <effect id="_01 - Default-fx" name="_01 - Default">
      <profile_COMMON>
        <technique sid="standard">
          <phong>
            <emission>
              <color sid="emission">0.000000  0.000000 0.000000 1.000000</color>
            </emission>
            <ambient>
              <color sid="ambient">0.588235  0.588235 0.588235 1.000000</color>
            </ambient>
            <diffuse>
              <texture texture="Map #2-image" texcoord="CHANNEL0">
                <extra>
                  <technique profile="MAYA">
                    <wrapU sid="wrapU0">TRUE</wrapU>
                    <wrapV sid="wrapV0">TRUE</wrapV>
                    <blend_mode>ADD</blend_mode>
                  </technique>
                </extra>
              </texture>
            </diffuse>
            <specular>
              <color sid="specular">0.000000  0.000000 0.000000 1.000000</color>
            </specular>
            <shininess>
              <float sid="shininess">2.000000</float>
            </shininess>
            <reflective>
              <color sid="reflective">0.000000  0.000000 0.000000 1.000000</color>
            </reflective>
            <reflectivity>
              <float sid="reflectivity">1.000000</float>
            </reflectivity>
            <transparent opaque="RGB_ZERO">
              <color sid="transparent">1.000000  1.000000 1.000000 1.000000</color>
            </transparent>
            <transparency>
              <float sid="transparency">0.000000</float>
            </transparency>
          </phong>
        </technique>
      </profile_COMMON>
    </effect>
  </library_effects>
  <library_geometries>
    <geometry id="seven_ball-lib" name="seven_ballMesh">
      <mesh>
        <source id="seven_ball-POSITION">
          <float_array id="seven_ball-POSITION-array" count="258">
0.000000 -0.000000 0.052642
0.000000 0.022841 0.047429
-0.009910 0.020579 0.047429
-0.017858 0.014241 0.047429
-0.022268 0.005082 0.047429
-0.022268 -0.005083 0.047429
-0.017858 -0.014241 0.047429
-0.009910 -0.020579 0.047429
0.000000 -0.022841 0.047429
0.009910 -0.020579 0.047429
0.017857 -0.014241 0.047429
0.022268 -0.005083 0.047429
0.022268 0.005083 0.047429
0.017857 0.014241 0.047429
0.009910 0.020579 0.047429
0.000000 0.041157 0.032822
-0.017858 0.037081 0.032822
-0.032178 0.025661 0.032822
-0.040125 0.009158 0.032822
-0.040125 -0.009158 0.032822
-0.032178 -0.025661 0.032822
-0.017858 -0.037082 0.032822
0.000000 -0.041157 0.032822
0.017857 -0.037082 0.032822
0.032178 -0.025661 0.032822
0.040125 -0.009158 0.032822
0.040125 0.009158 0.032822
0.032178 0.025661 0.032822
0.017857 0.037082 0.032822
0.000000 0.051322 0.011714
-0.022268 0.046240 0.011714
-0.040125 0.031999 0.011714
-0.050036 0.011420 0.011714
-0.050036 -0.011420 0.011714
-0.040125 -0.031999 0.011714
-0.022268 -0.046240 0.011714
0.000000 -0.051322 0.011714
0.022268 -0.046240 0.011714
0.040125 -0.031999 0.011714
0.050036 -0.011420 0.011714
0.050036 0.011420 0.011714
0.040125 0.031999 0.011714
0.022268 0.046240 0.011714
0.000000 0.051322 -0.011714
-0.022268 0.046240 -0.011714
-0.040125 0.031999 -0.011714
-0.050036 0.011420 -0.011714
-0.050036 -0.011420 -0.011714
-0.040125 -0.031999 -0.011714
-0.022268 -0.046240 -0.011714
0.000000 -0.051322 -0.011714
0.022268 -0.046240 -0.011714
0.040125 -0.031999 -0.011714
0.050036 -0.011420 -0.011714
0.050036 0.011420 -0.011714
0.040125 0.031999 -0.011714
0.022268 0.046240 -0.011714
0.000000 0.041157 -0.032822
-0.017858 0.037081 -0.032822
-0.032178 0.025661 -0.032822
-0.040125 0.009158 -0.032822
-0.040125 -0.009158 -0.032822
-0.032178 -0.025661 -0.032822
-0.017858 -0.037081 -0.032822
0.000000 -0.041157 -0.032822
0.017857 -0.037081 -0.032822
0.032178 -0.025661 -0.032822
0.040125 -0.009158 -0.032822
0.040125 0.009158 -0.032822
0.032178 0.025661 -0.032822
0.017857 0.037081 -0.032822
0.000000 0.022841 -0.047429
-0.009910 0.020579 -0.047429
-0.017858 0.014241 -0.047429
-0.022268 0.005082 -0.047429
-0.022268 -0.005083 -0.047429
-0.017858 -0.014241 -0.047429
-0.009910 -0.020579 -0.047429
0.000000 -0.022841 -0.047429
0.009910 -0.020579 -0.047429
0.017857 -0.014241 -0.047429
0.022268 -0.005083 -0.047429
0.022268 0.005083 -0.047429
0.017857 0.014241 -0.047429
0.009910 0.020579 -0.047429
0.000000 -0.000000 -0.052642
</float_array>
          <technique_common>
            <accessor source="#seven_ball-POSITION-array" count="86" stride="3">
              <param name="X" type="float"/>
              <param name="Y" type="float"/>
              <param name="Z" type="float"/>
            </accessor>
          </technique_common>
        </source>
        <source id="seven_ball-Normal0">
          <float_array id="seven_ball-Normal0-array" count="1512">
0.000000 -0.000000 1.000000
-0.000000 0.458944 0.888465
-0.199128 0.413494 0.888465
0.000000 -0.000000 1.000000
-0.199128 0.413494 0.888465
-0.358817 0.286147 0.888465
0.000000 -0.000000 1.000000
-0.358817 0.286147 0.888465
-0.447437 0.102124 0.888465
0.000000 -0.000000 1.000000
-0.447437 0.102124 0.888465
-0.447437 -0.102125 0.888465
0.000000 -0.000000 1.000000
-0.447437 -0.102125 0.888465
-0.358817 -0.286147 0.888465
0.000000 -0.000000 1.000000
-0.358817 -0.286147 0.888465
-0.199128 -0.413494 0.888465
0.000000 -0.000000 1.000000
-0.199128 -0.413494 0.888465
-0.000000 -0.458944 0.888465
0.000000 -0.000000 1.000000
-0.000000 -0.458944 0.888465
0.199128 -0.413494 0.888465
0.000000 -0.000000 1.000000
0.199128 -0.413494 0.888465
0.358817 -0.286147 0.888465
0.000000 -0.000000 1.000000
0.358817 -0.286147 0.888465
0.447437 -0.102124 0.888465
0.000000 -0.000000 1.000000
0.447437 -0.102124 0.888465
0.447437 0.102125 0.888465
0.000000 -0.000000 1.000000
0.447437 0.102125 0.888465
0.358817 0.286147 0.888465
0.000000 -0.000000 1.000000
0.358817 0.286147 0.888465
0.199128 0.413495 0.888465
0.000000 -0.000000 1.000000
0.199128 0.413495 0.888465
-0.000000 0.458944 0.888465
-0.344308 0.714962 0.608507
-0.199128 0.413494 0.888465
-0.000000 0.458944 0.888465
-0.000000 0.458944 0.888465
-0.000000 0.793548 0.608507
-0.344308 0.714962 0.608507
-0.620421 0.494769 0.608507
-0.358817 0.286147 0.888465
-0.199128 0.413494 0.888465
-0.199128 0.413494 0.888465
-0.344308 0.714962 0.608507
-0.620421 0.494769 0.608507
-0.773652 0.176581 0.608507
-0.447437 0.102124 0.888465
-0.358817 0.286147 0.888465
-0.358817 0.286147 0.888465
-0.620421 0.494769 0.608507
-0.773652 0.176581 0.608507
-0.773652 -0.176581 0.608507
-0.447437 -0.102125 0.888465
-0.447437 0.102124 0.888465
-0.447437 0.102124 0.888465
-0.773652 0.176581 0.608507
-0.773652 -0.176581 0.608507
-0.620421 -0.494769 0.608507
-0.358817 -0.286147 0.888465
-0.447437 -0.102125 0.888465
-0.447437 -0.102125 0.888465
-0.773652 -0.176581 0.608507
-0.620421 -0.494769 0.608507
-0.344307 -0.714963 0.608507
-0.199128 -0.413494 0.888465
-0.358817 -0.286147 0.888465
-0.358817 -0.286147 0.888465
-0.620421 -0.494769 0.608507
-0.344307 -0.714963 0.608507
0.000000 -0.793548 0.608507
-0.000000 -0.458944 0.888465
-0.199128 -0.413494 0.888465
-0.199128 -0.413494 0.888465
-0.344307 -0.714963 0.608507
0.000000 -0.793548 0.608507
0.344307 -0.714963 0.608507
0.199128 -0.413494 0.888465
-0.000000 -0.458944 0.888465
-0.000000 -0.458944 0.888465
0.000000 -0.793548 0.608507
0.344307 -0.714963 0.608507
0.620421 -0.494769 0.608507
0.358817 -0.286147 0.888465
0.199128 -0.413494 0.888465
0.199128 -0.413494 0.888465
0.344307 -0.714963 0.608507
0.620421 -0.494769 0.608507
0.773652 -0.176580 0.608507
0.447437 -0.102124 0.888465
0.358817 -0.286147 0.888465
0.358817 -0.286147 0.888465
0.620421 -0.494769 0.608507
0.773652 -0.176580 0.608507
0.773652 0.176582 0.608507
0.447437 0.102125 0.888465
0.447437 -0.102124 0.888465
0.447437 -0.102124 0.888465
0.773652 -0.176580 0.608507
0.773652 0.176582 0.608507
0.620421 0.494770 0.608507
0.358817 0.286147 0.888465
0.447437 0.102125 0.888465
0.447437 0.102125 0.888465
0.773652 0.176582 0.608507
0.620421 0.494770 0.608507
0.344307 0.714963 0.608507
0.199128 0.413495 0.888465
0.358817 0.286147 0.888465
0.358817 0.286147 0.888465
0.620421 0.494770 0.608507
0.344307 0.714963 0.608507
-0.000000 0.793548 0.608507
-0.000000 0.458944 0.888465
0.199128 0.413495 0.888465
0.199128 0.413495 0.888465
0.344307 0.714963 0.608507
-0.000000 0.793548 0.608507
-0.423644 0.879706 0.215970
-0.344308 0.714962 0.608507
-0.000000 0.793548 0.608507
-0.000000 0.793548 0.608507
-0.000001 0.976400 0.215970
-0.423644 0.879706 0.215970
-0.763380 0.608776 0.215970
-0.620421 0.494769 0.608507
-0.344308 0.714962 0.608507
-0.344308 0.714962 0.608507
-0.423644 0.879706 0.215970
-0.763380 0.608776 0.215970
-0.951920 0.217269 0.215970
-0.773652 0.176581 0.608507
-0.620421 0.494769 0.608507
-0.620421 0.494769 0.608507
-0.763380 0.608776 0.215970
-0.951920 0.217269 0.215970
-0.951920 -0.217270 0.215970
-0.773652 -0.176581 0.608507
-0.773652 0.176581 0.608507
-0.773652 0.176581 0.608507
-0.951920 0.217269 0.215970
-0.951920 -0.217270 0.215970
-0.763380 -0.608775 0.215970
-0.620421 -0.494769 0.608507
-0.773652 -0.176581 0.608507
-0.773652 -0.176581 0.608507
-0.951920 -0.217270 0.215970
-0.763380 -0.608775 0.215970
-0.423644 -0.879706 0.215970
-0.344307 -0.714963 0.608507
-0.620421 -0.494769 0.608507
-0.620421 -0.494769 0.608507
-0.763380 -0.608775 0.215970
-0.423644 -0.879706 0.215970
0.000000 -0.976400 0.215970
0.000000 -0.793548 0.608507
-0.344307 -0.714963 0.608507
-0.344307 -0.714963 0.608507
-0.423644 -0.879706 0.215970
0.000000 -0.976400 0.215970
0.423644 -0.879706 0.215970
0.344307 -0.714963 0.608507
0.000000 -0.793548 0.608507
0.000000 -0.793548 0.608507
0.000000 -0.976400 0.215970
0.423644 -0.879706 0.215970
0.763380 -0.608775 0.215970
0.620421 -0.494769 0.608507
0.344307 -0.714963 0.608507
0.344307 -0.714963 0.608507
0.423644 -0.879706 0.215970
0.763380 -0.608775 0.215970
0.951920 -0.217269 0.215970
0.773652 -0.176580 0.608507
0.620421 -0.494769 0.608507
0.620421 -0.494769 0.608507
0.763380 -0.608775 0.215970
0.951920 -0.217269 0.215970
0.951919 0.217270 0.215970
0.773652 0.176582 0.608507
0.773652 -0.176580 0.608507
0.773652 -0.176580 0.608507
0.951920 -0.217269 0.215970
0.951919 0.217270 0.215970
0.763380 0.608776 0.215970
0.620421 0.494770 0.608507
0.773652 0.176582 0.608507
0.773652 0.176582 0.608507
0.951919 0.217270 0.215970
0.763380 0.608776 0.215970
0.423644 0.879706 0.215970
0.344307 0.714963 0.608507
0.620421 0.494770 0.608507
0.620421 0.494770 0.608507
0.763380 0.608776 0.215970
0.423644 0.879706 0.215970
-0.000001 0.976400 0.215970
-0.000000 0.793548 0.608507
0.344307 0.714963 0.608507
0.344307 0.714963 0.608507
0.423644 0.879706 0.215970
-0.000001 0.976400 0.215970
-0.423644 0.879706 -0.215970
-0.423644 0.879706 0.215970
-0.000001 0.976400 0.215970
-0.000001 0.976400 0.215970
-0.000001 0.976400 -0.215970
-0.423644 0.879706 -0.215970
-0.763380 0.608775 -0.215970
-0.763380 0.608776 0.215970
-0.423644 0.879706 0.215970
-0.423644 0.879706 0.215970
-0.423644 0.879706 -0.215970
-0.763380 0.608775 -0.215970
-0.951920 0.217269 -0.215970
-0.951920 0.217269 0.215970
-0.763380 0.608776 0.215970
-0.763380 0.608776 0.215970
-0.763380 0.608775 -0.215970
-0.951920 0.217269 -0.215970
-0.951920 -0.217269 -0.215970
-0.951920 -0.217270 0.215970
-0.951920 0.217269 0.215970
-0.951920 0.217269 0.215970
-0.951920 0.217269 -0.215970
-0.951920 -0.217269 -0.215970
-0.763380 -0.608775 -0.215970
-0.763380 -0.608775 0.215970
-0.951920 -0.217270 0.215970
-0.951920 -0.217270 0.215970
-0.951920 -0.217269 -0.215970
-0.763380 -0.608775 -0.215970
-0.423644 -0.879706 -0.215970
-0.423644 -0.879706 0.215970
-0.763380 -0.608775 0.215970
-0.763380 -0.608775 0.215970
-0.763380 -0.608775 -0.215970
-0.423644 -0.879706 -0.215970
-0.000000 -0.976400 -0.215970
0.000000 -0.976400 0.215970
-0.423644 -0.879706 0.215970
-0.423644 -0.879706 0.215970
-0.423644 -0.879706 -0.215970
-0.000000 -0.976400 -0.215970
0.423644 -0.879706 -0.215970
0.423644 -0.879706 0.215970
0.000000 -0.976400 0.215970
0.000000 -0.976400 0.215970
-0.000000 -0.976400 -0.215970
0.423644 -0.879706 -0.215970
0.763380 -0.608775 -0.215970
0.763380 -0.608775 0.215970
0.423644 -0.879706 0.215970
0.423644 -0.879706 0.215970
0.423644 -0.879706 -0.215970
0.763380 -0.608775 -0.215970
0.951920 -0.217269 -0.215970
0.951920 -0.217269 0.215970
0.763380 -0.608775 0.215970
0.763380 -0.608775 0.215970
0.763380 -0.608775 -0.215970
0.951920 -0.217269 -0.215970
0.951919 0.217270 -0.215970
0.951919 0.217270 0.215970
0.951920 -0.217269 0.215970
0.951920 -0.217269 0.215970
0.951920 -0.217269 -0.215970
0.951919 0.217270 -0.215970
0.763380 0.608776 -0.215970
0.763380 0.608776 0.215970
0.951919 0.217270 0.215970
0.951919 0.217270 0.215970
0.951919 0.217270 -0.215970
0.763380 0.608776 -0.215970
0.423644 0.879706 -0.215970
0.423644 0.879706 0.215970
0.763380 0.608776 0.215970
0.763380 0.608776 0.215970
0.763380 0.608776 -0.215970
0.423644 0.879706 -0.215970
-0.000001 0.976400 -0.215970
-0.000001 0.976400 0.215970
0.423644 0.879706 0.215970
0.423644 0.879706 0.215970
0.423644 0.879706 -0.215970
-0.000001 0.976400 -0.215970
-0.344308 0.714962 -0.608507
-0.423644 0.879706 -0.215970
-0.000001 0.976400 -0.215970
-0.000001 0.976400 -0.215970
-0.000000 0.793548 -0.608507
-0.344308 0.714962 -0.608507
-0.620421 0.494769 -0.608507
-0.763380 0.608775 -0.215970
-0.423644 0.879706 -0.215970
-0.423644 0.879706 -0.215970
-0.344308 0.714962 -0.608507
-0.620421 0.494769 -0.608507
-0.773652 0.176581 -0.608507
-0.951920 0.217269 -0.215970
-0.763380 0.608775 -0.215970
-0.763380 0.608775 -0.215970
-0.620421 0.494769 -0.608507
-0.773652 0.176581 -0.608507
-0.773652 -0.176581 -0.608507
-0.951920 -0.217269 -0.215970
-0.951920 0.217269 -0.215970
-0.951920 0.217269 -0.215970
-0.773652 0.176581 -0.608507
-0.773652 -0.176581 -0.608507
-0.620421 -0.494769 -0.608507
-0.763380 -0.608775 -0.215970
-0.951920 -0.217269 -0.215970
-0.951920 -0.217269 -0.215970
-0.773652 -0.176581 -0.608507
-0.620421 -0.494769 -0.608507
-0.344308 -0.714962 -0.608507
-0.423644 -0.879706 -0.215970
-0.763380 -0.608775 -0.215970
-0.763380 -0.608775 -0.215970
-0.620421 -0.494769 -0.608507
-0.344308 -0.714962 -0.608507
0.000000 -0.793548 -0.608507
-0.000000 -0.976400 -0.215970
-0.423644 -0.879706 -0.215970
-0.423644 -0.879706 -0.215970
-0.344308 -0.714962 -0.608507
0.000000 -0.793548 -0.608507
0.344308 -0.714962 -0.608507
0.423644 -0.879706 -0.215970
-0.000000 -0.976400 -0.215970
-0.000000 -0.976400 -0.215970
0.000000 -0.793548 -0.608507
0.344308 -0.714962 -0.608507
0.620421 -0.494769 -0.608508
0.763380 -0.608775 -0.215970
0.423644 -0.879706 -0.215970
0.423644 -0.879706 -0.215970
0.344308 -0.714962 -0.608507
0.620421 -0.494769 -0.608508
0.773652 -0.176581 -0.608508
0.951920 -0.217269 -0.215970
0.763380 -0.608775 -0.215970
0.763380 -0.608775 -0.215970
0.620421 -0.494769 -0.608508
0.773652 -0.176581 -0.608508
0.773652 0.176582 -0.608507
0.951919 0.217270 -0.215970
0.951920 -0.217269 -0.215970
0.951920 -0.217269 -0.215970
0.773652 -0.176581 -0.608508
0.773652 0.176582 -0.608507
0.620420 0.494770 -0.608507
0.763380 0.608776 -0.215970
0.951919 0.217270 -0.215970
0.951919 0.217270 -0.215970
0.773652 0.176582 -0.608507
0.620420 0.494770 -0.608507
0.344307 0.714962 -0.608507
0.423644 0.879706 -0.215970
0.763380 0.608776 -0.215970
0.763380 0.608776 -0.215970
0.620420 0.494770 -0.608507
0.344307 0.714962 -0.608507
-0.000000 0.793548 -0.608507
-0.000001 0.976400 -0.215970
0.423644 0.879706 -0.215970
0.423644 0.879706 -0.215970
0.344307 0.714962 -0.608507
-0.000000 0.793548 -0.608507
-0.199128 0.413494 -0.888465
-0.344308 0.714962 -0.608507
-0.000000 0.793548 -0.608507
-0.000000 0.793548 -0.608507
-0.000000 0.458944 -0.888465
-0.199128 0.413494 -0.888465
-0.358817 0.286147 -0.888465
-0.620421 0.494769 -0.608507
-0.344308 0.714962 -0.608507
-0.344308 0.714962 -0.608507
-0.199128 0.413494 -0.888465
-0.358817 0.286147 -0.888465
-0.447437 0.102124 -0.888465
-0.773652 0.176581 -0.608507
-0.620421 0.494769 -0.608507
-0.620421 0.494769 -0.608507
-0.358817 0.286147 -0.888465
-0.447437 0.102124 -0.888465
-0.447437 -0.102124 -0.888465
-0.773652 -0.176581 -0.608507
-0.773652 0.176581 -0.608507
-0.773652 0.176581 -0.608507
-0.447437 0.102124 -0.888465
-0.447437 -0.102124 -0.888465
-0.358817 -0.286147 -0.888465
-0.620421 -0.494769 -0.608507
-0.773652 -0.176581 -0.608507
-0.773652 -0.176581 -0.608507
-0.447437 -0.102124 -0.888465
-0.358817 -0.286147 -0.888465
-0.199128 -0.413494 -0.888465
-0.344308 -0.714962 -0.608507
-0.620421 -0.494769 -0.608507
-0.620421 -0.494769 -0.608507
-0.358817 -0.286147 -0.888465
-0.199128 -0.413494 -0.888465
0.000000 -0.458944 -0.888465
0.000000 -0.793548 -0.608507
-0.344308 -0.714962 -0.608507
-0.344308 -0.714962 -0.608507
-0.199128 -0.413494 -0.888465
0.000000 -0.458944 -0.888465
0.199129 -0.413494 -0.888465
0.344308 -0.714962 -0.608507
0.000000 -0.793548 -0.608507
0.000000 -0.793548 -0.608507
0.000000 -0.458944 -0.888465
0.199129 -0.413494 -0.888465
0.358817 -0.286147 -0.888465
0.620421 -0.494769 -0.608508
0.344308 -0.714962 -0.608507
0.344308 -0.714962 -0.608507
0.199129 -0.413494 -0.888465
0.358817 -0.286147 -0.888465
0.447437 -0.102125 -0.888465
0.773652 -0.176581 -0.608508
0.620421 -0.494769 -0.608508
0.620421 -0.494769 -0.608508
0.358817 -0.286147 -0.888465
0.447437 -0.102125 -0.888465
0.447437 0.102125 -0.888465
0.773652 0.176582 -0.608507
0.773652 -0.176581 -0.608508
0.773652 -0.176581 -0.608508
0.447437 -0.102125 -0.888465
0.447437 0.102125 -0.888465
0.358816 0.286147 -0.888465
0.620420 0.494770 -0.608507
0.773652 0.176582 -0.608507
0.773652 0.176582 -0.608507
0.447437 0.102125 -0.888465
0.358816 0.286147 -0.888465
0.199128 0.413494 -0.888465
0.344307 0.714962 -0.608507
0.620420 0.494770 -0.608507
0.620420 0.494770 -0.608507
0.358816 0.286147 -0.888465
0.199128 0.413494 -0.888465
-0.000000 0.458944 -0.888465
-0.000000 0.793548 -0.608507
0.344307 0.714962 -0.608507
0.344307 0.714962 -0.608507
0.199128 0.413494 -0.888465
-0.000000 0.458944 -0.888465
0.000000 -0.000000 -1.000000
-0.199128 0.413494 -0.888465
-0.000000 0.458944 -0.888465
0.000000 -0.000000 -1.000000
-0.358817 0.286147 -0.888465
-0.199128 0.413494 -0.888465
0.000000 -0.000000 -1.000000
-0.447437 0.102124 -0.888465
-0.358817 0.286147 -0.888465
0.000000 -0.000000 -1.000000
-0.447437 -0.102124 -0.888465
-0.447437 0.102124 -0.888465
0.000000 -0.000000 -1.000000
-0.358817 -0.286147 -0.888465
-0.447437 -0.102124 -0.888465
0.000000 -0.000000 -1.000000
-0.199128 -0.413494 -0.888465
-0.358817 -0.286147 -0.888465
0.000000 -0.000000 -1.000000
0.000000 -0.458944 -0.888465
-0.199128 -0.413494 -0.888465
0.000000 -0.000000 -1.000000
0.199129 -0.413494 -0.888465
0.000000 -0.458944 -0.888465
0.000000 -0.000000 -1.000000
0.358817 -0.286147 -0.888465
0.199129 -0.413494 -0.888465
0.000000 -0.000000 -1.000000
0.447437 -0.102125 -0.888465
0.358817 -0.286147 -0.888465
0.000000 -0.000000 -1.000000
0.447437 0.102125 -0.888465
0.447437 -0.102125 -0.888465
0.000000 -0.000000 -1.000000
0.358816 0.286147 -0.888465
0.447437 0.102125 -0.888465
0.000000 -0.000000 -1.000000
0.199128 0.413494 -0.888465
0.358816 0.286147 -0.888465
0.000000 -0.000000 -1.000000
-0.000000 0.458944 -0.888465
0.199128 0.413494 -0.888465
</float_array>
          <technique_common>
            <accessor source="#seven_ball-Normal0-array" count="504" stride="3">
              <param name="X" type="float"/>
              <param name="Y" type="float"/>
              <param name="Z" type="float"/>
            </accessor>
          </technique_common>
        </source>
        <source id="seven_ball-UV0">
          <float_array id="seven_ball-UV0-array" count="200">
0.234166 0.156353
0.173181 0.149472
0.179220 0.149472
0.196143 0.149472
0.220596 0.149472
0.247737 0.149472
0.272190 0.149472
0.289112 0.149472
0.295151 0.149472
0.179220 0.149472
0.196143 0.149472
0.220596 0.149472
0.247737 0.149472
0.272190 0.149472
0.289112 0.149472
0.124275 0.130193
0.135157 0.130193
0.165650 0.130193
0.209713 0.130193
0.258619 0.130193
0.302682 0.130193
0.333175 0.130193
0.344058 0.130193
0.135157 0.130193
0.165650 0.130193
0.209713 0.130193
0.258620 0.130193
0.302682 0.130193
0.333175 0.130193
0.097134 0.102335
0.110704 0.102335
0.148728 0.102335
0.203674 0.102335
0.264659 0.102335
0.319605 0.102335
0.357628 0.102335
0.371199 0.102335
0.110704 0.102335
0.148728 0.102335
0.203674 0.102335
0.264659 0.102335
0.319605 0.102335
0.357628 0.102335
0.097134 0.071414
0.110704 0.071414
0.148728 0.071414
0.203674 0.071414
0.264659 0.071414
0.319605 0.071414
0.357628 0.071414
0.371199 0.071414
0.110704 0.071414
0.148728 0.071414
0.203674 0.071414
0.264659 0.071414
0.319605 0.071414
0.357628 0.071414
0.124275 0.043555
0.135157 0.043555
0.165650 0.043555
0.209713 0.043555
0.258619 0.043555
0.302682 0.043555
0.333175 0.043555
0.344058 0.043555
0.135157 0.043555
0.165650 0.043555
0.209713 0.043555
0.258620 0.043555
0.302682 0.043555
0.333175 0.043555
0.173181 0.024277
0.179220 0.024277
0.196143 0.024277
0.220596 0.024277
0.247737 0.024277
0.272190 0.024277
0.289112 0.024277
0.295151 0.024277
0.179220 0.024277
0.196143 0.024277
0.220596 0.024277
0.247737 0.024277
0.272190 0.024277
0.289112 0.024277
0.234166 0.017396
0.234166 0.156353
0.295151 0.149472
0.173181 0.149472
0.344058 0.130193
0.124275 0.130193
0.371199 0.102335
0.097134 0.102335
0.371199 0.071414
0.097134 0.071414
0.344058 0.043555
0.124275 0.043555
0.295151 0.024277
0.173181 0.024277
0.234166 0.017396
</float_array>
          <technique_common>
            <accessor source="#seven_ball-UV0-array" count="100" stride="2">
              <param name="S" type="float"/>
              <param name="T" type="float"/>
            </accessor>
          </technique_common>
        </source>
        <vertices id="seven_ball-VERTEX">
          <input semantic="POSITION" source="#seven_ball-POSITION"/>
        </vertices>
        <triangles count="168" material="_01 - Default">
          <input semantic="VERTEX" offset="0" source="#seven_ball-VERTEX"/>
          <input semantic="NORMAL" offset="1" source="#seven_ball-Normal0"/>
          <input semantic="TEXCOORD" offset="2" set="0" source="#seven_ball-UV0"/>
          <p> 0 0 0 1 1 1 2 2 2 0 3 0 2 4 2 3 5 3 0 6 0 3 7 3 4 8 4 0 9 0 4 10 4 5 11 5 0 12 0 5 13 5 6 14 6 0 15 0 6 16 6 7 17 7 0 18 0 7 19 7 8 20 8 0 21 86 8 22 88 9 23 9 0 24 86 9 25 9 10 26 10 0 27 86 10 28 10 11 29 11 0 30 86 11 31 11 12 32 12 0 33 86 12 34 12 13 35 13 0 36 86 13 37 13 14 38 14 0 39 86 14 40 14 1 41 87 16 42 16 2 43 2 1 44 1 1 45 1 15 46 15 16 47 16 17 48 17 3 49 3 2 50 2 2 51 2 16 52 16 17 53 17 18 54 18 4 55 4 3 56 3 3 57 3 17 58 17 18 59 18 19 60 19 5 61 5 4 62 4 4 63 4 18 64 18 19 65 19 20 66 20 6 67 6 5 68 5 5 69 5 19 70 19 20 71 20 21 72 21 7 73 7 6 74 6 6 75 6 20 76 20 21 77 21 22 78 22 8 79 8 7 80 7 7 81 7 21 82 21 22 83 22 23 84 23 9 85 9 8 86 88 8 87 88 22 88 90 23 89 23 24 90 24 10 91 10 9 92 9 9 93 9 23 94 23 24 95 24 25 96 25 11 97 11 10 98 10 10 99 10 24 100 24 25 101 25 26 102 26 12 103 12 11 104 11 11 105 11 25 106 25 26 107 26 27 108 27 13 109 13 12 110 12 12 111 12 26 112 26 27 113 27 28 114 28 14 115 14 13 116 13 13 117 13 27 118 27 28 119 28 15 120 89 1 121 87 14 122 14 14 123 14 28 124 28 15 125 89 30 126 30 16 127 16 15 128 15 15 129 15 29 130 29 30 131 30 31 132 31 17 133 17 16 134 16 16 135 16 30 136 30 31 137 31 32 138 32 18 139 18 17 140 17 17 141 17 31 142 31 32 143 32 33 144 33 19 145 19 18 146 18 18 147 18 32 148 32 33 149 33 34 150 34 20 151 20 19 152 19 19 153 19 33 154 33 34 155 34 35 156 35 21 157 21 20 158 20 20 159 20 34 160 34 35 161 35 36 162 36 22 163 22 21 164 21 21 165 21 35 166 35 36 167 36 37 168 37 23 169 23 22 170 90 22 171 90 36 172 92 37 173 37 38 174 38 24 175 24 23 176 23 23 177 23 37 178 37 38 179 38 39 180 39 25 181 25 24 182 24 24 183 24 38 184 38 39 185 39 40 186 40 26 187 26 25 188 25 25 189 25 39 190 39 40 191 40 41 192 41 27 193 27 26 194 26 26 195 26 40 196 40 41 197 41 42 198 42 28 199 28 27 200 27 27 201 27 41 202 41 42 203 42 29 204 91 15 205 89 28 206 28 28 207 28 42 208 42 29 209 91 44 210 44 30 211 30 29 212 29 29 213 29 43 214 43 44 215 44 45 216 45 31 217 31 30 218 30 30 219 30 44 220 44 45 221 45 46 222 46 32 223 32 31 224 31 31 225 31 45 226 45 46 227 46 47 228 47 33 229 33 32 230 32 32 231 32 46 232 46 47 233 47 48 234 48 34 235 34 33 236 33 33 237 33 47 238 47 48 239 48 49 240 49 35 241 35 34 242 34 34 243 34 48 244 48 49 245 49 50 246 50 36 247 36 35 248 35 35 249 35 49 250 49 50 251 50 51 252 51 37 253 37 36 254 92 36 255 92 50 256 94 51 257 51 52 258 52 38 259 38 37 260 37 37 261 37 51 262 51 52 263 52 53 264 53 39 265 39 38 266 38 38 267 38 52 268 52 53 269 53 54 270 54 40 271 40 39 272 39 39 273 39 53 274 53 54 275 54 55 276 55 41 277 41 40 278 40 40 279 40 54 280 54 55 281 55 56 282 56 42 283 42 41 284 41 41 285 41 55 286 55 56 287 56 43 288 93 29 289 91 42 290 42 42 291 42 56 292 56 43 293 93 58 294 58 44 295 44 43 296 43 43 297 43 57 298 57 58 299 58 59 300 59 45 301 45 44 302 44 44 303 44 58 304 58 59 305 59 60 306 60 46 307 46 45 308 45 45 309 45 59 310 59 60 311 60 61 312 61 47 313 47 46 314 46 46 315 46 60 316 60 61 317 61 62 318 62 48 319 48 47 320 47 47 321 47 61 322 61 62 323 62 63 324 63 49 325 49 48 326 48 48 327 48 62 328 62 63 329 63 64 330 64 50 331 50 49 332 49 49 333 49 63 334 63 64 335 64 65 336 65 51 337 51 50 338 94 50 339 94 64 340 96 65 341 65 66 342 66 52 343 52 51 344 51 51 345 51 65 346 65 66 347 66 67 348 67 53 349 53 52 350 52 52 351 52 66 352 66 67 353 67 68 354 68 54 355 54 53 356 53 53 357 53 67 358 67 68 359 68 69 360 69 55 361 55 54 362 54 54 363 54 68 364 68 69 365 69 70 366 70 56 367 56 55 368 55 55 369 55 69 370 69 70 371 70 57 372 95 43 373 93 56 374 56 56 375 56 70 376 70 57 377 95 72 378 72 58 379 58 57 380 57 57 381 57 71 382 71 72 383 72 73 384 73 59 385 59 58 386 58 58 387 58 72 388 72 73 389 73 74 390 74 60 391 60 59 392 59 59 393 59 73 394 73 74 395 74 75 396 75 61 397 61 60 398 60 60 399 60 74 400 74 75 401 75 76 402 76 62 403 62 61 404 61 61 405 61 75 406 75 76 407 76 77 408 77 63 409 63 62 410 62 62 411 62 76 412 76 77 413 77 78 414 78 64 415 64 63 416 63 63 417 63 77 418 77 78 419 78 79 420 79 65 421 65 64 422 96 64 423 96 78 424 98 79 425 79 80 426 80 66 427 66 65 428 65 65 429 65 79 430 79 80 431 80 81 432 81 67 433 67 66 434 66 66 435 66 80 436 80 81 437 81 82 438 82 68 439 68 67 440 67 67 441 67 81 442 81 82 443 82 83 444 83 69 445 69 68 446 68 68 447 68 82 448 82 83 449 83 84 450 84 70 451 70 69 452 69 69 453 69 83 454 83 84 455 84 71 456 97 57 457 95 70 458 70 70 459 70 84 460 84 71 461 97 85 462 85 72 463 72 71 464 71 85 465 85 73 466 73 72 467 72 85 468 85 74 469 74 73 470 73 85 471 85 75 472 75 74 473 74 85 474 85 76 475 76 75 476 75 85 477 85 77 478 77 76 479 76 85 480 85 78 481 78 77 482 77 85 483 99 79 484 79 78 485 98 85 486 99 80 487 80 79 488 79 85 489 99 81 490 81 80 491 80 85 492 99 82 493 82 81 494 81 85 495 99 83 496 83 82 497 82 85 498 99 84 499 84 83 500 83 85 501 99 71 502 97 84 503 84</p>
        </triangles>
      </mesh>
    </geometry>
  </library_geometries>
  <library_visual_scenes>
    <visual_scene id="" name="">
      <node name="seven_ball" id="seven_ball" sid="seven_ball">
        <matrix sid="matrix">1.000000 0.000000 0.000000 -0.000000 0.000000 0.000000 1.000000 -0.000000 0.000000 -1.000000 0.000000 0.000000 0.000000 0.000000 0.000000 1.000000</matrix>
        <instance_geometry url="#seven_ball-lib">
          <bind_material>
            <technique_common>
              <instance_material symbol="_01 - Default" target="#_01 - Default"/>
            </technique_common>
          </bind_material>
        </instance_geometry>
        <extra>
          <technique profile="FCOLLADA">
            <visibility>1.000000</visibility>
          </technique>
        </extra>
      </node>
      <extra>
        <technique profile="MAX3D">
          <frame_rate>30.000000</frame_rate>
        </technique>
        <technique profile="FCOLLADA">
          <start_time>0.000000</start_time>
          <end_time>3.333333</end_time>
        </technique>
      </extra>
    </visual_scene>
  </library_visual_scenes>
  <scene>
    <instance_visual_scene url="#"></instance_visual_scene>
  </scene>
</COLLADA>

