<?xml version="1.0" encoding="utf-8"?>
<COLLADA xmlns="http://www.collada.org/2005/11/COLLADASchema" version="1.4.1">
  <asset>
    <contributor>
      <author></author>
      <authoring_tool>FBX COLLADA exporter</authoring_tool>
      <comments></comments>
    </contributor>
    <created>2012-07-16T09:46:46Z</created>
    <keywords></keywords>
    <modified>2012-07-16T09:46:46Z</modified>
    <revision></revision>
    <subject></subject>
    <title></title>
    <unit meter="1.000000" name="centimeter"></unit>
    <up_axis>Z_UP</up_axis>
  </asset>
  <library_images>
    <image id="Map #6-image" name="Map #6">
      <init_from>file://C:\AMFP_Raw_data\StaticObjects\sewers\floor.psd</init_from>
    </image>
  </library_images>
  <library_materials>
    <material id="Material #6" name="Material #6">
      <instance_effect url="#Material #6-fx"/>
    </material>
  </library_materials>
  <library_effects>
    <effect id="Material #6-fx" name="Material #6">
      <profile_COMMON>
        <technique sid="standard">
          <phong>
            <emission>
              <color sid="emission">0.000000  0.000000 0.000000 1.000000</color>
            </emission>
            <ambient>
              <color sid="ambient">0.588000  0.588000 0.588000 1.000000</color>
            </ambient>
            <diffuse>
              <texture texture="Map #6-image" texcoord="CHANNEL0">
                <extra>
                  <technique profile="MAYA">
                    <wrapU sid="wrapU0">TRUE</wrapU>
                    <wrapV sid="wrapV0">TRUE</wrapV>
                    <blend_mode>ADD</blend_mode>
                  </technique>
                </extra>
              </texture>
            </diffuse>
            <specular>
              <color sid="specular">0.000000  0.000000 0.000000 1.000000</color>
            </specular>
            <shininess>
              <float sid="shininess">2.000000</float>
            </shininess>
            <reflective>
              <color sid="reflective">0.000000  0.000000 0.000000 1.000000</color>
            </reflective>
            <reflectivity>
              <float sid="reflectivity">1.000000</float>
            </reflectivity>
            <transparent opaque="RGB_ZERO">
              <color sid="transparent">1.000000  1.000000 1.000000 1.000000</color>
            </transparent>
            <transparency>
              <float sid="transparency">0.000000</float>
            </transparency>
          </phong>
        </technique>
      </profile_COMMON>
    </effect>
  </library_effects>
  <library_geometries>
    <geometry id="brick_trim_1-lib" name="brick_trim_1Mesh">
      <mesh>
        <source id="brick_trim_1-POSITION">
          <float_array id="brick_trim_1-POSITION-array" count="36">
-0.500000 -0.500000 0.000000
-0.000000 -0.500000 0.000000
-0.500000 0.000000 0.000000
-0.000000 0.000000 0.000000
-0.480896 -0.500000 0.040000
-0.019104 -0.500000 0.040000
-0.480896 0.000000 0.040000
-0.019104 0.000000 0.040000
-0.440000 -0.500000 0.056601
-0.060000 -0.500000 0.056601
-0.440000 0.000000 0.056601
-0.060000 0.000000 0.056601
</float_array>
          <technique_common>
            <accessor source="#brick_trim_1-POSITION-array" count="12" stride="3">
              <param name="X" type="float"/>
              <param name="Y" type="float"/>
              <param name="Z" type="float"/>
            </accessor>
          </technique_common>
        </source>
        <source id="brick_trim_1-Normal0">
          <float_array id="brick_trim_1-Normal0-array" count="180">
0.000000 0.000000 -1.000000
0.000000 0.000000 -1.000000
0.000000 0.000000 -1.000000
0.000000 0.000000 -1.000000
0.000000 0.000000 -1.000000
0.000000 0.000000 -1.000000
-0.191608 0.000000 0.981472
0.191608 0.000000 0.981472
0.191608 0.000000 0.981472
0.191608 0.000000 0.981472
-0.191608 0.000000 0.981472
-0.191608 0.000000 0.981472
0.000000 -1.000000 0.000000
0.000000 -1.000000 0.000000
0.000000 -1.000000 0.000000
0.000000 -1.000000 0.000000
0.000000 -1.000000 0.000000
0.000000 -1.000000 0.000000
0.000000 -1.000000 0.000000
0.000000 -1.000000 0.000000
0.000000 -1.000000 0.000000
0.000000 -1.000000 0.000000
0.000000 -1.000000 0.000000
0.000000 -1.000000 0.000000
0.902369 0.000000 0.430964
0.902369 0.000000 0.430964
0.685593 0.000000 0.727985
0.685593 0.000000 0.727985
0.685593 0.000000 0.727985
0.902369 0.000000 0.430964
0.000000 1.000000 0.000000
0.000000 1.000000 0.000000
0.000000 1.000000 0.000000
0.000000 1.000000 0.000000
0.000000 1.000000 0.000000
0.000000 1.000000 0.000000
0.000000 1.000000 0.000000
0.000000 1.000000 0.000000
0.000000 1.000000 0.000000
0.000000 1.000000 0.000000
0.000000 1.000000 0.000000
0.000000 1.000000 0.000000
-0.902370 0.000000 0.430963
-0.902370 0.000000 0.430963
-0.685593 0.000000 0.727985
-0.685593 0.000000 0.727985
-0.685593 0.000000 0.727985
-0.902370 0.000000 0.430963
0.191608 0.000000 0.981472
0.685593 0.000000 0.727985
0.685593 0.000000 0.727985
0.685593 0.000000 0.727985
0.191608 0.000000 0.981472
0.191608 0.000000 0.981472
-0.191608 0.000000 0.981472
-0.685593 0.000000 0.727985
-0.685593 0.000000 0.727985
-0.685593 0.000000 0.727985
-0.191608 0.000000 0.981472
-0.191608 0.000000 0.981472
</float_array>
          <technique_common>
            <accessor source="#brick_trim_1-Normal0-array" count="60" stride="3">
              <param name="X" type="float"/>
              <param name="Y" type="float"/>
              <param name="Z" type="float"/>
            </accessor>
          </technique_common>
        </source>
        <source id="brick_trim_1-UV0">
          <float_array id="brick_trim_1-UV0-array" count="56">
0.346893 0.650299
0.346893 0.568923
0.463765 0.568923
0.463765 0.650299
0.463765 0.576593
0.463765 0.642629
0.346893 0.642629
0.346893 0.576593
0.725830 0.565779
0.725830 0.652462
0.705686 0.649150
0.697326 0.642060
0.463765 0.658002
0.346893 0.658002
0.346893 0.650299
0.463765 0.650299
0.725830 0.565779
0.725830 0.652462
0.705686 0.649150
0.697326 0.642060
0.346893 0.561220
0.463765 0.561220
0.463765 0.568923
0.346893 0.568923
0.697326 0.576181
0.705686 0.569091
0.697326 0.576181
0.705686 0.569091
</float_array>
          <technique_common>
            <accessor source="#brick_trim_1-UV0-array" count="28" stride="2">
              <param name="S" type="float"/>
              <param name="T" type="float"/>
            </accessor>
          </technique_common>
        </source>
        <vertices id="brick_trim_1-VERTEX">
          <input semantic="POSITION" source="#brick_trim_1-POSITION"/>
        </vertices>
        <triangles count="20" material="Material #6">
          <input semantic="VERTEX" offset="0" source="#brick_trim_1-VERTEX"/>
          <input semantic="NORMAL" offset="1" source="#brick_trim_1-Normal0"/>
          <input semantic="TEXCOORD" offset="2" set="0" source="#brick_trim_1-UV0"/>
          <p> 0 0 0 2 1 1 3 2 2 3 3 2 1 4 3 0 5 0 8 6 4 9 7 5 11 8 6 11 9 6 10 10 7 8 11 4 1 12 9 5 13 10 9 14 11 0 15 8 1 16 9 9 17 11 9 18 11 8 19 24 4 20 25 0 21 8 9 22 11 4 23 25 1 24 12 3 25 13 7 26 14 7 27 14 5 28 15 1 29 12 2 30 17 6 31 18 10 32 19 3 33 16 2 34 17 10 35 19 10 36 19 11 37 26 7 38 27 3 39 16 10 40 19 7 41 27 2 42 20 0 43 21 4 44 22 4 45 22 6 46 23 2 47 20 9 48 5 5 49 15 7 50 14 7 51 14 11 52 6 9 53 5 10 54 7 6 55 23 4 56 22 4 57 22 8 58 4 10 59 7</p>
        </triangles>
      </mesh>
    </geometry>
  </library_geometries>
  <library_visual_scenes>
    <visual_scene id="" name="">
      <node name="brick_trim_1" id="brick_trim_1" layer="walls_new" sid="brick_trim_1">
        <matrix sid="matrix">1.000000 0.000000 0.000000 0.000000 0.000000 1.000000 0.000000 0.000000 0.000000 0.000000 1.000000 0.000000 0.000000 0.000000 0.000000 1.000000</matrix>
        <instance_geometry url="#brick_trim_1-lib">
          <bind_material>
            <technique_common>
              <instance_material symbol="Material #6" target="#Material #6"/>
            </technique_common>
          </bind_material>
        </instance_geometry>
        <extra>
          <technique profile="FCOLLADA">
            <visibility>1.000000</visibility>
          </technique>
        </extra>
      </node>
      <extra>
        <technique profile="MAX3D">
          <frame_rate>30.000000</frame_rate>
        </technique>
        <technique profile="FCOLLADA">
          <start_time>0.000000</start_time>
          <end_time>2.000000</end_time>
        </technique>
      </extra>
    </visual_scene>
  </library_visual_scenes>
  <scene>
    <instance_visual_scene url="#"></instance_visual_scene>
  </scene>
</COLLADA>

