<?xml version="1.0" encoding="utf-8"?>
<COLLADA xmlns="http://www.collada.org/2005/11/COLLADASchema" version="1.4.1">
  <asset>
    <contributor>
      <author></author>
      <authoring_tool>FBX COLLADA exporter</authoring_tool>
      <comments></comments>
    </contributor>
    <created>2012-03-07T16:32:34Z</created>
    <keywords></keywords>
    <modified>2012-03-07T16:32:34Z</modified>
    <revision></revision>
    <subject></subject>
    <title></title>
    <unit meter="1.000000" name="centimeter"></unit>
    <up_axis>Z_UP</up_axis>
  </asset>
  <library_images>
    <image id="Map #16-image" name="Map #16">
      <init_from>file://D:\amnesia_raw\StaticObjects\sewers\shit.psd</init_from>
    </image>
  </library_images>
  <library_materials>
    <material id="Material #90" name="Material #90">
      <instance_effect url="#Material #90-fx"/>
    </material>
  </library_materials>
  <library_effects>
    <effect id="Material #90-fx" name="Material #90">
      <profile_COMMON>
        <technique sid="standard">
          <phong>
            <emission>
              <color sid="emission">0.000000  0.000000 0.000000 1.000000</color>
            </emission>
            <ambient>
              <color sid="ambient">0.588000  0.588000 0.588000 1.000000</color>
            </ambient>
            <diffuse>
              <texture texture="Map #16-image" texcoord="CHANNEL0">
                <extra>
                  <technique profile="MAYA">
                    <wrapU sid="wrapU0">TRUE</wrapU>
                    <wrapV sid="wrapV0">TRUE</wrapV>
                    <blend_mode>ADD</blend_mode>
                  </technique>
                </extra>
              </texture>
            </diffuse>
            <specular>
              <color sid="specular">0.000000  0.000000 0.000000 1.000000</color>
            </specular>
            <shininess>
              <float sid="shininess">2.000000</float>
            </shininess>
            <reflective>
              <color sid="reflective">0.000000  0.000000 0.000000 1.000000</color>
            </reflective>
            <reflectivity>
              <float sid="reflectivity">1.000000</float>
            </reflectivity>
            <transparent opaque="RGB_ZERO">
              <color sid="transparent">1.000000  1.000000 1.000000 1.000000</color>
            </transparent>
            <transparency>
              <float sid="transparency">0.000000</float>
            </transparency>
          </phong>
        </technique>
      </profile_COMMON>
    </effect>
  </library_effects>
  <library_geometries>
    <geometry id="Box001-lib" name="Box001Mesh">
      <mesh>
        <source id="Box001-POSITION">
          <float_array id="Box001-POSITION-array" count="204">
-2.824808 -2.000000 -2.500000
-2.000000 -2.000000 -1.494405
-2.824808 2.000000 -2.500000
-2.000000 2.000000 -1.494405
-3.380538 1.310086 -2.500000
-3.061965 0.550795 -2.500000
-3.134057 0.125095 -2.500000
-3.089978 -0.560469 -2.500000
-3.097942 -1.109022 -2.500000
-2.824808 -1.744714 -2.500000
-2.000000 -1.318399 -1.462236
-2.000000 -0.827441 -1.004450
-2.000000 -0.222788 -1.107550
-2.000000 0.414459 -1.029891
-2.000000 1.121417 -1.231591
-2.000000 1.690031 -1.147406
-2.167026 2.000000 -2.060146
-2.441962 2.000000 -2.395344
-2.441962 -2.000000 -2.395344
-2.167026 -2.000000 -2.060146
-2.441962 -1.741027 -2.435250
-2.194295 -1.275162 -1.961171
-2.648329 -1.021288 -2.007311
-2.259470 -0.912493 -1.450428
-2.602212 -0.651458 -1.938917
-2.206446 -0.137160 -1.468096
-2.263052 1.736137 -1.509745
-2.645046 1.373359 -1.981258
-2.235931 1.105579 -1.674041
-2.644808 0.552560 -2.019152
-2.265824 0.421701 -1.374355
-2.635825 0.230784 -1.964119
-3.144773 1.099408 -2.500000
-2.973566 -0.006757 -2.500000
-3.056913 -1.348737 -2.500000
-2.000000 -1.752420 -1.542600
-2.000000 -0.632436 -1.042226
-2.000000 0.659351 -1.172647
-2.522859 -1.201018 -2.279383
-2.167026 -1.730693 -2.143142
-2.590693 -0.036222 -1.930280
-2.218439 -0.634037 -1.418607
-2.235682 0.628431 -1.559470
-2.644816 1.174600 -2.017894
-3.022922 0.857143 -2.500000
-3.015598 -0.281511 -2.500000
-2.957150 -1.559115 -2.500000
-2.000000 -1.509654 -1.568011
-2.000000 -0.464492 -1.116786
-2.000000 0.874880 -1.260418
-2.462186 -1.449797 -2.420357
-2.173843 -1.465750 -2.144203
-2.567430 -0.344689 -1.912838
-2.189734 -0.395480 -1.537058
-2.227928 0.848691 -1.646579
-2.644634 0.863638 -2.046863
-3.204821 1.762964 -2.500000
-3.200346 0.328220 -2.500000
-3.103113 -0.807604 -2.500000
-2.000000 -1.110894 -1.268145
-2.000000 0.088647 -0.980408
-2.000000 1.427756 -1.144172
-2.633779 -0.802815 -1.962585
-2.263757 -1.119162 -1.720368
-2.265779 1.407736 -1.514286
-2.619130 1.621554 -2.003263
-2.261599 0.173237 -1.336540
-2.645047 0.340968 -1.981034
</float_array>
          <technique_common>
            <accessor source="#Box001-POSITION-array" count="68" stride="3">
              <param name="X" type="float"/>
              <param name="Y" type="float"/>
              <param name="Z" type="float"/>
            </accessor>
          </technique_common>
        </source>
        <source id="Box001-Normal0">
          <float_array id="Box001-Normal0-array" count="864">
-0.841779 -0.234917 0.486027
-0.840893 -0.114610 0.528927
-0.796306 -0.072422 0.600543
-0.796306 -0.072422 0.600543
-0.793735 -0.054702 0.605800
-0.841779 -0.234917 0.486027
-0.533419 0.148151 0.832775
-0.894392 0.127717 0.428662
-0.863455 0.047156 0.502218
-0.863455 0.047156 0.502218
-0.479494 0.010333 0.877484
-0.533419 0.148151 0.832775
-0.728421 -0.587050 0.353236
-0.688660 -0.605466 0.398946
-0.625444 -0.465638 0.626100
-0.625444 -0.465638 0.626100
-0.433393 -0.673854 0.598408
-0.728421 -0.587050 0.353236
-0.752098 -0.056306 0.656642
-0.809306 -0.276136 0.518432
-0.811456 0.192090 0.551943
-0.811456 0.192090 0.551943
-0.785700 0.062387 0.615454
-0.752098 -0.056306 0.656642
-0.602996 0.728944 0.324095
-0.418106 0.707285 0.570031
-0.646156 0.444844 0.620158
-0.646156 0.444844 0.620158
-0.779644 0.394356 0.486456
-0.602996 0.728944 0.324095
-0.669320 -0.019993 0.742705
-0.643344 -0.124178 0.755439
-0.768727 -0.139424 0.624195
-0.768727 -0.139424 0.624195
-0.805281 -0.151100 0.573317
-0.669320 -0.019993 0.742705
-0.782827 0.336736 0.523250
-0.737410 0.111377 0.666199
-0.752480 0.104877 0.650211
-0.752480 0.104877 0.650211
-0.808848 0.277689 0.518318
-0.782827 0.336736 0.523250
-0.856840 -0.141891 0.495673
-0.810898 -0.078396 0.579913
-0.840893 -0.114610 0.528927
-0.840893 -0.114610 0.528927
-0.841779 -0.234917 0.486027
-0.856840 -0.141891 0.495673
-0.796306 -0.072422 0.600543
-0.632438 -0.395533 0.666015
-0.718176 -0.278438 0.637726
-0.718176 -0.278438 0.637726
-0.793735 -0.054702 0.605800
-0.796306 -0.072422 0.600543
-0.894392 0.127717 0.428662
-0.957622 0.055036 0.282722
-0.958600 0.041530 0.281711
-0.958600 0.041530 0.281711
-0.863455 0.047156 0.502218
-0.894392 0.127717 0.428662
-0.479494 0.010333 0.877484
-0.165737 -0.068000 0.983823
-0.203009 0.055690 0.977592
-0.203009 0.055690 0.977592
-0.533419 0.148151 0.832775
-0.479494 0.010333 0.877484
-0.833547 -0.394310 0.386935
-0.737247 -0.477876 0.477599
-0.688660 -0.605466 0.398946
-0.688660 -0.605466 0.398946
-0.728421 -0.587050 0.353236
-0.833547 -0.394310 0.386935
-0.569246 -0.187753 0.800442
-0.270921 -0.143827 0.951796
-0.433393 -0.673854 0.598408
-0.433393 -0.673854 0.598408
-0.625444 -0.465638 0.626100
-0.569246 -0.187753 0.800442
-0.809306 -0.276136 0.518432
-0.851513 -0.100591 0.514593
-0.867005 0.152290 0.474458
-0.867005 0.152290 0.474458
-0.811456 0.192090 0.551943
-0.809306 -0.276136 0.518432
-0.740549 0.118818 0.661414
-0.746957 0.006040 0.664845
-0.752098 -0.056306 0.656642
-0.752098 -0.056306 0.656642
-0.785700 0.062387 0.615454
-0.740549 0.118818 0.661414
-0.418106 0.707285 0.570031
-0.242877 0.389377 0.888480
-0.495080 0.392606 0.775084
-0.495080 0.392606 0.775084
-0.646156 0.444844 0.620158
-0.418106 0.707285 0.570031
-0.779644 0.394356 0.486456
-0.778623 0.208584 0.591809
-0.672017 0.649245 0.356194
-0.672017 0.649245 0.356194
-0.602996 0.728944 0.324095
-0.779644 0.394356 0.486456
-0.598612 -0.104679 0.794169
-0.605561 -0.463660 0.646773
-0.643344 -0.124178 0.755439
-0.643344 -0.124178 0.755439
-0.669320 -0.019993 0.742705
-0.598612 -0.104679 0.794169
-0.846721 -0.152473 0.509721
-0.807053 -0.072461 0.586015
-0.805281 -0.151100 0.573317
-0.805281 -0.151100 0.573317
-0.768727 -0.139424 0.624195
-0.846721 -0.152473 0.509721
-0.737410 0.111377 0.666199
-0.724300 0.286132 0.627311
-0.719690 0.060967 0.691614
-0.719690 0.060967 0.691614
-0.752480 0.104877 0.650211
-0.737410 0.111377 0.666199
-0.808848 0.277689 0.518318
-0.774909 0.192505 0.602045
-0.794253 0.318715 0.517284
-0.794253 0.318715 0.517284
-0.782827 0.336736 0.523250
-0.808848 0.277689 0.518318
-0.441062 -0.281205 0.852284
-0.433393 -0.673854 0.598408
-0.270921 -0.143827 0.951796
-0.270921 -0.143827 0.951796
-0.148493 -0.077086 0.985904
-0.441062 -0.281205 0.852284
-0.772288 0.040728 0.633966
-0.793735 -0.054702 0.605800
-0.718176 -0.278438 0.637726
-0.718176 -0.278438 0.637726
-0.763088 0.138320 0.631319
-0.772288 0.040728 0.633966
-0.764107 0.147522 0.627995
-0.782827 0.336736 0.523250
-0.794253 0.318715 0.517284
-0.794253 0.318715 0.517284
-0.868079 0.088237 0.488522
-0.764107 0.147522 0.627995
-0.820383 -0.252795 0.512901
-0.728421 -0.587050 0.353236
-0.433393 -0.673854 0.598408
-0.433393 -0.673854 0.598408
-0.441062 -0.281205 0.852284
-0.820383 -0.252795 0.512901
-0.944927 -0.105182 0.309918
-0.833547 -0.394310 0.386935
-0.728421 -0.587050 0.353236
-0.728421 -0.587050 0.353236
-0.820383 -0.252795 0.512901
-0.944927 -0.105182 0.309918
-0.805286 0.103637 0.583759
-0.841779 -0.234917 0.486027
-0.793735 -0.054702 0.605800
-0.793735 -0.054702 0.605800
-0.772288 0.040728 0.633966
-0.805286 0.103637 0.583759
-0.892141 0.083923 0.443893
-0.856840 -0.141891 0.495673
-0.841779 -0.234917 0.486027
-0.841779 -0.234917 0.486027
-0.805286 0.103637 0.583759
-0.892141 0.083923 0.443893
-0.727219 -0.009776 0.686336
-0.737410 0.111377 0.666199
-0.782827 0.336736 0.523250
-0.782827 0.336736 0.523250
-0.764107 0.147522 0.627995
-0.727219 -0.009776 0.686336
-0.753143 -0.152950 0.639829
-0.724300 0.286132 0.627311
-0.737410 0.111377 0.666199
-0.737410 0.111377 0.666199
-0.727219 -0.009776 0.686336
-0.753143 -0.152950 0.639829
-0.479494 0.010333 0.877484
-0.441062 -0.281205 0.852284
-0.148493 -0.077086 0.985904
-0.148493 -0.077086 0.985904
-0.165737 -0.068000 0.983823
-0.479494 0.010333 0.877484
-0.785700 0.062387 0.615454
-0.772288 0.040728 0.633966
-0.763088 0.138320 0.631319
-0.763088 0.138320 0.631319
-0.740549 0.118818 0.661414
-0.785700 0.062387 0.615454
-0.768727 -0.139424 0.624195
-0.764107 0.147522 0.627995
-0.868079 0.088237 0.488522
-0.868079 0.088237 0.488522
-0.846721 -0.152473 0.509721
-0.768727 -0.139424 0.624195
-0.863455 0.047156 0.502218
-0.820383 -0.252795 0.512901
-0.441062 -0.281205 0.852284
-0.441062 -0.281205 0.852284
-0.479494 0.010333 0.877484
-0.863455 0.047156 0.502218
-0.958600 0.041530 0.281711
-0.944927 -0.105182 0.309918
-0.820383 -0.252795 0.512901
-0.820383 -0.252795 0.512901
-0.863455 0.047156 0.502218
-0.958600 0.041530 0.281711
-0.811456 0.192090 0.551943
-0.805286 0.103637 0.583759
-0.772288 0.040728 0.633966
-0.772288 0.040728 0.633966
-0.785700 0.062387 0.615454
-0.811456 0.192090 0.551943
-0.867005 0.152290 0.474458
-0.892141 0.083923 0.443893
-0.805286 0.103637 0.583759
-0.805286 0.103637 0.583759
-0.811456 0.192090 0.551943
-0.867005 0.152290 0.474458
-0.643344 -0.124178 0.755439
-0.727219 -0.009776 0.686336
-0.764107 0.147522 0.627995
-0.764107 0.147522 0.627995
-0.768727 -0.139424 0.624195
-0.643344 -0.124178 0.755439
-0.605561 -0.463660 0.646773
-0.753143 -0.152950 0.639829
-0.727219 -0.009776 0.686336
-0.727219 -0.009776 0.686336
-0.643344 -0.124178 0.755439
-0.605561 -0.463660 0.646773
-0.746957 0.006040 0.664845
-0.569246 -0.187753 0.800442
-0.625444 -0.465638 0.626100
-0.625444 -0.465638 0.626100
-0.752098 -0.056306 0.656642
-0.746957 0.006040 0.664845
-0.807053 -0.072461 0.586015
-0.778623 0.208584 0.591809
-0.779644 0.394356 0.486456
-0.779644 0.394356 0.486456
-0.805281 -0.151100 0.573317
-0.807053 -0.072461 0.586015
-0.810898 -0.078396 0.579913
-0.774909 0.192505 0.602045
-0.808848 0.277689 0.518318
-0.808848 0.277689 0.518318
-0.840893 -0.114610 0.528927
-0.810898 -0.078396 0.579913
-0.752098 -0.056306 0.656642
-0.625444 -0.465638 0.626100
-0.688660 -0.605466 0.398946
-0.688660 -0.605466 0.398946
-0.809306 -0.276136 0.518432
-0.752098 -0.056306 0.656642
-0.809306 -0.276136 0.518432
-0.688660 -0.605466 0.398946
-0.737247 -0.477876 0.477599
-0.737247 -0.477876 0.477599
-0.851513 -0.100591 0.514593
-0.809306 -0.276136 0.518432
-0.805281 -0.151100 0.573317
-0.779644 0.394356 0.486456
-0.646156 0.444844 0.620158
-0.646156 0.444844 0.620158
-0.669320 -0.019993 0.742705
-0.805281 -0.151100 0.573317
-0.669320 -0.019993 0.742705
-0.646156 0.444844 0.620158
-0.495080 0.392606 0.775084
-0.495080 0.392606 0.775084
-0.598612 -0.104679 0.794169
-0.669320 -0.019993 0.742705
-0.840893 -0.114610 0.528927
-0.808848 0.277689 0.518318
-0.752480 0.104877 0.650211
-0.752480 0.104877 0.650211
-0.796306 -0.072422 0.600543
-0.840893 -0.114610 0.528927
-0.796306 -0.072422 0.600543
-0.752480 0.104877 0.650211
-0.719690 0.060967 0.691614
-0.719690 0.060967 0.691614
-0.632438 -0.395533 0.666015
-0.796306 -0.072422 0.600543
</float_array>
          <technique_common>
            <accessor source="#Box001-Normal0-array" count="288" stride="3">
              <param name="X" type="float"/>
              <param name="Y" type="float"/>
              <param name="Z" type="float"/>
            </accessor>
          </technique_common>
        </source>
        <source id="Box001-UV0">
          <float_array id="Box001-UV0-array" count="136">
1.027768 0.513672
1.068958 0.792732
0.917828 0.825773
0.903239 0.486357
2.000000 0.404125
2.000000 0.607936
1.888052 0.595141
1.890321 0.410871
1.637493 0.436757
1.666839 0.644383
1.550521 0.706075
1.491410 0.481298
1.391364 0.501710
1.429040 0.800206
1.299798 0.816635
1.318001 0.516593
0.000031 0.607936
0.000031 0.404125
0.220927 0.467352
0.188235 0.756118
0.336836 0.748518
0.347030 0.466830
0.446447 0.455349
0.482660 0.700149
0.698726 0.744289
0.745466 0.461777
0.847431 0.477006
0.805848 0.807797
1.101187 0.986543
0.953967 1.031121
0.954121 0.148306
1.027359 0.196390
2.000000 0.877288
1.870416 0.882716
1.871686 0.232821
2.000000 0.226758
1.644953 0.889573
1.528292 0.949387
1.544561 0.172802
1.647041 0.167514
1.376168 1.038271
1.289922 1.019137
1.289316 0.170612
1.404479 0.169959
0.000031 0.226758
0.184006 0.104080
0.213617 0.961272
0.000031 0.877288
0.392342 0.050784
0.497227 0.136979
0.473125 0.931010
0.331143 0.961597
0.750460 0.167588
0.860883 0.125189
0.804959 1.009316
0.688352 0.954329
1.764441 0.183284
1.761780 0.414403
1.155460 0.188154
1.173564 0.530574
0.587488 0.920451
0.597135 0.713482
1.770330 0.588463
1.750698 0.861904
1.187430 0.774916
1.212749 0.987193
0.596595 0.448269
0.609747 0.176866
</float_array>
          <technique_common>
            <accessor source="#Box001-UV0-array" count="68" stride="2">
              <param name="S" type="float"/>
              <param name="T" type="float"/>
            </accessor>
          </technique_common>
        </source>
        <vertices id="Box001-VERTEX">
          <input semantic="POSITION" source="#Box001-POSITION"/>
        </vertices>
        <triangles count="96" material="Material #90">
          <input semantic="VERTEX" offset="0" source="#Box001-VERTEX"/>
          <input semantic="NORMAL" offset="1" source="#Box001-Normal0"/>
          <input semantic="TEXCOORD" offset="2" set="0" source="#Box001-UV0"/>
          <p> 25 0 1 66 1 2 31 2 3 31 3 3 40 4 0 25 5 1 18 6 4 19 7 5 39 8 6 39 9 6 20 10 7 18 11 4 21 12 9 63 13 10 22 14 11 22 15 11 38 16 8 21 17 9 62 18 12 23 19 13 41 20 14 41 21 14 24 22 15 62 23 12 16 24 16 17 25 17 65 26 18 65 27 18 26 28 19 16 29 16 27 30 21 43 31 22 28 32 23 28 33 23 64 34 20 27 35 21 42 36 24 29 37 25 67 38 26 67 39 26 30 40 27 42 41 24 12 42 28 60 43 29 66 44 2 66 45 2 25 46 1 12 47 28 31 48 3 6 49 30 33 50 31 33 51 31 40 52 0 31 53 3 19 54 5 1 55 32 35 56 33 35 57 33 39 58 6 19 59 5 20 60 7 9 61 34 0 62 35 0 63 35 18 64 4 20 65 7 10 66 36 59 67 37 63 68 10 63 69 10 21 70 9 10 71 36 8 72 38 34 73 39 38 74 8 38 75 8 22 76 11 8 77 38 23 78 13 11 79 40 36 80 41 36 81 41 41 82 14 23 83 13 7 84 42 58 85 43 62 86 12 62 87 12 24 88 15 7 89 42 17 90 17 2 91 44 56 92 45 56 93 45 65 94 18 17 95 17 26 96 19 15 97 46 3 98 47 3 99 47 16 100 16 26 101 19 4 102 48 32 103 49 43 104 22 43 105 22 27 106 21 4 107 48 14 108 50 61 109 51 64 110 20 64 111 20 28 112 23 14 113 50 29 114 25 5 115 52 57 116 53 57 117 53 67 118 26 29 119 25 30 120 27 13 121 54 37 122 55 37 123 55 42 124 24 30 125 27 50 126 57 38 127 8 34 128 39 34 129 39 46 130 56 50 131 57 52 132 59 40 133 0 33 134 31 33 135 31 45 136 58 52 137 59 54 138 61 42 139 24 37 140 55 37 141 55 49 142 60 54 143 61 51 144 62 21 145 9 38 146 8 38 147 8 50 148 57 51 149 62 47 150 63 10 151 36 21 152 9 21 153 9 51 154 62 47 155 63 53 156 64 25 157 1 40 158 0 40 159 0 52 160 59 53 161 64 48 162 65 12 163 28 25 164 1 25 165 1 53 166 64 48 167 65 55 168 66 29 169 25 42 170 24 42 171 24 54 172 61 55 173 66 44 174 67 5 175 52 29 176 25 29 177 25 55 178 66 44 179 67 20 180 7 50 181 57 46 182 56 46 183 56 9 184 34 20 185 7 24 186 15 52 187 59 45 188 58 45 189 58 7 190 42 24 191 15 28 192 23 54 193 61 49 194 60 49 195 60 14 196 50 28 197 23 39 198 6 51 199 62 50 200 57 50 201 57 20 202 7 39 203 6 35 204 33 47 205 63 51 206 62 51 207 62 39 208 6 35 209 33 41 210 14 53 211 64 52 212 59 52 213 59 24 214 15 41 215 14 36 216 41 48 217 65 53 218 64 53 219 64 41 220 14 36 221 41 43 222 22 55 223 66 54 224 61 54 225 61 28 226 23 43 227 22 32 228 49 44 229 67 55 230 66 55 231 66 43 232 22 32 233 49 58 234 43 8 235 38 22 236 11 22 237 11 62 238 12 58 239 43 61 240 51 15 241 46 26 242 19 26 243 19 64 244 20 61 245 51 60 246 29 13 247 54 30 248 27 30 249 27 66 250 2 60 251 29 62 252 12 22 253 11 63 254 10 63 255 10 23 256 13 62 257 12 23 258 13 63 259 10 59 260 37 59 261 37 11 262 40 23 263 13 64 264 20 26 265 19 65 266 18 65 267 18 27 268 21 64 269 20 27 270 21 65 271 18 56 272 45 56 273 45 4 274 48 27 275 21 66 276 2 30 277 27 67 278 26 67 279 26 31 280 3 66 281 2 31 282 3 67 283 26 57 284 53 57 285 53 6 286 30 31 287 3</p>
        </triangles>
      </mesh>
    </geometry>
  </library_geometries>
  <library_visual_scenes>
    <visual_scene id="" name="">
      <node name="Box001" id="Box001" layer="floor" sid="Box001">
        <matrix sid="matrix">1.000000 0.000000 0.000000 0.000000 0.000000 1.000000 0.000000 0.000000 0.000000 0.000000 1.000000 0.000000 0.000000 0.000000 0.000000 1.000000</matrix>
        <instance_geometry url="#Box001-lib">
          <bind_material>
            <technique_common>
              <instance_material symbol="Material #90" target="#Material #90"/>
            </technique_common>
          </bind_material>
        </instance_geometry>
        <extra>
          <technique profile="FCOLLADA">
            <visibility>1.000000</visibility>
          </technique>
        </extra>
      </node>
      <extra>
        <technique profile="MAX3D">
          <frame_rate>30.000000</frame_rate>
        </technique>
        <technique profile="FCOLLADA">
          <start_time>0.000000</start_time>
          <end_time>6.000000</end_time>
        </technique>
      </extra>
    </visual_scene>
  </library_visual_scenes>
  <scene>
    <instance_visual_scene url="#"></instance_visual_scene>
  </scene>
</COLLADA>

