﻿<?xml version="1.0" encoding="utf-8"?>
<COLLADA xmlns="http://www.collada.org/2005/11/COLLADASchema" version="1.4.1">
  <asset>
    <contributor>
      <author>marc</author>
      <authoring_tool>Maya7.0 | ColladaMaya v3.05B</authoring_tool>
      <comments>ColladaMaya export options: bakeTransforms=0;exportPolygonMeshes=1;bakeLighting=0;isSampling=1;
curveConstrainSampling=0;removeStaticCurves=1;exportCameraAsLookat=0;
exportLights=1;exportCameras=1;exportJointsAndSkin=1;
exportAnimations=1;exportTriangles=1;exportInvisibleNodes=0;
exportNormals=1;exportTexCoords=1;
exportVertexColors=1;exportVertexColorsAnimation=0;exportTangents=0;
exportTexTangents=0;exportConstraints=1;exportPhysics=1;exportXRefs=0;
dereferenceXRefs=0;cameraXFov=0;cameraYFov=1</comments>
      <source_data>file:///E:/lux/work_static_objects/cellarbase/roof/arched_wooden_roof.mb</source_data>
    </contributor>
    <created>2010-05-12T14:58:41Z</created>
    <modified>2010-05-12T14:58:41Z</modified>
    <up_axis>Y_UP</up_axis>
    <hpl2scaling />
  </asset>
  <library_physics_scenes>
    <physics_scene id="MayaNativePhysicsScene">
      <technique_common>
        <gravity>0 -980 0</gravity>
        <time_step>0.083</time_step>
      </technique_common>
    </physics_scene>
  </library_physics_scenes>
  <library_images>
    <image id="file1" name="file1">
      <init_from>file:///E:/lux/redist/static_objects/cellarbase/cellarbase_wood_beams.dds</init_from>
      <extra>
        <technique profile="MAYA">
          <dgnode_type>kFile</dgnode_type>
          <image_sequence>0</image_sequence>
        </technique>
      </extra>
    </image>
    <image id="cave_in_file3" name="cave_in_file3">
      <init_from>file:///E:/lux/redist/static_objects/cellarbase/floor/cellarbase_floor_alt.dds</init_from>
      <extra>
        <technique profile="MAYA">
          <dgnode_type>kFile</dgnode_type>
          <image_sequence>0</image_sequence>
        </technique>
      </extra>
    </image>
    <image id="cave_in_cave_in_file1" name="cave_in_cave_in_file1">
      <init_from>file:///E:/lux/redist/entities/special/cave_in/cave_in.dds</init_from>
      <extra>
        <technique profile="MAYA">
          <dgnode_type>kFile</dgnode_type>
          <image_sequence>0</image_sequence>
        </technique>
      </extra>
    </image>
    <image id="file2" name="file2">
      <init_from>file:///E:/lux/redist/static_objects/cellarbase/floor/cellarbase_wood_floor.dds</init_from>
      <extra>
        <technique profile="MAYA">
          <dgnode_type>kFile</dgnode_type>
          <image_sequence>0</image_sequence>
        </technique>
      </extra>
    </image>
    <image id="file3" name="file3">
      <init_from>file:///E:/lux/redist/entities/door/cellar_wood01/cellar_wood01.dds</init_from>
      <extra>
        <technique profile="MAYA">
          <dgnode_type>kFile</dgnode_type>
          <image_sequence>0</image_sequence>
        </technique>
      </extra>
    </image>
  </library_images>
  <library_materials>
    <material id="lambert2" name="lambert2">
      <instance_effect url="#lambert2-fx" />
    </material>
    <material id="cave_in_lambert4" name="cave_in_lambert4">
      <instance_effect url="#cave_in_lambert4-fx" />
    </material>
    <material id="cave_in_cave_in_lambert2" name="cave_in_cave_in_lambert2">
      <instance_effect url="#cave_in_cave_in_lambert2-fx" />
    </material>
    <material id="lambert3" name="lambert3">
      <instance_effect url="#lambert3-fx" />
    </material>
    <material id="lambert4" name="lambert4">
      <instance_effect url="#lambert4-fx" />
    </material>
    <material id="lambert1" name="lambert1">
      <instance_effect url="#lambert1-fx" />
    </material>
  </library_materials>
  <library_effects>
    <effect id="lambert2-fx">
      <profile_COMMON>
        <newparam sid="file1-surface">
          <surface type="2D">
            <init_from>file1</init_from>
            <format>A8R8G8B8</format>
          </surface>
        </newparam>
        <newparam sid="file1-sampler">
          <sampler2D>
            <source>file1-surface</source>
            <wrap_s>WRAP</wrap_s>
            <wrap_t>WRAP</wrap_t>
            <minfilter>NONE</minfilter>
            <magfilter>NONE</magfilter>
            <mipfilter>NONE</mipfilter>
          </sampler2D>
        </newparam>
        <technique sid="common">
          <lambert>
            <emission>
              <color>0 0 0 1</color>
            </emission>
            <ambient>
              <color>0 0 0 1</color>
            </ambient>
            <diffuse>
              <texture texture="file1-sampler" texcoord="TEX0">
                <extra>
                  <technique profile="MAYA">
                    <wrapU>1</wrapU>
                    <wrapV>1</wrapV>
                    <mirrorU>0</mirrorU>
                    <mirrorV>0</mirrorV>
                    <coverageU>1</coverageU>
                    <coverageV>1</coverageV>
                    <translateFrameU>0</translateFrameU>
                    <translateFrameV>0</translateFrameV>
                    <rotateFrame>0</rotateFrame>
                    <stagger>0</stagger>
                    <fast>0</fast>
                    <repeatU>1</repeatU>
                    <repeatV>1</repeatV>
                    <offsetU>0</offsetU>
                    <offsetV>0</offsetV>
                    <rotateUV>0</rotateUV>
                    <noiseU>0</noiseU>
                    <noiseV>0</noiseV>
                    <blend_mode>NONE</blend_mode>
                  </technique>
                </extra>
              </texture>
            </diffuse>
            <transparent opaque="RGB_ZERO">
              <color>0 0 0 1</color>
            </transparent>
            <transparency>
              <float>1</float>
            </transparency>
          </lambert>
          <extra>
            <technique profile="FCOLLADA" />
          </extra>
        </technique>
      </profile_COMMON>
    </effect>
    <effect id="cave_in_lambert4-fx">
      <profile_COMMON>
        <newparam sid="cave_in_file3-surface">
          <surface type="2D">
            <init_from>cave_in_file3</init_from>
            <format>A8R8G8B8</format>
          </surface>
        </newparam>
        <newparam sid="cave_in_file3-sampler">
          <sampler2D>
            <source>cave_in_file3-surface</source>
            <wrap_s>WRAP</wrap_s>
            <wrap_t>WRAP</wrap_t>
            <minfilter>NONE</minfilter>
            <magfilter>NONE</magfilter>
            <mipfilter>NONE</mipfilter>
          </sampler2D>
        </newparam>
        <technique sid="common">
          <lambert>
            <emission>
              <color>0 0 0 1</color>
            </emission>
            <ambient>
              <color>0 0 0 1</color>
            </ambient>
            <diffuse>
              <texture texture="cave_in_file3-sampler" texcoord="TEX0">
                <extra>
                  <technique profile="MAYA">
                    <wrapU>1</wrapU>
                    <wrapV>1</wrapV>
                    <mirrorU>0</mirrorU>
                    <mirrorV>0</mirrorV>
                    <coverageU>1</coverageU>
                    <coverageV>1</coverageV>
                    <translateFrameU>0</translateFrameU>
                    <translateFrameV>0</translateFrameV>
                    <rotateFrame>0</rotateFrame>
                    <stagger>0</stagger>
                    <fast>0</fast>
                    <repeatU>1</repeatU>
                    <repeatV>1</repeatV>
                    <offsetU>0</offsetU>
                    <offsetV>0</offsetV>
                    <rotateUV>0</rotateUV>
                    <noiseU>0</noiseU>
                    <noiseV>0</noiseV>
                    <blend_mode>NONE</blend_mode>
                  </technique>
                </extra>
              </texture>
            </diffuse>
            <transparent opaque="RGB_ZERO">
              <color>0 0 0 1</color>
            </transparent>
            <transparency>
              <float>1</float>
            </transparency>
          </lambert>
          <extra>
            <technique profile="FCOLLADA" />
          </extra>
        </technique>
      </profile_COMMON>
    </effect>
    <effect id="cave_in_cave_in_lambert2-fx">
      <profile_COMMON>
        <newparam sid="cave_in_cave_in_file1-surface">
          <surface type="2D">
            <init_from>cave_in_cave_in_file1</init_from>
            <format>A8R8G8B8</format>
          </surface>
        </newparam>
        <newparam sid="cave_in_cave_in_file1-sampler">
          <sampler2D>
            <source>cave_in_cave_in_file1-surface</source>
            <wrap_s>WRAP</wrap_s>
            <wrap_t>WRAP</wrap_t>
            <minfilter>NONE</minfilter>
            <magfilter>NONE</magfilter>
            <mipfilter>NONE</mipfilter>
          </sampler2D>
        </newparam>
        <technique sid="common">
          <lambert>
            <emission>
              <color>0 0 0 1</color>
            </emission>
            <ambient>
              <color>0 0 0 1</color>
            </ambient>
            <diffuse>
              <texture texture="cave_in_cave_in_file1-sampler" texcoord="TEX0">
                <extra>
                  <technique profile="MAYA">
                    <wrapU>1</wrapU>
                    <wrapV>1</wrapV>
                    <mirrorU>0</mirrorU>
                    <mirrorV>0</mirrorV>
                    <coverageU>1</coverageU>
                    <coverageV>1</coverageV>
                    <translateFrameU>0</translateFrameU>
                    <translateFrameV>0</translateFrameV>
                    <rotateFrame>0</rotateFrame>
                    <stagger>0</stagger>
                    <fast>0</fast>
                    <repeatU>1</repeatU>
                    <repeatV>1</repeatV>
                    <offsetU>0</offsetU>
                    <offsetV>0</offsetV>
                    <rotateUV>0</rotateUV>
                    <noiseU>0</noiseU>
                    <noiseV>0</noiseV>
                    <blend_mode>NONE</blend_mode>
                  </technique>
                </extra>
              </texture>
            </diffuse>
            <transparent opaque="RGB_ZERO">
              <color>0 0 0 1</color>
            </transparent>
            <transparency>
              <float>1</float>
            </transparency>
          </lambert>
          <extra>
            <technique profile="FCOLLADA" />
          </extra>
        </technique>
      </profile_COMMON>
    </effect>
    <effect id="lambert3-fx">
      <profile_COMMON>
        <newparam sid="file2-surface">
          <surface type="2D">
            <init_from>file2</init_from>
            <format>A8R8G8B8</format>
          </surface>
        </newparam>
        <newparam sid="file2-sampler">
          <sampler2D>
            <source>file2-surface</source>
            <wrap_s>WRAP</wrap_s>
            <wrap_t>WRAP</wrap_t>
            <minfilter>NONE</minfilter>
            <magfilter>NONE</magfilter>
            <mipfilter>NONE</mipfilter>
          </sampler2D>
        </newparam>
        <technique sid="common">
          <lambert>
            <emission>
              <color>0 0 0 1</color>
            </emission>
            <ambient>
              <color>0 0 0 1</color>
            </ambient>
            <diffuse>
              <texture texture="file2-sampler" texcoord="TEX0">
                <extra>
                  <technique profile="MAYA">
                    <wrapU>1</wrapU>
                    <wrapV>1</wrapV>
                    <mirrorU>0</mirrorU>
                    <mirrorV>0</mirrorV>
                    <coverageU>1</coverageU>
                    <coverageV>1</coverageV>
                    <translateFrameU>0</translateFrameU>
                    <translateFrameV>0</translateFrameV>
                    <rotateFrame>0</rotateFrame>
                    <stagger>0</stagger>
                    <fast>0</fast>
                    <repeatU>1</repeatU>
                    <repeatV>1</repeatV>
                    <offsetU>0</offsetU>
                    <offsetV>0</offsetV>
                    <rotateUV>0</rotateUV>
                    <noiseU>0</noiseU>
                    <noiseV>0</noiseV>
                    <blend_mode>NONE</blend_mode>
                  </technique>
                </extra>
              </texture>
            </diffuse>
            <transparent opaque="RGB_ZERO">
              <color>0 0 0 1</color>
            </transparent>
            <transparency>
              <float>1</float>
            </transparency>
          </lambert>
          <extra>
            <technique profile="FCOLLADA" />
          </extra>
        </technique>
      </profile_COMMON>
    </effect>
    <effect id="lambert4-fx">
      <profile_COMMON>
        <newparam sid="file3-surface">
          <surface type="2D">
            <init_from>file3</init_from>
            <format>A8R8G8B8</format>
          </surface>
        </newparam>
        <newparam sid="file3-sampler">
          <sampler2D>
            <source>file3-surface</source>
            <wrap_s>WRAP</wrap_s>
            <wrap_t>WRAP</wrap_t>
            <minfilter>NONE</minfilter>
            <magfilter>NONE</magfilter>
            <mipfilter>NONE</mipfilter>
          </sampler2D>
        </newparam>
        <technique sid="common">
          <lambert>
            <emission>
              <color>0 0 0 1</color>
            </emission>
            <ambient>
              <color>0 0 0 1</color>
            </ambient>
            <diffuse>
              <texture texture="file3-sampler" texcoord="TEX0">
                <extra>
                  <technique profile="MAYA">
                    <wrapU>1</wrapU>
                    <wrapV>1</wrapV>
                    <mirrorU>0</mirrorU>
                    <mirrorV>0</mirrorV>
                    <coverageU>1</coverageU>
                    <coverageV>1</coverageV>
                    <translateFrameU>0</translateFrameU>
                    <translateFrameV>0</translateFrameV>
                    <rotateFrame>0</rotateFrame>
                    <stagger>0</stagger>
                    <fast>0</fast>
                    <repeatU>1</repeatU>
                    <repeatV>1</repeatV>
                    <offsetU>0</offsetU>
                    <offsetV>0</offsetV>
                    <rotateUV>0</rotateUV>
                    <noiseU>0</noiseU>
                    <noiseV>0</noiseV>
                    <blend_mode>NONE</blend_mode>
                  </technique>
                </extra>
              </texture>
            </diffuse>
            <transparent opaque="RGB_ZERO">
              <color>0 0 0 1</color>
            </transparent>
            <transparency>
              <float>1</float>
            </transparency>
          </lambert>
          <extra>
            <technique profile="FCOLLADA" />
          </extra>
        </technique>
      </profile_COMMON>
    </effect>
    <effect id="lambert1-fx">
      <profile_COMMON>
        <technique sid="common">
          <lambert>
            <emission>
              <color>0 0 0 1</color>
            </emission>
            <ambient>
              <color>0 0 0 1</color>
            </ambient>
            <diffuse>
              <color>0.4 0.4 0.4 0.8</color>
            </diffuse>
            <transparent opaque="RGB_ZERO">
              <color>0 0 0 1</color>
            </transparent>
            <transparency>
              <float>1</float>
            </transparency>
          </lambert>
          <extra>
            <technique profile="FCOLLADA" />
          </extra>
        </technique>
      </profile_COMMON>
    </effect>
  </library_effects>
  <library_geometries>
    <geometry id="polySurfaceShape6" name="polySurfaceShape6">
      <mesh>
        <source id="polySurfaceShape6-positions" name="position">
          <float_array id="polySurfaceShape6-positions-array" count="42">-2 0 2 -2 0 -2 1 1.75 2 1 1.75 -2 -1 1.75 -2 -1 1.75 2 2 0.5 2 2 0.5 -2 -2 0.5 2 -2 0.5 -2 1 1.75 -1.00193 1 1.75 1.00091 2 1.75 -1 2 1.75 1</float_array>
          <technique_common>
            <accessor source="#polySurfaceShape6-positions-array" count="14" stride="3">
              <param name="X" type="float" />
              <param name="Y" type="float" />
              <param name="Z" type="float" />
            </accessor>
          </technique_common>
        </source>
        <source id="polySurfaceShape6-normals" name="normal">
          <float_array id="polySurfaceShape6-normals-array" count="48">0.433189 -0.901303 0 0.433189 -0.901303 0 -0.433189 -0.901303 0 -0.227948 -0.94672 0.227508 -0.227727 -0.946771 -0.227521 -0.433189 -0.901303 0 -0.780869 -0.624695 0 1 0 0 1 0 0 0.943628 -0.331007 0 0.943628 -0.331007 0 -0.780869 -0.624695 0 -0.000392 -0.901303 -0.433189 -0.000836 -0.901303 0.433188 -0.001508 -0.624694 0.780868 -0.000707 -0.624695 -0.780869</float_array>
          <technique_common>
            <accessor source="#polySurfaceShape6-normals-array" count="16" stride="3">
              <param name="X" type="float" />
              <param name="Y" type="float" />
              <param name="Z" type="float" />
            </accessor>
          </technique_common>
        </source>
        <source id="polySurfaceShape6-map1" name="map1">
          <float_array id="polySurfaceShape6-map1-array" count="36">1 -0.996536 0 -0.996536 1 0.624238 0 0.624238 0 -0.13107 1 -0.13107 1 1.37294 0 1.37294 1 -0.752997 0 -0.752997 0.249517 0.624238 0.750226 0.624238 1 -0.13107 0.749978 -0.13107 0.750347 0.624238 1 0.624238 1 1.37294 1 -0.752997</float_array>
          <technique_common>
            <accessor source="#polySurfaceShape6-map1-array" count="18" stride="2">
              <param name="S" type="float" />
              <param name="T" type="float" />
            </accessor>
          </technique_common>
        </source>
        <vertices id="polySurfaceShape6-vertices">
          <input semantic="POSITION" source="#polySurfaceShape6-positions" />
        </vertices>
        <triangles material="lambert3SG" count="14">
          <input semantic="VERTEX" source="#polySurfaceShape6-vertices" offset="0" />
          <input semantic="NORMAL" source="#polySurfaceShape6-normals" offset="1" />
          <input semantic="TEXCOORD" source="#polySurfaceShape6-map1" offset="2" set="0" />
          <p>3 2 3 10 3 10 4 1 4 4 1 4 10 3 10 5 0 5 10 3 10 11 4 11 5 0 5 5 0 5 11 4 11 2 5 2 10 3 10 3 2 3 7 6 7 0 7 0 1 8 1 8 10 8 1 8 1 9 9 9 8 10 8 8 10 8 9 9 9 5 0 5 9 9 9 4 1 4 5 0 5 2 5 2 11 4 11 6 11 6 11 4 13 10 3 14 13 12 12 13 12 12 10 3 14 12 13 15 12 13 15 10 3 14 7 14 16 6 15 17 11 4 13 13 12 12</p>
        </triangles>
        <polylist material="initialShadingGroup" count="0">
          <input semantic="VERTEX" source="#polySurfaceShape6-vertices" offset="0" />
          <input semantic="NORMAL" source="#polySurfaceShape6-normals" offset="1" />
          <input semantic="TEXCOORD" source="#polySurfaceShape6-map1" offset="2" set="0" />
          <vcount />
          <p />
        </polylist>
      </mesh>
      <extra>
        <technique profile="MAYA">
          <double_sided>1</double_sided>
        </technique>
      </extra>
    </geometry>
  </library_geometries>
  <library_visual_scenes>
    <visual_scene id="VisualSceneNode" name="arched_wooden_roof">
      <node id="pCylinder1" name="pCylinder1" type="NODE">
        <translate sid="translate">0 1.81041 0</translate>
        <rotate sid="rotateZ">0 0 1 0</rotate>
        <rotate sid="rotateY">0 1 0 0</rotate>
        <rotate sid="rotateX">1 0 0 0</rotate>
      </node>
      <node id="pPlane1" name="pPlane1" type="NODE">
        <translate sid="translate">0 0 3.25</translate>
        <rotate sid="rotateZ">0 0 1 0</rotate>
        <rotate sid="rotateY">0 1 0 0</rotate>
        <rotate sid="rotateX">1 0 0 0</rotate>
      </node>
      <node id="pPlane2" name="pPlane2" type="NODE">
        <translate sid="translate">0 0 -3</translate>
        <rotate sid="rotateZ">0 0 1 0</rotate>
        <rotate sid="rotateY">0 1 0 180</rotate>
        <rotate sid="rotateX">1 0 0 0</rotate>
      </node>
      <node id="polySurface1" name="polySurface1" type="NODE">
        <rotate sid="rotateZ">0 0 1 0</rotate>
        <rotate sid="rotateY">0 1 0 0</rotate>
        <rotate sid="rotateX">1 0 0 0</rotate>
        <node id="polySurface2" name="polySurface2" type="NODE">
          <rotate sid="rotateZ">0 0 1 0</rotate>
          <rotate sid="rotateY">0 1 0 0</rotate>
          <rotate sid="rotateX">1 0 0 0</rotate>
        </node>
        <node id="polySurface3" name="polySurface3" type="NODE">
          <rotate sid="rotateZ">0 0 1 0</rotate>
          <rotate sid="rotateY">0 1 0 0</rotate>
          <rotate sid="rotateX">1 0 0 0</rotate>
        </node>
      </node>
      <node id="cave_in_polySurface1" name="cave_in_polySurface1" type="NODE">
        <rotate sid="rotateZ">0 0 1 0</rotate>
        <rotate sid="rotateY">0 1 0 0</rotate>
        <rotate sid="rotateX">1 0 0 0</rotate>
      </node>
      <node id="pPlane4" name="pPlane4" type="NODE">
        <translate sid="translate">0 2.05454 5.25</translate>
        <rotate sid="rotateZ">0 0 1 0</rotate>
        <rotate sid="rotateY">0 1 0 0</rotate>
        <rotate sid="rotateX">1 0 0 0</rotate>
      </node>
      <node id="pPlane5" name="pPlane5" type="NODE">
        <translate sid="translate">0 2.05454 -4.5</translate>
        <rotate sid="rotateZ">0 0 1 0</rotate>
        <rotate sid="rotateY">0 1 0 0</rotate>
        <rotate sid="rotateX">1 0 0 0</rotate>
      </node>
      <node id="pPlane6" name="pPlane6" type="NODE">
        <translate sid="translate">0 2.05454 -8.75</translate>
        <rotate sid="rotateZ">0 0 1 0</rotate>
        <rotate sid="rotateY">0 1 0 0</rotate>
        <rotate sid="rotateX">1 0 0 0</rotate>
      </node>
      <node id="pPlane7" name="pPlane7" type="NODE">
        <translate sid="rotatePivot">0 2.05454 0</translate>
        <rotate sid="rotateZ">0 0 1 0</rotate>
        <rotate sid="rotateY">0 1 0 90</rotate>
        <rotate sid="rotateX">1 0 0 0</rotate>
        <translate sid="rotatePivotInverse">0 -2.05454 0</translate>
        <translate sid="scalePivot">0 2.05454 0</translate>
        <translate sid="scalePivotInverse">0 -2.05454 0</translate>
      </node>
      <node id="polySurface4" name="polySurface4" type="NODE">
        <rotate sid="rotateZ">0 0 1 0</rotate>
        <rotate sid="rotateY">0 1 0 0</rotate>
        <rotate sid="rotateX">1 0 0 0</rotate>
        <instance_geometry url="#polySurfaceShape6">
          <bind_material>
            <technique_common>
              <instance_material symbol="lambert3SG" target="#lambert3">
                <bind_vertex_input semantic="TEX0" input_semantic="TEXCOORD" input_set="0" />
              </instance_material>
              <instance_material symbol="initialShadingGroup" target="#lambert1" />
            </technique_common>
          </bind_material>
        </instance_geometry>
      </node>
      <extra>
        <technique profile="FCOLLADA">
          <start_time>0.041666</start_time>
          <end_time>2</end_time>
        </technique>
      </extra>
    </visual_scene>
  </library_visual_scenes>
  <scene>
    <instance_physics_scene url="#MayaNativePhysicsScene" />
    <instance_visual_scene url="#VisualSceneNode" />
  </scene>
</COLLADA>