<?xml version="1.0" encoding="utf-8"?>
<COLLADA xmlns="http://www.collada.org/2005/11/COLLADASchema" version="1.4.1">
  <asset>
    <contributor>
      <author></author>
      <authoring_tool>FBX COLLADA exporter</authoring_tool>
      <comments></comments>
    </contributor>
    <created>2012-08-13T09:37:47Z</created>
    <keywords></keywords>
    <modified>2012-08-13T09:37:47Z</modified>
    <revision></revision>
    <subject></subject>
    <title></title>
    <unit meter="1.000000" name="centimeter"></unit>
    <up_axis>Y_UP</up_axis>
  </asset>
  <library_images>
    <image id="Map #22-image" name="Map #22">
      <init_from>file://C:\Users\WesleyTack\Desktop\amnesia_raw\StaticObjects\teslabase\dressing\tesla_dressing_cupboard_01.jpg</init_from>
    </image>
    <image id="Map #23-image" name="Map #23">
      <init_from>file://C:\Users\WesleyTack\Desktop\amnesia_raw\StaticObjects\teslabase\tesla_props_fuse_01.jpg</init_from>
    </image>
    <image id="Map #24-image" name="Map #24">
      <init_from>file://C:\Users\WesleyTack\Desktop\amnesia_raw\StaticObjects\teslabase\tesla_glass_01.psd</init_from>
    </image>
  </library_images>
  <library_materials>
    <material id="_06 - Default" name="_06 - Default">
      <instance_effect url="#_06 - Default-fx"/>
    </material>
    <material id="_08 - Default" name="_08 - Default">
      <instance_effect url="#_08 - Default-fx"/>
    </material>
    <material id="_09 - Default" name="_09 - Default">
      <instance_effect url="#_09 - Default-fx"/>
    </material>
  </library_materials>
  <library_effects>
    <effect id="_06 - Default-fx" name="_06 - Default">
      <profile_COMMON>
        <technique sid="standard">
          <phong>
            <emission>
              <color sid="emission">0.000000  0.000000 0.000000 1.000000</color>
            </emission>
            <ambient>
              <color sid="ambient">0.588235  0.588235 0.588235 1.000000</color>
            </ambient>
            <diffuse>
              <texture texture="Map #22-image" texcoord="CHANNEL0">
                <extra>
                  <technique profile="MAYA">
                    <wrapU sid="wrapU0">TRUE</wrapU>
                    <wrapV sid="wrapV0">TRUE</wrapV>
                    <blend_mode>ADD</blend_mode>
                  </technique>
                </extra>
              </texture>
              <texture texture="Map #22-image" texcoord="CHANNEL0">
                <extra>
                  <technique profile="MAYA">
                    <wrapU sid="wrapU0">TRUE</wrapU>
                    <wrapV sid="wrapV0">TRUE</wrapV>
                    <blend_mode>ADD</blend_mode>
                  </technique>
                </extra>
              </texture>
              <texture texture="Map #22-image" texcoord="CHANNEL0">
                <extra>
                  <technique profile="MAYA">
                    <wrapU sid="wrapU0">TRUE</wrapU>
                    <wrapV sid="wrapV0">TRUE</wrapV>
                    <blend_mode>ADD</blend_mode>
                  </technique>
                </extra>
              </texture>
              <texture texture="Map #22-image" texcoord="CHANNEL0">
                <extra>
                  <technique profile="MAYA">
                    <wrapU sid="wrapU0">TRUE</wrapU>
                    <wrapV sid="wrapV0">TRUE</wrapV>
                    <blend_mode>ADD</blend_mode>
                  </technique>
                </extra>
              </texture>
            </diffuse>
            <specular>
              <color sid="specular">0.000000  0.000000 0.000000 1.000000</color>
            </specular>
            <shininess>
              <float sid="shininess">2.000000</float>
            </shininess>
            <reflective>
              <color sid="reflective">0.000000  0.000000 0.000000 1.000000</color>
            </reflective>
            <reflectivity>
              <float sid="reflectivity">1.000000</float>
            </reflectivity>
            <transparent opaque="RGB_ZERO">
              <color sid="transparent">1.000000  1.000000 1.000000 1.000000</color>
            </transparent>
            <transparency>
              <float sid="transparency">0.000000</float>
            </transparency>
          </phong>
        </technique>
      </profile_COMMON>
    </effect>
    <effect id="_08 - Default-fx" name="_08 - Default">
      <profile_COMMON>
        <technique sid="standard">
          <phong>
            <emission>
              <color sid="emission">0.000000  0.000000 0.000000 1.000000</color>
            </emission>
            <ambient>
              <color sid="ambient">0.588235  0.588235 0.588235 1.000000</color>
            </ambient>
            <diffuse>
              <texture texture="Map #23-image" texcoord="CHANNEL0">
                <extra>
                  <technique profile="MAYA">
                    <wrapU sid="wrapU0">TRUE</wrapU>
                    <wrapV sid="wrapV0">TRUE</wrapV>
                    <blend_mode>ADD</blend_mode>
                  </technique>
                </extra>
              </texture>
            </diffuse>
            <specular>
              <color sid="specular">0.000000  0.000000 0.000000 1.000000</color>
            </specular>
            <shininess>
              <float sid="shininess">2.000000</float>
            </shininess>
            <reflective>
              <color sid="reflective">0.000000  0.000000 0.000000 1.000000</color>
            </reflective>
            <reflectivity>
              <float sid="reflectivity">1.000000</float>
            </reflectivity>
            <transparent opaque="RGB_ZERO">
              <color sid="transparent">1.000000  1.000000 1.000000 1.000000</color>
            </transparent>
            <transparency>
              <float sid="transparency">0.000000</float>
            </transparency>
          </phong>
        </technique>
      </profile_COMMON>
    </effect>
    <effect id="_09 - Default-fx" name="_09 - Default">
      <profile_COMMON>
        <technique sid="standard">
          <phong>
            <emission>
              <color sid="emission">0.000000  0.000000 0.000000 1.000000</color>
            </emission>
            <ambient>
              <color sid="ambient">0.588235  0.588235 0.588235 1.000000</color>
            </ambient>
            <diffuse>
              <texture texture="Map #24-image" texcoord="CHANNEL0">
                <extra>
                  <technique profile="MAYA">
                    <wrapU sid="wrapU0">TRUE</wrapU>
                    <wrapV sid="wrapV0">TRUE</wrapV>
                    <blend_mode>ADD</blend_mode>
                  </technique>
                </extra>
              </texture>
            </diffuse>
            <specular>
              <color sid="specular">0.000000  0.000000 0.000000 1.000000</color>
            </specular>
            <shininess>
              <float sid="shininess">2.000000</float>
            </shininess>
            <reflective>
              <color sid="reflective">0.000000  0.000000 0.000000 1.000000</color>
            </reflective>
            <reflectivity>
              <float sid="reflectivity">1.000000</float>
            </reflectivity>
            <transparent opaque="RGB_ZERO">
              <color sid="transparent">1.000000  1.000000 1.000000 1.000000</color>
            </transparent>
            <transparency>
              <float sid="transparency">0.000000</float>
            </transparency>
          </phong>
        </technique>
      </profile_COMMON>
    </effect>
  </library_effects>
  <library_geometries>
    <geometry id="tesla_dressing_cupboard_046-lib" name="tesla_dressing_cupboard_046Mesh">
      <mesh>
        <source id="tesla_dressing_cupboard_046-POSITION">
          <float_array id="tesla_dressing_cupboard_046-POSITION-array" count="108">
-0.052911 -0.924175 0.040455
-0.052911 -0.955942 0.040455
-0.045438 -0.924175 0.040455
-0.045438 -0.955942 0.040455
-0.045438 -0.924175 0.009086
-0.045438 -0.955942 0.009086
-0.052911 -0.924175 0.009086
-0.052911 -0.955942 0.009086
-0.045438 -0.945353 0.009086
-0.052911 -0.945353 0.009086
-0.045438 -0.934764 0.009086
-0.052911 -0.934764 0.009086
-0.045438 -0.924175 -0.004460
-0.045438 -0.934764 -0.004460
-0.052911 -0.934764 -0.004460
-0.052911 -0.924175 -0.004460
-0.045438 -0.945353 -0.004460
-0.045438 -0.955942 -0.004460
-0.052911 -0.955942 -0.004460
-0.052911 -0.945353 -0.004460
-0.041497 -0.924175 0.004958
-0.041497 -0.934764 0.004958
-0.041497 -0.934764 -0.000332
-0.041497 -0.924175 -0.000332
-0.056852 -0.924175 0.004958
-0.056852 -0.934764 0.004958
-0.056852 -0.924175 -0.000332
-0.056852 -0.934764 -0.000332
-0.041497 -0.945353 0.004958
-0.041497 -0.955942 0.004958
-0.041497 -0.955942 -0.000332
-0.041497 -0.945353 -0.000332
-0.056852 -0.945353 0.004958
-0.056852 -0.955942 0.004958
-0.056852 -0.945353 -0.000332
-0.056852 -0.955942 -0.000332
</float_array>
          <technique_common>
            <accessor source="#tesla_dressing_cupboard_046-POSITION-array" count="36" stride="3">
              <param name="X" type="float"/>
              <param name="Y" type="float"/>
              <param name="Z" type="float"/>
            </accessor>
          </technique_common>
        </source>
        <source id="tesla_dressing_cupboard_046-Normal0">
          <float_array id="tesla_dressing_cupboard_046-Normal0-array" count="612">
0.000000 0.000000 1.000000
0.000000 0.000000 1.000000
0.000000 0.000000 1.000000
0.000000 0.000000 1.000000
0.000000 0.000000 1.000000
0.000000 0.000000 1.000000
0.393246 0.000000 -0.919433
-0.393246 0.000000 -0.919433
0.393246 0.000000 -0.919433
-0.393246 0.000000 -0.919433
0.393246 0.000000 -0.919433
-0.393246 0.000000 -0.919433
0.393246 0.000000 -0.919433
0.393246 0.000000 -0.919433
-0.393246 0.000000 -0.919433
0.393246 0.000000 -0.919433
-0.393246 0.000000 -0.919433
-0.393246 0.000000 -0.919433
0.000000 0.000000 -1.000000
0.000000 0.000000 -1.000000
0.000000 0.000000 -1.000000
0.000000 0.000000 -1.000000
0.000000 0.000000 -1.000000
0.000000 0.000000 -1.000000
0.928279 0.000000 0.371884
0.928279 0.000000 0.371884
0.928279 0.000000 -0.371884
0.928279 0.000000 -0.371884
0.928279 0.000000 0.371884
0.928279 0.000000 -0.371884
0.000000 -1.000000 0.000000
0.000000 -1.000000 0.000000
0.000000 -1.000000 0.000000
0.000000 -1.000000 0.000000
0.000000 -1.000000 0.000000
0.000000 -1.000000 0.000000
-0.928164 0.000000 0.372172
-0.928164 0.000000 0.372172
-0.928164 0.000000 -0.372172
-0.928164 0.000000 -0.372172
-0.928164 0.000000 0.372172
-0.928164 0.000000 -0.372172
0.000000 1.000000 0.000000
0.000000 1.000000 0.000000
0.000000 1.000000 0.000000
0.000000 1.000000 0.000000
0.000000 1.000000 0.000000
0.000000 1.000000 0.000000
0.928279 0.000000 0.371884
0.928279 0.000000 -0.371884
0.928279 0.000000 -0.371884
0.928279 0.000000 -0.371884
0.928279 0.000000 0.371884
0.928279 0.000000 0.371884
0.000000 -1.000000 0.000000
0.000000 -1.000000 0.000000
0.000000 -1.000000 0.000000
0.000000 -1.000000 0.000000
0.000000 -1.000000 0.000000
0.000000 -1.000000 0.000000
-0.928164 0.000000 -0.372172
-0.928164 0.000000 -0.372172
-0.928164 0.000000 0.372172
-0.928164 0.000000 0.372172
-0.928164 0.000000 0.372172
-0.928164 0.000000 -0.372172
0.000000 1.000000 0.000000
0.000000 1.000000 0.000000
0.000000 1.000000 0.000000
0.000000 1.000000 0.000000
0.000000 1.000000 0.000000
0.000000 1.000000 0.000000
0.723192 0.000000 0.690648
0.723192 0.000000 0.690648
0.928279 0.000000 0.371884
0.928279 0.000000 0.371884
0.723192 0.000000 0.690648
0.928279 0.000000 0.371884
0.000000 -1.000000 0.000000
0.000000 -1.000000 0.000000
0.000000 -1.000000 0.000000
0.000000 -1.000000 0.000000
0.000000 -1.000000 0.000000
0.000000 -1.000000 0.000000
0.928279 0.000000 -0.371884
0.928279 0.000000 -0.371884
0.393246 0.000000 -0.919433
0.393246 0.000000 -0.919433
0.928279 0.000000 -0.371884
0.393246 0.000000 -0.919433
0.000000 1.000000 0.000000
0.000000 1.000000 0.000000
0.000000 1.000000 0.000000
0.000000 1.000000 0.000000
0.000000 1.000000 0.000000
0.000000 1.000000 0.000000
-0.723192 0.000000 0.690648
-0.723192 0.000000 0.690648
-0.928164 0.000000 0.372172
-0.928164 0.000000 0.372172
-0.723192 0.000000 0.690648
-0.928164 0.000000 0.372172
0.000000 1.000000 0.000000
0.000000 1.000000 0.000000
0.000000 1.000000 0.000000
0.000000 1.000000 0.000000
0.000000 1.000000 0.000000
0.000000 1.000000 0.000000
-0.928164 0.000000 -0.372172
-0.928164 0.000000 -0.372172
-0.393246 0.000000 -0.919433
-0.393246 0.000000 -0.919433
-0.928164 0.000000 -0.372172
-0.393246 0.000000 -0.919433
0.000000 -1.000000 0.000000
0.000000 -1.000000 0.000000
0.000000 -1.000000 0.000000
0.000000 -1.000000 0.000000
0.000000 -1.000000 0.000000
0.000000 -1.000000 0.000000
0.723192 0.000000 0.690648
0.928279 0.000000 0.371884
0.928279 0.000000 0.371884
0.928279 0.000000 0.371884
0.723192 0.000000 0.690648
0.723192 0.000000 0.690648
0.000000 -1.000000 0.000000
0.000000 -1.000000 0.000000
0.000000 -1.000000 0.000000
0.000000 -1.000000 0.000000
0.000000 -1.000000 0.000000
0.000000 -1.000000 0.000000
0.928279 0.000000 -0.371884
0.393246 0.000000 -0.919433
0.393246 0.000000 -0.919433
0.393246 0.000000 -0.919433
0.928279 0.000000 -0.371884
0.928279 0.000000 -0.371884
0.000000 1.000000 0.000000
0.000000 1.000000 0.000000
0.000000 1.000000 0.000000
0.000000 1.000000 0.000000
0.000000 1.000000 0.000000
0.000000 1.000000 0.000000
-0.723192 0.000000 0.690648
-0.723192 0.000000 0.690648
-0.928164 0.000000 0.372172
-0.928164 0.000000 0.372172
-0.723192 0.000000 0.690648
-0.928164 0.000000 0.372172
0.000000 1.000000 0.000000
0.000000 1.000000 0.000000
0.000000 1.000000 0.000000
0.000000 1.000000 0.000000
0.000000 1.000000 0.000000
0.000000 1.000000 0.000000
-0.393246 0.000000 -0.919433
-0.393246 0.000000 -0.919433
-0.928164 0.000000 -0.372172
-0.928164 0.000000 -0.372172
-0.928164 0.000000 -0.372172
-0.393246 0.000000 -0.919433
0.000000 -1.000000 0.000000
0.000000 -1.000000 0.000000
0.000000 -1.000000 0.000000
0.000000 -1.000000 0.000000
0.000000 -1.000000 0.000000
0.000000 -1.000000 0.000000
1.000000 0.000000 0.000000
1.000000 0.000000 0.000000
1.000000 0.000000 0.000000
0.000000 1.000000 0.000000
0.000000 1.000000 0.000000
0.000000 1.000000 0.000000
0.000000 1.000000 0.000000
0.000000 1.000000 0.000000
0.000000 1.000000 0.000000
0.000000 -1.000000 0.000000
0.000000 -1.000000 0.000000
0.000000 -1.000000 0.000000
0.000000 -1.000000 0.000000
0.000000 -1.000000 0.000000
0.000000 -1.000000 0.000000
-1.000000 0.000000 0.000000
-1.000000 0.000000 0.000000
-1.000000 0.000000 0.000000
-1.000000 0.000000 0.000000
-1.000000 0.000000 0.000000
-1.000000 0.000000 0.000000
-1.000000 0.000000 0.000000
-1.000000 0.000000 0.000000
-1.000000 0.000000 0.000000
-1.000000 0.000000 0.000000
-1.000000 0.000000 0.000000
-1.000000 0.000000 0.000000
1.000000 0.000000 0.000000
1.000000 0.000000 0.000000
1.000000 0.000000 0.000000
1.000000 0.000000 0.000000
1.000000 0.000000 0.000000
1.000000 0.000000 0.000000
1.000000 0.000000 0.000000
1.000000 0.000000 0.000000
1.000000 0.000000 0.000000
</float_array>
          <technique_common>
            <accessor source="#tesla_dressing_cupboard_046-Normal0-array" count="204" stride="3">
              <param name="X" type="float"/>
              <param name="Y" type="float"/>
              <param name="Z" type="float"/>
            </accessor>
          </technique_common>
        </source>
        <source id="tesla_dressing_cupboard_046-UV0">
          <float_array id="tesla_dressing_cupboard_046-UV0-array" count="156">
0.175904 0.682759
0.103637 0.682759
0.103637 0.669237
0.175904 0.669237
0.103637 0.588306
0.103637 0.574784
0.127726 0.574784
0.127726 0.588306
0.175904 0.588307
0.151815 0.588306
0.151815 0.574784
0.175904 0.574785
0.066524 0.594489
0.066524 0.580966
0.090613 0.580966
0.090613 0.594489
0.103637 0.567654
0.103637 0.558081
0.127726 0.558081
0.127726 0.567654
0.090448 0.733562
0.090448 0.748436
0.063489 0.748436
0.063489 0.733562
0.103637 0.605009
0.103637 0.595437
0.127726 0.595437
0.127726 0.605009
0.085399 0.519700
0.071877 0.519700
0.071877 0.495191
0.085399 0.495191
0.175904 0.567654
0.151815 0.567654
0.151815 0.558082
0.175904 0.558082
0.071910 0.656100
0.085432 0.656100
0.085432 0.680609
0.071910 0.680609
0.175904 0.605009
0.151815 0.605009
0.151815 0.595437
0.175904 0.595437
0.063330 0.711682
0.063330 0.696340
0.091138 0.696340
0.091138 0.711682
0.103637 0.550613
0.127726 0.550613
0.071704 0.725720
0.082233 0.725720
0.064747 0.512232
0.064747 0.502659
0.103637 0.612478
0.127726 0.612478
0.092530 0.502659
0.092530 0.512232
0.082233 0.756279
0.071704 0.756279
0.151815 0.550613
0.175904 0.550613
0.064779 0.673141
0.064779 0.663568
0.071803 0.688250
0.082664 0.688250
0.151815 0.612478
0.175904 0.612478
0.082664 0.719772
0.071803 0.719772
0.092562 0.663568
0.092562 0.673141
0.175905 0.493854
0.085399 0.576460
0.071877 0.576460
0.071910 0.599340
0.085432 0.599340
0.103637 0.493853
</float_array>
          <technique_common>
            <accessor source="#tesla_dressing_cupboard_046-UV0-array" count="78" stride="2">
              <param name="S" type="float"/>
              <param name="T" type="float"/>
            </accessor>
          </technique_common>
        </source>
        <vertices id="tesla_dressing_cupboard_046-VERTEX">
          <input semantic="POSITION" source="#tesla_dressing_cupboard_046-POSITION"/>
        </vertices>
        <triangles count="68" material="_06 - Default">
          <input semantic="VERTEX" offset="0" source="#tesla_dressing_cupboard_046-VERTEX"/>
          <input semantic="NORMAL" offset="1" source="#tesla_dressing_cupboard_046-Normal0"/>
          <input semantic="TEXCOORD" offset="2" set="0" source="#tesla_dressing_cupboard_046-UV0"/>
          <p> 3 0 0 2 1 1 0 2 2 3 3 0 0 4 2 1 5 3 13 6 6 15 7 4 12 8 5 15 9 4 13 10 6 14 11 7 16 12 10 17 13 11 18 14 8 16 15 10 18 16 8 19 17 9 8 18 14 11 19 12 10 20 13 11 21 12 8 22 14 9 23 15 20 24 17 21 25 18 23 26 16 23 27 16 21 28 18 22 29 19 11 30 21 14 31 22 10 32 20 13 33 23 10 34 20 14 35 22 25 36 27 24 37 24 27 38 26 27 39 26 24 40 24 26 41 25 12 42 30 6 43 28 4 44 29 6 45 28 12 46 30 15 47 31 28 48 34 30 49 32 31 50 33 30 51 32 28 52 34 29 53 35 7 54 37 18 55 38 5 56 36 17 57 39 5 58 36 18 59 38 34 60 42 35 61 43 33 62 40 33 63 40 32 64 41 34 65 42 16 66 46 9 67 44 8 68 45 9 69 44 16 70 46 19 71 47 4 72 48 10 73 49 20 74 17 20 75 17 10 76 49 21 77 18 10 78 20 13 79 23 22 80 50 10 81 20 22 82 50 21 83 51 23 84 16 22 85 19 12 86 5 12 87 5 22 88 19 13 89 6 12 90 30 4 91 29 20 92 52 12 93 30 20 94 52 23 95 53 11 96 55 6 97 54 25 98 27 25 99 27 6 100 54 24 101 24 26 102 56 6 103 28 15 104 31 6 105 28 26 106 56 24 107 57 27 108 26 26 109 25 14 110 7 14 111 7 26 112 25 15 113 4 25 114 58 14 115 22 11 116 21 14 117 22 25 118 58 27 119 59 8 120 60 29 121 35 28 122 34 29 123 35 8 124 60 5 125 61 5 126 36 17 127 39 30 128 62 5 129 36 30 130 62 29 131 63 31 132 33 17 133 11 16 134 10 17 135 11 31 136 33 30 137 32 16 138 46 8 139 45 28 140 64 16 141 46 28 142 64 31 143 65 7 144 67 9 145 66 33 146 40 33 147 40 9 148 66 32 149 41 34 150 68 9 151 44 19 152 47 9 153 44 34 154 68 32 155 69 19 156 9 18 157 8 35 158 43 35 159 43 34 160 42 19 161 9 33 162 70 18 163 38 7 164 37 18 165 38 33 166 70 35 167 71 8 168 60 3 169 72 5 170 61 2 171 74 4 172 29 6 173 28 2 174 74 6 175 28 0 176 73 1 177 76 7 178 37 3 179 75 5 180 36 3 181 75 7 182 37 1 183 3 11 184 55 9 185 66 11 186 55 1 187 3 0 188 2 1 189 3 9 190 66 7 191 67 6 192 54 11 193 55 0 194 2 2 195 77 3 196 72 10 197 49 10 198 49 3 199 72 8 200 60 4 201 48 2 202 77 10 203 49</p>
        </triangles>
      </mesh>
    </geometry>
    <geometry id="tesla_dressing_cdoor_048-lib" name="tesla_dressing_cdoor_048Mesh">
      <mesh>
        <source id="tesla_dressing_cdoor_048-POSITION">
          <float_array id="tesla_dressing_cdoor_048-POSITION-array" count="72">
-0.045479 -0.924091 -0.035828
-0.045480 -0.955858 -0.035828
-0.052953 -0.924091 -0.035828
-0.052952 -0.955858 -0.035828
-0.052953 -0.924091 -0.004457
-0.052952 -0.955858 -0.004457
-0.045479 -0.924091 -0.004457
-0.045480 -0.955858 -0.004457
-0.052952 -0.945269 -0.004457
-0.045480 -0.945269 -0.004457
-0.052952 -0.934680 -0.004457
-0.045480 -0.934680 -0.004457
-0.052952 -0.934680 0.009013
-0.052952 -0.945269 0.009013
-0.045480 -0.945269 0.009013
-0.045480 -0.934680 0.009013
-0.056866 -0.934680 -0.000299
-0.056866 -0.945269 -0.000299
-0.056866 -0.945269 0.004854
-0.056866 -0.934680 0.004854
-0.041566 -0.934680 -0.000299
-0.041566 -0.945269 -0.000299
-0.041566 -0.934680 0.004854
-0.041566 -0.945269 0.004854
</float_array>
          <technique_common>
            <accessor source="#tesla_dressing_cdoor_048-POSITION-array" count="24" stride="3">
              <param name="X" type="float"/>
              <param name="Y" type="float"/>
              <param name="Z" type="float"/>
            </accessor>
          </technique_common>
        </source>
        <source id="tesla_dressing_cdoor_048-Normal0">
          <float_array id="tesla_dressing_cdoor_048-Normal0-array" count="396">
0.000000 0.000000 -1.000000
0.000000 0.000000 -1.000000
0.000000 0.000000 -1.000000
0.000000 0.000000 -1.000000
0.000000 0.000000 -1.000000
0.000000 0.000000 -1.000000
-1.000000 0.000000 0.000000
-1.000000 0.000000 0.000000
-1.000000 0.000000 0.000000
-1.000000 0.000000 0.000000
-1.000000 0.000000 0.000000
-1.000000 0.000000 0.000000
-1.000000 0.000000 0.000000
-1.000000 0.000000 0.000000
-1.000000 0.000000 0.000000
-1.000000 0.000000 0.000000
-1.000000 0.000000 0.000000
-1.000000 0.000000 0.000000
0.000000 0.000000 1.000000
0.000000 0.000000 1.000000
0.000000 0.000000 1.000000
0.000000 0.000000 1.000000
0.000000 0.000000 1.000000
0.000000 0.000000 1.000000
1.000000 0.000000 0.000000
1.000000 0.000000 0.000000
1.000000 0.000000 0.000000
1.000000 0.000000 0.000000
1.000000 0.000000 0.000000
1.000000 0.000000 0.000000
1.000000 0.000000 0.000000
1.000000 0.000000 0.000000
1.000000 0.000000 0.000000
1.000000 0.000000 0.000000
1.000000 0.000000 0.000000
1.000000 0.000000 0.000000
0.000000 -1.000000 0.000000
0.000000 -1.000000 0.000000
0.000000 -1.000000 0.000000
0.000000 -1.000000 0.000000
0.000000 -1.000000 0.000000
0.000000 -1.000000 0.000000
0.000000 1.000000 0.000000
0.000000 1.000000 0.000000
0.000000 1.000000 0.000000
0.000000 1.000000 0.000000
0.000000 1.000000 0.000000
0.000000 1.000000 0.000000
0.000000 0.000000 1.000000
0.000000 0.000000 1.000000
0.000000 0.000000 1.000000
0.000000 0.000000 1.000000
0.000000 0.000000 1.000000
0.000000 0.000000 1.000000
0.000000 -1.000000 0.000000
0.000000 -1.000000 0.000000
0.000000 -1.000000 0.000000
0.000000 -1.000000 0.000000
0.000000 -1.000000 0.000000
0.000000 -1.000000 0.000000
0.000000 1.000000 0.000000
0.000000 1.000000 0.000000
0.000000 1.000000 0.000000
0.000000 1.000000 0.000000
0.000000 1.000000 0.000000
0.000000 1.000000 0.000000
0.000000 -1.000000 0.000000
0.000000 -1.000000 0.000000
0.000000 -1.000000 0.000000
0.000000 -1.000000 0.000000
0.000000 -1.000000 0.000000
0.000000 -1.000000 0.000000
0.000000 1.000000 0.000000
0.000000 1.000000 0.000000
0.000000 1.000000 0.000000
0.000000 1.000000 0.000000
0.000000 1.000000 0.000000
0.000000 1.000000 0.000000
0.000000 1.000000 0.000000
0.000000 1.000000 0.000000
0.000000 1.000000 0.000000
0.000000 1.000000 0.000000
0.000000 1.000000 0.000000
0.000000 1.000000 0.000000
0.000000 -1.000000 0.000000
0.000000 -1.000000 0.000000
0.000000 -1.000000 0.000000
0.000000 -1.000000 0.000000
0.000000 -1.000000 0.000000
0.000000 -1.000000 0.000000
-0.929211 0.000000 0.369548
-0.929211 0.000000 0.369548
-0.929532 0.000000 -0.368742
-0.929211 0.000000 0.369548
-0.929532 0.000000 -0.368742
-0.929532 0.000000 -0.368742
-0.929211 0.000000 0.369548
-0.397306 0.000000 0.917686
-0.397306 0.000000 0.917686
-0.397306 0.000000 0.917686
-0.929211 0.000000 0.369548
-0.929211 0.000000 0.369548
-0.397306 0.000000 0.917686
-0.397306 0.000000 0.917686
0.397306 0.000000 0.917686
0.397306 0.000000 0.917686
-0.397306 0.000000 0.917686
0.397306 0.000000 0.917686
0.397306 0.000000 0.917686
0.397306 0.000000 0.917686
0.929211 0.000000 0.369548
0.397306 0.000000 0.917686
0.929211 0.000000 0.369548
0.929211 0.000000 0.369548
0.929211 0.000000 0.369548
0.929211 0.000000 0.369548
1.000000 0.000000 0.000000
0.929211 0.000000 0.369548
1.000000 0.000000 0.000000
1.000000 0.000000 0.000000
0.728077 0.000000 -0.685496
0.728077 0.000000 -0.685496
0.728077 0.000000 -0.685496
0.728077 0.000000 -0.685496
0.728077 0.000000 -0.685496
0.728077 0.000000 -0.685496
-0.728077 0.000000 -0.685496
-0.929532 0.000000 -0.368742
-0.929532 0.000000 -0.368742
-0.929532 0.000000 -0.368742
-0.728077 0.000000 -0.685496
-0.728077 0.000000 -0.685496
</float_array>
          <technique_common>
            <accessor source="#tesla_dressing_cdoor_048-Normal0-array" count="132" stride="3">
              <param name="X" type="float"/>
              <param name="Y" type="float"/>
              <param name="Z" type="float"/>
            </accessor>
          </technique_common>
        </source>
        <source id="tesla_dressing_cdoor_048-UV0">
          <float_array id="tesla_dressing_cdoor_048-UV0-array" count="116">
0.165684 0.888144
0.094252 0.888144
0.094252 0.874778
0.165684 0.874778
0.094252 0.701020
0.165685 0.701020
0.165684 0.757124
0.141874 0.757124
0.118063 0.757124
0.094252 0.757124
0.096878 0.762104
0.096878 0.785915
0.083512 0.785915
0.083512 0.762104
0.094252 0.818674
0.118063 0.818674
0.141873 0.818674
0.165684 0.818674
0.113338 0.816263
0.099972 0.816263
0.099972 0.760159
0.113338 0.760159
0.148383 0.759187
0.161749 0.759187
0.161749 0.815291
0.148383 0.815291
0.097153 0.791763
0.097153 0.815574
0.083787 0.815574
0.083787 0.791763
0.163406 0.921005
0.139314 0.921005
0.139314 0.907639
0.163406 0.907639
0.119990 0.921005
0.095898 0.921005
0.095898 0.907639
0.119990 0.907639
0.155967 0.928004
0.146753 0.928004
0.112552 0.928004
0.103337 0.928004
0.103337 0.900640
0.112552 0.900640
0.146753 0.900640
0.155967 0.900640
0.141873 0.773778
0.118063 0.773778
0.118063 0.764563
0.141874 0.764563
0.141873 0.781216
0.118063 0.781216
0.118063 0.794582
0.141873 0.794582
0.141873 0.802021
0.118063 0.802021
0.141873 0.811236
0.118063 0.811236
</float_array>
          <technique_common>
            <accessor source="#tesla_dressing_cdoor_048-UV0-array" count="58" stride="2">
              <param name="S" type="float"/>
              <param name="T" type="float"/>
            </accessor>
          </technique_common>
        </source>
        <vertices id="tesla_dressing_cdoor_048-VERTEX">
          <input semantic="POSITION" source="#tesla_dressing_cdoor_048-POSITION"/>
        </vertices>
        <triangles count="44" material="_06 - Default">
          <input semantic="VERTEX" offset="0" source="#tesla_dressing_cdoor_048-VERTEX"/>
          <input semantic="NORMAL" offset="1" source="#tesla_dressing_cdoor_048-Normal0"/>
          <input semantic="TEXCOORD" offset="2" set="0" source="#tesla_dressing_cdoor_048-UV0"/>
          <p> 1 0 3 2 1 1 0 2 2 2 3 1 1 4 3 3 5 0 2 6 4 10 7 8 4 8 9 3 9 5 10 10 8 2 11 4 3 12 5 5 13 6 8 14 7 10 15 8 3 16 5 8 17 7 4 18 12 11 19 10 6 20 11 11 21 10 4 22 12 10 23 13 7 24 17 1 25 3 9 26 16 11 27 15 0 28 2 6 29 14 0 30 2 11 31 15 1 32 3 1 33 3 11 34 15 9 35 16 5 36 21 3 37 18 7 38 20 7 39 20 3 40 18 1 41 19 6 42 25 0 43 22 4 44 24 4 45 24 0 46 22 2 47 23 8 48 28 7 49 26 9 50 27 7 51 26 8 52 28 5 53 29 9 54 32 14 55 33 13 56 30 13 57 30 8 58 31 9 59 32 15 60 36 10 61 34 12 62 35 10 63 34 15 64 36 11 65 37 8 66 31 13 67 30 18 68 38 8 69 31 18 70 38 17 71 39 12 72 35 10 73 34 16 74 40 12 75 35 16 76 40 19 77 41 11 78 37 15 79 36 22 80 42 11 81 37 22 82 42 20 83 43 14 84 33 9 85 32 21 86 44 14 87 33 21 88 44 23 89 45 18 90 46 19 91 47 16 92 48 18 93 46 16 94 48 17 95 49 19 96 47 13 97 50 12 98 51 13 99 50 19 100 47 18 101 46 12 102 51 13 103 50 15 104 52 15 105 52 13 106 50 14 107 53 15 108 52 14 109 53 23 110 54 15 111 52 23 112 54 22 113 55 22 114 55 23 115 54 21 116 56 22 117 55 21 118 56 20 119 57 20 120 57 21 121 56 9 122 16 20 123 57 9 124 16 11 125 15 10 126 8 17 127 49 16 128 48 17 129 49 10 130 8 8 131 7</p>
        </triangles>
      </mesh>
    </geometry>
    <geometry id="tesla_dressing_cdoor_050-lib" name="tesla_dressing_cdoor_050Mesh">
      <mesh>
        <source id="tesla_dressing_cdoor_050-POSITION">
          <float_array id="tesla_dressing_cdoor_050-POSITION-array" count="72">
-0.045480 0.954882 -0.035828
-0.045480 0.923114 -0.035828
-0.052953 0.954882 -0.035828
-0.052953 0.923114 -0.035828
-0.052953 0.954882 -0.004457
-0.052953 0.923114 -0.004457
-0.045480 0.954882 -0.004457
-0.045480 0.923114 -0.004457
-0.052953 0.933703 -0.004457
-0.045480 0.933703 -0.004457
-0.052953 0.944292 -0.004457
-0.045480 0.944292 -0.004457
-0.052953 0.944292 0.009013
-0.052953 0.933703 0.009013
-0.045480 0.933703 0.009013
-0.045480 0.944292 0.009013
-0.056867 0.944292 -0.000299
-0.056867 0.933703 -0.000299
-0.056867 0.933703 0.004854
-0.056867 0.944292 0.004854
-0.041566 0.944292 -0.000299
-0.041566 0.933703 -0.000299
-0.041566 0.944292 0.004854
-0.041566 0.933703 0.004854
</float_array>
          <technique_common>
            <accessor source="#tesla_dressing_cdoor_050-POSITION-array" count="24" stride="3">
              <param name="X" type="float"/>
              <param name="Y" type="float"/>
              <param name="Z" type="float"/>
            </accessor>
          </technique_common>
        </source>
        <source id="tesla_dressing_cdoor_050-Normal0">
          <float_array id="tesla_dressing_cdoor_050-Normal0-array" count="396">
0.000000 0.000000 -1.000000
0.000000 0.000000 -1.000000
0.000000 0.000000 -1.000000
0.000000 0.000000 -1.000000
0.000000 0.000000 -1.000000
0.000000 0.000000 -1.000000
-1.000000 -0.000000 0.000000
-1.000000 0.000000 0.000000
-1.000000 -0.000000 0.000000
-1.000000 0.000000 0.000000
-1.000000 0.000000 0.000000
-1.000000 -0.000000 0.000000
-1.000000 0.000000 0.000000
-1.000000 0.000000 0.000000
-1.000000 0.000000 0.000000
-1.000000 0.000000 0.000000
-1.000000 0.000000 0.000000
-1.000000 0.000000 0.000000
0.000000 0.000000 1.000000
0.000000 0.000000 1.000000
0.000000 0.000000 1.000000
0.000000 0.000000 1.000000
0.000000 0.000000 1.000000
0.000000 0.000000 1.000000
1.000000 0.000001 0.000000
1.000000 0.000001 0.000000
1.000000 0.000001 0.000000
1.000000 0.000001 0.000000
1.000000 0.000000 0.000000
1.000000 0.000000 0.000000
1.000000 0.000000 0.000000
1.000000 0.000001 0.000000
1.000000 0.000001 0.000000
1.000000 0.000001 0.000000
1.000000 0.000001 0.000000
1.000000 0.000001 0.000000
0.000000 -1.000000 0.000000
0.000000 -1.000000 0.000000
0.000000 -1.000000 0.000000
0.000000 -1.000000 0.000000
0.000000 -1.000000 0.000000
0.000000 -1.000000 0.000000
0.000000 1.000000 0.000000
0.000000 1.000000 0.000000
0.000000 1.000000 0.000000
0.000000 1.000000 0.000000
0.000000 1.000000 0.000000
0.000000 1.000000 0.000000
0.000000 0.000000 1.000000
0.000000 0.000000 1.000000
0.000000 0.000000 1.000000
0.000000 0.000000 1.000000
0.000000 0.000000 1.000000
0.000000 0.000000 1.000000
0.000000 -1.000000 0.000000
0.000000 -1.000000 0.000000
0.000000 -1.000000 0.000000
0.000000 -1.000000 0.000000
0.000000 -1.000000 0.000000
0.000000 -1.000000 0.000000
0.000000 1.000000 0.000000
0.000000 1.000000 0.000000
0.000000 1.000000 0.000000
0.000000 1.000000 0.000000
0.000000 1.000000 0.000000
0.000000 1.000000 0.000000
0.000000 -1.000000 0.000000
0.000000 -1.000000 0.000000
0.000000 -1.000000 0.000000
0.000000 -1.000000 0.000000
0.000000 -1.000000 0.000000
0.000000 -1.000000 0.000000
0.000000 1.000000 0.000000
0.000000 1.000000 0.000000
0.000000 1.000000 0.000000
0.000000 1.000000 0.000000
0.000000 1.000000 0.000000
0.000000 1.000000 0.000000
0.000000 1.000000 0.000000
0.000000 1.000000 0.000000
0.000000 1.000000 0.000000
0.000000 1.000000 0.000000
0.000000 1.000000 0.000000
0.000000 1.000000 0.000000
0.000000 -1.000000 0.000000
0.000000 -1.000000 0.000000
0.000000 -1.000000 0.000000
0.000000 -1.000000 0.000000
0.000000 -1.000000 0.000000
0.000000 -1.000000 0.000000
-0.929211 -0.000001 0.369548
-0.929211 -0.000001 0.369548
-0.929532 -0.000001 -0.368742
-0.929211 -0.000001 0.369548
-0.929532 -0.000001 -0.368742
-0.929532 -0.000001 -0.368742
-0.929211 -0.000001 0.369548
-0.397306 0.000000 0.917686
-0.397306 0.000000 0.917686
-0.397306 0.000000 0.917686
-0.929211 -0.000001 0.369548
-0.929211 -0.000001 0.369548
-0.397306 0.000000 0.917686
-0.397306 0.000000 0.917686
0.397306 0.000000 0.917686
0.397306 0.000000 0.917686
-0.397306 0.000000 0.917686
0.397306 0.000000 0.917686
0.397306 0.000000 0.917686
0.397306 0.000000 0.917686
0.929211 0.000001 0.369548
0.397306 0.000000 0.917686
0.929211 0.000001 0.369548
0.929211 0.000001 0.369548
0.929211 0.000001 0.369548
0.929211 0.000001 0.369548
1.000000 0.000001 0.000000
0.929211 0.000001 0.369548
1.000000 0.000001 0.000000
1.000000 0.000001 0.000000
0.728077 0.000001 -0.685496
0.728077 0.000001 -0.685496
0.728077 0.000001 -0.685496
0.728077 0.000001 -0.685496
0.728077 0.000001 -0.685496
0.728077 0.000001 -0.685496
-0.728077 0.000000 -0.685496
-0.929532 -0.000001 -0.368742
-0.929532 -0.000001 -0.368742
-0.929532 -0.000001 -0.368742
-0.728077 0.000000 -0.685496
-0.728077 0.000000 -0.685496
</float_array>
          <technique_common>
            <accessor source="#tesla_dressing_cdoor_050-Normal0-array" count="132" stride="3">
              <param name="X" type="float"/>
              <param name="Y" type="float"/>
              <param name="Z" type="float"/>
            </accessor>
          </technique_common>
        </source>
        <source id="tesla_dressing_cdoor_050-UV0">
          <float_array id="tesla_dressing_cdoor_050-UV0-array" count="116">
0.165684 0.888144
0.094252 0.888144
0.094252 0.874778
0.165684 0.874778
0.094252 0.701020
0.165685 0.701020
0.165684 0.757124
0.141874 0.757124
0.118063 0.757124
0.094252 0.757124
0.096878 0.762104
0.096878 0.785915
0.083512 0.785915
0.083512 0.762104
0.094252 0.818674
0.118063 0.818674
0.141873 0.818674
0.165684 0.818674
0.113338 0.816263
0.099972 0.816263
0.099972 0.760159
0.113338 0.760159
0.148383 0.759187
0.161749 0.759187
0.161749 0.815291
0.148383 0.815291
0.097153 0.791763
0.097153 0.815574
0.083787 0.815574
0.083787 0.791763
0.163406 0.921005
0.139314 0.921005
0.139314 0.907639
0.163406 0.907639
0.119990 0.921005
0.095898 0.921005
0.095898 0.907639
0.119990 0.907639
0.155967 0.928004
0.146753 0.928004
0.112552 0.928004
0.103337 0.928004
0.103337 0.900640
0.112552 0.900640
0.146753 0.900640
0.155967 0.900640
0.141873 0.773778
0.118063 0.773778
0.118063 0.764563
0.141874 0.764563
0.141873 0.781216
0.118063 0.781216
0.118063 0.794582
0.141873 0.794582
0.141873 0.802021
0.118063 0.802021
0.141873 0.811236
0.118063 0.811236
</float_array>
          <technique_common>
            <accessor source="#tesla_dressing_cdoor_050-UV0-array" count="58" stride="2">
              <param name="S" type="float"/>
              <param name="T" type="float"/>
            </accessor>
          </technique_common>
        </source>
        <vertices id="tesla_dressing_cdoor_050-VERTEX">
          <input semantic="POSITION" source="#tesla_dressing_cdoor_050-POSITION"/>
        </vertices>
        <triangles count="44" material="_06 - Default">
          <input semantic="VERTEX" offset="0" source="#tesla_dressing_cdoor_050-VERTEX"/>
          <input semantic="NORMAL" offset="1" source="#tesla_dressing_cdoor_050-Normal0"/>
          <input semantic="TEXCOORD" offset="2" set="0" source="#tesla_dressing_cdoor_050-UV0"/>
          <p> 1 0 3 2 1 1 0 2 2 2 3 1 1 4 3 3 5 0 2 6 4 10 7 8 4 8 9 3 9 5 10 10 8 2 11 4 3 12 5 5 13 6 8 14 7 10 15 8 3 16 5 8 17 7 4 18 12 11 19 10 6 20 11 11 21 10 4 22 12 10 23 13 7 24 17 1 25 3 9 26 16 11 27 15 0 28 2 6 29 14 0 30 2 11 31 15 1 32 3 1 33 3 11 34 15 9 35 16 5 36 21 3 37 18 7 38 20 7 39 20 3 40 18 1 41 19 6 42 25 0 43 22 4 44 24 4 45 24 0 46 22 2 47 23 8 48 28 7 49 26 9 50 27 7 51 26 8 52 28 5 53 29 9 54 32 14 55 33 13 56 30 13 57 30 8 58 31 9 59 32 15 60 36 10 61 34 12 62 35 10 63 34 15 64 36 11 65 37 8 66 31 13 67 30 18 68 38 8 69 31 18 70 38 17 71 39 12 72 35 10 73 34 16 74 40 12 75 35 16 76 40 19 77 41 11 78 37 15 79 36 22 80 42 11 81 37 22 82 42 20 83 43 14 84 33 9 85 32 21 86 44 14 87 33 21 88 44 23 89 45 18 90 46 19 91 47 16 92 48 18 93 46 16 94 48 17 95 49 19 96 47 13 97 50 12 98 51 13 99 50 19 100 47 18 101 46 12 102 51 13 103 50 15 104 52 15 105 52 13 106 50 14 107 53 15 108 52 14 109 53 23 110 54 15 111 52 23 112 54 22 113 55 22 114 55 23 115 54 21 116 56 22 117 55 21 118 56 20 119 57 20 120 57 21 121 56 9 122 16 20 123 57 9 124 16 11 125 15 10 126 8 17 127 49 16 128 48 17 129 49 10 130 8 8 131 7</p>
        </triangles>
      </mesh>
    </geometry>
    <geometry id="tesla_dressing_cupboard_049-lib" name="tesla_dressing_cupboard_049Mesh">
      <mesh>
        <source id="tesla_dressing_cupboard_049-POSITION">
          <float_array id="tesla_dressing_cupboard_049-POSITION-array" count="108">
-0.052912 0.954798 0.040455
-0.052912 0.923030 0.040455
-0.045438 0.954798 0.040455
-0.045438 0.923030 0.040455
-0.045438 0.954798 0.009086
-0.045438 0.923030 0.009086
-0.052912 0.954798 0.009086
-0.052912 0.923030 0.009086
-0.045438 0.933619 0.009086
-0.052912 0.933619 0.009086
-0.045438 0.944209 0.009086
-0.052912 0.944209 0.009086
-0.045438 0.954798 -0.004460
-0.045438 0.944209 -0.004460
-0.052912 0.944209 -0.004460
-0.052912 0.954798 -0.004460
-0.045438 0.933619 -0.004460
-0.045438 0.923030 -0.004460
-0.052912 0.923030 -0.004460
-0.052912 0.933619 -0.004460
-0.041498 0.954798 0.004958
-0.041498 0.944209 0.004958
-0.041498 0.944209 -0.000332
-0.041498 0.954798 -0.000332
-0.056852 0.954798 0.004958
-0.056852 0.944209 0.004958
-0.056852 0.954798 -0.000332
-0.056852 0.944209 -0.000332
-0.041498 0.933619 0.004958
-0.041498 0.923030 0.004958
-0.041498 0.923030 -0.000332
-0.041498 0.933619 -0.000332
-0.056852 0.933619 0.004958
-0.056852 0.923030 0.004958
-0.056852 0.933619 -0.000332
-0.056852 0.923030 -0.000332
</float_array>
          <technique_common>
            <accessor source="#tesla_dressing_cupboard_049-POSITION-array" count="36" stride="3">
              <param name="X" type="float"/>
              <param name="Y" type="float"/>
              <param name="Z" type="float"/>
            </accessor>
          </technique_common>
        </source>
        <source id="tesla_dressing_cupboard_049-Normal0">
          <float_array id="tesla_dressing_cupboard_049-Normal0-array" count="612">
0.000000 0.000000 1.000000
0.000000 0.000000 1.000000
0.000000 0.000000 1.000000
0.000000 0.000000 1.000000
0.000000 0.000000 1.000000
0.000000 0.000000 1.000000
0.393246 0.000000 -0.919433
-0.393246 0.000000 -0.919433
0.393246 0.000000 -0.919433
-0.393246 0.000000 -0.919433
0.393246 0.000000 -0.919433
-0.393246 0.000000 -0.919433
0.393246 0.000000 -0.919433
0.393246 0.000000 -0.919433
-0.393246 0.000000 -0.919433
0.393246 0.000000 -0.919433
-0.393246 0.000000 -0.919433
-0.393246 0.000000 -0.919433
0.000000 0.000000 -1.000000
0.000000 0.000000 -1.000000
0.000000 0.000000 -1.000000
0.000000 0.000000 -1.000000
0.000000 0.000000 -1.000000
0.000000 0.000000 -1.000000
0.928279 0.000000 0.371884
0.928279 0.000001 0.371884
0.928279 0.000000 -0.371884
0.928279 0.000000 -0.371884
0.928279 0.000001 0.371884
0.928279 0.000001 -0.371884
0.000000 -1.000000 0.000000
0.000000 -1.000000 0.000000
0.000000 -1.000000 0.000000
0.000000 -1.000000 0.000000
0.000000 -1.000000 0.000000
0.000000 -1.000000 0.000000
-0.928164 -0.000001 0.372172
-0.928164 -0.000000 0.372172
-0.928164 -0.000001 -0.372172
-0.928164 -0.000001 -0.372172
-0.928164 -0.000000 0.372172
-0.928164 -0.000000 -0.372172
0.000000 1.000000 0.000000
0.000000 1.000000 0.000000
0.000000 1.000000 0.000000
0.000000 1.000000 0.000000
0.000000 1.000000 0.000000
0.000000 1.000000 0.000000
0.928279 0.000001 0.371884
0.928279 0.000001 -0.371884
0.928279 0.000001 -0.371884
0.928279 0.000001 -0.371884
0.928279 0.000001 0.371884
0.928279 0.000001 0.371884
0.000000 -1.000000 0.000000
0.000000 -1.000000 0.000000
0.000000 -1.000000 0.000000
0.000000 -1.000000 0.000000
0.000000 -1.000000 0.000000
0.000000 -1.000000 0.000000
-0.928164 -0.000001 -0.372172
-0.928164 -0.000001 -0.372172
-0.928164 -0.000001 0.372172
-0.928164 -0.000001 0.372172
-0.928164 -0.000001 0.372172
-0.928164 -0.000001 -0.372172
0.000000 1.000000 0.000000
0.000000 1.000000 0.000000
0.000000 1.000000 0.000000
0.000000 1.000000 0.000000
0.000000 1.000000 0.000000
0.000000 1.000000 0.000000
0.723192 0.000000 0.690648
0.723192 0.000001 0.690648
0.928279 0.000000 0.371884
0.928279 0.000000 0.371884
0.723192 0.000001 0.690648
0.928279 0.000001 0.371884
0.000000 -1.000000 0.000000
0.000000 -1.000000 0.000000
0.000000 -1.000000 0.000000
0.000000 -1.000000 0.000000
0.000000 -1.000000 0.000000
0.000000 -1.000000 0.000000
0.928279 0.000000 -0.371884
0.928279 0.000001 -0.371884
0.393246 0.000000 -0.919433
0.393246 0.000000 -0.919433
0.928279 0.000001 -0.371884
0.393246 0.000000 -0.919433
0.000000 1.000000 0.000000
0.000000 1.000000 0.000000
0.000000 1.000000 0.000000
0.000000 1.000000 0.000000
0.000000 1.000000 0.000000
0.000000 1.000000 0.000000
-0.723192 0.000000 0.690648
-0.723192 -0.000000 0.690648
-0.928164 -0.000001 0.372172
-0.928164 -0.000001 0.372172
-0.723192 -0.000000 0.690648
-0.928164 -0.000000 0.372172
0.000000 1.000000 0.000000
0.000000 1.000000 0.000000
0.000000 1.000000 0.000000
0.000000 1.000000 0.000000
0.000000 1.000000 0.000000
0.000000 1.000000 0.000000
-0.928164 -0.000001 -0.372172
-0.928164 -0.000000 -0.372172
-0.393246 0.000000 -0.919433
-0.393246 0.000000 -0.919433
-0.928164 -0.000000 -0.372172
-0.393246 0.000000 -0.919433
0.000000 -1.000000 0.000000
0.000000 -1.000000 0.000000
0.000000 -1.000000 0.000000
0.000000 -1.000000 0.000000
0.000000 -1.000000 0.000000
0.000000 -1.000000 0.000000
0.723192 0.000001 0.690648
0.928279 0.000001 0.371884
0.928279 0.000001 0.371884
0.928279 0.000001 0.371884
0.723192 0.000001 0.690648
0.723192 0.000001 0.690648
0.000000 -1.000000 0.000000
0.000000 -1.000000 0.000000
0.000000 -1.000000 0.000000
0.000000 -1.000000 0.000000
0.000000 -1.000000 0.000000
0.000000 -1.000000 0.000000
0.928279 0.000001 -0.371884
0.393246 0.000000 -0.919433
0.393246 0.000000 -0.919433
0.393246 0.000000 -0.919433
0.928279 0.000001 -0.371884
0.928279 0.000001 -0.371884
0.000000 1.000000 0.000000
0.000000 1.000000 0.000000
0.000000 1.000000 0.000000
0.000000 1.000000 0.000000
0.000000 1.000000 0.000000
0.000000 1.000000 0.000000
-0.723192 0.000000 0.690648
-0.723192 0.000000 0.690648
-0.928164 -0.000001 0.372172
-0.928164 -0.000001 0.372172
-0.723192 0.000000 0.690648
-0.928164 -0.000001 0.372172
0.000000 1.000000 0.000000
0.000000 1.000000 0.000000
0.000000 1.000000 0.000000
0.000000 1.000000 0.000000
0.000000 1.000000 0.000000
0.000000 1.000000 0.000000
-0.393246 0.000000 -0.919433
-0.393246 0.000000 -0.919433
-0.928164 -0.000001 -0.372172
-0.928164 -0.000001 -0.372172
-0.928164 -0.000001 -0.372172
-0.393246 0.000000 -0.919433
0.000000 -1.000000 0.000000
0.000000 -1.000000 0.000000
0.000000 -1.000000 0.000000
0.000000 -1.000000 0.000000
0.000000 -1.000000 0.000000
0.000000 -1.000000 0.000000
1.000000 0.000001 0.000000
1.000000 0.000001 0.000000
1.000000 0.000001 0.000000
0.000000 1.000000 0.000000
0.000000 1.000000 0.000000
0.000000 1.000000 0.000000
0.000000 1.000000 0.000000
0.000000 1.000000 0.000000
0.000000 1.000000 0.000000
0.000000 -1.000000 0.000000
0.000000 -1.000000 0.000000
0.000000 -1.000000 0.000000
0.000000 -1.000000 0.000000
0.000000 -1.000000 0.000000
0.000000 -1.000000 0.000000
-1.000000 0.000000 0.000000
-1.000000 0.000000 0.000000
-1.000000 0.000000 0.000000
-1.000000 0.000000 0.000000
-1.000000 0.000000 0.000000
-1.000000 -0.000000 0.000000
-1.000000 0.000000 0.000000
-1.000000 0.000000 0.000000
-1.000000 0.000000 0.000000
-1.000000 -0.000000 0.000000
-1.000000 0.000000 0.000000
-1.000000 -0.000000 0.000000
1.000000 0.000000 0.000000
1.000000 0.000001 0.000000
1.000000 0.000001 0.000000
1.000000 0.000001 0.000000
1.000000 0.000001 0.000000
1.000000 0.000001 0.000000
1.000000 0.000000 0.000000
1.000000 0.000000 0.000000
1.000000 0.000001 0.000000
</float_array>
          <technique_common>
            <accessor source="#tesla_dressing_cupboard_049-Normal0-array" count="204" stride="3">
              <param name="X" type="float"/>
              <param name="Y" type="float"/>
              <param name="Z" type="float"/>
            </accessor>
          </technique_common>
        </source>
        <source id="tesla_dressing_cupboard_049-UV0">
          <float_array id="tesla_dressing_cupboard_049-UV0-array" count="156">
0.175904 0.682759
0.103637 0.682759
0.103637 0.669237
0.175904 0.669237
0.103637 0.588306
0.103637 0.574784
0.127726 0.574784
0.127726 0.588306
0.175904 0.588307
0.151815 0.588306
0.151815 0.574784
0.175904 0.574785
0.066524 0.594489
0.066524 0.580966
0.090613 0.580966
0.090613 0.594489
0.103637 0.567654
0.103637 0.558081
0.127726 0.558081
0.127726 0.567654
0.090448 0.733562
0.090448 0.748436
0.063489 0.748436
0.063489 0.733562
0.103637 0.605009
0.103637 0.595437
0.127726 0.595437
0.127726 0.605009
0.085399 0.519700
0.071877 0.519700
0.071877 0.495191
0.085399 0.495191
0.175904 0.567654
0.151815 0.567654
0.151815 0.558082
0.175904 0.558082
0.071910 0.656100
0.085432 0.656100
0.085432 0.680609
0.071910 0.680609
0.175904 0.605009
0.151815 0.605009
0.151815 0.595437
0.175904 0.595437
0.063330 0.711682
0.063330 0.696340
0.091138 0.696340
0.091138 0.711682
0.103637 0.550613
0.127726 0.550613
0.071704 0.725720
0.082233 0.725720
0.064747 0.512232
0.064747 0.502659
0.103637 0.612478
0.127726 0.612478
0.092530 0.502659
0.092530 0.512232
0.082233 0.756279
0.071704 0.756279
0.151815 0.550613
0.175904 0.550613
0.064779 0.673141
0.064779 0.663568
0.071803 0.688250
0.082664 0.688250
0.151815 0.612478
0.175904 0.612478
0.082664 0.719772
0.071803 0.719772
0.092562 0.663568
0.092562 0.673141
0.175905 0.493854
0.085399 0.576460
0.071877 0.576460
0.071910 0.599340
0.085432 0.599340
0.103637 0.493853
</float_array>
          <technique_common>
            <accessor source="#tesla_dressing_cupboard_049-UV0-array" count="78" stride="2">
              <param name="S" type="float"/>
              <param name="T" type="float"/>
            </accessor>
          </technique_common>
        </source>
        <vertices id="tesla_dressing_cupboard_049-VERTEX">
          <input semantic="POSITION" source="#tesla_dressing_cupboard_049-POSITION"/>
        </vertices>
        <triangles count="68" material="_06 - Default">
          <input semantic="VERTEX" offset="0" source="#tesla_dressing_cupboard_049-VERTEX"/>
          <input semantic="NORMAL" offset="1" source="#tesla_dressing_cupboard_049-Normal0"/>
          <input semantic="TEXCOORD" offset="2" set="0" source="#tesla_dressing_cupboard_049-UV0"/>
          <p> 3 0 0 2 1 1 0 2 2 3 3 0 0 4 2 1 5 3 13 6 6 15 7 4 12 8 5 15 9 4 13 10 6 14 11 7 16 12 10 17 13 11 18 14 8 16 15 10 18 16 8 19 17 9 8 18 14 11 19 12 10 20 13 11 21 12 8 22 14 9 23 15 20 24 17 21 25 18 23 26 16 23 27 16 21 28 18 22 29 19 11 30 21 14 31 22 10 32 20 13 33 23 10 34 20 14 35 22 25 36 27 24 37 24 27 38 26 27 39 26 24 40 24 26 41 25 12 42 30 6 43 28 4 44 29 6 45 28 12 46 30 15 47 31 28 48 34 30 49 32 31 50 33 30 51 32 28 52 34 29 53 35 7 54 37 18 55 38 5 56 36 17 57 39 5 58 36 18 59 38 34 60 42 35 61 43 33 62 40 33 63 40 32 64 41 34 65 42 16 66 46 9 67 44 8 68 45 9 69 44 16 70 46 19 71 47 4 72 48 10 73 49 20 74 17 20 75 17 10 76 49 21 77 18 10 78 20 13 79 23 22 80 50 10 81 20 22 82 50 21 83 51 23 84 16 22 85 19 12 86 5 12 87 5 22 88 19 13 89 6 12 90 30 4 91 29 20 92 52 12 93 30 20 94 52 23 95 53 11 96 55 6 97 54 25 98 27 25 99 27 6 100 54 24 101 24 26 102 56 6 103 28 15 104 31 6 105 28 26 106 56 24 107 57 27 108 26 26 109 25 14 110 7 14 111 7 26 112 25 15 113 4 25 114 58 14 115 22 11 116 21 14 117 22 25 118 58 27 119 59 8 120 60 29 121 35 28 122 34 29 123 35 8 124 60 5 125 61 5 126 36 17 127 39 30 128 62 5 129 36 30 130 62 29 131 63 31 132 33 17 133 11 16 134 10 17 135 11 31 136 33 30 137 32 16 138 46 8 139 45 28 140 64 16 141 46 28 142 64 31 143 65 7 144 67 9 145 66 33 146 40 33 147 40 9 148 66 32 149 41 34 150 68 9 151 44 19 152 47 9 153 44 34 154 68 32 155 69 19 156 9 18 157 8 35 158 43 35 159 43 34 160 42 19 161 9 33 162 70 18 163 38 7 164 37 18 165 38 33 166 70 35 167 71 8 168 60 3 169 72 5 170 61 2 171 74 4 172 29 6 173 28 2 174 74 6 175 28 0 176 73 1 177 76 7 178 37 3 179 75 5 180 36 3 181 75 7 182 37 1 183 3 11 184 55 9 185 66 11 186 55 1 187 3 0 188 2 1 189 3 9 190 66 7 191 67 6 192 54 11 193 55 0 194 2 2 195 77 3 196 72 10 197 49 10 198 49 3 199 72 8 200 60 4 201 48 2 202 77 10 203 49</p>
        </triangles>
      </mesh>
    </geometry>
    <geometry id="Object003-lib" name="Object003Mesh">
      <mesh>
        <source id="Object003-POSITION">
          <float_array id="Object003-POSITION-array" count="48">
0.043542 0.923312 -0.473983
-0.043926 0.923312 -0.473983
0.043543 0.954829 -0.504783
-0.043925 0.954829 -0.504783
0.043540 0.923314 0.473441
-0.043926 0.923314 0.473441
0.043543 0.954829 0.505231
-0.043925 0.954829 0.505231
0.043542 -0.923880 -0.473983
0.043544 -0.956128 -0.504783
-0.043925 -0.956128 -0.504783
-0.043925 -0.923880 -0.473983
0.043541 -0.923879 0.473441
-0.043926 -0.923879 0.473442
-0.043925 -0.956128 0.505231
0.043544 -0.956128 0.505231
</float_array>
          <technique_common>
            <accessor source="#Object003-POSITION-array" count="16" stride="3">
              <param name="X" type="float"/>
              <param name="Y" type="float"/>
              <param name="Z" type="float"/>
            </accessor>
          </technique_common>
        </source>
        <source id="Object003-Normal0">
          <float_array id="Object003-Normal0-array" count="288">
0.000001 -1.000000 -0.000000
0.000001 -1.000000 -0.000000
0.000001 -1.000000 -0.000000
0.000001 -1.000000 -0.000000
0.000001 -1.000000 -0.000000
0.000001 -1.000000 -0.000000
-1.000000 -0.000030 -0.000000
-1.000000 -0.000030 -0.000000
-1.000000 -0.000030 -0.000000
-1.000000 -0.000030 -0.000000
-1.000000 -0.000030 -0.000000
-1.000000 -0.000030 -0.000000
-0.000001 1.000000 -0.000001
-0.000001 1.000000 -0.000001
-0.000001 1.000000 -0.000001
-0.000001 1.000000 -0.000001
-0.000001 1.000000 -0.000001
-0.000001 1.000000 -0.000001
1.000000 0.000059 0.000000
1.000000 0.000059 0.000000
1.000000 0.000059 0.000000
1.000000 0.000059 0.000000
1.000000 0.000059 0.000000
1.000000 0.000059 0.000000
0.000000 -1.000000 0.000002
0.000000 -1.000000 0.000002
0.000000 -1.000000 0.000002
0.000000 -1.000000 0.000002
0.000000 -1.000000 0.000002
0.000000 -1.000000 0.000002
-1.000000 0.000030 -0.000000
-1.000000 0.000030 -0.000000
-1.000000 0.000030 -0.000000
-1.000000 0.000030 -0.000000
-1.000000 0.000030 -0.000000
-1.000000 0.000030 -0.000000
0.000001 1.000000 0.000000
0.000001 1.000000 0.000000
0.000001 1.000000 0.000000
0.000001 1.000000 0.000000
0.000001 1.000000 0.000000
0.000001 1.000000 0.000000
1.000000 -0.000068 0.000001
1.000000 -0.000068 0.000001
1.000000 -0.000068 0.000001
1.000000 -0.000068 0.000001
1.000000 -0.000068 0.000001
1.000000 -0.000068 0.000001
1.000000 0.000000 0.000046
1.000000 0.000000 0.000046
1.000000 0.000000 0.000046
1.000000 0.000000 0.000046
1.000000 0.000000 0.000046
1.000000 0.000000 0.000046
-0.000001 -0.000000 -1.000000
-0.000001 -0.000000 -1.000000
-0.000001 -0.000000 -1.000000
-0.000001 -0.000000 -1.000000
-0.000001 -0.000000 -1.000000
-0.000001 -0.000000 -1.000000
-1.000000 -0.000000 -0.000015
-1.000000 -0.000000 -0.000015
-1.000000 -0.000000 -0.000015
-1.000000 -0.000000 -0.000015
-1.000000 -0.000000 -0.000015
-1.000000 -0.000000 -0.000015
0.000003 0.000000 1.000000
0.000003 0.000000 1.000000
0.000003 0.000000 1.000000
0.000003 0.000000 1.000000
0.000003 0.000000 1.000000
0.000003 0.000000 1.000000
-0.000003 -0.000000 -1.000000
-0.000003 -0.000000 -1.000000
-0.000003 -0.000000 -1.000000
-0.000003 -0.000000 -1.000000
-0.000003 -0.000000 -1.000000
-0.000003 -0.000000 -1.000000
-1.000000 -0.000000 0.000045
-1.000000 -0.000000 0.000045
-1.000000 -0.000000 0.000045
-1.000000 -0.000000 0.000045
-1.000000 -0.000000 0.000045
-1.000000 -0.000000 0.000045
-0.000005 -0.000000 1.000000
-0.000005 -0.000000 1.000000
-0.000005 -0.000000 1.000000
-0.000005 -0.000000 1.000000
-0.000005 -0.000000 1.000000
-0.000005 -0.000000 1.000000
1.000000 0.000000 -0.000082
1.000000 0.000000 -0.000082
1.000000 0.000000 -0.000082
1.000000 0.000000 -0.000082
1.000000 0.000000 -0.000082
1.000000 0.000000 -0.000082
</float_array>
          <technique_common>
            <accessor source="#Object003-Normal0-array" count="96" stride="3">
              <param name="X" type="float"/>
              <param name="Y" type="float"/>
              <param name="Z" type="float"/>
            </accessor>
          </technique_common>
        </source>
        <source id="Object003-UV0">
          <float_array id="Object003-UV0-array" count="128">
0.011115 0.322662
0.042106 0.322662
0.042106 0.680521
0.011115 0.680521
0.447005 0.125506
0.456467 0.115555
0.747618 0.115253
0.757372 0.125506
0.011115 0.249390
0.042105 0.249389
0.042105 0.585072
0.011114 0.585072
0.887945 0.115340
0.897468 0.125506
0.587101 0.125506
0.596881 0.115549
0.042106 0.697155
0.011115 0.697155
0.011116 0.136528
0.042106 0.136528
0.909938 0.115982
0.919852 0.125506
0.609485 0.125506
0.619271 0.115764
0.011115 0.217353
0.042106 0.217353
0.042106 0.692985
0.011115 0.692985
0.528707 0.125506
0.538183 0.115778
0.828931 0.115883
0.839075 0.125506
0.011115 0.136750
0.011115 0.113234
0.042106 0.113234
0.042106 0.136750
0.042106 0.696933
0.011116 0.696933
0.011115 0.113234
0.042106 0.113234
0.011115 0.354699
0.042106 0.354699
0.042106 0.690381
0.011116 0.690381
0.042106 0.692985
0.011115 0.692985
0.042106 0.575212
0.011115 0.575212
0.976078 0.125506
0.966283 0.115495
0.397272 0.115717
0.387362 0.125506
0.395323 0.115722
0.385416 0.125506
0.969021 0.125506
0.959165 0.115588
0.398544 0.115719
0.388859 0.125506
0.974580 0.125506
0.964895 0.115717
0.972634 0.125506
0.962975 0.115706
0.391487 0.115717
0.381803 0.125506
</float_array>
          <technique_common>
            <accessor source="#Object003-UV0-array" count="64" stride="2">
              <param name="S" type="float"/>
              <param name="T" type="float"/>
            </accessor>
          </technique_common>
        </source>
        <vertices id="Object003-VERTEX">
          <input semantic="POSITION" source="#Object003-POSITION"/>
        </vertices>
        <triangles count="32" material="_08 - Default">
          <input semantic="VERTEX" offset="0" source="#Object003-VERTEX"/>
          <input semantic="NORMAL" offset="1" source="#Object003-Normal0"/>
          <input semantic="TEXCOORD" offset="2" set="0" source="#Object003-UV0"/>
          <p> 14 0 2 9 1 0 15 2 3 9 3 0 14 4 2 10 5 1 10 6 4 14 7 7 13 8 6 10 9 4 13 10 6 11 11 5 12 12 10 11 13 8 13 14 11 11 15 8 12 16 10 8 17 9 12 18 15 9 19 13 8 20 12 9 21 13 12 22 15 15 23 14 4 24 43 1 25 41 0 26 40 1 27 41 4 28 43 5 29 42 5 30 23 3 31 21 1 32 20 3 33 21 5 34 23 7 35 22 7 36 47 2 37 25 3 38 24 2 39 25 7 40 47 6 41 46 2 42 28 6 43 31 4 44 30 2 45 28 4 46 30 0 47 29 8 48 52 2 49 60 0 50 61 2 51 60 8 52 52 9 53 53 10 54 44 2 55 33 9 56 45 2 57 33 10 58 44 3 59 34 3 60 57 10 61 48 11 62 49 3 63 57 11 64 49 1 65 56 0 66 17 11 67 35 8 68 32 11 69 35 0 70 17 1 71 16 12 72 37 5 73 19 4 74 18 5 75 19 12 76 37 13 77 36 7 78 58 13 79 50 14 80 51 13 81 50 7 82 58 5 83 59 6 84 27 14 85 39 15 86 38 14 87 39 6 88 27 7 89 26 6 90 63 15 91 54 12 92 55 6 93 63 12 94 55 4 95 62</p>
        </triangles>
      </mesh>
    </geometry>
    <geometry id="Object004-lib" name="Object004Mesh">
      <mesh>
        <source id="Object004-POSITION">
          <float_array id="Object004-POSITION-array" count="24">
-0.015227 0.929081 -0.479249
-0.015225 -0.929878 -0.479248
-0.015226 0.929082 0.479304
-0.015225 -0.929877 0.479305
0.015231 0.929081 -0.479249
0.015232 -0.929878 -0.479248
0.015231 0.929082 0.479305
0.015233 -0.929877 0.479305
</float_array>
          <technique_common>
            <accessor source="#Object004-POSITION-array" count="8" stride="3">
              <param name="X" type="float"/>
              <param name="Y" type="float"/>
              <param name="Z" type="float"/>
            </accessor>
          </technique_common>
        </source>
        <source id="Object004-Normal0">
          <float_array id="Object004-Normal0-array" count="36">
-1.000000 -0.000001 0.000000
-1.000000 -0.000001 0.000000
-1.000000 -0.000001 0.000000
-1.000000 -0.000001 0.000000
-1.000000 -0.000001 0.000000
-1.000000 -0.000001 0.000000
1.000000 0.000001 -0.000000
1.000000 0.000001 -0.000000
1.000000 0.000001 -0.000000
1.000000 0.000000 -0.000000
1.000000 0.000000 -0.000000
1.000000 0.000000 -0.000000
</float_array>
          <technique_common>
            <accessor source="#Object004-Normal0-array" count="12" stride="3">
              <param name="X" type="float"/>
              <param name="Y" type="float"/>
              <param name="Z" type="float"/>
            </accessor>
          </technique_common>
        </source>
        <source id="Object004-UV0">
          <float_array id="Object004-UV0-array" count="16">
0.798015 0.714133
0.197976 0.714134
0.197976 0.019938
0.798015 0.019938
0.798015 0.714133
0.197976 0.714134
0.197976 0.019938
0.798015 0.019938
</float_array>
          <technique_common>
            <accessor source="#Object004-UV0-array" count="8" stride="2">
              <param name="S" type="float"/>
              <param name="T" type="float"/>
            </accessor>
          </technique_common>
        </source>
        <vertices id="Object004-VERTEX">
          <input semantic="POSITION" source="#Object004-POSITION"/>
        </vertices>
        <triangles count="4" material="_09 - Default">
          <input semantic="VERTEX" offset="0" source="#Object004-VERTEX"/>
          <input semantic="NORMAL" offset="1" source="#Object004-Normal0"/>
          <input semantic="TEXCOORD" offset="2" set="0" source="#Object004-UV0"/>
          <p> 0 0 3 1 1 2 3 2 1 3 3 1 2 4 0 0 5 3 4 6 7 6 7 4 7 8 5 7 9 5 5 10 6 4 11 7</p>
        </triangles>
      </mesh>
    </geometry>
  </library_geometries>
  <library_visual_scenes>
    <visual_scene id="" name="">
      <node name="tesla_dressing_cupboard_046" id="tesla_dressing_cupboard_046" layer="engineroom_balcony_office_window" sid="tesla_dressing_cupboard_046">
        <matrix sid="matrix">1.000000 0.000000 0.000000 0.000000 -0.000000 0.000000 1.000000 0.000000 0.000000 -1.000000 0.000000 0.000000 0.000000 0.000000 0.000000 1.000000</matrix>
        <instance_geometry url="#tesla_dressing_cupboard_046-lib">
          <bind_material>
            <technique_common>
              <instance_material symbol="_06 - Default" target="#_06 - Default"/>
            </technique_common>
          </bind_material>
        </instance_geometry>
        <extra>
          <technique profile="FCOLLADA">
            <visibility>1.000000</visibility>
          </technique>
        </extra>
      </node>
      <node name="tesla_dressing_cdoor_048" id="tesla_dressing_cdoor_048" layer="engineroom_balcony_office_window" sid="tesla_dressing_cdoor_048">
        <matrix sid="matrix">1.000000 0.000000 0.000000 0.000000 -0.000000 0.000000 1.000000 0.000000 0.000000 -1.000000 0.000000 0.000000 0.000000 0.000000 0.000000 1.000000</matrix>
        <instance_geometry url="#tesla_dressing_cdoor_048-lib">
          <bind_material>
            <technique_common>
              <instance_material symbol="_06 - Default" target="#_06 - Default"/>
            </technique_common>
          </bind_material>
        </instance_geometry>
        <extra>
          <technique profile="FCOLLADA">
            <visibility>1.000000</visibility>
          </technique>
        </extra>
      </node>
      <node name="tesla_dressing_cdoor_050" id="tesla_dressing_cdoor_050" layer="engineroom_balcony_office_window" sid="tesla_dressing_cdoor_050">
        <matrix sid="matrix">1.000000 0.000000 0.000000 0.000000 -0.000000 0.000000 1.000000 0.000000 0.000000 -1.000000 0.000000 0.000000 0.000000 0.000000 0.000000 1.000000</matrix>
        <instance_geometry url="#tesla_dressing_cdoor_050-lib">
          <bind_material>
            <technique_common>
              <instance_material symbol="_06 - Default" target="#_06 - Default"/>
            </technique_common>
          </bind_material>
        </instance_geometry>
        <extra>
          <technique profile="FCOLLADA">
            <visibility>1.000000</visibility>
          </technique>
        </extra>
      </node>
      <node name="tesla_dressing_cupboard_049" id="tesla_dressing_cupboard_049" layer="engineroom_balcony_office_window" sid="tesla_dressing_cupboard_049">
        <matrix sid="matrix">1.000000 0.000000 0.000000 0.000000 -0.000000 0.000000 1.000000 0.000000 0.000000 -1.000000 0.000000 0.000000 0.000000 0.000000 0.000000 1.000000</matrix>
        <instance_geometry url="#tesla_dressing_cupboard_049-lib">
          <bind_material>
            <technique_common>
              <instance_material symbol="_06 - Default" target="#_06 - Default"/>
            </technique_common>
          </bind_material>
        </instance_geometry>
        <extra>
          <technique profile="FCOLLADA">
            <visibility>1.000000</visibility>
          </technique>
        </extra>
      </node>
      <node name="Object003" id="Object003" layer="engineroom_balcony_office_window" sid="Object003">
        <matrix sid="matrix">1.000000 0.000000 0.000000 0.000000 0.000000 0.000000 1.000000 0.000000 0.000000 -1.000000 0.000000 0.000000 0.000000 0.000000 0.000000 1.000000</matrix>
        <instance_geometry url="#Object003-lib">
          <bind_material>
            <technique_common>
              <instance_material symbol="_08 - Default" target="#_08 - Default"/>
            </technique_common>
          </bind_material>
        </instance_geometry>
        <extra>
          <technique profile="FCOLLADA">
            <visibility>1.000000</visibility>
          </technique>
        </extra>
      </node>
      <node name="Object004" id="Object004" layer="engineroom_balcony_office_window" sid="Object004">
        <matrix sid="matrix">1.000000 0.000000 0.000000 0.000000 0.000000 0.000000 1.000000 0.000000 0.000000 -1.000000 0.000000 0.000000 0.000000 0.000000 0.000000 1.000000</matrix>
        <instance_geometry url="#Object004-lib">
          <bind_material>
            <technique_common>
              <instance_material symbol="_09 - Default" target="#_09 - Default"/>
            </technique_common>
          </bind_material>
        </instance_geometry>
        <extra>
          <technique profile="FCOLLADA">
            <visibility>1.000000</visibility>
          </technique>
        </extra>
      </node>
      <extra>
        <technique profile="MAX3D">
          <frame_rate>30.000000</frame_rate>
        </technique>
        <technique profile="FCOLLADA">
          <start_time>0.000000</start_time>
          <end_time>3.333333</end_time>
        </technique>
      </extra>
    </visual_scene>
  </library_visual_scenes>
  <scene>
    <instance_visual_scene url="#"></instance_visual_scene>
  </scene>
</COLLADA>

