﻿<?xml version="1.0" encoding="utf-8"?>
<COLLADA xmlns="http://www.collada.org/2005/11/COLLADASchema" version="1.4.1">
  <asset>
    <contributor>
      <author>marc</author>
      <authoring_tool>Maya7.0 | ColladaMaya v3.05B</authoring_tool>
      <comments>ColladaMaya export options: bakeTransforms=0;exportPolygonMeshes=1;bakeLighting=0;isSampling=0;
curveConstrainSampling=0;removeStaticCurves=1;exportCameraAsLookat=0;
exportLights=1;exportCameras=1;exportJointsAndSkin=1;
exportAnimations=1;exportTriangles=1;exportInvisibleNodes=0;
exportNormals=1;exportTexCoords=1;
exportVertexColors=1;exportVertexColorsAnimation=0;exportTangents=0;
exportTexTangents=0;exportConstraints=1;exportPhysics=1;exportXRefs=1;
dereferenceXRefs=0;cameraXFov=0;cameraYFov=1</comments>
      <source_data>file:///E:/lux/untitled</source_data>
    </contributor>
    <contributor>
      <author>Marc</author>
      <authoring_tool>Maya7.0 | ColladaMaya v3.05B</authoring_tool>
      <comments>ColladaMaya export options: bakeTransforms=0;exportPolygonMeshes=1;bakeLighting=0;isSampling=0;
curveConstrainSampling=0;removeStaticCurves=1;exportCameraAsLookat=0;
exportLights=1;exportCameras=1;exportJointsAndSkin=1;
exportAnimations=1;exportTriangles=1;exportInvisibleNodes=0;
exportNormals=1;exportTexCoords=1;
exportVertexColors=1;exportVertexColorsAnimation=0;exportTangents=0;
exportTexTangents=0;exportConstraints=1;exportPhysics=1;exportXRefs=1;
dereferenceXRefs=0;cameraXFov=0;cameraYFov=1</comments>
      <source_data>file:///G:/amnesia/redist/static_objects/debris/Brick/brick_broken.dae</source_data>
    </contributor>
    <created>2009-10-23T13:03:08Z</created>
    <modified>2010-07-19T09:21:54Z</modified>
    <up_axis>Y_UP</up_axis>
    <hpl2scaling />
  </asset>
  <library_physics_scenes>
    <physics_scene id="MayaNativePhysicsScene">
      <technique_common>
        <gravity>0 -980 0</gravity>
        <time_step>0.083</time_step>
      </technique_common>
    </physics_scene>
  </library_physics_scenes>
  <library_images>
    <image id="file1" name="file1">
      <init_from>file:///G:/amnesia/redist/static_objects/castlebase/stairs/castlebase_stairs_worn.dds</init_from>
      <extra>
        <technique profile="MAYA">
          <dgnode_type>kFile</dgnode_type>
          <image_sequence>0</image_sequence>
        </technique>
      </extra>
    </image>
    <image id="file2" name="file2">
      <init_from>file:///G:/amnesia/redist/static_objects/debris/rock/stones_small_med_large_brown.dds</init_from>
      <extra>
        <technique profile="MAYA">
          <dgnode_type>kFile</dgnode_type>
          <image_sequence>0</image_sequence>
        </technique>
      </extra>
    </image>
  </library_images>
  <library_materials>
    <material id="lambert2" name="lambert2">
      <instance_effect url="#lambert2-fx" />
    </material>
    <material id="lambert3" name="lambert3">
      <instance_effect url="#lambert3-fx" />
    </material>
    <material id="lambert1" name="lambert4">
      <instance_effect url="#lambert1-fx" />
    </material>
  </library_materials>
  <library_effects>
    <effect id="lambert2-fx">
      <profile_COMMON>
        <newparam sid="file1-surface">
          <surface type="2D">
            <init_from>file1</init_from>
            <format>A8R8G8B8</format>
          </surface>
        </newparam>
        <newparam sid="file1-sampler">
          <sampler2D>
            <source>file1-surface</source>
            <wrap_s>WRAP</wrap_s>
            <wrap_t>WRAP</wrap_t>
            <minfilter>NONE</minfilter>
            <magfilter>NONE</magfilter>
            <mipfilter>NONE</mipfilter>
          </sampler2D>
        </newparam>
        <technique sid="common">
          <lambert>
            <emission>
              <color>0 0 0 1</color>
            </emission>
            <ambient>
              <color>0 0 0 1</color>
            </ambient>
            <diffuse>
              <texture texture="file1-sampler" texcoord="TEX0">
                <extra>
                  <technique profile="MAYA">
                    <wrapU>1</wrapU>
                    <wrapV>1</wrapV>
                    <mirrorU>0</mirrorU>
                    <mirrorV>0</mirrorV>
                    <coverageU>1</coverageU>
                    <coverageV>1</coverageV>
                    <translateFrameU>0</translateFrameU>
                    <translateFrameV>0</translateFrameV>
                    <rotateFrame>0</rotateFrame>
                    <stagger>0</stagger>
                    <fast>0</fast>
                    <repeatU>1</repeatU>
                    <repeatV>1</repeatV>
                    <offsetU>0</offsetU>
                    <offsetV>0</offsetV>
                    <rotateUV>0</rotateUV>
                    <noiseU>0</noiseU>
                    <noiseV>0</noiseV>
                    <blend_mode>NONE</blend_mode>
                  </technique>
                </extra>
              </texture>
            </diffuse>
            <transparent opaque="RGB_ZERO">
              <color>0 0 0 1</color>
            </transparent>
            <transparency>
              <float>1</float>
            </transparency>
          </lambert>
          <extra>
            <technique profile="FCOLLADA" />
          </extra>
        </technique>
      </profile_COMMON>
    </effect>
    <effect id="lambert3-fx">
      <profile_COMMON>
        <newparam sid="file2-surface">
          <surface type="2D">
            <init_from>file2</init_from>
            <format>A8R8G8B8</format>
          </surface>
        </newparam>
        <newparam sid="file2-sampler">
          <sampler2D>
            <source>file2-surface</source>
            <wrap_s>WRAP</wrap_s>
            <wrap_t>WRAP</wrap_t>
            <minfilter>NONE</minfilter>
            <magfilter>NONE</magfilter>
            <mipfilter>NONE</mipfilter>
          </sampler2D>
        </newparam>
        <technique sid="common">
          <lambert>
            <emission>
              <color>0 0 0 1</color>
            </emission>
            <ambient>
              <color>0 0 0 1</color>
            </ambient>
            <diffuse>
              <texture texture="file2-sampler" texcoord="TEX0">
                <extra>
                  <technique profile="MAYA">
                    <wrapU>1</wrapU>
                    <wrapV>1</wrapV>
                    <mirrorU>0</mirrorU>
                    <mirrorV>0</mirrorV>
                    <coverageU>1</coverageU>
                    <coverageV>1</coverageV>
                    <translateFrameU>0</translateFrameU>
                    <translateFrameV>0</translateFrameV>
                    <rotateFrame>0</rotateFrame>
                    <stagger>0</stagger>
                    <fast>0</fast>
                    <repeatU>1</repeatU>
                    <repeatV>1</repeatV>
                    <offsetU>0</offsetU>
                    <offsetV>0</offsetV>
                    <rotateUV>0</rotateUV>
                    <noiseU>0</noiseU>
                    <noiseV>0</noiseV>
                    <blend_mode>NONE</blend_mode>
                  </technique>
                </extra>
              </texture>
            </diffuse>
            <transparent opaque="A_ONE">
              <texture texture="file2-sampler" texcoord="TEX1">
                <extra>
                  <technique profile="MAYA">
                    <wrapU>1</wrapU>
                    <wrapV>1</wrapV>
                    <mirrorU>0</mirrorU>
                    <mirrorV>0</mirrorV>
                    <coverageU>1</coverageU>
                    <coverageV>1</coverageV>
                    <translateFrameU>0</translateFrameU>
                    <translateFrameV>0</translateFrameV>
                    <rotateFrame>0</rotateFrame>
                    <stagger>0</stagger>
                    <fast>0</fast>
                    <repeatU>1</repeatU>
                    <repeatV>1</repeatV>
                    <offsetU>0</offsetU>
                    <offsetV>0</offsetV>
                    <rotateUV>0</rotateUV>
                    <noiseU>0</noiseU>
                    <noiseV>0</noiseV>
                    <blend_mode>NONE</blend_mode>
                  </technique>
                </extra>
              </texture>
            </transparent>
            <transparency>
              <float>1</float>
            </transparency>
          </lambert>
          <extra>
            <technique profile="FCOLLADA" />
          </extra>
        </technique>
      </profile_COMMON>
    </effect>
    <effect id="lambert1-fx">
      <profile_COMMON>
        <technique sid="common">
          <lambert>
            <emission>
              <color>0 0 0 1</color>
            </emission>
            <ambient>
              <color>0 0 0 1</color>
            </ambient>
            <diffuse>
              <color>0.4 0.4 0.4 1</color>
            </diffuse>
            <transparent opaque="RGB_ZERO">
              <color>0 0 0 1</color>
            </transparent>
            <transparency>
              <float>1</float>
            </transparency>
          </lambert>
          <extra>
            <technique profile="FCOLLADA" />
          </extra>
        </technique>
      </profile_COMMON>
    </effect>
  </library_effects>
  <library_geometries>
    <geometry id="polySurfaceShape2" name="polySurfaceShape1">
      <mesh>
        <source id="polySurfaceShape2-positions" name="position">
          <float_array id="polySurfaceShape2-positions-array" count="42">-0.184116 0.209027 -0.31265 0.184116 0.209027 -0.31265 -0.184116 0.000593 -0.31265 0.184116 0.000593 -0.31265 -0.184116 0.209027 0.061739 0.184116 0.209027 -0.069048 0.184116 0.000593 0 -0.184116 0.000593 0 0 0.209027 0.019399 0 0.000593 0 0.091269 0.000593 -0.025908 -0.092058 0.000593 -0.018263 -0.092058 0.209027 0.004693 0.091269 0.209027 -0.050732</float_array>
          <technique_common>
            <accessor source="#polySurfaceShape2-positions-array" count="14" stride="3">
              <param name="X" type="float" />
              <param name="Y" type="float" />
              <param name="Z" type="float" />
            </accessor>
          </technique_common>
        </source>
        <source id="polySurfaceShape2-normals" name="normal">
          <float_array id="polySurfaceShape2-normals-array" count="78">0 1 0 0 1 0 0 1 0 0 1 0 0 1 0 0 1 0 0 1 0 0 0 -1 0 0 -1 0 0 -1 0 0 -1 0 -1 0 0 -1 0 0 -1 0 0 -1 0 0 -1 0 0 -1 0 0 -1 0 1 0 0 1 0 0 1 0 0 1 0 0 -1 0 0 -1 0 0 -1 0 0 -1 0 0</float_array>
          <technique_common>
            <accessor source="#polySurfaceShape2-normals-array" count="26" stride="3">
              <param name="X" type="float" />
              <param name="Y" type="float" />
              <param name="Z" type="float" />
            </accessor>
          </technique_common>
        </source>
        <source id="polySurfaceShape2-map1" name="map1">
          <float_array id="polySurfaceShape2-map1-array" count="52">0.449535 0.924933 0.46859 0.906499 0.468376 0.888065 0.481007 0.86963 0.487216 0.851196 0.539107 0.851196 0.539107 0.924933 0.175563 0.8517 0.30389 0.8517 0.30389 0.924338 0.175563 0.924338 0.539107 0.851196 0.539107 0.924933 0.472508 0.924933 0.479466 0.906499 0.472508 0.888065 0.479466 0.86963 0.472509 0.851196 0.410441 0.925916 0.307904 0.925916 0.307904 0.850252 0.387796 0.850252 0.307904 0.850252 0.410441 0.850252 0.445811 0.925916 0.307904 0.925916</float_array>
          <technique_common>
            <accessor source="#polySurfaceShape2-map1-array" count="26" stride="2">
              <param name="S" type="float" />
              <param name="T" type="float" />
            </accessor>
          </technique_common>
        </source>
        <vertices id="polySurfaceShape2-vertices">
          <input semantic="POSITION" source="#polySurfaceShape2-positions" />
        </vertices>
        <triangles material="lambert2SG" count="16">
          <input semantic="VERTEX" source="#polySurfaceShape2-vertices" offset="0" />
          <input semantic="NORMAL" source="#polySurfaceShape2-normals" offset="1" />
          <input semantic="TEXCOORD" source="#polySurfaceShape2-map1" offset="2" set="0" />
          <p>4 0 0 12 1 1 0 2 6 0 2 6 12 1 1 1 3 5 12 1 1 8 4 2 1 3 5 8 4 2 13 5 3 1 3 5 13 5 3 5 6 4 1 3 5 0 7 7 1 8 8 2 9 10 1 8 8 3 10 9 2 9 10 6 11 13 10 12 14 3 13 12 3 13 12 10 12 14 2 14 11 10 12 14 9 15 15 2 14 11 9 15 15 11 16 16 2 14 11 2 14 11 11 16 16 7 17 17 6 18 18 3 19 19 5 20 21 3 19 19 1 21 20 5 20 21 4 22 24 0 23 25 7 24 23 2 25 22 7 24 23 0 23 25</p>
        </triangles>
      </mesh>
      <extra>
        <technique profile="MAYA">
          <double_sided>1</double_sided>
        </technique>
      </extra>
    </geometry>
    <geometry id="polySurfaceShape7" name="polySurfaceShape6">
      <mesh>
        <source id="polySurfaceShape7-positions" name="position">
          <float_array id="polySurfaceShape7-positions-array" count="30">0.184116 0.209027 -0.069048 0.184116 0.000593 0 0.091269 0.000593 -0.025908 0.091269 0.209027 -0.050732 0 0.209027 0.019399 0 0.000593 0 -0.092058 0.000593 -0.018263 -0.092058 0.209027 0.004693 -0.184116 0.209027 0.061739 -0.184116 0.000593 0</float_array>
          <technique_common>
            <accessor source="#polySurfaceShape7-positions-array" count="10" stride="3">
              <param name="X" type="float" />
              <param name="Y" type="float" />
              <param name="Z" type="float" />
            </accessor>
          </technique_common>
        </source>
        <source id="polySurfaceShape7-normals" name="normal">
          <float_array id="polySurfaceShape7-normals-array" count="30">-0.03291 0.216604 0.975705 -0.256053 0.303981 0.917623 0.217046 0.113184 0.969577 0.410138 0.107858 0.905623 0.255312 -0.030671 0.966372 -0.026796 -0.098262 0.9948 0 -0.109474 0.99399 0.092726 -0.144312 0.985178 0.510798 -0.244161 0.8243 0.358563 -0.178993 0.916185</float_array>
          <technique_common>
            <accessor source="#polySurfaceShape7-normals-array" count="10" stride="3">
              <param name="X" type="float" />
              <param name="Y" type="float" />
              <param name="Z" type="float" />
            </accessor>
          </technique_common>
        </source>
        <source id="polySurfaceShape7-map1" name="map1">
          <float_array id="polySurfaceShape7-map1-array" count="20">0.358195 0.534419 0.325092 0.534419 0.325092 0.45947 0.358195 0.45947 0.291989 0.45947 0.291989 0.534419 0.258887 0.534419 0.258887 0.45947 0.225784 0.534419 0.225784 0.45947</float_array>
          <technique_common>
            <accessor source="#polySurfaceShape7-map1-array" count="10" stride="2">
              <param name="S" type="float" />
              <param name="T" type="float" />
            </accessor>
          </technique_common>
        </source>
        <vertices id="polySurfaceShape7-vertices">
          <input semantic="POSITION" source="#polySurfaceShape7-positions" />
          <input semantic="NORMAL" source="#polySurfaceShape7-normals" />
        </vertices>
        <triangles material="lambert3SG" count="8">
          <input semantic="VERTEX" source="#polySurfaceShape7-vertices" offset="0" />
          <input semantic="TEXCOORD" source="#polySurfaceShape7-map1" offset="1" set="0" />
          <p>1 3 0 0 2 2 0 0 3 1 2 2 3 1 4 5 2 2 5 4 2 2 4 5 4 5 7 6 5 4 7 6 6 7 5 4 8 8 9 9 7 6 7 6 9 9 6 7</p>
        </triangles>
      </mesh>
      <extra>
        <technique profile="MAYA">
          <double_sided>1</double_sided>
        </technique>
      </extra>
    </geometry>
  </library_geometries>
  <library_visual_scenes>
    <visual_scene id="VisualSceneNode" name="brick_broken">
      <node id="polySurface1" name="polySurface1" type="NODE">
        <translate sid="translate">0 0.10481 0</translate>
        <rotate sid="rotateZ">0 0 1 0</rotate>
        <rotate sid="rotateY">0 1 0 0</rotate>
        <rotate sid="rotateX">1 0 0 0</rotate>
        <translate sid="scalePivotTranslation">0 -0.10481 0</translate>
        <translate sid="scalePivot">0 0.10481 0</translate>
        <translate sid="scalePivotInverse">0 -0.10481 0</translate>
        <instance_geometry url="#polySurfaceShape2">
          <bind_material>
            <technique_common>
              <instance_material symbol="lambert2SG" target="#lambert2">
                <bind_vertex_input semantic="TEX0" input_semantic="TEXCOORD" input_set="0" />
              </instance_material>
            </technique_common>
          </bind_material>
        </instance_geometry>
        <node id="polySurface6" name="polySurface6" type="NODE">
          <rotate sid="rotateZ">0 0 1 0</rotate>
          <rotate sid="rotateY">0 1 0 0</rotate>
          <rotate sid="rotateX">1 0 0 0</rotate>
          <instance_geometry url="#polySurfaceShape7">
            <bind_material>
              <technique_common>
                <instance_material symbol="lambert3SG" target="#lambert3">
                  <bind_vertex_input semantic="TEX0" input_semantic="TEXCOORD" input_set="0" />
                  <bind_vertex_input semantic="TEX1" input_semantic="TEXCOORD" input_set="0" />
                </instance_material>
              </technique_common>
            </bind_material>
          </instance_geometry>
        </node>
      </node>
      <extra>
        <technique profile="FCOLLADA">
          <start_time>0.041666</start_time>
          <end_time>2</end_time>
        </technique>
      </extra>
    </visual_scene>
  </library_visual_scenes>
  <scene>
    <instance_physics_scene url="#MayaNativePhysicsScene" />
    <instance_visual_scene url="#VisualSceneNode" />
  </scene>
</COLLADA>