<?xml version="1.0" encoding="utf-8"?>
<COLLADA xmlns="http://www.collada.org/2005/11/COLLADASchema" version="1.4.1">
  <asset>
    <contributor>
      <author></author>
      <authoring_tool>FBX COLLADA exporter</authoring_tool>
      <comments></comments>
    </contributor>
    <created>2012-09-13T15:36:22Z</created>
    <keywords></keywords>
    <modified>2012-09-13T15:36:22Z</modified>
    <revision></revision>
    <subject></subject>
    <title></title>
    <unit meter="0.010000" name="centimeter"></unit>
    <up_axis>Y_UP</up_axis>
  </asset>
  <library_images>
    <image id="file1-image" name="file1">
      <init_from>file://C:/Users/sindre/Desktop/Sindre/Freelance/Amnesia SVN/Amnesia - Source/StaticObjects/engineroom/structure/tesla_generic_sheet_metal_01.jpg</init_from>
    </image>
  </library_images>
  <library_materials>
    <material id="pipes1" name="pipes1">
      <instance_effect url="#pipes1-fx"/>
    </material>
  </library_materials>
  <library_effects>
    <effect id="pipes1-fx" name="pipes1">
      <profile_COMMON>
        <technique sid="standard">
          <lambert>
            <emission>
              <color sid="emission">0.000000  0.000000 0.000000 1.000000</color>
            </emission>
            <ambient>
              <color sid="ambient">0.000000  0.000000 0.000000 1.000000</color>
            </ambient>
            <diffuse>
              <texture texture="file1-image" texcoord="CHANNEL0">
                <extra>
                  <technique profile="MAYA">
                    <wrapU sid="wrapU0">TRUE</wrapU>
                    <wrapV sid="wrapV0">TRUE</wrapV>
                    <blend_mode>NONE</blend_mode>
                  </technique>
                </extra>
              </texture>
            </diffuse>
            <transparent opaque="RGB_ZERO">
              <color sid="transparent">0.000000  0.000000 0.000000 1.000000</color>
            </transparent>
            <transparency>
              <float sid="transparency">1.000000</float>
            </transparency>
          </lambert>
        </technique>
      </profile_COMMON>
    </effect>
  </library_effects>
  <library_geometries>
    <geometry id="pCylinder1-lib" name="pCylinder1Mesh">
      <mesh>
        <source id="pCylinder1-POSITION">
          <float_array id="pCylinder1-POSITION-array" count="384">
99.999992 157.536240 -0.000123
100.000008 154.509216 -30.733887
100.000008 145.544495 -60.286591
100.000023 130.986664 -87.522331
99.999992 111.394760 -111.395142
100.000023 87.522507 -130.986572
100.000008 60.286491 -145.544495
100.000008 30.733870 -154.509155
100.000008 0.000027 -157.536255
99.999992 -30.733995 -154.509155
100.000008 -60.286469 -145.544495
99.999992 -87.522354 -130.986511
99.999992 -111.394836 -111.394836
99.999992 -130.986557 -87.522247
99.999992 -145.544312 -60.286560
100.000008 -154.509048 -30.733704
99.999992 -157.536240 -0.000092
100.000008 -154.509186 30.733704
99.999992 -145.544449 60.286560
100.000008 -130.986618 87.522430
100.000008 -111.394882 111.394958
100.000008 -87.522369 130.986633
99.999992 -60.286350 145.544525
100.000008 -30.733572 154.509216
99.999992 0.000088 157.536255
99.999992 30.733881 154.509155
100.000008 60.286739 145.544373
100.000008 87.522522 130.986511
99.999992 111.394974 111.394890
99.999992 130.986679 87.522339
100.000023 145.544571 60.286438
100.000008 154.509262 30.733704
-100.000000 157.536240 -0.000153
-99.999969 154.509216 -30.733887
-99.999969 145.544479 -60.286621
-99.999954 130.986618 -87.522461
-100.000000 111.394714 -111.395142
-99.999954 87.522552 -130.986542
-99.999985 60.286465 -145.544495
-99.999969 30.733929 -154.509155
-99.999969 -0.000004 -157.536255
-100.000000 -30.734028 -154.509155
-99.999969 -60.286488 -145.544495
-100.000000 -87.522369 -130.986511
-100.000000 -111.394882 -111.394798
-100.000015 -130.986557 -87.522194
-100.000000 -145.544327 -60.286560
-99.999985 -154.509048 -30.733704
-100.000000 -157.536240 -0.000092
-99.999969 -154.509186 30.733704
-100.000000 -145.544449 60.286560
-99.999985 -130.986572 87.522461
-99.999969 -111.394867 111.394958
-99.999985 -87.522354 130.986664
-100.000000 -60.286469 145.544464
-99.999985 -30.733631 154.509186
-100.000000 0.000118 157.536255
-100.000000 30.733913 154.509155
-99.999985 60.286674 145.544434
-99.999985 87.522537 130.986511
-99.999985 111.394974 111.394928
-100.000000 130.986679 87.522369
-99.999954 145.544571 60.286407
-99.999969 154.509262 30.733704
100.000023 0.000103 149.999908
100.000008 -29.263447 147.117737
100.000023 -57.402409 138.581909
99.999992 -83.335434 124.720459
100.000008 -106.065933 106.066040
100.000008 -124.720352 83.335510
100.000008 -138.581848 57.402466
100.000008 -147.117722 29.263550
100.000008 -149.999939 0.000000
99.999992 -147.117569 -29.263550
99.999992 -138.581741 -57.402466
99.999992 -124.720291 -83.335419
100.000008 -106.065887 -106.065857
100.000008 -83.335449 -124.720276
100.000008 -57.402454 -138.581818
99.999992 -29.263538 -147.117737
100.000023 0.000011 -149.999908
100.000008 29.263515 -147.117737
100.000023 57.402477 -138.581909
100.000008 83.335480 -124.720459
100.000008 106.065964 -106.066040
100.000008 124.720383 -83.335510
100.000008 138.581879 -57.402557
100.000008 147.117752 -29.263641
100.000008 149.999969 -0.000092
100.000023 147.117783 29.263458
99.999977 138.581924 57.402466
100.000008 124.720474 83.335419
100.000008 106.066055 106.065857
99.999992 83.335617 124.720276
100.000008 57.402569 138.581818
99.999992 29.263653 147.117737
-99.999954 0.000103 149.999908
-99.999969 -29.263447 147.117737
-99.999954 -57.402409 138.581909
-100.000000 -83.335419 124.720459
-99.999985 -106.065933 106.066040
-99.999969 -124.720352 83.335510
-99.999969 -138.581848 57.402466
-99.999985 -147.117722 29.263550
-99.999985 -149.999939 0.000000
-100.000015 -147.117569 -29.263550
-100.000015 -138.581741 -57.402466
-100.000015 -124.720291 -83.335419
-99.999985 -106.065887 -106.065857
-99.999985 -83.335449 -124.720276
-99.999969 -57.402454 -138.581818
-100.000000 -29.263538 -147.117737
-99.999954 0.000011 -149.999908
-99.999985 29.263515 -147.117737
-99.999954 57.402477 -138.581909
-99.999985 83.335480 -124.720459
-99.999969 106.065964 -106.066040
-99.999969 124.720383 -83.335510
-99.999969 138.581879 -57.402557
-99.999969 147.117752 -29.263641
-99.999969 149.999969 -0.000092
-99.999954 147.117783 29.263458
-100.000015 138.581924 57.402466
-99.999969 124.720474 83.335419
-99.999985 106.066055 106.065857
-100.000015 83.335617 124.720276
-99.999985 57.402569 138.581818
-100.000000 29.263653 147.117737
</float_array>
          <technique_common>
            <accessor source="#pCylinder1-POSITION-array" count="128" stride="3">
              <param name="X" type="float"/>
              <param name="Y" type="float"/>
              <param name="Z" type="float"/>
            </accessor>
          </technique_common>
        </source>
        <source id="pCylinder1-Normal0">
          <float_array id="pCylinder1-Normal0-array" count="384">
0.000000 1.000000 -0.000001
-0.000000 0.980785 -0.195091
0.000000 0.923879 -0.382684
0.000000 0.831469 -0.555571
-0.000000 0.707106 -0.707107
-0.000000 0.555570 -0.831470
-0.000000 0.382683 -0.923880
0.000000 0.195091 -0.980785
0.000000 0.000000 -1.000000
0.000000 -0.195092 -0.980785
0.000000 -0.382685 -0.923879
0.000000 -0.555572 -0.831469
-0.000000 -0.707108 -0.707106
-0.000000 -0.831470 -0.555570
-0.000000 -0.923880 -0.382683
0.000000 -0.980785 -0.195093
0.000000 -1.000000 -0.000002
0.000000 -0.980785 0.195091
-0.000000 -0.923880 0.382682
-0.000000 -0.831469 0.555571
-0.000000 -0.707106 0.707107
0.000000 -0.555570 0.831470
-0.000000 -0.382682 0.923880
-0.000000 -0.195090 0.980785
-0.000000 0.000001 1.000000
0.000000 0.195092 0.980785
0.000000 0.382684 0.923879
0.000000 0.555571 0.831469
0.000000 0.707107 0.707107
0.000000 0.831470 0.555570
-0.000000 0.923880 0.382683
-0.000000 0.980785 0.195089
0.000000 1.000000 -0.000001
-0.000000 0.980785 -0.195091
0.000000 0.923879 -0.382684
0.000000 0.831469 -0.555571
-0.000000 0.707106 -0.707107
-0.000000 0.555570 -0.831470
-0.000000 0.382683 -0.923880
0.000000 0.195091 -0.980785
0.000000 0.000000 -1.000000
0.000000 -0.195092 -0.980785
0.000000 -0.382685 -0.923879
0.000000 -0.555572 -0.831469
-0.000000 -0.707108 -0.707106
-0.000000 -0.831470 -0.555570
-0.000000 -0.923880 -0.382683
0.000000 -0.980785 -0.195093
0.000000 -1.000000 -0.000002
0.000000 -0.980785 0.195091
-0.000000 -0.923880 0.382682
-0.000000 -0.831469 0.555571
-0.000000 -0.707106 0.707107
0.000000 -0.555570 0.831470
-0.000000 -0.382682 0.923880
-0.000000 -0.195090 0.980785
-0.000000 0.000001 1.000000
0.000000 0.195092 0.980785
0.000000 0.382684 0.923879
0.000000 0.555571 0.831469
0.000000 0.707107 0.707107
0.000000 0.831470 0.555570
-0.000000 0.923880 0.382683
-0.000000 0.980785 0.195089
0.000000 -0.000000 -1.000000
0.000000 0.195089 -0.980786
0.000000 0.382682 -0.923880
0.000000 0.555569 -0.831470
0.000000 0.707107 -0.707106
0.000000 0.831470 -0.555570
0.000000 0.923879 -0.382684
0.000000 0.980785 -0.195091
0.000000 1.000000 0.000003
0.000000 0.980785 0.195093
0.000000 0.923880 0.382683
0.000000 0.831470 0.555570
0.000000 0.707107 0.707107
0.000000 0.555571 0.831469
0.000000 0.382685 0.923879
0.000000 0.195091 0.980785
0.000000 -0.000000 1.000000
0.000000 -0.195089 0.980786
0.000000 -0.382683 0.923880
0.000000 -0.555570 0.831470
0.000000 -0.707107 0.707106
0.000000 -0.831470 0.555570
0.000000 -0.923879 0.382684
0.000000 -0.980785 0.195091
0.000000 -1.000000 0.000000
0.000000 -0.980785 -0.195090
0.000000 -0.923880 -0.382683
0.000000 -0.831469 -0.555571
0.000000 -0.707107 -0.707107
0.000000 -0.555571 -0.831469
0.000000 -0.382685 -0.923879
0.000000 -0.195091 -0.980785
0.000000 -0.000000 -1.000000
0.000000 0.195089 -0.980786
0.000000 0.382682 -0.923880
0.000000 0.555569 -0.831470
0.000000 0.707107 -0.707106
0.000000 0.831470 -0.555570
0.000000 0.923879 -0.382684
0.000000 0.980785 -0.195091
0.000000 1.000000 0.000003
0.000000 0.980785 0.195093
0.000000 0.923880 0.382683
0.000000 0.831470 0.555570
0.000000 0.707107 0.707107
0.000000 0.555571 0.831469
0.000000 0.382685 0.923879
0.000000 0.195091 0.980785
0.000000 -0.000000 1.000000
0.000000 -0.195089 0.980786
0.000000 -0.382683 0.923880
0.000000 -0.555570 0.831470
0.000000 -0.707107 0.707106
0.000000 -0.831470 0.555570
0.000000 -0.923879 0.382684
0.000000 -0.980785 0.195091
0.000000 -1.000000 0.000000
0.000000 -0.980785 -0.195090
0.000000 -0.923880 -0.382683
0.000000 -0.831469 -0.555571
0.000000 -0.707107 -0.707107
0.000000 -0.555571 -0.831469
0.000000 -0.382685 -0.923879
0.000000 -0.195091 -0.980785
</float_array>
          <technique_common>
            <accessor source="#pCylinder1-Normal0-array" count="128" stride="3">
              <param name="X" type="float"/>
              <param name="Y" type="float"/>
              <param name="Z" type="float"/>
            </accessor>
          </technique_common>
        </source>
        <source id="pCylinder1-UV0">
          <float_array id="pCylinder1-UV0-array" count="264">
0.333333 -0.062049
0.333333 -0.124433
0.333333 -0.186821
0.333333 -0.249212
0.333333 -0.311610
0.333333 -0.374048
0.333333 -0.436499
0.333333 -0.498899
0.333333 -0.561243
0.333333 -0.623527
0.333333 -0.685788
0.333333 -0.748103
0.333333 -0.810549
0.333333 -0.873123
0.333333 -0.935783
0.333333 1.000000
0.333333 -1.000000
0.333333 0.936446
0.333333 0.873785
0.333333 0.811211
0.333333 0.748765
0.333333 0.686450
0.333333 0.624189
0.333333 0.561905
0.333333 0.499562
0.333333 0.437161
0.333333 0.374709
0.333333 0.312271
0.333333 0.249874
0.333333 0.187482
0.333333 0.125094
0.333333 0.062711
0.333333 0.000331
0.666667 -0.062049
0.666667 -0.124432
0.666667 -0.186821
0.666667 -0.249212
0.666667 -0.311609
0.666667 -0.374047
0.666667 -0.436499
0.666667 -0.498899
0.666667 -0.561243
0.666667 -0.623527
0.666667 -0.685788
0.666667 -0.748103
0.666667 -0.810549
0.666667 -0.873123
0.666667 -0.935783
0.666667 1.000000
0.666667 -1.000000
0.666667 0.936445
0.666667 0.873785
0.666667 0.811211
0.666667 0.748765
0.666667 0.686450
0.666667 0.624189
0.666667 0.561905
0.666667 0.499562
0.666667 0.437161
0.666667 0.374709
0.666667 0.312271
0.666667 0.249874
0.666667 0.187483
0.666667 0.125095
0.666667 0.062711
0.666667 0.000331
0.333333 0.437161
0.333333 0.499562
0.333333 0.561905
0.333333 0.624189
0.333333 0.686450
0.333333 0.748765
0.333333 0.811211
0.333333 0.873785
0.333333 0.936446
0.333333 -1.000000
0.333333 1.000000
0.333333 -0.935783
0.333333 -0.873123
0.333333 -0.810549
0.333333 -0.748103
0.333333 -0.685788
0.333333 -0.623527
0.333333 -0.561243
0.333333 -0.498899
0.333333 -0.436499
0.333333 -0.374048
0.333333 -0.311610
0.333333 -0.249212
0.333333 -0.186821
0.333333 -0.124433
0.333333 -0.062049
0.333333 0.000331
0.333333 0.062711
0.333333 0.125094
0.333333 0.187482
0.333333 0.249874
0.333333 0.312271
0.333333 0.374709
0.666667 0.437161
0.666667 0.499562
0.666667 0.561905
0.666667 0.624189
0.666667 0.686450
0.666667 0.748765
0.666667 0.811211
0.666667 0.873785
0.666667 0.936445
0.666667 -1.000000
0.666667 1.000000
0.666667 -0.935783
0.666667 -0.873123
0.666667 -0.810549
0.666667 -0.748103
0.666667 -0.685788
0.666667 -0.623527
0.666667 -0.561243
0.666667 -0.498899
0.666667 -0.436499
0.666667 -0.374047
0.666667 -0.311609
0.666667 -0.249212
0.666667 -0.186821
0.666667 -0.124432
0.666667 -0.062049
0.666667 0.000331
0.666667 0.062711
0.666667 0.125095
0.666667 0.187483
0.666667 0.249874
0.666667 0.312271
0.666667 0.374709
</float_array>
          <technique_common>
            <accessor source="#pCylinder1-UV0-array" count="132" stride="2">
              <param name="S" type="float"/>
              <param name="T" type="float"/>
            </accessor>
          </technique_common>
        </source>
        <vertices id="pCylinder1-VERTEX">
          <input semantic="POSITION" source="#pCylinder1-POSITION"/>
          <input semantic="NORMAL" source="#pCylinder1-Normal0"/>
        </vertices>
        <triangles count="128" material="pipes1">
          <input semantic="VERTEX" offset="0" source="#pCylinder1-VERTEX"/>
          <input semantic="TEXCOORD" offset="1" set="0" source="#pCylinder1-UV0"/>
          <p> 0 0 33 34 32 33 33 34 0 0 1 1 33 34 2 2 34 35 2 2 33 34 1 1 2 2 35 36 34 35 35 36 2 2 3 3 35 36 4 4 36 37 4 4 35 36 3 3 36 37 4 4 37 38 5 5 37 38 4 4 37 38 6 6 38 39 6 6 37 38 5 5 38 39 6 6 39 40 7 7 39 40 6 6 39 40 7 7 40 41 8 8 40 41 7 7 40 41 9 9 41 42 9 9 40 41 8 8 41 42 9 9 42 43 10 10 42 43 9 9 42 43 11 11 43 44 11 11 42 43 10 10 43 44 12 12 44 45 12 12 43 44 11 11 44 45 13 13 45 46 13 13 44 45 12 12 45 46 13 13 46 47 14 14 46 47 13 13 46 47 14 14 47 49 15 16 47 49 14 14 47 48 16 17 48 50 16 17 47 48 15 15 48 50 16 17 49 51 17 18 49 51 16 17 49 51 18 19 50 52 18 19 49 51 17 18 50 52 18 19 51 53 19 20 51 53 18 19 51 53 19 20 52 54 20 21 52 54 19 20 52 54 21 22 53 55 21 22 52 54 20 21 53 55 22 23 54 56 22 23 53 55 21 22 54 56 22 23 55 57 23 24 55 57 22 23 55 57 24 25 56 58 24 25 55 57 23 24 56 58 25 26 57 59 25 26 56 58 24 25 57 59 25 26 58 60 26 27 58 60 25 26 58 60 26 27 59 61 27 28 59 61 26 27 59 61 28 29 60 62 28 29 59 61 27 28 60 62 29 30 61 63 29 30 60 62 28 29 29 30 62 64 61 63 62 64 29 30 30 31 62 64 31 32 63 65 31 32 62 64 30 31 63 65 0 0 32 33 0 0 63 65 31 32 65 67 97 100 96 99 65 67 96 99 64 66 97 100 65 67 98 101 66 68 98 101 65 67 98 101 67 69 99 102 67 69 98 101 66 68 99 102 67 69 100 103 68 70 100 103 67 69 68 70 101 104 100 103 101 104 68 70 69 71 69 71 102 105 101 104 102 105 69 71 70 72 102 105 71 73 103 106 71 73 102 105 70 72 71 73 104 107 103 106 104 107 71 73 72 74 104 107 73 76 105 109 73 76 104 107 72 74 73 75 106 110 105 108 106 110 73 75 74 77 74 77 107 111 106 110 107 111 74 77 75 78 75 78 108 112 107 111 108 112 75 78 76 79 108 112 76 79 109 113 77 80 109 113 76 79 109 113 77 80 110 114 78 81 110 114 77 80 110 114 79 82 111 115 79 82 110 114 78 81 111 115 79 82 112 116 80 83 112 116 79 82 112 116 81 84 113 117 81 84 112 116 80 83 113 117 81 84 114 118 82 85 114 118 81 84 114 118 83 86 115 119 83 86 114 118 82 85 115 119 83 86 116 120 84 87 116 120 83 86 116 120 84 87 117 121 85 88 117 121 84 87 117 121 85 88 118 122 86 89 118 122 85 88 118 122 86 89 119 123 87 90 119 123 86 89 119 123 87 90 120 124 88 91 120 124 87 90 120 124 88 91 121 125 89 92 121 125 88 91 121 125 90 93 122 126 90 93 121 125 89 92 122 126 90 93 123 127 91 94 123 127 90 93 123 127 92 95 124 128 92 95 123 127 91 94 124 128 93 96 125 129 93 96 124 128 92 95 125 129 93 96 126 130 94 97 126 130 93 96 126 130 95 98 127 131 95 98 126 130 94 97 127 131 95 98 96 99 64 66 96 99 95 98</p>
        </triangles>
      </mesh>
    </geometry>
  </library_geometries>
  <library_visual_scenes>
    <visual_scene id="" name="">
      <node name="pCylinder1" id="pCylinder1" sid="pCylinder1">
        <matrix sid="matrix">1.000000 0.000000 0.000000 0.000000 0.000000 1.000000 0.000000 0.000000 0.000000 0.000000 1.000000 0.000000 0.000000 0.000000 0.000000 1.000000</matrix>
        <instance_geometry url="#pCylinder1-lib">
          <bind_material>
            <technique_common>
              <instance_material symbol="pipes1" target="#pipes1"/>
            </technique_common>
          </bind_material>
        </instance_geometry>
        <extra>
          <technique profile="FCOLLADA">
            <visibility>1.000000</visibility>
          </technique>
        </extra>
      </node>
      <extra>
        <technique profile="MAX3D">
          <frame_rate>24.000000</frame_rate>
        </technique>
        <technique profile="FCOLLADA">
          <start_time>0.041667</start_time>
          <end_time>2.000000</end_time>
        </technique>
      </extra>
    </visual_scene>
  </library_visual_scenes>
  <scene>
    <instance_visual_scene url="#"></instance_visual_scene>
  </scene>
</COLLADA>

