<?xml version="1.0" encoding="utf-8"?>
<COLLADA xmlns="http://www.collada.org/2005/11/COLLADASchema" version="1.4.1">
  <asset>
    <contributor>
      <author></author>
      <authoring_tool>FBX COLLADA exporter</authoring_tool>
      <comments></comments>
    </contributor>
    <created>2012-07-30T15:16:28Z</created>
    <keywords></keywords>
    <modified>2012-07-30T15:16:28Z</modified>
    <revision></revision>
    <subject></subject>
    <title></title>
    <unit meter="0.010000" name="centimeter"></unit>
    <up_axis>Y_UP</up_axis>
  </asset>
  <library_images>
    <image id="file2-image" name="file2">
      <init_from>file://C:/Users/sindre/Desktop/Sindre/Amnesia - Freelance/Amnesia - Source/StaticObjects/engineroom/machinery/engineroom_atlas_02.tga</init_from>
    </image>
  </library_images>
  <library_materials>
    <material id="phong2" name="phong2">
      <instance_effect url="#phong2-fx"/>
    </material>
  </library_materials>
  <library_effects>
    <effect id="phong2-fx" name="phong2">
      <profile_COMMON>
        <technique sid="standard">
          <phong>
            <emission>
              <color sid="emission">0.000000  0.000000 0.000000 1.000000</color>
            </emission>
            <ambient>
              <color sid="ambient">0.000000  0.000000 0.000000 1.000000</color>
            </ambient>
            <diffuse>
              <texture texture="file2-image" texcoord="CHANNEL0">
                <extra>
                  <technique profile="MAYA">
                    <wrapU sid="wrapU0">TRUE</wrapU>
                    <wrapV sid="wrapV0">TRUE</wrapV>
                    <blend_mode>NONE</blend_mode>
                  </technique>
                </extra>
              </texture>
            </diffuse>
            <specular>
              <color sid="specular">0.500000  0.500000 0.500000 1.000000</color>
            </specular>
            <shininess>
              <float sid="shininess">20.000000</float>
            </shininess>
            <reflective>
              <color sid="reflective">0.000000  0.000000 0.000000 1.000000</color>
            </reflective>
            <reflectivity>
              <float sid="reflectivity">0.500000</float>
            </reflectivity>
            <transparent opaque="RGB_ZERO">
              <color sid="transparent">0.000000  0.000000 0.000000 1.000000</color>
            </transparent>
            <transparency>
              <float sid="transparency">1.000000</float>
            </transparency>
          </phong>
        </technique>
      </profile_COMMON>
    </effect>
  </library_effects>
  <library_geometries>
    <geometry id="engine_tank_02_cap1-lib" name="engine_tank_02_cap1Mesh">
      <mesh>
        <source id="engine_tank_02_cap1-POSITION">
          <float_array id="engine_tank_02_cap1-POSITION-array" count="867">
-182.883118 29.906494 36.394287
-172.267395 29.906494 71.390045
-155.028137 29.906494 103.642273
-131.828247 29.906494 131.911591
-103.558899 29.906494 155.111694
-71.306641 29.906494 172.350952
-36.310913 29.906494 182.966766
0.083496 29.906494 186.551300
36.477783 29.906494 182.966827
71.473511 29.906494 172.350952
103.725830 29.906494 155.111786
131.995239 29.906494 131.911804
155.195313 29.906494 103.642456
172.434570 29.906494 71.390167
183.050415 29.906494 36.394409
186.634888 29.906494 0.000092
183.050415 29.906494 -36.394318
172.434570 29.906494 -71.390076
155.195435 29.906494 -103.642334
131.995361 29.906494 -131.911652
103.725952 29.906494 -155.111786
71.473755 29.906494 -172.351013
36.478027 29.906494 -182.966888
0.083618 29.906494 -186.551453
-36.310791 29.906494 -182.966888
-71.306519 29.906494 -172.351074
-103.558899 29.906494 -155.111908
-131.828247 29.906494 -131.911804
-155.028259 29.906494 -103.642426
-172.267578 29.906494 -71.390137
-182.883301 29.906494 -36.394379
-186.467896 29.906494 0.000031
-158.689026 66.483093 31.581787
-149.476990 66.483093 61.949921
-134.517395 66.483093 89.937378
-114.385193 66.483093 114.468628
-89.853882 66.483093 134.600891
-61.866577 66.483093 149.560547
-31.498291 66.483093 158.772614
0.083496 66.483093 161.883148
31.665283 66.483093 158.772614
62.033569 66.483093 149.560547
90.020996 66.483093 134.600983
114.552246 66.483093 114.468750
134.684448 66.483093 89.937592
149.644043 66.483093 61.950043
158.856201 66.483093 31.581909
161.966675 66.483093 0.000092
158.856201 66.483093 -31.581787
149.644165 66.483093 -61.949951
134.684570 66.483093 -89.937439
114.552246 66.483093 -114.468689
90.021118 66.483093 -134.600983
62.033691 66.483093 -149.560638
31.665527 66.483093 -158.772675
0.083618 66.483093 -161.883301
-31.498291 66.483093 -158.772766
-61.866577 66.483093 -149.560699
-89.853882 66.483093 -134.601044
-114.385254 66.483093 -114.468750
-134.517456 66.483093 -89.937561
-149.477112 66.483093 -61.950043
-158.689209 66.483093 -31.581848
-161.799744 66.483093 0.000031
-126.533325 97.028259 25.185638
-119.187012 97.028259 49.403412
-107.257080 97.028259 71.722717
-91.202271 97.028259 91.285675
-71.639160 97.028259 107.340637
-49.320068 97.028259 119.270538
-25.102173 97.028259 126.616974
0.083496 97.028259 129.097565
25.269165 97.028259 126.616974
49.487061 97.028259 119.270630
71.806152 97.028259 107.340729
91.369263 97.028259 91.285797
107.424316 97.028259 71.722839
119.354126 97.028259 49.403564
126.700562 97.028259 25.185730
129.181152 97.028259 0.000061
126.700562 97.028259 -25.185608
119.354126 97.028259 -49.403442
107.424316 97.028259 -71.722748
91.369385 97.028259 -91.285736
71.806396 97.028259 -107.340668
49.487061 97.028259 -119.270630
25.269287 97.028259 -126.616974
0.083618 97.028259 -129.097626
-25.102173 97.028259 -126.616974
-49.319946 97.028259 -119.270630
-71.639160 97.028259 -107.340759
-91.202271 97.028259 -91.285828
-107.257141 97.028259 -71.722809
-119.187073 97.028259 -49.403534
-126.533569 97.028259 -25.185699
-129.014099 97.028259 0.000031
-88.028564 120.010864 17.526581
-82.916260 120.010864 34.379669
-74.614380 120.010864 49.911499
-63.441772 120.010864 63.525299
-49.828003 120.010864 74.697906
-34.296143 120.010864 82.999847
-17.442993 120.010864 88.112213
0.083618 120.010864 89.838409
17.610107 120.010864 88.112213
34.463135 120.010864 82.999847
49.995117 120.010864 74.697906
63.608765 120.010864 63.525391
74.781372 120.010864 49.911560
83.083374 120.010864 34.379730
88.195679 120.010864 17.526642
89.921875 120.010864 0.000061
88.195801 120.010864 -17.526581
83.083374 120.010864 -34.379639
74.781494 120.010864 -49.911530
63.608887 120.010864 -63.525299
49.995117 120.010864 -74.697906
34.463257 120.010864 -82.999847
17.610229 120.010864 -88.112213
0.083618 120.010864 -89.838440
-17.442993 120.010864 -88.112213
-34.296143 120.010864 -82.999908
-49.828003 120.010864 -74.697937
-63.441772 120.010864 -63.525391
-74.614380 120.010864 -49.911560
-82.916382 120.010864 -34.379669
-88.028687 120.010864 -17.526611
-89.754883 120.010864 0.000031
-45.105469 134.278015 8.988647
-42.483643 134.278015 17.631866
-38.225952 134.278015 25.597565
-32.495972 134.278015 32.579468
-25.514038 134.278015 38.309448
-17.548340 134.278015 42.567200
-8.905151 134.278015 45.189056
0.083618 134.278015 46.074371
9.072266 134.278015 45.189056
17.715454 134.278015 42.567200
25.681030 134.278015 38.309448
32.662964 134.278015 32.579559
38.392944 134.278015 25.597565
42.650757 134.278015 17.631958
45.272705 134.278015 8.988678
46.157959 134.278015 0.000031
45.272705 134.278015 -8.988617
42.650757 134.278015 -17.631866
38.393066 134.278015 -25.597504
32.663086 134.278015 -32.579468
25.681152 134.278015 -38.309448
17.715454 134.278015 -42.567139
9.072266 134.278015 -45.189056
0.083618 134.278015 -46.074402
-8.905029 134.278015 -45.189087
-17.548340 134.278015 -42.567200
-25.514038 134.278015 -38.309479
-32.495972 134.278015 -32.579529
-38.225952 134.278015 -25.597565
-42.483643 134.278015 -17.631866
-45.105469 134.278015 -8.988647
-45.990845 134.278015 0.000031
0.083618 139.114807 0.000031
140.196411 5.578247 -140.111847
164.839233 5.578247 -110.085205
183.149658 5.578247 -75.827911
194.425537 5.578247 -38.656799
198.233032 5.578247 -0.000031
194.425537 5.578247 38.656769
183.149658 5.578247 75.827942
164.839233 5.578247 110.085114
140.196655 5.578247 140.111725
110.170288 5.578247 164.754059
75.912720 5.578247 183.064850
38.741577 5.578247 194.340637
0.084839 5.578003 198.147980
-38.571899 5.578186 194.340546
-75.742920 5.578186 183.064850
-110.000244 5.578125 164.754059
-140.027039 5.578186 140.111725
-164.669434 5.578186 110.085052
-182.980225 5.578186 75.827942
-194.255676 5.578186 38.656769
-198.063293 5.578186 -0.000031
-194.255920 5.578186 -38.656799
-182.980042 5.578186 -75.827911
-164.669189 5.578186 -110.085083
-140.027039 5.578186 -140.111786
-110.000244 5.578186 -164.753906
-75.742920 5.578186 -183.064697
-38.571899 5.578247 -194.340637
0.084839 5.578247 -198.148071
38.741699 5.578247 -194.340698
75.912842 5.578247 -183.065033
110.170044 5.578247 -164.754059
118.511719 5.496643 177.239807
81.658691 5.495850 196.938324
41.670044 5.495850 209.068542
0.084229 5.495850 213.164398
-41.502197 5.496765 209.068542
-81.490845 5.495850 196.938324
-118.343994 5.497009 177.239929
-150.646423 5.496277 150.730042
-177.156067 5.495850 118.427887
-196.854980 5.495850 81.574524
-208.984985 5.495850 41.586304
-213.081116 5.495850 -0.000061
-208.984741 5.496277 -41.586273
-196.854248 5.495850 -81.574280
-177.156067 5.495850 -118.427612
-150.646423 5.495850 -150.730042
-118.343994 5.495850 -177.239594
-81.490845 5.495850 -196.938110
-41.502197 5.495850 -209.068420
0.084229 5.495850 -213.164307
41.670044 5.495850 -209.068481
81.657959 5.495850 -196.938232
118.511719 5.496643 -177.239868
150.814209 5.495850 -150.730255
177.323853 5.495850 -118.428009
197.022095 5.496643 -81.574554
209.153076 5.496643 -41.586456
213.248535 5.496643 -0.000122
209.153076 5.496643 41.586243
197.022095 5.495850 81.574463
177.323853 5.495850 118.427673
150.814209 5.495850 150.729919
78.317627 5.543823 -188.871887
113.661499 5.543945 -169.980164
144.640625 5.543823 -144.556305
170.064819 5.543823 -113.577209
188.956177 5.543945 -78.233246
200.590088 5.543945 -39.883026
204.517944 5.543945 -0.000061
200.589966 5.543945 39.882935
188.956177 5.543823 78.233276
170.064819 5.543823 113.577057
144.640747 5.543823 144.556122
113.661743 5.543945 169.980164
78.317749 5.543823 188.871765
39.967407 5.543823 200.505219
0.084473 5.543762 204.433380
-39.798462 5.543945 200.505157
-78.148804 5.543762 188.871765
-113.492737 5.543945 169.980225
-144.471924 5.543823 144.556183
-169.895935 5.543762 113.577118
-188.787781 5.543762 78.233276
-200.420959 5.543762 39.882996
-204.349182 5.543762 -0.000031
-200.420898 5.543823 -39.882965
-188.787231 5.543762 -78.233154
-169.895752 5.543762 -113.576996
-144.471924 5.543762 -144.556244
-113.492737 5.543762 -169.980011
-78.148804 5.543762 -188.871613
-39.798462 5.543823 -200.505157
0.084473 5.543823 -204.433350
39.967407 5.543823 -200.505219
-202.868286 -0.738281 -84.030731
-215.363831 -0.738281 -42.838470
-219.583374 -0.738281 -0.000092
-215.364075 -0.738281 42.838531
-202.868530 -0.738281 84.030762
-182.577026 -0.738281 121.993805
-155.268921 -0.738281 155.268555
-121.994019 -0.738281 182.576569
-84.031006 -0.738281 202.868225
-42.838501 -0.738525 215.363617
-0.000122 -0.738525 219.582916
42.838257 -0.738525 215.363617
84.030762 -0.738525 202.867966
121.993774 -0.738525 182.576355
155.268799 -0.738525 155.268463
182.576782 -0.738525 121.993652
202.868408 -0.738525 84.030670
215.364014 -0.738525 42.838318
219.583374 -0.738525 -0.000122
215.364014 -0.738525 -42.838593
202.868164 -0.738525 -84.030945
182.576538 -0.738525 -121.993774
155.268433 -0.738525 -155.268768
121.993774 -0.738525 -182.576569
84.030273 -0.738525 -202.868195
42.838257 -0.738525 -215.363647
-0.000244 -0.738525 -219.582916
-42.838623 -0.738281 -215.363647
-84.031006 -0.738281 -202.868103
-121.994019 -0.738281 -182.576508
-155.268921 -0.738281 -155.268433
-182.576660 -0.738281 -121.993652
</float_array>
          <technique_common>
            <accessor source="#engine_tank_02_cap1-POSITION-array" count="289" stride="3">
              <param name="X" type="float"/>
              <param name="Y" type="float"/>
              <param name="Z" type="float"/>
            </accessor>
          </technique_common>
        </source>
        <source id="engine_tank_02_cap1-Normal0">
          <float_array id="engine_tank_02_cap1-Normal0-array" count="867">
-0.851589 0.496087 0.169393
-0.802179 0.496090 0.332272
-0.721940 0.496091 0.482385
-0.613960 0.496092 0.613959
-0.482385 0.496094 0.721939
-0.332272 0.496096 0.802175
-0.169390 0.496100 0.851582
-0.000001 0.496104 0.868263
0.169389 0.496108 0.851577
0.332267 0.496113 0.802166
0.482376 0.496116 0.721929
0.613948 0.496119 0.613949
0.721926 0.496122 0.482375
0.802161 0.496123 0.332265
0.851568 0.496124 0.169388
0.868251 0.496125 0.000000
0.851568 0.496124 -0.169388
0.802161 0.496122 -0.332265
0.721926 0.496122 -0.482376
0.613948 0.496118 -0.613950
0.482379 0.496115 -0.721928
0.332269 0.496112 -0.802166
0.169389 0.496109 -0.851577
-0.000000 0.496104 -0.868263
-0.169391 0.496099 -0.851582
-0.332272 0.496093 -0.802176
-0.482385 0.496091 -0.721941
-0.613961 0.496090 -0.613960
-0.721942 0.496087 -0.482386
-0.802180 0.496086 -0.332274
-0.851590 0.496086 -0.169392
-0.868273 0.496086 0.000003
-0.745629 0.649646 0.148317
-0.702367 0.649646 0.290930
-0.632114 0.649646 0.422365
-0.537569 0.649646 0.537568
-0.422366 0.649646 0.632113
-0.290931 0.649646 0.702367
-0.148315 0.649646 0.745629
-0.000000 0.649646 0.760237
0.148314 0.649646 0.745629
0.290930 0.649646 0.702368
0.422364 0.649646 0.632114
0.537568 0.649646 0.537569
0.632114 0.649646 0.422365
0.702367 0.649646 0.290930
0.745629 0.649646 0.148315
0.760237 0.649646 0.000000
0.745629 0.649646 -0.148314
0.702367 0.649646 -0.290929
0.632114 0.649646 -0.422365
0.537569 0.649646 -0.537568
0.422366 0.649646 -0.632113
0.290930 0.649646 -0.702367
0.148315 0.649646 -0.745629
0.000001 0.649646 -0.760237
-0.148315 0.649646 -0.745629
-0.290930 0.649646 -0.702367
-0.422365 0.649646 -0.632113
-0.537568 0.649646 -0.537568
-0.632114 0.649646 -0.422365
-0.702367 0.649646 -0.290930
-0.745629 0.649646 -0.148315
-0.760237 0.649646 0.000003
-0.585541 0.802232 0.116473
-0.551568 0.802232 0.228466
-0.496398 0.802232 0.331682
-0.422152 0.802232 0.422152
-0.331683 0.802232 0.496398
-0.228468 0.802232 0.551567
-0.116471 0.802232 0.585541
0.000000 0.802231 0.597013
0.116471 0.802231 0.585542
0.228467 0.802232 0.551568
0.331682 0.802232 0.496398
0.422151 0.802232 0.422152
0.496398 0.802232 0.331683
0.551568 0.802232 0.228467
0.585541 0.802232 0.116472
0.597013 0.802232 0.000000
0.585541 0.802232 -0.116471
0.551568 0.802232 -0.228466
0.496398 0.802232 -0.331682
0.422152 0.802232 -0.422152
0.331683 0.802232 -0.496397
0.228467 0.802232 -0.551567
0.116472 0.802232 -0.585541
0.000000 0.802232 -0.597012
-0.116471 0.802232 -0.585541
-0.228467 0.802232 -0.551567
-0.331682 0.802232 -0.496398
-0.422151 0.802232 -0.422152
-0.496398 0.802232 -0.331682
-0.551567 0.802232 -0.228468
-0.585541 0.802232 -0.116472
-0.597012 0.802232 0.000003
-0.402018 0.912133 0.079968
-0.378693 0.912133 0.156859
-0.340815 0.912133 0.227725
-0.289839 0.912133 0.289839
-0.227725 0.912133 0.340814
-0.156860 0.912133 0.378693
-0.079966 0.912133 0.402018
0.000000 0.912133 0.409894
0.079966 0.912133 0.402018
0.156860 0.912133 0.378693
0.227725 0.912133 0.340814
0.289838 0.912133 0.289839
0.340813 0.912133 0.227725
0.378692 0.912133 0.156860
0.402018 0.912133 0.079966
0.409894 0.912133 0.000001
0.402018 0.912133 -0.079966
0.378693 0.912133 -0.156860
0.340814 0.912133 -0.227724
0.289839 0.912133 -0.289838
0.227725 0.912133 -0.340814
0.156860 0.912133 -0.378692
0.079967 0.912133 -0.402018
0.000000 0.912133 -0.409894
-0.079966 0.912133 -0.402018
-0.156859 0.912133 -0.378693
-0.227725 0.912133 -0.340814
-0.289839 0.912133 -0.289839
-0.340814 0.912133 -0.227725
-0.378692 0.912133 -0.156860
-0.402017 0.912133 -0.079966
-0.409893 0.912133 0.000001
-0.204305 0.978063 0.040639
-0.192452 0.978063 0.079715
-0.173202 0.978063 0.115729
-0.147296 0.978063 0.147296
-0.115730 0.978063 0.173202
-0.079716 0.978063 0.192451
-0.040639 0.978063 0.204305
0.000000 0.978063 0.208308
0.040639 0.978063 0.204305
0.079716 0.978063 0.192451
0.115730 0.978063 0.173201
0.147296 0.978063 0.147296
0.173201 0.978063 0.115730
0.192451 0.978063 0.079717
0.204306 0.978063 0.040639
0.208308 0.978063 0.000000
0.204305 0.978063 -0.040639
0.192451 0.978063 -0.079716
0.173202 0.978063 -0.115729
0.147296 0.978063 -0.147296
0.115730 0.978063 -0.173201
0.079716 0.978063 -0.192451
0.040639 0.978063 -0.204305
0.000000 0.978063 -0.208308
-0.040639 0.978063 -0.204305
-0.079715 0.978063 -0.192451
-0.115730 0.978063 -0.173202
-0.147296 0.978063 -0.147296
-0.173202 0.978063 -0.115729
-0.192451 0.978063 -0.079715
-0.204305 0.978063 -0.040638
-0.208308 0.978063 0.000000
0.000000 1.000000 0.000000
0.378284 0.844868 -0.378284
0.444812 0.844870 -0.297215
0.494245 0.844873 -0.204722
0.524684 0.844876 -0.104367
0.534961 0.844876 0.000000
0.524686 0.844874 0.104368
0.494248 0.844871 0.204724
0.444814 0.844869 0.297215
0.378283 0.844869 0.378283
0.297215 0.844869 0.444814
0.204726 0.844865 0.494257
0.104369 0.844863 0.524703
0.000000 0.844864 0.534981
-0.104370 0.844862 0.524705
-0.204732 0.844858 0.494267
-0.297225 0.844858 0.444829
-0.378299 0.844855 0.378298
-0.444837 0.844852 0.297230
-0.494279 0.844850 0.204736
-0.524726 0.844848 0.104375
-0.535006 0.844848 0.000002
-0.524725 0.844849 -0.104375
-0.494281 0.844848 -0.204739
-0.444841 0.844848 -0.297233
-0.378305 0.844850 -0.378305
-0.297231 0.844850 -0.444839
-0.204736 0.844852 -0.494275
-0.104374 0.844856 -0.524714
-0.000000 0.844858 -0.534990
0.104370 0.844861 -0.524706
0.204728 0.844865 -0.494257
0.297217 0.844868 -0.444815
0.210990 0.925092 0.315733
0.145138 0.925305 0.350350
0.073895 0.925539 0.371372
0.000031 0.925783 0.378057
-0.073614 0.926025 0.370215
-0.144208 0.926256 0.348216
-0.209082 0.926469 0.312954
-0.265807 0.926653 0.265821
-0.312252 0.926802 0.208654
-0.346709 0.926912 0.143621
-0.367902 0.926980 0.073185
-0.375051 0.927004 0.000002
-0.367895 0.926983 -0.073186
-0.346701 0.926915 -0.143621
-0.312252 0.926802 -0.208655
-0.265806 0.926651 -0.265830
-0.209085 0.926468 -0.312955
-0.144209 0.926257 -0.348211
-0.073614 0.926026 -0.370211
0.000025 0.925784 -0.378054
0.073894 0.925541 -0.371367
0.145134 0.925309 -0.350342
0.210987 0.925094 -0.315731
0.268863 0.924901 -0.268831
0.316448 0.924747 -0.211433
0.351867 0.924634 -0.145745
0.373708 0.924563 -0.074332
0.381087 0.924539 0.000000
0.373708 0.924563 0.074336
0.351866 0.924634 0.145744
0.316444 0.924750 0.211424
0.268857 0.924904 0.268826
0.002091 0.999985 -0.005059
0.003034 0.999985 -0.004541
0.003874 0.999985 -0.003868
0.004549 0.999985 -0.003045
0.005033 0.999985 -0.002089
0.005333 0.999985 -0.001061
0.005438 0.999985 0.000000
0.005344 0.999985 0.001067
0.005056 0.999985 0.002099
0.004561 0.999985 0.003048
0.003874 0.999985 0.003868
0.003034 0.999985 0.004541
0.002091 0.999985 0.005059
0.001069 0.999985 0.005376
0.000005 0.999985 0.005462
-0.001063 0.999985 0.005345
-0.002085 0.999985 0.005035
-0.003019 0.999985 0.004522
-0.003858 0.999985 0.003849
-0.004554 0.999985 0.003040
-0.005064 0.999985 0.002098
-0.005376 0.999985 0.001069
-0.005475 0.999985 0.000002
-0.005363 0.999985 -0.001067
-0.005058 0.999985 -0.002098
-0.004558 0.999985 -0.003046
-0.003876 0.999985 -0.003876
-0.003046 0.999985 -0.004558
-0.002099 0.999985 -0.005065
-0.001070 0.999985 -0.005379
-0.000000 0.999985 -0.005486
0.001070 0.999985 -0.005380
-0.639699 0.721501 -0.264992
-0.678857 0.721745 -0.135046
-0.692069 0.721831 -0.000001
-0.678853 0.721749 0.135042
-0.639704 0.721497 0.264992
-0.576068 0.721084 0.384946
-0.490323 0.720504 0.490364
-0.385628 0.719810 0.577204
-0.265913 0.719035 0.642089
-0.135708 0.718184 0.682492
0.000048 0.717305 0.696759
0.136152 0.716422 0.684253
0.267366 0.715546 0.645375
0.388588 0.714744 0.581498
0.495055 0.714064 0.495008
0.582581 0.713508 0.389237
0.647734 0.713067 0.268285
0.687917 0.712775 0.136830
0.701495 0.712674 0.000000
0.687929 0.712763 -0.136832
0.647761 0.713037 -0.268298
0.582602 0.713482 -0.389254
0.495063 0.714054 -0.495015
0.388584 0.714750 -0.581494
0.267359 0.715560 -0.645363
0.136150 0.716431 -0.684244
0.000047 0.717328 -0.696736
-0.135701 0.718223 -0.682452
-0.265900 0.719076 -0.642049
-0.385604 0.719854 -0.577165
-0.490302 0.720530 -0.490346
-0.576064 0.721090 -0.384941
</float_array>
          <technique_common>
            <accessor source="#engine_tank_02_cap1-Normal0-array" count="289" stride="3">
              <param name="X" type="float"/>
              <param name="Y" type="float"/>
              <param name="Z" type="float"/>
            </accessor>
          </technique_common>
        </source>
        <source id="engine_tank_02_cap1-UV0">
          <float_array id="engine_tank_02_cap1-UV0-array" count="578">
0.758552 0.474300
0.803137 0.487825
0.791110 0.516860
0.752421 0.505124
0.844226 0.509787
0.826766 0.535918
0.880241 0.539344
0.858019 0.561567
0.909798 0.575360
0.883667 0.592820
0.931761 0.616449
0.902726 0.628476
0.945286 0.661034
0.914462 0.667165
0.949853 0.707401
0.918425 0.707401
0.945286 0.753767
0.914462 0.747636
0.931761 0.798352
0.902726 0.786325
0.909799 0.839441
0.883668 0.821981
0.880242 0.875457
0.858019 0.853234
0.844226 0.905014
0.826766 0.878883
0.803137 0.926977
0.791110 0.897942
0.758552 0.940501
0.752421 0.909678
0.712185 0.945068
0.712185 0.913641
0.665819 0.940501
0.671950 0.909678
0.621234 0.926977
0.633261 0.897942
0.580144 0.905014
0.597604 0.878883
0.544129 0.875457
0.566351 0.853234
0.514572 0.839442
0.540703 0.821982
0.492609 0.798352
0.521644 0.786325
0.479084 0.753767
0.509908 0.747636
0.474518 0.707401
0.505945 0.707401
0.479084 0.661034
0.509908 0.667165
0.492609 0.616449
0.521644 0.628476
0.514572 0.575360
0.540703 0.592820
0.544129 0.539344
0.566351 0.561567
0.580144 0.509787
0.597604 0.535918
0.621234 0.487824
0.633261 0.516860
0.665819 0.474300
0.671950 0.505123
0.712185 0.469733
0.712185 0.501160
0.775125 0.555449
0.744272 0.546090
0.803560 0.570648
0.828484 0.591102
0.848938 0.616025
0.864137 0.644460
0.873496 0.675314
0.876656 0.707401
0.873496 0.739487
0.864137 0.770341
0.848938 0.798776
0.828484 0.823699
0.803560 0.844153
0.775126 0.859352
0.744272 0.868711
0.712185 0.871872
0.680099 0.868711
0.649245 0.859352
0.620810 0.844153
0.595887 0.823699
0.575433 0.798776
0.560234 0.770341
0.550874 0.739487
0.547714 0.707401
0.550874 0.675314
0.560234 0.644460
0.575433 0.616025
0.595887 0.591102
0.620810 0.570648
0.649245 0.555449
0.680098 0.546090
0.712185 0.542930
0.755985 0.601658
0.734514 0.595145
0.775773 0.612235
0.793117 0.626469
0.807351 0.643813
0.817927 0.663601
0.824441 0.685072
0.826640 0.707401
0.824441 0.729730
0.817927 0.751200
0.807351 0.770988
0.793117 0.788332
0.775773 0.802566
0.755985 0.813143
0.734514 0.819656
0.712185 0.821855
0.689856 0.819656
0.668385 0.813143
0.648598 0.802566
0.631254 0.788332
0.617020 0.770988
0.606443 0.751201
0.599930 0.729730
0.597731 0.707401
0.599930 0.685072
0.606443 0.663601
0.617020 0.643813
0.631253 0.626469
0.648598 0.612235
0.668385 0.601658
0.689856 0.595145
0.712185 0.592946
0.734648 0.653170
0.723637 0.649830
0.744797 0.658594
0.753692 0.665894
0.760992 0.674789
0.766416 0.684937
0.769756 0.695949
0.770884 0.707401
0.769756 0.718852
0.766416 0.729864
0.760992 0.740012
0.753692 0.748907
0.744797 0.756207
0.734648 0.761632
0.723637 0.764972
0.712185 0.766100
0.700734 0.764972
0.689722 0.761632
0.679574 0.756207
0.670679 0.748907
0.663379 0.740012
0.657955 0.729864
0.654614 0.718852
0.653486 0.707401
0.654614 0.695949
0.657954 0.684937
0.663379 0.674789
0.670679 0.665894
0.679574 0.658594
0.689722 0.653170
0.700734 0.649830
0.712185 0.648702
0.712185 0.707401
0.571936 0.917300
0.533682 0.885905
0.615580 0.940628
0.662936 0.954993
0.712185 0.959844
0.761434 0.954993
0.808791 0.940628
0.852434 0.917300
0.890688 0.885906
0.922083 0.847652
0.945411 0.804007
0.959776 0.756651
0.964627 0.707402
0.959776 0.658153
0.945411 0.610797
0.922083 0.567153
0.890688 0.528899
0.852434 0.497504
0.808791 0.474176
0.761434 0.459811
0.712185 0.454960
0.662936 0.459811
0.615580 0.474177
0.571936 0.497505
0.533682 0.528899
0.502288 0.567153
0.478960 0.610797
0.464594 0.658153
0.459744 0.707402
0.464594 0.756651
0.478959 0.804007
0.502288 0.847651
0.605171 0.449045
0.657630 0.433132
0.659204 0.441047
0.608259 0.456501
0.712185 0.427758
0.712185 0.435828
0.766741 0.433132
0.765167 0.441046
0.819200 0.449045
0.816112 0.456500
0.867546 0.474886
0.863063 0.481596
0.909922 0.509663
0.904216 0.515370
0.944700 0.552040
0.937990 0.556523
0.970541 0.600386
0.963086 0.603474
0.986454 0.652846
0.978540 0.654420
0.991828 0.707401
0.983758 0.707402
0.986454 0.761956
0.978540 0.760382
0.970541 0.814416
0.963086 0.811328
0.944699 0.862762
0.937990 0.858279
0.909922 0.905139
0.904216 0.899432
0.867546 0.939916
0.863063 0.933206
0.819200 0.965757
0.816112 0.958301
0.766741 0.981671
0.765167 0.973756
0.712185 0.987045
0.712185 0.978974
0.657630 0.981671
0.659204 0.973756
0.605170 0.965757
0.608259 0.958301
0.556824 0.939916
0.561307 0.933206
0.514448 0.905138
0.520154 0.899432
0.479671 0.862762
0.486381 0.858279
0.453829 0.814415
0.461285 0.811327
0.437916 0.761956
0.445831 0.760382
0.432543 0.707401
0.440613 0.707402
0.437916 0.652846
0.445831 0.654420
0.453830 0.600386
0.461285 0.603474
0.479671 0.552040
0.486381 0.556523
0.514449 0.509663
0.520154 0.515370
0.556824 0.474887
0.561308 0.481596
0.928741 0.852100
0.952809 0.807071
0.967630 0.758213
0.972634 0.707402
0.967630 0.656591
0.952809 0.607732
0.928741 0.562704
0.896351 0.523236
0.856883 0.490846
0.811855 0.466778
0.762996 0.451957
0.712185 0.446952
0.661374 0.451957
0.612516 0.466778
0.567488 0.490846
0.528020 0.523236
0.495630 0.562704
0.471562 0.607732
0.456741 0.656591
0.451736 0.707402
0.456740 0.758213
0.471561 0.807071
0.495630 0.852100
0.528020 0.891567
0.567487 0.923958
0.612516 0.948025
0.661374 0.962847
0.712185 0.967851
0.762996 0.962847
0.811855 0.948025
0.856883 0.923958
0.896351 0.891567
</float_array>
          <technique_common>
            <accessor source="#engine_tank_02_cap1-UV0-array" count="289" stride="2">
              <param name="S" type="float"/>
              <param name="T" type="float"/>
            </accessor>
          </technique_common>
        </source>
        <vertices id="engine_tank_02_cap1-VERTEX">
          <input semantic="POSITION" source="#engine_tank_02_cap1-POSITION"/>
          <input semantic="NORMAL" source="#engine_tank_02_cap1-Normal0"/>
        </vertices>
        <triangles count="544" material="phong2">
          <input semantic="VERTEX" offset="0" source="#engine_tank_02_cap1-VERTEX"/>
          <input semantic="TEXCOORD" offset="1" set="0" source="#engine_tank_02_cap1-UV0"/>
          <p> 33 2 0 0 1 1 0 0 33 2 32 3 34 5 1 1 2 4 1 1 34 5 33 2 35 7 2 4 3 6 2 4 35 7 34 5 35 7 4 8 36 9 4 8 35 7 3 6 36 9 5 10 37 11 5 10 36 9 4 8 37 11 6 12 38 13 6 12 37 11 5 10 38 13 7 14 39 15 7 14 38 13 6 12 40 17 39 15 7 14 40 17 7 14 8 16 41 19 40 17 8 16 8 16 9 18 41 19 41 19 9 18 42 21 9 18 10 20 42 21 42 21 10 20 43 23 10 20 11 22 43 23 43 23 12 24 44 25 12 24 43 23 11 22 44 25 13 26 45 27 13 26 44 25 12 24 45 27 14 28 46 29 14 28 45 27 13 26 46 29 15 30 47 31 15 30 46 29 14 28 47 31 15 30 48 33 15 30 16 32 48 33 48 33 16 32 49 35 16 32 17 34 49 35 18 36 50 37 17 34 49 35 17 34 50 37 19 38 51 39 18 36 50 37 18 36 51 39 20 40 51 39 19 38 51 39 20 40 52 41 21 42 52 41 20 40 52 41 21 42 53 43 22 44 53 43 21 42 53 43 22 44 54 45 23 46 54 45 22 44 54 45 23 46 55 47 56 49 23 46 24 48 23 46 56 49 55 47 25 50 57 51 24 48 24 48 57 51 56 49 26 52 58 53 25 50 25 50 58 53 57 51 27 54 59 55 26 52 26 52 59 55 58 53 28 56 59 55 27 54 59 55 28 56 60 57 29 58 60 57 28 56 60 57 29 58 61 59 30 60 61 59 29 58 61 59 30 60 62 61 31 62 62 61 30 60 62 61 31 62 63 63 32 3 31 62 0 0 31 62 32 3 63 63 32 3 65 64 64 65 65 64 32 3 33 2 65 64 34 5 66 66 34 5 65 64 33 2 67 67 66 66 34 5 34 5 35 7 67 67 67 67 36 9 68 68 36 9 67 67 35 7 68 68 36 9 69 69 36 9 37 11 69 69 38 13 70 70 37 11 37 11 70 70 69 69 39 15 71 71 38 13 38 13 71 71 70 70 40 17 71 71 39 15 71 71 40 17 72 72 73 73 40 17 41 19 40 17 73 73 72 72 74 74 41 19 42 21 41 19 74 74 73 73 42 21 75 75 74 74 75 75 42 21 43 23 43 23 76 76 75 75 76 76 43 23 44 25 76 76 45 27 77 77 45 27 76 76 44 25 77 77 45 27 78 78 45 27 46 29 78 78 78 78 47 31 79 79 47 31 78 78 46 29 79 79 47 31 80 80 47 31 48 33 80 80 49 35 80 80 48 33 80 80 49 35 81 81 50 37 82 82 49 35 49 35 82 82 81 81 83 83 50 37 51 39 50 37 83 83 82 82 84 84 51 39 52 41 51 39 84 84 83 83 85 85 52 41 53 43 52 41 85 85 84 84 85 85 54 45 86 86 54 45 85 85 53 43 54 45 87 87 86 86 87 87 54 45 55 47 87 87 56 49 88 88 56 49 87 87 55 47 88 88 56 49 89 89 56 49 57 51 89 89 89 89 58 53 90 90 58 53 89 89 57 51 58 53 59 55 91 91 58 53 91 91 90 90 60 57 91 91 59 55 91 91 60 57 92 92 93 93 60 57 61 59 60 57 93 93 92 92 94 94 61 59 62 61 61 59 94 94 93 93 63 63 94 94 62 61 94 94 63 63 95 95 32 3 95 95 63 63 95 95 32 3 64 65 64 65 97 96 96 97 97 96 64 65 65 64 65 64 98 98 97 96 98 98 65 64 66 66 98 98 67 67 99 99 67 67 98 98 66 66 99 99 68 68 100 100 68 68 99 99 67 67 69 69 101 101 68 68 100 100 68 68 101 101 70 70 101 101 69 69 101 101 70 70 102 102 71 71 102 102 70 70 102 102 71 71 103 103 72 72 103 103 71 71 103 103 72 72 104 104 105 105 72 72 73 73 72 72 105 105 104 104 74 74 105 105 73 73 105 105 74 74 106 106 106 106 75 75 107 107 75 75 106 106 74 74 75 75 108 108 107 107 108 108 75 75 76 76 108 108 76 76 109 109 76 76 77 77 109 109 109 109 77 77 110 110 77 77 78 78 110 110 110 110 79 79 111 111 79 79 110 110 78 78 80 80 112 112 79 79 111 111 79 79 112 112 81 81 112 112 80 80 112 112 81 81 113 113 82 82 114 114 81 81 81 81 114 114 113 113 83 83 114 114 82 82 114 114 83 83 115 115 116 116 83 83 84 84 83 83 116 116 115 115 85 85 116 116 84 84 116 116 85 85 117 117 85 85 118 118 117 117 118 118 85 85 86 86 86 86 119 119 118 118 119 119 86 86 87 87 119 119 88 88 120 120 88 88 119 119 87 87 120 120 88 88 121 121 88 88 89 89 121 121 90 90 121 121 89 89 121 121 90 90 122 122 91 91 123 123 90 90 122 122 90 90 123 123 92 92 123 123 91 91 123 123 92 92 124 124 125 125 92 92 93 93 92 92 125 125 124 124 126 126 93 93 94 94 93 93 126 126 125 125 95 95 126 126 94 94 126 126 95 95 127 127 64 65 127 127 95 95 127 127 64 65 96 97 96 97 129 128 128 129 129 128 96 97 97 96 129 128 97 96 130 130 97 96 98 98 130 130 130 130 99 99 131 131 99 99 130 130 98 98 100 100 132 132 99 99 131 131 99 99 132 132 101 101 132 132 100 100 132 132 101 101 133 133 102 102 133 133 101 101 133 133 102 102 134 134 103 103 135 135 102 102 102 102 135 135 134 134 104 104 135 135 103 103 135 135 104 104 136 136 105 105 136 136 104 104 136 136 105 105 137 137 106 106 137 137 105 105 137 137 106 106 138 138 139 139 106 106 107 107 106 106 139 139 138 138 139 139 107 107 140 140 140 140 107 107 108 108 140 140 108 108 141 141 108 108 109 109 141 141 141 141 109 109 142 142 109 109 110 110 142 142 111 111 142 142 110 110 142 142 111 111 143 143 112 112 144 144 111 111 143 143 111 111 144 144 113 113 144 144 112 112 144 144 113 113 145 145 114 114 146 146 113 113 113 113 146 146 145 145 115 115 146 146 114 114 146 146 115 115 147 147 148 148 115 115 116 116 115 115 148 148 147 147 117 117 148 148 116 116 148 148 117 117 149 149 117 117 150 150 149 149 150 150 117 117 118 118 150 150 118 118 151 151 151 151 118 118 119 119 151 151 120 120 152 152 120 120 151 151 119 119 121 121 153 153 120 120 152 152 120 120 153 153 122 122 154 154 121 121 153 153 121 121 154 154 123 123 154 154 122 122 154 154 123 123 155 155 124 124 156 156 123 123 123 123 156 156 155 155 125 125 156 156 124 124 156 156 125 125 157 157 126 126 157 157 125 125 157 157 126 126 158 158 159 159 126 126 127 127 126 126 159 159 158 158 96 97 159 159 127 127 159 159 96 97 128 129 128 129 129 128 160 160 129 128 130 130 160 160 130 130 131 131 160 160 131 131 132 132 160 160 132 132 133 133 160 160 133 133 134 134 160 160 134 134 135 135 160 160 135 135 136 136 160 160 136 136 137 137 160 160 137 137 138 138 160 160 138 138 139 139 160 160 139 139 140 140 160 160 140 140 141 141 160 160 141 141 142 142 160 160 142 142 143 143 160 160 143 143 144 144 160 160 144 144 145 145 160 160 145 145 146 146 160 160 146 146 147 147 160 160 147 147 148 148 160 160 148 148 149 149 160 160 149 149 150 150 160 160 150 150 151 151 160 160 151 151 152 152 160 160 152 152 153 153 160 160 153 153 154 154 160 160 154 154 155 155 160 160 155 155 156 156 160 160 156 156 157 157 160 160 157 157 158 158 160 160 158 158 159 159 160 160 159 159 128 129 160 160 18 36 162 161 19 38 162 161 161 162 19 38 17 34 163 163 18 36 163 163 162 161 18 36 16 32 164 164 17 34 164 164 163 163 17 34 15 30 165 165 16 32 165 165 164 164 16 32 14 28 165 165 15 30 165 165 14 28 166 166 13 26 166 166 14 28 166 166 13 26 167 167 12 24 167 167 13 26 167 167 12 24 168 168 11 22 168 168 12 24 168 168 11 22 169 169 11 22 10 20 170 170 170 170 169 169 11 22 10 20 9 18 171 171 171 171 170 170 10 20 9 18 8 16 172 172 9 18 172 172 171 171 8 16 7 14 173 173 8 16 173 173 172 172 6 12 173 173 7 14 173 173 6 12 174 174 5 10 174 174 6 12 174 174 5 10 175 175 4 8 175 175 5 10 175 175 4 8 176 176 3 6 176 176 4 8 176 176 3 6 177 177 3 6 178 178 177 177 178 178 3 6 2 4 2 4 179 179 178 178 179 179 2 4 1 1 1 1 180 180 179 179 180 180 1 1 0 0 0 0 181 181 180 180 181 181 0 0 31 62 181 181 30 60 182 182 30 60 181 181 31 62 182 182 29 58 183 183 29 58 182 182 30 60 183 183 28 56 184 184 28 56 183 183 29 58 184 184 27 54 185 185 27 54 184 184 28 56 185 185 27 54 186 186 186 186 27 54 26 52 186 186 26 52 187 187 187 187 26 52 25 50 187 187 25 50 188 188 188 188 25 50 24 48 188 188 24 48 189 189 189 189 24 48 23 46 189 189 22 44 190 190 22 44 189 189 23 46 190 190 21 42 191 191 21 42 190 190 22 44 191 191 20 40 192 192 20 40 191 191 21 42 192 192 19 38 161 162 19 38 192 192 20 40 205 195 257 193 258 194 257 193 205 195 206 196 204 198 258 194 259 197 258 194 204 198 205 195 204 198 260 199 203 200 260 199 204 198 259 197 203 200 261 201 202 202 261 201 203 200 260 199 202 202 262 203 201 204 262 203 202 202 261 201 201 204 263 205 200 206 263 205 201 204 262 203 200 206 264 207 199 208 264 207 200 206 263 205 199 208 265 209 198 210 265 209 199 208 264 207 198 210 266 211 197 212 266 211 198 210 265 209 267 213 197 212 266 211 197 212 267 213 196 214 268 215 196 214 267 213 196 214 268 215 195 216 269 217 195 216 268 215 195 216 269 217 194 218 270 219 194 218 269 217 194 218 270 219 193 220 193 220 271 221 224 222 271 221 193 220 270 219 224 222 272 223 223 224 272 223 224 222 271 221 223 224 273 225 222 226 273 225 223 224 272 223 222 226 274 227 221 228 274 227 222 226 273 225 221 228 275 229 220 230 275 229 221 228 274 227 219 232 220 230 275 229 275 229 276 231 219 232 218 234 219 232 276 231 276 231 277 233 218 234 277 233 278 235 217 236 277 233 217 236 218 234 216 238 278 235 279 237 278 235 216 238 217 236 215 240 279 237 280 239 279 237 215 240 216 238 280 239 214 242 215 240 214 242 280 239 281 241 281 241 213 244 214 242 213 244 281 241 282 243 212 246 213 244 282 243 212 246 282 243 283 245 211 248 212 246 283 245 211 248 283 245 284 247 210 250 211 248 284 247 284 247 285 249 210 250 209 252 210 250 285 249 285 249 286 251 209 252 208 254 209 252 286 251 286 251 287 253 208 254 207 256 208 254 287 253 287 253 288 255 207 256 206 196 288 255 257 193 288 255 206 196 207 256 193 220 237 258 194 218 237 258 193 220 236 257 194 218 238 259 195 216 238 259 194 218 237 258 195 216 239 260 196 214 239 260 195 216 238 259 196 214 240 261 197 212 240 261 196 214 239 260 241 262 197 212 240 261 197 212 241 262 198 210 242 263 198 210 241 262 198 210 242 263 199 208 243 264 199 208 242 263 199 208 243 264 200 206 244 265 200 206 243 264 200 206 244 265 201 204 245 266 201 204 244 265 201 204 245 266 202 202 246 267 202 202 245 266 202 202 246 267 203 200 247 268 203 200 246 267 203 200 247 268 204 198 247 268 205 195 204 198 205 195 247 268 248 269 248 269 206 196 205 195 206 196 248 269 249 270 249 270 207 256 206 196 207 256 249 270 250 271 208 254 207 256 250 271 208 254 250 271 251 272 251 272 252 273 209 252 209 252 208 254 251 272 252 273 253 274 210 250 210 250 209 252 252 273 253 274 254 275 211 248 211 248 210 250 253 274 254 275 255 276 212 246 254 275 212 246 211 248 255 276 256 277 213 244 255 276 213 244 212 246 214 242 256 277 225 278 256 277 214 242 213 244 225 278 215 240 214 242 215 240 225 278 226 279 226 279 216 238 215 240 216 238 226 279 227 280 227 280 217 236 216 238 217 236 227 280 228 281 218 234 217 236 228 281 218 234 228 281 229 282 229 282 230 283 219 232 219 232 218 234 229 282 230 283 231 284 220 230 220 230 219 232 230 283 232 285 220 230 231 284 220 230 232 285 221 228 232 285 233 286 222 226 222 226 221 228 232 285 234 287 222 226 233 286 222 226 234 287 223 224 235 288 223 224 234 287 223 224 235 288 224 222 236 257 224 222 235 288 224 222 236 257 193 220 226 279 191 191 192 192 191 191 226 279 225 278 192 192 227 280 226 279 227 280 192 192 161 162 161 162 228 281 227 280 228 281 161 162 162 161 229 282 228 281 162 161 229 282 162 161 163 163 163 163 164 164 230 283 230 283 229 282 163 163 164 164 165 165 231 284 231 284 230 283 164 164 165 165 166 166 232 285 232 285 231 284 165 165 167 167 232 285 166 166 232 285 167 167 233 286 168 168 233 286 167 167 233 286 168 168 234 287 169 169 234 287 168 168 234 287 169 169 235 288 170 170 235 288 169 169 235 288 170 170 236 257 236 257 171 171 237 258 171 171 236 257 170 170 237 258 172 172 238 259 172 172 237 258 171 171 238 259 173 173 239 260 173 173 238 259 172 172 239 260 174 174 240 261 174 174 239 260 173 173 175 175 240 261 174 174 240 261 175 175 241 262 176 176 241 262 175 175 241 262 176 176 242 263 177 177 242 263 176 176 242 263 177 177 243 264 178 178 243 264 177 177 243 264 178 178 244 265 179 179 244 265 178 178 244 265 179 179 245 266 180 180 245 266 179 179 245 266 180 180 246 267 181 181 246 267 180 180 246 267 181 181 247 268 181 181 248 269 247 268 248 269 181 181 182 182 182 182 249 270 248 269 249 270 182 182 183 183 183 183 250 271 249 270 250 271 183 183 184 184 184 184 185 185 251 272 251 272 250 271 184 184 185 185 186 186 252 273 252 273 251 272 185 185 186 186 187 187 253 274 253 274 252 273 186 186 187 187 188 188 254 275 254 275 253 274 187 187 188 188 189 189 255 276 188 188 255 276 254 275 189 189 190 190 256 277 189 189 256 277 255 276 225 278 190 190 191 191 190 190 225 278 256 277</p>
        </triangles>
      </mesh>
    </geometry>
  </library_geometries>
  <library_visual_scenes>
    <visual_scene id="" name="">
      <node name="engine_tank_02_cap1" id="engine_tank_02_cap1" sid="engine_tank_02_cap1">
        <matrix sid="matrix">1.000000 0.000000 0.000000 0.000000 0.000000 1.000000 0.000000 0.000000 0.000000 0.000000 1.000000 0.000000 0.000000 0.000000 0.000000 1.000000</matrix>
        <instance_geometry url="#engine_tank_02_cap1-lib">
          <bind_material>
            <technique_common>
              <instance_material symbol="phong2" target="#phong2"/>
            </technique_common>
          </bind_material>
        </instance_geometry>
        <extra>
          <technique profile="FCOLLADA">
            <visibility>1.000000</visibility>
          </technique>
        </extra>
      </node>
      <extra>
        <technique profile="MAX3D">
          <frame_rate>24.000000</frame_rate>
        </technique>
        <technique profile="FCOLLADA">
          <start_time>0.041667</start_time>
          <end_time>2.000000</end_time>
        </technique>
      </extra>
    </visual_scene>
  </library_visual_scenes>
  <scene>
    <instance_visual_scene url="#"></instance_visual_scene>
  </scene>
</COLLADA>

