<?xml version="1.0" encoding="utf-8"?>
<COLLADA xmlns="http://www.collada.org/2005/11/COLLADASchema" version="1.4.1">
  <asset>
    <contributor>
      <author>Jakob</author>
      <authoring_tool>OpenCOLLADA2013 x64</authoring_tool>
      <comments>
			ColladaMaya export options: 
			bakeTransforms=0;relativePaths=0;copyTextures=0;exportTriangles=1;exportCgfxFileReferences=0;
			isSampling=0;curveConstrainSampling=0;removeStaticCurves=0;exportPolygonMeshes=1;exportLights=0;
			exportCameras=0;exportJointsAndSkin=1;exportAnimations=1;exportInvisibleNodes=0;exportDefaultCameras=0;
			exportTexCoords=1;exportNormals=1;exportNormalsPerVertex=0;exportVertexColors=0;exportVertexColorsPerVertex=0;
			exportTexTangents=0;exportTangents=0;exportReferencedMaterials=0;exportMaterialsOnly=0;
			exportXRefs=1;dereferenceXRefs=1;exportCameraAsLookat=0;cameraXFov=0;cameraYFov=1;doublePrecision=0
		</comments>
      <source_data>file:///E:/Modeling/pumpkin.mb</source_data>
    </contributor>
    <created>2014-10-26T05:48:03</created>
    <modified>2014-10-26T05:48:03</modified>
    <unit name="meter" meter="1"/>
    <up_axis>Y_UP</up_axis>
  </asset>
  <library_materials>
    <material id="lambert2" name="lambert2">
      <instance_effect url="#lambert2-fx"/>
    </material>
  </library_materials>
  <library_effects>
    <effect id="lambert2-fx">
      <profile_COMMON>
        <newparam sid="file1-surface">
          <surface type="2D">
            <init_from>file1</init_from>
          </surface>
        </newparam>
        <newparam sid="file1-sampler">
          <sampler2D>
            <source>file1-surface</source>
          </sampler2D>
        </newparam>
        <technique sid="common">
          <lambert>
            <emission>
              <color>0 0 0 1</color>
            </emission>
            <ambient>
              <color>0 0 0 1</color>
            </ambient>
            <diffuse>
              <texture texture="file1-sampler" texcoord="TEX0">
                <extra>
                  <technique profile="OpenCOLLADAMaya">
                    <blend_mode>NONE</blend_mode>
                    <coverageU>1</coverageU>
                    <coverageV>1</coverageV>
                    <fast>0</fast>
                    <mirrorU>0</mirrorU>
                    <mirrorV>0</mirrorV>
                    <noiseU>0</noiseU>
                    <noiseV>0</noiseV>
                    <offsetU>0</offsetU>
                    <offsetV>0</offsetV>
                    <repeatU>1</repeatU>
                    <repeatV>1</repeatV>
                    <rotateFrame>0</rotateFrame>
                    <rotateUV>0</rotateUV>
                    <stagger>0</stagger>
                    <translateFrameU>0</translateFrameU>
                    <translateFrameV>0</translateFrameV>
                    <wrapU>1</wrapU>
                    <wrapV>1</wrapV>
                  </technique>
                </extra>
              </texture>
            </diffuse>
            <transparent opaque="RGB_ZERO">
              <color>0 0 0 1</color>
            </transparent>
            <transparency>
              <float>1</float>
            </transparency>
          </lambert>
        </technique>
      </profile_COMMON>
    </effect>
  </library_effects>
  <library_images>
    <image id="file1" name="file1">
      <init_from>Acies_Pumpkin_blue.dds</init_from>
      <extra>
        <technique profile="OpenCOLLADAMaya">
          <dgnode_type>kFile</dgnode_type>
          <image_sequence>0</image_sequence>
          <originalMayaNodeId>file1</originalMayaNodeId>
        </technique>
      </extra>
    </image>
  </library_images>
  <library_geometries>
    <geometry id="polySurfaceShape2" name="polySurfaceShape2">
      <mesh>
        <source id="polySurfaceShape2-positions" name="polySurfaceShape2-positions">
          <float_array id="polySurfaceShape2-positions-array" count="1236">-0.01418592 0.4816796 -0.01577394 0.02219931 0.4596981 -0.01797621 -0.0393498 0.4264033 0.02506413 -0.08023134 0.4430197 -0.02329803 0.01506246 0.4445561 0.02602698 0.04198236 0.431681 -0.02157246 -0.04785102 0.4092777 0.02577246 -0.0511686 0.41234 -0.0120666 0.00668703 0.4047405 0.01166781 -0.1282063 0.495424 -0.00272181 -0.06700155 0.4775964 -0.00741846 -0.03322053 0.4715001 0.0217413 -0.06748413 0.4398914 0.00110334 -0.02680503 0.4560723 -0.04363023 0.00481824 0.3983044 0.02842707 -0.07707126 0.4743286 -0.01082361 0.02845542 0.4499663 0.01212813 -0.09173368 0.4427583 0.00169449 0.05382447 0.402047 0.00825993 -0.1305883 0.4650056 -0.00507675 -0.08693349 0.4784492 0.02030028 -0.113765 0.4629126 0.00896616 -0.01530543 0.4085337 0.04917738 -0.03659607 0.4425214 -0.04054029 -0.0417753 0.4571567 0.02355255 -0.02031624 0.4798867 -0.03281796 0.03512544 0.415856 -0.03294228 -0.02335053 0.4486523 0.02698878 0.0127092 0.4399541 -0.04303257 -0.04736193 0.4620266 -0.03647217 -0.08689275 0.4717807 0.02601858 0.04487784 0.4325827 0.00518889 -0.06566175 0.4805209 0.0198996 0.03033093 0.4096385 0.03842034 -0.00907389 0.4099025 -0.05152224 -0.04464495 0.4181496 -0.02736846 0.02502444 0.3990449 -0.04965408 -0.03172491 0.4836173 0.02124507 -0.05017236 0.4473188 -0.03303468 0.00289737 0.4626009 0.01836807 -0.1093117 0.4797294 -0.00634641 -0.05219991 0.4205522 -0.00318423 -0.00435099 0.4820551 0.01236312 -0.06786213 0.4677402 -0.02579388 -0.05205312 0.4139954 0.01176168 -0.00141981 0.4765128 -0.00877317 -0.04078935 0.4031945 -0.02835273 -0.07878045 0.4540746 0.0198933 0.00368571 0.4657312 -0.03686907 -0.01065057 0.4211954 -0.0532119 0.04668678 0.4146181 -0.01549254 -0.00326088 0.4038453 0.05054994 -0.03120999 0.4838737 -0.0251391 0.04125513 0.3940511 -0.03843504 0.01953756 0.4251668 0.03623949 -0.06429654 0.4500629 0.01572291 -0.01927632 0.4886714 0.01084608 0.0238497 0.4385249 -0.03645096 -0.05790876 0.4357558 -0.01883553 -0.02175306 0.4260601 0.03586296 0.05086788 0.4277771 1.0647e-4 -0.02713788 0.439838 -0.04880232 -0.1094018 0.4538641 0.00634725 0.03017154 0.4316602 0.02673027 -0.09955512 0.4434223 -0.01378146 -0.04185846 0.4164906 0.02584218 -0.02523444 0.4852205 -0.0048069 -0.1120678 0.4739378 -0.01254456 0.04617417 0.4046746 0.02696505 -0.1230287 0.4876122 0.00607593 0.02980971 0.4487453 -0.02204622 -0.05342379 0.4299766 -0.00409437 -0.0231546 0.4070807 -0.04803183 -0.0947373 0.4671166 -0.01856022 0.01700097 0.4570255 0.01588293 0.01176966 0.4119946 -0.05037753 -0.05778172 0.4735953 -0.02080239 -0.1354733 0.4803233 -0.00849597 0.04971099 0.4181656 0.00664692 0.02187255 0.4057397 0.04977105 -0.04714374 0.4387107 0.01669332 -0.02832753 0.4643213 -0.03839199 -0.05267367 0.4735264 0.02621577 -0.03787287 0.4887418 0.01630608 0.02270037 0.4655592 0.00307062 -0.009888901 0.4577248 -0.04187799 -0.06484212 0.462875 0.02383584 0.03108378 0.4492859 -0.00132006 -0.04927797 0.4299968 -0.02096115 0.00811692 0.4351183 0.03370941 -0.1240321 0.4609027 -0.01026963 0.01275582 0.45687 -0.03540663 0.01662024 0.397087 -0.05384589 -0.04785543 0.425907 0.01228731 -0.100376 0.4822244 0.01115709 0.03957072 0.4188378 0.0252756 0.01880613 0.4639525 -0.00801465 -0.00253512 0.4624166 -0.0414162 -0.04944576 0.450657 0.01954155 -0.00221319 0.4172388 0.04506012 -0.06478311 0.4501018 -0.03016104 -0.09380406 0.4504432 -0.02320395 -0.01452108 0.4041817 0.01147797 -0.03335766 0.3960383 -0.03938319 -0.01384488 0.4332453 0.03515484 0.05047077 0.3947653 -0.02114238 -0.04223058 0.4837495 0.00102123 -0.0359268 0.4348724 0.02470902 -0.03894576 0.4293076 -0.03367392 -0.01574769 0.4351036 -0.05166168 -0.08887557 0.4619256 0.02559228 0.03409623 0.4334534 -0.02757489 -0.04584363 0.3899958 -0.0170289 -0.1322261 0.4934552 -0.00802389 0.0137886 0.4703613 0.01074381 -0.1146902 0.4789165 0.01161111 -0.03301284 0.4134568 -0.04136916 0.00361788 0.4739827 -0.01383375 -0.07158249 0.4378405 -0.01263906 0.007994071 0.4279428 0.04077297 -0.05339502 0.4098208 0.00568449 -0.0800478 0.4774876 0.00778428 0.03728592 0.4361076 0.01656942 -0.05590851 0.4334389 -0.01043154 -0.08907276 0.4770255 -0.00441231 -0.02542155 0.4079337 0.04540494 -0.05764941 0.4355061 0.00205317 -0.04322031 0.4682647 -0.03228309 0.02150442 0.4167445 -0.04252563 -0.05894868 0.4795066 0.02499042 -0.100511 0.480751 0.00179802 0.0414981 0.4373972 -0.01298829 -0.07371714 0.4813739 0.02250402 -0.05690832 0.4454202 0.01397529 -0.07903329 0.4631445 -0.02363067 -0.1091294 0.4489463 -5.3571e-4 -0.0521913 0.4310329 0.00495936 -0.108146 0.4706807 0.01626828 -0.02069025 0.4819982 0.01670592 -0.00285495 0.4584633 0.02181039 0.05001654 -4.12312e-4 -0.01820448 0.04077381 -4.12312e-4 -0.03421341 0.0266133 -4.12312e-4 -0.04609563 0.00924273 -4.12312e-4 -0.05241789 -0.00924273 -4.12312e-4 -0.05241789 -0.0266133 -4.12312e-4 -0.04609563 -0.04077381 -4.12312e-4 -0.03421341 -0.05001654 -4.12312e-4 -0.01820448 -0.0532266 -4.12312e-4 0 -0.05001654 -4.12312e-4 0.01820448 -0.04077381 -4.12312e-4 0.03421341 -0.0266133 -4.12312e-4 0.04609563 -0.00924273 -4.12312e-4 0.05241789 0.00924273 -4.12312e-4 0.05241789 0.0266133 -4.12312e-4 0.04609563 0.04077381 -4.12312e-4 0.03421341 0.05001654 -4.12312e-4 0.01820448 0.0532266 -4.12312e-4 0 0.09811115 0.007805424 -0.03570945 0.07998081 0.007805424 -0.0671118 0.0522039 0.007805424 -0.0904197 0.01813014 0.007805424 -0.1028215 -0.01813014 0.007805424 -0.1028215 -0.05220369 0.007805424 -0.0904197 -0.07998081 0.007805424 -0.06711201 -0.09811115 0.007805424 -0.03570945 -0.1044076 0.007805424 0 -0.09811115 0.007805424 0.03570945 -0.07998081 0.007805424 0.06711201 -0.0522039 0.007805424 0.0904197 -0.01813014 0.007805424 0.1028215 0.01813014 0.007805424 0.1028215 0.0522039 0.007805424 0.0904197 0.07998081 0.007805424 0.06711201 0.09811115 0.007805424 0.03570945 0.1044076 0.007805424 0 0.1424352 0.0215472 -0.05184207 0.1161142 0.0215472 -0.09743139 0.07578816 0.0215472 -0.1312689 0.02632098 0.0215472 -0.1492737 -0.02632098 0.0215472 -0.1492737 -0.07578816 0.0215472 -0.1312691 -0.1161142 0.0215472 -0.09743139 -0.1424352 0.0215472 -0.05184228 -0.1515763 0.0215472 0 -0.1424352 0.0215472 0.05184207 -0.1161142 0.0215472 0.09743139 -0.07578816 0.0215472 0.1312689 -0.02632098 0.0215472 0.1492737 0.02632098 0.0215472 0.1492737 0.07578816 0.0215472 0.1312691 0.1161142 0.0215472 0.09743139 0.1424352 0.0215472 0.05184228 0.1515763 0.0215472 0 0.1812871 0.0540678 -0.06598305 0.1477867 0.0540678 -0.1240075 0.09646098 0.0540678 -0.1670749 0.03350046 0.0540678 -0.1899908 -0.03350046 0.0540678 -0.1899908 -0.09646077 0.0540678 -0.1670752 -0.1477865 0.0540678 -0.1240077 -0.1812871 0.0540678 -0.06598305 -0.1929218 0.0540678 0 -0.1812871 0.0540678 0.06598305 -0.1477867 0.0540678 0.1240077 -0.09646077 0.0540678 0.1670752 -0.03350046 0.0540678 0.1899908 0.03350046 0.0540678 0.1899908 0.09646077 0.0540678 0.1670752 0.1477867 0.0540678 0.1240077 0.1812871 0.0540678 0.06598305 0.1929218 0.0540678 0 0.210609 0.09164624 -0.07665525 0.1716901 0.09164624 -0.144065 0.1120627 0.09164624 -0.1940984 0.03891909 0.09164624 -0.2207205 -0.03891888 0.09164624 -0.2207205 -0.1120627 0.09164624 -0.1940984 -0.1716899 0.09164624 -0.144065 -0.210609 0.09164624 -0.07665546 -0.2241254 0.09164624 0 -0.210609 0.09164624 0.07665546 -0.1716901 0.09164624 0.144065 -0.1120627 0.09164624 0.1940984 -0.03891909 0.09164624 0.2207205 0.03891888 0.09164624 0.2207205 0.1120627 0.09164624 0.1940984 0.1716901 0.09164624 0.144065 0.210609 0.09164624 0.07665546 0.2241254 0.09164624 0 0.2278992 0.129076 -0.08294832 0.1857851 0.129076 -0.155892 0.1212626 0.129076 -0.210033 0.04211403 0.129076 -0.2388406 -0.04211403 0.129076 -0.2388408 -0.1212626 0.129076 -0.210033 -0.1857849 0.129076 -0.1558922 -0.2278992 0.129076 -0.08294853 -0.2425252 0.129076 0 -0.2278992 0.129076 0.08294853 -0.1857851 0.129076 0.1558922 -0.1212626 0.129076 0.210033 -0.04211403 0.129076 0.2388408 0.04211403 0.129076 0.2388408 0.1212626 0.129076 0.210033 0.1857851 0.129076 0.1558922 0.2278992 0.129076 0.08294853 0.2425252 0.129076 0 0.2407917 0.1705848 -0.08764098 0.1962952 0.1705848 -0.1647112 0.1281227 0.1705848 -0.2219147 0.04449669 0.1705848 -0.2523522 -0.04449648 0.1705848 -0.2523522 -0.1281225 0.1705848 -0.2219147 -0.1962952 0.1705848 -0.1647112 -0.2407917 0.1705848 -0.08764098 -0.2562451 0.1705848 0 -0.2407917 0.1705848 0.08764098 -0.1962952 0.1705848 0.1647112 -0.1281227 0.1705848 0.2219147 -0.04449648 0.1705848 0.2523522 0.04449648 0.1705848 0.2523522 0.1281227 0.1705848 0.2219147 0.1962952 0.1705848 0.1647112 0.2407917 0.1705848 0.08764098 0.2562451 0.1705848 0 0.2455091 0.2110315 -0.08935794 0.2001409 0.2110315 -0.1679381 0.1306328 0.2110315 -0.2262624 0.0453684 0.2110315 -0.2572962 -0.04536819 0.2110315 -0.2572962 -0.1306326 0.2110315 -0.2262624 -0.2001407 0.2110315 -0.1679383 -0.2455091 0.2110315 -0.08935815 -0.2612654 0.2110315 0 -0.2455091 0.2110315 0.08935794 -0.2001409 0.2110315 0.1679381 -0.1306328 0.2110315 0.2262624 -0.04536819 0.2110315 0.2572962 0.04536819 0.2110315 0.2572962 0.1306326 0.2110315 0.2262624 0.2001409 0.2110315 0.1679381 0.2455091 0.2110315 0.08935794 0.2612654 0.2110315 0 0.2405649 0.2541634 -0.08755824 0.1961102 0.2541634 -0.164556 0.1280019 0.2541634 -0.2217056 0.04445469 0.2541634 -0.2521142 -0.04445448 0.2541634 -0.2521144 -0.1280017 0.2541634 -0.2217056 -0.1961102 0.2541634 -0.164556 -0.2405647 0.2541634 -0.08755845 -0.2560036 0.2541634 0 -0.2405647 0.2541634 0.08755845 -0.1961102 0.2541634 0.164556 -0.1280019 0.2541634 0.2217056 -0.04445469 0.2541634 0.2521144 0.04445448 0.2541634 0.2521144 0.1280017 0.2541634 0.2217056 0.1961102 0.2541634 0.164556 0.2405647 0.2541634 0.08755845 0.2560036 0.2541634 0 0.2278956 0.2947771 -0.08294706 0.1857822 0.2947771 -0.1558897 0.1212607 0.2947771 -0.2100296 0.0421134 0.2947771 -0.238837 -0.0421134 0.2947771 -0.238837 -0.1212607 0.2947771 -0.2100296 -0.1857822 0.2947771 -0.1558897 -0.2278956 0.2947771 -0.08294726 -0.2425214 0.2947771 0 -0.2278956 0.2947771 0.08294706 -0.1857822 0.2947771 0.1558897 -0.1212607 0.2947771 0.2100296 -0.0421134 0.2947771 0.238837 0.0421134 0.2947771 0.238837 0.1212607 0.2947771 0.2100296 0.1857822 0.2947771 0.1558897 0.2278956 0.2947771 0.08294726 0.2425214 0.2947771 0 0.205228 0.3322069 -0.07469679 0.1673034 0.3322069 -0.1403842 0.1091996 0.3322069 -0.189139 0.03792474 0.3322069 -0.2150809 -0.03792453 0.3322069 -0.2150812 -0.1091994 0.3322069 -0.189139 -0.1673032 0.3322069 -0.1403842 -0.205228 0.3322069 -0.074697 -0.2183989 0.3322069 0 -0.205228 0.3322069 0.07469679 -0.1673034 0.3322069 0.1403842 -0.1091996 0.3322069 0.189139 -0.03792453 0.3322069 0.2150809 0.03792453 0.3322069 0.2150812 0.1091996 0.3322069 0.189139 0.1673034 0.3322069 0.1403842 0.205228 0.3322069 0.07469679 0.2183989 0.3322069 0 0.1812856 0.3650144 -0.06598242 0.1477854 0.3650144 -0.1240067 0.09646013 0.3650144 -0.1670737 0.03350025 0.3650144 -0.1899893 -0.03350025 0.3650144 -0.1899893 -0.09645993 0.3650144 -0.1670737 -0.1477854 0.3650144 -0.1240067 -0.1812856 0.3650144 -0.06598263 -0.1929201 0.3650144 0 -0.1812856 0.3650144 0.06598263 -0.1477854 0.3650144 0.1240067 -0.09646013 0.3650144 0.1670737 -0.03350025 0.3650144 0.1899893 0.03350025 0.3650144 0.1899893 0.09646013 0.3650144 0.1670737 0.1477854 0.3650144 0.1240067 0.1812856 0.3650144 0.06598263 0.1929201 0.3650144 0 0.1522767 0.3873061 -0.05542404 0.1241371 0.3873061 -0.1041634 0.08102472 0.3873061 -0.1403388 0.02813958 0.3873061 -0.1595874 -0.02813958 0.3873061 -0.1595876 -0.08102472 0.3873061 -0.140339 -0.1241371 0.3873061 -0.1041634 -0.1522767 0.3873061 -0.05542425 -0.1620494 0.3873061 0 -0.1522767 0.3873061 0.05542404 -0.1241371 0.3873061 0.1041634 -0.08102472 0.3873061 0.1403388 -0.02813958 0.3873061 0.1595876 0.02813958 0.3873061 0.1595876 0.08102472 0.3873061 0.140339 0.1241371 0.3873061 0.1041634 0.1522767 0.3873061 0.05542425 0.1620494 0.3873061 0 0.09811115 0.4054415 -0.03570945 0.07998081 0.4054415 -0.0671118 0.0522039 0.4054415 -0.0904197 0.01813014 0.4054415 -0.1028215 -0.01813014 0.4054415 -0.1028215 -0.05220369 0.4054415 -0.0904197 -0.07998081 0.4054415 -0.06711201 -0.09811115 0.4054415 -0.03570945 -0.1044076 0.4054415 0 -0.09811115 0.4054415 0.03570945 -0.07998081 0.4054415 0.06711201 -0.0522039 0.4054415 0.0904197 -0.01813014 0.4054415 0.1028215 0.01813014 0.4054415 0.1028215 0.0522039 0.4054415 0.0904197 0.07998081 0.4054415 0.06711201 0.09811115 0.4054415 0.03570945 0.1044076 0.4054415 0 0.05001654 0.4113666 -0.01820448 0.04077381 0.4113666 -0.03421341 0.0266133 0.4113666 -0.04609563 0.00924273 0.4113666 -0.05241789 -0.00924273 0.4113666 -0.05241789 -0.0266133 0.4113666 -0.04609563 -0.04077381 0.4113666 -0.03421341 -0.05001654 0.4113666 -0.01820448 -0.0532266 0.4113666 0 -0.05001654 0.4113666 0.01820448 -0.04077381 0.4113666 0.03421341 -0.0266133 0.4113666 0.04609563 -0.00924273 0.4113666 0.05241789 0.00924273 0.4113666 0.05241789 0.0266133 0.4113666 0.04609563 0.04077381 0.4113666 0.03421341 0.05001654 0.4113666 0.01820448 0.0532266 0.4113666 0 0 -0.004572201 0 0 0.4155265 0</float_array>
          <technique_common>
            <accessor source="#polySurfaceShape2-positions-array" count="412" stride="3">
              <param name="X" type="float"/>
              <param name="Y" type="float"/>
              <param name="Z" type="float"/>
            </accessor>
          </technique_common>
        </source>
        <source id="polySurfaceShape2-normals" name="polySurfaceShape2-normals">
          <float_array id="polySurfaceShape2-normals-array" count="3771">0.06552672 0.001867243 0.997849 -0.175596 0.1925496 0.9654484 -0.01186457 -0.344919 0.9385574 0.4075083 0.7461352 0.5265161 0.5530289 0.7690263 0.3205582 0.4496025 0.8828499 -0.1357699 -0.210427 0.9578582 -0.1955204 -0.189997 0.9664091 -0.1730743 -0.174074 0.9826005 -0.06476603 -0.4660308 -0.08645281 -0.8805346 -0.08964612 0.002449747 -0.9959707 -0.02992673 -0.06824996 -0.9972193 0.2377026 0.4136862 0.8788409 0.2779552 0.5190628 0.8082789 0.4348142 0.4779891 0.7631926 -0.2642784 -0.241652 -0.9336816 -0.3124351 -0.7656757 -0.56225 -0.2058805 -0.7206041 -0.6620747 -0.1927736 -0.9795879 0.0569739 -0.1828422 -0.8898728 0.4179656 -0.2264514 -0.8856288 0.4054399 -0.107012 0.3372103 0.9353275 0.09957049 0.3749071 0.9216997 -0.4429789 0.4631444 0.7676373 -0.6936554 0.3529726 0.6278954 -0.6617109 0.4996601 0.5589978 0.6166701 0.3067196 -0.7250111 0.6004589 0.5519385 -0.5786302 0.7152546 0.5357457 -0.448762 0.7159405 0.2802925 -0.6394258 0.8132017 0.2244856 -0.5369442 0.9154481 0.2112662 -0.3425221 -0.9216278 0.2283729 0.3137645 -0.8113129 -0.08098929 -0.578975 -0.6989807 -0.07934196 -0.7107255 -0.8499337 -0.08855644 -0.5193943 0.05956975 0.9309204 -0.3603312 -0.004023674 0.9963412 -0.08536995 -0.0987476 -0.6956549 0.711557 -0.1005662 -0.7203759 0.6862543 0.3277838 0.9361717 -0.1270452 0.5274486 0.8154743 -0.2383265 0.1235681 0.759804 -0.6383016 0.2514605 0.2364861 -0.9385318 0.1290308 0.2627017 -0.9562107 0.3416188 0.2740358 -0.899 0.2147012 0.4170182 0.8831756 -0.06506513 0.5351127 0.8422712 -0.8252994 -0.3793274 0.41832 -0.6677731 -0.2849699 0.6876563 -0.4034503 -0.6005952 0.6902994 -0.02761347 -0.07009958 0.9971578 0.1382664 0.3584056 -0.9232702 -0.1340974 0.4458563 -0.8850029 -0.3277486 0.5314562 -0.7811115 -0.3046375 0.7736801 -0.5555314 -0.2704605 0.6011493 -0.7519778 -0.1517025 0.5133343 0.844674 -0.06030332 0.4357397 0.8980503 -0.3526514 0.4690978 0.8096817 -0.3565202 -0.1529679 -0.92168 -0.2303729 0.4272512 -0.874291 -0.6018301 -0.3209179 0.7313086 -0.8141078 -0.34454 0.4674619 -0.4461053 -0.6368988 0.6287686 0.6294773 0.7423428 -0.2295334 0.8074532 0.5888939 0.03497577 0.7839294 0.6123693 -0.1022674 0.9709066 0.2340406 -0.05065 -0.4202323 -0.8504255 -0.3165142 -0.5277987 -0.8318232 0.1717519 -0.4900257 -0.3050336 -0.8165963 0.8095738 0.52143 0.2696313 0.6949155 0.5666922 0.442665 0.6936016 0.4991111 0.5194276 -0.114546 0.3232033 -0.9393715 -0.8764232 0.00111634 -0.4815404 -0.1505038 0.480471 -0.8640001 0.3621997 0.8943933 -0.2624347 -0.1742642 0.9745353 0.1411134 0.1165144 0.9392807 0.3227633 -0.5023314 0.2752046 0.8197106 -0.4278443 0.06086968 -0.9018006 -0.6687984 -0.2105135 -0.7130166 0.09219917 0.3096759 -0.9463615 -0.3283867 -0.1948961 0.9242173 -0.1739158 0.9358302 -0.3065533 0.01188594 0.9896642 -0.1429106 -0.6447179 0.2563363 0.7201601 0.5142497 0.7421526 -0.4298334 -0.3333001 0.2678165 -0.9039831 -0.4209411 0.2489481 0.8722577 -0.2450642 -0.4539518 0.8566628 -0.1293423 0.7515576 0.6468632 -0.08237956 0.9448591 0.3169461 0.4267056 0.5215008 0.7388906 0.5814382 0.4373567 0.6860384 0.5080597 0.4892636 0.70887 0.7671863 0.3551128 0.5341536 0.7925127 0.4220158 0.4402572 0.8581282 0.3290813 0.3941085 -0.845058 -0.1210385 -0.5207942 -0.955514 -0.07193537 -0.2860387 -0.4650345 -0.8850133 -0.02223665 -0.5449303 -0.7540522 0.3666828 0.5711956 0.4018489 -0.7157185 0.5599696 0.2648945 -0.7850255 0.7243883 0.3504077 -0.5936969 0.7097277 0.2876475 -0.643075 -0.1490631 0.9834515 0.1029728 0.2168384 0.9757988 -0.02824371 -0.7816941 -0.3631794 -0.507006 -0.4319686 -0.3870904 -0.8145944 0.150455 0.1193421 0.9813872 -0.1089532 0.5532628 -0.8258508 -0.9942354 0 -0.1072194 -0.8926279 0.07010043 0.4453104 0.2964925 0.3205324 0.8996395 -0.143219 0.8242121 -0.5478711 -0.9212887 -0.1388897 -0.3632313 -0.9965552 -0.06128611 -0.05587236 0.6187251 0.7543145 -0.2195198 -0.5263905 -0.09872819 0.8444914 0.2711931 0.4707844 0.8395334 0.01260669 0.3783872 0.9255616 -0.09463068 0.3893297 -0.9162246 0.9065276 0.2660601 -0.3277493 0.9589795 0.2291273 -0.1669105 0.1408944 0.583618 0.7997116 0.0985461 0.5305371 0.8419139 -0.1529675 0.4353071 0.8871914 -0.9337647 -0.3378436 -0.1180895 0.02780061 -0.9341987 -0.3556683 0.02780061 -0.9341987 -0.3556683 0.02780062 -0.9341987 -0.3556684 -0.4014326 0.1600175 0.9018016 0.9887629 0.1145251 -0.09608347 0.3537571 0.6862137 -0.6355837 0.7382545 0.6722667 0.05511613 0.02969409 0.2356623 -0.9713813 -0.7608049 -0.05862996 -0.6463269 0.1325241 -0.9900054 -0.04823502 0.108035 -0.9900054 -0.09065203 0.182654 -0.9711578 -0.153265 0.2240589 -0.9711576 -0.08155096 0.108035 -0.9900054 -0.09065203 0.07051502 -0.9900053 -0.122135 0.119219 -0.9711577 -0.2064939 0.182654 -0.9711578 -0.153265 0.07051502 -0.9900053 -0.122135 0.02449001 -0.9900054 -0.1388871 0.04140399 -0.9711577 -0.2348159 0.119219 -0.9711577 -0.2064939 0.02449001 -0.9900054 -0.1388871 -0.02448901 -0.9900054 -0.1388871 -0.04140399 -0.9711577 -0.2348159 0.04140399 -0.9711577 -0.2348159 -0.02448901 -0.9900054 -0.1388871 -0.07051502 -0.9900053 -0.122135 -0.119219 -0.9711577 -0.2064939 -0.04140399 -0.9711577 -0.2348159 -0.07051502 -0.9900053 -0.122135 -0.108035 -0.9900054 -0.09065203 -0.182654 -0.9711578 -0.153265 -0.119219 -0.9711577 -0.2064939 -0.108035 -0.9900054 -0.09065203 -0.1325241 -0.9900054 -0.04823502 -0.2240589 -0.9711576 -0.08155096 -0.182654 -0.9711578 -0.153265 -0.1325241 -0.9900054 -0.04823502 -0.14103 -0.9900053 0 -0.2384379 -0.9711577 0 -0.2240589 -0.9711576 -0.08155096 -0.14103 -0.9900053 0 -0.1325241 -0.9900054 0.04823502 -0.2240589 -0.9711576 0.08155096 -0.2384379 -0.9711577 0 -0.1325241 -0.9900054 0.04823502 -0.108035 -0.9900054 0.09065203 -0.182654 -0.9711578 0.153265 -0.2240589 -0.9711576 0.08155096 -0.108035 -0.9900054 0.09065203 -0.07051502 -0.9900053 0.122135 -0.119219 -0.9711577 0.2064939 -0.182654 -0.9711578 0.153265 -0.07051502 -0.9900053 0.122135 -0.02449001 -0.9900054 0.1388871 -0.04140399 -0.9711577 0.2348159 -0.119219 -0.9711577 0.2064939 -0.02449001 -0.9900054 0.1388871 0.02448901 -0.9900054 0.1388871 0.04140399 -0.9711577 0.2348159 -0.04140399 -0.9711577 0.2348159 0.02448901 -0.9900054 0.1388871 0.07051502 -0.9900053 0.122135 0.119219 -0.9711577 0.2064939 0.04140399 -0.9711577 0.2348159 0.07051502 -0.9900053 0.122135 0.108035 -0.9900054 0.09065203 0.182654 -0.9711578 0.153265 0.119219 -0.9711577 0.2064939 0.108035 -0.9900054 0.09065203 0.1325241 -0.9900054 0.04823502 0.2240589 -0.9711576 0.08155096 0.182654 -0.9711578 0.153265 0.1325241 -0.9900054 0.04823502 0.14103 -0.9900053 0 0.2384379 -0.9711577 0 0.2240589 -0.9711576 0.08155096 0.14103 -0.9900053 0 0.1325241 -0.9900054 -0.04823502 0.2240589 -0.9711576 -0.08155096 0.2384379 -0.9711577 0 0.2240589 -0.9711576 -0.08155096 0.182654 -0.9711578 -0.153265 0.3853138 -0.8642917 -0.3233159 0.4726568 -0.8642917 -0.1720329 0.182654 -0.9711578 -0.153265 0.119219 -0.9711577 -0.2064939 0.2514959 -0.8642917 -0.4356028 0.3853138 -0.8642917 -0.3233159 0.119219 -0.9711577 -0.2064939 0.04140399 -0.9711577 -0.2348159 0.08734398 -0.8642919 -0.4953489 0.2514959 -0.8642917 -0.4356028 0.04140399 -0.9711577 -0.2348159 -0.04140399 -0.9711577 -0.2348159 -0.08734296 -0.8642916 -0.4953498 0.08734398 -0.8642919 -0.4953489 -0.04140399 -0.9711577 -0.2348159 -0.119219 -0.9711577 -0.2064939 -0.2514949 -0.8642919 -0.4356029 -0.08734296 -0.8642916 -0.4953498 -0.119219 -0.9711577 -0.2064939 -0.182654 -0.9711578 -0.153265 -0.3853129 -0.8642917 -0.3233168 -0.2514949 -0.8642919 -0.4356029 -0.182654 -0.9711578 -0.153265 -0.2240589 -0.9711576 -0.08155096 -0.4726568 -0.8642917 -0.1720329 -0.3853129 -0.8642917 -0.3233168 -0.2240589 -0.9711576 -0.08155096 -0.2384379 -0.9711577 0 -0.5029908 -0.8642917 0 -0.4726568 -0.8642917 -0.1720329 -0.2384379 -0.9711577 0 -0.2240589 -0.9711576 0.08155096 -0.4726568 -0.8642917 0.1720329 -0.5029908 -0.8642917 0 -0.2240589 -0.9711576 0.08155096 -0.182654 -0.9711578 0.153265 -0.3853138 -0.8642917 0.3233159 -0.4726568 -0.8642917 0.1720329 -0.182654 -0.9711578 0.153265 -0.119219 -0.9711577 0.2064939 -0.2514959 -0.8642917 0.4356028 -0.3853138 -0.8642917 0.3233159 -0.119219 -0.9711577 0.2064939 -0.04140399 -0.9711577 0.2348159 -0.08734395 -0.8642915 0.4953497 -0.2514959 -0.8642917 0.4356028 -0.04140399 -0.9711577 0.2348159 0.04140399 -0.9711577 0.2348159 0.08734296 -0.8642916 0.4953498 -0.08734395 -0.8642915 0.4953497 0.04140399 -0.9711577 0.2348159 0.119219 -0.9711577 0.2064939 0.2514959 -0.8642917 0.4356028 0.08734296 -0.8642916 0.4953498 0.119219 -0.9711577 0.2064939 0.182654 -0.9711578 0.153265 0.3853129 -0.8642917 0.3233168 0.2514959 -0.8642917 0.4356028 0.182654 -0.9711578 0.153265 0.2240589 -0.9711576 0.08155096 0.4726568 -0.8642917 0.1720329 0.3853129 -0.8642917 0.3233168 0.2240589 -0.9711576 0.08155096 0.2384379 -0.9711577 0 0.5029908 -0.8642917 0 0.4726568 -0.8642917 0.1720329 0.2384379 -0.9711577 0 0.2240589 -0.9711576 -0.08155096 0.4726568 -0.8642917 -0.1720329 0.5029908 -0.8642917 0 0.4726568 -0.8642917 -0.1720329 0.3853138 -0.8642917 -0.3233159 0.5418738 -0.7068477 -0.4546858 0.6647061 -0.7068481 -0.241933 0.3853138 -0.8642917 -0.3233159 0.2514959 -0.8642917 -0.4356028 0.3536831 -0.7068482 -0.6125961 0.5418738 -0.7068477 -0.4546858 0.2514959 -0.8642917 -0.4356028 0.08734398 -0.8642919 -0.4953489 0.122833 -0.706848 -0.6966189 0.3536831 -0.7068482 -0.6125961 0.08734398 -0.8642919 -0.4953489 -0.08734296 -0.8642916 -0.4953498 -0.122833 -0.706848 -0.6966189 0.122833 -0.706848 -0.6966189 -0.08734296 -0.8642916 -0.4953498 -0.2514949 -0.8642919 -0.4356029 -0.3536828 -0.7068477 -0.6125968 -0.122833 -0.706848 -0.6966189 -0.2514949 -0.8642919 -0.4356029 -0.3853129 -0.8642917 -0.3233168 -0.541873 -0.7068481 -0.454686 -0.3536828 -0.7068477 -0.6125968 -0.3853129 -0.8642917 -0.3233168 -0.4726568 -0.8642917 -0.1720329 -0.6647061 -0.7068481 -0.241933 -0.541873 -0.7068481 -0.454686 -0.4726568 -0.8642917 -0.1720329 -0.5029908 -0.8642917 0 -0.7073657 -0.7068477 0 -0.6647061 -0.7068481 -0.241933 -0.5029908 -0.8642917 0 -0.4726568 -0.8642917 0.1720329 -0.6647061 -0.7068481 0.241933 -0.7073657 -0.7068477 0 -0.4726568 -0.8642917 0.1720329 -0.3853138 -0.8642917 0.3233159 -0.5418738 -0.7068477 0.4546858 -0.6647061 -0.7068481 0.241933 -0.3853138 -0.8642917 0.3233159 -0.2514959 -0.8642917 0.4356028 -0.3536828 -0.7068477 0.6125968 -0.5418738 -0.7068477 0.4546858 -0.2514959 -0.8642917 0.4356028 -0.08734395 -0.8642915 0.4953497 -0.122833 -0.706848 0.6966189 -0.3536828 -0.7068477 0.6125968 -0.08734395 -0.8642915 0.4953497 0.08734296 -0.8642916 0.4953498 0.122833 -0.706848 0.6966189 -0.122833 -0.706848 0.6966189 0.08734296 -0.8642916 0.4953498 0.2514959 -0.8642917 0.4356028 0.3536828 -0.7068477 0.6125968 0.122833 -0.706848 0.6966189 0.2514959 -0.8642917 0.4356028 0.3853129 -0.8642917 0.3233168 0.541873 -0.7068481 0.454686 0.3536828 -0.7068477 0.6125968 0.3853129 -0.8642917 0.3233168 0.4726568 -0.8642917 0.1720329 0.6647061 -0.7068481 0.241933 0.541873 -0.7068481 0.454686 0.4726568 -0.8642917 0.1720329 0.5029908 -0.8642917 0 0.7073657 -0.7068477 0 0.6647061 -0.7068481 0.241933 0.5029908 -0.8642917 0 0.4726568 -0.8642917 -0.1720329 0.6647061 -0.7068481 -0.241933 0.7073657 -0.7068477 0 0.6647061 -0.7068481 -0.241933 0.5418738 -0.7068477 -0.4546858 0.6442819 -0.5409578 -0.5406159 0.7903281 -0.540958 -0.287656 0.5418738 -0.7068477 -0.4546858 0.3536831 -0.7068482 -0.6125961 0.4205251 -0.540958 -0.7283701 0.6442819 -0.5409578 -0.5406159 0.3536831 -0.7068482 -0.6125961 0.122833 -0.706848 -0.6966189 0.146047 -0.540958 -0.8282721 0.4205251 -0.540958 -0.7283701 0.122833 -0.706848 -0.6966189 -0.122833 -0.706848 -0.6966189 -0.146047 -0.540958 -0.8282721 0.146047 -0.540958 -0.8282721 -0.122833 -0.706848 -0.6966189 -0.3536828 -0.7068477 -0.6125968 -0.4205248 -0.5409577 -0.7283706 -0.146047 -0.540958 -0.8282721 -0.3536828 -0.7068477 -0.6125968 -0.541873 -0.7068481 -0.454686 -0.6442815 -0.5409575 -0.5406166 -0.4205248 -0.5409577 -0.7283706 -0.541873 -0.7068481 -0.454686 -0.6647061 -0.7068481 -0.241933 -0.7903281 -0.540958 -0.287656 -0.6442815 -0.5409575 -0.5406166 -0.6647061 -0.7068481 -0.241933 -0.7073657 -0.7068477 0 -0.8410498 -0.5409578 0 -0.7903281 -0.540958 -0.287656 -0.7073657 -0.7068477 0 -0.6647061 -0.7068481 0.241933 -0.7903281 -0.540958 0.287656 -0.8410498 -0.5409578 0 -0.6647061 -0.7068481 0.241933 -0.5418738 -0.7068477 0.4546858 -0.6442819 -0.5409578 0.5406159 -0.7903281 -0.540958 0.287656 -0.5418738 -0.7068477 0.4546858 -0.3536828 -0.7068477 0.6125968 -0.4205251 -0.540958 0.7283701 -0.6442819 -0.5409578 0.5406159 -0.3536828 -0.7068477 0.6125968 -0.122833 -0.706848 0.6966189 -0.146047 -0.540958 0.8282721 -0.4205251 -0.540958 0.7283701 -0.122833 -0.706848 0.6966189 0.122833 -0.706848 0.6966189 0.146047 -0.540958 0.8282721 -0.146047 -0.540958 0.8282721 0.122833 -0.706848 0.6966189 0.3536828 -0.7068477 0.6125968 0.4205251 -0.540958 0.7283701 0.146047 -0.540958 0.8282721 0.3536828 -0.7068477 0.6125968 0.541873 -0.7068481 0.454686 0.6442813 -0.5409582 0.5406162 0.4205251 -0.540958 0.7283701 0.541873 -0.7068481 0.454686 0.6647061 -0.7068481 0.241933 0.7903281 -0.540958 0.287656 0.6442813 -0.5409582 0.5406162 0.6647061 -0.7068481 0.241933 0.7073657 -0.7068477 0 0.8410498 -0.5409578 0 0.7903281 -0.540958 0.287656 0.7073657 -0.7068477 0 0.6647061 -0.7068481 -0.241933 0.7903281 -0.540958 -0.287656 0.8410498 -0.5409578 0 0.7903281 -0.540958 -0.287656 0.6442819 -0.5409578 -0.5406159 0.7108887 -0.3725829 -0.5965058 0.8720339 -0.372583 -0.317394 0.6442819 -0.5409578 -0.5406159 0.4205251 -0.540958 -0.7283701 0.4640001 -0.3725831 -0.8036702 0.7108887 -0.3725829 -0.5965058 0.4205251 -0.540958 -0.7283701 0.146047 -0.540958 -0.8282721 0.161146 -0.3725831 -0.9139003 0.4640001 -0.3725831 -0.8036702 0.146047 -0.540958 -0.8282721 -0.146047 -0.540958 -0.8282721 -0.1611449 -0.3725829 -0.9139006 0.161146 -0.3725831 -0.9139003 -0.146047 -0.540958 -0.8282721 -0.4205248 -0.5409577 -0.7283706 -0.4639989 -0.372583 -0.8036709 -0.1611449 -0.3725829 -0.9139006 -0.4205248 -0.5409577 -0.7283706 -0.6442815 -0.5409575 -0.5406166 -0.7108883 -0.3725832 -0.5965062 -0.4639989 -0.372583 -0.8036709 -0.6442815 -0.5409575 -0.5406166 -0.7903281 -0.540958 -0.287656 -0.8720337 -0.3725829 -0.3173949 -0.7108883 -0.3725832 -0.5965062 -0.7903281 -0.540958 -0.287656 -0.8410498 -0.5409578 0 -0.9279988 -0.372583 0 -0.8720337 -0.3725829 -0.3173949 -0.8410498 -0.5409578 0 -0.7903281 -0.540958 0.287656 -0.8720339 -0.372583 0.317394 -0.9279988 -0.372583 0 -0.7903281 -0.540958 0.287656 -0.6442819 -0.5409578 0.5406159 -0.7108887 -0.3725829 0.5965058 -0.8720339 -0.372583 0.317394 -0.6442819 -0.5409578 0.5406159 -0.4205251 -0.540958 0.7283701 -0.4639997 -0.3725828 0.8036705 -0.7108887 -0.3725829 0.5965058 -0.4205251 -0.540958 0.7283701 -0.146047 -0.540958 0.8282721 -0.1611451 -0.3725832 0.9139004 -0.4639997 -0.3725828 0.8036705 -0.146047 -0.540958 0.8282721 0.146047 -0.540958 0.8282721 0.1611451 -0.3725832 0.9139004 -0.1611451 -0.3725832 0.9139004 0.146047 -0.540958 0.8282721 0.4205251 -0.540958 0.7283701 0.4639989 -0.372583 0.8036709 0.1611451 -0.3725832 0.9139004 0.4205251 -0.540958 0.7283701 0.6442813 -0.5409582 0.5406162 0.7108883 -0.3725832 0.5965062 0.4639989 -0.372583 0.8036709 0.6442813 -0.5409582 0.5406162 0.7903281 -0.540958 0.287656 0.8720339 -0.372583 0.317394 0.7108883 -0.3725832 0.5965062 0.7903281 -0.540958 0.287656 0.8410498 -0.5409578 0 0.9279988 -0.372583 0 0.8720339 -0.372583 0.317394 0.8410498 -0.5409578 0 0.7903281 -0.540958 -0.287656 0.8720339 -0.372583 -0.317394 0.9279988 -0.372583 0 0.8720339 -0.372583 -0.317394 0.7108887 -0.3725829 -0.5965058 0.747403 -0.219267 -0.6271449 0.9168251 -0.219267 -0.3336971 0.7108887 -0.3725829 -0.5965058 0.4640001 -0.3725831 -0.8036702 0.4878331 -0.219267 -0.8449502 0.747403 -0.219267 -0.6271449 0.4640001 -0.3725831 -0.8036702 0.161146 -0.3725831 -0.9139003 0.169423 -0.219267 -0.9608423 0.4878331 -0.219267 -0.8449502 0.161146 -0.3725831 -0.9139003 -0.1611449 -0.3725829 -0.9139006 -0.1694221 -0.2192671 -0.9608424 0.169423 -0.219267 -0.9608423 -0.1611449 -0.3725829 -0.9139006 -0.4639989 -0.372583 -0.8036709 -0.4878319 -0.219267 -0.8449509 -0.1694221 -0.2192671 -0.9608424 -0.4639989 -0.372583 -0.8036709 -0.7108883 -0.3725832 -0.5965062 -0.7474021 -0.219267 -0.6271461 -0.4878319 -0.219267 -0.8449509 -0.7108883 -0.3725832 -0.5965062 -0.8720337 -0.3725829 -0.3173949 -0.9168251 -0.219267 -0.3336971 -0.7474021 -0.219267 -0.6271461 -0.8720337 -0.3725829 -0.3173949 -0.9279988 -0.372583 0 -0.9756649 -0.219267 0 -0.9168251 -0.219267 -0.3336971 -0.9279988 -0.372583 0 -0.8720339 -0.372583 0.317394 -0.9168251 -0.219267 0.3336971 -0.9756649 -0.219267 0 -0.8720339 -0.372583 0.317394 -0.7108887 -0.3725829 0.5965058 -0.747403 -0.219267 0.6271449 -0.9168251 -0.219267 0.3336971 -0.7108887 -0.3725829 0.5965058 -0.4639997 -0.3725828 0.8036705 -0.4878331 -0.219267 0.8449502 -0.747403 -0.219267 0.6271449 -0.4639997 -0.3725828 0.8036705 -0.1611451 -0.3725832 0.9139004 -0.169423 -0.219267 0.9608423 -0.4878331 -0.219267 0.8449502 -0.1611451 -0.3725832 0.9139004 0.1611451 -0.3725832 0.9139004 0.1694221 -0.2192671 0.9608424 -0.169423 -0.219267 0.9608423 0.1611451 -0.3725832 0.9139004 0.4639989 -0.372583 0.8036709 0.4878319 -0.219267 0.8449509 0.1694221 -0.2192671 0.9608424 0.4639989 -0.372583 0.8036709 0.7108883 -0.3725832 0.5965062 0.747403 -0.219267 0.6271449 0.4878319 -0.219267 0.8449509 0.7108883 -0.3725832 0.5965062 0.8720339 -0.372583 0.317394 0.9168251 -0.219267 0.3336971 0.747403 -0.219267 0.6271449 0.8720339 -0.372583 0.317394 0.9279988 -0.372583 0 0.9756649 -0.219267 0 0.9168251 -0.219267 0.3336971 0.9279988 -0.372583 0 0.8720339 -0.372583 -0.317394 0.9168251 -0.219267 -0.3336971 0.9756649 -0.219267 0 0.9168251 -0.219267 -0.3336971 0.747403 -0.219267 -0.6271449 0.7660412 0.002873 -0.6427851 0.9396887 0.002872999 -0.3420189 0.747403 -0.219267 -0.6271449 0.4878331 -0.219267 -0.8449502 0.4999979 0.002873 -0.8660218 0.7660412 0.002873 -0.6427851 0.4878331 -0.219267 -0.8449502 0.169423 -0.219267 -0.9608423 0.1736479 0.002872999 -0.9848036 0.4999979 0.002873 -0.8660218 0.169423 -0.219267 -0.9608423 -0.1694221 -0.2192671 -0.9608424 -0.173647 0.002872999 -0.9848037 0.1736479 0.002872999 -0.9848036 -0.1694221 -0.2192671 -0.9608424 -0.4878319 -0.219267 -0.8449509 -0.4999979 0.002873 -0.8660218 -0.173647 0.002872999 -0.9848037 -0.4878319 -0.219267 -0.8449509 -0.7474021 -0.219267 -0.6271461 -0.7660412 0.002873 -0.6427851 -0.4999979 0.002873 -0.8660218 -0.7474021 -0.219267 -0.6271461 -0.9168251 -0.219267 -0.3336971 -0.9396887 0.002872999 -0.3420189 -0.7660412 0.002873 -0.6427851 -0.9168251 -0.219267 -0.3336971 -0.9756649 -0.219267 0 -0.9999958 0.002873 0 -0.9396887 0.002872999 -0.3420189 -0.9756649 -0.219267 0 -0.9168251 -0.219267 0.3336971 -0.939689 0.002873 0.342018 -0.9999958 0.002873 0 -0.9168251 -0.219267 0.3336971 -0.747403 -0.219267 0.6271449 -0.7660412 0.002873 0.6427851 -0.939689 0.002873 0.342018 -0.747403 -0.219267 0.6271449 -0.4878331 -0.219267 0.8449502 -0.4999979 0.002873 0.8660218 -0.7660412 0.002873 0.6427851 -0.4878331 -0.219267 0.8449502 -0.169423 -0.219267 0.9608423 -0.1736479 0.002872999 0.9848036 -0.4999979 0.002873 0.8660218 -0.169423 -0.219267 0.9608423 0.1694221 -0.2192671 0.9608424 0.173647 0.002872999 0.9848037 -0.1736479 0.002872999 0.9848036 0.1694221 -0.2192671 0.9608424 0.4878319 -0.219267 0.8449509 0.4999979 0.002873 0.8660218 0.173647 0.002872999 0.9848037 0.4878319 -0.219267 0.8449509 0.747403 -0.219267 0.6271449 0.7660412 0.002873 0.6427851 0.4999979 0.002873 0.8660218 0.747403 -0.219267 0.6271449 0.9168251 -0.219267 0.3336971 0.9396887 0.002872999 0.3420189 0.7660412 0.002873 0.6427851 0.9168251 -0.219267 0.3336971 0.9756649 -0.219267 0 0.9999958 0.002873 0 0.9396887 0.002872999 0.3420189 0.9756649 -0.219267 0 0.9168251 -0.219267 -0.3336971 0.9396887 0.002872999 -0.3420189 0.9999958 0.002873 0 0.9396887 0.002872999 -0.3420189 0.7660412 0.002873 -0.6427851 0.7481792 0.214709 -0.6277961 0.9177773 0.2147091 -0.3340431 0.7660412 0.002873 -0.6427851 0.4999979 0.002873 -0.8660218 0.488339 0.214709 -0.8458281 0.7481792 0.214709 -0.6277961 0.4999979 0.002873 -0.8660218 0.1736479 0.002872999 -0.9848036 0.169599 0.214709 -0.9618401 0.488339 0.214709 -0.8458281 0.1736479 0.002872999 -0.9848036 -0.173647 0.002872999 -0.9848037 -0.169598 0.21471 -0.96184 0.169599 0.214709 -0.9618401 -0.173647 0.002872999 -0.9848037 -0.4999979 0.002873 -0.8660218 -0.4883389 0.21471 -0.8458279 -0.169598 0.21471 -0.96184 -0.4999979 0.002873 -0.8660218 -0.7660412 0.002873 -0.6427851 -0.7481786 0.2147099 -0.6277966 -0.4883389 0.21471 -0.8458279 -0.7660412 0.002873 -0.6427851 -0.9396887 0.002872999 -0.3420189 -0.9177768 0.2147099 -0.3340439 -0.7481786 0.2147099 -0.6277966 -0.9396887 0.002872999 -0.3420189 -0.9999958 0.002873 0 -0.9766781 0.214709 0 -0.9177768 0.2147099 -0.3340439 -0.9999958 0.002873 0 -0.939689 0.002873 0.342018 -0.9177773 0.2147091 0.3340431 -0.9766781 0.214709 0 -0.939689 0.002873 0.342018 -0.7660412 0.002873 0.6427851 -0.7481792 0.214709 0.6277961 -0.9177773 0.2147091 0.3340431 -0.7660412 0.002873 0.6427851 -0.4999979 0.002873 0.8660218 -0.488339 0.214709 0.8458281 -0.7481792 0.214709 0.6277961 -0.4999979 0.002873 0.8660218 -0.1736479 0.002872999 0.9848036 -0.169598 0.214709 0.9618402 -0.488339 0.214709 0.8458281 -0.1736479 0.002872999 0.9848036 0.173647 0.002872999 0.9848037 0.169598 0.214709 0.9618402 -0.169598 0.214709 0.9618402 0.173647 0.002872999 0.9848037 0.4999979 0.002873 0.8660218 0.488339 0.214709 0.8458281 0.169598 0.214709 0.9618402 0.4999979 0.002873 0.8660218 0.7660412 0.002873 0.6427851 0.7481792 0.214709 0.6277961 0.488339 0.214709 0.8458281 0.7660412 0.002873 0.6427851 0.9396887 0.002872999 0.3420189 0.9177768 0.2147099 0.3340439 0.7481792 0.214709 0.6277961 0.9396887 0.002872999 0.3420189 0.9999958 0.002873 0 0.9766781 0.214709 0 0.9177768 0.2147099 0.3340439 0.9999958 0.002873 0 0.9396887 0.002872999 -0.3420189 0.9177773 0.2147091 -0.3340431 0.9766781 0.214709 0 0.9177773 0.2147091 -0.3340431 0.7481792 0.214709 -0.6277961 0.693398 0.425058 -0.581829 0.8505783 0.4250572 -0.3095851 0.7481792 0.214709 -0.6277961 0.488339 0.214709 -0.8458281 0.452583 0.425058 -0.7838969 0.693398 0.425058 -0.581829 0.488339 0.214709 -0.8458281 0.169599 0.214709 -0.9618401 0.1571809 0.4250578 -0.8914146 0.452583 0.425058 -0.7838969 0.169599 0.214709 -0.9618401 -0.169598 0.21471 -0.96184 -0.15718 0.4250579 -0.8914147 0.1571809 0.4250578 -0.8914146 -0.169598 0.21471 -0.96184 -0.4883389 0.21471 -0.8458279 -0.452583 0.425058 -0.7838969 -0.15718 0.4250579 -0.8914147 -0.4883389 0.21471 -0.8458279 -0.7481786 0.2147099 -0.6277966 -0.6933971 0.4250581 -0.5818301 -0.452583 0.425058 -0.7838969 -0.7481786 0.2147099 -0.6277966 -0.9177768 0.2147099 -0.3340439 -0.850578 0.425058 -0.309585 -0.6933971 0.4250581 -0.5818301 -0.9177768 0.2147099 -0.3340439 -0.9766781 0.214709 0 -0.9051661 0.4250581 0 -0.850578 0.425058 -0.309585 -0.9766781 0.214709 0 -0.9177773 0.2147091 0.3340431 -0.850578 0.425058 0.309585 -0.9051661 0.4250581 0 -0.9177773 0.2147091 0.3340431 -0.7481792 0.214709 0.6277961 -0.693398 0.425058 0.581829 -0.850578 0.425058 0.309585 -0.7481792 0.214709 0.6277961 -0.488339 0.214709 0.8458281 -0.452583 0.425058 0.7838969 -0.693398 0.425058 0.581829 -0.488339 0.214709 0.8458281 -0.169598 0.214709 0.9618402 -0.1571809 0.4250578 0.8914146 -0.452583 0.425058 0.7838969 -0.169598 0.214709 0.9618402 0.169598 0.214709 0.9618402 0.15718 0.4250579 0.8914147 -0.1571809 0.4250578 0.8914146 0.169598 0.214709 0.9618402 0.488339 0.214709 0.8458281 0.452583 0.425058 0.7838969 0.15718 0.4250579 0.8914147 0.488339 0.214709 0.8458281 0.7481792 0.214709 0.6277961 0.6933976 0.4250577 0.5818297 0.452583 0.425058 0.7838969 0.7481792 0.214709 0.6277961 0.9177768 0.2147099 0.3340439 0.850578 0.425058 0.309585 0.6933976 0.4250577 0.5818297 0.9177768 0.2147099 0.3340439 0.9766781 0.214709 0 0.9051661 0.4250581 0 0.850578 0.425058 0.309585 0.9766781 0.214709 0 0.9177773 0.2147091 -0.3340431 0.8505783 0.4250572 -0.3095851 0.9051661 0.4250581 0 0.8505783 0.4250572 -0.3095851 0.693398 0.425058 -0.581829 0.627878 0.572884 -0.526852 0.7702066 0.5728838 -0.2803319 0.693398 0.425058 -0.581829 0.452583 0.425058 -0.7838969 0.4098189 0.5728838 -0.7098258 0.627878 0.572884 -0.526852 0.452583 0.425058 -0.7838969 0.1571809 0.4250578 -0.8914146 0.1423289 0.5728837 -0.8071845 0.4098189 0.5728838 -0.7098258 0.1571809 0.4250578 -0.8914146 -0.15718 0.4250579 -0.8914147 -0.1423279 0.5728838 -0.8071846 0.1423289 0.5728837 -0.8071845 -0.15718 0.4250579 -0.8914147 -0.452583 0.425058 -0.7838969 -0.4098183 0.5728834 -0.7098265 -0.1423279 0.5728838 -0.8071846 -0.452583 0.425058 -0.7838969 -0.6933971 0.4250581 -0.5818301 -0.6278777 0.5728838 -0.5268528 -0.4098183 0.5728834 -0.7098265 -0.6933971 0.4250581 -0.5818301 -0.850578 0.425058 -0.309585 -0.7702061 0.5728841 -0.2803321 -0.6278777 0.5728838 -0.5268528 -0.850578 0.425058 -0.309585 -0.9051661 0.4250581 0 -0.8196367 0.5728838 0 -0.7702061 0.5728841 -0.2803321 -0.9051661 0.4250581 0 -0.850578 0.425058 0.309585 -0.7702066 0.5728838 0.2803319 -0.8196367 0.5728838 0 -0.850578 0.425058 0.309585 -0.693398 0.425058 0.581829 -0.627878 0.572884 0.526852 -0.7702066 0.5728838 0.2803319 -0.693398 0.425058 0.581829 -0.452583 0.425058 0.7838969 -0.4098181 0.5728841 0.7098261 -0.627878 0.572884 0.526852 -0.452583 0.425058 0.7838969 -0.1571809 0.4250578 0.8914146 -0.1423289 0.5728837 0.8071845 -0.4098181 0.5728841 0.7098261 -0.1571809 0.4250578 0.8914146 0.15718 0.4250579 0.8914147 0.1423279 0.5728838 0.8071846 -0.1423289 0.5728837 0.8071845 0.15718 0.4250579 0.8914147 0.452583 0.425058 0.7838969 0.4098181 0.5728841 0.7098261 0.1423279 0.5728838 0.8071846 0.452583 0.425058 0.7838969 0.6933976 0.4250577 0.5818297 0.627878 0.572884 0.526852 0.4098181 0.5728841 0.7098261 0.6933976 0.4250577 0.5818297 0.850578 0.425058 0.309585 0.7702066 0.5728838 0.2803319 0.627878 0.572884 0.526852 0.850578 0.425058 0.309585 0.9051661 0.4250581 0 0.8196367 0.5728838 0 0.7702066 0.5728838 0.2803319 0.9051661 0.4250581 0 0.8505783 0.4250572 -0.3095851 0.7702066 0.5728838 -0.2803319 0.8196367 0.5728838 0 0.7702066 0.5728838 -0.2803319 0.627878 0.572884 -0.526852 0.54665 0.7005531 -0.458693 0.6705649 0.7005529 -0.244066 0.627878 0.572884 -0.526852 0.4098189 0.5728838 -0.7098258 0.3568 0.7005531 -0.617996 0.54665 0.7005531 -0.458693 0.4098189 0.5728838 -0.7098258 0.1423289 0.5728837 -0.8071845 0.123916 0.7005531 -0.7027591 0.3568 0.7005531 -0.617996 0.1423289 0.5728837 -0.8071845 -0.1423279 0.5728838 -0.8071846 -0.123915 0.7005532 -0.7027591 0.123916 0.7005531 -0.7027591 -0.1423279 0.5728838 -0.8071846 -0.4098183 0.5728834 -0.7098265 -0.3568 0.7005531 -0.617996 -0.123915 0.7005532 -0.7027591 -0.4098183 0.5728834 -0.7098265 -0.6278777 0.5728838 -0.5268528 -0.5466498 0.7005528 -0.4586938 -0.3568 0.7005531 -0.617996 -0.6278777 0.5728838 -0.5268528 -0.7702061 0.5728841 -0.2803321 -0.6705649 0.7005529 -0.244066 -0.5466498 0.7005528 -0.4586938 -0.7702061 0.5728841 -0.2803321 -0.8196367 0.5728838 0 -0.7136001 0.7005532 0 -0.6705649 0.7005529 -0.244066 -0.8196367 0.5728838 0 -0.7702066 0.5728838 0.2803319 -0.6705649 0.7005529 0.244066 -0.7136001 0.7005532 0 -0.7702066 0.5728838 0.2803319 -0.627878 0.572884 0.526852 -0.54665 0.7005531 0.458693 -0.6705649 0.7005529 0.244066 -0.627878 0.572884 0.526852 -0.4098181 0.5728841 0.7098261 -0.3568 0.7005531 0.617996 -0.54665 0.7005531 0.458693 -0.4098181 0.5728841 0.7098261 -0.1423289 0.5728837 0.8071845 -0.123916 0.7005531 0.7027591 -0.3568 0.7005531 0.617996 -0.1423289 0.5728837 0.8071845 0.1423279 0.5728838 0.8071846 0.123915 0.7005532 0.7027591 -0.123916 0.7005531 0.7027591 0.1423279 0.5728838 0.8071846 0.4098181 0.5728841 0.7098261 0.3568 0.7005531 0.617996 0.123915 0.7005532 0.7027591 0.4098181 0.5728841 0.7098261 0.627878 0.572884 0.526852 0.5466498 0.7005528 0.4586938 0.3568 0.7005531 0.617996 0.627878 0.572884 0.526852 0.7702066 0.5728838 0.2803319 0.6705649 0.7005529 0.244066 0.5466498 0.7005528 0.4586938 0.7702066 0.5728838 0.2803319 0.8196367 0.5728838 0 0.7136001 0.7005532 0 0.6705649 0.7005529 0.244066 0.8196367 0.5728838 0 0.7702066 0.5728838 -0.2803319 0.6705649 0.7005529 -0.244066 0.7136001 0.7005532 0 0.6705649 0.7005529 -0.244066 0.54665 0.7005531 -0.458693 0.3442931 0.8933092 -0.2888961 0.4223381 0.8933092 -0.153718 0.54665 0.7005531 -0.458693 0.3568 0.7005531 -0.617996 0.2247211 0.8933095 -0.3892282 0.3442931 0.8933092 -0.2888961 0.3568 0.7005531 -0.617996 0.123916 0.7005531 -0.7027591 0.07804504 0.8933094 -0.4426142 0.2247211 0.8933095 -0.3892282 0.123916 0.7005531 -0.7027591 -0.123915 0.7005532 -0.7027591 -0.07804504 0.8933094 -0.4426142 0.07804504 0.8933094 -0.4426142 -0.123915 0.7005532 -0.7027591 -0.3568 0.7005531 -0.617996 -0.2247211 0.8933095 -0.3892282 -0.07804504 0.8933094 -0.4426142 -0.3568 0.7005531 -0.617996 -0.5466498 0.7005528 -0.4586938 -0.3442931 0.8933092 -0.2888961 -0.2247211 0.8933095 -0.3892282 -0.5466498 0.7005528 -0.4586938 -0.6705649 0.7005529 -0.244066 -0.4223369 0.8933098 -0.153718 -0.3442931 0.8933092 -0.2888961 -0.6705649 0.7005529 -0.244066 -0.7136001 0.7005532 0 -0.4494422 0.8933094 0 -0.4223369 0.8933098 -0.153718 -0.7136001 0.7005532 0 -0.6705649 0.7005529 0.244066 -0.4223369 0.8933098 0.153718 -0.4494422 0.8933094 0 -0.6705649 0.7005529 0.244066 -0.54665 0.7005531 0.458693 -0.3442931 0.8933092 0.2888961 -0.4223369 0.8933098 0.153718 -0.54665 0.7005531 0.458693 -0.3568 0.7005531 0.617996 -0.2247211 0.8933095 0.3892282 -0.3442931 0.8933092 0.2888961 -0.3568 0.7005531 0.617996 -0.123916 0.7005531 0.7027591 -0.07804504 0.8933094 0.4426142 -0.2247211 0.8933095 0.3892282 -0.123916 0.7005531 0.7027591 0.123915 0.7005532 0.7027591 0.07804504 0.8933094 0.4426142 -0.07804504 0.8933094 0.4426142 0.123915 0.7005532 0.7027591 0.3568 0.7005531 0.617996 0.2247209 0.8933097 0.3892278 0.07804504 0.8933094 0.4426142 0.3568 0.7005531 0.617996 0.5466498 0.7005528 0.4586938 0.3442928 0.8933095 0.2888958 0.2247209 0.8933097 0.3892278 0.5466498 0.7005528 0.4586938 0.6705649 0.7005529 0.244066 0.4223373 0.8933096 0.1537181 0.3442928 0.8933095 0.2888958 0.6705649 0.7005529 0.244066 0.7136001 0.7005532 0 0.4494422 0.8933094 0 0.4223373 0.8933096 0.1537181 0.7136001 0.7005532 0 0.6705649 0.7005529 -0.244066 0.4223381 0.8933092 -0.153718 0.4494422 0.8933094 0 0.4223381 0.8933092 -0.153718 0.3442931 0.8933092 -0.2888961 0.189585 0.9688917 -0.15908 0.2325599 0.9688916 -0.08464497 0.3442931 0.8933092 -0.2888961 0.2247211 0.8933095 -0.3892282 0.1237429 0.9688915 -0.2143289 0.189585 0.9688917 -0.15908 0.2247211 0.8933095 -0.3892282 0.07804504 0.8933094 -0.4426142 0.04297499 0.9688918 -0.243725 0.1237429 0.9688915 -0.2143289 0.07804504 0.8933094 -0.4426142 -0.07804504 0.8933094 -0.4426142 -0.04297499 0.9688918 -0.243725 0.04297499 0.9688918 -0.243725 -0.07804504 0.8933094 -0.4426142 -0.2247211 0.8933095 -0.3892282 -0.1237429 0.9688915 -0.2143289 -0.04297499 0.9688918 -0.243725 -0.2247211 0.8933095 -0.3892282 -0.3442931 0.8933092 -0.2888961 -0.1895849 0.9688915 -0.1590809 -0.1237429 0.9688915 -0.2143289 -0.3442931 0.8933092 -0.2888961 -0.4223369 0.8933098 -0.153718 -0.2325599 0.9688916 -0.08464497 -0.1895849 0.9688915 -0.1590809 -0.4223369 0.8933098 -0.153718 -0.4494422 0.8933094 0 -0.2474849 0.9688917 0 -0.2325599 0.9688916 -0.08464497 -0.4494422 0.8933094 0 -0.4223369 0.8933098 0.153718 -0.2325599 0.9688916 0.08464497 -0.2474849 0.9688917 0 -0.4223369 0.8933098 0.153718 -0.3442931 0.8933092 0.2888961 -0.189585 0.9688917 0.15908 -0.2325599 0.9688916 0.08464497 -0.3442931 0.8933092 0.2888961 -0.2247211 0.8933095 0.3892282 -0.1237429 0.9688915 0.2143289 -0.189585 0.9688917 0.15908 -0.2247211 0.8933095 0.3892282 -0.07804504 0.8933094 0.4426142 -0.04297499 0.9688918 0.243725 -0.1237429 0.9688915 0.2143289 -0.07804504 0.8933094 0.4426142 0.07804504 0.8933094 0.4426142 0.04297499 0.9688918 0.243725 -0.04297499 0.9688918 0.243725 0.07804504 0.8933094 0.4426142 0.2247209 0.8933097 0.3892278 0.123743 0.9688917 0.214328 0.04297499 0.9688918 0.243725 0.2247209 0.8933097 0.3892278 0.3442928 0.8933095 0.2888958 0.189585 0.9688917 0.15908 0.123743 0.9688917 0.214328 0.3442928 0.8933095 0.2888958 0.4223373 0.8933096 0.1537181 0.2325599 0.9688916 0.08464497 0.189585 0.9688917 0.15908 0.4223373 0.8933096 0.1537181 0.4494422 0.8933094 0 0.2474849 0.9688917 0 0.2325599 0.9688916 0.08464497 0.4494422 0.8933094 0 0.4223381 0.8933092 -0.153718 0.2325599 0.9688916 -0.08464497 0.2474849 0.9688917 0 0.2325599 0.9688916 -0.08464497 0.189585 0.9688917 -0.15908 0.08188497 0.9942706 -0.06870897 0.100446 0.9942706 -0.03655899 0.189585 0.9688917 -0.15908 0.1237429 0.9688915 -0.2143289 0.05344597 0.9942706 -0.09257197 0.08188497 0.9942706 -0.06870897 0.1237429 0.9688915 -0.2143289 0.04297499 0.9688918 -0.243725 0.01856199 0.9942706 -0.105269 0.05344597 0.9942706 -0.09257197 0.04297499 0.9688918 -0.243725 -0.04297499 0.9688918 -0.243725 -0.01856199 0.9942706 -0.105269 0.01856199 0.9942706 -0.105269 -0.04297499 0.9688918 -0.243725 -0.1237429 0.9688915 -0.2143289 -0.05344597 0.9942706 -0.09257197 -0.01856199 0.9942706 -0.105269 -0.1237429 0.9688915 -0.2143289 -0.1895849 0.9688915 -0.1590809 -0.08188497 0.9942706 -0.06870897 -0.05344597 0.9942706 -0.09257197 -0.1895849 0.9688915 -0.1590809 -0.2325599 0.9688916 -0.08464497 -0.100446 0.9942706 -0.03655998 -0.08188497 0.9942706 -0.06870897 -0.2325599 0.9688916 -0.08464497 -0.2474849 0.9688917 0 -0.106893 0.9942706 0 -0.100446 0.9942706 -0.03655998 -0.2474849 0.9688917 0 -0.2325599 0.9688916 0.08464497 -0.100446 0.9942706 0.03655998 -0.106893 0.9942706 0 -0.2325599 0.9688916 0.08464497 -0.189585 0.9688917 0.15908 -0.08188497 0.9942706 0.06870997 -0.100446 0.9942706 0.03655998 -0.189585 0.9688917 0.15908 -0.1237429 0.9688915 0.2143289 -0.05344597 0.9942706 0.09257197 -0.08188497 0.9942706 0.06870997 -0.1237429 0.9688915 0.2143289 -0.04297499 0.9688918 0.243725 -0.01856199 0.9942706 0.105269 -0.05344597 0.9942706 0.09257197 -0.04297499 0.9688918 0.243725 0.04297499 0.9688918 0.243725 0.01856199 0.9942706 0.105269 -0.01856199 0.9942706 0.105269 0.04297499 0.9688918 0.243725 0.123743 0.9688917 0.214328 0.05344597 0.9942706 0.09257197 0.01856199 0.9942706 0.105269 0.123743 0.9688917 0.214328 0.189585 0.9688917 0.15908 0.08188497 0.9942706 0.06870897 0.05344597 0.9942706 0.09257197 0.189585 0.9688917 0.15908 0.2325599 0.9688916 0.08464497 0.100446 0.9942706 0.03655998 0.08188497 0.9942706 0.06870897 0.2325599 0.9688916 0.08464497 0.2474849 0.9688917 0 0.106893 0.9942706 0 0.100446 0.9942706 0.03655998 0.2474849 0.9688917 0 0.2325599 0.9688916 -0.08464497 0.100446 0.9942706 -0.03655899 0.106893 0.9942706 0 0.108035 -0.9900054 -0.09065203 0.1325241 -0.9900054 -0.04823502 0 -1 0 0.07051502 -0.9900053 -0.122135 0.108035 -0.9900054 -0.09065203 0 -1 0 0.02449001 -0.9900054 -0.1388871 0.07051502 -0.9900053 -0.122135 0 -1 0 -0.02448901 -0.9900054 -0.1388871 0.02449001 -0.9900054 -0.1388871 0 -1 0 -0.07051502 -0.9900053 -0.122135 -0.02448901 -0.9900054 -0.1388871 0 -1 0 -0.108035 -0.9900054 -0.09065203 -0.07051502 -0.9900053 -0.122135 0 -1 0 -0.1325241 -0.9900054 -0.04823502 -0.108035 -0.9900054 -0.09065203 0 -1 0 -0.14103 -0.9900053 0 -0.1325241 -0.9900054 -0.04823502 0 -1 0 -0.1325241 -0.9900054 0.04823502 -0.14103 -0.9900053 0 0 -1 0 -0.108035 -0.9900054 0.09065203 -0.1325241 -0.9900054 0.04823502 0 -1 0 -0.07051502 -0.9900053 0.122135 -0.108035 -0.9900054 0.09065203 0 -1 0 -0.02449001 -0.9900054 0.1388871 -0.07051502 -0.9900053 0.122135 0 -1 0 0.02448901 -0.9900054 0.1388871 -0.02449001 -0.9900054 0.1388871 0 -1 0 0.07051502 -0.9900053 0.122135 0.02448901 -0.9900054 0.1388871 0 -1 0 0.108035 -0.9900054 0.09065203 0.07051502 -0.9900053 0.122135 0 -1 0 0.1325241 -0.9900054 0.04823502 0.108035 -0.9900054 0.09065203 0 -1 0 0.14103 -0.9900053 0 0.1325241 -0.9900054 0.04823502 0 -1 0 0.1325241 -0.9900054 -0.04823502 0.14103 -0.9900053 0 0 -1 0 0.100446 0.9942706 -0.03655899 0.08188497 0.9942706 -0.06870897 0 1 0 0.08188497 0.9942706 -0.06870897 0.05344597 0.9942706 -0.09257197 0 1 0 0.05344597 0.9942706 -0.09257197 0.01856199 0.9942706 -0.105269 0 1 0 0.01856199 0.9942706 -0.105269 -0.01856199 0.9942706 -0.105269 0 1 0 -0.01856199 0.9942706 -0.105269 -0.05344597 0.9942706 -0.09257197 0 1 0 -0.05344597 0.9942706 -0.09257197 -0.08188497 0.9942706 -0.06870897 0 1 0 -0.08188497 0.9942706 -0.06870897 -0.100446 0.9942706 -0.03655998 0 1 0 -0.100446 0.9942706 -0.03655998 -0.106893 0.9942706 0 0 1 0 -0.106893 0.9942706 0 -0.100446 0.9942706 0.03655998 0 1 0 -0.100446 0.9942706 0.03655998 -0.08188497 0.9942706 0.06870997 0 1 0 -0.08188497 0.9942706 0.06870997 -0.05344597 0.9942706 0.09257197 0 1 0 -0.05344597 0.9942706 0.09257197 -0.01856199 0.9942706 0.105269 0 1 0 -0.01856199 0.9942706 0.105269 0.01856199 0.9942706 0.105269 0 1 0 0.01856199 0.9942706 0.105269 0.05344597 0.9942706 0.09257197 0 1 0 0.05344597 0.9942706 0.09257197 0.08188497 0.9942706 0.06870897 0 1 0 0.08188497 0.9942706 0.06870897 0.100446 0.9942706 0.03655998 0 1 0 0.100446 0.9942706 0.03655998 0.106893 0.9942706 0 0 1 0 0.106893 0.9942706 0 0.100446 0.9942706 -0.03655899 0 1 0</float_array>
          <technique_common>
            <accessor source="#polySurfaceShape2-normals-array" count="1257" stride="3">
              <param name="X" type="float"/>
              <param name="Y" type="float"/>
              <param name="Z" type="float"/>
            </accessor>
          </technique_common>
        </source>
        <source id="polySurfaceShape2-map1" name="polySurfaceShape2-map1">
          <float_array id="polySurfaceShape2-map1-array" count="1008">0.5227487 0.8489676 0.5193325 0.8210837 0.5306633 0.8388549 0.5109611 0.8878741 0.5158455 0.9031509 0.4951338 0.8973386 0.4957476 0.8596516 0.4870554 0.8385186 0.510674 0.8385774 0.1015568 0.8396744 0.08580054 0.8351572 0.09359651 0.8294649 0.5265414 0.89586 0.540105 0.9089973 0.5264904 0.9086488 0.08178825 0.8936483 0.0971698 0.8869613 0.09136176 0.9060472 0.5656606 0.8182496 0.5566544 0.8279256 0.5471523 0.8090165 0.5442955 0.875443 0.531854 0.8913652 0.5817944 0.884941 0.5750586 0.8634744 0.5828131 0.8611896 0.4890225 0.9453804 0.4819496 0.92592 0.5004532 0.9344711 0.501306 0.9490744 0.5094202 0.9497222 0.520228 0.9612274 0.5792311 0.8493836 0.09370632 0.8653548 0.1013756 0.8513154 0.1055053 0.8666884 0.490894 0.8176219 0.5006187 0.8260531 0.543834 0.8369368 0.5355942 0.8259251 0.4864576 0.8873945 0.4931846 0.9032043 0.4711401 0.8882053 0.08325791 0.8146567 0.07778004 0.8445792 0.06111855 0.8254222 0.5148131 0.8662326 0.5164363 0.8439348 0.5648015 0.8421099 0.5561392 0.8520716 0.5498543 0.8424572 0.5379425 0.8581436 0.05090408 0.8459659 0.05899462 0.8666513 0.04342994 0.8667506 0.06784943 0.9010731 0.05781925 0.8969573 0.06035763 0.8806862 0.5806409 0.8928671 0.5701193 0.9010394 0.5645576 0.8815492 0.08801445 0.9183151 0.07399526 0.9097345 0.5252008 0.7953528 0.5244476 0.7776712 0.5335706 0.7974594 0.4987981 0.9229007 0.5168977 0.9270635 0.5138735 0.9428949 0.528755 0.9466859 0.5539258 0.7952958 0.5394788 0.7948195 0.5323594 0.7768711 0.5297744 0.9400564 0.5268197 0.9201375 0.5361035 0.9303845 0.08912846 0.9474007 0.07490823 0.9417014 0.07778701 0.9625459 0.06673215 0.9646271 0.4971886 0.8072143 0.4979647 0.7798312 0.5054547 0.8078623 0.5046421 0.7874659 0.5119444 0.7718331 0.07828581 0.8552232 0.08082436 0.8659736 0.05715637 0.8497016 0.5448571 0.8510585 0.4750423 0.8743231 0.4927767 0.8752296 0.04262091 0.8778855 0.05574815 0.8158435 0.5658532 0.8635871 0.4758137 0.9140178 0.06803273 0.8806865 0.5109807 0.7958676 0.5261613 0.8198129 0.5125754 0.8322401 0.5119174 0.8206885 0.5564559 0.91769 0.5653174 0.9318882 0.5455377 0.9249277 0.5505096 0.9380102 0.5581906 0.9487915 0.5447902 0.9618055 0.1153302 0.8577321 0.1177931 0.8754313 0.5711213 0.8305295 0.5615156 0.8359556 0.0875046 0.7995 0.07364769 0.8084617 0.507525 0.984441 0.5021694 0.9647174 0.5088611 0.8621949 0.5066335 0.8766476 0.1000598 0.8779526 0.08158547 0.8801841 0.5248289 0.8648498 0.07510331 0.9246368 0.1164837 0.8853924 0.5681303 0.8501488 0.5141321 0.8751112 0.06040004 0.9152553 0.06001559 0.9270154 0.1305345 0.8601446 0.1283639 0.8864756 0.5040651 0.9153212 0.5183449 0.8020734 0.04670904 0.8318694 0.5755543 0.9237901 0.5822257 0.9034679 0.06548539 0.861654 0.523766 0.9785863 0.08069778 0.7836274 0.5510288 0.9052736 0.5590003 0.9070276 0.5571303 0.886987 0.1044769 0.8876979 0.109966 0.8892615 0.7865608 0.7208783 0.7973743 0.7353016 0.7842092 0.7431672 0.5576004 0.8652688 0.5368969 0.9508212 0.09789956 0.9232157 0.06730189 0.9423194 0.5132955 0.9123735 0.09280596 0.8049138 0.05269648 0.9101163 0.5748259 0.8371502 0.0446035 0.8427581 0.4901357 0.7996873 0.4928091 0.7769723 0.5001248 0.7739116 0.1150105 0.8451607 0.1004943 0.8996617 0.5831926 0.8442674 0.5687997 0.835593 0.06580832 0.7966312 0.6990841 0.8762763 0.6937561 0.8615466 0.7319772 0.8396665 0.742466 0.8686803 0.6837326 0.8495014 0.7122577 0.8159471 0.6702017 0.8415735 0.685668 0.8003348 0.6547675 0.8387046 0.6553782 0.7946423 0.9251398 0.8406127 0.9097069 0.8434818 0.89424 0.8022432 0.9245295 0.7965511 0.8961768 0.8514096 0.8676506 0.8178558 0.8861539 0.863454 0.8479325 0.8415739 0.8808261 0.8781837 0.8374445 0.8705875 0.8808259 0.8938456 0.837444 0.9014412 0.8861535 0.9085759 0.8479317 0.9304556 0.8961765 0.9206213 0.86765 0.9541754 0.9097056 0.9285496 0.8942392 0.9697885 0.9251397 0.9314191 0.924529 0.9754815 0.6547685 0.9295091 0.6702026 0.9266402 0.685667 0.9678792 0.6553766 0.9735704 0.683733 0.9187122 0.7122574 0.9522677 0.6937566 0.9066679 0.7319779 0.9285485 0.6990845 0.8919385 0.7424656 0.8995338 0.03860313 0.301087 0.03641278 0.2540097 0.07738357 0.2477247 0.0797796 0.2992222 0.03102244 0.2110028 0.07095613 0.1982503 0.02045459 0.1748175 0.05701904 0.1528267 0.00199355 0.1481303 0.03124823 0.1156559 0.9980056 0.1513219 0.9795458 0.1780106 0.9429802 0.1560201 0.9687504 0.1188485 0.9689772 0.2141955 0.9290426 0.2014434 0.9635878 0.2572023 0.9226167 0.2509175 0.9613988 0.3042783 0.9202214 0.3024144 0.9613994 0.3526942 0.920222 0.3545592 0.9635891 0.3997707 0.9226182 0.406056 0.9689791 0.4427777 0.9290443 0.4555305 0.9795473 0.4789623 0.9429825 0.5009534 0.998008 0.5056505 0.9687536 0.5381246 0.00199201 0.5024551 0.02045387 0.4757677 0.05701823 0.49776 0.03124615 0.5349296 0.03102289 0.4395841 0.07095668 0.4523374 0.03641414 0.3965781 0.0773852 0.4028632 0.03860412 0.3495029 0.07977996 0.351367 0.1204171 0.2387011 0.1230548 0.2963777 0.1130872 0.1817444 0.09693326 0.1271956 0.06707487 0.07921259 0.9030649 0.1303893 0.9329237 0.0824065 0.8869113 0.1849381 0.8795826 0.241895 0.876947 0.2995708 0.8769476 0.3574033 0.8795853 0.4150807 0.8869139 0.4720382 0.9030688 0.5265865 0.9329289 0.5745682 0.09693145 0.5233928 0.06707079 0.5713744 0.1130874 0.4688453 0.1204179 0.4118884 0.1230551 0.3542109 0.1590523 0.2308181 0.1615351 0.2938511 0.1520993 0.1676297 0.1366613 0.1053453 0.1080631 0.04686084 0.8633375 0.1085394 0.891936 0.05005432 0.8478982 0.1708233 0.8409466 0.2340114 0.8384655 0.2970441 0.8384665 0.3599325 0.8409494 0.4229656 0.8479017 0.486154 0.863342 0.5484371 0.8919419 0.6069211 0.1366582 0.5452445 0.1080573 0.6037284 0.1520992 0.4829612 0.1590524 0.419773 0.1615344 0.3567395 0.19062 0.2253874 0.1925662 0.292097 0.1852334 0.1579632 0.1733112 0.09017681 0.1511834 0.02342921 0.8266875 0.09337078 0.8488165 0.02662318 0.8147641 0.1611562 0.8093782 0.2285803 0.8074337 0.2952901 0.8074345 0.3616878 0.8093808 0.4283966 0.8147674 0.4958217 0.826692 0.5636075 0.8488221 0.6303537 0.1733076 0.560415 0.1511764 0.6271613 0.1852328 0.4926295 0.1906194 0.4252045 0.1925655 0.3584947 0.2231217 0.22188 0.2243257 0.2909658 0.2200005 0.1516736 0.2134039 0.0800813 0.2012225 0.007103258 0.786595 0.08327452 0.7987784 0.01029663 0.7799975 0.1548663 0.7768762 0.2250727 0.7756732 0.294159 0.7756742 0.3628194 0.7768783 0.4319053 0.7800009 0.5021117 0.7865992 0.573704 0.7987837 0.6466815 0.2133996 0.5705116 0.2012139 0.6434889 0.2199992 0.4989198 0.2231207 0.4287125 0.2243245 0.359627 0.2527219 0.2207953 0.2530788 0.2906174 0.2522256 0.1497072 0.2519372 0.07683559 0.252042 0.001578318 0.7480629 0.08002881 0.7479596 0.004771089 0.7477744 0.1528997 0.7472766 0.2239878 0.7469191 0.2938101 0.7469196 0.3631691 0.7472789 0.4329904 0.7477782 0.5040786 0.7480666 0.5769501 0.7479648 0.6522082 0.2519324 0.5737584 0.2520328 0.6490169 0.2522232 0.5008868 0.2527203 0.4297987 0.2530778 0.3599764 0.2846651 0.2220695 0.2841778 0.2910301 0.286756 0.1519756 0.292687 0.08046756 0.305043 0.007625333 0.707313 0.08366042 0.6949585 0.01081704 0.7132446 0.1551686 0.7153341 0.2252625 0.7158197 0.2942225 0.7158199 0.3627575 0.7153357 0.4317174 0.7132478 0.5018113 0.7073177 0.57332 0.6949638 0.6461629 0.2926807 0.5701287 0.3050338 0.6429719 0.2867523 0.4986198 0.2846628 0.4285251 0.2841771 0.3595652 0.3165423 0.2256256 0.3153121 0.2921779 0.3208218 0.1583353 0.3318342 0.0906385 0.3540052 0.02405326 0.6681674 0.0938309 0.6459965 0.02724502 0.679179 0.1615275 0.6834565 0.2288174 0.6846858 0.2953699 0.6846856 0.3616102 0.6834576 0.4281625 0.6791812 0.4954527 0.6681705 0.5631502 0.646001 0.6297359 0.3318271 0.5599593 0.3539949 0.626545 0.320817 0.4922613 0.3165403 0.4249707 0.3153111 0.3584182 0.3507472 0.2313079 0.3489929 0.2940028 0.3564462 0.1685335 0.3705364 0.1067569 0.3981523 0.04926101 0.6294651 0.1099483 0.6018493 0.05245245 0.6435555 0.1717248 0.6492524 0.2344993 0.6510058 0.2971944 0.6510056 0.3597856 0.6492529 0.4224813 0.643557 0.4852564 0.6294669 0.5470328 0.6018535 0.6045293 0.3705292 0.5438423 0.3981433 0.6013393 0.3564404 0.4820651 0.3507445 0.41929 0.3489918 0.3565941 0.383542 0.2380147 0.3815544 0.2961472 0.3897292 0.1805965 0.4046965 0.1255118 0.4338258 0.07696813 0.5953058 0.1287034 0.5661753 0.0801596 0.610272 0.1837877 0.6164589 0.2412052 0.6184444 0.299338 0.618444 0.3576425 0.6164589 0.4157758 0.6102726 0.4731946 0.5953071 0.5282791 0.5661787 0.5768232 0.404689 0.5250884 0.433817 0.5736325 0.3897238 0.4700034 0.3835385 0.4125844 0.381554 0.3544509 0.4144089 0.2444475 0.4124088 0.2981701 0.4203776 0.1924498 0.434436 0.1442094 0.4614276 0.1042531 0.5655663 0.1474011 0.5385742 0.1074453 0.5796241 0.1956407 0.5855917 0.2476385 0.5875906 0.3013614 0.5875905 0.3556207 0.5855913 0.4093434 0.5796244 0.461341 0.5655671 0.5095828 0.5385758 0.5495396 0.4344285 0.5063918 0.4614202 0.5463489 0.4203724 0.4581508 0.4144056 0.4061523 0.4124077 0.3524294 0.4647341 0.2517245 0.4629149 0.3002836 0.4695674 0.2076012 0.4796413 0.170751 0.4977873 0.1437578 0.5203608 0.1739425 0.502215 0.1469498 0.5304336 0.2107921 0.5352672 0.2549149 0.5370853 0.3034741 0.5370851 0.3535082 0.535267 0.4020674 0.530434 0.4461905 0.5203612 0.4830414 0.5022164 0.5100344 0.4796351 0.4798507 0.4977796 0.5068448 0.4695626 0.4430004 0.4647307 0.3988769 0.4629138 0.3503177 0.3151354 0.8563527 0.325635 0.8273718 0.3635984 0.8491706 0.3582532 0.8639214 0.3453751 0.8037009 0.37365 0.8371215 0.3719926 0.7881657 0.3872074 0.8292137 0.4023008 0.782609 0.4026546 0.8263921 0.1890966 0.7990574 0.2194065 0.8046127 0.2041928 0.845661 0.1887458 0.8428401 0.2460249 0.8201474 0.2177513 0.8535686 0.2657667 0.8438193 0.2278036 0.8656181 0.276266 0.8728006 0.2331488 0.880369 0.2762662 0.9036269 0.2331488 0.8960584 0.2657661 0.9326098 0.2278034 0.9108101 0.2460244 0.9562823 0.2177506 0.9228605 0.2194086 0.9718165 0.2041913 0.930769 0.1891016 0.977376 0.1887437 0.9335919 0.4022989 0.9609264 0.3719905 0.9553686 0.3872075 0.9143211 0.4026545 0.9171438 0.3453736 0.9398314 0.3736498 0.9064122 0.3256339 0.9161589 0.3635976 0.8943618 0.3151352 0.8871772 0.3582528 0.8796107 0.6544021 0.8841074 0.9255075 0.8860154 0.402933 0.8717672 0.1884683 0.8882145</float_array>
          <technique_common>
            <accessor source="#polySurfaceShape2-map1-array" count="504" stride="2">
              <param name="S" type="float"/>
              <param name="T" type="float"/>
            </accessor>
          </technique_common>
        </source>
        <vertices id="polySurfaceShape2-vertices" name="polySurfaceShape2-vertices">
          <input semantic="POSITION" source="#polySurfaceShape2-positions"/>
        </vertices>
        <triangles material="lambert2SG" count="793">
          <input semantic="VERTEX" source="#polySurfaceShape2-vertices" offset="0"/>
          <input semantic="NORMAL" source="#polySurfaceShape2-normals" offset="1"/>
          <input semantic="TEXCOORD" source="#polySurfaceShape2-map1" offset="2" set="0"/>
          <p>82 0 0 30 1 1 86 2 2 42 3 3 114 4 4 45 5 5 106 6 6 10 7 7 32 8 8 72 9 9 49 10 10 34 11 11 39 12 12 4 13 13 74 14 14 100 15 15 58 16 16 3 17 17 118 18 18 12 19 19 17 20 20 27 21 21 4 13 13 139 22 22 125 23 23 65 24 24 6 25 25 57 26 26 91 27 27 70 28 28 111 29 29 5 30 30 50 31 31 65 24 24 44 32 32 6 25 25 108 33 33 116 34 34 35 35 35 10 7 7 124 36 36 121 37 37 17 20 20 55 38 38 47 39 39 0 40 40 117 41 41 25 42 42 75 43 43 109 44 44 28 45 45 82 0 0 37 46 46 129 47 47 39 12 12 114 4 4 42 3 3 136 48 48 80 49 49 133 50 50 139 22 22 24 51 51 27 21 21 97 52 52 81 53 53 25 42 54 43 54 55 76 55 56 127 56 57 22 57 58 99 58 59 59 59 60 101 60 61 134 61 62 100 15 15 21 62 63 19 63 64 62 64 65 1 65 66 87 66 67 131 67 68 5 30 30 60 68 69 50 31 31 64 69 70 118 18 18 17 20 20 135 70 71 90 71 72 64 69 70 31 72 73 131 67 68 16 73 74 122 74 75 16 73 74 4 13 13 90 71 76 67 75 77 101 60 61 67 75 77 77 76 78 113 77 79 130 78 80 9 79 81 94 80 82 69 81 83 9 79 81 77 76 84 72 9 9 116 34 34 61 82 85 94 80 82 9 79 81 69 81 83 129 47 47 30 1 1 82 0 0 23 83 86 61 82 85 116 34 34 97 52 52 85 84 87 81 53 53 24 51 51 55 38 38 98 85 88 86 2 2 47 39 39 55 38 38 52 86 89 10 7 7 66 87 90 52 86 91 127 56 57 76 55 56 57 26 92 75 43 43 28 45 45 24 51 51 98 85 88 27 21 21 2 88 93 125 23 23 59 59 60 117 41 41 48 89 94 25 42 42 70 28 28 91 27 27 1 65 66 29 90 95 61 82 85 23 83 86 100 15 15 43 54 55 29 90 95 115 91 96 30 1 1 94 80 82 21 62 63 62 64 65 110 92 97 60 68 69 131 67 68 31 72 73 10 7 7 121 37 37 32 8 8 30 1 1 132 93 98 20 94 99 54 95 100 33 96 101 63 97 102 95 98 103 68 99 104 18 100 105 46 101 106 7 102 107 35 35 35 123 103 108 126 104 109 12 19 19 36 105 110 75 43 43 128 106 111 50 31 31 53 107 112 26 108 113 37 46 46 83 109 114 129 47 47 56 110 115 42 3 3 45 5 5 88 111 116 38 112 117 23 83 86 29 90 95 23 83 86 38 112 117 42 3 3 11 113 118 39 12 12 11 113 118 24 51 51 139 22 22 124 36 36 130 78 80 94 80 82 67 75 77 73 114 119 101 60 61 41 115 120 35 35 35 7 102 107 44 32 32 65 24 24 93 116 121 42 3 3 56 110 115 138 117 122 42 3 3 138 117 122 11 113 118 76 55 56 43 54 55 15 118 123 124 36 124 73 114 119 67 75 77 112 119 125 120 120 126 7 102 107 120 120 126 41 115 120 7 102 107 114 4 4 96 121 127 45 5 5 96 121 127 91 27 27 117 41 41 7 102 107 46 101 106 112 119 125 137 122 128 110 92 97 30 1 1 30 1 1 110 92 97 86 2 2 28 45 45 85 84 87 97 52 52 57 26 92 28 45 45 91 27 129 79 123 130 33 96 101 54 95 100 99 58 59 51 124 131 79 123 130 109 44 44 85 84 87 28 45 45 29 90 95 13 125 132 61 82 85 53 107 112 50 31 31 105 126 133 18 127 105 105 126 133 50 31 31 99 58 59 22 57 58 51 124 131 25 42 54 127 56 57 52 86 91 25 42 42 52 86 89 0 40 40 36 105 110 128 106 111 53 107 134 54 95 100 63 97 102 89 128 135 119 129 136 89 128 135 104 130 137 12 19 19 55 38 38 17 20 20 126 104 109 133 50 50 12 19 19 45 5 5 66 87 90 56 110 115 106 6 6 32 8 8 83 109 114 128 106 111 75 43 43 57 26 92 26 108 113 111 29 29 50 31 31 58 16 16 38 112 117 88 111 116 123 103 138 88 111 116 71 131 139 102 132 140 8 133 141 14 134 142 89 128 135 27 21 21 104 130 137 104 130 137 27 21 21 107 135 143 18 127 105 50 31 31 78 136 144 61 82 85 49 10 10 72 9 9 61 82 85 13 125 132 109 44 44 47 39 39 62 64 65 17 20 20 17 20 20 135 70 71 64 69 70 63 97 102 122 74 75 4 13 13 31 72 73 95 98 103 18 100 105 3 17 17 58 16 16 64 69 145 90 71 76 101 60 61 64 69 145 125 23 23 2 88 93 65 24 24 65 24 24 2 88 93 93 116 121 45 5 5 0 40 40 66 87 90 52 86 89 66 87 90 0 40 40 124 36 124 67 75 77 40 137 146 67 75 77 113 77 79 40 137 146 33 96 101 68 99 104 95 98 103 21 62 63 69 81 83 19 63 64 137 122 128 30 1 1 115 91 96 111 29 29 70 28 28 5 30 30 60 68 69 5 30 30 131 67 68 71 131 139 35 35 35 41 115 120 93 116 121 80 49 49 136 48 48 43 54 55 134 61 62 15 118 123 100 15 15 134 61 62 43 54 55 4 13 13 16 73 74 74 14 14 84 138 147 96 121 127 114 4 4 34 11 11 75 43 43 92 139 148 34 11 11 49 10 10 75 43 43 52 86 91 76 55 56 10 7 149 76 55 56 15 118 123 10 7 149 67 75 77 90 71 76 77 76 78 69 81 83 77 76 84 19 63 64 78 136 144 60 68 69 31 72 73 60 68 69 78 136 144 50 31 31 80 49 49 93 116 121 2 88 93 107 135 143 27 21 21 98 85 88 29 90 95 81 53 53 13 125 132 29 90 95 43 54 55 127 56 57 11 113 118 37 46 46 82 0 0 24 51 51 11 113 118 82 0 0 37 46 46 56 110 115 83 109 114 66 87 90 83 109 114 56 110 115 84 138 147 114 4 4 16 73 74 87 66 67 96 121 127 84 138 147 13 125 132 85 84 87 109 44 44 13 125 132 81 53 53 85 84 87 86 2 2 55 38 38 24 51 51 86 2 2 24 51 51 82 0 0 84 138 147 16 73 74 87 66 67 131 67 68 87 66 67 16 73 74 88 111 116 108 33 33 35 35 35 71 131 139 88 111 116 35 35 35 89 128 135 63 97 102 4 13 13 27 21 21 89 128 135 4 13 13 77 76 84 90 71 72 19 63 64 135 70 71 19 63 64 90 71 72 91 27 129 28 45 45 97 52 52 48 89 94 117 41 41 91 27 27 93 116 121 136 48 48 41 115 150 93 116 121 41 115 150 44 32 32 124 36 36 94 80 82 121 37 37 20 94 99 94 80 82 30 1 1 33 96 101 95 98 103 63 97 102 63 97 102 95 98 103 122 74 75 91 27 27 96 121 127 1 65 66 87 66 67 1 65 66 96 121 127 25 42 54 48 89 151 97 52 52 91 27 129 97 52 52 48 89 151 107 135 143 98 85 88 80 49 49 80 49 49 98 85 88 133 50 50 119 129 136 99 58 59 79 123 130 119 129 136 104 130 137 99 58 59 100 15 15 29 90 95 38 112 117 100 15 15 38 112 117 58 16 16 3 17 17 101 60 61 100 15 15 64 69 145 101 60 61 3 17 17 35 35 35 116 34 34 46 101 106 104 130 137 59 59 60 99 58 59 59 59 60 104 130 137 107 135 143 66 87 90 106 6 6 83 109 114 10 7 7 106 6 6 66 87 90 2 88 93 107 135 143 80 49 49 2 88 93 59 59 60 107 135 143 88 111 116 23 83 86 108 33 33 23 83 86 116 34 34 108 33 33 61 82 85 109 44 44 49 10 10 109 44 44 75 43 43 49 10 10 110 92 97 62 64 65 47 39 39 86 2 2 110 92 97 47 39 39 57 26 26 70 28 28 111 29 29 26 108 113 57 26 26 111 29 29 9 79 81 40 137 152 113 77 153 77 76 84 9 79 81 113 77 154 114 4 4 74 14 14 16 73 74 74 14 14 114 4 4 39 12 12 115 91 96 69 81 83 21 62 63 69 81 83 115 91 96 94 80 82 46 101 106 116 34 34 103 140 155 116 34 34 72 9 9 103 140 155 117 41 41 0 40 40 45 5 5 96 121 127 117 41 41 45 5 5 64 69 145 58 16 16 118 18 156 123 103 138 58 16 16 88 111 116 54 95 100 89 128 135 119 129 136 79 123 130 54 95 100 119 129 136 6 25 25 44 32 32 120 120 157 41 115 150 120 120 157 44 32 32 121 37 37 20 94 99 32 8 8 94 80 82 20 94 99 121 37 37 95 98 103 31 72 73 122 74 75 122 74 75 31 72 73 16 73 74 118 18 156 58 16 16 123 103 138 118 18 18 123 103 108 12 19 19 15 118 123 124 36 124 10 7 149 73 114 119 124 36 124 15 118 123 125 23 23 22 57 58 59 59 60 136 48 48 133 50 50 126 104 109 126 104 109 123 103 108 71 131 158 81 53 53 29 90 95 127 56 57 81 53 53 127 56 57 25 42 54 128 106 111 26 108 159 53 107 134 128 106 111 57 26 92 26 108 159 129 47 47 132 93 98 30 1 1 83 109 114 32 8 8 129 47 47 130 78 80 40 137 152 9 79 81 124 36 36 40 137 152 130 78 80 5 30 30 70 28 28 131 67 68 1 65 66 131 67 68 70 28 28 32 8 8 20 94 99 132 93 98 32 8 8 132 93 98 129 47 47 98 85 88 55 38 38 133 50 50 133 50 50 55 38 38 12 19 19 134 61 62 73 114 119 15 118 123 73 114 119 134 61 62 101 60 61 62 64 65 135 70 71 17 20 20 19 63 64 135 70 71 62 64 65 126 104 109 71 131 158 136 48 48 41 115 150 136 48 48 71 131 158 137 122 128 21 62 63 110 92 97 115 91 96 21 62 63 137 122 128 11 113 118 138 117 122 37 46 46 37 46 46 138 117 122 56 110 115 139 22 22 4 13 13 39 12 12 139 22 22 39 12 12 11 113 118 140 141 160 141 142 161 158 144 163 158 144 163 141 142 161 159 143 162 141 145 161 142 146 164 159 148 162 159 148 162 142 146 164 160 147 165 142 149 164 143 150 166 160 152 165 160 152 165 143 150 166 161 151 167 143 153 166 144 154 168 161 156 167 161 156 167 144 154 168 162 155 169 144 157 170 145 158 171 162 160 173 162 160 173 145 158 171 163 159 172 145 161 171 146 162 174 163 164 172 163 164 172 146 162 174 164 163 175 146 165 174 147 166 176 164 168 175 164 168 175 147 166 176 165 167 177 147 169 176 148 170 178 165 172 177 165 172 177 148 170 178 166 171 179 148 173 178 149 174 180 166 176 179 166 176 179 149 174 180 167 175 181 149 177 180 150 178 182 167 180 181 167 180 181 150 178 182 168 179 183 150 181 182 151 182 184 168 184 183 168 184 183 151 182 184 169 183 185 151 185 184 152 186 186 169 188 185 169 188 185 152 186 186 170 187 187 152 189 186 153 190 188 170 192 187 170 192 187 153 190 188 171 191 189 153 193 190 154 194 191 171 196 193 171 196 193 154 194 191 172 195 192 154 197 191 155 198 194 172 200 192 172 200 192 155 198 194 173 199 195 155 201 194 156 202 196 173 204 195 173 204 195 156 202 196 174 203 197 156 205 196 157 206 198 174 208 197 174 208 197 157 206 198 175 207 199 157 209 198 140 210 160 175 212 199 175 212 199 140 210 160 158 211 163 158 213 200 159 214 201 176 216 203 176 216 203 159 214 201 177 215 202 159 217 201 160 218 204 177 220 202 177 220 202 160 218 204 178 219 205 160 221 204 161 222 206 178 224 205 178 224 205 161 222 206 179 223 207 161 225 206 162 226 208 179 228 207 179 228 207 162 226 208 180 227 209 162 229 210 163 230 211 180 232 213 180 232 213 163 230 211 181 231 212 163 233 211 164 234 214 181 236 212 181 236 212 164 234 214 182 235 215 164 237 214 165 238 216 182 240 215 182 240 215 165 238 216 183 239 217 165 241 216 166 242 218 183 244 217 183 244 217 166 242 218 184 243 219 166 245 218 167 246 220 184 248 219 184 248 219 167 246 220 185 247 221 167 249 220 168 250 222 185 252 221 185 252 221 168 250 222 186 251 223 168 253 222 169 254 224 186 256 223 186 256 223 169 254 224 187 255 225 169 257 224 170 258 226 187 260 225 187 260 225 170 258 226 188 259 227 170 261 226 171 262 228 188 264 227 188 264 227 171 262 228 189 263 229 171 265 230 172 266 231 189 268 233 189 268 233 172 266 231 190 267 232 172 269 231 173 270 234 190 272 232 190 272 232 173 270 234 191 271 235 173 273 234 174 274 236 191 276 235 191 276 235 174 274 236 192 275 237 174 277 236 175 278 238 192 280 237 192 280 237 175 278 238 193 279 239 175 281 238 158 282 200 193 284 239 193 284 239 158 282 200 176 283 203 176 285 203 177 286 202 194 288 241 194 288 241 177 286 202 195 287 240 177 289 202 178 290 205 195 292 240 195 292 240 178 290 205 196 291 242 178 293 205 179 294 207 196 296 242 196 296 242 179 294 207 197 295 243 179 297 207 180 298 209 197 300 243 197 300 243 180 298 209 198 299 244 180 301 213 181 302 212 198 304 246 198 304 246 181 302 212 199 303 245 181 305 212 182 306 215 199 308 245 199 308 245 182 306 215 200 307 247 182 309 215 183 310 217 200 312 247 200 312 247 183 310 217 201 311 248 183 313 217 184 314 219 201 316 248 201 316 248 184 314 219 202 315 249 184 317 219 185 318 221 202 320 249 202 320 249 185 318 221 203 319 250 185 321 221 186 322 223 203 324 250 203 324 250 186 322 223 204 323 251 186 325 223 187 326 225 204 328 251 204 328 251 187 326 225 205 327 252 187 329 225 188 330 227 205 332 252 205 332 252 188 330 227 206 331 253 188 333 227 189 334 229 206 336 253 206 336 253 189 334 229 207 335 254 189 337 233 190 338 232 207 340 256 207 340 256 190 338 232 208 339 255 190 341 232 191 342 235 208 344 255 208 344 255 191 342 235 209 343 257 191 345 235 192 346 237 209 348 257 209 348 257 192 346 237 210 347 258 192 349 237 193 350 239 210 352 258 210 352 258 193 350 239 211 351 259 193 353 239 176 354 203 211 356 259 211 356 259 176 354 203 194 355 241 194 357 241 195 358 240 212 360 261 212 360 261 195 358 240 213 359 260 195 361 240 196 362 242 213 364 260 213 364 260 196 362 242 214 363 262 196 365 242 197 366 243 214 368 262 214 368 262 197 366 243 215 367 263 197 369 243 198 370 244 215 372 263 215 372 263 198 370 244 216 371 264 198 373 246 199 374 245 216 376 266 216 376 266 199 374 245 217 375 265 199 377 245 200 378 247 217 380 265 217 380 265 200 378 247 218 379 267 200 381 247 201 382 248 218 384 267 218 384 267 201 382 248 219 383 268 201 385 248 202 386 249 219 388 268 219 388 268 202 386 249 220 387 269 202 389 249 203 390 250 220 392 269 220 392 269 203 390 250 221 391 270 203 393 250 204 394 251 221 396 270 221 396 270 204 394 251 222 395 271 204 397 251 205 398 252 222 400 271 222 400 271 205 398 252 223 399 272 205 401 252 206 402 253 223 404 272 223 404 272 206 402 253 224 403 273 206 405 253 207 406 254 224 408 273 224 408 273 207 406 254 225 407 274 207 409 256 208 410 255 225 412 276 225 412 276 208 410 255 226 411 275 208 413 255 209 414 257 226 416 275 226 416 275 209 414 257 227 415 277 209 417 257 210 418 258 227 420 277 227 420 277 210 418 258 228 419 278 210 421 258 211 422 259 228 424 278 228 424 278 211 422 259 229 423 279 211 425 259 194 426 241 229 428 279 229 428 279 194 426 241 212 427 261 212 429 261 213 430 260 230 432 281 230 432 281 213 430 260 231 431 280 213 433 260 214 434 262 231 436 280 231 436 280 214 434 262 232 435 282 214 437 262 215 438 263 232 440 282 232 440 282 215 438 263 233 439 283 215 441 263 216 442 264 233 444 283 233 444 283 216 442 264 234 443 284 216 445 266 217 446 265 234 448 286 234 448 286 217 446 265 235 447 285 217 449 265 218 450 267 235 452 285 235 452 285 218 450 267 236 451 287 218 453 267 219 454 268 236 456 287 236 456 287 219 454 268 237 455 288 219 457 268 220 458 269 237 460 288 237 460 288 220 458 269 238 459 289 220 461 269 221 462 270 238 464 289 238 464 289 221 462 270 239 463 290 221 465 270 222 466 271 239 468 290 239 468 290 222 466 271 240 467 291 222 469 271 223 470 272 240 472 291 240 472 291 223 470 272 241 471 292 223 473 272 224 474 273 241 476 292 241 476 292 224 474 273 242 475 293 224 477 273 225 478 274 242 480 293 242 480 293 225 478 274 243 479 294 225 481 276 226 482 275 243 484 296 243 484 296 226 482 275 244 483 295 226 485 275 227 486 277 244 488 295 244 488 295 227 486 277 245 487 297 227 489 277 228 490 278 245 492 297 245 492 297 228 490 278 246 491 298 228 493 278 229 494 279 246 496 298 246 496 298 229 494 279 247 495 299 229 497 279 212 498 261 247 500 299 247 500 299 212 498 261 230 499 281 230 501 281 231 502 280 248 504 301 248 504 301 231 502 280 249 503 300 231 505 280 232 506 282 249 508 300 249 508 300 232 506 282 250 507 302 232 509 282 233 510 283 250 512 302 250 512 302 233 510 283 251 511 303 233 513 283 234 514 284 251 516 303 251 516 303 234 514 284 252 515 304 234 517 286 235 518 285 252 520 306 252 520 306 235 518 285 253 519 305 235 521 285 236 522 287 253 524 305 253 524 305 236 522 287 254 523 307 236 525 287 237 526 288 254 528 307 254 528 307 237 526 288 255 527 308 237 529 288 238 530 289 255 532 308 255 532 308 238 530 289 256 531 309 238 533 289 239 534 290 256 536 309 256 536 309 239 534 290 257 535 310 239 537 290 240 538 291 257 540 310 257 540 310 240 538 291 258 539 311 240 541 291 241 542 292 258 544 311 258 544 311 241 542 292 259 543 312 241 545 292 242 546 293 259 548 312 259 548 312 242 546 293 260 547 313 242 549 293 243 550 294 260 552 313 260 552 313 243 550 294 261 551 314 243 553 296 244 554 295 261 556 316 261 556 316 244 554 295 262 555 315 244 557 295 245 558 297 262 560 315 262 560 315 245 558 297 263 559 317 245 561 297 246 562 298 263 564 317 263 564 317 246 562 298 264 563 318 246 565 298 247 566 299 264 568 318 264 568 318 247 566 299 265 567 319 247 569 299 230 570 281 265 572 319 265 572 319 230 570 281 248 571 301 248 573 301 249 574 300 266 576 321 266 576 321 249 574 300 267 575 320 249 577 300 250 578 302 267 580 320 267 580 320 250 578 302 268 579 322 250 581 302 251 582 303 268 584 322 268 584 322 251 582 303 269 583 323 251 585 303 252 586 304 269 588 323 269 588 323 252 586 304 270 587 324 252 589 306 253 590 305 270 592 326 270 592 326 253 590 305 271 591 325 253 593 305 254 594 307 271 596 325 271 596 325 254 594 307 272 595 327 254 597 307 255 598 308 272 600 327 272 600 327 255 598 308 273 599 328 255 601 308 256 602 309 273 604 328 273 604 328 256 602 309 274 603 329 256 605 309 257 606 310 274 608 329 274 608 329 257 606 310 275 607 330 257 609 310 258 610 311 275 612 330 275 612 330 258 610 311 276 611 331 258 613 311 259 614 312 276 616 331 276 616 331 259 614 312 277 615 332 259 617 312 260 618 313 277 620 332 277 620 332 260 618 313 278 619 333 260 621 313 261 622 314 278 624 333 278 624 333 261 622 314 279 623 334 261 625 316 262 626 315 279 628 336 279 628 336 262 626 315 280 627 335 262 629 315 263 630 317 280 632 335 280 632 335 263 630 317 281 631 337 263 633 317 264 634 318 281 636 337 281 636 337 264 634 318 282 635 338 264 637 318 265 638 319 282 640 338 282 640 338 265 638 319 283 639 339 265 641 319 248 642 301 283 644 339 283 644 339 248 642 301 266 643 321 266 645 321 267 646 320 284 648 341 284 648 341 267 646 320 285 647 340 267 649 320 268 650 322 285 652 340 285 652 340 268 650 322 286 651 342 268 653 322 269 654 323 286 656 342 286 656 342 269 654 323 287 655 343 269 657 323 270 658 324 287 660 343 287 660 343 270 658 324 288 659 344 270 661 326 271 662 325 288 664 346 288 664 346 271 662 325 289 663 345 271 665 325 272 666 327 289 668 345 289 668 345 272 666 327 290 667 347 272 669 327 273 670 328 290 672 347 290 672 347 273 670 328 291 671 348 273 673 328 274 674 329 291 676 348 291 676 348 274 674 329 292 675 349 274 677 329 275 678 330 292 680 349 292 680 349 275 678 330 293 679 350 275 681 330 276 682 331 293 684 350 293 684 350 276 682 331 294 683 351 276 685 331 277 686 332 294 688 351 294 688 351 277 686 332 295 687 352 277 689 332 278 690 333 295 692 352 295 692 352 278 690 333 296 691 353 278 693 333 279 694 334 296 696 353 296 696 353 279 694 334 297 695 354 279 697 336 280 698 335 297 700 356 297 700 356 280 698 335 298 699 355 280 701 335 281 702 337 298 704 355 298 704 355 281 702 337 299 703 357 281 705 337 282 706 338 299 708 357 299 708 357 282 706 338 300 707 358 282 709 338 283 710 339 300 712 358 300 712 358 283 710 339 301 711 359 283 713 339 266 714 321 301 716 359 301 716 359 266 714 321 284 715 341 284 717 341 285 718 340 302 720 361 302 720 361 285 718 340 303 719 360 285 721 340 286 722 342 303 724 360 303 724 360 286 722 342 304 723 362 286 725 342 287 726 343 304 728 362 304 728 362 287 726 343 305 727 363 287 729 343 288 730 344 305 732 363 305 732 363 288 730 344 306 731 364 288 733 346 289 734 345 306 736 366 306 736 366 289 734 345 307 735 365 289 737 345 290 738 347 307 740 365 307 740 365 290 738 347 308 739 367 290 741 347 291 742 348 308 744 367 308 744 367 291 742 348 309 743 368 291 745 348 292 746 349 309 748 368 309 748 368 292 746 349 310 747 369 292 749 349 293 750 350 310 752 369 310 752 369 293 750 350 311 751 370 293 753 350 294 754 351 311 756 370 311 756 370 294 754 351 312 755 371 294 757 351 295 758 352 312 760 371 312 760 371 295 758 352 313 759 372 295 761 352 296 762 353 313 764 372 313 764 372 296 762 353 314 763 373 296 765 353 297 766 354 314 768 373 314 768 373 297 766 354 315 767 374 297 769 356 298 770 355 315 772 376 315 772 376 298 770 355 316 771 375 298 773 355 299 774 357 316 776 375 316 776 375 299 774 357 317 775 377 299 777 357 300 778 358 317 780 377 317 780 377 300 778 358 318 779 378 300 781 358 301 782 359 318 784 378 318 784 378 301 782 359 319 783 379 301 785 359 284 786 341 319 788 379 319 788 379 284 786 341 302 787 361 302 789 361 303 790 360 320 792 381 320 792 381 303 790 360 321 791 380 303 793 360 304 794 362 321 796 380 321 796 380 304 794 362 322 795 382 304 797 362 305 798 363 322 800 382 322 800 382 305 798 363 323 799 383 305 801 363 306 802 364 323 804 383 323 804 383 306 802 364 324 803 384 306 805 366 307 806 365 324 808 386 324 808 386 307 806 365 325 807 385 307 809 365 308 810 367 325 812 385 325 812 385 308 810 367 326 811 387 308 813 367 309 814 368 326 816 387 326 816 387 309 814 368 327 815 388 309 817 368 310 818 369 327 820 388 327 820 388 310 818 369 328 819 389 310 821 369 311 822 370 328 824 389 328 824 389 311 822 370 329 823 390 311 825 370 312 826 371 329 828 390 329 828 390 312 826 371 330 827 391 312 829 371 313 830 372 330 832 391 330 832 391 313 830 372 331 831 392 313 833 372 314 834 373 331 836 392 331 836 392 314 834 373 332 835 393 314 837 373 315 838 374 332 840 393 332 840 393 315 838 374 333 839 394 315 841 376 316 842 375 333 844 396 333 844 396 316 842 375 334 843 395 316 845 375 317 846 377 334 848 395 334 848 395 317 846 377 335 847 397 317 849 377 318 850 378 335 852 397 335 852 397 318 850 378 336 851 398 318 853 378 319 854 379 336 856 398 336 856 398 319 854 379 337 855 399 319 857 379 302 858 361 337 860 399 337 860 399 302 858 361 320 859 381 320 861 381 321 862 380 338 864 401 338 864 401 321 862 380 339 863 400 321 865 380 322 866 382 339 868 400 339 868 400 322 866 382 340 867 402 322 869 382 323 870 383 340 872 402 340 872 402 323 870 383 341 871 403 323 873 383 324 874 384 341 876 403 341 876 403 324 874 384 342 875 404 324 877 386 325 878 385 342 880 406 342 880 406 325 878 385 343 879 405 325 881 385 326 882 387 343 884 405 343 884 405 326 882 387 344 883 407 326 885 387 327 886 388 344 888 407 344 888 407 327 886 388 345 887 408 327 889 388 328 890 389 345 892 408 345 892 408 328 890 389 346 891 409 328 893 389 329 894 390 346 896 409 346 896 409 329 894 390 347 895 410 329 897 390 330 898 391 347 900 410 347 900 410 330 898 391 348 899 411 330 901 391 331 902 392 348 904 411 348 904 411 331 902 392 349 903 412 331 905 392 332 906 393 349 908 412 349 908 412 332 906 393 350 907 413 332 909 393 333 910 394 350 912 413 350 912 413 333 910 394 351 911 414 333 913 396 334 914 395 351 916 416 351 916 416 334 914 395 352 915 415 334 917 395 335 918 397 352 920 415 352 920 415 335 918 397 353 919 417 335 921 397 336 922 398 353 924 417 353 924 417 336 922 398 354 923 418 336 925 398 337 926 399 354 928 418 354 928 418 337 926 399 355 927 419 337 929 399 320 930 381 355 932 419 355 932 419 320 930 381 338 931 401 338 933 401 339 934 400 356 936 421 356 936 421 339 934 400 357 935 420 339 937 400 340 938 402 357 940 420 357 940 420 340 938 402 358 939 422 340 941 402 341 942 403 358 944 422 358 944 422 341 942 403 359 943 423 341 945 403 342 946 404 359 948 423 359 948 423 342 946 404 360 947 424 342 949 406 343 950 405 360 952 426 360 952 426 343 950 405 361 951 425 343 953 405 344 954 407 361 956 425 361 956 425 344 954 407 362 955 427 344 957 407 345 958 408 362 960 427 362 960 427 345 958 408 363 959 428 345 961 408 346 962 409 363 964 428 363 964 428 346 962 409 364 963 429 346 965 409 347 966 410 364 968 429 364 968 429 347 966 410 365 967 430 347 969 410 348 970 411 365 972 430 365 972 430 348 970 411 366 971 431 348 973 411 349 974 412 366 976 431 366 976 431 349 974 412 367 975 432 349 977 412 350 978 413 367 980 432 367 980 432 350 978 413 368 979 433 350 981 413 351 982 414 368 984 433 368 984 433 351 982 414 369 983 434 351 985 416 352 986 415 369 988 436 369 988 436 352 986 415 370 987 435 352 989 415 353 990 417 370 992 435 370 992 435 353 990 417 371 991 437 353 993 417 354 994 418 371 996 437 371 996 437 354 994 418 372 995 438 354 997 418 355 998 419 372 1000 438 372 1000 438 355 998 419 373 999 439 355 1001 419 338 1002 401 373 1004 439 373 1004 439 338 1002 401 356 1003 421 356 1005 421 357 1006 420 374 1008 441 374 1008 441 357 1006 420 375 1007 440 357 1009 420 358 1010 422 375 1012 440 375 1012 440 358 1010 422 376 1011 442 358 1013 422 359 1014 423 376 1016 442 376 1016 442 359 1014 423 377 1015 443 359 1017 423 360 1018 424 377 1020 443 377 1020 443 360 1018 424 378 1019 444 360 1021 426 361 1022 425 378 1024 446 378 1024 446 361 1022 425 379 1023 445 361 1025 425 362 1026 427 379 1028 445 379 1028 445 362 1026 427 380 1027 447 362 1029 427 363 1030 428 380 1032 447 380 1032 447 363 1030 428 381 1031 448 363 1033 428 364 1034 429 381 1036 448 381 1036 448 364 1034 429 382 1035 449 364 1037 429 365 1038 430 382 1040 449 382 1040 449 365 1038 430 383 1039 450 365 1041 430 366 1042 431 383 1044 450 383 1044 450 366 1042 431 384 1043 451 366 1045 431 367 1046 432 384 1048 451 384 1048 451 367 1046 432 385 1047 452 367 1049 432 368 1050 433 385 1052 452 385 1052 452 368 1050 433 386 1051 453 368 1053 433 369 1054 434 386 1056 453 386 1056 453 369 1054 434 387 1055 454 369 1057 436 370 1058 435 387 1060 456 387 1060 456 370 1058 435 388 1059 455 370 1061 435 371 1062 437 388 1064 455 388 1064 455 371 1062 437 389 1063 457 371 1065 437 372 1066 438 389 1068 457 389 1068 457 372 1066 438 390 1067 458 372 1069 438 373 1070 439 390 1072 458 390 1072 458 373 1070 439 391 1071 459 373 1073 439 356 1074 421 391 1076 459 391 1076 459 356 1074 421 374 1075 441 374 1077 460 375 1078 461 392 1080 463 392 1080 463 375 1078 461 393 1079 462 375 1081 461 376 1082 464 393 1084 462 393 1084 462 376 1082 464 394 1083 465 376 1085 464 377 1086 466 394 1088 465 394 1088 465 377 1086 466 395 1087 467 377 1089 466 378 1090 468 395 1092 467 395 1092 467 378 1090 468 396 1091 469 378 1093 470 379 1094 471 396 1096 473 396 1096 473 379 1094 471 397 1095 472 379 1097 471 380 1098 474 397 1100 472 397 1100 472 380 1098 474 398 1099 475 380 1101 474 381 1102 476 398 1104 475 398 1104 475 381 1102 476 399 1103 477 381 1105 476 382 1106 478 399 1108 477 399 1108 477 382 1106 478 400 1107 479 382 1109 478 383 1110 480 400 1112 479 400 1112 479 383 1110 480 401 1111 481 383 1113 480 384 1114 482 401 1116 481 401 1116 481 384 1114 482 402 1115 483 384 1117 482 385 1118 484 402 1120 483 402 1120 483 385 1118 484 403 1119 485 385 1121 484 386 1122 486 403 1124 485 403 1124 485 386 1122 486 404 1123 487 386 1125 486 387 1126 488 404 1128 487 404 1128 487 387 1126 488 405 1127 489 387 1129 490 388 1130 491 405 1132 493 405 1132 493 388 1130 491 406 1131 492 388 1133 491 389 1134 494 406 1136 492 406 1136 492 389 1134 494 407 1135 495 389 1137 494 390 1138 496 407 1140 495 407 1140 495 390 1138 496 408 1139 497 390 1141 496 391 1142 498 408 1144 497 408 1144 497 391 1142 498 409 1143 499 391 1145 498 374 1146 460 409 1148 499 409 1148 499 374 1146 460 392 1147 463 141 1149 161 140 1150 160 410 1151 500 142 1152 164 141 1153 161 410 1154 500 143 1155 166 142 1156 164 410 1157 500 144 1158 168 143 1159 166 410 1160 500 145 1161 171 144 1162 170 410 1163 501 146 1164 174 145 1165 171 410 1166 501 147 1167 176 146 1168 174 410 1169 501 148 1170 178 147 1171 176 410 1172 501 149 1173 180 148 1174 178 410 1175 501 150 1176 182 149 1177 180 410 1178 501 151 1179 184 150 1180 182 410 1181 501 152 1182 186 151 1183 184 410 1184 501 153 1185 188 152 1186 186 410 1187 501 154 1188 191 153 1189 190 410 1190 500 155 1191 194 154 1192 191 410 1193 500 156 1194 196 155 1195 194 410 1196 500 157 1197 198 156 1198 196 410 1199 500 140 1200 160 157 1201 198 410 1202 500 392 1203 463 393 1204 462 411 1205 502 393 1206 462 394 1207 465 411 1208 502 394 1209 465 395 1210 467 411 1211 502 395 1212 467 396 1213 469 411 1214 502 396 1215 473 397 1216 472 411 1217 503 397 1218 472 398 1219 475 411 1220 503 398 1221 475 399 1222 477 411 1223 503 399 1224 477 400 1225 479 411 1226 503 400 1227 479 401 1228 481 411 1229 503 401 1230 481 402 1231 483 411 1232 503 402 1233 483 403 1234 485 411 1235 503 403 1236 485 404 1237 487 411 1238 503 404 1239 487 405 1240 489 411 1241 503 405 1242 493 406 1243 492 411 1244 502 406 1245 492 407 1246 495 411 1247 502 407 1248 495 408 1249 497 411 1250 502 408 1251 497 409 1252 499 411 1253 502 409 1254 499 392 1255 463 411 1256 502</p>
        </triangles>
      </mesh>
      <extra>
        <technique profile="OpenCOLLADAMaya">
          <originalMayaNodeId>polySurfaceShape2</originalMayaNodeId>
          <double_sided>1</double_sided>
        </technique>
      </extra>
    </geometry>
  </library_geometries>
  <library_visual_scenes>
    <visual_scene id="VisualSceneNode" name="pumpkin">
      <node id="polySurface1" name="polySurface1" type="NODE">
        <translate sid="translate">0 0 0</translate>
        <rotate sid="rotateZ">0 0 1 0</rotate>
        <rotate sid="rotateY">0 1 0 0</rotate>
        <rotate sid="rotateX">1 0 0 0</rotate>
        <scale sid="scale">1 1 1</scale>
        <instance_geometry url="#polySurfaceShape2">
          <bind_material>
            <technique_common>
              <instance_material symbol="lambert2SG" target="#lambert2">
                <bind_vertex_input semantic="TEX0" input_semantic="TEXCOORD" input_set="0"/>
              </instance_material>
            </technique_common>
          </bind_material>
        </instance_geometry>
        <extra>
          <technique profile="OpenCOLLADAMaya">
            <originalMayaNodeId>polySurface1</originalMayaNodeId>
          </technique>
        </extra>
      </node>
    </visual_scene>
  </library_visual_scenes>
  <scene>
    <instance_visual_scene url="#VisualSceneNode"/>
  </scene>
</COLLADA>