<?xml version="1.0" encoding="utf-8"?>
<COLLADA xmlns="http://www.collada.org/2005/11/COLLADASchema" version="1.4.1">
  <asset><contributor><author></author><authoring_tool>FBX COLLADA exporter</authoring_tool><comments></comments></contributor><created>2018-01-23T23:39:03Z</created><keywords></keywords><modified>2018-01-23T23:39:03Z</modified><revision></revision><subject></subject><title></title><unit meter="0.010000" name="centimeter"></unit><up_axis>Y_UP</up_axis></asset>
  <library_images>
    <image id="file1-image" name="file1"><init_from>file://C:\Users\Nocturne\Documents\maya\projects\default\scenes\dark_mansion_panneling\dark_mansion_panneling.dds</init_from></image>
  </library_images>
  <library_materials>
    <material id="blinn5" name="blinn5">
      <instance_effect url="#blinn5-fx"/>
    </material>
  </library_materials>
  <library_effects>
    <effect id="blinn5-fx" name="blinn5">
      <profile_COMMON>
        <technique sid="standard">
          <phong>
            <emission>
              <color sid="emission">0.000000  0.000000 0.000000 1.000000</color>
            </emission>
            <ambient>
              <color sid="ambient">0.000000  0.000000 0.000000 1.000000</color>
            </ambient>
            <diffuse>
              <texture texture="file1-image" texcoord="CHANNEL0">
                <extra>
                  <technique profile="MAYA">
                    <wrapU sid="wrapU0">TRUE</wrapU>
                    <wrapV sid="wrapV0">TRUE</wrapV>
                    <blend_mode>NONE</blend_mode>
                  </technique>
                </extra>
              </texture>
            </diffuse>
            <specular>
              <color sid="specular">0.500000  0.500000 0.500000 1.000000</color>
            </specular>
            <shininess>
              <float sid="shininess">2.000000</float>
            </shininess>
            <reflective>
              <color sid="reflective">0.000000  0.000000 0.000000 1.000000</color>
            </reflective>
            <reflectivity>
              <float sid="reflectivity">0.500000</float>
            </reflectivity>
            <transparent opaque="RGB_ZERO">
              <texture texture="file1-image" texcoord="CHANNEL0">
                <extra>
                  <technique profile="MAYA">
                    <wrapU sid="wrapU0">TRUE</wrapU>
                    <wrapV sid="wrapV0">TRUE</wrapV>
                    <blend_mode>NONE</blend_mode>
                  </technique>
                </extra>
              </texture>
            </transparent>
            <transparency>
              <float sid="transparency">1.000000</float>
            </transparency>
          </phong>
        </technique>
      </profile_COMMON>
    </effect>
  </library_effects>
  <library_geometries>
    <geometry id="pCylinder1-lib" name="pCylinder1Mesh">
      <mesh>
        <source id="pCylinder1-POSITION">
          <float_array id="pCylinder1-POSITION-array" count="42">
0.500000 -1.000000 -0.866025
-0.500000 -1.000000 -0.866026
-1.000000 -1.000000 0.000000
-0.500000 -1.000000 0.866025
0.500000 -1.000000 0.866025
1.000000 -1.000000 0.000000
0.500000 1.000000 -0.866025
-0.500000 1.000000 -0.866026
-1.000000 1.000000 0.000000
-0.500000 1.000000 0.866025
0.500000 1.000000 0.866025
1.000000 1.000000 0.000000
0.000000 -1.000000 0.000000
0.000000 1.000000 0.000000
</float_array>
          <technique_common>
            <accessor source="#pCylinder1-POSITION-array" count="14" stride="3">
              <param name="X" type="float"/>
              <param name="Y" type="float"/>
              <param name="Z" type="float"/>
            </accessor>
          </technique_common>
        </source>
        <source id="pCylinder1-Normal0">
          <float_array id="pCylinder1-Normal0-array" count="216">
0.000000 0.000000 -1.000000
0.000000 0.000000 -1.000000
0.000000 0.000000 -1.000000
0.000000 0.000000 -1.000000
0.000000 0.000000 -1.000000
0.000000 0.000000 -1.000000
-0.866025 0.000000 -0.500000
-0.866025 0.000000 -0.500000
-0.866025 0.000000 -0.500000
-0.866025 0.000000 -0.500000
-0.866025 0.000000 -0.500000
-0.866025 0.000000 -0.500000
-0.866026 0.000000 0.500000
-0.866026 0.000000 0.500000
-0.866026 0.000000 0.500000
-0.866026 0.000000 0.500000
-0.866026 0.000000 0.500000
-0.866026 0.000000 0.500000
0.000000 0.000000 1.000000
0.000000 0.000000 1.000000
0.000000 0.000000 1.000000
0.000000 0.000000 1.000000
0.000000 0.000000 1.000000
0.000000 0.000000 1.000000
0.866025 0.000000 0.500000
0.866025 0.000000 0.500000
0.866025 0.000000 0.500000
0.866025 0.000000 0.500000
0.866025 0.000000 0.500000
0.866025 0.000000 0.500000
0.866026 0.000000 -0.500000
0.866026 0.000000 -0.500000
0.866026 0.000000 -0.500000
0.866026 0.000000 -0.500000
0.866026 0.000000 -0.500000
0.866026 0.000000 -0.500000
0.000000 -1.000000 0.000000
0.000000 -1.000000 0.000000
0.000000 -1.000000 0.000000
0.000000 -1.000000 0.000000
0.000000 -1.000000 0.000000
0.000000 -1.000000 0.000000
0.000000 -1.000000 0.000000
0.000000 -1.000000 0.000000
0.000000 -1.000000 0.000000
0.000000 -1.000000 0.000000
0.000000 -1.000000 0.000000
0.000000 -1.000000 0.000000
0.000000 -1.000000 0.000000
0.000000 -1.000000 0.000000
0.000000 -1.000000 0.000000
0.000000 -1.000000 0.000000
0.000000 -1.000000 0.000000
0.000000 -1.000000 0.000000
0.000000 1.000000 0.000000
0.000000 1.000000 0.000000
0.000000 1.000000 0.000000
0.000000 1.000000 0.000000
0.000000 1.000000 0.000000
0.000000 1.000000 0.000000
0.000000 1.000000 0.000000
0.000000 1.000000 0.000000
0.000000 1.000000 0.000000
0.000000 1.000000 0.000000
0.000000 1.000000 0.000000
0.000000 1.000000 0.000000
0.000000 1.000000 0.000000
0.000000 1.000000 0.000000
0.000000 1.000000 0.000000
0.000000 1.000000 0.000000
0.000000 1.000000 0.000000
0.000000 1.000000 0.000000
</float_array>
          <technique_common>
            <accessor source="#pCylinder1-Normal0-array" count="72" stride="3">
              <param name="X" type="float"/>
              <param name="Y" type="float"/>
              <param name="Z" type="float"/>
            </accessor>
          </technique_common>
        </source>
        <source id="pCylinder1-UV0">
          <float_array id="pCylinder1-UV0-array" count="98">
0.003625 0.658555
0.003627 0.658555
0.996373 0.658555
0.996373 0.658555
0.003627 0.629961
0.996376 0.629961
0.003627 0.658555
0.003626 0.629961
0.996373 0.629961
0.996373 0.658555
0.003627 0.658555
0.003627 0.629961
0.996376 0.629961
0.996373 0.658555
0.003627 0.658555
0.003627 0.658555
0.996373 0.658555
0.996373 0.658555
0.003627 0.629961
0.996374 0.629961
0.003627 0.629961
0.003627 0.658555
0.996373 0.629961
0.003627 0.629961
0.003627 0.629961
0.003627 0.629961
0.003627 0.629961
0.311927 0.489614
0.327518 0.431426
0.370115 0.474023
0.385706 0.415835
0.428303 0.458432
0.412712 0.516620
0.354524 0.532211
0.003627 0.629961
0.996373 0.629961
0.003627 0.629961
0.996373 0.629961
0.003627 0.658555
0.003627 0.629961
0.996373 0.629961
0.003627 0.658555
0.996373 0.629961
0.003627 0.658555
0.996373 0.629961
0.003627 0.658555
0.996373 0.629961
0.003627 0.658555
0.996373 0.629961
</float_array>
          <technique_common>
            <accessor source="#pCylinder1-UV0-array" count="49" stride="2">
              <param name="S" type="float"/>
              <param name="T" type="float"/>
            </accessor>
          </technique_common>
        </source>
        <vertices id="pCylinder1-VERTEX">
          <input semantic="POSITION" source="#pCylinder1-POSITION"/>
        </vertices>
        <triangles count="24" material="blinn5"><input semantic="VERTEX" offset="0" source="#pCylinder1-VERTEX"/><input semantic="NORMAL" offset="1" source="#pCylinder1-Normal0"/><input semantic="TEXCOORD" offset="2" set="0" source="#pCylinder1-UV0"/><p> 0 0 0 1 1 34 6 2 3 6 3 3 1 4 34 7 5 35 1 6 1 2 7 4 7 8 2 7 9 2 2 10 4 8 11 5 2 12 6 3 13 7 8 14 9 8 15 9 3 16 7 9 17 8 3 18 10 4 19 11 9 20 13 9 21 13 4 22 11 10 23 12 4 24 14 5 25 36 10 26 17 10 27 17 5 28 36 11 29 37 5 30 15 0 31 18 11 32 16 11 33 16 0 34 18 6 35 19 1 36 38 0 37 39 12 38 40 2 39 41 1 40 20 12 41 42 3 42 43 2 43 24 12 44 44 4 45 45 3 46 26 12 47 46 5 48 47 4 49 25 12 50 48 0 51 21 5 52 23 12 53 22 6 54 27 7 55 28 13 56 29 7 57 28 8 58 30 13 59 29 8 60 30 9 61 31 13 62 29 9 63 31 10 64 32 13 65 29 10 66 32 11 67 33 13 68 29 11 69 33 6 70 27 13 71 29</p></triangles>
      </mesh>
    </geometry>
  </library_geometries>
  <library_visual_scenes>
    <visual_scene id="dark_mansion_panneling_corner" name="dark_mansion_panneling_corner">
      <node name="pPlane1" id="pPlane1" sid="pPlane1"><matrix sid="matrix">400.000000 0.000000 0.000000 0.000000 0.000000 0.000000 -300.000000 150.000000 0.000000 100.000000 0.000000 0.000000 0.000000 0.000000 0.000000 1.000000</matrix><extra><technique profile="FCOLLADA"><visibility>1.000000</visibility></technique></extra></node>
      <node name="pCube1" id="pCube1" sid="pCube1"><matrix sid="matrix">60.281900 0.000000 0.000000 -151.232605 0.000000 78.901170 0.000000 214.777405 0.000000 0.000000 5.000000 -2.500000 0.000000 0.000000 0.000000 1.000000</matrix><extra><technique profile="FCOLLADA"><visibility>1.000000</visibility></technique></extra></node>
      <node name="pCube2" id="pCube2" sid="pCube2"><matrix sid="matrix">60.281900 0.000000 0.000000 -50.634121 0.000000 78.901170 0.000000 214.777405 0.000000 0.000000 5.000000 -2.500000 0.000000 0.000000 0.000000 1.000000</matrix><extra><technique profile="FCOLLADA"><visibility>1.000000</visibility></technique></extra></node>
      <node name="pCube3" id="pCube3" sid="pCube3"><matrix sid="matrix">60.281900 0.000000 0.000000 48.904491 0.000000 78.901170 0.000000 214.777405 0.000000 0.000000 5.000000 -2.500000 0.000000 0.000000 0.000000 1.000000</matrix><extra><technique profile="FCOLLADA"><visibility>1.000000</visibility></technique></extra></node>
      <node name="pCube4" id="pCube4" sid="pCube4"><matrix sid="matrix">60.281900 0.000000 0.000000 148.922806 0.000000 78.901170 0.000000 214.777405 0.000000 0.000000 5.000000 -2.500000 0.000000 0.000000 0.000000 1.000000</matrix><extra><technique profile="FCOLLADA"><visibility>1.000000</visibility></technique></extra></node>
      <node name="pCube5" id="pCube5" sid="pCube5"><matrix sid="matrix">60.281900 0.000000 0.000000 148.922806 0.000000 78.901170 0.000000 111.739601 0.000000 0.000000 5.000000 -2.500000 0.000000 0.000000 0.000000 1.000000</matrix><extra><technique profile="FCOLLADA"><visibility>1.000000</visibility></technique></extra></node>
      <node name="pCube6" id="pCube6" sid="pCube6"><matrix sid="matrix">60.281900 0.000000 0.000000 48.904491 0.000000 78.901170 0.000000 111.739601 0.000000 0.000000 5.000000 -2.500000 0.000000 0.000000 0.000000 1.000000</matrix><extra><technique profile="FCOLLADA"><visibility>1.000000</visibility></technique></extra></node>
      <node name="pCube7" id="pCube7" sid="pCube7"><matrix sid="matrix">60.281900 0.000000 0.000000 -50.634121 0.000000 78.901170 0.000000 111.739601 0.000000 0.000000 5.000000 -2.500000 0.000000 0.000000 0.000000 1.000000</matrix><extra><technique profile="FCOLLADA"><visibility>1.000000</visibility></technique></extra></node>
      <node name="pCube8" id="pCube8" sid="pCube8"><matrix sid="matrix">60.281900 0.000000 0.000000 -151.232605 0.000000 78.901170 0.000000 111.739601 0.000000 0.000000 5.000000 -2.500000 0.000000 0.000000 0.000000 1.000000</matrix><extra><technique profile="FCOLLADA"><visibility>1.000000</visibility></technique></extra></node>
      <node name="polySurface1" id="polySurface1" sid="polySurface1"><matrix sid="matrix">100.000000 0.000000 0.000000 0.000000 0.000000 100.000000 0.000000 0.000000 0.000000 0.000000 100.000000 0.000000 0.000000 0.000000 0.000000 1.000000</matrix><extra><technique profile="FCOLLADA"><visibility>1.000000</visibility></technique></extra></node>
      <node name="polySurface2" id="polySurface2" sid="polySurface2"><matrix sid="matrix">100.000000 0.000000 0.000000 0.000000 0.000000 100.000000 0.000000 0.000000 0.000000 0.000000 100.000000 0.000000 0.000000 0.000000 0.000000 1.000000</matrix><extra><technique profile="FCOLLADA"><visibility>1.000000</visibility></technique></extra></node>
      <node name="polySurface3" id="polySurface3" sid="polySurface3"><matrix sid="matrix">100.000000 0.000000 0.000000 0.000000 0.000000 100.000000 0.000000 0.000000 0.000000 0.000000 100.000000 0.000000 0.000000 0.000000 0.000000 1.000000</matrix><extra><technique profile="FCOLLADA"><visibility>1.000000</visibility></technique></extra></node>
      <node name="polySurface4" id="polySurface4" sid="polySurface4"><matrix sid="matrix">100.000000 0.000000 0.000000 0.000000 0.000000 100.000000 0.000000 0.000000 0.000000 0.000000 100.000000 0.000000 0.000000 0.000000 0.000000 1.000000</matrix><extra><technique profile="FCOLLADA"><visibility>1.000000</visibility></technique></extra></node>
      <node name="polySurface5" id="polySurface5" sid="polySurface5"><matrix sid="matrix">100.000000 0.000000 0.000000 0.000000 0.000000 100.000000 0.000000 0.000000 0.000000 0.000000 100.000000 0.000000 0.000000 0.000000 0.000000 1.000000</matrix><extra><technique profile="FCOLLADA"><visibility>1.000000</visibility></technique></extra></node>
      <node name="polySurface6" id="polySurface6" sid="polySurface6"><matrix sid="matrix">100.000000 0.000000 0.000000 0.000000 0.000000 100.000000 0.000000 0.000000 0.000000 0.000000 100.000000 0.000000 0.000000 0.000000 0.000000 1.000000</matrix><extra><technique profile="FCOLLADA"><visibility>1.000000</visibility></technique></extra></node>
      <node name="polySurface7" id="polySurface7" sid="polySurface7"><matrix sid="matrix">100.000000 0.000000 0.000000 0.000000 0.000000 100.000000 0.000000 0.000000 0.000000 0.000000 100.000000 0.000000 0.000000 0.000000 0.000000 1.000000</matrix><extra><technique profile="FCOLLADA"><visibility>1.000000</visibility></technique></extra></node>
      <node name="polySurface8" id="polySurface8" sid="polySurface8"><matrix sid="matrix">100.000000 0.000000 0.000000 0.000000 0.000000 100.000000 0.000000 0.000000 0.000000 0.000000 100.000000 10.000000 0.000000 0.000000 0.000000 1.000000</matrix><extra><technique profile="FCOLLADA"><visibility>1.000000</visibility></technique></extra></node>
      <node name="pPlane2" id="pPlane2" sid="pPlane2"><matrix sid="matrix">400.000000 0.000000 0.000000 0.000000 0.000000 100.000000 0.000000 300.000000 0.000000 0.000000 20.000000 0.000000 0.000000 0.000000 0.000000 1.000000</matrix><extra><technique profile="FCOLLADA"><visibility>1.000000</visibility></technique></extra></node>
      <node name="pCylinder1" id="pCylinder1" sid="pCylinder1"><matrix sid="matrix">12.557036 0.000000 3.364648 0.000000 0.000000 155.000000 0.000000 155.000000 -3.364648 0.000000 12.557036 0.000000 0.000000 0.000000 0.000000 1.000000</matrix><instance_geometry url="#pCylinder1-lib"><bind_material><technique_common><instance_material symbol="blinn5" target="#blinn5"/></technique_common></bind_material></instance_geometry><extra><technique profile="FCOLLADA"><visibility>1.000000</visibility></technique></extra></node>
      <extra><technique profile="MAX3D"><frame_rate>30.000000</frame_rate></technique><technique profile="FCOLLADA"><start_time>0.000000</start_time><end_time>1.000000</end_time></technique></extra>
    </visual_scene>
  </library_visual_scenes>
  <scene>
    <instance_visual_scene url="#dark_mansion_panneling_corner"></instance_visual_scene>
  </scene>
</COLLADA>
