<?xml version="1.0" encoding="utf-8"?>
<COLLADA xmlns="http://www.collada.org/2005/11/COLLADASchema" version="1.4.1">
  <asset>
    <contributor>
      <author></author>
      <authoring_tool>FBX COLLADA exporter</authoring_tool>
      <comments></comments>
    </contributor>
    <created>2012-06-04T16:20:33Z</created>
    <keywords></keywords>
    <modified>2012-06-04T16:20:33Z</modified>
    <revision></revision>
    <subject></subject>
    <title></title>
    <unit meter="1.000000" name="centimeter"></unit>
    <up_axis>Z_UP</up_axis>
  </asset>
  <library_images>
    <image id="Map #2-image" name="Map #2">
      <init_from>file://C:\AMFP_Raw_data\entities\gameplay\pneumatic_tube\pneumatic_tube_pipes.psd</init_from>
    </image>
  </library_images>
  <library_materials>
    <material id="Material #26" name="Material #26">
      <instance_effect url="#Material #26-fx"/>
    </material>
  </library_materials>
  <library_effects>
    <effect id="Material #26-fx" name="Material #26">
      <profile_COMMON>
        <technique sid="standard">
          <phong>
            <emission>
              <color sid="emission">0.000000  0.000000 0.000000 1.000000</color>
            </emission>
            <ambient>
              <color sid="ambient">0.588000  0.588000 0.588000 1.000000</color>
            </ambient>
            <diffuse>
              <texture texture="Map #2-image" texcoord="CHANNEL0">
                <extra>
                  <technique profile="MAYA">
                    <wrapU sid="wrapU0">TRUE</wrapU>
                    <wrapV sid="wrapV0">TRUE</wrapV>
                    <blend_mode>ADD</blend_mode>
                  </technique>
                </extra>
              </texture>
            </diffuse>
            <specular>
              <color sid="specular">0.000000  0.000000 0.000000 1.000000</color>
            </specular>
            <shininess>
              <float sid="shininess">2.000000</float>
            </shininess>
            <reflective>
              <color sid="reflective">0.000000  0.000000 0.000000 1.000000</color>
            </reflective>
            <reflectivity>
              <float sid="reflectivity">1.000000</float>
            </reflectivity>
            <transparent opaque="RGB_ZERO">
              <color sid="transparent">1.000000  1.000000 1.000000 1.000000</color>
            </transparent>
            <transparency>
              <float sid="transparency">0.000000</float>
            </transparency>
          </phong>
        </technique>
      </profile_COMMON>
    </effect>
  </library_effects>
  <library_geometries>
    <geometry id="curtain_rail-lib" name="curtain_railMesh">
      <mesh>
        <source id="curtain_rail-POSITION">
          <float_array id="curtain_rail-POSITION-array" count="114">
0.026725 -1.000000 2.767801
0.013363 -1.000000 2.744657
-0.013363 -1.000000 2.744657
-0.026725 -1.000000 2.767801
-0.013363 -1.000000 2.790946
0.013363 -1.000000 2.790946
0.026725 1.000000 2.767801
0.013363 1.000000 2.744657
-0.013363 1.000000 2.744657
-0.026725 1.000000 2.767801
-0.013363 1.000000 2.790946
0.013363 1.000000 2.790946
0.039734 0.949183 2.767801
0.019867 0.949183 2.733390
0.019867 1.000000 2.733390
0.039734 1.000000 2.767801
-0.019867 0.949183 2.733390
-0.019867 1.000000 2.733390
-0.039734 0.949183 2.767801
-0.039734 1.000000 2.767801
-0.019867 0.949183 2.802212
-0.019867 1.000000 2.802212
0.019867 0.949183 2.802212
0.019867 1.000000 2.802212
-0.000000 0.949183 2.767801
0.039734 -0.949183 2.767801
0.019867 -0.949183 2.733390
0.019867 -1.000000 2.733390
0.039734 -1.000000 2.767801
-0.019867 -0.949183 2.733390
-0.019867 -1.000000 2.733390
-0.039734 -0.949183 2.767801
-0.039734 -1.000000 2.767801
-0.019867 -0.949183 2.802212
-0.019867 -1.000000 2.802212
0.019867 -0.949183 2.802212
0.019867 -1.000000 2.802212
-0.000000 -0.949183 2.767801
</float_array>
          <technique_common>
            <accessor source="#curtain_rail-POSITION-array" count="38" stride="3">
              <param name="X" type="float"/>
              <param name="Y" type="float"/>
              <param name="Z" type="float"/>
            </accessor>
          </technique_common>
        </source>
        <source id="curtain_rail-Normal0">
          <float_array id="curtain_rail-Normal0-array" count="432">
0.500000 0.000000 -0.866025
0.500000 0.000000 -0.866025
1.000000 0.000000 0.000000
1.000000 0.000000 0.000000
1.000000 0.000000 0.000000
0.500000 0.000000 -0.866025
-0.500000 0.000000 -0.866025
-0.500000 0.000000 -0.866025
0.500000 0.000000 -0.866025
0.500000 0.000000 -0.866025
-0.500000 0.000000 -0.866025
0.500000 0.000000 -0.866025
-1.000000 0.000000 0.000000
-0.500000 0.000000 -0.866025
-1.000000 0.000000 0.000000
-0.500000 0.000000 -0.866025
-1.000000 0.000000 0.000000
-0.500000 0.000000 -0.866025
-0.500000 0.000000 0.866025
-1.000000 0.000000 0.000000
-0.500000 0.000000 0.866025
-1.000000 0.000000 0.000000
-0.500000 0.000000 0.866025
-1.000000 0.000000 0.000000
-0.500000 0.000000 0.866025
-0.500000 0.000000 0.866025
0.500000 0.000000 0.866025
0.500000 0.000000 0.866025
-0.500000 0.000000 0.866025
0.500000 0.000000 0.866025
1.000000 0.000000 0.000000
1.000000 0.000000 0.000000
0.500000 0.000000 0.866025
0.500000 0.000000 0.866025
0.500000 0.000000 0.866025
1.000000 0.000000 0.000000
1.000000 0.000000 0.000000
1.000000 0.000000 0.000000
0.500000 0.000000 -0.866025
1.000000 0.000000 0.000000
0.500000 0.000000 -0.866025
0.500000 0.000000 -0.866025
-0.500001 0.000000 -0.866025
-0.500001 0.000000 -0.866025
0.500000 0.000000 -0.866025
0.500000 0.000000 -0.866025
-0.500001 0.000000 -0.866025
0.500000 0.000000 -0.866025
-1.000000 0.000000 0.000000
-0.500001 0.000000 -0.866025
-1.000000 0.000000 0.000000
-0.500001 0.000000 -0.866025
-1.000000 0.000000 0.000000
-0.500001 0.000000 -0.866025
-0.500000 0.000000 0.866025
-1.000000 0.000000 0.000000
-0.500000 0.000000 0.866025
-1.000000 0.000000 0.000000
-0.500000 0.000000 0.866025
-1.000000 0.000000 0.000000
0.500000 0.000000 0.866025
-0.500000 0.000000 0.866025
-0.500000 0.000000 0.866025
0.500000 0.000000 0.866025
-0.500000 0.000000 0.866025
0.500000 0.000000 0.866025
0.500000 0.000000 0.866025
0.500000 0.000000 0.866025
1.000000 0.000000 0.000000
0.500000 0.000000 0.866025
1.000000 0.000000 0.000000
1.000000 0.000000 0.000000
0.000000 -1.000000 0.000000
0.000000 -1.000000 0.000000
0.000000 -1.000000 0.000000
0.000000 -1.000000 0.000000
0.000000 -1.000000 0.000000
0.000000 -1.000000 0.000000
0.000000 -1.000000 0.000000
0.000000 -1.000000 0.000000
0.000000 -1.000000 0.000000
0.000000 -1.000000 0.000000
0.000000 -1.000000 0.000000
0.000000 -1.000000 0.000000
0.000000 -1.000000 0.000000
0.000000 -1.000000 0.000000
0.000000 -1.000000 0.000000
0.000000 -1.000000 0.000000
0.000000 -1.000000 0.000000
0.000000 -1.000000 0.000000
1.000000 0.000000 0.000000
0.500000 0.000000 -0.866025
1.000000 0.000000 0.000000
1.000000 0.000000 0.000000
0.500000 0.000000 -0.866025
0.500000 0.000000 -0.866025
-0.500001 0.000000 -0.866025
0.500000 0.000000 -0.866025
0.500000 0.000000 -0.866025
0.500000 0.000000 -0.866025
-0.500001 0.000000 -0.866025
-0.500001 0.000000 -0.866025
-1.000000 0.000000 0.000000
-1.000000 0.000000 0.000000
-0.500001 0.000000 -0.866025
-1.000000 0.000000 0.000000
-0.500001 0.000000 -0.866025
-0.500001 0.000000 -0.866025
-0.500000 0.000000 0.866025
-0.500000 0.000000 0.866025
-1.000000 0.000000 0.000000
-0.500000 0.000000 0.866025
-1.000000 0.000000 0.000000
-1.000000 0.000000 0.000000
0.500000 0.000000 0.866025
-0.500000 0.000000 0.866025
0.500000 0.000000 0.866025
-0.500000 0.000000 0.866025
-0.500000 0.000000 0.866025
0.500000 0.000000 0.866025
0.500000 0.000000 0.866025
1.000000 0.000000 0.000000
0.500000 0.000000 0.866025
0.500000 0.000000 0.866025
1.000000 0.000000 0.000000
1.000000 0.000000 0.000000
0.000000 1.000000 0.000000
0.000000 1.000000 0.000000
0.000000 1.000000 0.000000
0.000000 1.000000 0.000000
0.000000 1.000000 0.000000
0.000000 1.000000 0.000000
0.000000 1.000000 0.000000
0.000000 1.000000 0.000000
0.000000 1.000000 0.000000
0.000000 1.000000 0.000000
0.000000 1.000000 0.000000
0.000000 1.000000 0.000000
0.000000 1.000000 0.000000
0.000000 1.000000 0.000000
0.000000 1.000000 0.000000
0.000000 1.000000 0.000000
0.000000 1.000000 0.000000
0.000000 1.000000 0.000000
</float_array>
          <technique_common>
            <accessor source="#curtain_rail-Normal0-array" count="144" stride="3">
              <param name="X" type="float"/>
              <param name="Y" type="float"/>
              <param name="Z" type="float"/>
            </accessor>
          </technique_common>
        </source>
        <source id="curtain_rail-UV0">
          <float_array id="curtain_rail-UV0-array" count="112">
-0.194642 -0.050451
-0.180147 -0.071153
-0.165652 -0.091854
-0.151157 -0.112555
-0.136660 -0.133258
-0.122163 -0.153963
1.354452 1.034237
1.368948 1.013535
1.383443 0.992834
1.397938 0.972133
1.412435 0.951430
1.426932 0.930725
0.954094 0.980431
1.055904 0.995528
1.003102 1.070937
0.901292 1.055840
0.950300 1.146345
1.052110 1.161443
1.104911 1.086034
0.954096 0.980431
1.003103 1.070937
1.055905 0.995529
0.901294 1.055840
0.950302 1.146346
1.052111 1.161443
1.104913 1.086035
-0.209139 -0.029747
1.339956 1.054941
1.041186 0.949867
1.082210 0.891274
1.157145 0.943741
1.116122 1.002333
1.123236 0.832682
1.198169 0.885152
0.877094 1.184235
0.918117 1.125642
0.993052 1.178109
0.952030 1.236701
0.959140 1.067050
1.034075 1.119517
1.000164 1.008459
1.075099 1.060927
0.959185 1.066997
0.918162 1.125590
0.993096 1.178058
1.034121 1.119464
0.877137 1.184180
0.952071 1.236649
1.123277 0.832628
1.082255 0.891221
1.157192 0.943686
1.198214 0.885092
1.041234 0.949812
1.116168 1.002280
1.000209 1.008404
1.075143 1.060871
</float_array>
          <technique_common>
            <accessor source="#curtain_rail-UV0-array" count="56" stride="2">
              <param name="S" type="float"/>
              <param name="T" type="float"/>
            </accessor>
          </technique_common>
        </source>
        <vertices id="curtain_rail-VERTEX">
          <input semantic="POSITION" source="#curtain_rail-POSITION"/>
        </vertices>
        <triangles count="48" material="Material #26">
          <input semantic="VERTEX" offset="0" source="#curtain_rail-VERTEX"/>
          <input semantic="NORMAL" offset="1" source="#curtain_rail-Normal0"/>
          <input semantic="TEXCOORD" offset="2" set="0" source="#curtain_rail-UV0"/>
          <p> 1 0 1 7 1 7 0 2 0 6 3 6 0 4 0 7 5 7 2 6 2 8 7 8 1 8 1 1 9 1 8 10 8 7 11 7 9 12 9 2 13 2 3 14 3 2 15 2 9 16 9 8 17 8 10 18 10 3 19 3 4 20 4 3 21 3 10 22 10 9 23 9 10 24 10 4 25 4 11 26 11 11 27 11 4 28 4 5 29 5 0 30 0 6 31 6 5 32 26 11 33 27 5 34 26 6 35 6 15 36 31 12 37 28 14 38 30 12 39 28 13 40 29 14 41 30 16 42 32 17 43 33 13 44 29 13 45 29 17 46 33 14 47 30 19 48 36 16 49 34 18 50 35 16 51 34 19 52 36 17 53 37 21 54 39 18 55 35 20 56 38 18 57 35 21 58 39 19 59 36 23 60 41 21 61 39 20 62 38 23 63 41 20 64 38 22 65 40 23 66 41 22 67 40 15 68 31 22 69 40 12 70 28 15 71 31 13 72 12 12 73 13 24 74 14 16 75 15 13 76 12 24 77 14 18 78 16 16 79 15 24 80 14 20 81 17 18 82 16 24 83 14 22 84 18 20 85 17 24 86 14 12 87 13 22 88 18 24 89 14 28 90 45 27 91 44 25 92 42 25 93 42 27 94 44 26 95 43 30 96 47 26 97 43 27 98 44 26 99 43 30 100 47 29 101 46 32 102 50 31 103 49 29 104 48 32 105 50 29 106 48 30 107 51 34 108 53 33 109 52 31 110 49 34 111 53 31 112 49 32 113 50 35 114 54 33 115 52 36 116 55 33 117 52 34 118 53 36 119 55 36 120 55 28 121 45 35 122 54 35 123 54 28 124 45 25 125 42 26 126 19 37 127 20 25 128 21 29 129 22 37 130 20 26 131 19 31 132 23 37 133 20 29 134 22 33 135 24 37 136 20 31 137 23 35 138 25 37 139 20 33 140 24 25 141 21 37 142 20 35 143 25</p>
        </triangles>
      </mesh>
    </geometry>
  </library_geometries>
  <library_visual_scenes>
    <visual_scene id="" name="">
      <node name="curtain_rail" id="curtain_rail" sid="curtain_rail">
        <matrix sid="matrix">1.000000 0.000000 0.000000 0.000000 0.000000 1.000000 0.000000 0.000000 0.000000 0.000000 1.000000 0.000000 0.000000 0.000000 0.000000 1.000000</matrix>
        <instance_geometry url="#curtain_rail-lib">
          <bind_material>
            <technique_common>
              <instance_material symbol="Material #26" target="#Material #26"/>
            </technique_common>
          </bind_material>
        </instance_geometry>
        <extra>
          <technique profile="FCOLLADA">
            <visibility>1.000000</visibility>
          </technique>
        </extra>
      </node>
      <extra>
        <technique profile="MAX3D">
          <frame_rate>30.000000</frame_rate>
        </technique>
        <technique profile="FCOLLADA">
          <start_time>0.000000</start_time>
          <end_time>3.333333</end_time>
        </technique>
      </extra>
    </visual_scene>
  </library_visual_scenes>
  <scene>
    <instance_visual_scene url="#"></instance_visual_scene>
  </scene>
</COLLADA>

