<?xml version="1.0" encoding="utf-8"?>
<COLLADA xmlns="http://www.collada.org/2005/11/COLLADASchema" version="1.4.0">
  <asset>
    <contributor>
      <author></author>
      <authoring_tool>FBX COLLADA exporter</authoring_tool>
      <comments></comments>
    </contributor>
    <created>2012-02-23T13:27:52Z</created>
    <modified>2012-02-23T13:27:52Z</modified>
    <revision></revision>
    <title></title>
    <subject></subject>
    <keywords></keywords>
    <unit meter="1.000000"/>
    <up_axis>Z_UP</up_axis>
  </asset>
  <library_images>
    <image id="Map__8-image" name="Map__8">
      <init_from>file://n:\MyDocuments\Dropbox\Amnesia\WiP\Dan T\Blocks\JLK4.dds</init_from>
    </image>
  </library_images>
  <library_materials>
    <material id="Material__6" name="Material__6">
      <instance_effect url="#Material__6-fx"/>
    </material>
  </library_materials>
  <library_effects>
    <effect id="Material__6-fx" name="Material__6">
      <profile_COMMON>
        <technique sid="standard">
          <phong>
            <emission>
              <color sid="emission">0.000000  0.000000 0.000000 1.000000</color>
            </emission>
            <ambient>
              <color sid="ambient">0.588000  0.588000 0.588000 1.000000</color>
            </ambient>
            <diffuse>
              <texture texture="Map__8-image" texcoord="CHANNEL0">
                <extra>
                  <technique profile="MAYA">
                    <wrapU sid="wrapU0">TRUE</wrapU>
                    <wrapV sid="wrapV0">TRUE</wrapV>
                    <blend_mode>ADD</blend_mode>
                  </technique>
                </extra>
              </texture>
            </diffuse>
            <specular>
              <color sid="specular">0.000000  0.000000 0.000000 1.000000</color>
            </specular>
            <shininess>
              <float sid="shininess">2.000000</float>
            </shininess>
            <reflective>
              <color sid="reflective">0.000000  0.000000 0.000000 1.000000</color>
            </reflective>
            <reflectivity>
              <float sid="reflectivity">1.000000</float>
            </reflectivity>
            <transparent>
              <color sid="transparent">1.000000  1.000000 1.000000 1.000000</color>
            </transparent>
            <transparency>
              <float sid="transparency">0.000000</float>
            </transparency>
          </phong>
        </technique>
      </profile_COMMON>
    </effect>
  </library_effects>
  <library_geometries>
    <geometry id="Box003-lib" name="Box003Mesh">
      <mesh>
        <source id="Box003-lib-Position">
          <float_array id="Box003-lib-Position-array" count="24">
0.100000 0.100000 0.000000
0.100000 -0.100000 0.000000
0.100000 0.100000 0.200000
0.100000 -0.100000 0.200000
-0.100000 0.100000 0.000000
-0.100000 -0.100000 0.000000
-0.100000 0.100000 0.200000
-0.100000 -0.100000 0.200000
</float_array>
          <technique_common>
            <accessor source="#Box003-lib-Position-array" count="8" stride="3">
              <param name="X" type="float"/>
              <param name="Y" type="float"/>
              <param name="Z" type="float"/>
            </accessor>
          </technique_common>
        </source>
        <source id="Box003-lib-Normal0">
          <float_array id="Box003-lib-Normal0-array" count="108">
1.000000 -0.000000 -0.000000
1.000000 -0.000000 -0.000000
1.000000 -0.000000 -0.000000
1.000000 -0.000000 -0.000000
1.000000 -0.000000 -0.000000
1.000000 -0.000000 -0.000000
-1.000000 0.000000 0.000000
-1.000000 0.000000 0.000000
-1.000000 0.000000 0.000000
-1.000000 0.000000 0.000000
-1.000000 0.000000 0.000000
-1.000000 0.000000 0.000000
-0.000000 0.000000 -1.000000
-0.000000 0.000000 -1.000000
-0.000000 0.000000 -1.000000
-0.000000 0.000000 -1.000000
-0.000000 0.000000 -1.000000
-0.000000 0.000000 -1.000000
-0.000000 -1.000000 0.000000
-0.000000 -1.000000 0.000000
-0.000000 -1.000000 0.000000
-0.000000 -1.000000 0.000000
-0.000000 -1.000000 0.000000
-0.000000 -1.000000 0.000000
0.000000 -0.000000 1.000000
0.000000 -0.000000 1.000000
0.000000 -0.000000 1.000000
0.000000 -0.000000 1.000000
0.000000 -0.000000 1.000000
0.000000 -0.000000 1.000000
0.000000 1.000000 0.000000
0.000000 1.000000 0.000000
0.000000 1.000000 0.000000
0.000000 1.000000 0.000000
0.000000 1.000000 0.000000
0.000000 1.000000 0.000000
</float_array>
          <technique_common>
            <accessor source="#Box003-lib-Normal0-array" count="36" stride="3">
              <param name="X" type="float"/>
              <param name="Y" type="float"/>
              <param name="Z" type="float"/>
            </accessor>
          </technique_common>
        </source>
        <source id="Box003-lib-UV0">
          <float_array id="Box003-lib-UV0-array" count="48">
0.501410 0.001760
1.000680 0.001760
1.000680 0.501030
0.501410 0.501030
0.000000 0.001650
0.499270 0.001650
0.499270 0.500919
0.000000 0.500919
0.000000 0.999997
0.000000 0.500727
0.499270 0.500727
0.499270 0.999997
0.500974 0.500979
1.000243 0.500979
1.000243 1.000249
0.500974 1.000249
0.501326 0.001760
1.000596 0.001760
1.000596 0.501030
0.501326 0.501030
0.501288 0.001781
1.000557 0.001781
1.000557 0.501050
0.501288 0.501050
</float_array>
          <technique_common>
            <accessor source="#Box003-lib-UV0-array" count="24" stride="2">
              <param name="S" type="float"/>
              <param name="T" type="float"/>
            </accessor>
          </technique_common>
        </source>
        <vertices id="Box003-lib-Vertex">
          <input semantic="POSITION" source="#Box003-lib-Position"/>
        </vertices>
        <polygons material="Material__6" count="12">
          <input semantic="VERTEX" offset="0" source="#Box003-lib-Vertex"/>
          <input semantic="NORMAL" offset="1" source="#Box003-lib-Normal0"/>
          <input semantic="TEXCOORD" offset="2" set="0" source="#Box003-lib-UV0"/>
          <p>3 0 10 1 1 11 0 2 8</p>
          <p>0 3 8 2 4 9 3 5 10</p>
          <p>7 6 22 6 7 23 4 8 20</p>
          <p>4 9 20 5 10 21 7 11 22</p>
          <p>5 12 6 4 13 7 0 14 4</p>
          <p>0 15 4 1 16 5 5 17 6</p>
          <p>7 18 14 5 19 15 1 20 12</p>
          <p>1 21 12 3 22 13 7 23 14</p>
          <p>6 24 18 7 25 19 3 26 16</p>
          <p>3 27 16 2 28 17 6 29 18</p>
          <p>4 30 2 6 31 3 2 32 0</p>
          <p>2 33 0 0 34 1 4 35 2</p>
        </polygons>
      </mesh>
    </geometry>
  </library_geometries>
  <library_visual_scenes>
    <visual_scene id="RootNode" name="RootNode">
      <node id="Box003" name="Box003">
        <matrix sid="matrix">1.000000 0.000000 0.000000 0.000000 0.000000 1.000000 0.000000 0.000000 0.000000 0.000000 1.000000 0.000000 0.000000 0.000000 0.000000 1.000000</matrix>
        <instance_geometry url="#Box003-lib">
          <bind_material>
            <technique_common>
              <instance_material symbol="Material__6" target="#Material__6"/>
            </technique_common>
          </bind_material>
        </instance_geometry>
      </node>
    </visual_scene>
  </library_visual_scenes>
  <scene>
    <instance_visual_scene url="#RootNode"/>
  </scene>
</COLLADA>

