﻿<?xml version="1.0" encoding="utf-8"?>
<COLLADA xmlns="http://www.collada.org/2005/11/COLLADASchema" version="1.4.1">
  <asset>
    <contributor>
      <author>marc</author>
      <authoring_tool>Maya7.0 | ColladaMaya v3.05B</authoring_tool>
      <comments>ColladaMaya export options: bakeTransforms=0;exportPolygonMeshes=1;bakeLighting=0;isSampling=0;
curveConstrainSampling=0;removeStaticCurves=1;exportCameraAsLookat=0;
exportLights=1;exportCameras=1;exportJointsAndSkin=1;
exportAnimations=1;exportTriangles=1;exportInvisibleNodes=0;
exportNormals=1;exportTexCoords=1;
exportVertexColors=1;exportVertexColorsAnimation=0;exportTangents=0;
exportTexTangents=0;exportConstraints=1;exportPhysics=1;exportXRefs=1;
dereferenceXRefs=0;cameraXFov=0;cameraYFov=1</comments>
      <source_data>file:///E:/lux/work_static_objects/cellarbase/wall/wall_alt.mb</source_data>
    </contributor>
    <created>2009-03-11T09:01:45Z</created>
    <modified>2009-03-11T09:01:45Z</modified>
    <up_axis>Y_UP</up_axis>
    <hpl2scaling />
  </asset>
  <library_physics_scenes>
    <physics_scene id="MayaNativePhysicsScene">
      <technique_common>
        <gravity>0 -980 0</gravity>
        <time_step>0.083</time_step>
      </technique_common>
    </physics_scene>
  </library_physics_scenes>
  <library_images>
    <image id="file3" name="file3">
      <init_from>file:///E:/lux/redist/static_objects/cellarbase/cellarbase_wood_beams.dds</init_from>
      <extra>
        <technique profile="MAYA">
          <dgnode_type>kFile</dgnode_type>
          <image_sequence>0</image_sequence>
        </technique>
      </extra>
    </image>
    <image id="file5" name="file5">
      <init_from>file:///E:/lux/redist/static_objects/cellarbase/cellarbase.dds</init_from>
      <extra>
        <technique profile="MAYA">
          <dgnode_type>kFile</dgnode_type>
          <image_sequence>0</image_sequence>
        </technique>
      </extra>
    </image>
  </library_images>
  <library_materials>
    <material id="lambert4" name="lambert4">
      <instance_effect url="#lambert4-fx" />
    </material>
    <material id="lambert6" name="lambert6">
      <instance_effect url="#lambert6-fx" />
    </material>
    <material id="lambert1" name="lambert1">
      <instance_effect url="#lambert1-fx" />
    </material>
  </library_materials>
  <library_effects>
    <effect id="lambert4-fx">
      <profile_COMMON>
        <newparam sid="file3-surface">
          <surface type="2D">
            <init_from>file3</init_from>
            <format>A8R8G8B8</format>
          </surface>
        </newparam>
        <newparam sid="file3-sampler">
          <sampler2D>
            <source>file3-surface</source>
            <wrap_s>WRAP</wrap_s>
            <wrap_t>WRAP</wrap_t>
            <minfilter>NONE</minfilter>
            <magfilter>NONE</magfilter>
            <mipfilter>NONE</mipfilter>
          </sampler2D>
        </newparam>
        <technique sid="common">
          <lambert>
            <emission>
              <color>0 0 0 1</color>
            </emission>
            <ambient>
              <color>0 0 0 1</color>
            </ambient>
            <diffuse>
              <texture texture="file3-sampler" texcoord="TEX0">
                <extra>
                  <technique profile="MAYA">
                    <wrapU>1</wrapU>
                    <wrapV>1</wrapV>
                    <mirrorU>0</mirrorU>
                    <mirrorV>0</mirrorV>
                    <coverageU>1</coverageU>
                    <coverageV>1</coverageV>
                    <translateFrameU>0</translateFrameU>
                    <translateFrameV>0</translateFrameV>
                    <rotateFrame>0</rotateFrame>
                    <stagger>0</stagger>
                    <fast>0</fast>
                    <repeatU>1</repeatU>
                    <repeatV>1</repeatV>
                    <offsetU>0</offsetU>
                    <offsetV>0</offsetV>
                    <rotateUV>0</rotateUV>
                    <noiseU>0</noiseU>
                    <noiseV>0</noiseV>
                    <blend_mode>NONE</blend_mode>
                  </technique>
                </extra>
              </texture>
            </diffuse>
            <transparent opaque="RGB_ZERO">
              <color>0 0 0 1</color>
            </transparent>
            <transparency>
              <float>1</float>
            </transparency>
          </lambert>
          <extra>
            <technique profile="FCOLLADA" />
          </extra>
        </technique>
      </profile_COMMON>
    </effect>
    <effect id="lambert6-fx">
      <profile_COMMON>
        <newparam sid="file5-surface">
          <surface type="2D">
            <init_from>file5</init_from>
            <format>A8R8G8B8</format>
          </surface>
        </newparam>
        <newparam sid="file5-sampler">
          <sampler2D>
            <source>file5-surface</source>
            <wrap_s>WRAP</wrap_s>
            <wrap_t>WRAP</wrap_t>
            <minfilter>NONE</minfilter>
            <magfilter>NONE</magfilter>
            <mipfilter>NONE</mipfilter>
          </sampler2D>
        </newparam>
        <technique sid="common">
          <lambert>
            <emission>
              <color>0 0 0 1</color>
            </emission>
            <ambient>
              <color>0 0 0 1</color>
            </ambient>
            <diffuse>
              <texture texture="file5-sampler" texcoord="TEX0">
                <extra>
                  <technique profile="MAYA">
                    <wrapU>1</wrapU>
                    <wrapV>1</wrapV>
                    <mirrorU>0</mirrorU>
                    <mirrorV>0</mirrorV>
                    <coverageU>1</coverageU>
                    <coverageV>1</coverageV>
                    <translateFrameU>0</translateFrameU>
                    <translateFrameV>0</translateFrameV>
                    <rotateFrame>0</rotateFrame>
                    <stagger>0</stagger>
                    <fast>0</fast>
                    <repeatU>1</repeatU>
                    <repeatV>1</repeatV>
                    <offsetU>0</offsetU>
                    <offsetV>0</offsetV>
                    <rotateUV>0</rotateUV>
                    <noiseU>0</noiseU>
                    <noiseV>0</noiseV>
                    <blend_mode>NONE</blend_mode>
                  </technique>
                </extra>
              </texture>
            </diffuse>
            <transparent opaque="RGB_ZERO">
              <color>0 0 0 1</color>
            </transparent>
            <transparency>
              <float>1</float>
            </transparency>
          </lambert>
          <extra>
            <technique profile="FCOLLADA" />
          </extra>
        </technique>
      </profile_COMMON>
    </effect>
    <effect id="lambert1-fx">
      <profile_COMMON>
        <technique sid="common">
          <lambert>
            <emission>
              <color>0 0 0 1</color>
            </emission>
            <ambient>
              <color>0 0 0 1</color>
            </ambient>
            <diffuse>
              <color>0.4 0.4 0.4 0.8</color>
            </diffuse>
            <transparent opaque="RGB_ZERO">
              <color>0 0 0 1</color>
            </transparent>
            <transparency>
              <float>1</float>
            </transparency>
          </lambert>
          <extra>
            <technique profile="FCOLLADA" />
          </extra>
        </technique>
      </profile_COMMON>
    </effect>
  </library_effects>
  <library_geometries>
    <geometry id="polySurfaceShape17" name="polySurfaceShape17">
      <mesh>
        <source id="polySurfaceShape17-positions" name="position">
          <float_array id="polySurfaceShape17-positions-array" count="342">2 3.86854 -0.034979 2 3.89211 -0.0886 1.58838 3.84923 -0.10196 1.49696 3.93484 -0.152419 1.22659 3.89806 -0.102224 1.16 3.90689 -0.135983 0.716693 3.85418 -0.108644 0.752062 3.90175 -0.148969 0.349819 3.82107 -0.083424 0.352903 3.89896 -0.111547 0.007738 3.8503 -0.10832 -0.056383 3.85582 -0.140907 -0.375378 3.87212 -0.090801 -0.437194 3.88545 -0.136027 -0.863912 3.80745 -0.115376 -0.880441 3.90394 -0.134827 -1.22292 3.84032 -0.092876 -1.27796 3.9355 -0.091917 -1.58542 3.88311 -0.106795 -1.64899 3.91567 -0.168877 -2 3.89211 -0.0886 -2 3.97285 -0.099474 2 3.90258 0.133621 1.40493 3.89833 0.066366 1.61101 3.91039 0.138443 1.14982 3.84626 0.084447 1.19692 3.88158 0.128226 0.738201 3.83797 0.089414 0.788533 3.90013 0.115027 0.375502 3.85116 0.083469 0.391682 3.87906 0.11149 -0.056337 3.84839 0.049279 -0.038236 3.831 0.122825 -0.509573 3.85197 0.089271 -0.499955 3.85527 0.137221 -0.866534 3.81899 0.078147 -0.78998 3.88707 0.090753 -1.27273 3.89938 0.054781 -1.22493 3.85069 0.148613 -1.70587 3.88335 0.089624 -1.63073 3.90383 0.121074 -2 3.86307 0.072595 -2 3.90258 0.133621 -2 4 0.132972 -1.59225 4 0.120926 -1.21905 4 0.13912 -0.828934 4 0.134325 -0.39666 4 0.119456 -0.029129 4 0.131784 0.394567 4 0.126048 0.741785 4 0.149704 1.13543 4 0.11102 -2 3.86854 -0.034979 -1.66711 3.84761 -0.011885 -1.17974 3.8755 -0.027138 -0.767111 3.84073 -0.030653 -0.4382 3.82619 -0.01757 -0.05192 3.84653 0.010055 0.340189 3.78684 -0.01188 0.711003 3.86349 -0.000369 1.2125 3.88025 -0.003421 1.55012 3.83213 -0.020665 2 3.86307 0.072595 2 4 -0.099474 2 4 0.132972 2 4 0.132972 -1.59225 4 0.120926 -1.59225 4 0.120926 -1.21905 4 0.13912 -1.21905 4 0.13912 -1.21905 4 0.13912 -0.828934 4 0.134325 -0.39666 4 0.119456 -0.39666 4 0.119456 -0.029129 4 0.131784 -0.029129 4 0.131784 -0.029129 4 0.131784 0.394567 4 0.126048 0.394567 4 0.126048 0.741785 4 0.149704 1.13543 4 0.11102 1.13543 4 0.11102 1.13543 4 0.11102 1.61113 4 0.145028 1.61113 4 0.145028 -2 4 -0.13229 -2 4 -0.13229 -1.64242 4 -0.122673 -1.64242 4 -0.122673 -1.64242 4 -0.122673 -1.23415 4 -0.116098 -1.23415 4 -0.116098 -1.23415 4 -0.116098 -0.779751 4 -0.110946 -0.779751 4 -0.110946 -0.462892 4 -0.164186 -0.462892 4 -0.164186 -0.462892 4 -0.164186 -0.082849 4 -0.096867 -0.082849 4 -0.096867 -0.082849 4 -0.096867 -0.082849 4 -0.096867 0.326002 4 -0.150087 0.326002 4 -0.150087 0.326002 4 -0.150087 0.73368 4 -0.109971 0.73368 4 -0.109971 0.73368 4 -0.109971 1.20811 4 -0.100636 1.20811 4 -0.100636 1.58703 4 -0.140502 1.58703 4 -0.140502 1.58703 4 -0.140502 2 4 -0.099474</float_array>
          <technique_common>
            <accessor source="#polySurfaceShape17-positions-array" count="114" stride="3">
              <param name="X" type="float" />
              <param name="Y" type="float" />
              <param name="Z" type="float" />
            </accessor>
          </technique_common>
        </source>
        <source id="polySurfaceShape17-normals" name="normal">
          <float_array id="polySurfaceShape17-normals-array" count="402">0.110253 -0.534638 -0.837858 0.024303 -0.402458 -0.915116 0.116901 -0.099594 -0.988137 0.098759 0.04529 -0.99408 0.098759 0.04529 -0.99408 0.098759 0.04529 -0.99408 -0.096064 0.396283 -0.913089 -0.096064 0.396283 -0.913089 -0.096064 0.396283 -0.913089 0.033722 -0.479028 -0.877152 -0.06934 0.271438 -0.959955 0.018453 0.346511 -0.937864 0.018453 0.346511 -0.937864 0.018453 0.346511 -0.937864 -0.023055 -0.357512 -0.933624 0.024829 0.372826 -0.927569 0.090503 0.381997 -0.919721 0.090503 0.381997 -0.919721 0.090503 0.381997 -0.919721 0.006944 -0.37135 -0.928467 -0.083947 -0.374552 -0.923398 0.009987 -0.669855 -0.742425 0.036997 0.298124 -0.95381 -0.119323 -0.381405 -0.916674 -0.119323 -0.381405 -0.916674 -0.119323 -0.381405 -0.916674 0.01173 -0.49374 -0.869531 0.010624 0.293885 -0.955782 0.170937 -0.198876 -0.965002 0.170937 -0.198876 -0.965002 0.170937 -0.198876 -0.965002 -0.068287 -0.196475 -0.978128 -0.012696 -0.241388 -0.970346 -0.152838 0.386338 -0.909606 -0.152838 0.386338 -0.909606 -0.152838 0.386338 -0.909606 0.011033 0.230337 -0.973048 0.011033 0.230337 -0.973048 0.011033 0.230337 -0.973048 0.030268 0.06855 -0.997188 -0.124642 -0.272968 -0.953914 -0.05214 -0.540852 -0.8395 0.155864 0.465255 -0.871346 0.015022 -0.359945 -0.932853 0.015022 -0.359945 -0.932853 0.015022 -0.359945 -0.932853 0.023601 0.47894 -0.87753 0.023601 0.47894 -0.87753 0.023601 0.47894 -0.87753 -0.186765 -0.681606 -0.707483 -0.243954 -0.747167 -0.618246 -0.023721 -0.717522 0.696132 0.05795 -0.897077 0.438058 -0.011048 -0.932204 0.361764 -0.003845 -0.9975 0.070562 -0.047483 -0.972895 -0.226321 0.06029 -0.986426 0.152736 0.097964 -0.974979 -0.199549 0.022302 -0.842378 0.538426 -0.004711 -0.999857 -0.01627 0.001837 -0.870202 0.492693 -0.051032 -0.998666 -0.007917 -0.02239 -0.996861 0.075936 -0.004284 -0.993882 -0.110365 -0.0256 -0.97849 0.204698 -0.045664 -0.962566 0.267173 -0.009983 -0.997515 0.069736 -0.044585 -0.996765 0.066866 -0.046023 -0.972747 0.227255 0.008316 -0.995182 0.097689 0.051782 -0.912783 0.405149 -0.04359 -0.959144 -0.279539 0.009843 -0.939242 0.343115 -0.017805 -0.868721 -0.494982 0.087949 -0.973764 -0.209875 0.004806 -0.91335 -0.407146 0.061059 -0.937239 -0.343299 0.039025 -0.771286 -0.635292 -0.017966 -0.920717 -0.389816 0.004953 -0.962083 -0.272713 0.029524 -0.875807 -0.481758 -0.04618 -0.88839 -0.456762 -0.091617 -0.85337 -0.513192 -0.048067 -0.600819 -0.797939 0.011412 -0.646916 0.762476 0.012527 0.006659 0.999899 0.040739 -0.567567 0.822319 -0.015916 -0.185953 0.98243 0.022147 -0.420595 0.906978 0.02441 -0.855483 0.517255 -0.097932 -0.646251 0.756815 0.002029 -0.295223 0.955426 -0.009115 -0.694586 0.719352 0.001318 -0.751912 0.659262 0.031365 -0.482879 0.875125 0.033996 -0.012062 0.999349 0.02953 0.006657 0.999542 0.02953 0.006657 0.999542 0.02953 0.006657 0.999542 -0.059 0.065656 0.996096 -0.048682 0.02102 0.998593 -0.048682 0.02102 0.998593 -0.048682 0.02102 0.998593 0.126877 0.057961 0.990224 0.011483 -0.356497 0.934226 0.011483 -0.356497 0.934226 0.011483 -0.356497 0.934226 0.032199 -0.350097 0.93616 0.032199 -0.350097 0.93616 0.032199 -0.350097 0.93616 -0.131773 0.212882 0.968151 0.028259 -0.054437 0.998117 -0.033169 0.14505 0.988868 -0.033169 0.14505 0.988868 -0.033169 0.14505 0.988868 0.032422 -0.054654 0.997979 0.013439 -0.119822 0.992704 0.013439 -0.119822 0.992704 0.013439 -0.119822 0.992704 -0.002508 -0.119457 0.992836 -0.063576 -0.353771 0.933169 -0.063576 -0.353771 0.933169 -0.063576 -0.353771 0.933169 -0.026106 0.130451 0.991111 0.09368 -0.287148 0.953294 0.09368 -0.287148 0.953294 0.09368 -0.287148 0.953294 -0.071118 -0.073007 0.994792 -0.071118 -0.073007 0.994792 -0.071118 -0.073007 0.994792 -0.033278 0.126765 0.991374 0.030902 -0.073293 0.996832 0.030902 -0.073293 0.996832 0.030902 -0.073293 0.996832</float_array>
          <technique_common>
            <accessor source="#polySurfaceShape17-normals-array" count="134" stride="3">
              <param name="X" type="float" />
              <param name="Y" type="float" />
              <param name="Z" type="float" />
            </accessor>
          </technique_common>
        </source>
        <source id="polySurfaceShape17-map1" name="map1">
          <float_array id="polySurfaceShape17-map1-array" count="228">0.56116 1.73773 0.609609 1.42641 0.688444 1.73773 0.712703 1.48216 0.688444 1.73773 0.706927 1.24766 0.712703 1.48216 0.587451 1.21787 0.712703 1.48216 0.706927 1.24766 0.664139 0.954045 0.589547 0.965415 0.664139 0.954045 0.664139 0.954045 0.659656 0.701746 0.571997 0.71839 0.659656 0.701746 0.565763 0.465092 0.659588 0.448722 0.659588 0.448722 0.659656 0.701746 0.57642 0.229422 0.659588 0.448722 0.65624 0.213524 0.659588 0.448722 0.585399 -0.044888 0.65624 0.213524 0.705924 0.017435 0.65624 0.213524 0.705924 0.017435 0.664321 -0.263778 0.585373 -0.290895 0.664321 -0.263778 0.603187 -0.520518 0.720521 -0.516447 0.720521 -0.516447 0.664321 -0.263778 0.720521 -0.516447 0.706603 -0.73774 0.624842 -0.737743 0.706603 -0.73774 0.387484 1.73773 0.415244 1.36946 0.45461 1.73773 0.492871 1.45931 0.481319 1.25037 0.424468 1.21158 0.478941 0.940009 0.424354 0.956842 0.486056 0.710519 0.423402 0.732381 0.471809 0.46786 0.444648 0.465126 0.490495 0.228801 0.419946 0.184635 0.434965 -0.036277 0.500156 0.02525 0.423429 -0.287659 0.502028 -0.230113 0.48751 -0.531728 0.407258 -0.555713 0.507295 -0.737746 0.42557 -0.737743 0.545503 1.48299 0.525366 1.73773 0.566485 1.25909 0.550609 0.943524 0.528036 0.716478 0.549081 0.504776 0.547683 0.267679 0.539825 -0.034663 0.537955 -0.256842 0.561501 -0.481179 0.55524 -0.737747 0.370884 1.497 0.353651 1.73774 0.389436 1.24073 0.38584 0.987996 0.397965 0.742396 0.411038 0.476332 0.396765 0.19059 0.404921 0.0111 0.394186 -0.258077 0.380986 -0.509212 0.376636 -0.737738 0.277414 -0.485389 0.277414 -0.485389 0.340561 -0.737735 0.327692 -0.25443 0.327692 -0.25443 0.277414 -0.485389 0.327692 -0.25443 0.342087 -0.012998 0.327692 -0.25443 0.342087 -0.012998 0.323165 0.254522 0.323165 0.254522 0.353822 0.481973 0.353822 0.481973 0.323165 0.254522 0.353822 0.481973 0.326587 0.744187 0.353822 0.481973 0.326587 0.744187 0.313044 0.95907 0.326587 0.744187 0.308296 1.20269 0.308296 1.20269 0.313044 0.95907 0.323982 1.49708 0.308296 1.20269 0.308296 1.20269 0.323982 1.49708 0.353651 1.73774</float_array>
          <technique_common>
            <accessor source="#polySurfaceShape17-map1-array" count="114" stride="2">
              <param name="S" type="float" />
              <param name="T" type="float" />
            </accessor>
          </technique_common>
        </source>
        <vertices id="polySurfaceShape17-vertices">
          <input semantic="POSITION" source="#polySurfaceShape17-positions" />
        </vertices>
        <triangles material="lambert4SG" count="119">
          <input semantic="VERTEX" source="#polySurfaceShape17-vertices" offset="0" />
          <input semantic="NORMAL" source="#polySurfaceShape17-normals" offset="1" />
          <input semantic="TEXCOORD" source="#polySurfaceShape17-map1" offset="2" set="0" />
          <p>1 0 0 3 1 1 63 2 2 3 3 1 110 4 3 113 5 4 108 6 5 112 7 6 5 8 7 3 1 1 5 9 7 111 10 8 109 11 9 5 12 7 105 13 10 5 9 7 7 14 11 106 15 12 107 16 13 7 17 11 102 18 14 7 14 11 9 19 15 103 20 16 11 21 17 99 22 18 9 19 15 9 23 15 98 24 19 104 25 20 11 21 17 13 26 21 100 27 22 13 28 21 95 29 23 101 30 24 13 26 21 15 31 25 96 32 26 15 33 25 93 34 27 97 35 28 94 36 29 15 37 25 90 38 30 15 31 25 17 39 31 91 40 32 19 41 33 88 42 34 17 39 31 17 43 31 87 44 35 92 45 36 89 46 37 19 47 33 85 48 38 19 41 33 21 49 39 86 50 40 22 51 41 23 52 42 62 53 43 23 52 42 61 54 44 62 53 43 60 55 45 61 54 44 25 56 46 23 52 42 25 56 46 61 54 44 60 55 45 25 56 46 59 57 47 25 56 46 27 58 48 59 57 47 59 57 47 27 58 48 58 59 49 27 58 48 29 60 50 58 59 49 57 61 51 58 59 49 31 62 52 29 60 50 31 62 52 58 59 49 57 61 51 31 62 52 56 63 53 31 62 52 33 64 54 56 63 53 35 65 55 55 66 56 33 64 54 33 64 54 55 66 56 56 63 53 37 67 57 54 68 58 35 65 55 35 65 55 54 68 58 55 66 56 54 68 58 37 67 57 53 69 59 37 67 57 39 70 60 53 69 59 52 71 61 53 69 59 41 72 62 39 70 60 41 72 62 53 69 59 3 1 1 1 0 0 2 73 63 1 0 0 0 74 64 2 73 63 2 73 63 4 75 65 3 1 1 3 1 1 4 75 65 5 9 7 4 75 65 6 76 66 5 9 7 5 9 7 6 76 66 7 14 11 9 19 15 7 14 11 8 77 67 7 14 11 6 76 66 8 77 67 11 21 17 9 19 15 10 78 68 9 19 15 8 77 67 10 78 68 10 78 68 12 79 69 11 21 17 11 21 17 12 79 69 13 26 21 12 79 69 14 80 70 13 26 21 13 26 21 14 80 70 15 31 25 17 39 31 15 31 25 16 81 71 15 31 25 14 80 70 16 81 71 17 39 31 16 81 71 19 41 33 16 81 71 18 82 72 19 41 33 19 41 33 18 82 72 21 49 39 18 82 72 20 83 73 21 49 39 23 52 42 22 51 41 24 84 74 22 51 41 65 85 75 24 84 74 24 84 74 26 86 76 23 52 42 23 52 42 26 86 76 25 56 46 28 87 77 27 58 48 26 86 76 25 56 46 26 86 76 27 58 48 28 87 77 30 88 78 27 58 48 27 58 48 30 88 78 29 60 50 31 62 52 29 60 50 32 89 79 29 60 50 30 88 78 32 89 79 31 62 52 32 89 79 33 64 54 32 89 79 34 90 80 33 64 54 35 65 55 33 64 54 36 91 81 33 64 54 34 90 80 36 91 81 36 91 81 38 92 82 35 65 55 35 65 55 38 92 82 37 67 57 39 70 60 37 67 57 40 93 83 37 67 57 38 92 82 40 93 83 42 94 84 41 72 62 40 93 83 39 70 60 40 93 83 41 72 62 40 93 83 44 95 85 42 94 84 66 96 86 43 97 87 42 98 84 38 92 82 70 99 88 40 93 83 69 100 89 67 101 90 40 102 83 38 92 82 36 91 81 45 103 91 46 104 92 68 105 93 36 106 81 71 107 94 36 108 81 73 109 95 47 110 96 36 91 81 34 90 80 32 89 79 76 111 97 34 90 80 75 112 98 72 113 99 34 114 80 32 89 79 30 88 78 48 115 100 78 116 101 74 117 102 30 118 78 30 88 78 28 87 77 49 119 103 50 120 104 77 121 105 28 122 77 26 86 76 82 123 106 28 87 77 81 124 107 79 125 108 28 126 77 84 127 109 51 128 110 24 129 74 80 130 111 26 86 76 24 84 74 83 131 112 24 132 74 64 133 113 20 83 73 18 82 72 52 71 61 53 69 59 52 71 61 18 82 72 54 68 58 53 69 59 16 81 71 53 69 59 18 82 72 16 81 71 54 68 58 16 81 71 55 66 56 55 66 56 16 81 71 14 80 70 14 80 70 12 79 69 55 66 56 56 63 53 55 66 56 12 79 69 57 61 51 56 63 53 10 78 68 56 63 53 12 79 69 10 78 68 57 61 51 10 78 68 58 59 49 58 59 49 10 78 68 8 77 67 6 76 66 59 57 47 8 77 67 59 57 47 58 59 49 8 77 67 4 75 65 60 55 45 6 76 66 60 55 45 59 57 47 6 76 66 4 75 65 2 73 63 60 55 45 61 54 44 60 55 45 2 73 63 62 53 43 61 54 44 0 74 64 61 54 44 2 73 63 0 74 64</p>
        </triangles>
        <polylist material="initialShadingGroup" count="0">
          <input semantic="VERTEX" source="#polySurfaceShape17-vertices" offset="0" />
          <input semantic="NORMAL" source="#polySurfaceShape17-normals" offset="1" />
          <input semantic="TEXCOORD" source="#polySurfaceShape17-map1" offset="2" set="0" />
          <vcount />
          <p />
        </polylist>
      </mesh>
      <extra>
        <technique profile="MAYA">
          <double_sided>1</double_sided>
        </technique>
      </extra>
    </geometry>
    <geometry id="polySurfaceShape18" name="polySurfaceShape18">
      <mesh>
        <source id="polySurfaceShape18-positions" name="position">
          <float_array id="polySurfaceShape18-positions-array" count="348">2 0.127105 -0.111892 2 0.06382 -0.13229 1.53634 0.213162 -0.090579 1.5692 0.177796 -0.14192 1.13326 0.183752 -0.066983 1.18948 0.131175 -0.123433 0.680945 0.137991 -0.082794 0.82434 0.173464 -0.127245 0.261119 0.144504 -0.084886 0.377242 0.113927 -0.120417 -0.115911 0.171335 -0.089084 -0.041547 0.096111 -0.132885 -0.498799 0.165283 -0.10517 -0.381813 0.110037 -0.113562 -0.884311 0.190994 -0.079955 -0.750555 0.11326 -0.121591 -1.23855 0.176353 -0.089508 -1.18892 0.156739 -0.103984 -1.65486 0.196356 -0.06105 -1.65382 0.179317 -0.136257 -2 0.187817 -0.079553 -2 0.127105 -0.111892 2 0.188396 0.068681 2 0.193943 -0.01106 1.5084 0.083589 0.126717 1.54816 0.164303 0.099891 1.11495 0.112391 0.127834 1.16145 0.19165 0.097022 0.709085 0.148917 0.159083 0.791168 0.167695 0.094045 0.323763 0.091471 0.089757 0.384773 0.165334 0.069224 -0.069609 0.096308 0.136432 0.042036 0.159839 0.096346 -0.433518 0.134078 0.156857 -0.4073 0.157773 0.125663 -0.829565 0.114019 0.112601 -0.768412 0.154679 0.073591 -1.31223 0.128862 0.092793 -1.1987 0.194028 0.10127 -1.64584 0.125828 0.141268 -1.57219 0.154456 0.118354 -2 0.121773 0.090924 -2 0.188396 0.068681 2 0 0.132972 1.61113 0 0.145028 2 0.121773 0.090924 -2 0.193943 -0.01106 -1.55456 0.181436 0.025237 -1.17467 0.15562 -0.022279 -0.785274 0.153555 -0.007688 -0.481426 0.157454 0.009207 -0.029846 0.123848 0.009967 0.405815 0.147173 0.010388 0.769979 0.152348 0.009485 1.23765 0.16116 0.018243 1.59961 0.190975 0.010124 2 0.187817 -0.079553 -2 0 -0.13229 -1.64242 0 -0.122673 -1.23415 0 -0.116098 -0.779751 0 -0.110946 -0.462892 0 -0.164186 -0.082849 0 -0.096867 0.326002 0 -0.150087 0.73368 0 -0.109971 1.20811 0 -0.100636 1.58703 0 -0.140502 -2 0 0.132972 -2 0 0.132972 -1.59225 0 0.120926 -1.59225 0 0.120926 -1.59225 0 0.120926 -1.21905 0 0.13912 -1.21905 0 0.13912 -0.828934 0 0.134325 -0.828934 0 0.134325 -0.828934 0 0.134325 -0.828934 0 0.134325 -0.39666 0 0.119456 -0.39666 0 0.119456 -0.39666 0 0.119456 -0.029129 0 0.131784 -0.029129 0 0.131784 0.394567 0 0.126048 0.394567 0 0.126048 0.394567 0 0.126048 0.741785 0 0.149704 0.741785 0 0.149704 0.741785 0 0.149704 0.741785 0 0.149704 1.13543 0 0.11102 1.13543 0 0.11102 1.13543 0 0.11102 1.61113 0 0.145028 1.61113 0 0.145028 -1.64242 0 -0.122673 -1.64242 0 -0.122673 -1.64242 0 -0.122673 -1.23415 0 -0.116098 -1.23415 0 -0.116098 -0.779751 0 -0.110946 -0.462892 0 -0.164186 -0.462892 0 -0.164186 -0.462892 0 -0.164186 -0.082849 0 -0.096867 0.326002 0 -0.150087 0.326002 0 -0.150087 0.73368 0 -0.109971 0.73368 0 -0.109971 0.73368 0 -0.109971 1.20811 0 -0.100636 1.58703 0 -0.140502 1.58703 0 -0.140502 2 0 -0.099474 2 0 -0.099474</float_array>
          <technique_common>
            <accessor source="#polySurfaceShape18-positions-array" count="116" stride="3">
              <param name="X" type="float" />
              <param name="Y" type="float" />
              <param name="Z" type="float" />
            </accessor>
          </technique_common>
        </source>
        <source id="polySurfaceShape18-normals" name="normal">
          <float_array id="polySurfaceShape18-normals-array" count="408">0.030034 0.389771 -0.920422 0.000839 0.902421 -0.430855 0.026172 0.990589 -0.134343 0.007737 0.990421 0.137866 -0.051889 0.995395 -0.080596 -0.053281 0.998202 -0.027461 -0.05447 0.998256 -0.022767 -0.03371 0.99796 -0.054217 0.022795 0.986395 -0.162806 -0.017624 0.987918 -0.153975 0.004251 0.999254 -0.038374 0.042316 0.958447 -0.282116 0.024149 0.985947 0.165305 0.003438 0.661694 -0.749766 -0.008293 0.941698 -0.336358 -0.018629 0.974914 0.221803 0.039228 0.999099 -0.016214 0.033527 0.994787 -0.096308 0.014177 0.998403 -0.05469 0.024255 0.992953 0.116002 0.005948 0.998983 0.044704 -0.060408 0.897666 -0.436516 -0.094377 0.783082 0.614715 0.024852 0.367835 0.929559 0.046704 0.293663 0.954767 0.048963 0.270781 0.961395 -0.070705 0.129755 0.989022 -0.070705 0.129755 0.989022 -0.070705 0.129755 0.989022 0.04258 0.157592 0.986586 -0.008129 -0.149397 0.988744 -0.059726 0.51112 0.857432 0.072492 -0.046829 0.996269 0.09697 -0.129951 0.986767 0.09697 -0.129951 0.986767 0.09697 -0.129951 0.986767 -0.017561 0.280775 0.959613 -0.16214 -0.09745 0.981944 -0.06429 0.324625 0.943655 -0.06429 0.324625 0.943655 -0.06429 0.324625 0.943655 0.013524 -0.042527 0.999004 0.013524 -0.042527 0.999004 0.013524 -0.042527 0.999004 0.090292 0.252813 0.963293 0.111156 0.439645 0.891267 -0.029196 0.502554 0.864053 0.026987 -0.261703 0.964771 -0.033458 -0.062202 0.997503 -0.033458 -0.062202 0.997503 -0.033458 -0.062202 0.997503 0.033192 -0.260067 0.96502 0.033192 -0.260067 0.96502 0.033192 -0.260067 0.96502 -0.042385 0.35918 0.932305 -0.118392 0.185211 0.975541 0.054798 0.037531 0.997792 -0.034542 0.186863 0.981778 0.011533 0.345655 0.938291 0.011533 0.345655 0.938291 0.011533 0.345655 0.938291 -0.046324 0.308107 0.950223 -0.046324 0.308107 0.950223 -0.046324 0.308107 0.950223 0.009741 0.371529 0.92837 0.143977 -0.097887 0.984728 -0.110578 0.483921 0.868097 -0.136802 0.323318 0.93635 0.029208 -0.147395 0.988646 0.029208 -0.147395 0.988646 0.029208 -0.147395 0.988646 0.063148 0.299149 -0.952115 -0.01091 0.37067 -0.9287 -0.037706 0.471825 -0.880886 -0.042805 0.790653 -0.610766 -0.003235 0.665066 -0.746777 -0.007798 0.35619 -0.934381 -0.010619 0.272464 -0.962107 -0.000318 0.326051 -0.945352 0.027099 0.383886 -0.922983 -0.004414 0.598317 -0.801247 -0.098992 0.201626 -0.974447 -0.02822 0.918954 0.393354 0.06345 0.739338 0.670339 -0.004525 0.942158 0.335139 -0.027362 0.994383 -0.10224 -0.054363 0.966735 0.249938 0.054301 0.801583 0.595412 -0.004257 0.990743 0.135683 -0.00411 0.951496 0.307635 0.035366 0.791757 0.609812 -0.006292 0.618016 0.786141 -0.007472 0.867775 0.496901 0.02929 0.326246 0.944831 0.02929 0.326246 0.944831 0.02929 0.326246 0.944831 -0.058114 -0.07908 -0.995173 0.026546 0.158395 -0.987019 0.026546 0.158395 -0.987019 0.026546 0.158395 -0.987019 0.016059 0.07244 -0.997243 0.016059 0.07244 -0.997243 0.016059 0.07244 -0.997243 0.065632 -0.071224 -0.995299 -0.031462 0.08604 -0.995795 0.011285 -0.096458 -0.995273 0.011285 -0.096458 -0.995273 0.011285 -0.096458 -0.995273 0.023443 0.403532 -0.914665 -0.165497 -0.049918 -0.984946 -0.165497 -0.049918 -0.984946 -0.165497 -0.049918 -0.984946 0.159417 -0.405765 -0.899967 0.159417 -0.405765 -0.899967 0.159417 -0.405765 -0.899967 -0.033106 0.437756 -0.898484 -0.123077 -0.301436 -0.94551 -0.123077 -0.301436 -0.94551 -0.123077 -0.301436 -0.94551 0.018475 0.244192 -0.969551 -0.002149 -0.097978 -0.995186 0.095739 0.210322 -0.972933 0.095739 0.210322 -0.972933 0.095739 0.210322 -0.972933 -0.001026 -0.09856 -0.995131 0.019391 -0.16852 -0.985507 0.019391 -0.16852 -0.985507 0.019391 -0.16852 -0.985507 -0.04707 -0.012689 -0.998811 -0.102835 -0.184475 -0.977442 -0.102835 -0.184475 -0.977442 -0.102835 -0.184475 -0.977442 -0.100588 -0.45496 -0.884813 0.098861 0.00198 -0.995099 0.098861 0.00198 -0.995099 0.098861 0.00198 -0.995099</float_array>
          <technique_common>
            <accessor source="#polySurfaceShape18-normals-array" count="136" stride="3">
              <param name="X" type="float" />
              <param name="Y" type="float" />
              <param name="Z" type="float" />
            </accessor>
          </technique_common>
        </source>
        <source id="polySurfaceShape18-map1" name="map1">
          <float_array id="polySurfaceShape18-map1-array" count="254">0.099074 1.73774 0.093453 1.4508 0.14716 1.73775 0.144204 1.48996 0.099637 1.20134 0.151241 1.26595 0.078881 0.921416 0.145886 0.976523 0.079839 0.661601 0.146921 0.751152 0.148639 0.481534 0.085275 0.42827 0.145414 0.202067 0.07554 0.191312 0.094387 -0.047266 0.133566 0.014024 0.123336 -0.226957 0.086368 -0.2665 0.104983 -0.524134 0.153779 -0.462058 0.132169 -0.737729 0.094006 -0.737732 0.209277 1.73775 0.24652 1.4335 0.303017 1.73774 0.323982 1.49708 0.323982 1.49708 0.308296 1.20269 0.231405 1.19002 0.308296 1.20269 0.227604 0.938844 0.313044 0.95907 0.313044 0.95907 0.308296 1.20269 0.224076 0.700373 0.313044 0.95907 0.326587 0.744187 0.313044 0.95907 0.353822 0.481973 0.326587 0.744187 0.242922 0.456929 0.326587 0.744187 0.232572 0.23172 0.323165 0.254522 0.323165 0.254522 0.353822 0.481973 0.323165 0.254522 0.342087 -0.012998 0.223883 -0.013384 0.342087 -0.012998 0.207127 -0.312092 0.342087 -0.012998 0.327692 -0.25443 0.342087 -0.012998 0.327692 -0.25443 0.277414 -0.485389 0.230484 -0.518547 0.277414 -0.485389 0.209104 -0.737729 0.340561 -0.737735 0.340561 -0.737735 0.277414 -0.485389 0.086741 1.73774 0.063213 1.47113 0.054558 1.23613 0.067896 1.01016 0.048258 0.733463 0.033501 0.474286 0.049754 0.263708 0.047455 0.035503 0.073541 -0.23578 0.066045 -0.523498 0.058612 -0.737736 0.19709 1.73775 0.198228 1.45812 0.189531 1.21879 0.1944 0.98964 0.182067 0.738133 0.197884 0.526025 0.211882 0.247945 0.187381 0.024464 0.190865 -0.241826 0.209909 -0.472969 0.176706 -0.737726 0.323982 1.49708 0.353651 1.73774 0.758779 -0.523498 0.720521 -0.516447 0.751345 -0.737736 0.720521 -0.516447 0.706603 -0.73774 0.664321 -0.263778 0.720521 -0.516447 0.766274 -0.23578 0.720521 -0.516447 0.740188 0.035503 0.664321 -0.263778 0.705924 0.017435 0.664321 -0.263778 0.742487 0.263708 0.65624 0.213524 0.65624 0.213524 0.705924 0.017435 0.659588 0.448722 0.65624 0.213524 0.726234 0.474286 0.65624 0.213524 0.659588 0.448722 0.659656 0.701746 0.659656 0.701746 0.740991 0.733463 0.760629 1.01016 0.664139 0.954045 0.664139 0.954045 0.659656 0.701746 0.747291 1.23613 0.664139 0.954045 0.706927 1.24766 0.664139 0.954045 0.755946 1.47113 0.712703 1.48216 0.712703 1.48216 0.706927 1.24766 0.779474 1.73774 0.688444 1.73773 0.688444 1.73773 0.712703 1.48216</float_array>
          <technique_common>
            <accessor source="#polySurfaceShape18-map1-array" count="127" stride="2">
              <param name="S" type="float" />
              <param name="T" type="float" />
            </accessor>
          </technique_common>
        </source>
        <vertices id="polySurfaceShape18-vertices">
          <input semantic="POSITION" source="#polySurfaceShape18-positions" />
        </vertices>
        <triangles material="lambert4SG" count="121">
          <input semantic="VERTEX" source="#polySurfaceShape18-vertices" offset="0" />
          <input semantic="NORMAL" source="#polySurfaceShape18-normals" offset="1" />
          <input semantic="TEXCOORD" source="#polySurfaceShape18-map1" offset="2" set="0" />
          <p>0 0 0 2 1 1 57 2 2 2 1 1 56 3 3 57 2 2 4 4 4 55 5 5 2 1 1 2 1 1 55 5 5 56 3 3 6 6 6 54 7 7 4 4 4 4 4 4 54 7 7 55 5 5 8 8 8 53 9 9 6 6 6 6 6 6 53 9 9 54 7 7 53 9 9 8 8 8 52 10 10 8 8 8 10 11 11 52 10 10 52 10 10 10 11 11 51 12 12 10 11 11 12 13 13 51 12 12 12 13 13 14 14 14 51 12 12 14 14 14 50 15 15 51 12 12 49 16 16 50 15 15 16 17 17 14 14 14 16 17 17 50 15 15 18 18 18 48 19 19 16 17 17 16 17 17 48 19 19 49 16 16 48 19 19 18 18 18 47 20 20 18 18 18 20 21 21 47 20 20 22 22 22 24 23 23 46 24 24 24 23 23 94 25 25 46 24 24 95 26 26 24 27 23 91 28 27 24 23 23 26 29 28 92 30 29 28 31 30 88 32 31 26 29 28 26 33 28 87 34 32 93 35 33 28 31 30 30 36 34 89 37 35 30 38 34 84 39 36 90 40 37 82 41 38 86 42 39 32 43 40 30 36 34 32 44 40 85 45 41 34 46 42 80 47 43 32 44 40 32 48 40 79 49 44 83 50 45 81 51 46 34 52 42 75 53 47 34 46 42 36 54 48 76 55 49 36 54 48 38 56 50 77 57 51 38 58 50 73 59 52 78 60 53 74 61 54 38 62 50 70 63 55 38 56 50 40 64 56 71 65 57 42 66 58 69 67 59 40 64 56 40 68 56 68 69 60 72 70 61 0 0 0 1 71 62 2 1 1 1 71 62 3 72 63 2 1 1 4 4 4 2 1 1 5 73 64 2 1 1 3 72 63 5 73 64 6 6 6 4 4 4 7 74 65 4 4 4 5 73 64 7 74 65 7 74 65 9 75 66 6 6 6 6 6 6 9 75 66 8 8 8 11 76 67 10 11 11 9 75 66 8 8 8 9 75 66 10 11 11 10 11 11 11 76 67 12 13 13 11 76 67 13 77 68 12 13 13 14 14 14 12 13 13 15 78 69 12 13 13 13 77 68 15 78 69 16 17 17 14 14 14 17 79 70 14 14 14 15 78 69 17 79 70 17 79 70 19 80 71 16 17 17 16 17 17 19 80 71 18 18 18 18 18 18 19 80 71 20 21 21 19 80 71 21 81 72 20 21 21 22 22 22 23 82 73 24 23 23 23 82 73 25 83 74 24 23 23 24 23 23 25 83 74 26 29 28 25 83 74 27 84 75 26 29 28 26 29 28 27 84 75 28 31 30 27 84 75 29 85 76 28 31 30 30 36 34 28 31 30 31 86 77 28 31 30 29 85 76 31 86 77 32 44 40 30 36 34 33 87 78 30 36 34 31 86 77 33 87 78 35 88 79 34 46 42 33 87 78 32 44 40 33 87 78 34 46 42 36 54 48 34 46 42 37 89 80 34 46 42 35 88 79 37 89 80 38 56 50 36 54 48 39 90 81 36 54 48 37 89 80 39 90 81 40 64 56 38 56 50 41 91 82 38 56 50 39 90 81 41 91 82 43 92 83 42 66 58 41 91 82 40 64 56 41 91 82 42 66 58 46 93 24 45 94 84 44 95 85 41 91 82 48 19 19 43 92 83 48 19 19 47 20 20 43 92 83 49 16 16 48 19 19 39 90 81 48 19 19 41 91 82 39 90 81 39 90 81 37 89 80 49 16 16 50 15 15 49 16 16 37 89 80 51 12 12 50 15 15 35 88 79 50 15 15 37 89 80 35 88 79 51 12 12 35 88 79 52 10 10 52 10 10 35 88 79 33 87 78 53 9 9 52 10 10 31 86 77 52 10 10 33 87 78 31 86 77 31 86 77 29 85 76 53 9 9 54 7 7 53 9 9 29 85 76 54 7 7 29 85 76 55 5 5 55 5 5 29 85 76 27 84 75 25 83 74 56 3 3 27 84 75 56 3 3 55 5 5 27 84 75 23 82 73 57 2 2 25 83 74 57 2 2 56 3 3 25 83 74 19 80 86 98 96 87 21 81 88 97 97 89 58 98 90 21 99 88 100 100 91 59 101 92 17 102 93 96 103 94 19 80 86 17 79 93 17 79 93 15 78 95 60 104 96 61 105 97 99 106 98 15 107 95 13 77 99 104 108 100 15 78 95 103 109 101 101 110 102 15 111 95 63 112 103 62 113 104 11 114 105 102 115 106 13 77 99 11 76 105 105 116 107 11 117 105 107 118 108 64 119 109 11 76 105 9 75 110 7 74 111 110 120 112 9 75 110 109 121 113 106 122 114 9 123 110 7 74 111 5 73 115 65 124 116 66 125 117 108 126 118 5 127 115 3 72 119 67 128 120 5 73 115 112 129 121 111 130 122 5 131 115 1 71 123 115 132 124 3 72 119 114 133 125 113 134 126 3 135 119</p>
        </triangles>
        <polylist material="initialShadingGroup" count="0">
          <input semantic="VERTEX" source="#polySurfaceShape18-vertices" offset="0" />
          <input semantic="NORMAL" source="#polySurfaceShape18-normals" offset="1" />
          <input semantic="TEXCOORD" source="#polySurfaceShape18-map1" offset="2" set="0" />
          <vcount />
          <p />
        </polylist>
      </mesh>
      <extra>
        <technique profile="MAYA">
          <double_sided>1</double_sided>
        </technique>
      </extra>
    </geometry>
    <geometry id="polySurfaceShape19" name="polySurfaceShape19">
      <mesh>
        <source id="polySurfaceShape19-positions" name="position">
          <float_array id="polySurfaceShape19-positions-array" count="228">-1.86854 4 -0.034979 -1.89211 4 -0.0886 -1.84923 3.58838 -0.10196 -1.93484 3.49696 -0.152419 -1.89806 3.22659 -0.102224 -1.90689 3.15999 -0.135983 -1.85418 2.71669 -0.108644 -1.90175 2.75206 -0.148969 -1.82107 2.34982 -0.083424 -1.89896 2.3529 -0.111547 -1.8503 2.00774 -0.10832 -1.85582 1.94362 -0.140907 -1.87212 1.62462 -0.090801 -1.88545 1.56281 -0.136027 -1.80745 1.13609 -0.115376 -1.90394 1.11956 -0.134827 -1.84032 0.777078 -0.092876 -1.9355 0.72204 -0.091917 -1.88311 0.414578 -0.106795 -1.91567 0.35101 -0.168877 -1.89211 0 -0.0886 -1.97285 0 -0.099474 -1.90258 4 0.133621 -1.89833 3.40493 0.066366 -1.91039 3.61101 0.138443 -1.84626 3.14982 0.084447 -1.88158 3.19692 0.128226 -1.83797 2.7382 0.089414 -1.90013 2.78853 0.115027 -1.85116 2.3755 0.083469 -1.87906 2.39168 0.11149 -1.84839 1.94366 0.049279 -1.831 1.96176 0.122825 -1.85197 1.49043 0.089271 -1.85527 1.50004 0.137221 -1.81899 1.13346 0.078147 -1.88707 1.21002 0.090753 -1.89938 0.727264 0.054781 -1.85069 0.775067 0.148613 -1.88335 0.294125 0.089624 -1.90383 0.369265 0.121074 -1.86307 0 0.072595 -1.90258 0 0.133621 -2 0 0.132972 -2 0.407747 0.120926 -2 0.780948 0.13912 -2 1.17106 0.134325 -2 1.60334 0.119456 -2 1.97087 0.131784 -2 2.39457 0.126048 -2 2.74178 0.149704 -2 3.13543 0.11102 -1.86854 0 -0.034979 -1.84761 0.332893 -0.011885 -1.8755 0.820261 -0.027138 -1.84073 1.23289 -0.030653 -1.82619 1.5618 -0.01757 -1.84653 1.94808 0.010055 -1.78684 2.34019 -0.01188 -1.86349 2.711 -0.000369 -1.88025 3.2125 -0.003421 -1.83213 3.55012 -0.020665 -1.86307 4 0.072595 -2 4 -0.099474 -2 4 0.132972 -2 3.61113 0.145028 -2 0 -0.13229 -2 0.357574 -0.122673 -2 0.765853 -0.116098 -2 1.22025 -0.110946 -2 1.53711 -0.164186 -2 1.91715 -0.096867 -2 2.326 -0.150087 -2 2.73368 -0.109971 -2 3.20811 -0.100636 -2 3.58703 -0.140502</float_array>
          <technique_common>
            <accessor source="#polySurfaceShape19-positions-array" count="76" stride="3">
              <param name="X" type="float" />
              <param name="Y" type="float" />
              <param name="Z" type="float" />
            </accessor>
          </technique_common>
        </source>
        <source id="polySurfaceShape19-normals" name="normal">
          <float_array id="polySurfaceShape19-normals-array" count="372">0.534638 0.110253 -0.837858 0.402458 0.024303 -0.915116 0.099592 0.116901 -0.988137 -0.04529 0.098759 -0.99408 -0.04529 0.098759 -0.99408 -0.04529 0.098759 -0.99408 -0.396279 -0.096065 -0.913091 -0.33463 -0.082894 -0.938697 0.32081 0.007622 -0.947113 -0.346506 0.018453 -0.937866 -0.346506 0.018453 -0.937866 -0.346506 0.018453 -0.937866 0.357513 -0.023055 -0.933624 -0.372821 0.024829 -0.927571 -0.381993 0.090503 -0.919723 -0.381993 0.090503 -0.919723 -0.381993 0.090503 -0.919723 0.371349 0.006944 -0.928467 0.374548 -0.083948 -0.923399 0.669855 0.009986 -0.742425 -0.298122 0.036998 -0.953811 0.381401 -0.119324 -0.916676 0.381401 -0.119324 -0.916676 0.381401 -0.119324 -0.916676 0.49374 0.01173 -0.869531 -0.293883 0.010624 -0.955782 0.198875 0.170937 -0.965002 0.198875 0.170937 -0.965002 0.198875 0.170937 -0.965002 0.126772 -0.055759 -0.990363 0.241385 -0.012696 -0.970346 -0.386332 -0.152838 -0.909609 -0.386332 -0.152838 -0.909609 -0.386332 -0.152838 -0.909609 -0.230335 0.011033 -0.973049 0.022078 -0.05884 -0.998023 -0.06855 0.030268 -0.997188 0.540847 -0.05214 -0.839504 -0.46525 0.155865 -0.871349 0.35994 0.015022 -0.932855 0.35994 0.015022 -0.932855 0.35994 0.015022 -0.932855 -0.478935 0.023601 -0.877533 -0.478935 0.023601 -0.877533 -0.478935 0.023601 -0.877533 0.6816 -0.186766 -0.707488 0.747154 -0.243956 -0.61826 0.717521 -0.023721 0.696133 0.897076 0.05795 0.438059 0.932204 -0.011048 0.361764 0.9975 -0.003845 0.070562 0.972895 -0.047483 -0.226321 0.986426 0.060289 0.152737 0.974979 0.097964 -0.199547 0.842378 0.022302 0.538425 0.999857 -0.004711 -0.01627 0.870201 0.001837 0.492693 0.998666 -0.051032 -0.007918 0.996861 -0.02239 0.075936 0.993882 -0.004284 -0.110366 0.97849 -0.0256 0.204698 0.962566 -0.045663 0.267173 0.997515 -0.009983 0.069738 0.996765 -0.044585 0.066866 0.972747 -0.046023 0.227257 0.995182 0.008316 0.097688 0.912783 0.051782 0.40515 0.959144 -0.043591 -0.279538 0.939242 0.009843 0.343115 0.86872 -0.017805 -0.494983 0.973764 0.087949 -0.209877 0.91335 0.004805 -0.407148 0.937239 0.06106 -0.343299 0.771286 0.039025 -0.635291 0.920717 -0.017966 -0.389817 0.962082 0.004953 -0.272714 0.875807 0.029524 -0.481757 0.888389 -0.04618 -0.456763 0.853368 -0.091617 -0.513195 0.600819 -0.048067 -0.797938 0.517233 0.017126 0.855673 0.033344 0.021733 0.999208 0.567568 0.040738 0.822318 0.220722 -0.025692 0.974998 0.420594 0.022147 0.906978 0.855482 0.02441 0.517257 0.646253 -0.097932 0.756813 0.307227 0.003867 0.951629 0.694588 -0.009115 0.71935 0.751912 0.001318 0.659262 0.48288 0.031365 0.875125 0.012062 0.033996 0.999349 -0.006656 0.02953 0.999542 -0.006656 0.02953 0.999542 -0.006656 0.02953 0.999542 -0.065655 -0.059 0.996097 -0.021019 -0.048682 0.998593 -0.021019 -0.048682 0.998593 -0.021019 -0.048682 0.998593 0.152907 0.070867 0.985696 0.356493 0.011483 0.934228 0.350093 0.032199 0.936161 0.350093 0.032199 0.936161 0.350093 0.032199 0.936161 -0.21288 -0.131773 0.968152 0.054436 0.028259 0.998117 -0.145049 -0.033169 0.988868 -0.145049 -0.033169 0.988868 -0.145049 -0.033169 0.988868 0.054654 0.032422 0.997979 0.119821 0.013439 0.992705 0.119821 0.013439 0.992705 0.119821 0.013439 0.992705 0.238473 -0.033302 0.970578 0.353767 -0.063575 0.93317 -0.13045 -0.026106 0.991111 0.287146 0.093681 0.953295 0.287146 0.093681 0.953295 0.287146 0.093681 0.953295 0.073006 -0.071118 0.994793 0.073006 -0.071118 0.994793 0.073006 -0.071118 0.994793 -0.126764 -0.033278 0.991374 0.073292 0.030902 0.996832</float_array>
          <technique_common>
            <accessor source="#polySurfaceShape19-normals-array" count="124" stride="3">
              <param name="X" type="float" />
              <param name="Y" type="float" />
              <param name="Z" type="float" />
            </accessor>
          </technique_common>
        </source>
        <source id="polySurfaceShape19-map1" name="map1">
          <float_array id="polySurfaceShape19-map1-array" count="228">0.56116 1.73773 0.609609 1.42641 0.688444 1.73773 0.712703 1.48216 0.688444 1.73773 0.706927 1.24766 0.712703 1.48216 0.587451 1.21787 0.712703 1.48216 0.706927 1.24766 0.664139 0.954045 0.589547 0.965415 0.664139 0.954045 0.664139 0.954045 0.659656 0.701746 0.571997 0.71839 0.659656 0.701746 0.565763 0.465092 0.659588 0.448722 0.659588 0.448722 0.659656 0.701746 0.57642 0.229422 0.659588 0.448722 0.65624 0.213524 0.659588 0.448722 0.585399 -0.044888 0.65624 0.213524 0.705924 0.017435 0.65624 0.213524 0.705924 0.017435 0.664321 -0.263778 0.585373 -0.290895 0.664321 -0.263778 0.603187 -0.520518 0.720521 -0.516447 0.720521 -0.516447 0.664321 -0.263778 0.720521 -0.516447 0.706603 -0.73774 0.624842 -0.737743 0.706603 -0.73774 0.387484 1.73773 0.415244 1.36946 0.45461 1.73773 0.492871 1.45931 0.481319 1.25037 0.424468 1.21158 0.478941 0.940009 0.424354 0.956842 0.486056 0.710519 0.423402 0.732381 0.471809 0.46786 0.444648 0.465126 0.490495 0.228801 0.419946 0.184635 0.434965 -0.036277 0.500156 0.02525 0.423429 -0.287659 0.502028 -0.230113 0.48751 -0.531728 0.407258 -0.555713 0.507295 -0.737746 0.42557 -0.737743 0.545503 1.48299 0.525366 1.73773 0.566485 1.25909 0.550609 0.943524 0.528036 0.716478 0.549081 0.504776 0.547683 0.267679 0.539825 -0.034663 0.537955 -0.256842 0.561501 -0.481179 0.55524 -0.737747 0.370884 1.497 0.353651 1.73774 0.389436 1.24073 0.38584 0.987996 0.397965 0.742396 0.411038 0.476332 0.396765 0.19059 0.404921 0.0111 0.394186 -0.258077 0.380986 -0.509212 0.376636 -0.737738 0.277414 -0.485389 0.277414 -0.485389 0.340561 -0.737735 0.327692 -0.25443 0.327692 -0.25443 0.277414 -0.485389 0.327692 -0.25443 0.342087 -0.012998 0.327692 -0.25443 0.342087 -0.012998 0.323165 0.254522 0.323165 0.254522 0.353822 0.481973 0.353822 0.481973 0.323165 0.254522 0.353822 0.481973 0.326587 0.744187 0.353822 0.481973 0.326587 0.744187 0.313044 0.95907 0.326587 0.744187 0.308296 1.20269 0.308296 1.20269 0.313044 0.95907 0.323982 1.49708 0.308296 1.20269 0.308296 1.20269 0.323982 1.49708 0.353651 1.73774</float_array>
          <technique_common>
            <accessor source="#polySurfaceShape19-map1-array" count="114" stride="2">
              <param name="S" type="float" />
              <param name="T" type="float" />
            </accessor>
          </technique_common>
        </source>
        <vertices id="polySurfaceShape19-vertices">
          <input semantic="POSITION" source="#polySurfaceShape19-positions" />
        </vertices>
        <triangles material="lambert4SG" count="119">
          <input semantic="VERTEX" source="#polySurfaceShape19-vertices" offset="0" />
          <input semantic="NORMAL" source="#polySurfaceShape19-normals" offset="1" />
          <input semantic="TEXCOORD" source="#polySurfaceShape19-map1" offset="2" set="0" />
          <p>1 0 0 3 1 1 63 2 2 3 3 1 75 4 3 63 5 4 74 6 5 75 7 6 5 8 7 3 1 1 5 8 7 75 7 8 74 9 9 5 10 7 73 11 10 5 8 7 7 12 11 73 13 12 73 14 13 7 15 11 72 16 14 7 12 11 9 17 15 72 18 16 11 19 17 71 20 18 9 17 15 9 21 15 71 22 19 72 23 20 11 19 17 13 24 21 71 25 22 13 26 21 70 27 23 71 28 24 13 24 21 15 29 25 70 30 26 15 31 25 69 32 27 70 33 28 69 34 29 15 29 25 68 35 30 15 29 25 17 36 31 68 35 32 19 37 33 67 38 34 17 36 31 17 39 31 67 40 35 68 41 36 67 42 37 19 43 33 66 44 38 19 37 33 21 45 39 66 46 40 22 47 41 23 48 42 62 49 43 23 48 42 61 50 44 62 49 43 60 51 45 61 50 44 25 52 46 23 48 42 25 52 46 61 50 44 60 51 45 25 52 46 59 53 47 25 52 46 27 54 48 59 53 47 59 53 47 27 54 48 58 55 49 27 54 48 29 56 50 58 55 49 57 57 51 58 55 49 31 58 52 29 56 50 31 58 52 58 55 49 57 57 51 31 58 52 56 59 53 31 58 52 33 60 54 56 59 53 35 61 55 55 62 56 33 60 54 33 60 54 55 62 56 56 59 53 37 63 57 54 64 58 35 61 55 35 61 55 54 64 58 55 62 56 54 64 58 37 63 57 53 65 59 37 63 57 39 66 60 53 65 59 52 67 61 53 65 59 41 68 62 39 66 60 41 68 62 53 65 59 3 1 1 1 0 0 2 69 63 1 0 0 0 70 64 2 69 63 2 69 63 4 71 65 3 1 1 3 1 1 4 71 65 5 8 7 4 71 65 6 72 66 5 8 7 5 8 7 6 72 66 7 12 11 9 17 15 7 12 11 8 73 67 7 12 11 6 72 66 8 73 67 11 19 17 9 17 15 10 74 68 9 17 15 8 73 67 10 74 68 10 74 68 12 75 69 11 19 17 11 19 17 12 75 69 13 24 21 12 75 69 14 76 70 13 24 21 13 24 21 14 76 70 15 29 25 17 36 31 15 29 25 16 77 71 15 29 25 14 76 70 16 77 71 17 36 31 16 77 71 19 37 33 16 77 71 18 78 72 19 37 33 19 37 33 18 78 72 21 45 39 18 78 72 20 79 73 21 45 39 23 48 42 22 47 41 24 80 74 22 47 41 64 81 75 24 80 74 24 80 74 26 82 76 23 48 42 23 48 42 26 82 76 25 52 46 28 83 77 27 54 48 26 82 76 25 52 46 26 82 76 27 54 48 28 83 77 30 84 78 27 54 48 27 54 48 30 84 78 29 56 50 31 58 52 29 56 50 32 85 79 29 56 50 30 84 78 32 85 79 31 58 52 32 85 79 33 60 54 32 85 79 34 86 80 33 60 54 35 61 55 33 60 54 36 87 81 33 60 54 34 86 80 36 87 81 36 87 81 38 88 82 35 61 55 35 61 55 38 88 82 37 63 57 39 66 60 37 63 57 40 89 83 37 63 57 38 88 82 40 89 83 42 90 84 41 68 62 40 89 83 39 66 60 40 89 83 41 68 62 40 89 83 44 91 85 42 90 84 44 92 86 43 93 87 42 94 84 38 88 82 45 95 88 40 89 83 45 96 89 44 97 90 40 98 83 38 88 82 36 87 81 45 99 91 46 100 92 45 99 93 36 87 81 46 101 94 36 102 81 47 103 95 47 104 96 36 87 81 34 86 80 32 85 79 48 105 97 34 86 80 48 106 98 47 107 99 34 108 80 32 85 79 30 84 78 48 109 100 49 110 101 48 111 102 30 112 78 30 84 78 28 83 77 49 113 103 50 114 104 49 113 105 28 83 77 26 82 76 51 115 106 28 83 77 51 116 107 50 117 108 28 118 77 65 119 109 51 120 110 24 121 74 51 122 111 26 82 76 24 80 74 65 123 112 24 80 74 64 81 113 20 79 73 18 78 72 52 67 61 53 65 59 52 67 61 18 78 72 54 64 58 53 65 59 16 77 71 53 65 59 18 78 72 16 77 71 54 64 58 16 77 71 55 62 56 55 62 56 16 77 71 14 76 70 14 76 70 12 75 69 55 62 56 56 59 53 55 62 56 12 75 69 57 57 51 56 59 53 10 74 68 56 59 53 12 75 69 10 74 68 57 57 51 10 74 68 58 55 49 58 55 49 10 74 68 8 73 67 6 72 66 59 53 47 8 73 67 59 53 47 58 55 49 8 73 67 4 71 65 60 51 45 6 72 66 60 51 45 59 53 47 6 72 66 4 71 65 2 69 63 60 51 45 61 50 44 60 51 45 2 69 63 62 49 43 61 50 44 0 70 64 61 50 44 2 69 63 0 70 64</p>
        </triangles>
        <polylist material="initialShadingGroup" count="0">
          <input semantic="VERTEX" source="#polySurfaceShape19-vertices" offset="0" />
          <input semantic="NORMAL" source="#polySurfaceShape19-normals" offset="1" />
          <input semantic="TEXCOORD" source="#polySurfaceShape19-map1" offset="2" set="0" />
          <vcount />
          <p />
        </polylist>
      </mesh>
      <extra>
        <technique profile="MAYA">
          <double_sided>1</double_sided>
        </technique>
      </extra>
    </geometry>
    <geometry id="polySurfaceShape20" name="polySurfaceShape20">
      <mesh>
        <source id="polySurfaceShape20-positions" name="position">
          <float_array id="polySurfaceShape20-positions-array" count="234">1.8729 4 -0.111892 1.93618 4 -0.13229 1.78684 3.53634 -0.090579 1.8222 3.56919 -0.14192 1.81625 3.13326 -0.066983 1.86883 3.18948 -0.123433 1.86201 2.68094 -0.082794 1.82654 2.82434 -0.127245 1.8555 2.26112 -0.084886 1.88607 2.37724 -0.120417 1.82867 1.88409 -0.089084 1.90389 1.95845 -0.132885 1.83472 1.5012 -0.10517 1.88996 1.61819 -0.113562 1.80901 1.11569 -0.079955 1.88674 1.24944 -0.121591 1.82365 0.761445 -0.089508 1.84326 0.81108 -0.103984 1.80365 0.34514 -0.06105 1.82068 0.346177 -0.136257 1.81218 0 -0.079553 1.8729 0 -0.111892 1.81161 4 0.068681 1.80606 4 -0.01106 1.91641 3.50839 0.126717 1.8357 3.54816 0.099891 1.88761 3.11495 0.127834 1.80835 3.16145 0.097022 1.85108 2.70908 0.159083 1.83231 2.79117 0.094045 1.90853 2.32376 0.089757 1.83467 2.38477 0.069224 1.90369 1.93039 0.136432 1.84016 2.04204 0.096346 1.86592 1.56648 0.156857 1.84223 1.5927 0.125663 1.88598 1.17043 0.112601 1.84532 1.23159 0.073591 1.87114 0.687766 0.092793 1.80597 0.801301 0.10127 1.87417 0.354163 0.141268 1.84555 0.427808 0.118354 1.87823 0 0.090924 1.81161 0 0.068681 2 4 0.132972 2 3.61113 0.145028 1.87823 4 0.090924 1.80606 0 -0.01106 1.81856 0.445439 0.025237 1.84438 0.825333 -0.022279 1.84645 1.21472 -0.007688 1.84255 1.51857 0.009207 1.87615 1.97015 0.009967 1.85283 2.40581 0.010388 1.84765 2.76998 0.009485 1.83884 3.23765 0.018243 1.80903 3.59961 0.010124 1.81218 4 -0.079553 2 0 -0.13229 2 0.357574 -0.122673 2 0.765853 -0.116098 2 1.22025 -0.110946 2 1.53711 -0.164186 2 1.91715 -0.096867 2 2.326 -0.150087 2 2.73368 -0.109971 2 3.20811 -0.100636 2 3.58703 -0.140502 2 0 0.132972 2 0.407747 0.120926 2 0.780948 0.13912 2 1.17106 0.134325 2 1.60334 0.119456 2 1.97087 0.131784 2 2.39457 0.126048 2 2.74178 0.149704 2 3.13543 0.11102 2 4 -0.099474</float_array>
          <technique_common>
            <accessor source="#polySurfaceShape20-positions-array" count="78" stride="3">
              <param name="X" type="float" />
              <param name="Y" type="float" />
              <param name="Z" type="float" />
            </accessor>
          </technique_common>
        </source>
        <source id="polySurfaceShape20-normals" name="normal">
          <float_array id="polySurfaceShape20-normals-array" count="378">-0.389771 0.030034 -0.920422 -0.90242 0.000839 -0.430856 -0.990589 0.026172 -0.134344 -0.990421 0.007737 0.137866 -0.995395 -0.051889 -0.080597 -0.998202 -0.053281 -0.027461 -0.998256 -0.05447 -0.022768 -0.99796 -0.03371 -0.054216 -0.986395 0.022795 -0.162805 -0.987918 -0.017624 -0.153974 -0.999254 0.004251 -0.038374 -0.958447 0.042316 -0.282116 -0.985947 0.024148 0.165305 -0.661694 0.003437 -0.749766 -0.941698 -0.008293 -0.336358 -0.974914 -0.018629 0.221802 -0.999099 0.039228 -0.016214 -0.994787 0.033528 -0.096309 -0.998403 0.014177 -0.05469 -0.992953 0.024255 0.116002 -0.998983 0.005948 0.044703 -0.897666 -0.060409 -0.436516 -0.783082 -0.094377 0.614716 -0.367835 0.024852 0.929559 -0.293665 0.046703 0.954767 -0.270784 0.048963 0.961394 -0.129757 -0.070705 0.989022 -0.129757 -0.070705 0.989022 -0.129757 -0.070705 0.989022 -0.157591 0.04258 0.986586 0.149399 -0.008129 0.988744 -0.511121 -0.059726 0.857431 0.04683 0.072492 0.996269 0.129952 0.09697 0.986767 0.129952 0.09697 0.986767 0.129952 0.09697 0.986767 -0.280776 -0.017561 0.959613 0.09745 -0.16214 0.981944 -0.324629 -0.06429 0.943654 -0.324629 -0.06429 0.943654 -0.324629 -0.06429 0.943654 0.042527 0.013524 0.999004 -0.205172 0.064416 0.976604 -0.193073 0.074956 0.978317 -0.502552 -0.029196 0.864054 0.261705 0.026987 0.96477 0.062203 -0.033458 0.997503 0.062203 -0.033458 0.997503 0.062203 -0.033458 0.997503 0.260069 0.033191 0.965019 0.260069 0.033191 0.965019 0.260069 0.033191 0.965019 -0.35918 -0.042385 0.932305 -0.185214 -0.118392 0.97554 -0.0843 0.037741 0.995725 -0.186866 -0.034542 0.981778 -0.345658 0.011533 0.93829 -0.345658 0.011533 0.93829 -0.345658 0.011533 0.93829 -0.30811 -0.046324 0.950222 -0.107873 0.050109 0.992901 -0.371529 0.009741 0.92837 -0.483922 -0.110578 0.868097 -0.323321 -0.136802 0.936349 0.147396 0.029208 0.988646 0.147396 0.029208 0.988646 0.147396 0.029208 0.988646 -0.299146 0.063147 -0.952116 -0.370668 -0.01091 -0.928701 -0.367119 -0.028225 -0.929746 -0.790651 -0.042805 -0.610769 -0.665066 -0.003235 -0.746777 -0.356192 -0.007798 -0.93438 -0.272466 -0.010619 -0.962107 -0.25814 0.001658 -0.966106 -0.383886 0.027099 -0.922983 -0.598318 -0.004415 -0.801247 -0.201626 -0.098992 -0.974447 -0.918954 -0.02822 0.393353 -0.739337 0.063449 0.670339 -0.942158 -0.004525 0.335138 -0.994383 -0.027362 -0.102241 -0.966735 -0.054363 0.249937 -0.801582 0.054301 0.595414 -0.990743 -0.004257 0.135685 -0.951495 -0.004111 0.307637 -0.791756 0.035366 0.609812 -0.618016 -0.006292 0.786141 -0.867775 -0.007472 0.496902 -0.326249 0.02929 0.94483 -0.326249 0.02929 0.94483 -0.326249 0.02929 0.94483 0.079081 -0.058114 -0.995173 -0.158397 0.026546 -0.987019 -0.158397 0.026546 -0.987019 -0.158397 0.026546 -0.987019 -0.072441 0.016059 -0.997243 -0.072441 0.016059 -0.997243 -0.072441 0.016059 -0.997243 0.071225 0.065632 -0.995299 0.005232 -0.010133 -0.999935 0.096459 0.011285 -0.995273 -0.403536 0.023444 -0.914663 0.049918 -0.165497 -0.984946 0.049918 -0.165497 -0.984946 0.049918 -0.165497 -0.984946 0.357777 0.018384 -0.933626 0.405769 0.159417 -0.899965 0.357777 0.018384 -0.933626 -0.43776 -0.033106 -0.898482 0.301439 -0.123077 -0.945509 -0.244194 0.018475 -0.96955 0.097979 -0.002149 -0.995186 -0.210324 0.095739 -0.972933 -0.210324 0.095739 -0.972933 -0.210324 0.095739 -0.972933 0.133632 0.009188 -0.990988 0.168522 0.019391 -0.985507 0.012689 -0.04707 -0.998811 0.184477 -0.102835 -0.977442 0.184477 -0.102835 -0.977442 0.184477 -0.102835 -0.977442 0.454967 -0.100589 -0.884809 -0.00198 0.098861 -0.995099 -0.00198 0.098861 -0.995099 -0.00198 0.098861 -0.995099</float_array>
          <technique_common>
            <accessor source="#polySurfaceShape20-normals-array" count="126" stride="3">
              <param name="X" type="float" />
              <param name="Y" type="float" />
              <param name="Z" type="float" />
            </accessor>
          </technique_common>
        </source>
        <source id="polySurfaceShape20-map1" name="map1">
          <float_array id="polySurfaceShape20-map1-array" count="254">0.099074 1.73774 0.093453 1.4508 0.14716 1.73775 0.144204 1.48996 0.099637 1.20134 0.151241 1.26595 0.078881 0.921416 0.145886 0.976523 0.079839 0.661601 0.146921 0.751152 0.148639 0.481534 0.085275 0.42827 0.145414 0.202067 0.07554 0.191312 0.094387 -0.047266 0.133566 0.014024 0.123336 -0.226957 0.086368 -0.2665 0.104983 -0.524134 0.153779 -0.462058 0.132169 -0.737729 0.094006 -0.737732 0.209277 1.73775 0.24652 1.4335 0.303017 1.73774 0.323982 1.49708 0.323982 1.49708 0.308296 1.20269 0.231405 1.19002 0.308296 1.20269 0.227604 0.938844 0.313044 0.95907 0.313044 0.95907 0.308296 1.20269 0.224076 0.700373 0.313044 0.95907 0.326587 0.744187 0.313044 0.95907 0.353822 0.481973 0.326587 0.744187 0.242922 0.456929 0.326587 0.744187 0.232572 0.23172 0.323165 0.254522 0.323165 0.254522 0.353822 0.481973 0.323165 0.254522 0.342087 -0.012998 0.223883 -0.013384 0.342087 -0.012998 0.207127 -0.312092 0.342087 -0.012998 0.327692 -0.25443 0.342087 -0.012998 0.327692 -0.25443 0.277414 -0.485389 0.230484 -0.518547 0.277414 -0.485389 0.209104 -0.737729 0.340561 -0.737735 0.340561 -0.737735 0.277414 -0.485389 0.086741 1.73774 0.063213 1.47113 0.054558 1.23613 0.067896 1.01016 0.048258 0.733463 0.033501 0.474286 0.049754 0.263708 0.047455 0.035503 0.073541 -0.23578 0.066045 -0.523498 0.058612 -0.737736 0.19709 1.73775 0.198228 1.45812 0.189531 1.21879 0.1944 0.98964 0.182067 0.738133 0.197884 0.526025 0.211882 0.247945 0.187381 0.024464 0.190865 -0.241826 0.209909 -0.472969 0.176706 -0.737726 0.323982 1.49708 0.353651 1.73774 0.758779 -0.523498 0.720521 -0.516447 0.751345 -0.737736 0.720521 -0.516447 0.706603 -0.73774 0.664321 -0.263778 0.720521 -0.516447 0.766274 -0.23578 0.720521 -0.516447 0.740188 0.035503 0.664321 -0.263778 0.705924 0.017435 0.664321 -0.263778 0.742487 0.263708 0.65624 0.213524 0.65624 0.213524 0.705924 0.017435 0.659588 0.448722 0.65624 0.213524 0.726234 0.474286 0.65624 0.213524 0.659588 0.448722 0.659656 0.701746 0.659656 0.701746 0.740991 0.733463 0.760629 1.01016 0.664139 0.954045 0.664139 0.954045 0.659656 0.701746 0.747291 1.23613 0.664139 0.954045 0.706927 1.24766 0.664139 0.954045 0.755946 1.47113 0.712703 1.48216 0.712703 1.48216 0.706927 1.24766 0.779474 1.73774 0.688444 1.73773 0.688444 1.73773 0.712703 1.48216</float_array>
          <technique_common>
            <accessor source="#polySurfaceShape20-map1-array" count="127" stride="2">
              <param name="S" type="float" />
              <param name="T" type="float" />
            </accessor>
          </technique_common>
        </source>
        <vertices id="polySurfaceShape20-vertices">
          <input semantic="POSITION" source="#polySurfaceShape20-positions" />
        </vertices>
        <triangles material="lambert4SG" count="121">
          <input semantic="VERTEX" source="#polySurfaceShape20-vertices" offset="0" />
          <input semantic="NORMAL" source="#polySurfaceShape20-normals" offset="1" />
          <input semantic="TEXCOORD" source="#polySurfaceShape20-map1" offset="2" set="0" />
          <p>0 0 0 2 1 1 57 2 2 2 1 1 56 3 3 57 2 2 4 4 4 55 5 5 2 1 1 2 1 1 55 5 5 56 3 3 6 6 6 54 7 7 4 4 4 4 4 4 54 7 7 55 5 5 8 8 8 53 9 9 6 6 6 6 6 6 53 9 9 54 7 7 53 9 9 8 8 8 52 10 10 8 8 8 10 11 11 52 10 10 52 10 10 10 11 11 51 12 12 10 11 11 12 13 13 51 12 12 12 13 13 14 14 14 51 12 12 14 14 14 50 15 15 51 12 12 49 16 16 50 15 15 16 17 17 14 14 14 16 17 17 50 15 15 18 18 18 48 19 19 16 17 17 16 17 17 48 19 19 49 16 16 48 19 19 18 18 18 47 20 20 18 18 18 20 21 21 47 20 20 22 22 22 24 23 23 46 24 24 24 23 23 45 25 25 46 24 24 45 26 26 24 27 23 76 28 27 24 23 23 26 29 28 76 30 29 28 31 30 75 32 31 26 29 28 26 33 28 75 34 32 76 35 33 28 31 30 30 36 34 75 37 35 30 38 34 74 39 36 75 40 37 73 41 38 74 42 39 32 43 40 30 36 34 32 43 40 74 42 41 34 44 42 72 45 43 32 43 40 32 46 40 72 47 44 73 48 45 72 49 46 34 50 42 71 51 47 34 44 42 36 52 48 71 53 49 36 52 48 38 54 50 71 55 51 38 56 50 70 57 52 71 58 53 70 59 54 38 54 50 69 60 55 38 54 50 40 61 56 69 60 57 42 62 58 68 63 59 40 61 56 40 64 56 68 65 60 69 66 61 0 0 0 1 67 62 2 1 1 1 67 62 3 68 63 2 1 1 4 4 4 2 1 1 5 69 64 2 1 1 3 68 63 5 69 64 6 6 6 4 4 4 7 70 65 4 4 4 5 69 64 7 70 65 7 70 65 9 71 66 6 6 6 6 6 6 9 71 66 8 8 8 11 72 67 10 11 11 9 71 66 8 8 8 9 71 66 10 11 11 10 11 11 11 72 67 12 13 13 11 72 67 13 73 68 12 13 13 14 14 14 12 13 13 15 74 69 12 13 13 13 73 68 15 74 69 16 17 17 14 14 14 17 75 70 14 14 14 15 74 69 17 75 70 17 75 70 19 76 71 16 17 17 16 17 17 19 76 71 18 18 18 18 18 18 19 76 71 20 21 21 19 76 71 21 77 72 20 21 21 22 22 22 23 78 73 24 23 23 23 78 73 25 79 74 24 23 23 24 23 23 25 79 74 26 29 28 25 79 74 27 80 75 26 29 28 26 29 28 27 80 75 28 31 30 27 80 75 29 81 76 28 31 30 30 36 34 28 31 30 31 82 77 28 31 30 29 81 76 31 82 77 32 43 40 30 36 34 33 83 78 30 36 34 31 82 77 33 83 78 35 84 79 34 44 42 33 83 78 32 43 40 33 83 78 34 44 42 36 52 48 34 44 42 37 85 80 34 44 42 35 84 79 37 85 80 38 54 50 36 52 48 39 86 81 36 52 48 37 85 80 39 86 81 40 61 56 38 54 50 41 87 82 38 54 50 39 86 81 41 87 82 43 88 83 42 62 58 41 87 82 40 61 56 41 87 82 42 62 58 46 89 24 45 90 84 44 91 85 41 87 82 48 19 19 43 88 83 48 19 19 47 20 20 43 88 83 49 16 16 48 19 19 39 86 81 48 19 19 41 87 82 39 86 81 39 86 81 37 85 80 49 16 16 50 15 15 49 16 16 37 85 80 51 12 12 50 15 15 35 84 79 50 15 15 37 85 80 35 84 79 51 12 12 35 84 79 52 10 10 52 10 10 35 84 79 33 83 78 53 9 9 52 10 10 31 82 77 52 10 10 33 83 78 31 82 77 31 82 77 29 81 76 53 9 9 54 7 7 53 9 9 29 81 76 54 7 7 29 81 76 55 5 5 55 5 5 29 81 76 27 80 75 25 79 74 56 3 3 27 80 75 56 3 3 55 5 5 27 80 75 23 78 73 57 2 2 25 79 74 57 2 2 56 3 3 25 79 74 19 76 86 59 92 87 21 77 88 59 93 89 58 94 90 21 95 88 60 96 91 59 97 92 17 98 93 59 99 94 19 76 86 17 75 93 17 75 93 15 74 95 60 100 96 61 101 97 60 100 98 15 74 95 13 73 99 62 102 100 15 74 95 62 103 101 61 104 102 15 105 95 63 106 103 62 107 104 11 108 105 62 109 106 13 73 99 11 72 105 63 106 107 11 108 105 64 110 108 64 111 109 11 72 105 9 71 110 7 70 111 65 112 112 9 71 110 65 113 113 64 114 114 9 115 110 7 70 111 5 69 115 65 116 116 66 117 117 65 116 118 5 69 115 3 68 119 67 118 120 5 69 115 67 119 121 66 120 122 5 121 115 1 67 123 77 122 124 3 68 119 77 123 125 67 124 126 3 125 119</p>
        </triangles>
        <polylist material="initialShadingGroup" count="0">
          <input semantic="VERTEX" source="#polySurfaceShape20-vertices" offset="0" />
          <input semantic="NORMAL" source="#polySurfaceShape20-normals" offset="1" />
          <input semantic="TEXCOORD" source="#polySurfaceShape20-map1" offset="2" set="0" />
          <vcount />
          <p />
        </polylist>
      </mesh>
      <extra>
        <technique profile="MAYA">
          <double_sided>1</double_sided>
        </technique>
      </extra>
    </geometry>
    <geometry id="pPlaneShape1" name="pPlaneShape1">
      <mesh>
        <source id="pPlaneShape1-positions" name="position">
          <float_array id="pPlaneShape1-positions-array" count="12">-2 0 2 2 0 2 -2 0 -2 2 0 -2</float_array>
          <technique_common>
            <accessor source="#pPlaneShape1-positions-array" count="4" stride="3">
              <param name="X" type="float" />
              <param name="Y" type="float" />
              <param name="Z" type="float" />
            </accessor>
          </technique_common>
        </source>
        <source id="pPlaneShape1-normals" name="normal">
          <float_array id="pPlaneShape1-normals-array" count="12">0 -1 0 0 -1 0 0 -1 0 0 -1 0</float_array>
          <technique_common>
            <accessor source="#pPlaneShape1-normals-array" count="4" stride="3">
              <param name="X" type="float" />
              <param name="Y" type="float" />
              <param name="Z" type="float" />
            </accessor>
          </technique_common>
        </source>
        <source id="pPlaneShape1-map1" name="map1">
          <float_array id="pPlaneShape1-map1-array" count="8">0.13246 0.662615 -0.227847 0.662615 0.13246 0.329572 -0.227847 0.329572</float_array>
          <technique_common>
            <accessor source="#pPlaneShape1-map1-array" count="4" stride="2">
              <param name="S" type="float" />
              <param name="T" type="float" />
            </accessor>
          </technique_common>
        </source>
        <vertices id="pPlaneShape1-vertices">
          <input semantic="POSITION" source="#pPlaneShape1-positions" />
          <input semantic="NORMAL" source="#pPlaneShape1-normals" />
        </vertices>
        <triangles material="lambert6SG" count="2">
          <input semantic="VERTEX" source="#pPlaneShape1-vertices" offset="0" />
          <input semantic="TEXCOORD" source="#pPlaneShape1-map1" offset="1" set="0" />
          <p>0 0 2 2 1 1 2 2 3 3 1 1</p>
        </triangles>
      </mesh>
      <extra>
        <technique profile="MAYA">
          <double_sided>1</double_sided>
        </technique>
      </extra>
    </geometry>
    <geometry id="polySurfaceShape21" name="polySurfaceShape21">
      <mesh>
        <source id="polySurfaceShape21-positions" name="position">
          <float_array id="polySurfaceShape21-positions-array" count="396">1.95904 1.86111 -0.034979 1.98362 1.89211 -0.0886 1.58838 1.84923 -0.10196 1.49696 1.93484 -0.152419 1.22659 1.89806 -0.102224 1.16 1.90689 -0.135983 0.716693 1.85418 -0.108644 0.752062 1.90175 -0.148969 0.349819 1.82107 -0.083424 0.352903 1.89896 -0.111547 0.007738 1.8503 -0.10832 -0.056383 1.85582 -0.140907 -0.375378 1.87212 -0.090801 -0.437194 1.88545 -0.136027 -0.863912 1.80745 -0.115376 -0.880441 1.90394 -0.134827 -1.22292 1.84032 -0.092876 -1.27796 1.9355 -0.091917 -1.58542 1.88311 -0.106795 -1.64899 1.91567 -0.168877 -1.98649 1.90233 -0.0886 -2 1.97285 -0.099474 1.98362 1.90258 0.133621 1.40493 1.89833 0.066366 1.61101 1.91039 0.138443 1.14982 1.84626 0.084447 1.19692 1.88158 0.128226 0.738201 1.83797 0.089414 0.788533 1.90013 0.115027 0.375502 1.85116 0.083469 0.391682 1.87906 0.11149 -0.056337 1.84839 0.049279 -0.038236 1.831 0.122825 -0.509573 1.85197 0.089271 -0.499955 1.85527 0.137221 -0.866534 1.81899 0.078147 -0.78998 1.88707 0.090753 -1.27273 1.89938 0.054781 -1.22493 1.85069 0.148613 -1.70587 1.88335 0.089624 -1.63073 1.90383 0.121074 -1.96347 1.8692 0.072595 -1.98649 1.9128 0.133621 -2 2 0.132972 -1.59225 2 0.120926 -1.21905 2 0.13912 -0.828934 2 0.134325 -0.39666 2 0.119456 -0.029129 2 0.131784 0.394567 2 0.126048 0.741785 2 0.149704 1.13543 2 0.11102 -1.96347 1.87468 -0.034979 -1.66711 1.84761 -0.011885 -1.17974 1.8755 -0.027138 -0.767111 1.84073 -0.030653 -0.4382 1.82619 -0.01757 -0.05192 1.84653 0.010055 0.340189 1.78684 -0.01188 0.711003 1.86349 -0.000369 1.2125 1.88025 -0.003421 1.55012 1.83213 -0.020665 1.95904 1.85563 0.072595 2 2 -0.099474 2 2 0.132972 1.61113 2 0.145028 -2 2 -0.13229 -1.64242 2 -0.122673 -1.23415 2 -0.116098 -0.779751 2 -0.110946 -0.462892 2 -0.164186 -0.082849 2 -0.096867 0.326002 2 -0.150087 0.73368 2 -0.109971 1.20811 2 -0.100636 1.58703 2 -0.140502 1.9645 2.11595 -0.111892 2 2.06382 -0.13229 1.53634 2.21316 -0.090579 1.5692 2.1778 -0.14192 1.13326 2.18375 -0.066983 1.18948 2.13117 -0.123433 0.680945 2.13799 -0.082794 0.82434 2.17346 -0.127245 0.261119 2.1445 -0.084886 0.377242 2.11393 -0.120417 -0.115911 2.17133 -0.089084 -0.041547 2.09611 -0.132885 -0.498799 2.16528 -0.10517 -0.381813 2.11004 -0.113562 -0.884311 2.19099 -0.079955 -0.750555 2.11326 -0.121591 -1.23855 2.17635 -0.089508 -1.18892 2.15674 -0.103984 -1.65486 2.19636 -0.06105 -1.65382 2.17932 -0.136257 -1.94446 2.17078 -0.079553 -1.98749 2.10734 -0.111892 1.9208 2.18468 0.068681 1.9208 2.19022 -0.01106 1.5084 2.08359 0.126717 1.54816 2.1643 0.099891 1.11495 2.11239 0.127834 1.16145 2.19165 0.097022 0.709085 2.14892 0.159083 0.791168 2.1677 0.094045 0.323763 2.09147 0.089757 0.384773 2.16533 0.069224 -0.069609 2.09631 0.136432 0.042036 2.15984 0.096346 -0.433518 2.13408 0.156857 -0.4073 2.15777 0.125663 -0.829565 2.11402 0.112601 -0.768412 2.15468 0.073591 -1.31223 2.12886 0.092793 -1.1987 2.19403 0.10127 -1.64584 2.12583 0.141268 -1.57219 2.15446 0.118354 -1.98749 2.10201 0.090924 -1.94446 2.17136 0.068681 1.9645 2.11062 0.090924 -1.94446 2.17691 -0.01106 -1.55456 2.18144 0.025237 -1.17467 2.15562 -0.022279 -0.785274 2.15355 -0.007688 -0.481426 2.15745 0.009207 -0.029846 2.12385 0.009967 0.405815 2.14717 0.010388 0.769979 2.15235 0.009485 1.23765 2.16116 0.018243 1.59961 2.19098 0.010124 1.9208 2.1841 -0.079553</float_array>
          <technique_common>
            <accessor source="#polySurfaceShape21-positions-array" count="132" stride="3">
              <param name="X" type="float" />
              <param name="Y" type="float" />
              <param name="Z" type="float" />
            </accessor>
          </technique_common>
        </source>
        <source id="polySurfaceShape21-normals" name="normal">
          <float_array id="polySurfaceShape21-normals-array" count="750">0.111572 -0.521649 -0.845833 0.025402 -0.405468 -0.913756 0.11898 -0.117442 -0.985927 0.098759 0.04529 -0.99408 0.098759 0.04529 -0.99408 0.098759 0.04529 -0.99408 -0.096064 0.396283 -0.913089 -0.082894 0.334634 -0.938695 0.007622 -0.320808 -0.947114 0.018453 0.346509 -0.937865 0.018453 0.346509 -0.937865 0.018453 0.346509 -0.937865 -0.023055 -0.357513 -0.933624 0.024829 0.372825 -0.927569 0.090503 0.381997 -0.919721 0.090503 0.381997 -0.919721 0.090503 0.381997 -0.919721 0.006944 -0.37135 -0.928467 -0.083947 -0.374552 -0.923398 0.009987 -0.669856 -0.742424 0.036997 0.298123 -0.95381 -0.119323 -0.381405 -0.916674 -0.119323 -0.381405 -0.916674 -0.119323 -0.381405 -0.916674 0.01173 -0.49374 -0.869531 0.010624 0.293884 -0.955782 0.170937 -0.198877 -0.965002 0.170937 -0.198877 -0.965002 0.170937 -0.198877 -0.965002 -0.055759 -0.126773 -0.990363 -0.012696 -0.241388 -0.970346 -0.152838 0.386337 -0.909607 -0.152838 0.386337 -0.909607 -0.152838 0.386337 -0.909607 0.011033 0.230338 -0.973048 -0.05884 -0.022079 -0.998023 0.030268 0.06855 -0.997188 -0.05214 -0.540853 -0.839499 0.155864 0.465256 -0.871346 0.015022 -0.359946 -0.932852 0.015022 -0.359946 -0.932852 0.015022 -0.359946 -0.932852 0.023601 0.47894 -0.87753 0.023601 0.47894 -0.87753 0.023601 0.47894 -0.87753 -0.187826 -0.687833 -0.701147 -0.243955 -0.74717 -0.618242 -0.028195 -0.689008 0.724205 0.053164 -0.89095 0.450979 -0.02438 -0.921786 0.386931 -0.010783 -0.997763 0.065976 -0.047483 -0.972895 -0.22632 0.060289 -0.986426 0.152739 0.097964 -0.974979 -0.199547 0.022302 -0.842378 0.538425 -0.004711 -0.999857 -0.01627 0.001837 -0.870202 0.492692 -0.051032 -0.998666 -0.007918 -0.02239 -0.996861 0.075936 -0.004284 -0.993882 -0.110365 -0.025601 -0.97849 0.204697 -0.045663 -0.962566 0.267173 -0.009983 -0.997515 0.069738 -0.044585 -0.996765 0.066865 -0.046023 -0.972747 0.227256 -0.001518 -0.995505 0.094699 0.043048 -0.909732 0.412959 -0.068864 -0.952413 -0.29693 -0.011906 -0.932072 0.362077 -0.018578 -0.862252 -0.506139 0.082477 -0.969086 -0.232527 0.004806 -0.91335 -0.407147 0.061059 -0.93724 -0.343298 0.039025 -0.771286 -0.635292 -0.017966 -0.920718 -0.389816 0.004953 -0.962083 -0.272713 0.029524 -0.875807 -0.481757 -0.04618 -0.88839 -0.456761 -0.100539 -0.849256 -0.51832 -0.064883 -0.596448 -0.800025 0.017058 -0.517346 0.855606 0.021985 -0.03444 0.999165 0.040738 -0.567566 0.822319 -0.025692 -0.220722 0.974998 0.022147 -0.420596 0.906978 0.02441 -0.855483 0.517255 -0.097932 -0.646253 0.756813 0.003867 -0.307226 0.951629 -0.009115 -0.694587 0.719351 -0.00734 -0.739833 0.672751 0.019569 -0.463087 0.886097 0.03493 -0.012436 0.999312 0.029529 0.012011 0.999492 0.029529 0.012011 0.999492 0.029529 0.012011 0.999492 -0.059 0.065655 0.996097 -0.048682 0.02102 0.998593 -0.048682 0.02102 0.998593 -0.048682 0.02102 0.998593 0.070867 -0.152909 0.985696 0.011483 -0.356497 0.934226 0.032199 -0.350097 0.93616 0.032199 -0.350097 0.93616 0.032199 -0.350097 0.93616 -0.131773 0.212882 0.968152 0.028259 -0.054437 0.998117 -0.033169 0.14505 0.988868 -0.033169 0.14505 0.988868 -0.033169 0.14505 0.988868 0.032422 -0.054654 0.997979 0.013439 -0.119822 0.992704 0.013439 -0.119822 0.992704 0.013439 -0.119822 0.992704 -0.033302 -0.238475 0.970577 -0.063576 -0.353771 0.933169 -0.026106 0.130451 0.991111 0.09368 -0.287149 0.953294 0.09368 -0.287149 0.953294 0.09368 -0.287149 0.953294 -0.071118 -0.073007 0.994792 -0.071118 -0.073007 0.994792 -0.071118 -0.073007 0.994792 -0.033278 0.126766 0.991374 0.030902 -0.073293 0.996832 0.05137 0.424435 -0.904 0.01022 0.905208 -0.424845 0.04409 0.989871 -0.13495 0.019371 0.990086 0.139117 -0.051889 0.995395 -0.080596 -0.053281 0.998202 -0.02746 -0.05447 0.998256 -0.022766 -0.03371 0.99796 -0.054217 0.022795 0.986395 -0.162805 -0.017624 0.987918 -0.153975 0.004251 0.999254 -0.038374 0.042316 0.958447 -0.282116 0.024149 0.985947 0.165305 0.003438 0.661694 -0.749766 -0.008293 0.941698 -0.336358 -0.018629 0.974914 0.221803 0.039228 0.999099 -0.016214 0.033527 0.994787 -0.096309 -0.019789 0.998817 -0.044419 0.00643 0.992429 0.12265 -0.043812 0.997103 0.062174 -0.119253 0.904551 -0.409349 -0.104949 0.781358 0.615195 0.032788 0.365079 0.930399 0.056997 0.299431 0.952414 0.058467 0.281659 0.957732 -0.070705 0.129755 0.989022 -0.070705 0.129755 0.989022 -0.070705 0.129755 0.989022 0.04258 0.157592 0.986586 -0.008129 -0.149397 0.988744 -0.059726 0.51112 0.857432 0.072492 -0.046829 0.996269 0.09697 -0.129951 0.986767 0.09697 -0.129951 0.986767 0.09697 -0.129951 0.986767 -0.017561 0.280775 0.959613 -0.16214 -0.09745 0.981944 -0.06429 0.324625 0.943655 -0.06429 0.324625 0.943655 -0.06429 0.324625 0.943655 0.013524 -0.042527 0.999004 0.064416 0.205171 0.976604 0.074957 0.193072 0.978317 -0.029196 0.502553 0.864053 0.026987 -0.261703 0.964771 -0.033458 -0.062202 0.997503 -0.033458 -0.062202 0.997503 -0.033458 -0.062202 0.997503 0.033192 -0.260066 0.96502 0.033192 -0.260066 0.96502 0.033192 -0.260066 0.96502 -0.042385 0.359179 0.932306 -0.118393 0.185212 0.975541 0.037741 0.084299 0.995725 -0.034542 0.186863 0.981778 0.011533 0.345655 0.938291 0.011533 0.345655 0.938291 0.011533 0.345655 0.938291 -0.046324 0.308107 0.950223 0.050109 0.107872 0.992901 -0.007697 0.408273 0.912828 -0.140945 0.542273 0.828296 -0.160802 0.39291 0.905408 0.029208 -0.147395 0.988646 0.029208 -0.147395 0.988646 0.029208 -0.147395 0.988646 0.075458 0.333768 -0.93963 -0.01091 0.37067 -0.9287 -0.028225 0.36712 -0.929745 -0.042805 0.790653 -0.610766 -0.003235 0.665067 -0.746777 -0.007798 0.35619 -0.934381 -0.010619 0.272464 -0.962107 0.001658 0.258139 -0.966106 0.027099 0.383885 -0.922983 -0.024766 0.612082 -0.790406 -0.122793 0.243594 -0.962073 -0.023523 0.918016 0.395845 0.078586 0.734207 0.674362 -0.004525 0.942158 0.335139 -0.027362 0.994383 -0.10224 -0.054363 0.966735 0.249938 0.054301 0.801583 0.595413 -0.004257 0.990743 0.135683 -0.00411 0.951495 0.307636 0.035366 0.791757 0.609811 -0.025895 0.638816 0.768924 -0.044795 0.875679 0.480811 0.028869 0.363256 0.931242 0.028869 0.363256 0.931242 0.028869 0.363256 0.931242 -0.055651 -0.078935 -0.995325 0.026428 0.183641 -0.982638 0.026428 0.183641 -0.982638 0.026428 0.183641 -0.982638 0.016059 0.07244 -0.997243 0.016059 0.07244 -0.997243 0.016059 0.07244 -0.997243 0.065632 -0.071224 -0.995299 -0.010133 -0.005231 -0.999935 0.011285 -0.096458 -0.995273 0.023443 0.403532 -0.914665 -0.165497 -0.049918 -0.984946 -0.165497 -0.049918 -0.984946 -0.165497 -0.049918 -0.984946 0.018384 -0.357773 -0.933627 0.159417 -0.405765 -0.899967 0.018384 -0.357773 -0.933627 -0.033106 0.437755 -0.898484 -0.123077 -0.301436 -0.945509 0.018475 0.244192 -0.969551 -0.002149 -0.097978 -0.995186 0.095739 0.210322 -0.972933 0.095739 0.210322 -0.972933 0.095739 0.210322 -0.972933 0.009188 -0.133631 -0.990989 0.019391 -0.16852 -0.985507 -0.04707 -0.012689 -0.998811 -0.102836 -0.184475 -0.977442 -0.102836 -0.184475 -0.977442 -0.102836 -0.184475 -0.977442 -0.100588 -0.45496 -0.884812 0.098861 0.00198 -0.995099 0.098861 0.00198 -0.995099 0.098861 0.00198 -0.995099</float_array>
          <technique_common>
            <accessor source="#polySurfaceShape21-normals-array" count="250" stride="3">
              <param name="X" type="float" />
              <param name="Y" type="float" />
              <param name="Z" type="float" />
            </accessor>
          </technique_common>
        </source>
        <source id="polySurfaceShape21-map1" name="map1">
          <float_array id="polySurfaceShape21-map1-array" count="482">0.56116 1.73773 0.609609 1.42641 0.688444 1.73773 0.712703 1.48216 0.688444 1.73773 0.706927 1.24766 0.712703 1.48216 0.587451 1.21787 0.712703 1.48216 0.706927 1.24766 0.664139 0.954045 0.589547 0.965415 0.664139 0.954045 0.664139 0.954045 0.659656 0.701746 0.571997 0.71839 0.659656 0.701746 0.565763 0.465092 0.659588 0.448722 0.659588 0.448722 0.659656 0.701746 0.57642 0.229422 0.659588 0.448722 0.65624 0.213524 0.659588 0.448722 0.585399 -0.044888 0.65624 0.213524 0.705924 0.017435 0.65624 0.213524 0.705924 0.017435 0.664321 -0.263778 0.585373 -0.290895 0.664321 -0.263778 0.603187 -0.520518 0.720521 -0.516447 0.720521 -0.516447 0.664321 -0.263778 0.720521 -0.516447 0.706603 -0.73774 0.624842 -0.737743 0.706603 -0.73774 0.387484 1.73773 0.415244 1.36946 0.45461 1.73773 0.492871 1.45931 0.481319 1.25037 0.424468 1.21158 0.478941 0.940009 0.424354 0.956842 0.486056 0.710519 0.423402 0.732381 0.471809 0.46786 0.444648 0.465126 0.490495 0.228801 0.419946 0.184635 0.434965 -0.036277 0.500156 0.02525 0.423429 -0.287659 0.502028 -0.230113 0.48751 -0.531728 0.407258 -0.555713 0.507295 -0.737746 0.42557 -0.737743 0.545503 1.48299 0.525366 1.73773 0.566485 1.25909 0.550609 0.943524 0.528036 0.716478 0.549081 0.504776 0.547683 0.267679 0.539825 -0.034663 0.537955 -0.256842 0.561501 -0.481179 0.55524 -0.737747 0.370884 1.497 0.353651 1.73774 0.389436 1.24073 0.38584 0.987996 0.397965 0.742396 0.411038 0.476332 0.396765 0.19059 0.404921 0.0111 0.394186 -0.258077 0.380986 -0.509212 0.376636 -0.737738 0.277414 -0.485389 0.277414 -0.485389 0.340561 -0.737735 0.327692 -0.25443 0.327692 -0.25443 0.277414 -0.485389 0.327692 -0.25443 0.342087 -0.012998 0.327692 -0.25443 0.342087 -0.012998 0.323165 0.254522 0.323165 0.254522 0.353822 0.481973 0.353822 0.481973 0.323165 0.254522 0.353822 0.481973 0.326587 0.744187 0.353822 0.481973 0.326587 0.744187 0.313044 0.95907 0.326587 0.744187 0.308296 1.20269 0.308296 1.20269 0.313044 0.95907 0.323982 1.49708 0.308296 1.20269 0.308296 1.20269 0.323982 1.49708 0.353651 1.73774 0.099074 1.73774 0.093453 1.4508 0.14716 1.73775 0.144204 1.48996 0.099637 1.20134 0.151241 1.26595 0.078881 0.921416 0.145886 0.976523 0.079839 0.661601 0.146921 0.751152 0.148639 0.481534 0.085275 0.42827 0.145414 0.202067 0.07554 0.191312 0.094387 -0.047266 0.133566 0.014024 0.123336 -0.226957 0.086368 -0.2665 0.104983 -0.524134 0.153779 -0.462058 0.132169 -0.737729 0.094006 -0.737732 0.209277 1.73775 0.24652 1.4335 0.303017 1.73774 0.323982 1.49708 0.323982 1.49708 0.308296 1.20269 0.231405 1.19002 0.308296 1.20269 0.227604 0.938844 0.313044 0.95907 0.313044 0.95907 0.308296 1.20269 0.224076 0.700373 0.313044 0.95907 0.326587 0.744187 0.313044 0.95907 0.353822 0.481973 0.326587 0.744187 0.242922 0.456929 0.326587 0.744187 0.232572 0.23172 0.323165 0.254522 0.323165 0.254522 0.353822 0.481973 0.323165 0.254522 0.342087 -0.012998 0.223883 -0.013384 0.342087 -0.012998 0.207127 -0.312092 0.342087 -0.012998 0.327692 -0.25443 0.342087 -0.012998 0.327692 -0.25443 0.277414 -0.485389 0.230484 -0.518547 0.277414 -0.485389 0.209104 -0.737729 0.340561 -0.737735 0.340561 -0.737735 0.277414 -0.485389 0.086741 1.73774 0.063213 1.47113 0.054558 1.23613 0.067896 1.01016 0.048258 0.733463 0.033501 0.474286 0.049754 0.263708 0.047455 0.035503 0.073541 -0.23578 0.066045 -0.523498 0.058612 -0.737736 0.19709 1.73775 0.198228 1.45812 0.189531 1.21879 0.1944 0.98964 0.182067 0.738133 0.197884 0.526025 0.211882 0.247945 0.187381 0.024464 0.190865 -0.241826 0.209909 -0.472969 0.176706 -0.737726 0.323982 1.49708 0.353651 1.73774 0.758779 -0.523498 0.720521 -0.516447 0.751345 -0.737736 0.720521 -0.516447 0.706603 -0.73774 0.664321 -0.263778 0.720521 -0.516447 0.766274 -0.23578 0.720521 -0.516447 0.740188 0.035503 0.664321 -0.263778 0.705924 0.017435 0.664321 -0.263778 0.742487 0.263708 0.65624 0.213524 0.65624 0.213524 0.705924 0.017435 0.659588 0.448722 0.65624 0.213524 0.726234 0.474286 0.65624 0.213524 0.659588 0.448722 0.659656 0.701746 0.659656 0.701746 0.740991 0.733463 0.760629 1.01016 0.664139 0.954045 0.664139 0.954045 0.659656 0.701746 0.747291 1.23613 0.664139 0.954045 0.706927 1.24766 0.664139 0.954045 0.755946 1.47113 0.712703 1.48216 0.712703 1.48216 0.706927 1.24766 0.779474 1.73774 0.688444 1.73773 0.688444 1.73773 0.712703 1.48216</float_array>
          <technique_common>
            <accessor source="#polySurfaceShape21-map1-array" count="241" stride="2">
              <param name="S" type="float" />
              <param name="T" type="float" />
            </accessor>
          </technique_common>
        </source>
        <vertices id="polySurfaceShape21-vertices">
          <input semantic="POSITION" source="#polySurfaceShape21-positions" />
        </vertices>
        <triangles material="lambert4SG" count="240">
          <input semantic="VERTEX" source="#polySurfaceShape21-vertices" offset="0" />
          <input semantic="NORMAL" source="#polySurfaceShape21-normals" offset="1" />
          <input semantic="TEXCOORD" source="#polySurfaceShape21-map1" offset="2" set="0" />
          <p>1 0 0 3 1 1 63 2 2 3 3 1 75 4 3 63 5 4 74 6 5 75 7 6 5 8 7 3 1 1 5 8 7 75 7 8 74 9 9 5 10 7 73 11 10 5 8 7 7 12 11 73 13 12 73 14 13 7 15 11 72 16 14 7 12 11 9 17 15 72 18 16 11 19 17 71 20 18 9 17 15 9 21 15 71 22 19 72 23 20 11 19 17 13 24 21 71 25 22 13 26 21 70 27 23 71 28 24 13 24 21 15 29 25 70 30 26 15 31 25 69 32 27 70 33 28 69 34 29 15 29 25 68 35 30 15 29 25 17 36 31 68 35 32 19 37 33 67 38 34 17 36 31 17 39 31 67 40 35 68 41 36 67 42 37 19 43 33 66 44 38 19 37 33 21 45 39 66 46 40 22 47 41 23 48 42 62 49 43 23 48 42 61 50 44 62 49 43 60 51 45 61 50 44 25 52 46 23 48 42 25 52 46 61 50 44 60 51 45 25 52 46 59 53 47 25 52 46 27 54 48 59 53 47 59 53 47 27 54 48 58 55 49 27 54 48 29 56 50 58 55 49 57 57 51 58 55 49 31 58 52 29 56 50 31 58 52 58 55 49 57 57 51 31 58 52 56 59 53 31 58 52 33 60 54 56 59 53 35 61 55 55 62 56 33 60 54 33 60 54 55 62 56 56 59 53 37 63 57 54 64 58 35 61 55 35 61 55 54 64 58 55 62 56 54 64 58 37 63 57 53 65 59 37 63 57 39 66 60 53 65 59 52 67 61 53 65 59 41 68 62 39 66 60 41 68 62 53 65 59 3 1 1 1 0 0 2 69 63 1 0 0 0 70 64 2 69 63 2 69 63 4 71 65 3 1 1 3 1 1 4 71 65 5 8 7 4 71 65 6 72 66 5 8 7 5 8 7 6 72 66 7 12 11 9 17 15 7 12 11 8 73 67 7 12 11 6 72 66 8 73 67 11 19 17 9 17 15 10 74 68 9 17 15 8 73 67 10 74 68 10 74 68 12 75 69 11 19 17 11 19 17 12 75 69 13 24 21 12 75 69 14 76 70 13 24 21 13 24 21 14 76 70 15 29 25 17 36 31 15 29 25 16 77 71 15 29 25 14 76 70 16 77 71 17 36 31 16 77 71 19 37 33 16 77 71 18 78 72 19 37 33 19 37 33 18 78 72 21 45 39 18 78 72 20 79 73 21 45 39 23 48 42 22 47 41 24 80 74 22 47 41 64 81 75 24 80 74 24 80 74 26 82 76 23 48 42 23 48 42 26 82 76 25 52 46 28 83 77 27 54 48 26 82 76 25 52 46 26 82 76 27 54 48 28 83 77 30 84 78 27 54 48 27 54 48 30 84 78 29 56 50 31 58 52 29 56 50 32 85 79 29 56 50 30 84 78 32 85 79 31 58 52 32 85 79 33 60 54 32 85 79 34 86 80 33 60 54 35 61 55 33 60 54 36 87 81 33 60 54 34 86 80 36 87 81 36 87 81 38 88 82 35 61 55 35 61 55 38 88 82 37 63 57 39 66 60 37 63 57 40 89 83 37 63 57 38 88 82 40 89 83 42 90 84 41 68 62 40 89 83 39 66 60 40 89 83 41 68 62 40 89 83 44 91 85 42 90 84 44 92 86 43 93 87 42 94 84 38 88 82 45 95 88 40 89 83 45 96 89 44 97 90 40 98 83 38 88 82 36 87 81 45 99 91 46 100 92 45 99 93 36 87 81 46 101 94 36 102 81 47 103 95 47 104 96 36 87 81 34 86 80 32 85 79 48 105 97 34 86 80 48 106 98 47 107 99 34 108 80 32 85 79 30 84 78 48 109 100 49 110 101 48 111 102 30 112 78 30 84 78 28 83 77 49 113 103 50 114 104 49 113 105 28 83 77 26 82 76 51 115 106 28 83 77 51 116 107 50 117 108 28 118 77 65 119 109 51 120 110 24 121 74 51 122 111 26 82 76 24 80 74 65 123 112 24 80 74 64 81 113 20 79 73 18 78 72 52 67 61 53 65 59 52 67 61 18 78 72 54 64 58 53 65 59 16 77 71 53 65 59 18 78 72 16 77 71 54 64 58 16 77 71 55 62 56 55 62 56 16 77 71 14 76 70 14 76 70 12 75 69 55 62 56 56 59 53 55 62 56 12 75 69 57 57 51 56 59 53 10 74 68 56 59 53 12 75 69 10 74 68 57 57 51 10 74 68 58 55 49 58 55 49 10 74 68 8 73 67 6 72 66 59 53 47 8 73 67 59 53 47 58 55 49 8 73 67 4 71 65 60 51 45 6 72 66 60 51 45 59 53 47 6 72 66 4 71 65 2 69 63 60 51 45 61 50 44 60 51 45 2 69 63 62 49 43 61 50 44 0 70 64 61 50 44 2 69 63 0 70 64 76 124 114 78 125 115 131 126 116 78 125 115 130 127 117 131 126 116 80 128 118 129 129 119 78 125 115 78 125 115 129 129 119 130 127 117 82 130 120 128 131 121 80 128 118 80 128 118 128 131 121 129 129 119 84 132 122 127 133 123 82 130 120 82 130 120 127 133 123 128 131 121 127 133 123 84 132 122 126 134 124 84 132 122 86 135 125 126 134 124 126 134 124 86 135 125 125 136 126 86 135 125 88 137 127 125 136 126 88 137 127 90 138 128 125 136 126 90 138 128 124 139 129 125 136 126 123 140 130 124 139 129 92 141 131 90 138 128 92 141 131 124 139 129 94 142 132 122 143 133 92 141 131 92 141 131 122 143 133 123 140 130 122 143 133 94 142 132 121 144 134 94 142 132 96 145 135 121 144 134 98 146 136 100 147 137 120 148 138 100 147 137 65 149 139 120 148 138 65 150 140 100 151 137 51 152 141 100 147 137 102 153 142 51 154 143 104 155 144 50 156 145 102 153 142 102 157 142 50 158 146 51 159 147 104 155 144 106 160 148 50 161 149 106 162 148 49 163 150 50 164 151 48 165 152 49 166 153 108 167 154 106 160 148 108 167 154 49 166 155 110 168 156 47 169 157 108 167 154 108 170 154 47 171 158 48 172 159 47 173 160 110 174 156 46 175 161 110 168 156 112 176 162 46 177 163 112 176 162 114 178 164 46 179 165 114 180 164 45 181 166 46 182 167 45 183 168 114 178 164 44 184 169 114 178 164 116 185 170 44 184 171 118 186 172 43 187 173 116 185 170 116 188 170 43 189 174 44 190 175 76 124 114 77 191 176 78 125 115 77 191 176 79 192 177 78 125 115 80 128 118 78 125 115 81 193 178 78 125 115 79 192 177 81 193 178 82 130 120 80 128 118 83 194 179 80 128 118 81 193 178 83 194 179 83 194 179 85 195 180 82 130 120 82 130 120 85 195 180 84 132 122 87 196 181 86 135 125 85 195 180 84 132 122 85 195 180 86 135 125 86 135 125 87 196 181 88 137 127 87 196 181 89 197 182 88 137 127 90 138 128 88 137 127 91 198 183 88 137 127 89 197 182 91 198 183 92 141 131 90 138 128 93 199 184 90 138 128 91 198 183 93 199 184 93 199 184 95 200 185 92 141 131 92 141 131 95 200 185 94 142 132 94 142 132 95 200 185 96 145 135 95 200 185 97 201 186 96 145 135 98 146 136 99 202 187 100 147 137 99 202 187 101 203 188 100 147 137 100 147 137 101 203 188 102 153 142 101 203 188 103 204 189 102 153 142 102 153 142 103 204 189 104 155 144 103 204 189 105 205 190 104 155 144 106 160 148 104 155 144 107 206 191 104 155 144 105 205 190 107 206 191 108 167 154 106 160 148 109 207 192 106 160 148 107 206 191 109 207 192 111 208 193 110 168 156 109 207 192 108 167 154 109 207 192 110 168 156 112 176 162 110 168 156 113 209 194 110 168 156 111 208 193 113 209 194 114 178 164 112 176 162 115 210 195 112 176 162 113 209 194 115 210 195 116 185 170 114 178 164 117 211 196 114 178 164 115 210 195 117 211 196 119 212 197 118 186 172 117 211 196 116 185 170 117 211 196 118 186 172 120 213 138 65 214 198 64 215 199 117 211 196 122 143 133 119 212 197 122 143 133 121 144 134 119 212 197 123 140 130 122 143 133 115 210 195 122 143 133 117 211 196 115 210 195 115 210 195 113 209 194 123 140 130 124 139 129 123 140 130 113 209 194 125 136 126 124 139 129 111 208 193 124 139 129 113 209 194 111 208 193 125 136 126 111 208 193 126 134 124 126 134 124 111 208 193 109 207 192 127 133 123 126 134 124 107 206 191 126 134 124 109 207 192 107 206 191 107 206 191 105 205 190 127 133 123 128 131 121 127 133 123 105 205 190 128 131 121 105 205 190 129 129 119 129 129 119 105 205 190 103 204 189 101 203 188 130 127 117 103 204 189 130 127 117 129 129 119 103 204 189 99 202 187 131 126 116 101 203 188 131 126 116 130 127 117 101 203 188 95 200 200 67 216 201 97 201 202 67 217 203 66 218 204 97 219 202 68 220 205 67 221 206 93 222 207 67 223 208 95 200 200 93 199 207 93 199 207 91 198 209 68 224 210 69 225 211 68 224 212 91 198 209 89 197 213 70 226 214 91 198 209 70 227 215 69 228 216 91 229 209 71 230 217 70 231 218 87 232 219 70 233 220 89 197 213 87 196 219 71 230 221 87 232 219 72 234 222 72 235 223 87 196 219 85 195 224 83 194 225 73 236 226 85 195 224 73 237 227 72 238 228 85 239 224 83 194 225 81 193 229 73 240 230 74 241 231 73 240 232 81 193 229 79 192 233 75 242 234 81 193 229 75 243 235 74 244 236 81 245 229 77 191 237 63 246 238 79 192 233 63 247 239 75 248 240 79 249 233</p>
        </triangles>
        <polylist material="initialShadingGroup" count="0">
          <input semantic="VERTEX" source="#polySurfaceShape21-vertices" offset="0" />
          <input semantic="NORMAL" source="#polySurfaceShape21-normals" offset="1" />
          <input semantic="TEXCOORD" source="#polySurfaceShape21-map1" offset="2" set="0" />
          <vcount />
          <p />
        </polylist>
      </mesh>
      <extra>
        <technique profile="MAYA">
          <double_sided>1</double_sided>
        </technique>
      </extra>
    </geometry>
  </library_geometries>
  <library_visual_scenes>
    <visual_scene id="VisualSceneNode" name="wall_alt">
      <node id="polySurface1" name="polySurface1" type="NODE">
        <translate sid="rotatePivot">8.75 2 4.25</translate>
        <rotate sid="rotateZ">0 0 1 0</rotate>
        <rotate sid="rotateY">0 1 0 0</rotate>
        <rotate sid="rotateX">1 0 0 0</rotate>
        <translate sid="rotatePivotInverse">-8.75 -2 -4.25</translate>
        <translate sid="scalePivot">8.75 2 4.25</translate>
        <translate sid="scalePivotInverse">-8.75 -2 -4.25</translate>
        <node id="polySurface2" name="polySurface2" type="NODE">
          <rotate sid="rotateZ">0 0 1 0</rotate>
          <rotate sid="rotateY">0 1 0 0</rotate>
          <rotate sid="rotateX">1 0 0 0</rotate>
          <node id="polySurface12" name="polySurface12" type="NODE">
            <translate sid="rotatePivot">0.000001 3.89342 -0.009586</translate>
            <rotate sid="rotateZ">0 0 1 0</rotate>
            <rotate sid="rotateY">0 1 0 0</rotate>
            <rotate sid="rotateX">1 0 0 0</rotate>
            <translate sid="rotatePivotInverse">-0.000001 -3.89342 0.009586</translate>
            <translate sid="scalePivot">0.000001 3.89342 -0.009586</translate>
            <translate sid="scalePivotInverse">-0.000001 -3.89342 0.009586</translate>
          </node>
          <node id="polySurface13" name="polySurface13" type="NODE">
            <translate sid="translate">0 -4 0</translate>
            <translate sid="rotatePivot">0.000001 4.10658 -0.002551</translate>
            <rotate sid="rotateZ">0 0 1 0</rotate>
            <rotate sid="rotateY">0 1 0 0</rotate>
            <rotate sid="rotateX">1 0 0 0</rotate>
            <translate sid="rotatePivotInverse">-0.000001 -4.10658 0.002551</translate>
            <translate sid="scalePivot">0.000001 4.10658 -0.002551</translate>
            <translate sid="scalePivotInverse">-0.000001 -4.10658 0.002551</translate>
          </node>
        </node>
      </node>
      <node id="polySurface7" name="polySurface7" type="NODE">
        <translate sid="rotatePivot">0.000001 2 -0.004896</translate>
        <rotate sid="rotateZ">0 0 1 90</rotate>
        <rotate sid="rotateY">0 1 0 0</rotate>
        <rotate sid="rotateX">1 0 0 0</rotate>
        <translate sid="rotatePivotInverse">-0.000001 -2 0.004896</translate>
        <translate sid="scalePivot">0.000001 2 -0.004896</translate>
        <translate sid="scalePivotInverse">-0.000001 -2 0.004896</translate>
        <node id="polySurface9" name="polySurface9" type="NODE">
          <translate sid="rotatePivot">0.000001 0 -0.004896</translate>
          <rotate sid="rotateZ">0 0 1 0</rotate>
          <rotate sid="rotateY">0 1 0 0</rotate>
          <rotate sid="rotateX">1 0 0 0</rotate>
          <translate sid="rotatePivotInverse">-0.000001 0 0.004896</translate>
          <translate sid="scalePivot">0.000001 0 -0.004896</translate>
          <translate sid="scalePivotInverse">-0.000001 0 0.004896</translate>
          <node id="polySurface10" name="polySurface10" type="NODE">
            <translate sid="translate">0 4 0</translate>
            <translate sid="rotatePivot">0.000001 -0.10658 -0.009586</translate>
            <rotate sid="rotateZ">0 0 1 0</rotate>
            <rotate sid="rotateY">0 1 0 0</rotate>
            <rotate sid="rotateX">1 0 0 0</rotate>
            <translate sid="rotatePivotInverse">-0.000001 0.10658 0.009586</translate>
            <translate sid="scalePivot">0.000001 -0.10658 -0.009586</translate>
            <translate sid="scalePivotInverse">-0.000001 0.10658 0.009586</translate>
          </node>
          <node id="polySurface11" name="polySurface11" type="NODE">
            <translate sid="rotatePivot">0.000001 0.106581 -0.002551</translate>
            <rotate sid="rotateZ">0 0 1 0</rotate>
            <rotate sid="rotateY">0 1 0 0</rotate>
            <rotate sid="rotateX">1 0 0 0</rotate>
            <translate sid="rotatePivotInverse">-0.000001 -0.106581 0.002551</translate>
            <translate sid="scalePivot">0.000001 0.106581 -0.002551</translate>
            <translate sid="scalePivotInverse">-0.000001 -0.106581 0.002551</translate>
          </node>
        </node>
      </node>
      <node id="polySurface14" name="polySurface14" type="NODE">
        <rotate sid="rotateZ">0 0 1 0</rotate>
        <rotate sid="rotateY">0 1 0 0</rotate>
        <rotate sid="rotateX">1 0 0 0</rotate>
        <node id="polySurface15" name="polySurface15" type="NODE">
          <rotate sid="rotateZ">0 0 1 0</rotate>
          <rotate sid="rotateY">0 1 0 0</rotate>
          <rotate sid="rotateX">1 0 0 0</rotate>
          <instance_geometry url="#polySurfaceShape17">
            <bind_material>
              <technique_common>
                <instance_material symbol="lambert4SG" target="#lambert4">
                  <bind_vertex_input semantic="TEX0" input_semantic="TEXCOORD" input_set="0" />
                </instance_material>
                <instance_material symbol="initialShadingGroup" target="#lambert1" />
              </technique_common>
            </bind_material>
          </instance_geometry>
        </node>
        <node id="polySurface16" name="polySurface16" type="NODE">
          <rotate sid="rotateZ">0 0 1 0</rotate>
          <rotate sid="rotateY">0 1 0 0</rotate>
          <rotate sid="rotateX">1 0 0 0</rotate>
          <instance_geometry url="#polySurfaceShape18">
            <bind_material>
              <technique_common>
                <instance_material symbol="lambert4SG" target="#lambert4">
                  <bind_vertex_input semantic="TEX0" input_semantic="TEXCOORD" input_set="0" />
                </instance_material>
                <instance_material symbol="initialShadingGroup" target="#lambert1" />
              </technique_common>
            </bind_material>
          </instance_geometry>
        </node>
        <node id="polySurface17" name="polySurface17" type="NODE">
          <rotate sid="rotateZ">0 0 1 0</rotate>
          <rotate sid="rotateY">0 1 0 0</rotate>
          <rotate sid="rotateX">1 0 0 0</rotate>
          <instance_geometry url="#polySurfaceShape19">
            <bind_material>
              <technique_common>
                <instance_material symbol="lambert4SG" target="#lambert4">
                  <bind_vertex_input semantic="TEX0" input_semantic="TEXCOORD" input_set="0" />
                </instance_material>
                <instance_material symbol="initialShadingGroup" target="#lambert1" />
              </technique_common>
            </bind_material>
          </instance_geometry>
        </node>
        <node id="polySurface18" name="polySurface18" type="NODE">
          <rotate sid="rotateZ">0 0 1 0</rotate>
          <rotate sid="rotateY">0 1 0 0</rotate>
          <rotate sid="rotateX">1 0 0 0</rotate>
          <instance_geometry url="#polySurfaceShape20">
            <bind_material>
              <technique_common>
                <instance_material symbol="lambert4SG" target="#lambert4">
                  <bind_vertex_input semantic="TEX0" input_semantic="TEXCOORD" input_set="0" />
                </instance_material>
                <instance_material symbol="initialShadingGroup" target="#lambert1" />
              </technique_common>
            </bind_material>
          </instance_geometry>
        </node>
        <node id="polySurface19" name="polySurface19" type="NODE">
          <translate sid="translate">0 2 0</translate>
          <rotate sid="rotateZ">0 0 1 0</rotate>
          <rotate sid="rotateY">0 1 0 0</rotate>
          <rotate sid="rotateX">1 0 0 0</rotate>
        </node>
        <node id="polySurface20" name="polySurface20" type="NODE">
          <translate sid="translate">0 -2 0</translate>
          <rotate sid="rotateZ">0 0 1 0</rotate>
          <rotate sid="rotateY">0 1 0 0</rotate>
          <rotate sid="rotateX">1 0 0 0</rotate>
        </node>
      </node>
      <node id="pPlane1" name="pPlane1" type="NODE">
        <translate sid="translate">0 2 0</translate>
        <rotate sid="rotateZ">0 0 1 0</rotate>
        <rotate sid="rotateY">0 1 0 0</rotate>
        <rotate sid="rotateX">1 0 0 -90</rotate>
        <instance_geometry url="#pPlaneShape1">
          <bind_material>
            <technique_common>
              <instance_material symbol="lambert6SG" target="#lambert6">
                <bind_vertex_input semantic="TEX0" input_semantic="TEXCOORD" input_set="0" />
              </instance_material>
            </technique_common>
          </bind_material>
        </instance_geometry>
      </node>
      <node id="polySurface21" name="polySurface21" type="NODE">
        <translate sid="rotatePivot">0.000001 2 -0.004896</translate>
        <rotate sid="rotateZ">0 0 1 -45</rotate>
        <rotate sid="rotateY">0 1 0 0</rotate>
        <rotate sid="rotateX">1 0 0 0</rotate>
        <translate sid="rotatePivotInverse">-0.000001 -2 0.004896</translate>
        <translate sid="scalePivot">0.000001 2 -0.004896</translate>
        <scale sid="scale">1.36191 1 0.565611</scale>
        <translate sid="scalePivotInverse">-0.000001 -2 0.004896</translate>
        <instance_geometry url="#polySurfaceShape21">
          <bind_material>
            <technique_common>
              <instance_material symbol="lambert4SG" target="#lambert4">
                <bind_vertex_input semantic="TEX0" input_semantic="TEXCOORD" input_set="0" />
              </instance_material>
              <instance_material symbol="initialShadingGroup" target="#lambert1" />
            </technique_common>
          </bind_material>
        </instance_geometry>
      </node>
      <extra>
        <technique profile="FCOLLADA">
          <start_time>0.041666</start_time>
          <end_time>2</end_time>
        </technique>
      </extra>
    </visual_scene>
  </library_visual_scenes>
  <scene>
    <instance_physics_scene url="#MayaNativePhysicsScene" />
    <instance_visual_scene url="#VisualSceneNode" />
  </scene>
</COLLADA>