﻿<?xml version="1.0" encoding="utf-8"?>
<COLLADA xmlns="http://www.collada.org/2005/11/COLLADASchema" version="1.4.1">
  <asset>
    <contributor>
      <author>marc</author>
      <authoring_tool>Maya7.0 | ColladaMaya v3.05B</authoring_tool>
      <comments>ColladaMaya export options: bakeTransforms=0;exportPolygonMeshes=1;bakeLighting=0;isSampling=0;
curveConstrainSampling=0;removeStaticCurves=1;exportCameraAsLookat=0;
exportLights=1;exportCameras=1;exportJointsAndSkin=1;
exportAnimations=1;exportTriangles=1;exportInvisibleNodes=0;
exportNormals=1;exportTexCoords=1;
exportVertexColors=1;exportVertexColorsAnimation=0;exportTangents=0;
exportTexTangents=0;exportConstraints=1;exportPhysics=1;exportXRefs=1;
dereferenceXRefs=0;cameraXFov=0;cameraYFov=1</comments>
      <source_data>file:///E:/lux/work_static_objects/cellarbase/wall/wall_short.mb</source_data>
    </contributor>
    <created>2009-01-15T12:02:46Z</created>
    <modified>2009-01-15T12:02:46Z</modified>
    <up_axis>Y_UP</up_axis>
    <hpl2scaling />
  </asset>
  <library_physics_scenes>
    <physics_scene id="MayaNativePhysicsScene">
      <technique_common>
        <gravity>0 -980 0</gravity>
        <time_step>0.083</time_step>
      </technique_common>
    </physics_scene>
  </library_physics_scenes>
  <library_images>
    <image id="file3" name="file3">
      <init_from>file:///E:/lux/redist/static_objects/cellarbase/cellarbase_wood_beams.dds</init_from>
      <extra>
        <technique profile="MAYA">
          <dgnode_type>kFile</dgnode_type>
          <image_sequence>0</image_sequence>
        </technique>
      </extra>
    </image>
    <image id="file5" name="file5">
      <init_from>file:///E:/lux/redist/static_objects/cellarbase/cellarbase.dds</init_from>
      <extra>
        <technique profile="MAYA">
          <dgnode_type>kFile</dgnode_type>
          <image_sequence>0</image_sequence>
        </technique>
      </extra>
    </image>
  </library_images>
  <library_materials>
    <material id="lambert4" name="lambert4">
      <instance_effect url="#lambert4-fx" />
    </material>
    <material id="lambert6" name="lambert6">
      <instance_effect url="#lambert6-fx" />
    </material>
    <material id="lambert1" name="lambert1">
      <instance_effect url="#lambert1-fx" />
    </material>
  </library_materials>
  <library_effects>
    <effect id="lambert4-fx">
      <profile_COMMON>
        <newparam sid="file3-surface">
          <surface type="2D">
            <init_from>file3</init_from>
            <format>A8R8G8B8</format>
          </surface>
        </newparam>
        <newparam sid="file3-sampler">
          <sampler2D>
            <source>file3-surface</source>
            <wrap_s>WRAP</wrap_s>
            <wrap_t>WRAP</wrap_t>
            <minfilter>NONE</minfilter>
            <magfilter>NONE</magfilter>
            <mipfilter>NONE</mipfilter>
          </sampler2D>
        </newparam>
        <technique sid="common">
          <lambert>
            <emission>
              <color>0 0 0 1</color>
            </emission>
            <ambient>
              <color>0 0 0 1</color>
            </ambient>
            <diffuse>
              <texture texture="file3-sampler" texcoord="TEX0">
                <extra>
                  <technique profile="MAYA">
                    <wrapU>1</wrapU>
                    <wrapV>1</wrapV>
                    <mirrorU>0</mirrorU>
                    <mirrorV>0</mirrorV>
                    <coverageU>1</coverageU>
                    <coverageV>1</coverageV>
                    <translateFrameU>0</translateFrameU>
                    <translateFrameV>0</translateFrameV>
                    <rotateFrame>0</rotateFrame>
                    <stagger>0</stagger>
                    <fast>0</fast>
                    <repeatU>1</repeatU>
                    <repeatV>1</repeatV>
                    <offsetU>0</offsetU>
                    <offsetV>0</offsetV>
                    <rotateUV>0</rotateUV>
                    <noiseU>0</noiseU>
                    <noiseV>0</noiseV>
                    <blend_mode>NONE</blend_mode>
                  </technique>
                </extra>
              </texture>
            </diffuse>
            <transparent opaque="A_ONE">
              <texture texture="file3-sampler" texcoord="TEX1">
                <extra>
                  <technique profile="MAYA">
                    <wrapU>1</wrapU>
                    <wrapV>1</wrapV>
                    <mirrorU>0</mirrorU>
                    <mirrorV>0</mirrorV>
                    <coverageU>1</coverageU>
                    <coverageV>1</coverageV>
                    <translateFrameU>0</translateFrameU>
                    <translateFrameV>0</translateFrameV>
                    <rotateFrame>0</rotateFrame>
                    <stagger>0</stagger>
                    <fast>0</fast>
                    <repeatU>1</repeatU>
                    <repeatV>1</repeatV>
                    <offsetU>0</offsetU>
                    <offsetV>0</offsetV>
                    <rotateUV>0</rotateUV>
                    <noiseU>0</noiseU>
                    <noiseV>0</noiseV>
                    <blend_mode>NONE</blend_mode>
                  </technique>
                </extra>
              </texture>
            </transparent>
            <transparency>
              <float>1</float>
            </transparency>
          </lambert>
          <extra>
            <technique profile="FCOLLADA" />
          </extra>
        </technique>
      </profile_COMMON>
    </effect>
    <effect id="lambert6-fx">
      <profile_COMMON>
        <newparam sid="file5-surface">
          <surface type="2D">
            <init_from>file5</init_from>
            <format>A8R8G8B8</format>
          </surface>
        </newparam>
        <newparam sid="file5-sampler">
          <sampler2D>
            <source>file5-surface</source>
            <wrap_s>WRAP</wrap_s>
            <wrap_t>WRAP</wrap_t>
            <minfilter>NONE</minfilter>
            <magfilter>NONE</magfilter>
            <mipfilter>NONE</mipfilter>
          </sampler2D>
        </newparam>
        <technique sid="common">
          <lambert>
            <emission>
              <color>0 0 0 1</color>
            </emission>
            <ambient>
              <color>0 0 0 1</color>
            </ambient>
            <diffuse>
              <texture texture="file5-sampler" texcoord="TEX0">
                <extra>
                  <technique profile="MAYA">
                    <wrapU>1</wrapU>
                    <wrapV>1</wrapV>
                    <mirrorU>0</mirrorU>
                    <mirrorV>0</mirrorV>
                    <coverageU>1</coverageU>
                    <coverageV>1</coverageV>
                    <translateFrameU>0</translateFrameU>
                    <translateFrameV>0</translateFrameV>
                    <rotateFrame>0</rotateFrame>
                    <stagger>0</stagger>
                    <fast>0</fast>
                    <repeatU>1</repeatU>
                    <repeatV>1</repeatV>
                    <offsetU>0</offsetU>
                    <offsetV>0</offsetV>
                    <rotateUV>0</rotateUV>
                    <noiseU>0</noiseU>
                    <noiseV>0</noiseV>
                    <blend_mode>NONE</blend_mode>
                  </technique>
                </extra>
              </texture>
            </diffuse>
            <transparent opaque="RGB_ZERO">
              <color>0 0 0 1</color>
            </transparent>
            <transparency>
              <float>1</float>
            </transparency>
          </lambert>
          <extra>
            <technique profile="FCOLLADA" />
          </extra>
        </technique>
      </profile_COMMON>
    </effect>
    <effect id="lambert1-fx">
      <profile_COMMON>
        <technique sid="common">
          <lambert>
            <emission>
              <color>0 0 0 1</color>
            </emission>
            <ambient>
              <color>0 0 0 1</color>
            </ambient>
            <diffuse>
              <color>0.4 0.4 0.4 0.8</color>
            </diffuse>
            <transparent opaque="RGB_ZERO">
              <color>0 0 0 1</color>
            </transparent>
            <transparency>
              <float>1</float>
            </transparency>
          </lambert>
          <extra>
            <technique profile="FCOLLADA" />
          </extra>
        </technique>
      </profile_COMMON>
    </effect>
  </library_effects>
  <library_geometries>
    <geometry id="pPlaneShape3" name="pPlaneShape3">
      <mesh>
        <source id="pPlaneShape3-positions" name="position">
          <float_array id="pPlaneShape3-positions-array" count="18">1 0 0 -1 0 0 1 4 0 -1 4 0 -1 1.5 0 1 1.5 0</float_array>
          <technique_common>
            <accessor source="#pPlaneShape3-positions-array" count="6" stride="3">
              <param name="X" type="float" />
              <param name="Y" type="float" />
              <param name="Z" type="float" />
            </accessor>
          </technique_common>
        </source>
        <source id="pPlaneShape3-normals" name="normal">
          <float_array id="pPlaneShape3-normals-array" count="24">0 0 1 0 0 1 0 0 1 0 0 1 0 0 1 0 0 1 0 0 1 0 0 1</float_array>
          <technique_common>
            <accessor source="#pPlaneShape3-normals-array" count="8" stride="3">
              <param name="X" type="float" />
              <param name="Y" type="float" />
              <param name="Z" type="float" />
            </accessor>
          </technique_common>
        </source>
        <source id="pPlaneShape3-map1" name="map1">
          <float_array id="pPlaneShape3-map1-array" count="12">0.629663 0 0.979663 0 0.629663 0.656353 0.979663 0.656353 0.979663 0.327099 0.629663 0.327099</float_array>
          <technique_common>
            <accessor source="#pPlaneShape3-map1-array" count="6" stride="2">
              <param name="S" type="float" />
              <param name="T" type="float" />
            </accessor>
          </technique_common>
        </source>
        <vertices id="pPlaneShape3-vertices">
          <input semantic="POSITION" source="#pPlaneShape3-positions" />
        </vertices>
        <triangles material="lambert6SG" count="4">
          <input semantic="VERTEX" source="#pPlaneShape3-vertices" offset="0" />
          <input semantic="NORMAL" source="#pPlaneShape3-normals" offset="1" />
          <input semantic="TEXCOORD" source="#pPlaneShape3-map1" offset="2" set="0" />
          <p>5 0 5 2 1 2 4 3 4 2 1 2 3 2 3 4 3 4 0 4 0 5 5 5 1 7 1 5 5 5 4 6 4 1 7 1</p>
        </triangles>
      </mesh>
      <extra>
        <technique profile="MAYA">
          <double_sided>1</double_sided>
        </technique>
      </extra>
    </geometry>
    <geometry id="polySurfaceShape1" name="polySurfaceShape1">
      <mesh>
        <source id="polySurfaceShape1-positions" name="position">
          <float_array id="polySurfaceShape1-positions-array" count="648">1 -0.107888 -0.08259 1 -0.027153 -0.093464 0.624621 -0.127881 -0.084791 0.562806 -0.114548 -0.130017 0.136087 -0.192547 -0.109366 0.119558 -0.09606 -0.128817 -0.222921 -0.159677 -0.086866 -0.27796 -0.064497 -0.085907 -0.585422 -0.116892 -0.100785 -0.648991 -0.084332 -0.162867 -1 -0.107888 -0.08259 -1 -0.027153 -0.093464 1 0.187817 -0.073543 1 0.127105 -0.105883 0.5012 0.165283 -0.09916 0.618186 0.110036 -0.107553 0.115688 0.190994 -0.073945 0.249444 0.11326 -0.115582 -0.238555 0.176353 -0.083498 -0.18892 0.156739 -0.097974 -0.654859 0.196356 -0.05504 -0.653823 0.179317 -0.130247 -1 0.187817 -0.073543 -1 0.127105 -0.105883 1 0.121773 0.096934 1 0.188396 0.07469 0.566481 0.134078 0.162867 0.592699 0.157773 0.131672 0.170434 0.114019 0.118611 0.231586 0.154679 0.079601 -0.312234 0.128862 0.098803 -0.198698 0.194028 0.10728 -0.645837 0.125828 0.147278 -0.572192 0.154456 0.124364 -1 0.121773 0.096934 -1 0.188396 0.07469 1 -0.136932 0.078605 1 -0.097416 0.139631 0.490426 -0.14803 0.095281 0.500043 -0.14473 0.143231 0.133465 -0.181009 0.084156 0.210019 -0.112927 0.096763 -0.272736 -0.100618 0.060791 -0.224933 -0.149314 0.154623 -0.705875 -0.116652 0.095634 -0.630735 -0.096169 0.127084 -1 -0.136932 0.078605 -1 -0.097416 0.139631 -1 -0.04061 0.138982 -0.592253 0.036875 0.126936 -0.219051 -0.02465 0.14513 0.171065 -0.04299 0.140334 0.603339 -0.01601 0.125466 1 -0.04061 0.138982 -1 0.193943 -0.00505 -0.55456 0.181436 0.031247 -0.174667 0.15562 -0.016269 0.214725 0.153555 -0.001678 0.518573 0.157454 0.015217 1 0.193943 -0.00505 -1 -0.131455 -0.028969 -0.667107 -0.152392 -0.005875 -0.179739 -0.124504 -0.021128 0.232888 -0.159274 -0.024643 0.561799 -0.173812 -0.011561 1 -0.131455 -0.028969 -1 0.06382 -0.12628 -0.642425 0.079067 -0.116663 -0.234147 0.008951 -0.110088 0.220248 0.052444 -0.104936 0.537107 0.001184 -0.158177 1 0.06382 -0.12628 1 1.39021 -0.08259 1 1.47094 -0.093464 0.624621 1.37021 -0.084791 0.562806 1.38355 -0.130017 0.136087 1.30555 -0.109366 0.119558 1.40204 -0.128817 -0.222921 1.33842 -0.086866 -0.27796 1.4336 -0.085907 -0.585422 1.3812 -0.100785 -0.648991 1.41376 -0.162867 -1 1.39021 -0.08259 -1 1.47094 -0.093464 1 1.68591 -0.073543 1 1.6252 -0.105883 0.5012 1.66338 -0.09916 0.618186 1.60813 -0.107553 0.115688 1.68909 -0.073945 0.249444 1.61136 -0.115582 -0.238555 1.67445 -0.083498 -0.18892 1.65483 -0.097974 -0.654859 1.69445 -0.05504 -0.653823 1.67741 -0.130247 -1 1.68591 -0.073543 -1 1.6252 -0.105883 1 1.61987 0.096934 1 1.68649 0.07469 0.566481 1.63217 0.162867 0.592699 1.65587 0.131672 0.170434 1.61211 0.118611 0.231586 1.65277 0.079601 -0.312234 1.62696 0.098803 -0.198698 1.69212 0.10728 -0.645837 1.62392 0.147278 -0.572192 1.65255 0.124364 -1 1.61987 0.096934 -1 1.68649 0.07469 1 1.36116 0.078605 1 1.40068 0.139631 0.490426 1.35007 0.095281 0.500043 1.35337 0.143231 0.133465 1.31709 0.084156 0.210019 1.38517 0.096763 -0.272736 1.39748 0.060791 -0.224933 1.34878 0.154623 -0.705875 1.38144 0.095634 -0.630735 1.40193 0.127084 -1 1.36116 0.078605 -1 1.40068 0.139631 -1 1.45749 0.138982 -0.592253 1.53497 0.126936 -0.219051 1.47345 0.14513 0.171065 1.45511 0.140334 0.603339 1.48208 0.125466 1 1.45749 0.138982 -1 1.69204 -0.00505 -0.55456 1.67953 0.031247 -0.174667 1.65372 -0.016269 0.214725 1.65165 -0.001678 0.518573 1.65555 0.015217 1 1.69204 -0.00505 -1 1.36664 -0.028969 -0.667107 1.3457 -0.005875 -0.179739 1.37359 -0.021128 0.232888 1.33882 -0.024643 0.561799 1.32428 -0.011561 1 1.36664 -0.028969 -1 1.56192 -0.12628 -0.642425 1.57716 -0.116663 -0.234147 1.50705 -0.110088 0.220248 1.55054 -0.104936 0.537107 1.49928 -0.158177 1 1.56192 -0.12628 1 3.89021 -0.08259 1 3.97094 -0.093464 0.624621 3.87021 -0.084791 0.562806 3.88355 -0.130017 0.136087 3.80555 -0.109366 0.119558 3.90204 -0.128817 -0.222921 3.83842 -0.086866 -0.27796 3.9336 -0.085907 -0.585422 3.8812 -0.100785 -0.648991 3.91376 -0.162867 -1 3.89021 -0.08259 -1 3.97094 -0.093464 1 4.18591 -0.073543 1 4.1252 -0.105883 0.5012 4.16338 -0.09916 0.618186 4.10813 -0.107553 0.115688 4.18909 -0.073945 0.249444 4.11136 -0.115582 -0.238555 4.17445 -0.083498 -0.18892 4.15483 -0.097974 -0.654859 4.19445 -0.05504 -0.653823 4.17741 -0.130247 -1 4.18591 -0.073543 -1 4.1252 -0.105883 1 4.11987 0.096934 1 4.18649 0.07469 0.566481 4.13217 0.162867 0.592699 4.15587 0.131672 0.170434 4.11211 0.118611 0.231586 4.15277 0.079601 -0.312234 4.12696 0.098803 -0.198698 4.19212 0.10728 -0.645837 4.12392 0.147278 -0.572192 4.15255 0.124364 -1 4.11987 0.096934 -1 4.18649 0.07469 1 3.86116 0.078605 1 3.90068 0.139631 0.490426 3.85007 0.095281 0.500043 3.85337 0.143231 0.133465 3.81709 0.084156 0.210019 3.88517 0.096763 -0.272736 3.89748 0.060791 -0.224933 3.84878 0.154623 -0.705875 3.88144 0.095634 -0.630735 3.90193 0.127084 -1 3.86116 0.078605 -1 3.90068 0.139631 -1 3.95749 0.138982 -0.592253 4.03497 0.126936 -0.219051 3.97345 0.14513 0.171065 3.95511 0.140334 0.603339 3.98208 0.125466 1 3.95749 0.138982 -1 4.19204 -0.00505 -0.55456 4.17953 0.031247 -0.174667 4.15372 -0.016269 0.214725 4.15165 -0.001678 0.518573 4.15555 0.015217 1 4.19204 -0.00505 -1 3.86664 -0.028969 -0.667107 3.8457 -0.005875 -0.179739 3.87359 -0.021128 0.232888 3.83882 -0.024643 0.561799 3.82428 -0.011561 1 3.86664 -0.028969 -1 4.06192 -0.12628 -0.642425 4.07716 -0.116663 -0.234147 4.00705 -0.110088 0.220248 4.05054 -0.104936 0.537107 3.99928 -0.158177 1 4.06192 -0.12628</float_array>
          <technique_common>
            <accessor source="#polySurfaceShape1-positions-array" count="216" stride="3">
              <param name="X" type="float" />
              <param name="Y" type="float" />
              <param name="Z" type="float" />
            </accessor>
          </technique_common>
        </source>
        <source id="polySurfaceShape1-normals" name="normal">
          <float_array id="polySurfaceShape1-normals-array" count="648">0.049839 -0.709669 -0.70277 0.131199 -0.462596 -0.876808 0.095898 -0.848499 -0.520436 0.101693 -0.4845 -0.86886 0.029524 -0.875808 -0.481757 -0.067862 -0.079543 -0.994519 -0.04618 -0.888389 -0.456762 0.022397 -0.04298 -0.998825 -0.091617 -0.853369 -0.513194 -0.030441 -0.324255 -0.94548 -0.048067 -0.600819 -0.797939 -0.185157 -0.530661 -0.827113 -0.03963 0.938879 -0.341959 0.00773 0.341434 -0.939874 0.007418 0.66642 -0.74554 0.007314 0.298008 -0.954535 -0.008293 0.941697 -0.336359 -0.022292 0.199014 -0.979743 0.033528 0.994786 -0.09631 0.027217 0.324354 -0.945544 0.014177 0.998403 -0.05469 -0.003167 0.584154 -0.811637 -0.060409 0.897667 -0.436515 -0.058083 0.219051 -0.973983 0.094685 0.122773 0.987908 0.042955 0.788977 0.61292 0.008947 0.388983 0.921201 -0.037937 0.974149 0.222697 -0.042624 0.339365 0.939689 -0.004111 0.951495 0.307637 0.042776 0.100837 0.993983 0.035366 0.791756 0.609812 0.021315 0.236491 0.9714 -0.006292 0.618015 0.786141 -0.111982 0.460528 0.880553 -0.007472 0.867774 0.496902 0.054954 -0.964878 0.256886 0.056369 -0.751672 0.657124 0.010354 -0.946613 0.322205 -0.05035 -0.454201 0.889475 -0.045663 -0.962566 0.267174 0.009363 -0.365952 0.930587 -0.044585 -0.996765 0.066866 -0.00893 -0.690489 0.723288 0.051782 -0.912782 0.405151 -0.007275 -0.647893 0.761697 0.009842 -0.939241 0.343116 0.030864 -0.312394 0.949451 -0.016164 0.025206 0.999552 0.037837 -0.002774 0.99928 0.006016 0.038397 0.999244 -0.005869 -0.122605 0.992438 0.014026 -0.051992 0.998549 -0.011833 0.139907 0.990094 0.005948 0.998983 0.044703 0.024255 0.992953 0.116002 0.039229 0.999099 -0.016215 -0.018629 0.974914 0.221802 -0.031208 0.99437 0.101269 -0.072778 0.997314 0.008217 -0.043591 -0.959144 -0.279538 0.008316 -0.995182 0.097688 -0.046023 -0.972747 0.227257 -0.009983 -0.997515 0.069738 0.031433 -0.982509 -0.183544 0.084592 -0.969572 -0.229728 -0.072961 0.087263 -0.99351 0.031891 0.051693 -0.998154 -0.023062 -0.067371 -0.997461 -0.070638 0.032726 -0.996965 -0.027754 0.125707 -0.991679 0.092143 -0.084879 -0.992122 0.049839 -0.709669 -0.70277 0.1312 -0.462597 -0.876807 0.095898 -0.848499 -0.520436 0.101693 -0.4845 -0.86886 0.029524 -0.875808 -0.481756 -0.067862 -0.079543 -0.994519 -0.04618 -0.888389 -0.456763 0.022397 -0.04298 -0.998825 -0.091617 -0.853369 -0.513194 -0.030441 -0.324255 -0.94548 -0.048067 -0.600819 -0.797939 -0.185157 -0.530661 -0.827113 -0.03963 0.938879 -0.341958 0.00773 0.341434 -0.939874 0.007418 0.66642 -0.74554 0.007314 0.298008 -0.954535 -0.008293 0.941697 -0.33636 -0.022292 0.199014 -0.979743 0.033528 0.994786 -0.09631 0.027217 0.324354 -0.945544 0.014177 0.998403 -0.054689 -0.003167 0.584155 -0.811636 -0.060409 0.897667 -0.436514 -0.058083 0.219052 -0.973983 0.094685 0.122773 0.987908 0.042955 0.788976 0.61292 0.008947 0.388983 0.921202 -0.037937 0.974149 0.222697 -0.042624 0.339364 0.939689 -0.004111 0.951495 0.307638 0.042776 0.100837 0.993983 0.035366 0.791756 0.609813 0.021315 0.236491 0.9714 -0.006292 0.618015 0.786142 -0.111982 0.460528 0.880553 -0.007472 0.867775 0.496902 0.054954 -0.964878 0.256886 0.056369 -0.751671 0.657125 0.010354 -0.946613 0.322206 -0.05035 -0.4542 0.889476 -0.045663 -0.962566 0.267174 0.009363 -0.365952 0.930587 -0.044585 -0.996765 0.066866 -0.00893 -0.69049 0.723287 0.051782 -0.912783 0.405149 -0.007274 -0.647895 0.761695 0.009843 -0.939242 0.343114 0.030864 -0.312395 0.949451 -0.016164 0.025206 0.999552 0.037837 -0.002774 0.99928 0.006016 0.038397 0.999244 -0.005869 -0.122604 0.992438 0.014026 -0.051992 0.998549 -0.011833 0.139906 0.990094 0.005948 0.998983 0.044704 0.024255 0.992953 0.116002 0.039228 0.999099 -0.016215 -0.018629 0.974914 0.221801 -0.031208 0.99437 0.101269 -0.072777 0.997314 0.008218 -0.04359 -0.959144 -0.279538 0.008316 -0.995182 0.097688 -0.046023 -0.972747 0.227257 -0.009984 -0.997515 0.069737 0.031433 -0.982509 -0.183545 0.084592 -0.969572 -0.229728 -0.072961 0.087263 -0.99351 0.031891 0.051693 -0.998154 -0.023062 -0.067371 -0.997461 -0.070638 0.032727 -0.996965 -0.027754 0.125707 -0.991679 0.092143 -0.084879 -0.992121 0.049839 -0.709671 -0.702768 0.131199 -0.462595 -0.876808 0.095898 -0.848498 -0.520437 0.101693 -0.484499 -0.868861 0.029524 -0.875808 -0.481756 -0.067862 -0.079543 -0.994519 -0.04618 -0.888389 -0.456763 0.022397 -0.042981 -0.998825 -0.091617 -0.853369 -0.513194 -0.030441 -0.324256 -0.94548 -0.048067 -0.60082 -0.797938 -0.185158 -0.530661 -0.827113 -0.03963 0.938878 -0.341961 0.00773 0.341434 -0.939874 0.007418 0.666419 -0.74554 0.007314 0.298008 -0.954535 -0.008293 0.941697 -0.336359 -0.022292 0.199014 -0.979743 0.033528 0.994786 -0.096312 0.027217 0.324353 -0.945544 0.014177 0.998403 -0.05469 -0.003168 0.584152 -0.811638 -0.060409 0.897666 -0.436516 -0.058083 0.219052 -0.973983 0.094685 0.122773 0.987908 0.042954 0.788975 0.612922 0.008947 0.388982 0.921202 -0.037937 0.974149 0.222698 -0.042624 0.339364 0.939689 -0.004111 0.951495 0.307637 0.042776 0.100837 0.993983 0.035366 0.791757 0.609811 0.021315 0.236491 0.9714 -0.006292 0.618016 0.786141 -0.111982 0.460528 0.880553 -0.007472 0.867775 0.496901 0.054954 -0.964878 0.256885 0.056369 -0.751669 0.657127 0.010354 -0.946613 0.322207 -0.05035 -0.454199 0.889477 -0.045663 -0.962566 0.267173 0.009363 -0.365952 0.930587 -0.044585 -0.996765 0.066867 -0.00893 -0.690489 0.723287 0.051782 -0.912781 0.405154 -0.007275 -0.647891 0.761699 0.009842 -0.939241 0.343117 0.030864 -0.312394 0.949451 -0.016164 0.025206 0.999552 0.037837 -0.002774 0.99928 0.006016 0.038397 0.999244 -0.005868 -0.122605 0.992438 0.014026 -0.051992 0.998549 -0.011833 0.139906 0.990094 0.005948 0.998982 0.044705 0.024255 0.992953 0.116001 0.039228 0.999099 -0.016217 -0.018629 0.974914 0.2218 -0.031208 0.99437 0.101268 -0.072778 0.997314 0.008218 -0.043591 -0.959145 -0.279538 0.008316 -0.995182 0.097687 -0.046023 -0.972747 0.227256 -0.009983 -0.997515 0.069736 0.031434 -0.982509 -0.183545 0.084593 -0.969572 -0.229725 -0.072962 0.087263 -0.99351 0.031891 0.051693 -0.998154 -0.023063 -0.067371 -0.997461 -0.070638 0.032727 -0.996965 -0.027754 0.125708 -0.991679 0.092143 -0.084879 -0.992122</float_array>
          <technique_common>
            <accessor source="#polySurfaceShape1-normals-array" count="216" stride="3">
              <param name="X" type="float" />
              <param name="Y" type="float" />
              <param name="Z" type="float" />
            </accessor>
          </technique_common>
        </source>
        <source id="polySurfaceShape1-map1" name="map1">
          <float_array id="polySurfaceShape1-map1-array" count="468">0.565763 0.465092 0.659588 0.448722 0.57642 0.229422 0.65624 0.213524 0.585399 -0.044888 0.705924 0.017435 0.585373 -0.290895 0.664321 -0.263778 0.603187 -0.520518 0.720521 -0.516447 0.624842 -0.737743 0.706603 -0.73774 0.085275 0.42827 0.148639 0.481534 0.07554 0.191312 0.145414 0.202067 0.094387 -0.047266 0.133566 0.014024 0.086368 -0.2665 0.123336 -0.226957 0.104983 -0.524134 0.153779 -0.462058 0.094006 -0.737732 0.132169 -0.737729 0.242922 0.456929 0.353822 0.481973 0.232572 0.23172 0.323165 0.254522 0.223883 -0.013384 0.342087 -0.012998 0.207127 -0.312092 0.327692 -0.25443 0.230484 -0.518547 0.277414 -0.485389 0.209104 -0.737729 0.340561 -0.737735 0.444648 0.465126 0.471809 0.46786 0.419946 0.184635 0.490495 0.228801 0.434965 -0.036277 0.500156 0.02525 0.423429 -0.287659 0.502028 -0.230113 0.407258 -0.555713 0.48751 -0.531728 0.42557 -0.737743 0.507295 -0.737746 0.058612 -0.737736 0.549081 0.504776 0.547683 0.267679 0.539825 -0.034663 0.537955 -0.256842 0.561501 -0.481179 0.033501 0.474286 0.049754 0.263708 0.047455 0.035503 0.073541 -0.23578 0.066045 -0.523498 0.197884 0.526025 0.211882 0.247945 0.187381 0.024464 0.190865 -0.241826 0.209909 -0.472969 0.411038 0.476332 0.396765 0.19059 0.404921 0.0111 0.394186 -0.258077 0.380986 -0.509212 0.751345 -0.737736 0.55524 -0.737747 0.376636 -0.737738 0.176706 -0.737726 0.758779 -0.523498 0.766274 -0.23578 0.740188 0.035503 0.742487 0.263708 0.726234 0.474286 0.565763 0.465092 0.57642 0.229422 0.659588 0.448722 0.65624 0.213524 0.585399 -0.044888 0.705924 0.017435 0.664321 -0.263778 0.585373 -0.290895 0.603187 -0.520518 0.720521 -0.516447 0.706603 -0.73774 0.624842 -0.737743 0.148639 0.481534 0.085275 0.42827 0.145414 0.202067 0.07554 0.191312 0.094387 -0.047266 0.133566 0.014024 0.123336 -0.226957 0.086368 -0.2665 0.104983 -0.524134 0.153779 -0.462058 0.132169 -0.737729 0.094006 -0.737732 0.232572 0.23172 0.323165 0.254522 0.242922 0.456929 0.353822 0.481973 0.342087 -0.012998 0.223883 -0.013384 0.207127 -0.312092 0.327692 -0.25443 0.277414 -0.485389 0.230484 -0.518547 0.209104 -0.737729 0.340561 -0.737735 0.471809 0.46786 0.444648 0.465126 0.490495 0.228801 0.419946 0.184635 0.434965 -0.036277 0.500156 0.02525 0.423429 -0.287659 0.502028 -0.230113 0.48751 -0.531728 0.407258 -0.555713 0.507295 -0.737746 0.42557 -0.737743 0.549081 0.504776 0.547683 0.267679 0.539825 -0.034663 0.537955 -0.256842 0.561501 -0.481179 0.55524 -0.737747 0.033501 0.474286 0.049754 0.263708 0.047455 0.035503 0.073541 -0.23578 0.066045 -0.523498 0.058612 -0.737736 0.211882 0.247945 0.197884 0.526025 0.187381 0.024464 0.190865 -0.241826 0.209909 -0.472969 0.176706 -0.737726 0.411038 0.476332 0.396765 0.19059 0.404921 0.0111 0.394186 -0.258077 0.380986 -0.509212 0.376636 -0.737738 0.758779 -0.523498 0.751345 -0.737736 0.766274 -0.23578 0.740188 0.035503 0.742487 0.263708 0.726234 0.474286 0.565763 0.465092 0.57642 0.229422 0.659588 0.448722 0.65624 0.213524 0.585399 -0.044888 0.705924 0.017435 0.664321 -0.263778 0.585373 -0.290895 0.603187 -0.520518 0.720521 -0.516447 0.706603 -0.73774 0.624842 -0.737743 0.148639 0.481534 0.085275 0.42827 0.145414 0.202067 0.07554 0.191312 0.094387 -0.047266 0.133566 0.014024 0.123336 -0.226957 0.086368 -0.2665 0.104983 -0.524134 0.153779 -0.462058 0.132169 -0.737729 0.094006 -0.737732 0.232572 0.23172 0.323165 0.254522 0.242922 0.456929 0.353822 0.481973 0.342087 -0.012998 0.223883 -0.013384 0.207127 -0.312092 0.327692 -0.25443 0.277414 -0.485389 0.230484 -0.518547 0.209104 -0.737729 0.340561 -0.737735 0.471809 0.46786 0.444648 0.465126 0.490495 0.228801 0.419946 0.184635 0.434965 -0.036277 0.500156 0.02525 0.423429 -0.287659 0.502028 -0.230113 0.48751 -0.531728 0.407258 -0.555713 0.507295 -0.737746 0.42557 -0.737743 0.549081 0.504776 0.547683 0.267679 0.539825 -0.034663 0.537955 -0.256842 0.561501 -0.481179 0.55524 -0.737747 0.033501 0.474286 0.049754 0.263708 0.047455 0.035503 0.073541 -0.23578 0.066045 -0.523498 0.058612 -0.737736 0.211882 0.247945 0.197884 0.526025 0.187381 0.024464 0.190865 -0.241826 0.209909 -0.472969 0.176706 -0.737726 0.411038 0.476332 0.396765 0.19059 0.404921 0.0111 0.394186 -0.258077 0.380986 -0.509212 0.376636 -0.737738 0.758779 -0.523498 0.751345 -0.737736 0.766274 -0.23578 0.740188 0.035503 0.742487 0.263708 0.726234 0.474286</float_array>
          <technique_common>
            <accessor source="#polySurfaceShape1-map1-array" count="234" stride="2">
              <param name="S" type="float" />
              <param name="T" type="float" />
            </accessor>
          </technique_common>
        </source>
        <vertices id="polySurfaceShape1-vertices">
          <input semantic="POSITION" source="#polySurfaceShape1-positions" />
          <input semantic="NORMAL" source="#polySurfaceShape1-normals" />
        </vertices>
        <triangles material="lambert4SG" count="360">
          <input semantic="VERTEX" source="#polySurfaceShape1-vertices" offset="0" />
          <input semantic="TEXCOORD" source="#polySurfaceShape1-map1" offset="1" set="0" />
          <p>1 0 3 2 71 1 3 2 70 3 71 1 3 2 5 4 70 3 5 4 69 5 70 3 69 5 5 4 68 7 5 4 7 6 68 7 9 8 67 9 7 6 7 6 67 9 68 7 67 9 9 8 66 11 9 8 11 10 66 11 59 13 12 12 58 15 12 12 14 14 58 15 14 14 16 16 58 15 16 16 57 17 58 15 56 19 57 17 18 18 16 16 18 18 57 17 20 20 55 21 18 18 18 18 55 21 56 19 55 21 20 20 54 23 20 20 22 22 54 23 26 26 52 27 24 24 24 24 52 27 53 25 52 27 26 26 51 29 26 26 28 28 51 29 28 28 30 30 51 29 30 30 50 31 51 29 50 31 30 30 49 33 30 30 32 32 49 33 34 34 48 35 32 32 32 32 48 35 49 33 65 37 36 36 64 39 36 36 38 38 64 39 40 40 63 41 38 38 38 38 63 41 64 39 42 42 62 43 40 40 40 40 62 43 63 41 62 43 42 42 61 45 42 42 44 44 61 45 60 47 61 45 46 46 44 44 46 46 61 45 0 49 2 50 1 0 1 0 2 50 3 2 2 50 4 51 3 2 3 2 4 51 5 4 7 6 5 4 6 52 5 4 4 51 6 52 7 6 6 52 9 8 6 52 8 53 9 8 9 8 8 53 11 10 8 53 10 70 11 10 12 12 13 54 14 14 13 54 15 55 14 14 16 16 14 14 17 56 14 14 15 55 17 56 18 18 16 16 19 57 16 16 17 56 19 57 19 57 21 58 18 18 18 18 21 58 20 20 20 20 21 58 22 22 21 58 23 48 22 22 27 60 26 26 25 59 24 24 25 59 26 26 28 28 26 26 29 61 26 26 27 60 29 61 30 30 28 28 31 62 28 28 29 61 31 62 32 32 30 30 33 63 30 30 31 62 33 63 35 72 34 34 33 63 32 32 33 63 34 34 36 36 37 64 38 38 37 64 39 65 38 38 40 40 38 38 41 66 38 38 39 65 41 66 41 66 43 67 40 40 40 40 43 67 42 42 44 44 42 42 45 68 42 42 43 67 45 68 47 71 46 46 45 68 44 44 45 68 46 46 45 68 49 33 47 71 49 33 48 35 47 71 43 67 50 31 45 68 50 31 49 33 45 68 43 67 41 66 50 31 51 29 50 31 41 66 51 29 41 66 52 27 52 27 41 66 39 65 37 64 53 25 39 65 53 25 52 27 39 65 33 63 55 21 35 72 55 21 54 23 35 72 56 19 55 21 31 62 55 21 33 63 31 62 31 62 29 61 56 19 57 17 56 19 29 61 58 15 57 17 27 60 57 17 29 61 27 60 58 15 27 60 59 13 59 13 27 60 25 59 10 70 8 53 60 47 61 45 60 47 8 53 62 43 61 45 6 52 61 45 8 53 6 52 62 43 6 52 63 41 63 41 6 52 4 51 4 51 2 50 63 41 64 39 63 41 2 50 65 37 64 39 0 49 64 39 2 50 0 49 21 73 67 9 23 69 67 9 66 11 23 69 68 7 67 9 19 74 67 9 21 73 19 74 19 74 17 75 68 7 69 5 68 7 17 75 15 76 70 3 17 75 70 3 69 5 17 75 71 1 70 3 13 77 70 3 15 76 13 77 73 78 75 79 143 80 75 79 142 81 143 80 75 79 77 82 142 81 77 82 141 83 142 81 141 83 77 82 140 84 77 82 79 85 140 84 81 86 139 87 79 85 79 85 139 87 140 84 139 87 81 86 138 88 81 86 83 89 138 88 131 90 84 91 130 92 84 91 86 93 130 92 86 93 88 94 130 92 88 94 129 95 130 92 128 96 129 95 90 97 88 94 90 97 129 95 92 98 127 99 90 97 90 97 127 99 128 96 127 99 92 98 126 100 92 98 94 101 126 100 98 102 124 103 96 104 96 104 124 103 125 105 124 103 98 102 123 106 98 102 100 107 123 106 100 107 102 108 123 106 102 108 122 109 123 106 122 109 102 108 121 110 102 108 104 111 121 110 106 112 120 113 104 111 104 111 120 113 121 110 137 114 108 115 136 116 108 115 110 117 136 116 112 118 135 119 110 117 110 117 135 119 136 116 114 120 134 121 112 118 112 118 134 121 135 119 134 121 114 120 133 122 114 120 116 123 133 122 132 124 133 122 118 125 116 123 118 125 133 122 72 126 74 127 73 78 73 78 74 127 75 79 74 127 76 128 75 79 75 79 76 128 77 82 79 85 77 82 78 129 77 82 76 128 78 129 79 85 78 129 81 86 78 129 80 130 81 86 81 86 80 130 83 89 80 130 82 131 83 89 84 91 85 132 86 93 85 132 87 133 86 93 88 94 86 93 89 134 86 93 87 133 89 134 90 97 88 94 91 135 88 94 89 134 91 135 91 135 93 136 90 97 90 97 93 136 92 98 92 98 93 136 94 101 93 136 95 137 94 101 99 138 98 102 97 139 96 104 97 139 98 102 100 107 98 102 101 140 98 102 99 138 101 140 102 108 100 107 103 141 100 107 101 140 103 141 104 111 102 108 105 142 102 108 103 141 105 142 107 143 106 112 105 142 104 111 105 142 106 112 108 115 109 144 110 117 109 144 111 145 110 117 112 118 110 117 113 146 110 117 111 145 113 146 113 146 115 147 112 118 112 118 115 147 114 120 116 123 114 120 117 148 114 120 115 147 117 148 119 149 118 125 117 148 116 123 117 148 118 125 117 148 121 110 119 149 121 110 120 113 119 149 115 147 122 109 117 148 122 109 121 110 117 148 115 147 113 146 122 109 123 106 122 109 113 146 123 106 113 146 124 103 124 103 113 146 111 145 109 144 125 105 111 145 125 105 124 103 111 145 105 142 127 99 107 143 127 99 126 100 107 143 128 96 127 99 103 141 127 99 105 142 103 141 103 141 101 140 128 96 129 95 128 96 101 140 130 92 129 95 99 138 129 95 101 140 99 138 130 92 99 138 131 90 131 90 99 138 97 139 82 131 80 130 132 124 133 122 132 124 80 130 134 121 133 122 78 129 133 122 80 130 78 129 134 121 78 129 135 119 135 119 78 129 76 128 76 128 74 127 135 119 136 116 135 119 74 127 137 114 136 116 72 126 136 116 74 127 72 126 93 150 139 87 95 151 139 87 138 88 95 151 140 84 139 87 91 152 139 87 93 150 91 152 91 152 89 153 140 84 141 83 140 84 89 153 87 154 142 81 89 153 142 81 141 83 89 153 143 80 142 81 85 155 142 81 87 154 85 155 145 156 147 157 215 158 147 157 214 159 215 158 147 157 149 160 214 159 149 160 213 161 214 159 213 161 149 160 212 162 149 160 151 163 212 162 153 164 211 165 151 163 151 163 211 165 212 162 211 165 153 164 210 166 153 164 155 167 210 166 203 168 156 169 202 170 156 169 158 171 202 170 158 171 160 172 202 170 160 172 201 173 202 170 200 174 201 173 162 175 160 172 162 175 201 173 164 176 199 177 162 175 162 175 199 177 200 174 199 177 164 176 198 178 164 176 166 179 198 178 170 180 196 181 168 182 168 182 196 181 197 183 196 181 170 180 195 184 170 180 172 185 195 184 172 185 174 186 195 184 174 186 194 187 195 184 194 187 174 186 193 188 174 186 176 189 193 188 178 190 192 191 176 189 176 189 192 191 193 188 209 192 180 193 208 194 180 193 182 195 208 194 184 196 207 197 182 195 182 195 207 197 208 194 186 198 206 199 184 196 184 196 206 199 207 197 206 199 186 198 205 200 186 198 188 201 205 200 204 202 205 200 190 203 188 201 190 203 205 200 144 204 146 205 145 156 145 156 146 205 147 157 146 205 148 206 147 157 147 157 148 206 149 160 151 163 149 160 150 207 149 160 148 206 150 207 151 163 150 207 153 164 150 207 152 208 153 164 153 164 152 208 155 167 152 208 154 209 155 167 156 169 157 210 158 171 157 210 159 211 158 171 160 172 158 171 161 212 158 171 159 211 161 212 162 175 160 172 163 213 160 172 161 212 163 213 163 213 165 214 162 175 162 175 165 214 164 176 164 176 165 214 166 179 165 214 167 215 166 179 171 216 170 180 169 217 168 182 169 217 170 180 172 185 170 180 173 218 170 180 171 216 173 218 174 186 172 185 175 219 172 185 173 218 175 219 176 189 174 186 177 220 174 186 175 219 177 220 179 221 178 190 177 220 176 189 177 220 178 190 180 193 181 222 182 195 181 222 183 223 182 195 184 196 182 195 185 224 182 195 183 223 185 224 185 224 187 225 184 196 184 196 187 225 186 198 188 201 186 198 189 226 186 198 187 225 189 226 191 227 190 203 189 226 188 201 189 226 190 203 189 226 193 188 191 227 193 188 192 191 191 227 187 225 194 187 189 226 194 187 193 188 189 226 187 225 185 224 194 187 195 184 194 187 185 224 195 184 185 224 196 181 196 181 185 224 183 223 181 222 197 183 183 223 197 183 196 181 183 223 177 220 199 177 179 221 199 177 198 178 179 221 200 174 199 177 175 219 199 177 177 220 175 219 175 219 173 218 200 174 201 173 200 174 173 218 202 170 201 173 171 216 201 173 173 218 171 216 202 170 171 216 203 168 203 168 171 216 169 217 154 209 152 208 204 202 205 200 204 202 152 208 206 199 205 200 150 207 205 200 152 208 150 207 206 199 150 207 207 197 207 197 150 207 148 206 148 206 146 205 207 197 208 194 207 197 146 205 209 192 208 194 144 204 208 194 146 205 144 204 165 228 211 165 167 229 211 165 210 166 167 229 212 162 211 165 163 230 211 165 165 228 163 230 163 230 161 231 212 162 213 161 212 162 161 231 159 232 214 159 161 231 214 159 213 161 161 231 215 158 214 159 157 233 214 159 159 232 157 233</p>
        </triangles>
        <polylist material="initialShadingGroup" count="0">
          <input semantic="VERTEX" source="#polySurfaceShape1-vertices" offset="0" />
          <input semantic="TEXCOORD" source="#polySurfaceShape1-map1" offset="1" set="0" />
          <vcount />
          <p />
        </polylist>
      </mesh>
      <extra>
        <technique profile="MAYA">
          <double_sided>1</double_sided>
        </technique>
      </extra>
    </geometry>
  </library_geometries>
  <library_visual_scenes>
    <visual_scene id="VisualSceneNode" name="wall_short">
      <node id="pPlane3" name="pPlane3" type="NODE">
        <rotate sid="rotateZ">0 0 1 0</rotate>
        <rotate sid="rotateY">0 1 0 0</rotate>
        <rotate sid="rotateX">1 0 0 0</rotate>
        <instance_geometry url="#pPlaneShape3">
          <bind_material>
            <technique_common>
              <instance_material symbol="lambert6SG" target="#lambert6">
                <bind_vertex_input semantic="TEX0" input_semantic="TEXCOORD" input_set="0" />
              </instance_material>
            </technique_common>
          </bind_material>
        </instance_geometry>
        <node id="polySurface1" name="polySurface1" type="NODE">
          <translate sid="rotatePivot">0 2 0</translate>
          <rotate sid="rotateZ">0 0 1 0</rotate>
          <rotate sid="rotateY">0 1 0 0</rotate>
          <rotate sid="rotateX">1 0 0 0</rotate>
          <translate sid="rotatePivotInverse">0 -2 0</translate>
          <translate sid="scalePivot">0 2 0</translate>
          <translate sid="scalePivotInverse">0 -2 0</translate>
          <instance_geometry url="#polySurfaceShape1">
            <bind_material>
              <technique_common>
                <instance_material symbol="lambert4SG" target="#lambert4">
                  <bind_vertex_input semantic="TEX0" input_semantic="TEXCOORD" input_set="0" />
                  <bind_vertex_input semantic="TEX1" input_semantic="TEXCOORD" input_set="0" />
                </instance_material>
                <instance_material symbol="initialShadingGroup" target="#lambert1" />
              </technique_common>
            </bind_material>
          </instance_geometry>
        </node>
      </node>
      <extra>
        <technique profile="FCOLLADA">
          <start_time>0.041666</start_time>
          <end_time>2</end_time>
        </technique>
      </extra>
    </visual_scene>
  </library_visual_scenes>
  <scene>
    <instance_physics_scene url="#MayaNativePhysicsScene" />
    <instance_visual_scene url="#VisualSceneNode" />
  </scene>
</COLLADA>