<?xml version="1.0" encoding="utf-8"?>
<COLLADA xmlns="http://www.collada.org/2005/11/COLLADASchema" version="1.4.1">
  <asset><contributor><author></author><authoring_tool>FBX COLLADA exporter</authoring_tool><comments></comments></contributor><created>2018-01-23T23:52:53Z</created><keywords></keywords><modified>2018-01-23T23:52:53Z</modified><revision></revision><subject></subject><title></title><unit meter="0.010000" name="centimeter"></unit><up_axis>Y_UP</up_axis></asset>
  <library_images>
    <image id="file1-image" name="file1"><init_from>file://D:\Games\Steam\steamapps\common\SOMA\mods\AssetPack_Amadeus\assets\static_objects\amadeus\reminiscity\ether\ward\ward_wall_marble_1.dds</init_from></image>
    <image id="file2-image" name="file2"><init_from>file://D:\Games\Steam\steamapps\common\SOMA\mods\AssetPack_Amadeus\assets\static_objects\amadeus\reminiscity\ether\ward\ward_marble_panneling.dds</init_from></image>
  </library_images>
  <library_materials>
    <material id="blinn1" name="blinn1">
      <instance_effect url="#blinn1-fx"/>
    </material>
    <material id="blinn2" name="blinn2">
      <instance_effect url="#blinn2-fx"/>
    </material>
    <material id="blinn3" name="blinn3">
      <instance_effect url="#blinn3-fx"/>
    </material>
  </library_materials>
  <library_effects>
    <effect id="blinn1-fx" name="blinn1">
      <profile_COMMON>
        <technique sid="standard">
          <phong>
            <emission>
              <color sid="emission">0.000000  0.000000 0.000000 1.000000</color>
            </emission>
            <ambient>
              <color sid="ambient">0.000000  0.000000 0.000000 1.000000</color>
            </ambient>
            <diffuse>
              <texture texture="file1-image" texcoord="CHANNEL0">
                <extra>
                  <technique profile="MAYA">
                    <wrapU sid="wrapU0">TRUE</wrapU>
                    <wrapV sid="wrapV0">TRUE</wrapV>
                    <blend_mode>NONE</blend_mode>
                  </technique>
                </extra>
              </texture>
            </diffuse>
            <specular>
              <color sid="specular">0.500000  0.500000 0.500000 1.000000</color>
            </specular>
            <shininess>
              <float sid="shininess">2.000000</float>
            </shininess>
            <reflective>
              <color sid="reflective">0.000000  0.000000 0.000000 1.000000</color>
            </reflective>
            <reflectivity>
              <float sid="reflectivity">0.500000</float>
            </reflectivity>
            <transparent opaque="RGB_ZERO">
              <texture texture="file1-image" texcoord="CHANNEL0">
                <extra>
                  <technique profile="MAYA">
                    <wrapU sid="wrapU0">TRUE</wrapU>
                    <wrapV sid="wrapV0">TRUE</wrapV>
                    <blend_mode>NONE</blend_mode>
                  </technique>
                </extra>
              </texture>
            </transparent>
            <transparency>
              <float sid="transparency">1.000000</float>
            </transparency>
          </phong>
        </technique>
      </profile_COMMON>
    </effect>
    <effect id="blinn2-fx" name="blinn2">
      <profile_COMMON>
        <technique sid="standard">
          <phong>
            <emission>
              <color sid="emission">0.000000  0.000000 0.000000 1.000000</color>
            </emission>
            <ambient>
              <color sid="ambient">0.000000  0.000000 0.000000 1.000000</color>
            </ambient>
            <diffuse>
              <texture texture="file2-image" texcoord="CHANNEL0">
                <extra>
                  <technique profile="MAYA">
                    <wrapU sid="wrapU0">TRUE</wrapU>
                    <wrapV sid="wrapV0">TRUE</wrapV>
                    <blend_mode>NONE</blend_mode>
                  </technique>
                </extra>
              </texture>
            </diffuse>
            <specular>
              <color sid="specular">0.500000  0.500000 0.500000 1.000000</color>
            </specular>
            <shininess>
              <float sid="shininess">2.000000</float>
            </shininess>
            <reflective>
              <color sid="reflective">0.000000  0.000000 0.000000 1.000000</color>
            </reflective>
            <reflectivity>
              <float sid="reflectivity">0.500000</float>
            </reflectivity>
            <transparent opaque="RGB_ZERO">
              <texture texture="file2-image" texcoord="CHANNEL0">
                <extra>
                  <technique profile="MAYA">
                    <wrapU sid="wrapU0">TRUE</wrapU>
                    <wrapV sid="wrapV0">TRUE</wrapV>
                    <blend_mode>NONE</blend_mode>
                  </technique>
                </extra>
              </texture>
            </transparent>
            <transparency>
              <float sid="transparency">1.000000</float>
            </transparency>
          </phong>
        </technique>
      </profile_COMMON>
    </effect>
    <effect id="blinn3-fx" name="blinn3">
      <profile_COMMON>
        <technique sid="standard">
          <phong>
            <emission>
              <color sid="emission">0.000000  0.000000 0.000000 1.000000</color>
            </emission>
            <ambient>
              <color sid="ambient">0.000000  0.000000 0.000000 1.000000</color>
            </ambient>
            <diffuse>
              <texture texture="file2-image" texcoord="CHANNEL0">
                <extra>
                  <technique profile="MAYA">
                    <wrapU sid="wrapU0">TRUE</wrapU>
                    <wrapV sid="wrapV0">TRUE</wrapV>
                    <blend_mode>NONE</blend_mode>
                  </technique>
                </extra>
              </texture>
            </diffuse>
            <specular>
              <color sid="specular">0.500000  0.500000 0.500000 1.000000</color>
            </specular>
            <shininess>
              <float sid="shininess">2.000000</float>
            </shininess>
            <reflective>
              <color sid="reflective">0.000000  0.000000 0.000000 1.000000</color>
            </reflective>
            <reflectivity>
              <float sid="reflectivity">0.500000</float>
            </reflectivity>
            <transparent opaque="RGB_ZERO">
              <texture texture="file2-image" texcoord="CHANNEL0">
                <extra>
                  <technique profile="MAYA">
                    <wrapU sid="wrapU0">TRUE</wrapU>
                    <wrapV sid="wrapV0">TRUE</wrapV>
                    <blend_mode>NONE</blend_mode>
                  </technique>
                </extra>
              </texture>
            </transparent>
            <transparency>
              <float sid="transparency">1.000000</float>
            </transparency>
          </phong>
        </technique>
      </profile_COMMON>
    </effect>
  </library_effects>
  <library_geometries>
    <geometry id="pPlane1-lib" name="pPlane1Mesh">
      <mesh>
        <source id="pPlane1-POSITION">
          <float_array id="pPlane1-POSITION-array" count="12">
-0.500000 0.000000 0.500000
-0.500000 0.000000 -0.500000
0.000000 0.000000 -0.500000
0.000000 0.000000 0.500000
</float_array>
          <technique_common>
            <accessor source="#pPlane1-POSITION-array" count="4" stride="3">
              <param name="X" type="float"/>
              <param name="Y" type="float"/>
              <param name="Z" type="float"/>
            </accessor>
          </technique_common>
        </source>
        <source id="pPlane1-Normal0">
          <float_array id="pPlane1-Normal0-array" count="12">
0.000000 1.000000 0.000000
0.000000 1.000000 0.000000
0.000000 1.000000 0.000000
0.000000 1.000000 0.000000
</float_array>
          <technique_common>
            <accessor source="#pPlane1-Normal0-array" count="4" stride="3">
              <param name="X" type="float"/>
              <param name="Y" type="float"/>
              <param name="Z" type="float"/>
            </accessor>
          </technique_common>
        </source>
        <source id="pPlane1-UV0">
          <float_array id="pPlane1-UV0-array" count="8">
0.000000 0.000000
0.000000 1.000000
0.500001 0.999975
0.500001 0.000000
</float_array>
          <technique_common>
            <accessor source="#pPlane1-UV0-array" count="4" stride="2">
              <param name="S" type="float"/>
              <param name="T" type="float"/>
            </accessor>
          </technique_common>
        </source>
        <vertices id="pPlane1-VERTEX">
          <input semantic="POSITION" source="#pPlane1-POSITION"/>
          <input semantic="NORMAL" source="#pPlane1-Normal0"/>
        </vertices>
        <triangles count="2" material="blinn1"><input semantic="VERTEX" offset="0" source="#pPlane1-VERTEX"/><input semantic="TEXCOORD" offset="1" set="0" source="#pPlane1-UV0"/><p> 1 1 0 0 2 2 2 2 0 0 3 3</p></triangles>
      </mesh>
    </geometry>
    <geometry id="pCube1-lib" name="pCube1Mesh">
      <mesh>
        <source id="pCube1-POSITION">
          <float_array id="pCube1-POSITION-array" count="48">
-0.500000 -0.500000 0.500000
-0.500000 0.750000 0.500000
-0.500000 0.794204 0.375000
-0.500000 0.636669 0.500000
-0.500000 0.611494 0.468912
-0.500000 -0.388764 0.500000
-0.500000 -0.334291 0.468912
-0.500000 0.786829 0.443985
0.000000 -0.500000 0.500000
0.000000 -0.388764 0.500000
0.000000 -0.334291 0.468912
0.000000 0.611494 0.468912
0.000000 0.636669 0.500000
0.000000 0.750000 0.500000
0.000000 0.786829 0.443985
0.000000 0.794204 0.375000
</float_array>
          <technique_common>
            <accessor source="#pCube1-POSITION-array" count="16" stride="3">
              <param name="X" type="float"/>
              <param name="Y" type="float"/>
              <param name="Z" type="float"/>
            </accessor>
          </technique_common>
        </source>
        <source id="pCube1-Normal0">
          <float_array id="pCube1-Normal0-array" count="126">
0.000000 0.000000 1.000000
0.000000 -0.283447 0.958988
0.000000 0.000000 1.000000
0.000000 0.000000 1.000000
0.000000 -0.283447 0.958988
0.000000 -0.566893 0.823791
0.000000 0.994335 0.106296
0.000000 0.965479 0.260481
0.000000 0.994335 0.106296
0.000000 0.994335 0.106296
0.000000 0.965479 0.260481
0.000000 0.911207 0.411949
0.000000 -0.283447 0.958988
0.000000 -0.566893 0.823791
0.000000 -0.566893 0.823791
0.000000 -0.566893 0.823791
0.000000 -0.566893 0.823791
0.000000 -0.283447 0.958988
0.000000 -0.566893 0.823791
0.000000 0.170273 0.985397
0.000000 -0.283447 0.958988
0.000000 -0.283447 0.958988
0.000000 0.170273 0.985397
0.000000 0.340546 0.940228
0.000000 0.340546 0.940228
0.000000 0.000000 1.000000
0.000000 0.170273 0.985397
0.000000 0.170273 0.985397
0.000000 0.000000 1.000000
0.000000 0.000000 1.000000
0.000000 0.170273 0.985397
0.000000 0.340546 0.940228
0.000000 0.340546 0.940228
0.000000 0.340546 0.940228
0.000000 0.340546 0.940228
0.000000 0.170273 0.985397
0.000000 0.965479 0.260481
0.000000 0.835576 0.549374
0.000000 0.911207 0.411949
0.000000 0.911207 0.411949
0.000000 0.835576 0.549374
0.000000 0.835576 0.549374
</float_array>
          <technique_common>
            <accessor source="#pCube1-Normal0-array" count="42" stride="3">
              <param name="X" type="float"/>
              <param name="Y" type="float"/>
              <param name="Z" type="float"/>
            </accessor>
          </technique_common>
        </source>
        <source id="pCube1-UV0">
          <float_array id="pCube1-UV0-array" count="36">
0.001728 0.316425
0.004396 0.345022
0.005947 0.000000
0.005947 0.346010
0.005947 0.315584
0.005947 0.308595
0.005947 0.030884
0.005947 0.046007
0.003106 0.331831
0.501318 0.000000
0.501318 0.030854
0.501318 0.046011
0.501318 0.308591
0.501318 0.315610
0.499208 0.316510
0.501318 0.345951
0.499209 0.331771
0.499209 0.344955
</float_array>
          <technique_common>
            <accessor source="#pCube1-UV0-array" count="18" stride="2">
              <param name="S" type="float"/>
              <param name="T" type="float"/>
            </accessor>
          </technique_common>
        </source>
        <vertices id="pCube1-VERTEX">
          <input semantic="POSITION" source="#pCube1-POSITION"/>
        </vertices>
        <triangles count="14" material="blinn2"><input semantic="VERTEX" offset="0" source="#pCube1-VERTEX"/><input semantic="NORMAL" offset="1" source="#pCube1-Normal0"/><input semantic="TEXCOORD" offset="2" set="0" source="#pCube1-UV0"/><p> 1 0 3 3 1 4 13 2 15 13 3 15 3 4 4 12 5 13 2 6 1 7 7 8 15 8 17 15 9 17 7 10 8 14 11 16 3 12 4 4 13 5 12 14 13 12 15 13 4 16 5 11 17 12 4 18 5 6 19 7 11 20 12 11 21 12 6 22 7 10 23 11 5 24 6 0 25 2 9 26 10 9 27 10 0 28 2 8 29 9 6 30 7 5 31 6 10 32 11 10 33 11 5 34 6 9 35 10 7 36 8 1 37 0 14 38 16 14 39 16 1 40 0 13 41 14</p></triangles>
      </mesh>
    </geometry>
    <geometry id="pPlane2-lib" name="pPlane2Mesh">
      <mesh>
        <source id="pPlane2-POSITION">
          <float_array id="pPlane2-POSITION-array" count="24">
-0.500000 0.000000 0.250000
-0.500000 0.096366 0.013867
-0.500000 0.133675 -0.218007
-0.500000 0.250000 -0.500000
0.000000 0.250000 -0.500000
0.000000 0.133675 -0.218007
0.000000 0.096366 0.013867
0.000000 0.000000 0.250000
</float_array>
          <technique_common>
            <accessor source="#pPlane2-POSITION-array" count="8" stride="3">
              <param name="X" type="float"/>
              <param name="Y" type="float"/>
              <param name="Z" type="float"/>
            </accessor>
          </technique_common>
        </source>
        <source id="pPlane2-Normal0">
          <float_array id="pPlane2-Normal0-array" count="24">
0.000000 0.925868 0.377848
0.000000 0.972429 0.233199
0.000000 0.951056 0.309020
0.000000 0.924435 0.381340
0.000000 0.924435 0.381340
0.000000 0.972137 0.234415
0.000000 0.951832 0.306619
0.000000 0.925868 0.377848
</float_array>
          <technique_common>
            <accessor source="#pPlane2-Normal0-array" count="8" stride="3">
              <param name="X" type="float"/>
              <param name="Y" type="float"/>
              <param name="Z" type="float"/>
            </accessor>
          </technique_common>
        </source>
        <source id="pPlane2-UV0">
          <float_array id="pPlane2-UV0-array" count="16">
0.000000 0.887599
0.000000 0.925530
0.000000 0.952531
0.000000 0.997629
0.499999 0.997617
0.500000 0.952587
0.500000 0.925466
0.499999 0.887613
</float_array>
          <technique_common>
            <accessor source="#pPlane2-UV0-array" count="8" stride="2">
              <param name="S" type="float"/>
              <param name="T" type="float"/>
            </accessor>
          </technique_common>
        </source>
        <vertices id="pPlane2-VERTEX">
          <input semantic="POSITION" source="#pPlane2-POSITION"/>
          <input semantic="NORMAL" source="#pPlane2-Normal0"/>
        </vertices>
        <triangles count="6" material="blinn3"><input semantic="VERTEX" offset="0" source="#pPlane2-VERTEX"/><input semantic="TEXCOORD" offset="1" set="0" source="#pPlane2-UV0"/><p> 3 3 2 2 4 4 4 4 2 2 5 5 2 2 1 1 5 5 5 5 1 1 6 6 1 1 0 0 6 6 6 6 0 0 7 7</p></triangles>
      </mesh>
    </geometry>
  </library_geometries>
  <library_visual_scenes>
    <visual_scene id="ward_wall_marble_1_default_short" name="ward_wall_marble_1_default_short">
      <node name="pPlane1" id="pPlane1" sid="pPlane1"><matrix sid="matrix">400.000000 0.000000 0.000000 100.000000 0.000000 0.000000 -400.000000 325.000000 0.000000 100.000000 0.000000 0.000000 0.000000 0.000000 0.000000 1.000000</matrix><instance_geometry url="#pPlane1-lib"><bind_material><technique_common><instance_material symbol="blinn1" target="#blinn1"/></technique_common></bind_material></instance_geometry><extra><technique profile="FCOLLADA"><visibility>1.000000</visibility></technique></extra></node>
      <node name="pCube1" id="pCube1" sid="pCube1"><matrix sid="matrix">400.000000 0.000000 0.000000 100.000000 0.000000 100.000000 0.000000 50.000000 0.000000 0.000000 100.000000 -37.500000 0.000000 0.000000 0.000000 1.000000</matrix><instance_geometry url="#pCube1-lib"><bind_material><technique_common><instance_material symbol="blinn2" target="#blinn2"/></technique_common></bind_material></instance_geometry><extra><technique profile="FCOLLADA"><visibility>1.000000</visibility></technique></extra></node>
      <node name="pPlane2" id="pPlane2" sid="pPlane2"><matrix sid="matrix">400.000000 0.000000 0.000000 100.000000 0.000000 0.000000 -50.000000 500.000000 0.000000 100.000000 0.000000 0.000000 0.000000 0.000000 0.000000 1.000000</matrix><instance_geometry url="#pPlane2-lib"><bind_material><technique_common><instance_material symbol="blinn3" target="#blinn3"/></technique_common></bind_material></instance_geometry><extra><technique profile="FCOLLADA"><visibility>1.000000</visibility></technique></extra></node>
      <node name="pCube2" id="pCube2" sid="pCube2"><matrix sid="matrix">50.000000 0.000000 0.000000 -225.000000 0.000000 525.000000 0.000000 262.500000 0.000000 0.000000 50.000000 0.000000 0.000000 0.000000 0.000000 1.000000</matrix><extra><technique profile="FCOLLADA"><visibility>1.000000</visibility></technique></extra></node>
      <node name="pCube3" id="pCube3" sid="pCube3"><matrix sid="matrix">13.174710 0.000000 0.000000 -225.000000 0.000000 404.392200 0.000000 251.363998 0.000000 0.000000 100.000000 60.609329 0.000000 0.000000 0.000000 1.000000</matrix><extra><technique profile="FCOLLADA"><visibility>1.000000</visibility></technique></extra></node>
      <node name="polySurface1" id="polySurface1" sid="polySurface1"><matrix sid="matrix">100.000000 0.000000 0.000000 0.000000 0.000000 100.000000 0.000000 0.000000 0.000000 0.000000 100.000000 0.000000 0.000000 0.000000 0.000000 1.000000</matrix><extra><technique profile="FCOLLADA"><visibility>1.000000</visibility></technique></extra></node>
      <node name="pCube4" id="pCube4" sid="pCube4"><matrix sid="matrix">100.000000 0.000000 0.000000 -277.807709 0.000000 401.983800 0.000000 251.900894 0.000000 0.000000 15.240380 0.000000 0.000000 0.000000 0.000000 1.000000</matrix><extra><technique profile="FCOLLADA"><visibility>1.000000</visibility></technique></extra></node>
      <node name="pCube5" id="pCube5" sid="pCube5"><matrix sid="matrix">100.000000 0.000000 0.000000 -154.485596 0.000000 401.983800 0.000000 251.900894 0.000000 0.000000 15.240380 0.000000 0.000000 0.000000 0.000000 1.000000</matrix><extra><technique profile="FCOLLADA"><visibility>1.000000</visibility></technique></extra></node>
      <node name="polySurface2" id="polySurface2" sid="polySurface2"><matrix sid="matrix">100.000000 0.000000 0.000000 0.000000 0.000000 100.000000 0.000000 0.000000 0.000000 0.000000 100.000000 0.000000 0.000000 0.000000 0.000000 1.000000</matrix><extra><technique profile="FCOLLADA"><visibility>1.000000</visibility></technique></extra></node>
      <node name="polySurface4" id="polySurface4" sid="polySurface4"><matrix sid="matrix">100.000000 0.000000 0.000000 0.000000 0.000000 100.000000 0.000000 0.000000 0.000000 0.000000 100.000000 587.500000 0.000000 0.000000 0.000000 1.000000</matrix><extra><technique profile="FCOLLADA"><visibility>1.000000</visibility></technique></extra></node>
      <node name="pCube6" id="pCube6" sid="pCube6"><matrix sid="matrix">14.049410 0.000000 0.000000 -226.139008 0.000000 401.593100 0.000000 252.131104 0.000000 0.000000 100.000000 515.865906 0.000000 0.000000 0.000000 1.000000</matrix><extra><technique profile="FCOLLADA"><visibility>1.000000</visibility></technique></extra></node>
      <extra><technique profile="MAX3D"><frame_rate>30.000000</frame_rate></technique><technique profile="FCOLLADA"><start_time>0.000000</start_time><end_time>1.000000</end_time></technique></extra>
    </visual_scene>
  </library_visual_scenes>
  <scene>
    <instance_visual_scene url="#ward_wall_marble_1_default_short"></instance_visual_scene>
  </scene>
</COLLADA>
