<?xml version="1.0" encoding="utf-8"?>
<COLLADA xmlns="http://www.collada.org/2005/11/COLLADASchema" version="1.4.1">
  <asset>
    <contributor>
      <author></author>
      <authoring_tool>FBX COLLADA exporter</authoring_tool>
      <comments></comments>
    </contributor>
    <created>2013-01-19T10:19:52Z</created>
    <keywords></keywords>
    <modified>2013-01-19T10:19:52Z</modified>
    <revision></revision>
    <subject></subject>
    <title></title>
    <unit meter="1.000000" name="centimeter"></unit>
    <up_axis>Z_UP</up_axis>
  </asset>
  <library_images>
    <image id="Map #48-image" name="Map #48">
      <init_from>file://C:\AMFP_Raw_data\StaticObjects\sewers\ceiling01.psd</init_from>
    </image>
    <image id="Map #47-image" name="Map #47">
      <init_from>file://C:\AMFP_Raw_data\StaticObjects\sewers\sewer_bulkhead.psd</init_from>
    </image>
  </library_images>
  <library_materials>
    <material id="Material #431" name="Material #431">
      <instance_effect url="#Material #431-fx"/>
    </material>
    <material id="Material #430" name="Material #430">
      <instance_effect url="#Material #430-fx"/>
    </material>
  </library_materials>
  <library_effects>
    <effect id="Material #431-fx" name="Material #431">
      <profile_COMMON>
        <technique sid="standard">
          <phong>
            <emission>
              <color sid="emission">0.000000  0.000000 0.000000 1.000000</color>
            </emission>
            <ambient>
              <color sid="ambient">0.588000  0.588000 0.588000 1.000000</color>
            </ambient>
            <diffuse>
              <texture texture="Map #48-image" texcoord="CHANNEL0">
                <extra>
                  <technique profile="MAYA">
                    <wrapU sid="wrapU0">TRUE</wrapU>
                    <wrapV sid="wrapV0">TRUE</wrapV>
                    <blend_mode>ADD</blend_mode>
                  </technique>
                </extra>
              </texture>
            </diffuse>
            <specular>
              <color sid="specular">0.000000  0.000000 0.000000 1.000000</color>
            </specular>
            <shininess>
              <float sid="shininess">2.000000</float>
            </shininess>
            <reflective>
              <color sid="reflective">0.000000  0.000000 0.000000 1.000000</color>
            </reflective>
            <reflectivity>
              <float sid="reflectivity">1.000000</float>
            </reflectivity>
            <transparent opaque="RGB_ZERO">
              <color sid="transparent">1.000000  1.000000 1.000000 1.000000</color>
            </transparent>
            <transparency>
              <float sid="transparency">0.000000</float>
            </transparency>
          </phong>
        </technique>
      </profile_COMMON>
    </effect>
    <effect id="Material #430-fx" name="Material #430">
      <profile_COMMON>
        <technique sid="standard">
          <phong>
            <emission>
              <color sid="emission">0.000000  0.000000 0.000000 1.000000</color>
            </emission>
            <ambient>
              <color sid="ambient">0.588000  0.588000 0.588000 1.000000</color>
            </ambient>
            <diffuse>
              <texture texture="Map #47-image" texcoord="CHANNEL0">
                <extra>
                  <technique profile="MAYA">
                    <wrapU sid="wrapU0">TRUE</wrapU>
                    <wrapV sid="wrapV0">TRUE</wrapV>
                    <blend_mode>ADD</blend_mode>
                  </technique>
                </extra>
              </texture>
            </diffuse>
            <specular>
              <color sid="specular">0.000000  0.000000 0.000000 1.000000</color>
            </specular>
            <shininess>
              <float sid="shininess">2.000000</float>
            </shininess>
            <reflective>
              <color sid="reflective">0.000000  0.000000 0.000000 1.000000</color>
            </reflective>
            <reflectivity>
              <float sid="reflectivity">1.000000</float>
            </reflectivity>
            <transparent opaque="RGB_ZERO">
              <color sid="transparent">1.000000  1.000000 1.000000 1.000000</color>
            </transparent>
            <transparency>
              <float sid="transparency">0.000000</float>
            </transparency>
          </phong>
        </technique>
      </profile_COMMON>
    </effect>
  </library_effects>
  <library_geometries>
    <geometry id="wall_ends-lib" name="wall_endsMesh">
      <mesh>
        <source id="wall_ends-POSITION">
          <float_array id="wall_ends-POSITION-array" count="48">
1.540000 -0.105327 0.000000
1.540000 0.105327 0.000000
1.540000 -0.105327 3.000000
1.540000 0.105327 3.000000
-0.728750 0.105327 0.000000
0.728750 0.105327 0.000000
0.728750 -0.105327 0.000000
-0.728750 -0.105327 0.000000
-0.728750 -0.105327 3.000000
0.728750 -0.105327 3.000000
0.728750 0.105327 3.000000
-0.728750 0.105327 3.000000
-0.987937 0.105327 0.000000
-0.987937 -0.105327 3.000000
-0.987937 -0.105327 0.000000
-0.987937 0.105327 3.000000
</float_array>
          <technique_common>
            <accessor source="#wall_ends-POSITION-array" count="16" stride="3">
              <param name="X" type="float"/>
              <param name="Y" type="float"/>
              <param name="Z" type="float"/>
            </accessor>
          </technique_common>
        </source>
        <source id="wall_ends-Normal0">
          <float_array id="wall_ends-Normal0-array" count="180">
1.000000 0.000000 0.000000
1.000000 0.000000 0.000000
1.000000 0.000000 0.000000
1.000000 0.000000 0.000000
1.000000 0.000000 0.000000
1.000000 0.000000 0.000000
-1.000000 0.000000 0.000000
-1.000000 0.000000 0.000000
-1.000000 0.000000 0.000000
-1.000000 0.000000 0.000000
-1.000000 0.000000 0.000000
-1.000000 0.000000 0.000000
0.000000 0.000000 -1.000000
0.000000 0.000000 -1.000000
0.000000 0.000000 -1.000000
0.000000 0.000000 -1.000000
0.000000 0.000000 -1.000000
0.000000 0.000000 -1.000000
0.000000 0.000000 -1.000000
0.000000 0.000000 -1.000000
0.000000 0.000000 -1.000000
0.000000 0.000000 -1.000000
0.000000 0.000000 -1.000000
0.000000 0.000000 -1.000000
0.000000 0.000000 1.000000
0.000000 0.000000 1.000000
0.000000 0.000000 1.000000
0.000000 0.000000 1.000000
0.000000 0.000000 1.000000
0.000000 0.000000 1.000000
0.000000 0.000000 1.000000
0.000000 0.000000 1.000000
0.000000 0.000000 1.000000
0.000000 0.000000 1.000000
0.000000 0.000000 1.000000
0.000000 0.000000 1.000000
0.000000 -1.000000 -0.000000
0.000000 -1.000000 -0.000000
0.000000 -1.000000 -0.000000
0.000000 -1.000000 -0.000000
0.000000 -1.000000 -0.000000
0.000000 -1.000000 -0.000000
0.000000 -1.000000 -0.000000
0.000000 -1.000000 -0.000000
0.000000 -1.000000 -0.000000
0.000000 -1.000000 -0.000000
0.000000 -1.000000 -0.000000
0.000000 -1.000000 -0.000000
0.000000 1.000000 0.000000
0.000000 1.000000 0.000000
0.000000 1.000000 0.000000
0.000000 1.000000 0.000000
0.000000 1.000000 0.000000
0.000000 1.000000 0.000000
0.000000 1.000000 0.000000
0.000000 1.000000 0.000000
0.000000 1.000000 0.000000
0.000000 1.000000 0.000000
0.000000 1.000000 0.000000
0.000000 1.000000 0.000000
</float_array>
          <technique_common>
            <accessor source="#wall_ends-Normal0-array" count="60" stride="3">
              <param name="X" type="float"/>
              <param name="Y" type="float"/>
              <param name="Z" type="float"/>
            </accessor>
          </technique_common>
        </source>
        <source id="wall_ends-UV0">
          <float_array id="wall_ends-UV0-array" count="72">
1.000000 0.000000
1.000000 0.000000
1.000000 1.000000
1.000000 1.000000
0.703923 0.000000
0.703923 0.000000
0.171989 0.000000
0.171989 0.000000
0.703923 1.000000
0.703923 1.000000
0.171989 1.000000
0.171989 1.000000
0.868084 0.026505
0.934580 0.026499
0.934580 0.973501
0.868084 0.973493
0.024889 0.038026
0.089766 0.038027
0.089766 0.961974
0.024889 0.961976
0.934536 -0.229587
0.868040 -0.229575
0.089768 -0.107110
0.024890 -0.107111
0.868029 1.229573
0.934524 1.229588
0.024897 1.107114
0.089775 1.107110
0.024890 -0.027286
0.077395 0.000000
0.089770 1.027285
0.077395 1.000000
0.089767 -0.027285
0.077395 0.000000
0.024893 1.027288
0.077395 1.000000
</float_array>
          <technique_common>
            <accessor source="#wall_ends-UV0-array" count="36" stride="2">
              <param name="S" type="float"/>
              <param name="T" type="float"/>
            </accessor>
          </technique_common>
        </source>
        <vertices id="wall_ends-VERTEX">
          <input semantic="POSITION" source="#wall_ends-POSITION"/>
        </vertices>
        <polylist count="20" material="Material #431">
          <input semantic="VERTEX" offset="0" source="#wall_ends-VERTEX"/>
          <input semantic="NORMAL" offset="1" source="#wall_ends-Normal0"/>
          <input semantic="TEXCOORD" offset="2" set="0" source="#wall_ends-UV0"/>
          <vcount>3 3 3 3 3 3 3 3 3 3 3 3 3 3 3 3 3 3 3 3 </vcount>
          <p> 0 0 12 1 1 13 3 2 14 3 3 14 2 4 15 0 5 12 12 6 16 14 7 17 13 8 18 13 9 18 15 10 19 12 11 16 1 12 13 0 13 12 6 14 21 6 15 21 5 16 20 1 17 13 14 18 32 12 19 28 4 20 23 4 21 23 7 22 22 14 23 32 2 24 15 3 25 14 10 26 25 10 27 25 9 28 24 2 29 15 15 30 34 13 31 30 8 32 27 8 33 27 11 34 26 15 35 34 0 36 0 2 37 3 9 38 8 9 39 8 6 40 5 0 41 0 13 42 31 14 43 33 7 44 6 7 45 6 8 46 11 13 47 31 12 48 29 15 49 35 11 50 10 11 51 10 4 52 7 12 53 29 3 54 2 1 55 1 5 56 4 5 57 4 10 58 9 3 59 2</p>
        </polylist>
      </mesh>
    </geometry>
    <geometry id="bulkhead_frame-lib" name="bulkhead_frameMesh">
      <mesh>
        <source id="bulkhead_frame-POSITION">
          <float_array id="bulkhead_frame-POSITION-array" count="600">
0.000000 0.046373 0.044827
0.000000 -0.089143 0.060000
0.000000 -0.061071 0.090827
0.057491 0.061384 0.090827
0.057342 -0.061071 0.090827
0.058760 -0.089143 0.094827
0.183314 -0.089143 0.094827
0.183314 -0.062376 0.094827
0.058760 -0.062376 0.094827
0.542909 -0.089143 0.094827
0.631891 -0.089143 0.094827
0.542909 -0.062376 0.094827
0.425398 -0.089143 0.094827
0.425398 -0.062376 0.094827
0.300835 -0.089143 0.094827
0.300835 -0.062376 0.094827
0.484154 -0.139143 0.000000
0.058760 -0.139143 0.000000
0.242074 -0.139143 0.000000
0.728750 -0.139143 0.000000
0.544277 0.062689 0.094827
0.631891 0.051703 0.094827
0.631891 0.089143 0.094827
0.542909 0.089143 0.094827
0.425398 0.089143 0.094827
0.426452 0.062689 0.094827
0.058760 0.089143 0.094827
0.058913 0.062689 0.094827
0.300835 0.089143 0.094827
0.301595 0.062689 0.094827
0.183314 0.089143 0.094827
0.183770 0.062689 0.094827
0.242074 0.139143 0.000000
0.058760 0.139143 0.000000
0.484154 0.139143 0.000000
0.728750 0.139143 0.000000
0.000000 -0.046060 0.044827
0.041035 -0.046060 0.044827
0.041146 0.046373 0.044827
0.441938 0.046373 0.044827
0.441164 -0.046060 0.044827
0.527465 -0.046060 0.044827
0.528469 0.046373 0.044827
0.199336 0.046373 0.044827
0.199001 -0.046060 0.044827
0.285309 -0.046060 0.044827
0.285867 0.046373 0.044827
0.631891 -0.089144 3.000000
0.668750 -0.089144 3.000000
0.668750 0.089143 3.000000
0.631891 0.089143 3.000000
0.484154 0.089143 0.060000
0.242074 -0.089143 0.060000
0.058760 0.089143 0.060000
0.242074 0.089143 0.060000
0.668750 0.089143 0.060000
0.668750 -0.089143 0.060000
0.484154 -0.089143 0.060000
0.058760 -0.089143 0.060000
0.718750 -0.139144 3.000000
0.728750 -0.139144 3.000000
0.728750 0.139143 3.000000
0.718750 0.139143 3.000000
0.242074 -0.139143 0.024645
0.242074 0.139143 0.024645
0.058760 -0.139143 0.024645
0.704105 -0.139143 0.024645
0.484154 -0.139143 0.024645
0.704105 0.139143 0.024645
0.484154 0.139143 0.024645
0.058760 0.139143 0.024645
0.631891 -0.089144 2.861558
0.728750 -0.139144 2.861558
0.631891 0.051703 2.861558
0.631891 0.089143 2.861558
0.728750 0.139143 2.861558
0.668750 0.089143 2.861558
0.668750 -0.089144 2.861558
0.718172 -0.139144 2.861558
0.718172 0.139143 2.861558
0.631891 -0.089144 0.231160
0.728750 -0.139144 0.231160
0.631891 0.089143 0.231160
0.631891 0.051703 0.231160
0.728750 0.139143 0.231160
0.668750 -0.089144 0.231160
0.668750 0.089143 0.231160
0.707181 0.139143 0.231160
0.707181 -0.139144 0.231160
0.551891 0.011703 2.861558
0.551891 0.011703 0.231160
0.583491 0.011703 0.231160
0.583491 0.011703 2.861558
0.583491 0.051703 0.231160
0.551891 0.089143 0.231160
0.583491 0.051703 2.861558
0.551891 0.089143 2.861558
-0.242074 0.139143 0.000000
-0.484154 0.139143 0.000000
-0.484154 -0.139143 0.000000
-0.242074 -0.139143 0.000000
-0.728750 -0.139144 0.231160
-0.728750 -0.139143 0.000000
-0.728750 0.139143 0.000000
-0.728750 0.139143 0.231160
-0.704105 0.139143 0.024645
-0.707181 0.139143 0.231160
-0.728750 -0.139144 3.000000
-0.718750 -0.139144 3.000000
-0.718172 -0.139144 2.861558
-0.728750 -0.139144 2.861558
-0.484154 -0.139143 0.024645
-0.242074 -0.139143 0.024645
-0.631891 -0.089144 3.000000
-0.631891 0.089143 3.000000
-0.631891 0.089143 2.861558
-0.631891 0.051703 2.861558
-0.631891 -0.089144 2.861558
-0.542909 0.089143 0.094827
-0.544277 0.062689 0.094827
-0.631891 0.051703 0.094827
-0.631891 0.089143 0.094827
-0.484154 0.089143 0.060000
-0.484154 0.139143 0.024645
-0.242074 0.139143 0.024645
-0.242074 0.089143 0.060000
-0.718172 0.139143 2.861558
-0.668750 0.089143 2.861558
-0.668750 0.089143 3.000000
-0.718750 0.139143 3.000000
-0.704105 -0.139143 0.024645
-0.707181 -0.139144 0.231160
-0.668750 -0.089144 0.231160
-0.668750 -0.089143 0.060000
-0.425398 0.089143 0.094827
-0.300835 0.089143 0.094827
-0.631891 -0.089144 0.231160
-0.631891 -0.089143 0.094827
-0.183314 -0.089143 0.094827
-0.242074 -0.089143 0.060000
-0.300835 -0.089143 0.094827
-0.631891 0.051703 0.231160
-0.631891 0.089143 0.231160
-0.728750 0.139143 2.861558
-0.668750 0.089143 0.060000
-0.668750 0.089143 0.231160
-0.668750 -0.089144 2.861558
-0.728750 0.139143 3.000000
-0.668750 -0.089144 3.000000
-0.583491 0.051703 2.861558
-0.583491 0.051703 0.231160
-0.551891 0.089143 0.231160
-0.551891 0.089143 2.861558
-0.583491 0.011703 0.231160
-0.583491 0.011703 2.861558
-0.551891 0.011703 2.861558
-0.551891 0.011703 0.231160
-0.041146 0.046373 0.044827
-0.041035 -0.046060 0.044827
-0.528469 0.046373 0.044827
-0.441938 0.046373 0.044827
-0.441164 -0.046060 0.044827
-0.527465 -0.046060 0.044827
-0.285867 0.046373 0.044827
-0.199336 0.046373 0.044827
-0.199001 -0.046060 0.044827
-0.285309 -0.046060 0.044827
-0.183770 0.062689 0.094827
-0.058913 0.062689 0.094827
-0.058760 -0.062376 0.094827
-0.183314 -0.062376 0.094827
-0.058760 -0.089143 0.094827
-0.300835 -0.062376 0.094827
-0.425398 -0.062376 0.094827
-0.426452 0.062689 0.094827
-0.301595 0.062689 0.094827
0.000000 0.139143 0.000000
-0.058760 0.139143 0.000000
-0.058760 -0.139143 0.000000
0.000000 -0.139143 0.000000
-0.058760 -0.139143 0.024645
0.000000 -0.139143 0.024645
-0.058760 0.089143 0.060000
-0.058760 0.139143 0.024645
0.000000 0.139143 0.024645
0.000000 0.089143 0.060000
-0.058760 0.089143 0.094827
0.000000 0.089143 0.094827
-0.183314 0.089143 0.094827
-0.484154 -0.089143 0.060000
-0.058760 -0.089143 0.060000
-0.542909 -0.089143 0.094827
-0.425398 -0.089143 0.094827
0.000000 -0.089143 0.094827
-0.542909 -0.062376 0.094827
0.000000 -0.062376 0.094827
0.000000 0.062689 0.094827
0.000000 0.061384 0.090827
-0.057491 0.061384 0.090827
-0.057342 -0.061071 0.090827
</float_array>
          <technique_common>
            <accessor source="#bulkhead_frame-POSITION-array" count="200" stride="3">
              <param name="X" type="float"/>
              <param name="Y" type="float"/>
              <param name="Z" type="float"/>
            </accessor>
          </technique_common>
        </source>
        <source id="bulkhead_frame-Normal0">
          <float_array id="bulkhead_frame-Normal0-array" count="3564">
0.000000 0.000000 -1.000000
0.000000 0.000000 -1.000000
0.000000 0.000000 -1.000000
0.000000 0.000000 -1.000000
0.000000 0.000000 -1.000000
0.000000 0.000000 -1.000000
1.000000 0.000000 0.000000
1.000000 0.000000 0.000000
1.000000 0.000000 0.000000
1.000000 0.000000 0.000000
1.000000 0.000000 0.000000
1.000000 0.000000 0.000000
0.000000 1.000000 0.000000
0.000000 1.000000 0.000000
0.000000 1.000000 0.000000
0.000000 1.000000 0.000000
0.000000 1.000000 0.000000
0.000000 1.000000 0.000000
0.000000 -1.000000 0.000000
0.000000 -1.000000 0.000000
-0.000000 -1.000000 -0.000000
-0.000000 -1.000000 -0.000000
-0.000000 -1.000000 -0.000000
0.000000 -1.000000 0.000000
0.000000 -1.000000 0.000000
0.000000 -1.000000 0.000000
0.000000 -1.000000 0.000000
0.000000 -1.000000 0.000000
0.000000 -1.000000 0.000000
0.000000 -1.000000 0.000000
-1.000000 0.000000 0.000000
-1.000000 0.000000 0.000000
-1.000000 0.000000 0.000000
-1.000000 0.000000 0.000000
-1.000000 0.000000 0.000000
-1.000000 0.000000 0.000000
-1.000000 0.000000 0.000000
-1.000000 0.000000 0.000000
-1.000000 0.000000 0.000000
0.000000 0.000000 1.000000
0.000000 0.000000 1.000000
0.000000 0.000000 1.000000
0.000000 0.000000 1.000000
0.000000 0.000000 1.000000
0.000000 0.000000 1.000000
0.000000 0.577350 0.816496
0.000000 0.577350 0.816496
0.000000 0.577350 0.816497
0.000000 0.577350 0.816497
0.000000 0.577350 0.816496
0.000000 0.577350 0.816496
-0.711257 0.702928 0.002503
-0.707107 0.707107 0.000000
-0.708337 0.705874 0.000889
-0.708337 0.705874 0.000889
-0.711206 0.702978 0.002972
-0.711257 0.702928 0.002503
-0.795048 -0.606539 0.002991
-0.792216 -0.610238 0.001628
-0.809163 -0.587497 0.010060
-0.809163 -0.587497 0.010060
-0.812384 -0.582997 0.012098
-0.795048 -0.606539 0.002991
0.000000 1.000000 0.000000
0.000000 1.000000 0.000000
0.000000 1.000000 0.000000
0.000000 1.000000 0.000000
0.000000 1.000000 0.000000
0.000000 1.000000 0.000000
0.000000 1.000000 0.000000
0.000000 1.000000 0.000000
0.000000 1.000000 0.000000
0.000000 1.000000 0.000000
0.000000 1.000000 0.000000
0.000000 1.000000 0.000000
-0.000000 -1.000000 -0.000000
0.000000 -1.000000 -0.000000
-0.000000 -1.000000 -0.000000
-0.000000 -1.000000 -0.000000
-0.000000 -1.000000 -0.000000
-0.000000 -1.000000 -0.000000
0.000000 -1.000000 0.000000
0.000000 -1.000000 0.000000
0.000000 -1.000000 0.000000
-1.000000 0.000000 0.000000
-1.000000 0.000000 0.000000
-1.000000 0.000000 0.000000
-1.000000 0.000000 0.000000
-1.000000 0.000000 0.000000
-1.000000 0.000000 0.000000
1.000000 0.000000 0.000000
1.000000 0.000000 0.000000
1.000000 0.000000 0.000000
1.000000 0.000000 0.000000
1.000000 0.000000 0.000000
1.000000 0.000000 0.000000
0.000000 1.000000 0.000000
0.000000 1.000000 0.000000
0.000000 1.000000 0.000000
0.000000 1.000000 0.000000
0.000000 1.000000 0.000000
0.000000 1.000000 0.000000
-0.000000 -1.000000 -0.000000
-0.000000 -1.000000 -0.000000
-0.000000 -1.000000 -0.000000
-0.000000 -1.000000 -0.000000
-0.000000 -1.000000 -0.000000
-0.000000 -1.000000 -0.000000
-1.000000 0.000000 0.000000
-1.000000 0.000000 0.000000
-1.000000 0.000000 0.000000
-1.000000 0.000000 0.000000
-1.000000 0.000000 0.000000
-1.000000 0.000000 0.000000
-0.795072 0.606495 0.004821
-0.792202 0.610230 0.005907
-0.809973 0.586459 0.003322
-0.809973 0.586459 0.003322
-0.816497 0.577350 0.000000
-0.795072 0.606495 0.004821
-0.792216 -0.610238 0.001628
-0.795048 -0.606539 0.002991
-0.711258 -0.702931 0.000470
-0.711258 -0.702931 0.000470
-0.711209 -0.702981 -0.000000
-0.792216 -0.610238 0.001628
0.000000 1.000000 0.000000
0.000000 1.000000 0.000000
0.000000 1.000000 0.000000
0.000000 1.000000 0.000000
0.000000 1.000000 0.000000
0.000000 1.000000 0.000000
0.000000 -1.000000 -0.000000
-0.000000 -1.000000 -0.000000
0.000000 -1.000000 -0.000000
0.000000 -1.000000 -0.000000
0.000000 -1.000000 -0.000000
0.000000 -1.000000 -0.000000
-0.000000 -1.000000 -0.000000
-0.000000 -1.000000 -0.000000
-0.000000 -1.000000 -0.000000
-0.000000 -1.000000 -0.000000
-0.000000 -1.000000 -0.000000
-0.000000 -1.000000 -0.000000
-1.000000 0.000000 0.000000
-1.000000 0.000000 0.000000
-1.000000 0.000000 0.000000
-1.000000 0.000000 0.000000
-1.000000 0.000000 0.000000
-1.000000 0.000000 0.000000
-0.711257 0.702928 0.002503
-0.711206 0.702978 0.002972
-0.792202 0.610230 0.005907
-0.792202 0.610230 0.005907
-0.795072 0.606495 0.004821
-0.711257 0.702928 0.002503
0.000000 1.000000 0.000000
0.000000 1.000000 0.000000
0.000000 1.000000 0.000000
0.000000 1.000000 0.000000
0.000000 1.000000 0.000000
0.000000 1.000000 0.000000
1.000000 0.000000 0.000000
1.000000 0.000000 0.000000
1.000000 0.000000 0.000000
1.000000 0.000000 0.000000
1.000000 0.000000 0.000000
1.000000 0.000000 0.000000
0.000000 1.000000 0.000000
0.000000 1.000000 0.000000
0.000000 1.000000 0.000000
0.000000 1.000000 0.000000
0.000000 1.000000 0.000000
0.000000 1.000000 0.000000
-0.711258 -0.702931 0.000470
-0.707104 -0.707104 0.002955
-0.708335 -0.705874 0.002071
-0.708335 -0.705874 0.002071
-0.711209 -0.702981 -0.000000
-0.711258 -0.702931 0.000470
0.000000 -1.000000 -0.000000
0.000000 -1.000000 -0.000000
0.000000 -1.000000 0.000000
0.000000 -1.000000 0.000000
0.000000 -1.000000 0.000000
0.000000 -1.000000 -0.000000
0.000000 -1.000000 -0.000000
0.000000 -1.000000 -0.000000
0.000000 -1.000000 -0.000000
0.000000 -1.000000 -0.000000
0.000000 -1.000000 -0.000000
0.000000 -1.000000 -0.000000
0.000000 0.000000 -1.000000
0.000000 0.000000 -1.000000
0.000000 0.000000 -1.000000
0.000000 0.000000 -1.000000
0.000000 0.000000 -1.000000
0.000000 0.000000 -1.000000
0.000000 1.000000 0.000000
0.000000 1.000000 0.000000
0.000000 1.000000 0.000000
0.000000 1.000000 0.000000
0.000000 1.000000 0.000000
0.000000 1.000000 0.000000
0.000000 0.000000 1.000000
0.000000 0.000000 1.000000
0.000000 0.000000 1.000000
0.000000 0.000000 1.000000
0.000000 0.000000 1.000000
0.000000 0.000000 1.000000
0.000000 -1.000000 -0.000000
0.000000 -1.000000 -0.000000
0.000000 -1.000000 -0.000000
0.000000 -1.000000 -0.000000
0.000000 -1.000000 -0.000000
0.000000 -1.000000 -0.000000
-1.000000 0.000000 0.000000
-1.000000 0.000000 0.000000
-1.000000 0.000000 0.000000
-1.000000 0.000000 0.000000
-1.000000 0.000000 0.000000
-1.000000 0.000000 0.000000
0.000000 0.000000 1.000000
0.000000 0.000000 1.000000
0.000000 0.000000 1.000000
0.000000 0.000000 1.000000
0.000000 0.000000 1.000000
0.000000 0.000000 1.000000
1.000000 0.000000 0.000000
1.000000 0.000000 0.000000
1.000000 0.000000 0.000000
1.000000 0.000000 0.000000
1.000000 0.000000 0.000000
1.000000 0.000000 0.000000
0.000000 0.000000 -1.000000
0.000000 0.000000 -1.000000
0.000000 0.000000 -1.000000
0.000000 0.000000 -1.000000
0.000000 0.000000 -1.000000
0.000000 0.000000 -1.000000
0.000000 0.000000 1.000000
0.000000 0.000000 1.000000
0.000000 0.000000 1.000000
0.000000 0.000000 1.000000
0.000000 0.000000 1.000000
0.000000 0.000000 1.000000
0.000000 0.000000 1.000000
0.000000 0.000000 1.000000
0.000000 0.000000 1.000000
0.000000 0.000000 1.000000
0.000000 0.000000 1.000000
0.000000 0.000000 1.000000
0.000000 0.000000 1.000000
0.000000 0.000000 1.000000
0.000000 0.000000 1.000000
0.000000 0.000000 1.000000
0.000000 0.000000 1.000000
0.000000 0.000000 1.000000
0.000000 0.000000 1.000000
0.000000 0.000000 1.000000
0.000000 0.000000 1.000000
0.000000 0.000000 1.000000
0.000000 0.000000 1.000000
0.000000 0.000000 1.000000
0.000000 0.000000 1.000000
0.000000 0.000000 1.000000
0.000000 0.000000 1.000000
0.000000 0.000000 1.000000
0.000000 0.000000 1.000000
0.000000 0.000000 1.000000
0.000000 0.000000 1.000000
0.000000 0.000000 1.000000
0.000000 0.000000 1.000000
0.000000 0.000000 1.000000
0.000000 0.000000 1.000000
0.000000 0.000000 1.000000
0.000000 0.000000 -1.000000
0.000000 0.000000 -1.000000
0.000000 0.000000 -1.000000
0.000000 0.000000 -1.000000
0.000000 0.000000 -1.000000
0.000000 0.000000 -1.000000
0.000000 0.000000 -1.000000
0.000000 0.000000 -1.000000
0.000000 0.000000 -1.000000
0.000000 0.000000 -1.000000
0.000000 0.000000 -1.000000
0.000000 0.000000 -1.000000
0.000000 0.000000 -1.000000
0.000000 0.000000 -1.000000
0.000000 0.000000 -1.000000
0.000000 0.000000 -1.000000
0.000000 0.000000 -1.000000
0.000000 0.000000 -1.000000
0.000000 -1.000000 0.000000
0.000000 -1.000000 0.000000
0.000000 -1.000000 0.000000
0.000000 -1.000000 0.000000
0.000000 -1.000000 0.000000
0.000000 -1.000000 0.000000
0.000000 -1.000000 0.000000
0.000000 -1.000000 0.000000
0.000000 -1.000000 0.000000
0.000000 -1.000000 0.000000
0.000000 -1.000000 0.000000
0.000000 -1.000000 0.000000
0.000000 -1.000000 0.000000
-0.000000 -1.000000 -0.000000
-0.000000 -1.000000 -0.000000
-0.000000 -1.000000 -0.000000
0.000000 -1.000000 0.000000
0.000000 -1.000000 0.000000
0.000000 0.577350 0.816496
0.000000 0.577350 0.816496
0.000000 0.577350 0.816496
0.000000 0.577350 0.816496
0.000000 0.577350 0.816496
0.000000 0.577350 0.816496
0.000000 0.577350 0.816496
0.000000 0.577350 0.816496
0.000000 0.577350 0.816496
0.000000 0.577350 0.816496
0.000000 0.577350 0.816497
0.000000 0.577350 0.816496
0.000000 0.577350 0.816496
0.000000 0.577350 0.816496
0.000000 0.577350 0.816496
0.000000 0.577350 0.816496
0.000000 0.577350 0.816496
0.000000 0.577350 0.816496
0.000000 1.000000 0.000000
0.000000 1.000000 0.000000
0.000000 1.000000 0.000000
0.000000 1.000000 0.000000
0.000000 1.000000 0.000000
0.000000 1.000000 0.000000
0.000000 1.000000 0.000000
0.000000 1.000000 0.000000
0.000000 1.000000 0.000000
0.000000 1.000000 0.000000
0.000000 1.000000 0.000000
0.000000 1.000000 0.000000
0.000000 1.000000 0.000000
0.000000 1.000000 0.000000
0.000000 1.000000 0.000000
0.000000 1.000000 0.000000
0.000000 1.000000 0.000000
0.000000 1.000000 0.000000
0.000000 1.000000 0.000000
0.000000 1.000000 0.000000
0.000000 1.000000 0.000000
0.000000 1.000000 0.000000
0.000000 1.000000 0.000000
0.000000 1.000000 0.000000
0.000000 1.000000 0.000000
0.000000 1.000000 0.000000
0.000000 1.000000 0.000000
0.000000 1.000000 0.000000
0.000000 1.000000 0.000000
0.000000 1.000000 0.000000
0.000000 1.000000 0.000000
0.000000 1.000000 0.000000
0.000000 1.000000 0.000000
0.000000 1.000000 0.000000
0.000000 1.000000 0.000000
0.000000 1.000000 0.000000
0.000000 1.000000 0.000000
0.000000 1.000000 0.000000
0.000000 1.000000 0.000000
0.000000 1.000000 0.000000
0.000000 1.000000 0.000000
0.000000 1.000000 0.000000
0.000000 1.000000 0.000000
0.000000 1.000000 0.000000
0.000000 1.000000 0.000000
0.000000 1.000000 0.000000
0.000000 1.000000 0.000000
0.000000 1.000000 0.000000
0.000000 -0.577350 0.816496
0.000000 -0.577350 0.816496
0.000000 -0.577351 0.816496
0.000000 -0.577351 0.816496
0.000000 -0.577350 0.816496
0.000000 -0.577350 0.816496
0.000000 -0.577350 0.816496
0.000000 -0.577350 0.816496
0.000000 -0.577350 0.816496
0.000000 -0.577350 0.816496
0.000000 -0.577350 0.816496
0.000000 -0.577350 0.816496
0.000000 -0.577350 0.816496
0.000000 -0.577350 0.816496
0.000000 -0.577350 0.816496
0.000000 -0.577350 0.816496
0.000000 -0.577350 0.816496
0.000000 -0.577350 0.816496
0.000000 -0.577350 0.816496
0.000000 -0.577350 0.816496
0.000000 -0.577350 0.816496
0.000000 -0.577350 0.816496
0.000000 -0.577350 0.816496
0.000000 -0.577350 0.816496
0.000000 -1.000000 0.000000
-0.000000 -1.000000 -0.000000
-0.000000 -1.000000 -0.000000
-0.000000 -1.000000 -0.000000
0.000000 -1.000000 0.000000
0.000000 -1.000000 0.000000
0.000000 -1.000000 0.000000
0.000000 -1.000000 0.000000
0.000000 -1.000000 0.000000
0.000000 -1.000000 0.000000
0.000000 -1.000000 0.000000
0.000000 -1.000000 0.000000
0.000000 -1.000000 0.000000
0.000000 -1.000000 0.000000
0.000000 -1.000000 0.000000
0.000000 -1.000000 0.000000
0.000000 -1.000000 0.000000
0.000000 -1.000000 0.000000
0.000000 -1.000000 0.000000
0.000000 -1.000000 0.000000
0.000000 -1.000000 0.000000
0.000000 -1.000000 0.000000
0.000000 -1.000000 0.000000
0.000000 -1.000000 0.000000
0.000000 -1.000000 0.000000
0.000000 -1.000000 0.000000
0.000000 -1.000000 0.000000
0.000000 0.000000 1.000000
0.000000 0.000000 1.000000
0.000000 0.000000 1.000000
0.000000 0.000000 1.000000
0.000000 0.000000 1.000000
0.000000 0.000000 1.000000
0.000000 0.000000 1.000000
0.000000 0.000000 1.000000
0.000000 0.000000 1.000000
0.000000 0.000000 1.000000
0.000000 0.000000 1.000000
0.000000 0.000000 1.000000
0.000000 0.000000 1.000000
0.000000 0.000000 1.000000
0.000000 0.000000 1.000000
0.000000 0.000000 1.000000
0.000000 0.000000 1.000000
0.000000 0.000000 1.000000
0.000000 0.000000 1.000000
0.000000 0.000000 1.000000
0.000000 0.000000 1.000000
0.000000 0.000000 1.000000
0.000000 0.000000 1.000000
0.000000 0.000000 1.000000
0.000000 0.000000 1.000000
0.000000 0.000000 1.000000
0.000000 0.000000 1.000000
0.000000 0.000000 1.000000
0.000000 0.000000 1.000000
0.000000 0.000000 1.000000
0.000000 0.000000 1.000000
0.000000 0.000000 1.000000
0.000000 0.000000 1.000000
0.000000 0.000000 1.000000
0.000000 0.000000 1.000000
0.000000 0.000000 1.000000
0.000000 0.000000 1.000000
0.000000 0.000000 1.000000
0.000000 0.000000 1.000000
0.000000 0.000000 1.000000
0.000000 0.000000 1.000000
0.000000 0.000000 1.000000
0.000000 0.000000 1.000000
0.000000 0.000000 1.000000
0.000000 0.000000 1.000000
0.000000 0.000000 1.000000
0.000000 0.000000 1.000000
0.000000 0.000000 1.000000
0.000000 0.000000 1.000000
0.000000 0.000000 1.000000
0.000000 0.000000 1.000000
0.000000 0.000000 1.000000
0.000000 0.000000 1.000000
0.000000 0.000000 1.000000
0.000000 0.000000 1.000000
0.000000 0.000000 1.000000
0.000000 0.000000 1.000000
0.000000 0.000000 1.000000
0.000000 0.000000 1.000000
0.000000 0.000000 1.000000
0.000000 0.000000 1.000000
0.000000 0.000000 1.000000
0.000000 0.000000 1.000000
0.000000 -0.950664 0.310222
0.000000 -0.950664 0.310222
0.000000 -0.950664 0.310222
0.000000 -0.950664 0.310222
0.000000 -0.950664 0.310222
0.000000 -0.950664 0.310222
-0.942403 0.001144 0.334478
-0.942407 0.001139 0.334467
-0.942406 0.001144 0.334471
-0.942406 0.001144 0.334471
-0.942402 0.001146 0.334481
-0.942403 0.001144 0.334478
-0.000000 0.950664 0.310222
0.000000 0.950664 0.310222
0.000000 0.950664 0.310222
0.000000 0.950664 0.310222
-0.000000 0.950664 0.310222
-0.000000 0.950664 0.310222
0.000000 -0.950664 0.310223
0.000000 -0.950664 0.310223
0.000000 -0.950664 0.310222
0.000000 -0.950664 0.310222
0.000000 -0.950664 0.310222
0.000000 -0.950664 0.310223
-0.954430 0.010424 0.298252
-0.954440 0.010440 0.298221
-0.954414 0.010397 0.298305
-0.954414 0.010397 0.298305
-0.954400 0.010374 0.298352
-0.954430 0.010424 0.298252
-0.000001 0.950664 0.310223
-0.000001 0.950664 0.310223
-0.000001 0.950664 0.310223
-0.000001 0.950664 0.310223
-0.000001 0.950664 0.310223
-0.000001 0.950664 0.310223
0.954450 -0.008031 0.298263
0.954457 -0.008043 0.298239
0.954437 -0.008010 0.298304
0.954437 -0.008010 0.298304
0.954426 -0.007992 0.298340
0.954450 -0.008031 0.298263
0.000000 -0.950664 0.310222
0.000000 -0.950664 0.310222
0.000000 -0.950664 0.310222
0.000000 -0.950664 0.310222
0.000000 -0.950664 0.310222
0.000000 -0.950664 0.310222
-0.954459 0.005792 0.298285
-0.954465 0.005801 0.298268
-0.954450 0.005777 0.298315
-0.954450 0.005777 0.298315
-0.954442 0.005764 0.298340
-0.954459 0.005792 0.298285
0.000000 0.950664 0.310222
0.000000 0.950664 0.310223
0.000000 0.950664 0.310222
0.000000 0.950664 0.310222
0.000000 0.950664 0.310222
0.000000 0.950664 0.310222
0.954468 -0.003474 0.298294
0.954471 -0.003480 0.298283
0.954462 -0.003466 0.298312
0.954462 -0.003466 0.298312
0.954457 -0.003458 0.298327
0.954468 -0.003474 0.298294
0.000000 0.000000 1.000000
0.000000 0.000000 1.000000
0.000000 0.000000 1.000000
0.000000 0.000000 1.000000
0.000000 0.000000 1.000000
0.000000 0.000000 1.000000
0.000000 0.000000 1.000000
0.000000 0.000000 1.000000
0.000000 0.000000 1.000000
0.000000 0.000000 1.000000
0.000000 0.000000 1.000000
0.000000 0.000000 1.000000
0.000000 0.000000 1.000000
0.000000 0.000000 1.000000
0.000000 0.000000 1.000000
0.000000 0.000000 1.000000
0.000000 0.000000 1.000000
0.000000 0.000000 1.000000
0.000000 -0.950664 0.310222
0.000000 -0.950664 0.310223
0.000000 -0.950664 0.310222
0.000000 -0.950664 0.310222
0.000000 -0.950664 0.310222
0.000000 -0.950664 0.310222
-0.942406 0.001145 0.334470
-0.942402 0.001146 0.334481
-0.942402 0.001146 0.334481
-0.942402 0.001146 0.334481
-0.942406 0.001144 0.334471
-0.942406 0.001145 0.334470
-0.000000 0.950664 0.310222
-0.000000 0.950664 0.310222
-0.000000 0.950664 0.310222
-0.000000 0.950664 0.310222
0.000000 0.950664 0.310222
-0.000000 0.950664 0.310222
0.000000 0.000000 -1.000000
0.000000 0.000000 -1.000000
0.000000 0.000000 -1.000000
0.000000 0.000000 -1.000000
0.000000 0.000000 -1.000000
0.000000 0.000000 -1.000000
-1.000000 0.000000 0.000000
-1.000000 0.000000 0.000000
-1.000000 0.000000 0.000000
-1.000000 0.000000 0.000000
-1.000000 0.000000 0.000000
-1.000000 0.000000 0.000000
-0.000000 1.000000 0.000000
0.000000 1.000000 0.000000
0.000000 1.000000 0.000000
0.000000 1.000000 0.000000
-0.000000 1.000000 0.000000
-0.000000 1.000000 0.000000
0.000000 -1.000000 0.000000
0.000000 -1.000000 -0.000000
0.000000 -1.000000 -0.000000
0.000000 -1.000000 -0.000000
0.000000 -1.000000 0.000000
0.000000 -1.000000 0.000000
0.000000 -1.000000 0.000000
0.000000 -1.000000 0.000000
0.000000 -1.000000 0.000000
0.000000 -1.000000 0.000000
0.000000 -1.000000 0.000000
0.000000 -1.000000 0.000000
1.000000 0.000000 0.000000
1.000000 0.000000 0.000000
1.000000 0.000000 0.000000
1.000000 0.000000 0.000000
1.000000 0.000000 0.000000
1.000000 0.000000 0.000000
1.000000 0.000000 0.000000
1.000000 0.000000 0.000000
1.000000 0.000000 0.000000
0.000000 0.000000 1.000000
0.000000 0.000000 1.000000
0.000000 0.000000 1.000000
0.000000 0.000000 1.000000
0.000000 0.000000 1.000000
0.000000 0.000000 1.000000
-0.000000 0.577350 0.816496
-0.000000 0.577350 0.816496
0.000000 0.577350 0.816497
0.000000 0.577350 0.816497
0.000000 0.577350 0.816496
-0.000000 0.577350 0.816496
0.711257 0.702928 0.002503
0.711206 0.702978 0.002972
0.708337 0.705874 0.000889
0.708337 0.705874 0.000889
0.707107 0.707107 0.000000
0.711257 0.702928 0.002503
0.795048 -0.606539 0.002991
0.812384 -0.582997 0.012098
0.809163 -0.587497 0.010060
0.809163 -0.587497 0.010060
0.792216 -0.610238 0.001628
0.795048 -0.606539 0.002991
0.000000 1.000000 0.000000
0.000000 1.000000 0.000000
0.000000 1.000000 0.000000
0.000000 1.000000 0.000000
0.000000 1.000000 0.000000
0.000000 1.000000 0.000000
0.000000 1.000000 0.000000
0.000000 1.000000 0.000000
0.000000 1.000000 0.000000
0.000000 1.000000 0.000000
0.000000 1.000000 0.000000
0.000000 1.000000 0.000000
0.000000 -1.000000 -0.000000
0.000000 -1.000000 -0.000000
0.000000 -1.000000 -0.000000
0.000000 -1.000000 -0.000000
0.000000 -1.000000 -0.000000
0.000000 -1.000000 -0.000000
0.000000 -1.000000 0.000000
0.000000 -1.000000 0.000000
0.000000 -1.000000 0.000000
1.000000 0.000000 0.000000
1.000000 0.000000 0.000000
1.000000 0.000000 0.000000
1.000000 0.000000 0.000000
1.000000 0.000000 0.000000
1.000000 0.000000 0.000000
-1.000000 0.000000 0.000000
-1.000000 0.000000 0.000000
-1.000000 0.000000 0.000000
-1.000000 0.000000 0.000000
-1.000000 0.000000 0.000000
-1.000000 0.000000 0.000000
0.000000 1.000000 0.000000
0.000000 1.000000 0.000000
0.000000 1.000000 0.000000
0.000000 1.000000 0.000000
0.000000 1.000000 0.000000
0.000000 1.000000 0.000000
0.000000 -1.000000 -0.000000
0.000000 -1.000000 -0.000000
0.000000 -1.000000 -0.000000
0.000000 -1.000000 -0.000000
0.000000 -1.000000 -0.000000
0.000000 -1.000000 -0.000000
1.000000 0.000000 0.000000
1.000000 0.000000 0.000000
1.000000 0.000000 0.000000
1.000000 0.000000 0.000000
1.000000 0.000000 0.000000
1.000000 0.000000 0.000000
0.795072 0.606495 0.004821
0.816497 0.577350 0.000000
0.809973 0.586459 0.003322
0.809973 0.586459 0.003322
0.792202 0.610230 0.005907
0.795072 0.606495 0.004821
0.792216 -0.610238 0.001628
0.711209 -0.702981 -0.000000
0.711258 -0.702931 0.000470
0.711258 -0.702931 0.000470
0.795048 -0.606539 0.002991
0.792216 -0.610238 0.001628
0.000000 1.000000 0.000000
0.000000 1.000000 0.000000
0.000000 1.000000 0.000000
0.000000 1.000000 0.000000
0.000000 1.000000 0.000000
0.000000 1.000000 0.000000
0.000000 -1.000000 -0.000000
0.000000 -1.000000 -0.000000
0.000000 -1.000000 -0.000000
0.000000 -1.000000 -0.000000
0.000000 -1.000000 -0.000000
0.000000 -1.000000 -0.000000
0.000000 -1.000000 -0.000000
0.000000 -1.000000 -0.000000
0.000000 -1.000000 -0.000000
0.000000 -1.000000 -0.000000
0.000000 -1.000000 -0.000000
0.000000 -1.000000 -0.000000
1.000000 0.000000 0.000000
1.000000 0.000000 0.000000
1.000000 0.000000 0.000000
1.000000 0.000000 0.000000
1.000000 0.000000 0.000000
1.000000 0.000000 0.000000
0.711257 0.702928 0.002503
0.795072 0.606495 0.004821
0.792202 0.610230 0.005907
0.792202 0.610230 0.005907
0.711206 0.702978 0.002972
0.711257 0.702928 0.002503
0.000000 1.000000 0.000000
0.000000 1.000000 0.000000
0.000000 1.000000 0.000000
0.000000 1.000000 0.000000
0.000000 1.000000 0.000000
0.000000 1.000000 0.000000
-1.000000 0.000000 0.000000
-1.000000 0.000000 0.000000
-1.000000 0.000000 0.000000
-1.000000 0.000000 0.000000
-1.000000 0.000000 0.000000
-1.000000 0.000000 0.000000
0.000000 1.000000 0.000000
0.000000 1.000000 0.000000
0.000000 1.000000 0.000000
0.000000 1.000000 0.000000
0.000000 1.000000 0.000000
0.000000 1.000000 0.000000
0.711258 -0.702931 0.000470
0.711209 -0.702981 -0.000000
0.708335 -0.705874 0.002071
0.708335 -0.705874 0.002071
0.707104 -0.707104 0.002955
0.711258 -0.702931 0.000470
0.000000 -1.000000 -0.000000
0.000000 -1.000000 0.000000
0.000000 -1.000000 0.000000
0.000000 -1.000000 0.000000
0.000000 -1.000000 -0.000000
0.000000 -1.000000 -0.000000
0.000000 -1.000000 -0.000000
0.000000 -1.000000 -0.000000
0.000000 -1.000000 -0.000000
0.000000 -1.000000 -0.000000
0.000000 -1.000000 -0.000000
0.000000 -1.000000 -0.000000
0.000000 0.000000 -1.000000
0.000000 0.000000 -1.000000
0.000000 0.000000 -1.000000
0.000000 0.000000 -1.000000
0.000000 0.000000 -1.000000
0.000000 0.000000 -1.000000
0.000000 1.000000 0.000000
0.000000 1.000000 0.000000
0.000000 1.000000 0.000000
0.000000 1.000000 0.000000
0.000000 1.000000 0.000000
0.000000 1.000000 0.000000
0.000000 0.000000 1.000000
0.000000 0.000000 1.000000
0.000000 0.000000 1.000000
0.000000 0.000000 1.000000
0.000000 0.000000 1.000000
0.000000 0.000000 1.000000
0.000000 -1.000000 -0.000000
0.000000 -1.000000 -0.000000
0.000000 -1.000000 -0.000000
0.000000 -1.000000 -0.000000
0.000000 -1.000000 -0.000000
0.000000 -1.000000 -0.000000
1.000000 0.000000 0.000000
1.000000 0.000000 0.000000
1.000000 0.000000 0.000000
1.000000 0.000000 0.000000
1.000000 0.000000 0.000000
1.000000 0.000000 0.000000
0.000000 0.000000 1.000000
0.000000 0.000000 1.000000
0.000000 0.000000 1.000000
0.000000 0.000000 1.000000
0.000000 0.000000 1.000000
0.000000 0.000000 1.000000
-1.000000 0.000000 0.000000
-1.000000 0.000000 0.000000
-1.000000 0.000000 0.000000
-1.000000 0.000000 0.000000
-1.000000 0.000000 0.000000
-1.000000 0.000000 0.000000
0.000000 0.000000 -1.000000
0.000000 0.000000 -1.000000
0.000000 0.000000 -1.000000
0.000000 0.000000 -1.000000
0.000000 0.000000 -1.000000
0.000000 0.000000 -1.000000
0.000000 0.000000 1.000000
0.000000 0.000000 1.000000
0.000000 0.000000 1.000000
0.000000 0.000000 1.000000
0.000000 0.000000 1.000000
0.000000 0.000000 1.000000
0.000000 0.000000 1.000000
0.000000 0.000000 1.000000
0.000000 0.000000 1.000000
0.000000 0.000000 1.000000
0.000000 0.000000 1.000000
0.000000 0.000000 1.000000
0.000000 0.000000 1.000000
0.000000 0.000000 1.000000
0.000000 0.000000 1.000000
0.000000 0.000000 1.000000
0.000000 0.000000 1.000000
0.000000 0.000000 1.000000
0.000000 0.000000 1.000000
0.000000 0.000000 1.000000
0.000000 0.000000 1.000000
0.000000 0.000000 1.000000
0.000000 0.000000 1.000000
0.000000 0.000000 1.000000
0.000000 0.000000 1.000000
0.000000 0.000000 1.000000
0.000000 0.000000 1.000000
0.000000 0.000000 1.000000
0.000000 0.000000 1.000000
0.000000 0.000000 1.000000
0.000000 0.000000 1.000000
0.000000 0.000000 1.000000
0.000000 0.000000 1.000000
0.000000 0.000000 1.000000
0.000000 0.000000 1.000000
0.000000 0.000000 1.000000
0.000000 0.000000 -1.000000
0.000000 0.000000 -1.000000
0.000000 0.000000 -1.000000
0.000000 0.000000 -1.000000
0.000000 0.000000 -1.000000
0.000000 0.000000 -1.000000
0.000000 0.000000 -1.000000
0.000000 0.000000 -1.000000
0.000000 0.000000 -1.000000
0.000000 0.000000 -1.000000
0.000000 0.000000 -1.000000
0.000000 0.000000 -1.000000
0.000000 0.000000 -1.000000
0.000000 0.000000 -1.000000
0.000000 0.000000 -1.000000
0.000000 0.000000 -1.000000
0.000000 0.000000 -1.000000
0.000000 0.000000 -1.000000
0.000000 -1.000000 0.000000
0.000000 -1.000000 0.000000
0.000000 -1.000000 0.000000
0.000000 -1.000000 0.000000
0.000000 -1.000000 0.000000
0.000000 -1.000000 0.000000
0.000000 -1.000000 0.000000
0.000000 -1.000000 0.000000
0.000000 -1.000000 0.000000
0.000000 -1.000000 0.000000
0.000000 -1.000000 0.000000
0.000000 -1.000000 0.000000
0.000000 -1.000000 0.000000
0.000000 -1.000000 0.000000
0.000000 -1.000000 -0.000000
0.000000 -1.000000 -0.000000
0.000000 -1.000000 -0.000000
0.000000 -1.000000 0.000000
0.000000 0.577350 0.816496
0.000000 0.577350 0.816496
0.000000 0.577350 0.816496
0.000000 0.577350 0.816496
0.000000 0.577350 0.816496
0.000000 0.577350 0.816496
0.000000 0.577350 0.816496
0.000000 0.577350 0.816497
0.000000 0.577350 0.816496
0.000000 0.577350 0.816496
0.000000 0.577350 0.816496
0.000000 0.577350 0.816496
-0.000000 0.577350 0.816496
-0.000000 0.577350 0.816496
-0.000000 0.577350 0.816496
-0.000000 0.577350 0.816496
0.000000 0.577350 0.816496
-0.000000 0.577350 0.816496
0.000000 1.000000 0.000000
0.000000 1.000000 0.000000
0.000000 1.000000 0.000000
0.000000 1.000000 0.000000
0.000000 1.000000 0.000000
0.000000 1.000000 0.000000
0.000000 1.000000 0.000000
0.000000 1.000000 0.000000
0.000000 1.000000 0.000000
0.000000 1.000000 0.000000
0.000000 1.000000 0.000000
0.000000 1.000000 0.000000
0.000000 1.000000 0.000000
0.000000 1.000000 0.000000
0.000000 1.000000 0.000000
0.000000 1.000000 0.000000
0.000000 1.000000 0.000000
0.000000 1.000000 0.000000
0.000000 1.000000 0.000000
0.000000 1.000000 0.000000
0.000000 1.000000 0.000000
0.000000 1.000000 0.000000
0.000000 1.000000 0.000000
0.000000 1.000000 0.000000
-0.000000 1.000000 0.000000
-0.000000 1.000000 0.000000
-0.000000 1.000000 0.000000
-0.000000 1.000000 0.000000
-0.000000 1.000000 0.000000
-0.000000 1.000000 0.000000
0.000000 1.000000 0.000000
-0.000000 1.000000 0.000000
-0.000000 1.000000 0.000000
-0.000000 1.000000 0.000000
0.000000 1.000000 0.000000
0.000000 1.000000 0.000000
0.000000 1.000000 0.000000
0.000000 1.000000 0.000000
0.000000 1.000000 0.000000
0.000000 1.000000 0.000000
0.000000 1.000000 0.000000
0.000000 1.000000 0.000000
0.000000 1.000000 0.000000
0.000000 1.000000 0.000000
0.000000 1.000000 0.000000
0.000000 1.000000 0.000000
0.000000 1.000000 0.000000
0.000000 1.000000 0.000000
0.000000 -0.577350 0.816496
0.000000 -0.577350 0.816496
0.000000 -0.577351 0.816496
0.000000 -0.577351 0.816496
0.000000 -0.577350 0.816496
0.000000 -0.577350 0.816496
0.000000 -0.577350 0.816496
0.000000 -0.577350 0.816496
0.000000 -0.577350 0.816496
0.000000 -0.577350 0.816496
0.000000 -0.577350 0.816496
0.000000 -0.577350 0.816496
0.000000 -0.577350 0.816496
0.000000 -0.577350 0.816496
0.000000 -0.577350 0.816496
0.000000 -0.577350 0.816496
0.000000 -0.577350 0.816496
0.000000 -0.577350 0.816496
0.000000 -0.577350 0.816496
0.000000 -0.577350 0.816496
0.000000 -0.577350 0.816496
0.000000 -0.577350 0.816496
0.000000 -0.577350 0.816496
0.000000 -0.577350 0.816496
0.000000 -1.000000 0.000000
0.000000 -1.000000 0.000000
0.000000 -1.000000 -0.000000
0.000000 -1.000000 -0.000000
0.000000 -1.000000 -0.000000
0.000000 -1.000000 0.000000
0.000000 -1.000000 0.000000
0.000000 -1.000000 0.000000
0.000000 -1.000000 0.000000
0.000000 -1.000000 0.000000
0.000000 -1.000000 0.000000
0.000000 -1.000000 0.000000
0.000000 -1.000000 0.000000
0.000000 -1.000000 0.000000
0.000000 -1.000000 0.000000
0.000000 -1.000000 0.000000
0.000000 -1.000000 0.000000
0.000000 -1.000000 0.000000
0.000000 -1.000000 0.000000
0.000000 -1.000000 0.000000
0.000000 -1.000000 0.000000
0.000000 -1.000000 0.000000
0.000000 -1.000000 0.000000
0.000000 -1.000000 0.000000
0.000000 -1.000000 0.000000
0.000000 -1.000000 0.000000
0.000000 -1.000000 0.000000
0.000000 0.000000 1.000000
0.000000 0.000000 1.000000
0.000000 0.000000 1.000000
0.000000 0.000000 1.000000
0.000000 0.000000 1.000000
0.000000 0.000000 1.000000
0.000000 0.000000 1.000000
0.000000 0.000000 1.000000
0.000000 0.000000 1.000000
0.000000 0.000000 1.000000
0.000000 0.000000 1.000000
0.000000 0.000000 1.000000
0.000000 0.000000 1.000000
0.000000 0.000000 1.000000
0.000000 0.000000 1.000000
0.000000 0.000000 1.000000
0.000000 0.000000 1.000000
0.000000 0.000000 1.000000
0.000000 0.000000 1.000000
0.000000 0.000000 1.000000
0.000000 0.000000 1.000000
0.000000 0.000000 1.000000
0.000000 0.000000 1.000000
0.000000 0.000000 1.000000
0.000000 0.000000 1.000000
0.000000 0.000000 1.000000
0.000000 0.000000 1.000000
0.000000 0.000000 1.000000
0.000000 0.000000 1.000000
0.000000 0.000000 1.000000
0.000000 0.000000 1.000000
0.000000 0.000000 1.000000
0.000000 0.000000 1.000000
0.000000 0.000000 1.000000
0.000000 0.000000 1.000000
0.000000 0.000000 1.000000
0.000000 0.000000 1.000000
0.000000 0.000000 1.000000
0.000000 0.000000 1.000000
0.000000 0.000000 1.000000
0.000000 0.000000 1.000000
0.000000 0.000000 1.000000
0.000000 0.000000 1.000000
0.000000 0.000000 1.000000
0.000000 0.000000 1.000000
0.000000 0.000000 1.000000
0.000000 0.000000 1.000000
0.000000 0.000000 1.000000
0.000000 0.000000 1.000000
0.000000 0.000000 1.000000
0.000000 0.000000 1.000000
0.000000 0.000000 1.000000
0.000000 0.000000 1.000000
0.000000 0.000000 1.000000
0.000000 0.000000 1.000000
0.000000 0.000000 1.000000
0.000000 0.000000 1.000000
0.000000 0.000000 1.000000
0.000000 0.000000 1.000000
0.000000 0.000000 1.000000
0.000000 0.000000 1.000000
0.000000 0.000000 1.000000
0.000000 0.000000 1.000000
0.000000 -0.950664 0.310222
0.000000 -0.950664 0.310222
-0.000000 -0.950664 0.310222
-0.000000 -0.950664 0.310222
0.000000 -0.950664 0.310222
0.000000 -0.950664 0.310222
0.942403 0.001144 0.334478
0.942402 0.001146 0.334481
0.942406 0.001144 0.334471
0.942406 0.001144 0.334471
0.942407 0.001139 0.334467
0.942403 0.001144 0.334478
0.000000 0.950664 0.310222
0.000000 0.950664 0.310222
0.000000 0.950664 0.310222
0.000000 0.950664 0.310222
0.000000 0.950664 0.310222
0.000000 0.950664 0.310222
0.000000 -0.950664 0.310223
0.000000 -0.950664 0.310222
0.000000 -0.950664 0.310222
0.000000 -0.950664 0.310222
0.000000 -0.950664 0.310223
0.000000 -0.950664 0.310223
0.954430 0.010424 0.298252
0.954400 0.010374 0.298352
0.954414 0.010397 0.298305
0.954414 0.010397 0.298305
0.954440 0.010440 0.298221
0.954430 0.010424 0.298252
0.000001 0.950664 0.310223
0.000001 0.950664 0.310223
0.000001 0.950664 0.310223
0.000001 0.950664 0.310223
0.000001 0.950664 0.310223
0.000001 0.950664 0.310223
-0.954450 -0.008031 0.298263
-0.954426 -0.007992 0.298340
-0.954437 -0.008010 0.298304
-0.954437 -0.008010 0.298304
-0.954457 -0.008043 0.298239
-0.954450 -0.008031 0.298263
0.000000 -0.950664 0.310222
0.000000 -0.950664 0.310222
0.000000 -0.950664 0.310222
0.000000 -0.950664 0.310222
0.000000 -0.950664 0.310222
0.000000 -0.950664 0.310222
0.954459 0.005792 0.298285
0.954442 0.005764 0.298340
0.954450 0.005777 0.298315
0.954450 0.005777 0.298315
0.954465 0.005801 0.298268
0.954459 0.005792 0.298285
-0.000000 0.950664 0.310222
-0.000000 0.950664 0.310222
-0.000000 0.950664 0.310222
-0.000000 0.950664 0.310222
-0.000000 0.950664 0.310223
-0.000000 0.950664 0.310222
-0.954468 -0.003474 0.298294
-0.954457 -0.003458 0.298327
-0.954462 -0.003466 0.298312
-0.954462 -0.003466 0.298312
-0.954471 -0.003480 0.298283
-0.954468 -0.003474 0.298294
0.000000 0.000000 1.000000
0.000000 0.000000 1.000000
0.000000 0.000000 1.000000
0.000000 0.000000 1.000000
0.000000 0.000000 1.000000
0.000000 0.000000 1.000000
0.000000 0.000000 1.000000
0.000000 0.000000 1.000000
0.000000 0.000000 1.000000
0.000000 0.000000 1.000000
0.000000 0.000000 1.000000
0.000000 0.000000 1.000000
0.000000 0.000000 1.000000
0.000000 0.000000 1.000000
0.000000 0.000000 1.000000
0.000000 0.000000 1.000000
0.000000 0.000000 1.000000
0.000000 0.000000 1.000000
-0.000000 -0.950664 0.310222
-0.000000 -0.950664 0.310222
0.000000 -0.950664 0.310222
0.000000 -0.950664 0.310222
0.000000 -0.950664 0.310223
-0.000000 -0.950664 0.310222
0.942406 0.001145 0.334470
0.942406 0.001144 0.334471
0.942402 0.001146 0.334481
0.942402 0.001146 0.334481
0.942402 0.001146 0.334481
0.942406 0.001145 0.334470
-0.000000 0.950664 0.310222
0.000000 0.950664 0.310222
0.000000 0.950664 0.310222
0.000000 0.950664 0.310222
0.000000 0.950664 0.310222
-0.000000 0.950664 0.310222
</float_array>
          <technique_common>
            <accessor source="#bulkhead_frame-Normal0-array" count="1188" stride="3">
              <param name="X" type="float"/>
              <param name="Y" type="float"/>
              <param name="Z" type="float"/>
            </accessor>
          </technique_common>
        </source>
        <source id="bulkhead_frame-UV0">
          <float_array id="bulkhead_frame-UV0-array" count="680">
0.920099 0.251955
0.885240 0.251955
0.885240 0.325813
0.920099 0.325813
0.895181 0.023051
0.895181 0.064150
0.904014 0.064150
0.904014 0.023051
0.895181 0.182807
0.895181 0.212168
0.904014 0.182807
0.904014 0.003661
0.895181 0.003661
0.895181 0.144031
0.904014 0.144031
0.895181 0.102929
0.904014 0.102929
1.000884 0.754983
1.000884 0.966353
1.000884 0.995549
1.000884 0.875267
1.000884 0.633448
0.945283 0.183258
0.941658 0.212168
0.954013 0.212168
0.954013 0.182807
0.954013 0.144031
0.945283 0.144379
0.954013 0.023051
0.954014 0.003661
0.945284 0.003661
0.945283 0.023101
0.954013 0.102929
0.945283 0.103179
0.954013 0.064150
0.945283 0.064300
1.139160 0.875267
1.139160 0.995549
1.139160 0.966353
1.139160 0.754983
1.139160 0.633448
0.885240 0.267348
0.885240 0.310429
0.904946 0.310429
0.904946 0.267348
0.865099 0.267348
0.865099 0.310429
0.904946 0.310429
0.904946 0.267348
0.865099 0.267348
0.865099 0.310429
0.904946 0.310429
0.904946 0.267348
0.991354 0.252493
0.966621 0.252493
0.966621 0.372126
0.991354 0.372126
0.965505 0.163419
0.883689 0.083540
0.965506 0.003662
0.965506 0.023051
0.965506 0.083540
0.965505 0.224331
0.883689 0.224331
0.883689 0.163419
0.883689 0.003662
0.883689 0.023052
0.933070 0.218942
0.926360 0.218942
0.926360 0.405677
0.933070 0.405677
0.863482 0.083540
0.855350 0.163419
0.993845 0.083540
0.985713 0.083540
0.863482 0.003663
0.855350 0.003663
0.855350 0.023052
0.863482 0.023052
0.855350 0.083540
0.855350 0.244130
0.863483 0.235997
0.863482 0.163419
0.985712 0.235997
0.993844 0.244129
0.993845 0.163419
0.985712 0.163419
0.993845 0.003663
0.985713 0.003662
0.985713 0.023052
0.993845 0.023052
0.921417 0.250616
0.885240 0.250616
0.885240 0.327150
0.921417 0.327150
0.921417 0.250616
0.848624 0.250616
0.848624 0.327150
0.921417 0.327150
0.921417 0.250616
0.848624 0.250616
0.848624 0.327150
0.921417 0.327150
0.040573 0.948569
0.040573 0.994383
1.139053 0.995722
1.139053 0.949808
0.087186 0.948569
0.099579 0.994380
0.099579 0.948566
1.000720 0.949808
1.000720 0.995722
0.111778 0.994383
0.111778 0.948568
0.028375 0.948569
0.028375 0.994384
0.006551 0.994383
0.006551 0.948570
0.000794 0.947297
0.000794 0.993108
0.133604 0.948569
0.133604 0.994383
0.139361 0.994387
0.139361 0.948575
0.040573 0.032989
0.040573 0.078105
1.139054 0.077424
1.139054 0.000759
0.099579 0.078104
0.099579 0.032988
0.087186 0.032989
0.087186 0.078105
1.000719 0.000759
1.000719 0.077424
0.028375 0.021461
0.028375 0.078103
0.111778 0.078102
0.111778 0.021460
0.133604 0.009752
0.133604 0.078101
0.139361 0.078127
0.139361 0.001643
0.006551 0.078102
0.006551 0.009753
0.000794 0.000365
0.000794 0.076849
0.198981 0.997249
0.198981 0.009225
0.187108 0.009225
0.187108 0.997249
0.990893 0.413973
0.916405 0.413972
0.867773 0.473498
0.990893 0.473498
0.916405 0.413972
0.990893 0.413973
0.990893 0.473498
0.867773 0.473498
0.172080 0.009225
0.153900 0.009225
0.153900 0.997249
0.172080 0.997249
0.228071 0.997249
0.258121 0.997249
0.258121 0.009225
0.228071 0.009225
0.916405 0.350378
0.867773 0.350378
0.867773 0.350378
0.916405 0.350378
1.139160 0.875267
1.139160 0.754983
1.000884 0.754983
1.000884 0.875267
1.139054 0.077424
1.139054 0.000759
1.000719 0.000759
1.000719 0.077424
0.139361 0.078127
0.139361 0.001643
0.133604 0.009752
0.133604 0.078101
0.000794 0.993108
0.006551 0.994383
0.006551 0.948570
0.000794 0.947297
0.855350 0.163419
0.863482 0.163419
0.863482 0.083540
0.855350 0.083540
0.040573 0.994383
0.099579 0.994380
0.099579 0.948566
0.087186 0.948569
0.040573 0.948569
0.954013 0.182807
0.945283 0.183258
0.941658 0.212168
0.954013 0.212168
0.965505 0.163419
0.985712 0.163419
0.985713 0.083540
0.965506 0.083540
0.133604 0.948569
0.111778 0.948568
0.111778 0.994383
0.133604 0.994383
0.006551 0.009753
0.006551 0.078102
0.028375 0.078103
0.028375 0.021461
0.954013 0.144031
0.954013 0.102929
0.040573 0.078105
0.040573 0.032989
0.895181 0.064150
0.883689 0.083540
0.895181 0.102929
0.087186 0.078105
0.099579 0.078104
0.099579 0.032988
0.087186 0.032989
1.000720 0.949808
1.139053 0.949808
0.139361 0.948575
0.000794 0.000365
0.000794 0.076849
0.111778 0.021460
0.111778 0.078102
0.028375 0.948569
1.000720 0.995722
1.139053 0.995722
0.139361 0.994387
0.028375 0.994384
0.153900 0.997249
0.172080 0.997249
0.172080 0.009225
0.153900 0.009225
0.867773 0.473498
0.990893 0.473498
0.990893 0.413973
0.916405 0.413972
0.258121 0.009225
0.228071 0.009225
0.228071 0.997249
0.258121 0.997249
0.990893 0.473498
0.867773 0.473498
0.916405 0.413972
0.990893 0.413973
0.187108 0.009225
0.187108 0.997249
0.198981 0.997249
0.198981 0.009225
0.867773 0.350378
0.916405 0.350378
0.916405 0.350378
0.867773 0.350378
0.904946 0.267348
0.885240 0.267348
0.885240 0.310429
0.904946 0.310429
0.904946 0.267348
0.865099 0.267348
0.865099 0.310429
0.904946 0.310429
0.904946 0.267348
0.865099 0.267348
0.865099 0.310429
0.904946 0.310429
0.945283 0.064300
0.945283 0.023101
0.904014 0.023051
0.904014 0.064150
0.895181 0.023051
0.904014 0.102929
0.904014 0.144031
0.945283 0.144379
0.945283 0.103179
1.139160 0.995549
1.139160 0.966353
1.000884 0.966353
1.000884 0.995549
1.000884 0.633448
1.139160 0.633448
0.855350 0.023052
0.863482 0.023052
0.863482 0.003663
0.855350 0.003663
0.855350 0.244130
0.863483 0.235997
0.965506 0.023051
0.985713 0.023052
0.985713 0.003662
0.965506 0.003662
0.965505 0.224331
0.985712 0.235997
0.954013 0.023051
0.954014 0.003661
0.954013 0.064150
0.993844 0.244129
0.993845 0.163419
0.993845 0.083540
0.993845 0.023052
0.993845 0.003663
0.883689 0.163419
0.883689 0.224331
0.883689 0.023052
0.883689 0.003662
0.895181 0.182807
0.895181 0.212168
0.895181 0.144031
0.895181 0.003661
0.904014 0.182807
0.904014 0.003661
0.945284 0.003661
0.885240 0.251955
0.920099 0.251955
0.920099 0.325813
0.885240 0.325813
0.921417 0.250616
0.848624 0.250616
0.921417 0.327150
0.848624 0.327150
0.921417 0.250616
0.848624 0.250616
0.921417 0.327150
0.848624 0.327150
0.991354 0.252493
0.966621 0.252493
0.966621 0.372126
0.991354 0.372126
0.933070 0.218942
0.933070 0.405677
0.926360 0.218942
0.926360 0.405677
0.921417 0.250616
0.885240 0.250616
0.921417 0.327150
0.885240 0.327150
</float_array>
          <technique_common>
            <accessor source="#bulkhead_frame-UV0-array" count="340" stride="2">
              <param name="S" type="float"/>
              <param name="T" type="float"/>
            </accessor>
          </technique_common>
        </source>
        <vertices id="bulkhead_frame-VERTEX">
          <input semantic="POSITION" source="#bulkhead_frame-POSITION"/>
        </vertices>
        <polylist count="396" material="Material #430">
          <input semantic="VERTEX" offset="0" source="#bulkhead_frame-VERTEX"/>
          <input semantic="NORMAL" offset="1" source="#bulkhead_frame-Normal0"/>
          <input semantic="TEXCOORD" offset="2" set="0" source="#bulkhead_frame-UV0"/>
          <vcount>3 3 3 3 3 3 3 3 3 3 3 3 3 3 3 3 3 3 3 3 3 3 3 3 3 3 3 3 3 3 3 3 3 3 3 3 3 3 3 3 3 3 3 3 3 3 3 3 3 3 3 3 3 3 3 3 3 3 3 3 3 3 3 3 3 3 3 3 3 3 3 3 3 3 3 3 3 3 3 3 3 3 3 3 3 3 3 3 3 3 3 3 3 3 3 3 3 3 3 3 3 3 3 3 3 3 3 3 3 3 3 3 3 3 3 3 3 3 3 3 3 3 3 3 3 3 3 3 3 3 3 3 3 3 3 3 3 3 3 3 3 3 3 3 3 3 3 3 3 3 3 3 3 3 3 3 3 3 3 3 3 3 3 3 3 3 3 3 3 3 3 3 3 3 3 3 3 3 3 3 3 3 3 3 3 3 3 3 3 3 3 3 3 3 3 3 3 3 3 3 3 3 3 3 3 3 3 3 3 3 3 3 3 3 3 3 3 3 3 3 3 3 3 3 3 3 3 3 3 3 3 3 3 3 3 3 3 3 3 3 3 3 3 3 3 3 3 3 3 3 3 3 3 3 3 3 3 3 3 3 3 3 3 3 3 3 3 3 3 3 3 3 3 3 3 3 3 3 3 3 3 3 3 3 3 3 3 3 3 3 3 3 3 3 3 3 3 3 3 3 3 3 3 3 3 3 3 3 3 3 3 3 3 3 3 3 3 3 3 3 3 3 3 3 3 3 3 3 3 3 3 3 3 3 3 3 3 3 3 3 3 3 3 3 3 3 3 3 3 3 3 3 3 3 3 3 3 3 3 3 3 3 3 3 3 3 3 3 3 3 3 3 3 3 3 3 3 3 3 3 3 3 3 3 3 3 3 3 3 3 3 3 3 3 3 3 </vcount>
          <p> 34 0 39 16 1 17 18 2 20 18 3 20 32 4 36 34 5 39 19 6 127 35 7 132 84 8 133 84 9 133 81 10 126 19 11 127 35 12 141 68 13 138 87 14 139 87 15 139 84 16 140 35 17 141 60 18 119 59 19 116 78 20 117 78 21 117 72 22 118 60 23 119 67 24 82 63 25 71 18 26 79 18 27 79 16 28 72 67 29 82 47 30 104 50 31 108 74 32 109 47 33 104 74 34 109 73 35 107 47 36 104 73 37 107 71 38 103 23 39 25 20 40 22 21 41 23 21 42 23 22 43 24 23 44 25 69 45 86 64 46 74 54 47 61 54 48 61 51 49 57 69 50 86 76 51 113 49 52 112 62 53 121 62 54 121 79 55 120 76 56 113 88 57 142 85 58 135 56 59 134 56 60 134 66 61 143 88 62 142 51 63 57 54 64 61 28 65 32 28 66 32 24 67 26 51 68 57 76 69 113 74 70 109 50 71 108 50 72 108 49 73 112 76 74 113 85 75 135 80 76 125 10 77 124 10 78 124 56 79 134 85 80 135 6 81 5 52 82 58 14 83 15 83 84 131 82 85 128 22 86 129 22 87 129 21 88 130 83 89 131 81 90 126 84 91 133 75 92 110 75 93 110 72 94 106 81 95 126 84 96 140 87 97 139 79 98 120 79 99 120 75 100 123 84 101 140 81 102 145 88 103 142 66 104 143 66 105 143 19 106 144 81 107 145 80 108 125 83 109 131 21 110 130 21 111 130 10 112 124 80 113 125 86 114 136 87 115 139 68 116 138 68 117 138 55 118 137 86 119 136 85 120 135 88 121 142 78 122 117 78 123 117 77 124 114 85 125 135 82 126 128 86 127 136 55 128 137 55 129 137 22 130 129 82 131 128 80 132 125 85 133 135 77 134 114 77 135 114 71 136 103 80 137 125 72 138 118 78 139 117 88 140 142 88 141 142 81 142 145 72 143 118 71 144 103 73 145 107 83 146 131 83 147 131 80 148 125 71 149 103 76 150 113 79 151 120 87 152 139 87 153 139 86 154 136 76 155 113 74 156 109 76 157 113 86 158 136 86 159 136 82 160 128 74 161 109 72 162 106 75 163 110 61 164 111 61 165 111 60 166 105 72 167 106 75 168 123 79 169 120 62 170 121 62 171 121 61 172 122 75 173 123 78 174 117 59 175 116 48 176 115 48 177 115 77 178 114 78 179 117 71 180 103 77 181 114 48 182 115 48 183 115 47 184 104 71 185 103 95 186 161 93 187 158 83 188 159 83 189 159 73 190 160 95 191 161 82 192 153 83 193 150 93 194 151 93 195 151 94 196 152 82 197 153 94 198 165 96 199 162 74 200 163 74 201 163 82 202 164 94 203 165 96 204 157 95 205 154 73 206 155 73 207 155 74 208 156 96 209 157 92 210 149 89 211 146 90 212 147 90 213 147 91 214 148 92 215 149 90 216 147 89 217 146 96 218 162 96 219 162 94 220 165 90 221 147 89 222 167 92 223 166 95 224 154 95 225 154 96 226 157 89 227 167 92 228 149 91 229 148 93 230 158 93 231 158 95 232 161 92 233 149 91 234 169 90 235 168 94 236 152 94 237 152 93 238 151 91 239 169 38 240 44 0 241 41 36 242 42 36 243 42 37 244 43 38 245 44 42 246 48 39 247 45 40 248 46 40 249 46 41 250 47 42 251 48 46 252 52 43 253 49 44 254 50 44 255 50 45 256 51 46 257 52 31 258 35 27 259 31 8 260 7 8 261 7 7 262 6 31 263 35 6 264 5 7 265 6 8 266 7 8 267 7 5 268 4 6 269 5 15 270 16 13 271 14 25 272 27 25 273 27 29 274 33 15 275 16 176 276 37 33 277 38 17 278 18 17 279 18 179 280 19 176 281 37 32 282 36 18 283 20 17 284 18 17 285 18 33 286 38 32 287 36 16 288 17 34 289 39 35 290 40 35 291 40 19 292 21 16 293 17 65 294 78 181 295 75 179 296 76 179 297 76 17 298 77 65 299 78 63 300 71 65 301 78 17 302 77 17 303 77 18 304 79 63 305 71 16 306 72 19 307 80 66 308 81 66 309 81 67 310 82 16 311 72 70 312 89 184 313 88 185 314 59 185 315 59 53 316 60 70 317 89 64 318 74 70 319 89 53 320 60 53 321 60 54 322 61 64 323 74 51 324 57 55 325 62 68 326 83 68 327 83 69 328 86 51 329 57 53 330 60 185 331 59 187 332 29 187 333 29 26 334 28 53 335 60 54 336 61 53 337 60 26 338 28 26 339 28 30 340 34 54 341 61 28 342 32 54 343 61 30 344 34 23 345 25 22 346 24 55 347 62 55 348 62 51 349 57 23 350 25 51 351 57 24 352 26 23 353 25 69 354 86 68 355 83 35 356 84 35 357 84 34 358 85 69 359 86 32 360 73 64 361 74 69 362 86 69 363 86 34 364 85 32 365 73 33 366 90 176 367 87 184 368 88 184 369 88 70 370 89 33 371 90 64 372 74 32 373 73 33 374 90 33 375 90 70 376 89 64 377 74 67 378 82 66 379 81 56 380 63 56 381 63 57 382 64 67 383 82 63 384 71 67 385 82 57 386 64 57 387 64 52 388 58 63 389 71 58 390 66 1 391 65 181 392 75 181 393 75 65 394 78 58 395 66 52 396 58 58 397 66 65 398 78 65 399 78 63 400 71 52 401 58 57 402 64 56 403 63 10 404 9 10 405 9 9 406 8 57 407 64 12 408 13 57 409 64 9 410 8 14 411 15 52 412 58 57 413 64 57 414 64 12 415 13 14 416 15 5 417 4 193 418 12 1 419 65 1 420 65 58 421 66 5 422 4 52 423 58 6 424 5 5 425 4 5 426 4 58 427 66 52 428 58 20 429 22 23 430 25 24 431 26 24 432 26 25 433 27 20 434 22 21 435 23 20 436 22 11 437 10 11 438 10 9 439 8 10 440 9 21 441 23 11 442 10 10 443 9 5 444 4 8 445 7 195 446 11 195 447 11 193 448 12 5 449 4 27 450 31 26 451 28 187 452 29 187 453 29 196 454 30 27 455 31 13 456 14 12 457 13 9 458 8 9 459 8 11 460 10 13 461 14 25 462 27 24 463 26 28 464 32 28 465 32 29 466 33 25 467 27 15 468 16 14 469 15 12 470 13 12 471 13 13 472 14 15 473 16 29 474 33 28 475 32 30 476 34 30 477 34 31 478 35 29 479 33 14 480 15 15 481 16 7 482 6 7 483 6 6 484 5 14 485 15 31 486 35 30 487 34 26 488 28 26 489 28 27 490 31 31 491 35 0 492 41 38 493 44 3 494 0 3 495 0 197 496 1 0 497 41 38 498 44 37 499 43 4 500 3 4 501 3 3 502 0 38 503 44 37 504 43 36 505 42 2 506 2 2 507 2 4 508 3 37 509 43 39 510 45 42 511 48 20 512 95 20 513 95 25 514 96 39 515 45 41 516 47 11 517 98 20 518 95 20 519 95 42 520 48 41 521 47 41 522 47 40 523 46 13 524 97 13 525 97 11 526 98 41 527 47 39 528 45 25 529 96 13 530 97 13 531 97 40 532 46 39 533 45 43 534 49 46 535 52 29 536 99 29 537 99 31 538 100 43 539 49 45 540 51 15 541 102 29 542 99 29 543 99 46 544 52 45 545 51 45 546 51 44 547 50 7 548 101 7 549 101 15 550 102 45 551 51 43 552 49 31 553 100 7 554 101 7 555 101 44 556 50 43 557 49 48 558 54 49 559 55 50 560 56 50 561 56 47 562 53 48 563 54 59 564 67 62 565 70 49 566 55 49 567 55 48 568 54 59 569 67 60 570 68 61 571 69 62 572 70 62 573 70 59 574 67 60 575 68 27 576 91 196 577 92 197 578 1 197 579 1 3 580 0 27 581 91 8 582 94 27 583 91 3 584 0 3 585 0 4 586 3 8 587 94 195 588 93 8 589 94 4 590 3 4 591 3 2 592 2 195 593 93 98 594 171 97 595 170 100 596 173 100 597 173 99 598 172 98 599 171 102 600 175 101 601 174 104 602 177 104 603 177 103 604 176 102 605 175 103 606 179 104 607 178 106 608 181 106 609 181 105 610 180 103 611 179 107 612 182 110 613 185 109 614 184 109 615 184 108 616 183 107 617 182 111 618 187 99 619 186 100 620 189 100 621 189 112 622 188 111 623 187 113 624 190 117 625 194 116 626 193 113 627 190 116 628 193 115 629 192 113 630 190 115 631 192 114 632 191 118 633 195 121 634 198 120 635 197 120 636 197 119 637 196 118 638 195 123 639 200 122 640 199 125 641 202 125 642 202 124 643 201 123 644 200 127 645 204 126 646 203 129 647 206 129 648 206 128 649 205 127 650 204 131 651 208 130 652 207 133 653 210 133 654 210 132 655 209 131 656 208 122 657 199 134 658 211 135 659 212 135 660 212 125 661 202 122 662 199 127 663 204 128 664 205 114 665 191 114 666 191 115 667 192 127 668 204 132 669 209 133 670 210 137 671 214 137 672 214 136 673 213 132 674 209 138 675 215 140 676 217 139 677 216 141 678 218 120 679 221 121 680 220 121 681 220 142 682 219 141 683 218 101 684 174 110 685 223 143 686 222 143 687 222 104 688 177 101 689 174 104 690 178 143 691 224 126 692 203 126 693 203 106 694 181 104 695 178 101 696 226 102 697 225 130 698 207 130 699 207 131 700 208 101 701 226 136 702 213 137 703 214 120 704 221 120 705 221 141 706 218 136 707 213 145 708 228 144 709 227 105 710 180 105 711 180 106 712 181 145 713 228 132 714 209 146 715 229 109 716 184 109 717 184 131 718 208 132 719 209 142 720 219 121 721 220 144 722 227 144 723 227 145 724 228 142 725 219 136 726 213 117 727 194 146 728 229 146 729 229 132 730 209 136 731 213 110 732 185 101 733 226 131 734 208 131 735 208 109 736 184 110 737 185 117 738 194 136 739 213 141 740 218 141 741 218 116 742 193 117 743 194 127 744 204 145 745 228 106 746 181 106 747 181 126 748 203 127 749 204 115 750 192 142 751 219 145 752 228 145 753 228 127 754 204 115 755 192 110 756 223 107 757 231 147 758 230 147 759 230 143 760 222 110 761 223 143 762 224 147 763 232 129 764 206 129 765 206 126 766 203 143 767 224 109 768 184 146 769 229 148 770 233 148 771 233 108 772 183 109 773 184 117 774 194 113 775 190 148 776 233 148 777 233 146 778 229 117 779 194 149 780 235 116 781 234 141 782 237 141 783 237 150 784 236 149 785 235 142 786 239 151 787 238 150 788 241 150 789 241 141 790 240 142 791 239 151 792 243 142 793 242 115 794 245 115 795 245 152 796 244 151 797 243 152 798 247 115 799 246 116 800 249 116 801 249 149 802 248 152 803 247 154 804 251 153 805 250 156 806 253 156 807 253 155 808 252 154 809 251 156 810 253 151 811 243 152 812 244 152 813 244 155 814 252 156 815 253 155 816 254 152 817 247 149 818 248 149 819 248 154 820 255 155 821 254 154 822 251 149 823 235 150 824 236 150 825 236 153 826 250 154 827 251 153 828 256 150 829 241 151 830 238 151 831 238 156 832 257 153 833 256 157 834 258 158 835 261 36 836 260 36 837 260 0 838 259 157 839 258 159 840 262 162 841 265 161 842 264 161 843 264 160 844 263 159 845 262 163 846 266 166 847 269 165 848 268 165 849 268 164 850 267 163 851 266 167 852 270 170 853 273 169 854 272 169 855 272 168 856 271 167 857 270 138 858 215 171 859 274 169 860 272 169 861 272 170 862 273 138 863 215 172 864 275 175 865 278 174 866 277 174 867 277 173 868 276 172 869 275 176 870 279 179 871 282 178 872 281 178 873 281 177 874 280 176 875 279 97 876 170 177 877 280 178 878 281 178 879 281 100 880 173 97 881 170 99 882 172 102 883 283 103 884 284 103 885 284 98 886 171 99 887 172 180 888 286 178 889 285 179 890 288 179 891 288 181 892 287 180 893 286 112 894 188 100 895 189 178 896 285 178 897 285 180 898 286 112 899 188 99 900 186 111 901 187 130 902 290 130 903 290 102 904 289 99 905 186 183 906 292 182 907 291 185 908 294 185 909 294 184 910 293 183 911 292 124 912 201 125 913 202 182 914 291 182 915 291 183 916 292 124 917 201 122 918 199 123 919 200 105 920 296 105 921 296 144 922 295 122 923 199 182 924 291 186 925 297 187 926 298 187 927 298 185 928 294 182 929 291 125 930 202 188 931 299 186 932 297 186 933 297 182 934 291 125 935 202 135 936 212 188 937 299 125 938 202 118 939 195 122 940 199 144 941 295 144 942 295 121 943 198 118 944 195 122 945 199 118 946 195 134 947 211 123 948 200 98 949 301 103 950 300 103 951 300 105 952 296 123 953 200 97 954 302 98 955 301 123 956 200 123 957 200 124 958 201 97 959 302 177 960 303 183 961 292 184 962 293 184 963 293 176 964 304 177 965 303 124 966 201 183 967 292 177 968 303 177 969 303 97 970 302 124 971 201 111 972 187 189 973 305 133 974 306 133 975 306 130 976 290 111 977 187 112 978 188 139 979 216 189 980 305 189 981 305 111 982 187 112 983 188 190 984 307 180 985 286 181 986 287 181 987 287 1 988 308 190 989 307 139 990 216 112 991 188 180 992 286 180 993 286 190 994 307 139 995 216 189 996 305 191 997 309 137 998 310 137 999 310 133 1000 306 189 1001 305 192 1002 311 191 1003 309 189 1004 305 140 1005 217 192 1006 311 189 1007 305 189 1008 305 139 1009 216 140 1010 217 171 1011 274 190 1012 307 1 1013 308 1 1014 308 193 1015 312 171 1016 274 139 1017 216 190 1018 307 171 1019 274 171 1020 274 138 1021 215 139 1022 216 119 1023 196 174 1024 277 134 1025 211 134 1026 211 118 1027 195 119 1028 196 137 1029 310 191 1030 309 194 1031 313 120 1032 197 137 1033 310 194 1034 313 120 1035 197 194 1036 313 119 1037 196 171 1038 274 193 1039 312 195 1040 314 195 1041 314 169 1042 272 171 1043 274 168 1044 271 196 1045 315 187 1046 298 187 1047 298 186 1048 297 168 1049 271 173 1050 276 194 1051 313 191 1052 309 191 1053 309 192 1054 311 173 1055 276 174 1056 277 175 1057 278 135 1058 212 135 1059 212 134 1060 211 174 1061 277 172 1062 275 173 1063 276 192 1064 311 192 1065 311 140 1066 217 172 1067 275 175 1068 278 167 1069 270 188 1070 299 188 1071 299 135 1072 212 175 1073 278 140 1074 217 138 1075 215 170 1076 273 170 1077 273 172 1078 275 140 1079 217 167 1080 270 168 1081 271 186 1082 297 186 1083 297 188 1084 299 167 1085 270 0 1086 259 197 1087 316 198 1088 317 198 1089 317 157 1090 258 0 1091 259 157 1092 258 198 1093 317 199 1094 318 199 1095 318 158 1096 261 157 1097 258 158 1098 261 199 1099 318 2 1100 319 2 1101 319 36 1102 260 158 1103 261 160 1104 263 174 1105 321 119 1106 320 119 1107 320 159 1108 262 160 1109 263 162 1110 265 159 1111 262 119 1112 320 119 1113 320 194 1114 322 162 1115 265 162 1116 265 194 1117 322 173 1118 323 173 1119 323 161 1120 264 162 1121 265 160 1122 263 161 1123 264 173 1124 323 173 1125 323 174 1126 321 160 1127 263 164 1128 267 167 1129 325 175 1130 324 175 1131 324 163 1132 266 164 1133 267 166 1134 269 163 1135 266 175 1136 324 175 1137 324 172 1138 326 166 1139 269 166 1140 269 172 1141 326 170 1142 327 170 1143 327 165 1144 268 166 1145 269 164 1146 267 165 1147 268 170 1148 327 170 1149 327 167 1150 325 164 1151 267 148 1152 329 113 1153 328 114 1154 331 114 1155 331 128 1156 330 148 1157 329 108 1158 332 148 1159 329 128 1160 330 128 1161 330 129 1162 333 108 1163 332 107 1164 334 108 1165 332 129 1166 333 129 1167 333 147 1168 335 107 1169 334 168 1170 336 198 1171 317 197 1172 316 197 1173 316 196 1174 337 168 1175 336 169 1176 338 199 1177 318 198 1178 317 198 1179 317 168 1180 336 169 1181 338 195 1182 339 2 1183 319 199 1184 318 199 1185 318 169 1186 338 195 1187 339</p>
        </polylist>
      </mesh>
    </geometry>
  </library_geometries>
  <library_visual_scenes>
    <visual_scene id="" name="">
      <node name="wall_ends" id="wall_ends" layer="sewers_bulkhead" sid="wall_ends">
        <matrix sid="matrix">1.000000 0.000000 0.000000 0.000000 0.000000 1.000000 0.000000 0.000000 0.000000 0.000000 1.000000 0.000000 0.000000 0.000000 0.000000 1.000000</matrix>
        <instance_geometry url="#wall_ends-lib">
          <bind_material>
            <technique_common>
              <instance_material symbol="Material #431" target="#Material #431"/>
            </technique_common>
          </bind_material>
        </instance_geometry>
        <extra>
          <technique profile="FCOLLADA">
            <visibility>1.000000</visibility>
          </technique>
        </extra>
      </node>
      <node name="bulkhead_frame" id="bulkhead_frame" layer="sewers_bulkhead" sid="bulkhead_frame">
        <matrix sid="matrix">1.000000 0.000000 0.000000 0.000000 0.000000 1.000000 0.000000 0.000000 0.000000 0.000000 1.000000 0.000000 0.000000 0.000000 0.000000 1.000000</matrix>
        <instance_geometry url="#bulkhead_frame-lib">
          <bind_material>
            <technique_common>
              <instance_material symbol="Material #430" target="#Material #430"/>
            </technique_common>
          </bind_material>
        </instance_geometry>
        <extra>
          <technique profile="FCOLLADA">
            <visibility>1.000000</visibility>
          </technique>
        </extra>
      </node>
      <extra>
        <technique profile="MAX3D">
          <frame_rate>30.000000</frame_rate>
        </technique>
        <technique profile="FCOLLADA">
          <start_time>6.666667</start_time>
          <end_time>6.700000</end_time>
        </technique>
      </extra>
    </visual_scene>
  </library_visual_scenes>
  <scene>
    <instance_visual_scene url="#"></instance_visual_scene>
  </scene>
</COLLADA>

