<?xml version="1.0" encoding="utf-8"?>
<COLLADA xmlns="http://www.collada.org/2005/11/COLLADASchema" version="1.4.1">
  <asset><contributor><author></author><authoring_tool>FBX COLLADA exporter</authoring_tool><comments></comments></contributor><created>2018-01-23T23:33:27Z</created><keywords></keywords><modified>2018-01-23T23:33:27Z</modified><revision></revision><subject></subject><title></title><unit meter="0.010000" name="centimeter"></unit><up_axis>Y_UP</up_axis></asset>
  <library_images>
    <image id="file1-image" name="file1"><init_from>file://C:\Users\Nocturne\Documents\maya\projects\default\scenes\courtyard\courtyard_outside_wall.dds</init_from></image>
  </library_images>
  <library_materials>
    <material id="blinn1" name="blinn1">
      <instance_effect url="#blinn1-fx"/>
    </material>
  </library_materials>
  <library_effects>
    <effect id="blinn1-fx" name="blinn1">
      <profile_COMMON>
        <technique sid="standard">
          <phong>
            <emission>
              <color sid="emission">0.000000  0.000000 0.000000 1.000000</color>
            </emission>
            <ambient>
              <color sid="ambient">0.000000  0.000000 0.000000 1.000000</color>
            </ambient>
            <diffuse>
              <texture texture="file1-image" texcoord="CHANNEL0">
                <extra>
                  <technique profile="MAYA">
                    <wrapU sid="wrapU0">TRUE</wrapU>
                    <wrapV sid="wrapV0">TRUE</wrapV>
                    <blend_mode>NONE</blend_mode>
                  </technique>
                </extra>
              </texture>
            </diffuse>
            <specular>
              <color sid="specular">0.500000  0.500000 0.500000 1.000000</color>
            </specular>
            <shininess>
              <float sid="shininess">2.000000</float>
            </shininess>
            <reflective>
              <color sid="reflective">0.000000  0.000000 0.000000 1.000000</color>
            </reflective>
            <reflectivity>
              <float sid="reflectivity">0.500000</float>
            </reflectivity>
            <transparent opaque="RGB_ZERO">
              <texture texture="file1-image" texcoord="CHANNEL0">
                <extra>
                  <technique profile="MAYA">
                    <wrapU sid="wrapU0">TRUE</wrapU>
                    <wrapV sid="wrapV0">TRUE</wrapV>
                    <blend_mode>NONE</blend_mode>
                  </technique>
                </extra>
              </texture>
            </transparent>
            <transparency>
              <float sid="transparency">1.000000</float>
            </transparency>
          </phong>
        </technique>
      </profile_COMMON>
    </effect>
  </library_effects>
  <library_geometries>
    <geometry id="polySurface1-lib" name="polySurface1Mesh">
      <mesh>
        <source id="polySurface1-POSITION">
          <float_array id="polySurface1-POSITION-array" count="48">
-1.000000 0.066202 0.000000
-1.000000 0.066202 0.500000
1.000000 0.066202 0.500000
1.000000 0.066202 0.000000
1.000000 2.991590 0.500000
1.000000 2.991590 0.000000
-1.000000 2.991590 0.500000
-1.000000 2.991590 0.000000
-1.250000 0.000000 0.000000
-1.250000 0.000000 0.500000
-1.250000 3.250000 0.500000
-1.250000 3.250000 0.000000
1.250000 0.000000 0.500000
1.250000 0.000000 0.000000
1.250000 3.250000 0.000000
1.250000 3.250000 0.500000
</float_array>
          <technique_common>
            <accessor source="#polySurface1-POSITION-array" count="16" stride="3">
              <param name="X" type="float"/>
              <param name="Y" type="float"/>
              <param name="Z" type="float"/>
            </accessor>
          </technique_common>
        </source>
        <source id="polySurface1-Normal0">
          <float_array id="polySurface1-Normal0-array" count="198">
0.000000 1.000000 0.000000
0.000000 1.000000 0.000000
0.000000 1.000000 0.000000
0.000000 1.000000 0.000000
0.000000 1.000000 0.000000
0.000000 1.000000 0.000000
-1.000000 0.000000 0.000000
-1.000000 0.000000 0.000000
-1.000000 0.000000 0.000000
-1.000000 0.000000 0.000000
-1.000000 0.000000 0.000000
-1.000000 0.000000 0.000000
0.000000 -1.000000 0.000000
0.000000 -1.000000 0.000000
0.000000 -1.000000 0.000000
0.000000 -1.000000 0.000000
0.000000 -1.000000 0.000000
0.000000 -1.000000 0.000000
1.000000 0.000000 0.000000
1.000000 0.000000 0.000000
1.000000 0.000000 0.000000
1.000000 0.000000 0.000000
1.000000 0.000000 0.000000
1.000000 0.000000 0.000000
-1.000000 0.000000 0.000000
-1.000000 0.000000 0.000000
-1.000000 0.000000 0.000000
-1.000000 0.000000 0.000000
-1.000000 0.000000 0.000000
-1.000000 0.000000 0.000000
1.000000 0.000000 0.000000
1.000000 0.000000 0.000000
1.000000 0.000000 0.000000
1.000000 0.000000 0.000000
1.000000 0.000000 0.000000
1.000000 0.000000 0.000000
0.000000 1.000000 0.000000
0.000000 1.000000 0.000000
0.000000 1.000000 0.000000
0.000000 1.000000 0.000000
0.000000 1.000000 0.000000
0.000000 1.000000 0.000000
0.000000 0.000000 1.000000
0.000000 0.000000 1.000000
0.000000 0.000000 1.000000
0.000000 0.000000 1.000000
0.000000 0.000000 1.000000
0.000000 0.000000 1.000000
0.000000 0.000000 1.000000
0.000000 0.000000 1.000000
0.000000 0.000000 1.000000
0.000000 0.000000 1.000000
0.000000 0.000000 1.000000
0.000000 0.000000 1.000000
0.000000 0.000000 1.000000
0.000000 0.000000 1.000000
0.000000 0.000000 1.000000
0.000000 0.000000 1.000000
0.000000 0.000000 1.000000
0.000000 0.000000 1.000000
0.000000 0.000000 1.000000
0.000000 0.000000 1.000000
0.000000 0.000000 1.000000
0.000000 0.000000 1.000000
0.000000 0.000000 1.000000
0.000000 0.000000 1.000000
</float_array>
          <technique_common>
            <accessor source="#polySurface1-Normal0-array" count="66" stride="3">
              <param name="X" type="float"/>
              <param name="Y" type="float"/>
              <param name="Z" type="float"/>
            </accessor>
          </technique_common>
        </source>
        <source id="polySurface1-UV0">
          <float_array id="polySurface1-UV0-array" count="72">
0.068156 0.278678
0.591893 0.278678
0.640225 0.572711
0.032231 0.572712
0.032231 0.451113
0.640225 0.451112
0.028293 0.290604
0.135479 0.290604
0.153337 0.277082
0.258575 0.277082
0.633026 0.429213
0.633026 0.575131
0.049355 0.575131
0.049355 0.429214
0.028966 0.298507
0.141951 0.298507
0.141951 0.959558
0.028966 0.959558
0.057630 0.549490
0.057630 0.405229
0.634677 0.405228
0.634677 0.549489
0.145207 0.978603
0.025711 0.978603
0.025711 0.279462
0.145207 0.279461
0.591893 0.959536
0.068156 0.959536
0.539519 0.905400
0.539519 0.292547
0.258577 0.961132
0.153338 0.961132
0.135479 0.987312
0.028293 0.987312
0.120530 0.292547
0.120530 0.905400
</float_array>
          <technique_common>
            <accessor source="#polySurface1-UV0-array" count="36" stride="2">
              <param name="S" type="float"/>
              <param name="T" type="float"/>
            </accessor>
          </technique_common>
        </source>
        <vertices id="polySurface1-VERTEX">
          <input semantic="POSITION" source="#polySurface1-POSITION"/>
        </vertices>
        <triangles count="22" material="blinn1"><input semantic="VERTEX" offset="0" source="#polySurface1-VERTEX"/><input semantic="NORMAL" offset="1" source="#polySurface1-Normal0"/><input semantic="TEXCOORD" offset="2" set="0" source="#polySurface1-UV0"/><p> 0 0 10 1 1 11 3 2 13 3 3 13 1 4 11 2 5 12 3 6 14 2 7 15 5 8 17 5 9 17 2 10 15 4 11 16 5 12 18 4 13 19 7 14 21 7 15 21 4 16 19 6 17 20 7 18 22 6 19 23 0 20 25 0 21 25 6 22 23 1 23 24 8 24 8 9 25 9 11 26 31 11 27 31 9 28 9 10 29 30 12 30 6 13 31 7 15 32 33 15 33 33 13 34 7 14 35 32 10 36 2 15 37 3 11 38 5 11 39 5 15 40 3 14 41 4 9 42 0 12 43 1 1 44 34 1 45 34 12 46 1 2 47 29 9 48 0 1 49 34 10 50 27 1 51 34 6 52 35 10 53 27 10 54 27 6 55 35 15 56 26 6 57 35 4 58 28 15 59 26 15 60 26 4 61 28 12 62 1 4 63 28 2 64 29 12 65 1</p></triangles>
      </mesh>
    </geometry>
  </library_geometries>
  <library_visual_scenes>
    <visual_scene id="courtyard_outside_frame" name="courtyard_outside_frame">
      <node name="pCube1" id="pCube1" sid="pCube1"><matrix sid="matrix">250.000000 0.000000 0.000000 0.000000 0.000000 325.000000 0.000000 162.500000 0.000000 0.000000 50.000000 25.000000 0.000000 0.000000 0.000000 1.000000</matrix><extra><technique profile="FCOLLADA"><visibility>1.000000</visibility></technique></extra></node>
      <node name="pCube2" id="pCube2" sid="pCube2"><matrix sid="matrix">200.000000 0.000000 0.000000 0.000000 0.000000 292.538700 0.000000 152.889603 0.000000 0.000000 106.924200 25.000000 0.000000 0.000000 0.000000 1.000000</matrix><extra><technique profile="FCOLLADA"><visibility>1.000000</visibility></technique></extra></node>
      <node name="polySurface1" id="polySurface1" sid="polySurface1"><matrix sid="matrix">100.000000 0.000000 0.000000 0.000000 0.000000 100.000000 0.000000 0.000000 0.000000 0.000000 100.000000 0.000000 0.000000 0.000000 0.000000 1.000000</matrix><instance_geometry url="#polySurface1-lib"><bind_material><technique_common><instance_material symbol="blinn1" target="#blinn1"/></technique_common></bind_material></instance_geometry><extra><technique profile="FCOLLADA"><visibility>1.000000</visibility></technique></extra></node>
      <extra><technique profile="MAX3D"><frame_rate>30.000000</frame_rate></technique><technique profile="FCOLLADA"><start_time>0.000000</start_time><end_time>1.000000</end_time></technique></extra>
    </visual_scene>
  </library_visual_scenes>
  <scene>
    <instance_visual_scene url="#courtyard_outside_frame"></instance_visual_scene>
  </scene>
</COLLADA>
