<?xml version="1.0" encoding="utf-8"?>
<COLLADA xmlns="http://www.collada.org/2005/11/COLLADASchema" version="1.4.1">
  <asset><contributor><author></author><authoring_tool>FBX COLLADA exporter</authoring_tool><comments></comments></contributor><created>2018-01-23T23:34:00Z</created><keywords></keywords><modified>2018-01-23T23:34:00Z</modified><revision></revision><subject></subject><title></title><unit meter="0.010000" name="centimeter"></unit><up_axis>Y_UP</up_axis></asset>
  <library_images>
    <image id="file10-image" name="file10"><init_from>file://C:\Users\Nocturne\Documents\maya\projects\default\scenes\courtyard\courtyard_outside_wall.dds</init_from></image>
  </library_images>
  <library_materials>
    <material id="blinn10" name="blinn10">
      <instance_effect url="#blinn10-fx"/>
    </material>
  </library_materials>
  <library_effects>
    <effect id="blinn10-fx" name="blinn10">
      <profile_COMMON>
        <technique sid="standard">
          <phong>
            <emission>
              <color sid="emission">0.000000  0.000000 0.000000 1.000000</color>
            </emission>
            <ambient>
              <color sid="ambient">0.000000  0.000000 0.000000 1.000000</color>
            </ambient>
            <diffuse>
              <texture texture="file10-image" texcoord="CHANNEL0">
                <extra>
                  <technique profile="MAYA">
                    <wrapU sid="wrapU0">TRUE</wrapU>
                    <wrapV sid="wrapV0">TRUE</wrapV>
                    <blend_mode>NONE</blend_mode>
                  </technique>
                </extra>
              </texture>
            </diffuse>
            <specular>
              <color sid="specular">0.500000  0.500000 0.500000 1.000000</color>
            </specular>
            <shininess>
              <float sid="shininess">2.000000</float>
            </shininess>
            <reflective>
              <color sid="reflective">0.000000  0.000000 0.000000 1.000000</color>
            </reflective>
            <reflectivity>
              <float sid="reflectivity">0.500000</float>
            </reflectivity>
            <transparent opaque="RGB_ZERO">
              <texture texture="file10-image" texcoord="CHANNEL0">
                <extra>
                  <technique profile="MAYA">
                    <wrapU sid="wrapU0">TRUE</wrapU>
                    <wrapV sid="wrapV0">TRUE</wrapV>
                    <blend_mode>NONE</blend_mode>
                  </technique>
                </extra>
              </texture>
            </transparent>
            <transparency>
              <float sid="transparency">1.000000</float>
            </transparency>
          </phong>
        </technique>
      </profile_COMMON>
    </effect>
  </library_effects>
  <library_geometries>
    <geometry id="pCube17-lib" name="pCube17Mesh">
      <mesh>
        <source id="pCube17-POSITION">
          <float_array id="pCube17-POSITION-array" count="144">
-0.500000 -0.500000 -0.609422
0.500000 -0.500000 -0.609422
0.375000 -0.500000 -0.609422
-0.374227 -0.500000 -0.609422
0.500000 -0.476191 -0.604295
0.375000 -0.476191 -0.604295
-0.374227 -0.476191 -0.604295
-0.500000 -0.476191 -0.604295
0.500000 -0.468231 -0.562885
0.375000 -0.468231 -0.562885
-0.374227 -0.468231 -0.562885
-0.500000 -0.468231 -0.562885
0.500000 -0.097191 -0.562885
0.375000 -0.097191 -0.562885
-0.374227 -0.097191 -0.562885
-0.500000 -0.097191 -0.562885
0.500000 -0.089231 -0.626646
0.375000 -0.089231 -0.626646
-0.374227 -0.089231 -0.626646
-0.500000 -0.089231 -0.626646
0.500000 -0.071429 -0.604295
0.375000 -0.071429 -0.604295
-0.375773 -0.071429 -0.604295
-0.500000 -0.071429 -0.604295
0.343734 -0.071429 -0.500000
0.343766 -0.089231 -0.522351
0.343766 -0.097191 -0.458590
0.343766 -0.468231 -0.458590
0.343766 -0.476191 -0.500000
0.343766 -0.500000 -0.473684
-0.344503 -0.071429 -0.500000
-0.342997 -0.089231 -0.522351
-0.342997 -0.097191 -0.458590
-0.342997 -0.468231 -0.458590
-0.342997 -0.476191 -0.500000
-0.342997 -0.500000 -0.473684
0.500000 -0.488625 -0.629971
0.375000 -0.488625 -0.629971
0.343766 -0.488625 -0.525676
-0.342997 -0.488625 -0.525676
-0.374227 -0.488625 -0.629971
-0.500000 -0.488625 -0.629971
0.500000 -0.495067 -0.622101
0.375000 -0.495067 -0.622101
0.343766 -0.495067 -0.500000
-0.342997 -0.495067 -0.500000
-0.374227 -0.495067 -0.622101
-0.500000 -0.495067 -0.622101
</float_array>
          <technique_common>
            <accessor source="#pCube17-POSITION-array" count="48" stride="3">
              <param name="X" type="float"/>
              <param name="Y" type="float"/>
              <param name="Z" type="float"/>
            </accessor>
          </technique_common>
        </source>
        <source id="pCube17-Normal0">
          <float_array id="pCube17-Normal0-array" count="144">
0.000000 -0.931946 -0.362598
0.000000 -0.931945 -0.362600
-0.395741 -0.869413 -0.295823
0.523404 -0.811567 -0.259629
0.000000 0.934413 -0.356190
-0.404182 0.873382 -0.271736
0.404078 0.857890 -0.317406
0.000000 0.961959 -0.273192
0.000000 0.818707 -0.574212
-0.591976 0.524731 -0.611736
0.571916 0.695225 -0.435401
0.000000 0.409354 -0.912376
0.000000 -0.423291 -0.905994
-0.378961 -0.840138 -0.388016
0.406882 -0.667582 -0.623524
0.000000 -0.846582 -0.532258
0.000000 -0.809920 -0.586541
-0.590469 -0.002749 -0.807056
0.510338 -0.695315 -0.506055
0.000000 0.385363 -0.922765
0.000000 0.782201 -0.623026
-0.694882 0.562256 -0.448339
0.509157 0.689828 -0.514681
0.000000 0.782201 -0.623026
-0.347538 0.733200 -0.584496
-0.782688 -0.416876 -0.462184
-0.550173 -0.694625 -0.463471
-0.422533 0.513666 -0.746735
-0.340492 0.906827 -0.248455
-0.219319 -0.958949 -0.179769
0.509363 0.689520 -0.514890
0.685615 -0.393623 -0.612367
0.560132 -0.465327 -0.685363
0.407959 0.764569 -0.499003
0.340944 0.893152 -0.293318
0.331254 -0.927387 -0.173854
0.000000 -0.355500 -0.934676
-0.591722 0.412614 -0.692543
-0.826045 0.207913 -0.523853
0.834487 -0.271318 -0.479602
0.605919 -0.164318 -0.778371
0.000000 0.563327 -0.826234
0.000000 -0.889003 -0.457902
-0.460162 -0.773227 -0.436315
-0.387290 -0.895798 -0.218066
0.387389 -0.898294 -0.207361
0.459011 -0.801338 -0.383622
0.000000 -0.835706 -0.549177
</float_array>
          <technique_common>
            <accessor source="#pCube17-Normal0-array" count="48" stride="3">
              <param name="X" type="float"/>
              <param name="Y" type="float"/>
              <param name="Z" type="float"/>
            </accessor>
          </technique_common>
        </source>
        <source id="pCube17-UV0">
          <float_array id="pCube17-UV0-array" count="128">
0.844945 0.863185
0.838538 0.981253
0.838539 0.029364
0.844812 0.148196
0.833571 0.830136
0.863032 0.241877
0.862406 0.134898
0.884483 0.134898
0.884575 0.241843
0.863079 0.883608
0.854221 0.854008
0.875955 0.853916
0.884603 0.883637
0.862406 0.991229
0.884483 0.991229
0.849302 0.243032
0.845046 0.136560
0.849415 0.882461
0.838667 0.852969
0.845046 0.989567
0.882847 0.149538
0.889941 0.031212
0.882602 0.860373
0.879429 0.827733
0.889941 0.979404
0.870765 0.147525
0.872014 0.028361
0.870732 0.862386
0.863001 0.829437
0.872014 0.982256
0.833916 0.181198
0.862978 0.180471
0.879309 0.182168
0.838804 0.272506
0.854257 0.271475
0.875938 0.271559
0.907315 0.133627
0.905052 0.240809
0.892828 0.271571
0.893098 0.853904
0.905147 0.884692
0.907314 0.992500
0.907689 0.348260
0.997655 0.348505
0.997655 0.199179
0.907689 0.199425
0.901354 0.348260
0.543060 0.356050
0.016490 0.356050
0.883440 0.348178
0.883440 0.199506
0.901354 0.199425
0.016490 0.729446
0.543060 0.729445
0.881271 0.199506
0.881271 0.348178
0.995995 0.348505
0.995995 0.199179
0.897413 0.134178
0.896172 0.241258
0.885503 0.271566
0.885663 0.853909
0.896237 0.884234
0.897413 0.991949
</float_array>
          <technique_common>
            <accessor source="#pCube17-UV0-array" count="64" stride="2">
              <param name="S" type="float"/>
              <param name="T" type="float"/>
            </accessor>
          </technique_common>
        </source>
        <vertices id="pCube17-VERTEX">
          <input semantic="POSITION" source="#pCube17-POSITION"/>
          <input semantic="NORMAL" source="#pCube17-Normal0"/>
        </vertices>
        <triangles count="70" material="blinn10"><input semantic="VERTEX" offset="0" source="#pCube17-VERTEX"/><input semantic="TEXCOORD" offset="1" set="0" source="#pCube17-UV0"/><p> 5 5 4 6 37 8 4 6 36 7 37 8 40 12 6 9 39 11 6 9 34 10 39 11 7 13 6 9 41 14 6 9 40 12 41 14 9 15 8 16 5 5 8 16 4 6 5 5 6 9 10 17 34 10 10 17 33 18 34 10 11 19 10 17 7 13 10 17 6 9 7 13 13 42 12 43 9 45 12 43 8 44 9 45 14 46 32 49 10 51 32 49 33 50 10 51 15 56 14 46 11 57 14 46 10 51 11 57 17 25 16 26 13 20 16 26 12 21 13 20 18 27 31 28 14 22 31 28 32 23 14 22 19 29 18 27 15 24 18 27 14 22 15 24 21 3 20 2 17 25 20 2 16 26 17 25 18 27 22 0 31 28 22 0 30 4 31 28 23 1 22 0 19 29 22 0 18 27 19 29 17 25 25 31 21 3 25 31 24 30 21 3 26 32 25 31 13 20 25 31 17 25 13 20 27 54 26 55 9 45 26 55 13 42 9 45 5 5 28 34 9 15 28 34 27 33 9 15 37 8 38 35 5 5 38 35 28 34 5 5 25 31 31 28 24 30 31 28 30 4 24 30 32 23 31 28 26 32 31 28 25 31 26 32 33 47 32 53 27 48 32 53 26 52 27 48 34 10 33 18 28 34 33 18 27 33 28 34 39 11 34 10 38 35 34 10 28 34 38 35 37 8 36 7 43 59 36 7 42 58 43 59 44 60 38 35 43 59 38 35 37 8 43 59 45 61 39 11 44 60 39 11 38 35 44 60 40 12 39 11 46 62 39 11 45 61 46 62 41 14 40 12 47 63 40 12 46 62 47 63 43 59 42 58 2 37 42 58 1 36 2 37 29 38 44 60 2 37 44 60 43 59 2 37 35 39 45 61 29 38 45 61 44 60 29 38 46 62 45 61 3 40 45 61 35 39 3 40 47 63 46 62 0 41 46 62 3 40 0 41</p></triangles>
      </mesh>
    </geometry>
  </library_geometries>
  <library_visual_scenes>
    <visual_scene id="courtyard_outside_wall_low" name="courtyard_outside_wall_low">
      <node name="pPlane1" id="pPlane1" sid="pPlane1"><matrix sid="matrix">400.000000 0.000000 0.000000 0.000000 0.000000 0.000000 -400.000000 325.000000 0.000000 100.000000 0.000000 0.000000 0.000000 0.000000 0.000000 1.000000</matrix><extra><technique profile="FCOLLADA"><visibility>1.000000</visibility></technique></extra></node>
      <node name="pCube2" id="pCube2" sid="pCube2"><matrix sid="matrix">50.000000 0.000000 0.000000 -225.000000 0.000000 525.000000 0.000000 262.500000 0.000000 0.000000 50.000000 0.000000 0.000000 0.000000 0.000000 1.000000</matrix><extra><technique profile="FCOLLADA"><visibility>1.000000</visibility></technique></extra></node>
      <node name="pCube3" id="pCube3" sid="pCube3"><matrix sid="matrix">13.174710 0.000000 0.000000 -225.000000 0.000000 404.392200 0.000000 251.363998 0.000000 0.000000 100.000000 60.609329 0.000000 0.000000 0.000000 1.000000</matrix><extra><technique profile="FCOLLADA"><visibility>1.000000</visibility></technique></extra></node>
      <node name="polySurface1" id="polySurface1" sid="polySurface1"><matrix sid="matrix">100.000000 0.000000 0.000000 0.000000 0.000000 100.000000 0.000000 0.000000 0.000000 0.000000 100.000000 0.000000 0.000000 0.000000 0.000000 1.000000</matrix><extra><technique profile="FCOLLADA"><visibility>1.000000</visibility></technique></extra></node>
      <node name="pCube4" id="pCube4" sid="pCube4"><matrix sid="matrix">100.000000 0.000000 0.000000 -277.807709 0.000000 401.983800 0.000000 251.900894 0.000000 0.000000 15.240380 0.000000 0.000000 0.000000 0.000000 1.000000</matrix><extra><technique profile="FCOLLADA"><visibility>1.000000</visibility></technique></extra></node>
      <node name="pCube5" id="pCube5" sid="pCube5"><matrix sid="matrix">100.000000 0.000000 0.000000 -154.485596 0.000000 401.983800 0.000000 251.900894 0.000000 0.000000 15.240380 0.000000 0.000000 0.000000 0.000000 1.000000</matrix><extra><technique profile="FCOLLADA"><visibility>1.000000</visibility></technique></extra></node>
      <node name="polySurface2" id="polySurface2" sid="polySurface2"><matrix sid="matrix">100.000000 0.000000 0.000000 0.000000 0.000000 100.000000 0.000000 0.000000 0.000000 0.000000 100.000000 0.000000 0.000000 0.000000 0.000000 1.000000</matrix><extra><technique profile="FCOLLADA"><visibility>1.000000</visibility></technique></extra></node>
      <node name="polySurface4" id="polySurface4" sid="polySurface4"><matrix sid="matrix">100.000000 0.000000 0.000000 0.000000 0.000000 100.000000 0.000000 0.000000 0.000000 0.000000 100.000000 587.500000 0.000000 0.000000 0.000000 1.000000</matrix><extra><technique profile="FCOLLADA"><visibility>1.000000</visibility></technique></extra></node>
      <node name="pCube6" id="pCube6" sid="pCube6"><matrix sid="matrix">14.049410 0.000000 0.000000 -226.139008 0.000000 401.593100 0.000000 252.131104 0.000000 0.000000 100.000000 515.865906 0.000000 0.000000 0.000000 1.000000</matrix><extra><technique profile="FCOLLADA"><visibility>1.000000</visibility></technique></extra></node>
      <node name="pCube7" id="pCube7" sid="pCube7"><matrix sid="matrix">200.000000 0.000000 0.000000 4.869808 0.000000 300.000000 0.000000 275.000000 0.000000 0.000000 100.000000 -40.130100 0.000000 0.000000 0.000000 1.000000</matrix><extra><technique profile="FCOLLADA"><visibility>1.000000</visibility></technique></extra></node>
      <node name="pCube8" id="pCube8" sid="pCube8"><matrix sid="matrix">200.000000 0.000000 0.000000 4.869808 0.000000 300.000000 0.000000 275.000000 0.000000 0.000000 74.049760 575.000000 0.000000 0.000000 0.000000 1.000000</matrix><extra><technique profile="FCOLLADA"><visibility>1.000000</visibility></technique></extra></node>
      <node name="pCube9" id="pCube9" sid="pCube9"><matrix sid="matrix">180.913300 0.000000 0.000000 4.869808 0.000000 271.369900 0.000000 275.000000 0.000000 0.000000 114.566200 575.000000 0.000000 0.000000 0.000000 1.000000</matrix><extra><technique profile="FCOLLADA"><visibility>1.000000</visibility></technique></extra></node>
      <node name="pCube17" id="pCube17" sid="pCube17"><matrix sid="matrix">400.000000 0.000000 0.000000 0.000000 0.000000 525.000000 0.000000 262.500000 0.000000 0.000000 100.000000 50.000000 0.000000 0.000000 0.000000 1.000000</matrix><instance_geometry url="#pCube17-lib"><bind_material><technique_common><instance_material symbol="blinn10" target="#blinn10"/></technique_common></bind_material></instance_geometry><extra><technique profile="FCOLLADA"><visibility>1.000000</visibility></technique></extra></node>
      <extra><technique profile="MAX3D"><frame_rate>30.000000</frame_rate></technique><technique profile="FCOLLADA"><start_time>0.000000</start_time><end_time>1.000000</end_time></technique></extra>
    </visual_scene>
  </library_visual_scenes>
  <scene>
    <instance_visual_scene url="#courtyard_outside_wall_low"></instance_visual_scene>
  </scene>
</COLLADA>
