<?xml version="1.0" encoding="utf-8"?>
<COLLADA xmlns="http://www.collada.org/2005/11/COLLADASchema" version="1.4.1">
  <asset><contributor><author></author><authoring_tool>FBX COLLADA exporter</authoring_tool><comments></comments></contributor><created>2018-01-23T23:34:39Z</created><keywords></keywords><modified>2018-01-23T23:34:39Z</modified><revision></revision><subject></subject><title></title><unit meter="0.010000" name="centimeter"></unit><up_axis>Y_UP</up_axis></asset>
  <library_images>
    <image id="file1-image" name="file1"><init_from>file://C:\Users\Nocturne\Documents\maya\projects\default\scenes\courtyard\daisies.dds</init_from></image>
  </library_images>
  <library_materials>
    <material id="blinn2" name="blinn2">
      <instance_effect url="#blinn2-fx"/>
    </material>
  </library_materials>
  <library_effects>
    <effect id="blinn2-fx" name="blinn2">
      <profile_COMMON>
        <technique sid="standard">
          <phong>
            <emission>
              <color sid="emission">0.000000  0.000000 0.000000 1.000000</color>
            </emission>
            <ambient>
              <color sid="ambient">0.000000  0.000000 0.000000 1.000000</color>
            </ambient>
            <diffuse>
              <texture texture="file1-image" texcoord="CHANNEL0">
                <extra>
                  <technique profile="MAYA">
                    <wrapU sid="wrapU0">TRUE</wrapU>
                    <wrapV sid="wrapV0">TRUE</wrapV>
                    <blend_mode>NONE</blend_mode>
                  </technique>
                </extra>
              </texture>
            </diffuse>
            <specular>
              <color sid="specular">0.500000  0.500000 0.500000 1.000000</color>
            </specular>
            <shininess>
              <float sid="shininess">2.000000</float>
            </shininess>
            <reflective>
              <color sid="reflective">0.000000  0.000000 0.000000 1.000000</color>
            </reflective>
            <reflectivity>
              <float sid="reflectivity">0.500000</float>
            </reflectivity>
            <transparent opaque="RGB_ZERO">
              <texture texture="file1-image" texcoord="CHANNEL0">
                <extra>
                  <technique profile="MAYA">
                    <wrapU sid="wrapU0">TRUE</wrapU>
                    <wrapV sid="wrapV0">TRUE</wrapV>
                    <blend_mode>NONE</blend_mode>
                  </technique>
                </extra>
              </texture>
            </transparent>
            <transparency>
              <float sid="transparency">1.000000</float>
            </transparency>
          </phong>
        </technique>
      </profile_COMMON>
    </effect>
  </library_effects>
  <library_geometries>
    <geometry id="polySurface2-lib" name="polySurface2Mesh">
      <mesh>
        <source id="polySurface2-POSITION">
          <float_array id="polySurface2-POSITION-array" count="75">
4.000000 0.000000 4.000000
4.000000 0.000000 3.000000
4.000000 0.000000 2.000000
4.000000 0.000000 1.000000
4.000000 0.000000 0.000000
3.000000 0.000000 4.000000
3.000000 0.048458 3.000000
3.000000 0.048458 2.000000
3.000000 0.048458 1.000000
3.000000 0.000000 0.000000
2.000000 0.000000 4.000000
2.000000 0.015735 3.000000
2.000000 0.134379 2.000000
2.000000 0.066999 1.000000
2.000000 0.000000 0.000000
1.000000 0.000000 4.000000
1.000000 0.048274 3.000000
1.000000 0.035822 2.000000
1.000000 0.080684 1.000000
1.000000 0.000000 0.000000
0.000000 0.000000 4.000000
0.000000 0.000000 3.000000
0.000000 0.000000 2.000000
0.000000 0.000000 1.000000
0.000000 0.000000 0.000000
</float_array>
          <technique_common>
            <accessor source="#polySurface2-POSITION-array" count="25" stride="3">
              <param name="X" type="float"/>
              <param name="Y" type="float"/>
              <param name="Z" type="float"/>
            </accessor>
          </technique_common>
        </source>
        <source id="polySurface2-Normal0">
          <float_array id="polySurface2-Normal0-array" count="75">
0.000000 1.000000 0.000000
0.032266 0.999349 0.016123
0.048402 0.998828 0.000000
0.036303 0.999268 -0.012092
0.000000 1.000000 0.000000
0.003922 0.999597 0.028131
0.015972 0.999685 0.019365
0.043152 0.999043 0.007216
0.026771 0.999106 -0.032735
0.016123 0.999349 -0.032266
0.000000 0.999876 0.015733
-0.001599 0.999035 0.043886
-0.006263 0.999658 0.025406
0.007430 0.999030 -0.043406
0.006166 0.998137 -0.060701
-0.003922 0.999599 0.028040
-0.007853 0.999809 0.017891
-0.043756 0.998938 0.014403
-0.033402 0.999283 -0.017828
-0.016652 0.998239 -0.056928
0.000000 1.000000 0.000000
-0.033059 0.999413 0.008935
-0.035799 0.999359 0.000000
-0.049154 0.998752 -0.008887
0.000000 1.000000 0.000000
</float_array>
          <technique_common>
            <accessor source="#polySurface2-Normal0-array" count="25" stride="3">
              <param name="X" type="float"/>
              <param name="Y" type="float"/>
              <param name="Z" type="float"/>
            </accessor>
          </technique_common>
        </source>
        <source id="polySurface2-UV0">
          <float_array id="polySurface2-UV0-array" count="50">
-1.000853 -1.000853
-0.500408 -1.000853
-1.000853 -0.500408
-0.500365 -0.500365
0.000000 -1.000853
0.000000 -0.500359
0.500481 -1.000853
0.500431 -0.500332
1.000926 -1.000853
1.000926 -0.500408
-0.500421 0.000000
-1.000853 0.000000
0.000000 0.000000
0.500421 0.000000
1.000926 0.000000
-1.000853 0.500481
-0.500363 0.500426
0.000000 0.500472
0.500404 0.500404
1.000926 0.500481
-0.500408 1.000926
-1.000853 1.000926
0.000000 1.000926
0.500481 1.000926
1.000926 1.000926
</float_array>
          <technique_common>
            <accessor source="#polySurface2-UV0-array" count="25" stride="2">
              <param name="S" type="float"/>
              <param name="T" type="float"/>
            </accessor>
          </technique_common>
        </source>
        <vertices id="polySurface2-VERTEX">
          <input semantic="POSITION" source="#polySurface2-POSITION"/>
          <input semantic="NORMAL" source="#polySurface2-Normal0"/>
        </vertices>
        <triangles count="32" material="blinn2"><input semantic="VERTEX" offset="0" source="#polySurface2-VERTEX"/><input semantic="TEXCOORD" offset="1" set="0" source="#polySurface2-UV0"/><p> 0 0 1 1 5 2 5 2 1 1 6 3 1 1 2 4 6 3 6 3 2 4 7 5 2 4 3 6 7 5 7 5 3 6 8 7 4 8 9 9 3 6 3 6 9 9 8 7 6 3 11 10 5 2 5 2 11 10 10 11 6 3 7 5 11 10 11 10 7 5 12 12 8 7 13 13 7 5 7 5 13 13 12 12 9 9 14 14 8 7 8 7 14 14 13 13 10 11 11 10 15 15 15 15 11 10 16 16 12 12 17 17 11 10 11 10 17 17 16 16 12 12 13 13 17 17 17 17 13 13 18 18 14 14 19 19 13 13 13 13 19 19 18 18 16 16 21 20 15 15 15 15 21 20 20 21 16 16 17 17 21 20 21 20 17 17 22 22 18 18 23 23 17 17 17 17 23 23 22 22 18 18 19 19 23 23 23 23 19 19 24 24</p></triangles>
      </mesh>
    </geometry>
    <geometry id="polySurface3-lib" name="polySurface3Mesh">
      <mesh>
        <source id="polySurface3-POSITION">
          <float_array id="polySurface3-POSITION-array" count="75">
-0.819157 0.013665 -0.179166
-0.171570 0.013665 0.582825
0.476017 0.013665 1.344817
1.123604 0.013665 2.106808
1.771191 0.013665 2.868800
-0.057166 0.013665 -0.826753
0.590421 0.013665 -0.064762
1.238008 0.116069 0.697230
1.885596 0.083706 1.459221
2.533183 0.013665 2.221213
0.704826 0.013665 -1.474340
1.352413 0.054348 -0.712349
2.000000 0.116069 0.049643
2.647587 0.083706 0.811634
3.295174 0.013665 1.573625
1.466817 0.013665 -2.121927
2.114404 0.054348 -1.359936
2.761992 0.116069 -0.597945
3.409579 0.013665 0.164047
4.057166 0.013665 0.926038
2.228809 0.013665 -2.769515
2.876396 0.013665 -2.007523
3.523983 0.013665 -1.245532
4.171570 0.013665 -0.483540
4.819157 0.013665 0.278451
</float_array>
          <technique_common>
            <accessor source="#polySurface3-POSITION-array" count="25" stride="3">
              <param name="X" type="float"/>
              <param name="Y" type="float"/>
              <param name="Z" type="float"/>
            </accessor>
          </technique_common>
        </source>
        <source id="polySurface3-Normal0">
          <float_array id="polySurface3-Normal0-array" count="75">
0.000000 1.000000 0.000000
0.000000 1.000000 0.000000
-0.063346 0.997507 0.031094
-0.020427 0.998644 0.047883
0.000000 1.000000 0.000000
0.000000 1.000000 0.000000
-0.049558 0.998707 -0.011289
-0.063240 0.997998 0.001042
-0.005143 0.998409 0.056147
0.020649 0.998474 0.051229
-0.027869 0.999541 -0.011878
-0.047756 0.998234 -0.035324
-0.009484 0.999893 -0.011159
0.058284 0.997764 0.032723
0.047883 0.998644 0.020427
-0.012004 0.999484 -0.029809
-0.005455 0.998551 -0.053546
0.056306 0.998247 -0.018232
0.060098 0.998155 0.008683
0.000000 1.000000 0.000000
0.000000 1.000000 0.000000
0.011878 0.999541 -0.027869
0.053046 0.998082 -0.031903
0.000000 1.000000 0.000000
0.000000 1.000000 0.000000
</float_array>
          <technique_common>
            <accessor source="#polySurface3-Normal0-array" count="25" stride="3">
              <param name="X" type="float"/>
              <param name="Y" type="float"/>
              <param name="Z" type="float"/>
            </accessor>
          </technique_common>
        </source>
        <source id="polySurface3-UV0">
          <float_array id="polySurface3-UV0-array" count="50">
-1.000853 -1.000853
-0.500408 -1.000853
-1.000853 -0.500408
-0.500408 -0.500408
0.000000 -1.000853
0.000000 -0.500408
0.500481 -1.000853
0.500357 -0.500367
1.000926 -1.000853
1.000926 -0.500408
-1.000853 0.000000
-0.500350 0.000000
0.000000 0.000000
0.500309 0.000000
1.000926 0.000000
-1.000853 0.500481
-0.500355 0.500464
0.000000 0.500481
0.500481 0.500481
1.000926 0.500481
-0.500408 1.000926
-1.000853 1.000926
0.000000 1.000926
0.500481 1.000926
1.000926 1.000926
</float_array>
          <technique_common>
            <accessor source="#polySurface3-UV0-array" count="25" stride="2">
              <param name="S" type="float"/>
              <param name="T" type="float"/>
            </accessor>
          </technique_common>
        </source>
        <vertices id="polySurface3-VERTEX">
          <input semantic="POSITION" source="#polySurface3-POSITION"/>
          <input semantic="NORMAL" source="#polySurface3-Normal0"/>
        </vertices>
        <triangles count="32" material="blinn2"><input semantic="VERTEX" offset="0" source="#polySurface3-VERTEX"/><input semantic="TEXCOORD" offset="1" set="0" source="#polySurface3-UV0"/><p> 0 0 1 1 5 2 5 2 1 1 6 3 1 1 2 4 6 3 6 3 2 4 7 5 3 6 8 7 2 4 2 4 8 7 7 5 4 8 9 9 3 6 3 6 9 9 8 7 5 2 6 3 10 10 10 10 6 3 11 11 6 3 7 5 11 11 11 11 7 5 12 12 7 5 8 7 12 12 12 12 8 7 13 13 8 7 9 9 13 13 13 13 9 9 14 14 10 10 11 11 15 15 15 15 11 11 16 16 11 11 12 12 16 16 16 16 12 12 17 17 12 12 13 13 17 17 17 17 13 13 18 18 13 13 14 14 18 18 18 18 14 14 19 19 16 16 21 20 15 15 15 15 21 20 20 21 17 17 22 22 16 16 16 16 22 22 21 20 17 17 18 18 22 22 22 22 18 18 23 23 18 18 19 19 23 23 23 23 19 19 24 24</p></triangles>
      </mesh>
    </geometry>
    <geometry id="polySurface4-lib" name="polySurface4Mesh">
      <mesh>
        <source id="polySurface4-POSITION">
          <float_array id="polySurface4-POSITION-array" count="75">
-3.951391 0.039802 -2.026212
-3.736299 0.039802 -1.049618
-3.521208 0.039802 -0.073024
-3.306117 0.039802 0.903570
-3.091025 0.039802 1.880164
-2.974797 0.039802 -2.241303
-2.759705 0.039802 -1.264709
-2.544614 0.132073 -0.288115
-2.329523 0.039802 0.688479
-2.114431 0.039802 1.665073
-1.998203 0.039802 -2.456394
-1.783111 0.156057 -1.479800
-1.568020 0.163581 -0.503206
-1.352929 0.084911 0.473388
-1.137838 0.039802 1.449982
-1.021609 0.039802 -2.671485
-0.806517 0.069269 -1.694891
-0.591426 0.156057 -0.718297
-0.376335 0.092417 0.258296
-0.161244 0.039802 1.234891
-0.045015 0.039802 -2.886577
0.170077 0.039802 -1.909983
0.385168 0.039802 -0.933389
0.600259 0.039802 0.043205
0.815350 0.039802 1.019799
</float_array>
          <technique_common>
            <accessor source="#polySurface4-POSITION-array" count="25" stride="3">
              <param name="X" type="float"/>
              <param name="Y" type="float"/>
              <param name="Z" type="float"/>
            </accessor>
          </technique_common>
        </source>
        <source id="polySurface4-Normal0">
          <float_array id="polySurface4-Normal0-array" count="75">
0.000000 1.000000 0.000000
0.000000 1.000000 0.000000
-0.044818 0.998946 0.009871
0.000000 1.000000 0.000000
0.000000 1.000000 0.000000
0.000000 1.000000 0.000000
-0.063118 0.997320 -0.037006
-0.063724 0.997622 0.026264
-0.018316 0.999130 0.037476
0.000000 1.000000 0.000000
-0.021058 0.997855 -0.061978
-0.028554 0.997405 -0.066093
-0.004067 0.999299 0.037228
-0.003994 0.997717 0.067421
-0.008200 0.999436 0.032566
0.005362 0.999759 -0.021287
0.043983 0.996659 -0.068829
0.053849 0.998521 -0.007497
0.050124 0.998078 0.036455
0.019060 0.999232 0.034240
0.000000 1.000000 0.000000
0.017065 0.999759 -0.013809
0.075180 0.996918 -0.022407
0.037970 0.999233 0.009557
0.000000 1.000000 0.000000
</float_array>
          <technique_common>
            <accessor source="#polySurface4-Normal0-array" count="25" stride="3">
              <param name="X" type="float"/>
              <param name="Y" type="float"/>
              <param name="Z" type="float"/>
            </accessor>
          </technique_common>
        </source>
        <source id="polySurface4-UV0">
          <float_array id="polySurface4-UV0-array" count="50">
-1.000853 -1.000853
-0.500408 -1.000853
-1.000853 -0.500408
-0.500408 -0.500408
0.000000 -1.000853
0.000000 -0.500303
0.500481 -1.000853
0.500481 -0.500408
1.000926 -1.000853
1.000926 -0.500408
-1.000853 0.000000
-0.500408 0.000000
0.000000 0.000000
0.500398 0.000000
1.000926 0.000000
-0.500430 0.500501
-1.000853 0.500481
0.000000 0.500481
0.500393 0.500446
1.000926 0.500481
-0.500408 1.000926
-1.000853 1.000926
0.000000 1.000926
0.500481 1.000926
1.000926 1.000926
</float_array>
          <technique_common>
            <accessor source="#polySurface4-UV0-array" count="25" stride="2">
              <param name="S" type="float"/>
              <param name="T" type="float"/>
            </accessor>
          </technique_common>
        </source>
        <vertices id="polySurface4-VERTEX">
          <input semantic="POSITION" source="#polySurface4-POSITION"/>
          <input semantic="NORMAL" source="#polySurface4-Normal0"/>
        </vertices>
        <triangles count="32" material="blinn2"><input semantic="VERTEX" offset="0" source="#polySurface4-VERTEX"/><input semantic="TEXCOORD" offset="1" set="0" source="#polySurface4-UV0"/><p> 0 0 1 1 5 2 5 2 1 1 6 3 1 1 2 4 6 3 6 3 2 4 7 5 3 6 8 7 2 4 2 4 8 7 7 5 3 6 4 8 8 7 8 7 4 8 9 9 5 2 6 3 10 10 10 10 6 3 11 11 6 3 7 5 11 11 11 11 7 5 12 12 8 7 13 13 7 5 7 5 13 13 12 12 9 9 14 14 8 7 8 7 14 14 13 13 11 11 16 15 10 10 10 10 16 15 15 16 12 12 17 17 11 11 11 11 17 17 16 15 12 12 13 13 17 17 17 17 13 13 18 18 14 14 19 19 13 13 13 13 19 19 18 18 16 15 21 20 15 16 15 16 21 20 20 21 17 17 22 22 16 15 16 15 22 22 21 20 17 17 18 18 22 22 22 22 18 18 23 23 18 18 19 19 23 23 23 23 19 19 24 24</p></triangles>
      </mesh>
    </geometry>
    <geometry id="polySurface5-lib" name="polySurface5Mesh">
      <mesh>
        <source id="polySurface5-POSITION">
          <float_array id="polySurface5-POSITION-array" count="75">
0.829736 0.007113 1.196905
-0.132222 0.007113 0.923708
-1.094180 0.007113 0.650510
-2.056138 0.007113 0.377313
-3.018096 0.007113 0.104115
0.556539 0.007113 2.158863
-0.405420 0.171420 1.885666
-1.367378 0.173035 1.612468
-2.329335 0.021854 1.339271
-3.291293 0.007113 1.066073
0.283341 0.007113 3.120821
-0.678617 0.034884 2.847624
-1.640575 0.171420 2.574426
-2.602533 0.018820 2.301229
-3.564491 0.007113 2.028031
0.010143 0.007113 4.082779
-0.951815 0.061349 3.809582
-1.913773 0.007113 3.536384
-2.875731 0.053667 3.263186
-3.837688 0.007113 2.989989
-0.263054 0.007113 5.044737
-1.225012 0.007113 4.771540
-2.186970 0.007113 4.498342
-3.148928 0.007113 4.225144
-4.110886 0.007113 3.951947
</float_array>
          <technique_common>
            <accessor source="#polySurface5-POSITION-array" count="25" stride="3">
              <param name="X" type="float"/>
              <param name="Y" type="float"/>
              <param name="Z" type="float"/>
            </accessor>
          </technique_common>
        </source>
        <source id="polySurface5-Normal0">
          <float_array id="polySurface5-Normal0-array" count="75">
0.000000 1.000000 0.000000
0.081128 0.992700 -0.089250
-0.000778 0.991336 -0.131345
-0.002041 0.999940 -0.010794
0.000000 1.000000 0.000000
0.086330 0.996112 0.017568
0.084294 0.996342 -0.014050
-0.048941 0.993962 -0.098205
-0.068452 0.996329 -0.051411
-0.009105 0.999943 -0.005628
0.026704 0.999615 0.007584
0.052126 0.996122 0.070876
-0.050427 0.996512 0.066493
-0.050433 0.998728 0.000113
-0.011260 0.999932 -0.003198
0.030832 0.999397 0.015950
-0.003787 0.999904 0.013334
-0.016086 0.998966 0.042529
-0.001596 0.999983 0.005621
-0.025977 0.999653 -0.004344
0.000000 1.000000 0.000000
-0.007395 0.999634 0.026039
0.000000 1.000000 0.000000
-0.006351 0.999730 0.022361
0.000000 1.000000 0.000000
</float_array>
          <technique_common>
            <accessor source="#polySurface5-Normal0-array" count="25" stride="3">
              <param name="X" type="float"/>
              <param name="Y" type="float"/>
              <param name="Z" type="float"/>
            </accessor>
          </technique_common>
        </source>
        <source id="polySurface5-UV0">
          <float_array id="polySurface5-UV0-array" count="50">
-1.000853 -1.000853
-0.500408 -1.000853
-1.000853 -0.500408
-0.500408 -0.500408
0.000000 -1.000853
0.000000 -0.500361
0.500481 -1.000853
0.500503 -0.500414
1.000926 -1.000853
1.000926 -0.500408
-0.500449 0.000000
-1.000853 0.000000
0.000000 0.000000
0.500525 0.000000
1.000926 0.000000
-1.000853 0.500481
-0.500369 0.500443
0.000000 0.500481
0.500449 0.500449
1.000926 0.500481
-0.500408 1.000926
-1.000853 1.000926
0.000000 1.000926
0.500481 1.000926
1.000926 1.000926
</float_array>
          <technique_common>
            <accessor source="#polySurface5-UV0-array" count="25" stride="2">
              <param name="S" type="float"/>
              <param name="T" type="float"/>
            </accessor>
          </technique_common>
        </source>
        <vertices id="polySurface5-VERTEX">
          <input semantic="POSITION" source="#polySurface5-POSITION"/>
          <input semantic="NORMAL" source="#polySurface5-Normal0"/>
        </vertices>
        <triangles count="32" material="blinn2"><input semantic="VERTEX" offset="0" source="#polySurface5-VERTEX"/><input semantic="TEXCOORD" offset="1" set="0" source="#polySurface5-UV0"/><p> 0 0 1 1 5 2 5 2 1 1 6 3 1 1 2 4 6 3 6 3 2 4 7 5 3 6 8 7 2 4 2 4 8 7 7 5 4 8 9 9 3 6 3 6 9 9 8 7 6 3 11 10 5 2 5 2 11 10 10 11 7 5 12 12 6 3 6 3 12 12 11 10 7 5 8 7 12 12 12 12 8 7 13 13 8 7 9 9 13 13 13 13 9 9 14 14 10 11 11 10 15 15 15 15 11 10 16 16 12 12 17 17 11 10 11 10 17 17 16 16 12 12 13 13 17 17 17 17 13 13 18 18 14 14 19 19 13 13 13 13 19 19 18 18 16 16 21 20 15 15 15 15 21 20 20 21 16 16 17 17 21 20 21 20 17 17 22 22 18 18 23 23 17 17 17 17 23 23 22 22 18 18 19 19 23 23 23 23 19 19 24 24</p></triangles>
      </mesh>
    </geometry>
  </library_geometries>
  <library_visual_scenes>
    <visual_scene id="daisies" name="daisies">
      <node name="pPlane1" id="pPlane1" sid="pPlane1"><matrix sid="matrix">0.000000 0.000000 400.000000 200.000000 0.000000 100.000000 0.000000 0.000000 -400.000000 0.000000 0.000000 200.000000 0.000000 0.000000 0.000000 1.000000</matrix><extra><technique profile="FCOLLADA"><visibility>1.000000</visibility></technique></extra></node>
      <node name="pPlane2" id="pPlane2" sid="pPlane2"><matrix sid="matrix">259.034863 0.000000 -304.796554 200.000000 0.000000 100.000000 0.000000 1.366463 304.796554 0.000000 259.034863 4.964256 0.000000 0.000000 0.000000 1.000000</matrix><extra><technique profile="FCOLLADA"><visibility>1.000000</visibility></technique></extra></node>
      <node name="pPlane3" id="pPlane3" sid="pPlane3"><matrix sid="matrix">86.036495 0.000000 -390.637583 -156.802002 0.000000 100.000000 0.000000 3.980245 390.637583 0.000000 86.036495 -50.320610 0.000000 0.000000 0.000000 1.000000</matrix><extra><technique profile="FCOLLADA"><visibility>1.000000</visibility></technique></extra></node>
      <node name="pPlane4" id="pPlane4" sid="pPlane4"><matrix sid="matrix">-384.783235 0.000000 109.278827 -164.057495 0.000000 100.000000 0.000000 0.711305 -109.278827 0.000000 -384.783235 257.442596 0.000000 0.000000 0.000000 1.000000</matrix><extra><technique profile="FCOLLADA"><visibility>1.000000</visibility></technique></extra></node>
      <node name="polySurface1" id="polySurface1" sid="polySurface1"><matrix sid="matrix">100.000000 0.000000 0.000000 0.000000 0.000000 100.000000 0.000000 0.000000 0.000000 0.000000 100.000000 0.000000 0.000000 0.000000 0.000000 1.000000</matrix><extra><technique profile="FCOLLADA"><visibility>1.000000</visibility></technique></extra><node name="polySurface2" id="polySurface2" sid="polySurface2"><matrix sid="matrix">1.000000 0.000000 0.000000 0.000000 0.000000 1.000000 0.000000 0.000000 0.000000 0.000000 1.000000 0.000000 0.000000 0.000000 0.000000 1.000000</matrix><instance_geometry url="#polySurface2-lib"><bind_material><technique_common><instance_material symbol="blinn2" target="#blinn2"/></technique_common></bind_material></instance_geometry><extra><technique profile="FCOLLADA"><visibility>1.000000</visibility></technique></extra></node><node name="polySurface3" id="polySurface3" sid="polySurface3"><matrix sid="matrix">1.000000 0.000000 0.000000 0.000000 0.000000 1.000000 0.000000 0.000000 0.000000 0.000000 1.000000 0.000000 0.000000 0.000000 0.000000 1.000000</matrix><instance_geometry url="#polySurface3-lib"><bind_material><technique_common><instance_material symbol="blinn2" target="#blinn2"/></technique_common></bind_material></instance_geometry><extra><technique profile="FCOLLADA"><visibility>1.000000</visibility></technique></extra></node><node name="polySurface4" id="polySurface4" sid="polySurface4"><matrix sid="matrix">1.000000 0.000000 0.000000 0.000000 0.000000 1.000000 0.000000 0.000000 0.000000 0.000000 1.000000 0.000000 0.000000 0.000000 0.000000 1.000000</matrix><instance_geometry url="#polySurface4-lib"><bind_material><technique_common><instance_material symbol="blinn2" target="#blinn2"/></technique_common></bind_material></instance_geometry><extra><technique profile="FCOLLADA"><visibility>1.000000</visibility></technique></extra></node><node name="polySurface5" id="polySurface5" sid="polySurface5"><matrix sid="matrix">1.000000 0.000000 0.000000 0.000000 0.000000 1.000000 0.000000 0.000000 0.000000 0.000000 1.000000 0.000000 0.000000 0.000000 0.000000 1.000000</matrix><instance_geometry url="#polySurface5-lib"><bind_material><technique_common><instance_material symbol="blinn2" target="#blinn2"/></technique_common></bind_material></instance_geometry><extra><technique profile="FCOLLADA"><visibility>1.000000</visibility></technique></extra></node></node>
      <extra><technique profile="MAX3D"><frame_rate>30.000000</frame_rate></technique><technique profile="FCOLLADA"><start_time>0.000000</start_time><end_time>1.000000</end_time></technique></extra>
    </visual_scene>
  </library_visual_scenes>
  <scene>
    <instance_visual_scene url="#daisies"></instance_visual_scene>
  </scene>
</COLLADA>
