<?xml version="1.0" encoding="utf-8"?>
<COLLADA xmlns="http://www.collada.org/2005/11/COLLADASchema" version="1.4.1">
  <asset><contributor><author></author><authoring_tool>FBX COLLADA exporter</authoring_tool><comments></comments></contributor><created>2018-01-24T00:03:03Z</created><keywords></keywords><modified>2018-01-24T00:03:03Z</modified><revision></revision><subject></subject><title></title><unit meter="0.010000" name="centimeter"></unit><up_axis>Y_UP</up_axis></asset>
  <library_images>
    <image id="file1-image" name="file1"><init_from>file://C:\Users\Nocturne\Documents\maya\projects\default\scenes\dark_mansion_panneling\dark_mansion_panneling.dds</init_from></image>
    <image id="file10-image" name="file10"><init_from>file://C:\Users\Nocturne\Documents\maya\projects\default\scenes\mansion_wall_wood\mansion_wall_wood.dds</init_from></image>
  </library_images>
  <library_materials>
    <material id="blinn3" name="blinn3">
      <instance_effect url="#blinn3-fx"/>
    </material>
    <material id="blinn6" name="blinn6">
      <instance_effect url="#blinn6-fx"/>
    </material>
    <material id="blinn8" name="blinn8">
      <instance_effect url="#blinn8-fx"/>
    </material>
    <material id="blinn9" name="blinn9">
      <instance_effect url="#blinn9-fx"/>
    </material>
    <material id="blinn11" name="blinn11">
      <instance_effect url="#blinn11-fx"/>
    </material>
  </library_materials>
  <library_effects>
    <effect id="blinn3-fx" name="blinn3">
      <profile_COMMON>
        <technique sid="standard">
          <phong>
            <emission>
              <color sid="emission">0.000000  0.000000 0.000000 1.000000</color>
            </emission>
            <ambient>
              <color sid="ambient">0.000000  0.000000 0.000000 1.000000</color>
            </ambient>
            <diffuse>
              <texture texture="file1-image" texcoord="CHANNEL0">
                <extra>
                  <technique profile="MAYA">
                    <wrapU sid="wrapU0">TRUE</wrapU>
                    <wrapV sid="wrapV0">TRUE</wrapV>
                    <blend_mode>NONE</blend_mode>
                  </technique>
                </extra>
              </texture>
            </diffuse>
            <specular>
              <color sid="specular">0.500000  0.500000 0.500000 1.000000</color>
            </specular>
            <shininess>
              <float sid="shininess">2.000000</float>
            </shininess>
            <reflective>
              <color sid="reflective">0.000000  0.000000 0.000000 1.000000</color>
            </reflective>
            <reflectivity>
              <float sid="reflectivity">0.500000</float>
            </reflectivity>
            <transparent opaque="RGB_ZERO">
              <texture texture="file1-image" texcoord="CHANNEL0">
                <extra>
                  <technique profile="MAYA">
                    <wrapU sid="wrapU0">TRUE</wrapU>
                    <wrapV sid="wrapV0">TRUE</wrapV>
                    <blend_mode>NONE</blend_mode>
                  </technique>
                </extra>
              </texture>
            </transparent>
            <transparency>
              <float sid="transparency">1.000000</float>
            </transparency>
          </phong>
        </technique>
      </profile_COMMON>
    </effect>
    <effect id="blinn6-fx" name="blinn6">
      <profile_COMMON>
        <technique sid="standard">
          <phong>
            <emission>
              <color sid="emission">0.000000  0.000000 0.000000 1.000000</color>
            </emission>
            <ambient>
              <color sid="ambient">0.000000  0.000000 0.000000 1.000000</color>
            </ambient>
            <diffuse>
              <texture texture="file10-image" texcoord="CHANNEL0">
                <extra>
                  <technique profile="MAYA">
                    <wrapU sid="wrapU0">TRUE</wrapU>
                    <wrapV sid="wrapV0">TRUE</wrapV>
                    <blend_mode>NONE</blend_mode>
                  </technique>
                </extra>
              </texture>
            </diffuse>
            <specular>
              <color sid="specular">0.500000  0.500000 0.500000 1.000000</color>
            </specular>
            <shininess>
              <float sid="shininess">2.000000</float>
            </shininess>
            <reflective>
              <color sid="reflective">0.000000  0.000000 0.000000 1.000000</color>
            </reflective>
            <reflectivity>
              <float sid="reflectivity">0.500000</float>
            </reflectivity>
            <transparent opaque="RGB_ZERO">
              <texture texture="file10-image" texcoord="CHANNEL0">
                <extra>
                  <technique profile="MAYA">
                    <wrapU sid="wrapU0">TRUE</wrapU>
                    <wrapV sid="wrapV0">TRUE</wrapV>
                    <blend_mode>NONE</blend_mode>
                  </technique>
                </extra>
              </texture>
            </transparent>
            <transparency>
              <float sid="transparency">1.000000</float>
            </transparency>
          </phong>
        </technique>
      </profile_COMMON>
    </effect>
    <effect id="blinn8-fx" name="blinn8">
      <profile_COMMON>
        <technique sid="standard">
          <phong>
            <emission>
              <color sid="emission">0.000000  0.000000 0.000000 1.000000</color>
            </emission>
            <ambient>
              <color sid="ambient">0.000000  0.000000 0.000000 1.000000</color>
            </ambient>
            <diffuse>
              <texture texture="file10-image" texcoord="CHANNEL0">
                <extra>
                  <technique profile="MAYA">
                    <wrapU sid="wrapU0">TRUE</wrapU>
                    <wrapV sid="wrapV0">TRUE</wrapV>
                    <blend_mode>NONE</blend_mode>
                  </technique>
                </extra>
              </texture>
            </diffuse>
            <specular>
              <color sid="specular">0.500000  0.500000 0.500000 1.000000</color>
            </specular>
            <shininess>
              <float sid="shininess">2.000000</float>
            </shininess>
            <reflective>
              <color sid="reflective">0.000000  0.000000 0.000000 1.000000</color>
            </reflective>
            <reflectivity>
              <float sid="reflectivity">0.500000</float>
            </reflectivity>
            <transparent opaque="RGB_ZERO">
              <texture texture="file10-image" texcoord="CHANNEL0">
                <extra>
                  <technique profile="MAYA">
                    <wrapU sid="wrapU0">TRUE</wrapU>
                    <wrapV sid="wrapV0">TRUE</wrapV>
                    <blend_mode>NONE</blend_mode>
                  </technique>
                </extra>
              </texture>
            </transparent>
            <transparency>
              <float sid="transparency">1.000000</float>
            </transparency>
          </phong>
        </technique>
      </profile_COMMON>
    </effect>
    <effect id="blinn9-fx" name="blinn9">
      <profile_COMMON>
        <technique sid="standard">
          <phong>
            <emission>
              <color sid="emission">0.000000  0.000000 0.000000 1.000000</color>
            </emission>
            <ambient>
              <color sid="ambient">0.000000  0.000000 0.000000 1.000000</color>
            </ambient>
            <diffuse>
              <texture texture="file10-image" texcoord="CHANNEL0">
                <extra>
                  <technique profile="MAYA">
                    <wrapU sid="wrapU0">TRUE</wrapU>
                    <wrapV sid="wrapV0">TRUE</wrapV>
                    <blend_mode>NONE</blend_mode>
                  </technique>
                </extra>
              </texture>
            </diffuse>
            <specular>
              <color sid="specular">0.500000  0.500000 0.500000 1.000000</color>
            </specular>
            <shininess>
              <float sid="shininess">2.000000</float>
            </shininess>
            <reflective>
              <color sid="reflective">0.000000  0.000000 0.000000 1.000000</color>
            </reflective>
            <reflectivity>
              <float sid="reflectivity">0.500000</float>
            </reflectivity>
            <transparent opaque="RGB_ZERO">
              <texture texture="file10-image" texcoord="CHANNEL0">
                <extra>
                  <technique profile="MAYA">
                    <wrapU sid="wrapU0">TRUE</wrapU>
                    <wrapV sid="wrapV0">TRUE</wrapV>
                    <blend_mode>NONE</blend_mode>
                  </technique>
                </extra>
              </texture>
            </transparent>
            <transparency>
              <float sid="transparency">1.000000</float>
            </transparency>
          </phong>
        </technique>
      </profile_COMMON>
    </effect>
    <effect id="blinn11-fx" name="blinn11">
      <profile_COMMON>
        <technique sid="standard">
          <phong>
            <emission>
              <color sid="emission">0.000000  0.000000 0.000000 1.000000</color>
            </emission>
            <ambient>
              <color sid="ambient">0.000000  0.000000 0.000000 1.000000</color>
            </ambient>
            <diffuse>
              <texture texture="file10-image" texcoord="CHANNEL0">
                <extra>
                  <technique profile="MAYA">
                    <wrapU sid="wrapU0">TRUE</wrapU>
                    <wrapV sid="wrapV0">TRUE</wrapV>
                    <blend_mode>NONE</blend_mode>
                  </technique>
                </extra>
              </texture>
            </diffuse>
            <specular>
              <color sid="specular">0.500000  0.500000 0.500000 1.000000</color>
            </specular>
            <shininess>
              <float sid="shininess">2.000000</float>
            </shininess>
            <reflective>
              <color sid="reflective">0.000000  0.000000 0.000000 1.000000</color>
            </reflective>
            <reflectivity>
              <float sid="reflectivity">0.500000</float>
            </reflectivity>
            <transparent opaque="RGB_ZERO">
              <texture texture="file10-image" texcoord="CHANNEL0">
                <extra>
                  <technique profile="MAYA">
                    <wrapU sid="wrapU0">TRUE</wrapU>
                    <wrapV sid="wrapV0">TRUE</wrapV>
                    <blend_mode>NONE</blend_mode>
                  </technique>
                </extra>
              </texture>
            </transparent>
            <transparency>
              <float sid="transparency">1.000000</float>
            </transparency>
          </phong>
        </technique>
      </profile_COMMON>
    </effect>
  </library_effects>
  <library_geometries>
    <geometry id="polySurface29-lib" name="polySurface29Mesh">
      <mesh>
        <source id="polySurface29-POSITION">
          <float_array id="polySurface29-POSITION-array" count="12">
-2.000000 1.800000 0.100000
-1.800000 1.800000 0.100000
-2.000000 1.872108 0.004247
-1.800000 1.872108 0.004247
</float_array>
          <technique_common>
            <accessor source="#polySurface29-POSITION-array" count="4" stride="3">
              <param name="X" type="float"/>
              <param name="Y" type="float"/>
              <param name="Z" type="float"/>
            </accessor>
          </technique_common>
        </source>
        <source id="polySurface29-Normal0">
          <float_array id="polySurface29-Normal0-array" count="12">
0.000000 0.798822 0.601567
0.000000 0.798821 0.601568
0.000000 0.798821 0.601568
0.000000 0.798821 0.601569
</float_array>
          <technique_common>
            <accessor source="#polySurface29-Normal0-array" count="4" stride="3">
              <param name="X" type="float"/>
              <param name="Y" type="float"/>
              <param name="Z" type="float"/>
            </accessor>
          </technique_common>
        </source>
        <source id="polySurface29-UV0">
          <float_array id="polySurface29-UV0-array" count="8">
0.000000 0.652934
0.050045 0.652938
0.000000 0.669002
0.050045 0.668998
</float_array>
          <technique_common>
            <accessor source="#polySurface29-UV0-array" count="4" stride="2">
              <param name="S" type="float"/>
              <param name="T" type="float"/>
            </accessor>
          </technique_common>
        </source>
        <vertices id="polySurface29-VERTEX">
          <input semantic="POSITION" source="#polySurface29-POSITION"/>
          <input semantic="NORMAL" source="#polySurface29-Normal0"/>
        </vertices>
        <triangles count="2" material="blinn3"><input semantic="VERTEX" offset="0" source="#polySurface29-VERTEX"/><input semantic="TEXCOORD" offset="1" set="0" source="#polySurface29-UV0"/><p> 0 0 1 1 2 2 2 2 1 1 3 3</p></triangles>
      </mesh>
    </geometry>
    <geometry id="polySurface30-lib" name="polySurface30Mesh">
      <mesh>
        <source id="polySurface30-POSITION">
          <float_array id="polySurface30-POSITION-array" count="75">
-0.800000 3.603577 0.000000
0.000000 3.755815 0.000000
0.800000 3.603577 0.000000
1.159260 3.481682 0.000000
1.400000 3.400000 -0.050022
1.159260 3.481682 -0.050022
1.800000 3.000000 0.000000
1.564979 3.235021 0.000000
1.564979 3.235021 -0.050022
1.800000 0.000000 0.000000
-1.799999 3.000000 0.000000
-1.799999 0.000000 0.000000
-1.590704 3.209296 0.000000
-1.400000 3.400000 -0.050022
-1.590704 3.209296 -0.050022
-1.159260 3.481682 0.000000
-1.159260 3.481682 -0.050022
-2.000000 1.820894 0.000000
-2.000000 4.000000 0.000000
2.000000 4.000000 0.000000
2.000000 1.820894 0.000000
-1.590704 3.481682 -0.050022
-1.590704 3.481682 0.000000
1.564979 3.481682 0.000000
1.564979 3.481682 -0.050022
</float_array>
          <technique_common>
            <accessor source="#polySurface30-POSITION-array" count="25" stride="3">
              <param name="X" type="float"/>
              <param name="Y" type="float"/>
              <param name="Z" type="float"/>
            </accessor>
          </technique_common>
        </source>
        <source id="polySurface30-Normal0">
          <float_array id="polySurface30-Normal0-array" count="243">
0.000000 0.000000 1.000000
0.000000 0.000000 1.000000
0.000000 0.000000 1.000000
0.000000 0.000000 1.000000
0.000000 0.000000 1.000000
0.000000 0.000000 1.000000
1.000000 0.000000 0.000000
1.000000 0.000000 0.000000
1.000000 0.000000 0.000000
1.000000 0.000000 0.000000
1.000000 0.000000 0.000000
1.000000 0.000000 0.000000
0.000000 -1.000000 0.000000
0.000000 -1.000000 0.000000
0.000000 -1.000000 0.000000
0.000000 -1.000000 0.000000
0.000000 -1.000000 0.000000
0.000000 -1.000000 0.000000
0.000000 0.000000 1.000000
0.000000 0.000000 1.000000
0.000000 0.000000 1.000000
0.000000 0.000000 1.000000
0.000000 0.000000 1.000000
0.000000 0.000000 1.000000
0.000000 0.000000 1.000000
0.000000 0.000000 1.000000
0.000000 0.000000 1.000000
0.000000 0.000000 1.000000
0.000000 0.000000 1.000000
0.000000 0.000000 1.000000
0.000000 0.000000 1.000000
0.000000 0.000000 1.000000
0.000000 0.000000 1.000000
0.000000 0.000000 1.000000
0.000000 0.000000 1.000000
0.000000 0.000000 1.000000
0.000000 0.000000 1.000000
0.000000 0.000000 1.000000
0.000000 0.000000 1.000000
0.000000 0.000000 1.000000
0.000000 0.000000 1.000000
0.000000 0.000000 1.000000
0.000000 0.000000 1.000000
0.000000 0.000000 1.000000
0.000000 0.000000 1.000000
0.000000 0.000000 1.000000
0.000000 0.000000 1.000000
0.000000 0.000000 1.000000
0.000000 0.000000 1.000000
0.000000 0.000000 1.000000
0.000000 0.000000 1.000000
0.000000 0.000000 1.000000
0.000000 0.000000 1.000000
0.000000 0.000000 1.000000
0.000000 0.000000 1.000000
0.000000 0.000000 1.000000
0.000000 0.000000 1.000000
0.000000 0.000000 1.000000
0.000000 0.000000 1.000000
0.000000 0.000000 1.000000
0.000000 0.000000 1.000000
0.000000 0.000000 1.000000
0.000000 0.000000 1.000000
0.000000 -1.000000 0.000000
0.000000 -1.000000 0.000000
0.000000 -1.000000 0.000000
0.000000 -1.000000 0.000000
0.000000 -1.000000 0.000000
0.000000 -1.000000 0.000000
-1.000000 0.000000 0.000000
-1.000000 0.000000 0.000000
-1.000000 0.000000 0.000000
-1.000000 0.000000 0.000000
-1.000000 0.000000 0.000000
-1.000000 0.000000 0.000000
0.000000 0.000000 1.000000
0.000000 0.000000 1.000000
0.000000 0.000000 1.000000
0.000000 0.000000 1.000000
0.000000 0.000000 1.000000
0.000000 0.000000 1.000000
</float_array>
          <technique_common>
            <accessor source="#polySurface30-Normal0-array" count="81" stride="3">
              <param name="X" type="float"/>
              <param name="Y" type="float"/>
              <param name="Z" type="float"/>
            </accessor>
          </technique_common>
        </source>
        <source id="polySurface30-UV0">
          <float_array id="polySurface30-UV0-array" count="82">
0.204528 0.498219
0.084488 0.498219
0.137547 0.520328
0.084488 0.571947
0.389307 0.814416
0.402454 0.814415
0.389307 0.887223
0.402454 0.887223
0.402454 0.647836
0.389307 0.647836
0.402454 0.502837
0.389307 0.502837
0.050068 0.455341
0.050027 0.750054
0.000000 0.455341
0.949933 0.455341
0.999925 0.455341
0.949966 0.750054
1.000000 1.000000
0.000000 1.000000
0.102336 0.802367
0.102326 0.870449
0.891219 0.808797
0.891227 0.870449
0.210180 0.870449
0.789797 0.870449
0.300002 0.900916
0.699986 0.900916
0.500001 0.938967
0.389307 0.750869
0.402454 0.750869
0.389307 0.887223
0.402454 0.887223
0.402454 0.568768
0.389307 0.568768
0.402454 0.502837
0.389307 0.502837
0.402709 0.564984
0.402709 0.498219
0.356807 0.520328
0.289826 0.498219
</float_array>
          <technique_common>
            <accessor source="#polySurface30-UV0-array" count="41" stride="2">
              <param name="S" type="float"/>
              <param name="T" type="float"/>
            </accessor>
          </technique_common>
        </source>
        <vertices id="polySurface30-VERTEX">
          <input semantic="POSITION" source="#polySurface30-POSITION"/>
        </vertices>
        <triangles count="27" material="blinn6"><input semantic="VERTEX" offset="0" source="#polySurface30-VERTEX"/><input semantic="NORMAL" offset="1" source="#polySurface30-Normal0"/><input semantic="TEXCOORD" offset="2" set="0" source="#polySurface30-UV0"/><p> 16 0 0 21 1 1 13 2 2 13 3 2 21 4 1 14 5 3 12 6 4 14 7 5 22 8 6 22 9 6 14 10 5 21 11 7 16 12 8 15 13 9 21 14 10 21 15 10 15 16 9 22 17 11 11 18 12 10 19 13 17 20 14 9 21 15 20 22 16 6 23 17 20 24 16 19 25 18 6 26 17 17 27 14 10 28 13 18 29 19 10 30 13 12 31 20 18 32 19 12 33 20 22 34 21 18 35 19 6 36 17 19 37 18 7 38 22 7 39 22 19 40 18 23 41 23 22 42 21 15 43 24 18 44 19 23 45 23 19 46 18 3 47 25 15 48 24 0 49 26 18 50 19 3 51 25 19 52 18 2 53 27 0 54 26 1 55 28 18 56 19 18 57 19 1 58 28 19 59 18 1 60 28 2 61 27 19 62 18 3 63 29 5 64 30 23 65 31 23 66 31 5 67 30 24 68 32 8 69 33 7 70 34 24 71 35 24 72 35 7 73 34 23 74 36 8 75 37 24 76 38 4 77 39 4 78 39 24 79 38 5 80 40</p></triangles>
      </mesh>
    </geometry>
    <geometry id="polySurface31-lib" name="polySurface31Mesh">
      <mesh>
        <source id="polySurface31-POSITION">
          <float_array id="polySurface31-POSITION-array" count="12">
1.800000 1.800000 0.100000
2.000000 1.800000 0.100000
1.800000 1.872108 0.004247
2.000000 1.872108 0.004247
</float_array>
          <technique_common>
            <accessor source="#polySurface31-POSITION-array" count="4" stride="3">
              <param name="X" type="float"/>
              <param name="Y" type="float"/>
              <param name="Z" type="float"/>
            </accessor>
          </technique_common>
        </source>
        <source id="polySurface31-Normal0">
          <float_array id="polySurface31-Normal0-array" count="12">
0.000000 0.798822 0.601568
0.000000 0.798821 0.601568
0.000000 0.798821 0.601568
0.000000 0.798821 0.601569
</float_array>
          <technique_common>
            <accessor source="#polySurface31-Normal0-array" count="4" stride="3">
              <param name="X" type="float"/>
              <param name="Y" type="float"/>
              <param name="Z" type="float"/>
            </accessor>
          </technique_common>
        </source>
        <source id="polySurface31-UV0">
          <float_array id="polySurface31-UV0-array" count="8">
0.000000 0.652934
0.050045 0.652938
0.000000 0.669002
0.050045 0.668998
</float_array>
          <technique_common>
            <accessor source="#polySurface31-UV0-array" count="4" stride="2">
              <param name="S" type="float"/>
              <param name="T" type="float"/>
            </accessor>
          </technique_common>
        </source>
        <vertices id="polySurface31-VERTEX">
          <input semantic="POSITION" source="#polySurface31-POSITION"/>
          <input semantic="NORMAL" source="#polySurface31-Normal0"/>
        </vertices>
        <triangles count="2" material="blinn3"><input semantic="VERTEX" offset="0" source="#polySurface31-VERTEX"/><input semantic="TEXCOORD" offset="1" set="0" source="#polySurface31-UV0"/><p> 0 0 1 1 2 2 2 2 1 1 3 3</p></triangles>
      </mesh>
    </geometry>
    <geometry id="polySurface32-lib" name="polySurface32Mesh">
      <mesh>
        <source id="polySurface32-POSITION">
          <float_array id="polySurface32-POSITION-array" count="216">
-1.400000 3.324504 0.178955
-1.703423 3.021081 0.178955
-1.703423 3.021081 -0.197758
-1.400000 3.324504 -0.197758
-1.324885 3.399619 -0.197758
-1.324885 3.399619 0.178955
-1.703423 0.232967 0.178955
-1.703423 0.232967 -0.197758
-1.324885 0.232967 0.178955
-1.324885 0.232967 -0.197758
-1.400000 0.232967 -0.197758
-1.400000 0.232967 0.178955
-0.800000 0.232967 -0.197758
-0.800000 0.232968 0.178955
-0.757077 0.232967 0.178955
-0.757077 0.232967 -0.197758
0.000000 0.232967 0.178955
0.000000 0.232967 -0.197758
0.757077 0.232967 0.178955
0.757077 0.232967 -0.197758
0.800000 0.232968 0.178955
1.324885 0.232967 0.178955
1.324885 0.232967 -0.197758
0.800000 0.232967 -0.197758
1.400000 0.232967 -0.197758
1.400000 0.232967 0.178955
1.703424 0.232967 0.178955
1.703424 0.232967 -0.197758
1.703424 3.021081 0.178955
1.703424 3.021081 -0.197758
1.400000 3.324504 0.178955
1.324885 3.399619 0.178955
1.324885 3.399619 -0.197758
1.400000 3.324504 -0.197758
0.800000 3.577710 -0.197758
0.800000 3.577711 0.178955
0.757077 3.592274 0.178955
0.757077 3.592274 -0.197758
0.000000 3.736344 0.178955
0.000000 3.736344 -0.197758
-0.757077 3.592274 0.178955
-0.757077 3.592274 -0.197758
-0.800000 3.577711 0.178955
-0.800000 3.577710 -0.197758
0.000000 -0.015095 -0.197758
-0.800000 -0.015095 -0.197758
-0.800000 -0.015095 0.178955
0.000000 -0.015095 0.178955
0.000000 3.843954 -0.197758
0.800000 3.691716 -0.197758
1.400000 3.488139 -0.197758
0.800000 -0.015095 0.178955
1.400000 3.488139 0.178955
0.800000 3.691716 0.178955
-1.400000 -0.015095 0.178955
-1.400000 3.488139 -0.197758
-0.800000 3.691716 -0.197758
1.400000 -0.015095 0.178955
0.800000 -0.015095 -0.197758
1.400000 -0.015095 -0.197758
0.000000 3.843954 0.178955
-0.800000 3.691716 0.178955
1.800000 -0.015095 0.178955
1.800000 3.088139 0.178955
1.800000 -0.015095 -0.197758
1.800000 3.088139 -0.197758
-1.400000 3.488139 0.178955
-1.400000 -0.015095 -0.197758
-1.799999 -0.015095 -0.197758
-1.799999 -0.015095 0.178955
-1.799999 3.088139 0.178955
-1.799999 3.088139 -0.197758
</float_array>
          <technique_common>
            <accessor source="#polySurface32-POSITION-array" count="72" stride="3">
              <param name="X" type="float"/>
              <param name="Y" type="float"/>
              <param name="Z" type="float"/>
            </accessor>
          </technique_common>
        </source>
        <source id="polySurface32-Normal0">
          <float_array id="polySurface32-Normal0-array" count="972">
0.707108 -0.707106 0.000000
0.707108 -0.707106 0.000000
0.707107 -0.707106 0.000000
0.707108 -0.707106 0.000000
0.707107 -0.707107 0.000000
0.707107 -0.707106 0.000000
0.707107 -0.707106 0.000000
0.707107 -0.707107 0.000000
0.528007 -0.849240 0.000000
0.707107 -0.707107 0.000000
0.528008 -0.849240 0.000000
0.528007 -0.849240 0.000000
1.000000 0.000000 0.000000
1.000000 0.000000 0.000000
1.000000 0.000000 0.000000
1.000000 0.000000 0.000000
1.000000 0.000000 0.000000
1.000000 0.000000 0.000000
0.000000 1.000000 0.000000
0.000000 1.000000 0.000000
0.000000 1.000000 0.000000
0.000000 1.000000 0.000000
0.000000 1.000000 0.000000
0.000000 1.000000 0.000000
0.000000 1.000000 0.000000
0.000000 1.000000 0.000000
0.000000 1.000000 0.000000
0.000000 1.000000 0.000000
0.000000 1.000000 0.000000
0.000000 1.000000 0.000000
0.000000 1.000000 0.000000
0.000000 1.000000 0.000000
0.000000 1.000000 0.000000
0.000000 1.000000 0.000000
0.000000 1.000000 0.000000
0.000000 1.000000 0.000000
0.000000 1.000000 0.000000
0.000000 1.000000 0.000000
0.000000 1.000000 0.000000
0.000000 1.000000 0.000000
0.000000 1.000000 0.000000
0.000000 1.000000 0.000000
0.000000 1.000000 0.000000
0.000000 1.000000 0.000000
0.000000 1.000000 0.000000
0.000000 1.000000 0.000000
0.000000 1.000000 0.000000
0.000000 1.000000 0.000000
0.000000 1.000000 0.000000
0.000000 1.000000 0.000000
0.000000 1.000000 0.000000
0.000000 1.000000 0.000000
0.000000 1.000000 0.000000
0.000000 1.000000 0.000000
0.000000 1.000000 0.000000
0.000000 1.000000 0.000000
0.000000 1.000000 0.000000
0.000000 1.000000 0.000000
0.000000 1.000000 0.000000
0.000000 1.000000 0.000000
0.000000 1.000000 0.000000
0.000000 1.000000 0.000000
0.000000 1.000000 0.000000
0.000000 1.000000 0.000000
0.000000 1.000000 0.000000
0.000000 1.000000 0.000000
0.000000 1.000000 0.000000
0.000000 1.000000 0.000000
0.000000 1.000000 0.000000
0.000000 1.000000 0.000000
0.000000 1.000000 0.000000
0.000000 1.000000 0.000000
0.000000 1.000000 0.000000
0.000000 1.000000 0.000000
0.000000 1.000000 0.000000
0.000000 1.000000 0.000000
0.000000 1.000000 0.000000
0.000000 1.000000 0.000000
-1.000000 0.000000 0.000000
-1.000000 0.000000 0.000000
-1.000000 0.000000 0.000000
-1.000000 0.000000 0.000000
-1.000000 0.000000 0.000000
-1.000000 0.000000 0.000000
-0.707107 -0.707107 0.000000
-0.707107 -0.707107 0.000000
-0.707107 -0.707107 0.000000
-0.707107 -0.707107 0.000000
-0.707107 -0.707107 0.000000
-0.707107 -0.707107 0.000000
-0.707107 -0.707107 0.000000
-0.592246 -0.805757 0.000000
-0.707107 -0.707107 0.000000
-0.592246 -0.805757 0.000000
-0.460591 -0.887612 0.000000
-0.707107 -0.707107 0.000000
-0.232227 -0.972662 0.000000
-0.277113 -0.960837 0.000000
-0.321305 -0.946976 0.000000
-0.277113 -0.960837 0.000000
-0.321307 -0.946975 0.000000
-0.321305 -0.946976 0.000000
-0.321307 -0.946975 0.000000
-0.460591 -0.887612 0.000000
-0.321305 -0.946976 0.000000
-0.460591 -0.887612 0.000000
-0.592246 -0.805757 0.000000
-0.321305 -0.946976 0.000000
-0.277113 -0.960837 0.000000
-0.232227 -0.972662 0.000000
-0.063305 -0.997994 0.000000
-0.063305 -0.997994 0.000000
-0.232227 -0.972662 0.000000
0.063305 -0.997994 0.000000
-0.063305 -0.997994 0.000000
0.063305 -0.997994 0.000000
0.232229 -0.972661 0.000000
0.232229 -0.972661 0.000000
0.063305 -0.997994 0.000000
0.277111 -0.960838 0.000000
0.232229 -0.972661 0.000000
0.277111 -0.960838 0.000000
0.321304 -0.946976 0.000000
0.277111 -0.960838 0.000000
0.321303 -0.946977 0.000000
0.321304 -0.946976 0.000000
0.321303 -0.946977 0.000000
0.528007 -0.849240 0.000000
0.321304 -0.946976 0.000000
0.528007 -0.849240 0.000000
0.528008 -0.849240 0.000000
0.321304 -0.946976 0.000000
0.000000 0.000000 1.000000
0.000000 0.000000 1.000000
0.000000 0.000000 1.000000
0.000000 0.000000 1.000000
0.000000 0.000000 1.000000
0.000000 0.000000 1.000000
0.000000 0.000000 1.000000
0.000000 0.000000 1.000000
0.000000 0.000000 1.000000
0.000000 0.000000 1.000000
0.000000 0.000000 1.000000
0.000000 0.000000 1.000000
0.000000 0.000000 1.000000
0.000000 0.000000 1.000000
0.000000 0.000000 1.000000
0.000000 0.000000 1.000000
0.000000 0.000000 1.000000
0.000000 0.000000 1.000000
0.000000 0.000000 1.000000
0.000000 0.000000 1.000000
0.000000 0.000000 1.000000
0.000000 0.000000 1.000000
0.000000 0.000000 1.000000
0.000000 0.000000 1.000000
0.000000 0.000000 1.000000
0.000000 0.000000 1.000000
0.000000 0.000000 1.000000
0.000000 0.000000 1.000000
0.000000 0.000000 1.000000
0.000000 0.000000 1.000000
0.000000 0.000000 1.000000
0.000000 0.000000 1.000000
0.000000 0.000000 1.000000
0.000000 0.000000 1.000000
0.000000 0.000000 1.000000
0.000000 0.000000 1.000000
0.000000 0.000000 1.000000
0.000000 0.000000 1.000000
0.000000 0.000000 1.000000
0.000000 0.000000 1.000000
0.000000 0.000000 1.000000
0.000000 0.000000 1.000000
0.000000 0.000000 1.000000
0.000000 0.000000 1.000000
0.000000 0.000000 1.000000
0.000000 -1.000000 0.000000
0.000000 -1.000000 0.000000
0.000000 -1.000000 0.000000
0.000000 -1.000000 0.000000
0.000000 -1.000000 0.000000
0.000000 -1.000000 0.000000
0.232229 0.972661 0.000000
0.460591 0.887613 0.000000
0.277112 0.960838 0.000000
0.277112 0.960838 0.000000
0.460591 0.887613 0.000000
0.592246 0.805757 0.000000
0.000000 0.000000 1.000000
0.000000 0.000000 1.000000
0.000000 0.000000 1.000000
0.000000 0.000000 1.000000
0.000000 0.000000 1.000000
0.000000 0.000000 1.000000
0.000000 0.000000 1.000000
0.000000 0.000000 1.000000
0.000000 0.000000 1.000000
0.000000 -1.000000 0.000000
0.000000 -1.000000 0.000000
0.000000 -1.000000 0.000000
0.000000 -1.000000 0.000000
0.000000 -1.000000 0.000000
0.000000 -1.000000 0.000000
-0.277112 0.960838 0.000000
-0.063305 0.997994 0.000000
-0.232229 0.972661 0.000000
-0.232229 0.972661 0.000000
-0.063305 0.997994 0.000000
0.063305 0.997994 0.000000
0.000000 0.000000 1.000000
0.000000 0.000000 1.000000
0.000000 0.000000 1.000000
0.000000 0.000000 1.000000
0.000000 0.000000 1.000000
0.000000 0.000000 1.000000
0.000000 0.000000 1.000000
0.000000 0.000000 1.000000
0.000000 0.000000 1.000000
0.000000 -1.000000 0.000000
0.000000 -1.000000 0.000000
0.000000 -1.000000 0.000000
0.000000 -1.000000 0.000000
0.000000 -1.000000 0.000000
0.000000 -1.000000 0.000000
-0.063305 0.997994 0.000000
0.232229 0.972661 0.000000
0.063305 0.997994 0.000000
0.063305 0.997994 0.000000
0.232229 0.972661 0.000000
0.277112 0.960838 0.000000
0.000000 0.000000 1.000000
0.000000 0.000000 1.000000
0.000000 0.000000 1.000000
0.000000 0.000000 1.000000
0.000000 0.000000 1.000000
0.000000 0.000000 1.000000
0.000000 0.000000 1.000000
0.000000 0.000000 1.000000
0.000000 0.000000 1.000000
0.000000 0.000000 1.000000
0.000000 0.000000 1.000000
0.000000 0.000000 1.000000
0.000000 0.000000 1.000000
0.000000 0.000000 1.000000
0.000000 0.000000 1.000000
0.000000 0.000000 1.000000
0.000000 0.000000 1.000000
0.000000 0.000000 1.000000
0.000000 -1.000000 0.000000
0.000000 -1.000000 0.000000
0.000000 -1.000000 0.000000
0.000000 -1.000000 0.000000
0.000000 -1.000000 0.000000
0.000000 -1.000000 0.000000
0.460591 0.887613 0.000000
0.707107 0.707107 0.000000
0.592246 0.805757 0.000000
0.592246 0.805757 0.000000
0.707107 0.707107 0.000000
0.707107 0.707107 0.000000
0.000000 0.000000 1.000000
0.000000 0.000000 1.000000
0.000000 0.000000 1.000000
0.000000 0.000000 1.000000
0.000000 0.000000 1.000000
0.000000 0.000000 1.000000
0.000000 0.000000 1.000000
0.000000 0.000000 1.000000
0.000000 0.000000 1.000000
0.000000 -1.000000 0.000000
0.000000 -1.000000 0.000000
0.000000 -1.000000 0.000000
0.000000 -1.000000 0.000000
0.000000 -1.000000 0.000000
0.000000 -1.000000 0.000000
-0.592247 0.805756 0.000000
-0.277112 0.960838 0.000000
-0.460591 0.887612 0.000000
-0.460591 0.887612 0.000000
-0.277112 0.960838 0.000000
-0.232229 0.972661 0.000000
-1.000000 0.000000 0.000000
-1.000000 0.000000 0.000000
-1.000000 0.000000 0.000000
-1.000000 0.000000 0.000000
-1.000000 0.000000 0.000000
-1.000000 0.000000 0.000000
1.000000 0.000000 0.000000
1.000000 0.000000 0.000000
1.000000 0.000000 0.000000
1.000000 0.000000 0.000000
1.000000 0.000000 0.000000
1.000000 0.000000 0.000000
0.000000 -1.000000 0.000000
0.000000 -1.000000 0.000000
0.000000 -1.000000 0.000000
0.000000 -1.000000 0.000000
0.000000 -1.000000 0.000000
0.000000 -1.000000 0.000000
-0.707108 0.707106 0.000000
-0.592247 0.805756 0.000000
-0.707108 0.707106 0.000000
-0.707108 0.707106 0.000000
-0.592247 0.805756 0.000000
-0.460591 0.887612 0.000000
0.000000 0.000000 1.000000
0.000000 0.000000 1.000000
0.000000 0.000000 1.000000
0.000000 0.000000 1.000000
0.000000 0.000000 1.000000
0.000000 0.000000 1.000000
0.000000 0.000000 1.000000
0.000000 0.000000 1.000000
0.000000 0.000000 1.000000
0.000000 0.000000 1.000000
0.000000 0.000000 1.000000
0.000000 0.000000 1.000000
0.000000 0.000000 1.000000
0.000000 0.000000 1.000000
0.000000 0.000000 1.000000
0.000000 0.000000 1.000000
0.000000 0.000000 1.000000
0.000000 0.000000 1.000000
</float_array>
          <technique_common>
            <accessor source="#polySurface32-Normal0-array" count="324" stride="3">
              <param name="X" type="float"/>
              <param name="Y" type="float"/>
              <param name="Z" type="float"/>
            </accessor>
          </technique_common>
        </source>
        <source id="polySurface32-UV0">
          <float_array id="polySurface32-UV0-array" count="252">
0.000000 0.468081
0.000000 0.363999
0.102851 0.466335
0.102851 0.365745
0.127256 0.465921
0.127256 0.366159
0.441023 0.367649
0.558976 0.367649
0.441023 0.966426
0.558976 0.966426
0.222222 0.141632
0.222222 0.362783
0.178125 0.141632
0.178125 0.362783
0.000000 0.362783
0.000000 0.141632
0.530357 0.362783
0.555555 0.141632
0.555555 0.362783
0.530357 0.141632
1.000000 0.362783
1.000000 0.141632
0.000000 0.369221
0.000000 0.148070
0.444444 0.369221
0.444445 0.148070
0.469642 0.369221
0.469642 0.148070
0.777778 0.148070
0.777778 0.369221
0.821874 0.369221
0.821874 0.148070
1.000000 0.369221
1.000000 0.148071
0.432272 0.367649
0.547481 0.367649
0.432272 0.966426
0.547481 0.966426
1.000000 0.363999
1.000000 0.468081
0.897148 0.365745
0.897148 0.466335
0.872744 0.465921
0.872744 0.366159
0.708589 0.464889
0.708589 0.367191
0.720761 0.464965
0.720761 0.367115
0.500000 0.367936
0.500000 0.464145
0.291411 0.367191
0.291411 0.464889
0.279239 0.367115
0.279239 0.464965
0.175604 0.529211
0.175604 0.496407
0.179308 0.529617
0.244591 0.496407
0.244591 0.529631
0.309874 0.529617
0.313578 0.496407
0.313579 0.529229
0.365319 0.872438
0.365319 0.885054
0.358841 0.871262
0.313578 0.884239
0.313578 0.868899
0.123865 0.529196
0.123864 0.496407
0.130345 0.528417
0.358838 0.528469
0.365319 0.496407
0.365318 0.529316
0.525433 1.000000
0.525433 0.750000
0.561871 1.000000
0.561871 0.750000
0.438710 0.562727
0.438710 0.476707
0.561837 0.562727
0.561837 0.476707
0.175604 0.869839
0.179305 0.871799
0.175604 0.885179
0.244591 0.884039
0.244591 0.869559
0.450758 1.000000
0.450758 0.750000
0.487074 1.000000
0.487074 0.750000
0.438710 0.792113
0.438710 0.677420
0.561837 0.792113
0.561837 0.677420
0.309877 0.870859
0.399812 0.884825
0.391484 0.875802
0.399812 0.496407
0.391479 0.536538
0.625000 1.000000
0.625000 0.750000
0.438710 0.419361
0.561837 0.419361
0.123864 0.870852
0.130341 0.870852
0.123864 0.884182
0.418197 1.000000
0.418197 0.750000
0.438710 0.878132
0.561837 0.878132
0.434805 0.400391
0.572785 0.400391
0.434805 0.935621
0.572785 0.935621
0.434999 0.422116
0.572979 0.422116
0.434999 0.957347
0.572979 0.957347
0.375000 0.750000
0.375000 1.000000
0.438710 0.935478
0.561837 0.935478
0.089370 0.884825
0.097698 0.872041
0.089370 0.496407
0.097704 0.536321
</float_array>
          <technique_common>
            <accessor source="#polySurface32-UV0-array" count="126" stride="2">
              <param name="S" type="float"/>
              <param name="T" type="float"/>
            </accessor>
          </technique_common>
        </source>
        <vertices id="polySurface32-VERTEX">
          <input semantic="POSITION" source="#polySurface32-POSITION"/>
        </vertices>
        <triangles count="108" material="blinn8"><input semantic="VERTEX" offset="0" source="#polySurface32-VERTEX"/><input semantic="NORMAL" offset="1" source="#polySurface32-Normal0"/><input semantic="TEXCOORD" offset="2" set="0" source="#polySurface32-UV0"/><p> 1 0 0 2 1 1 0 2 2 2 3 1 3 4 3 0 5 2 0 6 2 3 7 3 5 8 4 3 9 3 4 10 5 5 11 4 6 12 6 7 13 7 1 14 8 1 15 8 7 16 7 2 17 9 8 18 10 9 19 11 11 20 12 9 21 11 10 22 13 11 23 12 10 24 13 7 25 14 11 26 12 7 27 14 6 28 15 11 29 12 9 30 11 8 31 10 12 32 16 14 33 17 15 34 18 13 35 19 15 36 18 12 37 16 13 38 19 12 39 16 8 40 10 13 41 19 15 42 18 14 43 17 17 44 20 17 45 20 14 46 17 16 47 21 17 48 22 16 49 23 19 50 24 19 51 24 16 52 23 18 53 25 19 54 24 18 55 25 23 56 26 18 57 25 20 58 27 23 59 26 20 60 27 21 61 28 23 62 26 21 63 28 22 64 29 23 65 26 22 66 29 21 67 28 24 68 30 21 69 28 25 70 31 24 71 30 24 72 30 25 73 31 27 74 32 25 75 31 26 76 33 27 77 32 27 78 34 26 79 35 29 80 36 29 81 36 26 82 35 28 83 37 29 84 38 28 85 39 33 86 40 28 87 39 30 88 41 33 89 40 30 90 41 31 91 42 33 92 40 31 93 42 32 94 43 33 95 40 36 96 44 37 97 45 35 98 46 37 99 45 34 100 47 35 101 46 34 102 47 32 103 43 35 104 46 32 105 43 31 106 42 35 107 46 37 108 45 36 109 44 39 110 48 39 111 48 36 112 44 38 113 49 39 114 48 38 115 49 41 116 50 41 117 50 38 118 49 40 119 51 41 120 50 40 121 51 43 122 52 40 123 51 42 124 53 43 125 52 42 126 53 5 127 4 43 128 52 5 129 4 4 130 5 43 131 52 13 132 54 46 133 55 14 134 56 46 135 55 47 136 57 14 137 56 14 138 56 47 139 57 16 140 58 16 141 58 47 142 57 18 143 59 51 144 60 20 145 61 47 146 57 18 147 59 47 148 57 20 149 61 30 150 62 52 151 63 31 152 64 52 153 63 53 154 65 31 155 64 31 156 64 53 157 65 35 158 66 11 159 67 54 160 68 8 161 69 54 162 68 46 163 55 8 164 69 8 165 69 46 166 55 13 167 54 20 168 61 51 169 60 21 170 70 57 171 71 25 172 72 51 173 60 21 174 70 51 175 60 25 176 72 51 177 73 58 178 74 57 179 75 57 180 75 58 181 74 59 182 76 53 183 77 52 184 78 49 185 79 49 186 79 52 187 78 50 188 80 42 189 81 40 190 82 61 191 83 61 192 83 40 193 82 60 194 84 40 195 82 38 196 85 60 197 84 46 198 86 45 199 87 47 200 88 47 201 88 45 202 87 44 203 89 61 204 90 60 205 91 56 206 92 56 207 92 60 208 91 48 209 93 35 210 66 53 211 65 36 212 94 53 213 65 60 214 84 36 215 94 38 216 85 36 217 94 60 218 84 47 219 88 44 220 89 51 221 73 51 222 73 44 223 89 58 224 74 60 225 91 53 226 77 48 227 93 48 228 93 53 229 77 49 230 79 52 231 63 30 232 62 63 233 95 30 234 62 28 235 96 63 236 95 63 237 95 28 238 96 62 239 97 28 240 96 26 241 98 62 242 97 62 243 97 26 244 98 57 245 71 26 246 98 25 247 72 57 248 71 57 249 75 59 250 76 62 251 99 62 252 99 59 253 76 64 254 100 52 255 78 63 256 101 50 257 80 50 258 80 63 259 101 65 260 102 0 261 103 5 262 104 66 263 105 66 264 105 5 265 104 61 266 83 5 267 104 42 268 81 61 269 83 54 270 106 67 271 107 46 272 86 46 273 86 67 274 107 45 275 87 66 276 108 61 277 90 55 278 109 55 279 109 61 280 90 56 281 92 68 282 110 69 283 111 71 284 112 71 285 112 69 286 111 70 287 113 62 288 114 64 289 115 63 290 116 63 291 116 64 292 115 65 293 117 68 294 118 67 295 107 69 296 119 69 297 119 67 298 107 54 299 106 70 300 120 66 301 108 71 302 121 71 303 121 66 304 108 55 305 109 66 306 105 70 307 122 0 308 103 0 309 103 70 310 122 1 311 123 70 312 122 69 313 124 1 314 123 1 315 123 69 316 124 6 317 125 69 318 124 54 319 68 6 320 125 54 321 68 11 322 67 6 323 125</p></triangles>
      </mesh>
    </geometry>
    <geometry id="polySurface33-lib" name="polySurface33Mesh">
      <mesh>
        <source id="polySurface33-POSITION">
          <float_array id="polySurface33-POSITION-array" count="24">
-1.751775 0.317485 -0.140468
-1.751775 0.213035 -0.140468
1.877744 0.317485 -0.140468
1.877744 0.213035 -0.140468
1.877744 0.317485 -0.198074
1.877744 0.213035 -0.198074
-1.751775 0.317485 -0.198074
-1.751775 0.213035 -0.198074
</float_array>
          <technique_common>
            <accessor source="#polySurface33-POSITION-array" count="8" stride="3">
              <param name="X" type="float"/>
              <param name="Y" type="float"/>
              <param name="Z" type="float"/>
            </accessor>
          </technique_common>
        </source>
        <source id="polySurface33-Normal0">
          <float_array id="polySurface33-Normal0-array" count="90">
0.000000 0.000000 1.000000
0.000000 0.000000 1.000000
0.000000 0.000000 1.000000
0.000000 0.000000 1.000000
0.000000 0.000000 1.000000
0.000000 0.000000 1.000000
1.000000 0.000000 0.000000
1.000000 0.000000 0.000000
1.000000 0.000000 0.000000
1.000000 0.000000 0.000000
1.000000 0.000000 0.000000
1.000000 0.000000 0.000000
-1.000000 0.000000 0.000000
-1.000000 0.000000 0.000000
-1.000000 0.000000 0.000000
-1.000000 0.000000 0.000000
-1.000000 0.000000 0.000000
-1.000000 0.000000 0.000000
0.000000 -1.000000 0.000000
0.000000 -1.000000 0.000000
0.000000 -1.000000 0.000000
0.000000 -1.000000 0.000000
0.000000 -1.000000 0.000000
0.000000 -1.000000 0.000000
0.000000 1.000000 0.000000
0.000000 1.000000 0.000000
0.000000 1.000000 0.000000
0.000000 1.000000 0.000000
0.000000 1.000000 0.000000
0.000000 1.000000 0.000000
</float_array>
          <technique_common>
            <accessor source="#polySurface33-Normal0-array" count="30" stride="3">
              <param name="X" type="float"/>
              <param name="Y" type="float"/>
              <param name="Z" type="float"/>
            </accessor>
          </technique_common>
        </source>
        <source id="polySurface33-UV0">
          <float_array id="polySurface33-UV0-array" count="40">
0.000000 0.383632
0.000000 0.360571
1.000000 0.383632
1.000000 0.360571
0.000000 0.383632
0.000000 0.360571
1.000000 0.383632
1.000000 0.360571
0.000000 0.383632
0.000000 0.360571
1.000000 0.383632
1.000000 0.360571
0.000000 0.383632
0.000000 0.360571
1.000000 0.383632
1.000000 0.360571
0.000000 0.383632
0.000000 0.360571
1.000000 0.383632
1.000000 0.360571
</float_array>
          <technique_common>
            <accessor source="#polySurface33-UV0-array" count="20" stride="2">
              <param name="S" type="float"/>
              <param name="T" type="float"/>
            </accessor>
          </technique_common>
        </source>
        <vertices id="polySurface33-VERTEX">
          <input semantic="POSITION" source="#polySurface33-POSITION"/>
        </vertices>
        <triangles count="10" material="blinn9"><input semantic="VERTEX" offset="0" source="#polySurface33-VERTEX"/><input semantic="NORMAL" offset="1" source="#polySurface33-Normal0"/><input semantic="TEXCOORD" offset="2" set="0" source="#polySurface33-UV0"/><p> 0 0 0 1 1 1 2 2 2 2 3 2 1 4 1 3 5 3 2 6 4 3 7 5 4 8 6 4 9 6 3 10 5 5 11 7 6 12 8 7 13 9 0 14 10 0 15 10 7 16 9 1 17 11 1 18 12 7 19 13 3 20 14 3 21 14 7 22 13 5 23 15 6 24 16 0 25 17 4 26 18 4 27 18 0 28 17 2 29 19</p></triangles>
      </mesh>
    </geometry>
    <geometry id="polySurface34-lib" name="polySurface34Mesh">
      <mesh>
        <source id="polySurface34-POSITION">
          <float_array id="polySurface34-POSITION-array" count="12">
-2.000000 0.000000 0.100000
-1.800000 0.000000 0.100000
-2.000000 1.800000 0.100000
-1.800000 1.800000 0.100000
</float_array>
          <technique_common>
            <accessor source="#polySurface34-POSITION-array" count="4" stride="3">
              <param name="X" type="float"/>
              <param name="Y" type="float"/>
              <param name="Z" type="float"/>
            </accessor>
          </technique_common>
        </source>
        <source id="polySurface34-Normal0">
          <float_array id="polySurface34-Normal0-array" count="12">
0.000000 0.000000 1.000000
0.000000 0.000000 1.000000
0.000000 0.000000 1.000000
0.000000 0.000000 1.000000
</float_array>
          <technique_common>
            <accessor source="#polySurface34-Normal0-array" count="4" stride="3">
              <param name="X" type="float"/>
              <param name="Y" type="float"/>
              <param name="Z" type="float"/>
            </accessor>
          </technique_common>
        </source>
        <source id="polySurface34-UV0">
          <float_array id="polySurface34-UV0-array" count="8">
0.435474 0.438543
0.564526 0.438543
0.435474 0.898473
0.564526 0.898473
</float_array>
          <technique_common>
            <accessor source="#polySurface34-UV0-array" count="4" stride="2">
              <param name="S" type="float"/>
              <param name="T" type="float"/>
            </accessor>
          </technique_common>
        </source>
        <vertices id="polySurface34-VERTEX">
          <input semantic="POSITION" source="#polySurface34-POSITION"/>
          <input semantic="NORMAL" source="#polySurface34-Normal0"/>
        </vertices>
        <triangles count="2" material="blinn11"><input semantic="VERTEX" offset="0" source="#polySurface34-VERTEX"/><input semantic="TEXCOORD" offset="1" set="0" source="#polySurface34-UV0"/><p> 0 0 1 1 2 2 2 2 1 1 3 3</p></triangles>
      </mesh>
    </geometry>
    <geometry id="polySurface35-lib" name="polySurface35Mesh">
      <mesh>
        <source id="polySurface35-POSITION">
          <float_array id="polySurface35-POSITION-array" count="12">
1.800000 0.000000 0.100000
2.000000 0.000000 0.100000
1.800000 1.800000 0.100000
2.000000 1.800000 0.100000
</float_array>
          <technique_common>
            <accessor source="#polySurface35-POSITION-array" count="4" stride="3">
              <param name="X" type="float"/>
              <param name="Y" type="float"/>
              <param name="Z" type="float"/>
            </accessor>
          </technique_common>
        </source>
        <source id="polySurface35-Normal0">
          <float_array id="polySurface35-Normal0-array" count="12">
0.000000 0.000000 1.000000
0.000000 0.000000 1.000000
0.000000 0.000000 1.000000
0.000000 0.000000 1.000000
</float_array>
          <technique_common>
            <accessor source="#polySurface35-Normal0-array" count="4" stride="3">
              <param name="X" type="float"/>
              <param name="Y" type="float"/>
              <param name="Z" type="float"/>
            </accessor>
          </technique_common>
        </source>
        <source id="polySurface35-UV0">
          <float_array id="polySurface35-UV0-array" count="8">
0.435474 0.438543
0.564526 0.438543
0.435474 0.898473
0.564526 0.898473
</float_array>
          <technique_common>
            <accessor source="#polySurface35-UV0-array" count="4" stride="2">
              <param name="S" type="float"/>
              <param name="T" type="float"/>
            </accessor>
          </technique_common>
        </source>
        <vertices id="polySurface35-VERTEX">
          <input semantic="POSITION" source="#polySurface35-POSITION"/>
          <input semantic="NORMAL" source="#polySurface35-Normal0"/>
        </vertices>
        <triangles count="2" material="blinn11"><input semantic="VERTEX" offset="0" source="#polySurface35-VERTEX"/><input semantic="TEXCOORD" offset="1" set="0" source="#polySurface35-UV0"/><p> 0 0 1 1 2 2 2 2 1 1 3 3</p></triangles>
      </mesh>
    </geometry>
  </library_geometries>
  <library_visual_scenes>
    <visual_scene id="mansion_wall_wood_window_no_glass" name="mansion_wall_wood_window_no_glass">
      <node name="pPlane1" id="pPlane1" sid="pPlane1"><matrix sid="matrix">400.000000 0.000000 0.000000 0.000000 0.000000 0.000000 -300.000000 150.000000 0.000000 100.000000 0.000000 0.000000 0.000000 0.000000 0.000000 1.000000</matrix><extra><technique profile="FCOLLADA"><visibility>1.000000</visibility></technique></extra></node>
      <node name="pCube1" id="pCube1" sid="pCube1"><matrix sid="matrix">60.281900 0.000000 0.000000 -151.232605 0.000000 78.901170 0.000000 214.777405 0.000000 0.000000 5.000000 -2.500000 0.000000 0.000000 0.000000 1.000000</matrix><extra><technique profile="FCOLLADA"><visibility>1.000000</visibility></technique></extra></node>
      <node name="pCube2" id="pCube2" sid="pCube2"><matrix sid="matrix">60.281900 0.000000 0.000000 -50.634121 0.000000 78.901170 0.000000 214.777405 0.000000 0.000000 5.000000 -2.500000 0.000000 0.000000 0.000000 1.000000</matrix><extra><technique profile="FCOLLADA"><visibility>1.000000</visibility></technique></extra></node>
      <node name="pCube3" id="pCube3" sid="pCube3"><matrix sid="matrix">60.281900 0.000000 0.000000 48.904491 0.000000 78.901170 0.000000 214.777405 0.000000 0.000000 5.000000 -2.500000 0.000000 0.000000 0.000000 1.000000</matrix><extra><technique profile="FCOLLADA"><visibility>1.000000</visibility></technique></extra></node>
      <node name="pCube4" id="pCube4" sid="pCube4"><matrix sid="matrix">60.281900 0.000000 0.000000 148.922806 0.000000 78.901170 0.000000 214.777405 0.000000 0.000000 5.000000 -2.500000 0.000000 0.000000 0.000000 1.000000</matrix><extra><technique profile="FCOLLADA"><visibility>1.000000</visibility></technique></extra></node>
      <node name="pCube5" id="pCube5" sid="pCube5"><matrix sid="matrix">60.281900 0.000000 0.000000 148.922806 0.000000 78.901170 0.000000 111.739601 0.000000 0.000000 5.000000 -2.500000 0.000000 0.000000 0.000000 1.000000</matrix><extra><technique profile="FCOLLADA"><visibility>1.000000</visibility></technique></extra></node>
      <node name="pCube6" id="pCube6" sid="pCube6"><matrix sid="matrix">60.281900 0.000000 0.000000 48.904491 0.000000 78.901170 0.000000 111.739601 0.000000 0.000000 5.000000 -2.500000 0.000000 0.000000 0.000000 1.000000</matrix><extra><technique profile="FCOLLADA"><visibility>1.000000</visibility></technique></extra></node>
      <node name="pCube7" id="pCube7" sid="pCube7"><matrix sid="matrix">60.281900 0.000000 0.000000 -50.634121 0.000000 78.901170 0.000000 111.739601 0.000000 0.000000 5.000000 -2.500000 0.000000 0.000000 0.000000 1.000000</matrix><extra><technique profile="FCOLLADA"><visibility>1.000000</visibility></technique></extra></node>
      <node name="pCube8" id="pCube8" sid="pCube8"><matrix sid="matrix">60.281900 0.000000 0.000000 -151.232605 0.000000 78.901170 0.000000 111.739601 0.000000 0.000000 5.000000 -2.500000 0.000000 0.000000 0.000000 1.000000</matrix><extra><technique profile="FCOLLADA"><visibility>1.000000</visibility></technique></extra></node>
      <node name="polySurface1" id="polySurface1" sid="polySurface1"><matrix sid="matrix">100.000000 0.000000 0.000000 0.000000 0.000000 100.000000 0.000000 0.000000 0.000000 0.000000 100.000000 0.000000 0.000000 0.000000 0.000000 1.000000</matrix><extra><technique profile="FCOLLADA"><visibility>1.000000</visibility></technique></extra></node>
      <node name="polySurface2" id="polySurface2" sid="polySurface2"><matrix sid="matrix">100.000000 0.000000 0.000000 0.000000 0.000000 100.000000 0.000000 0.000000 0.000000 0.000000 100.000000 0.000000 0.000000 0.000000 0.000000 1.000000</matrix><extra><technique profile="FCOLLADA"><visibility>1.000000</visibility></technique></extra></node>
      <node name="polySurface3" id="polySurface3" sid="polySurface3"><matrix sid="matrix">100.000000 0.000000 0.000000 0.000000 0.000000 100.000000 0.000000 0.000000 0.000000 0.000000 100.000000 0.000000 0.000000 0.000000 0.000000 1.000000</matrix><extra><technique profile="FCOLLADA"><visibility>1.000000</visibility></technique></extra></node>
      <node name="polySurface4" id="polySurface4" sid="polySurface4"><matrix sid="matrix">100.000000 0.000000 0.000000 0.000000 0.000000 100.000000 0.000000 0.000000 0.000000 0.000000 100.000000 0.000000 0.000000 0.000000 0.000000 1.000000</matrix><extra><technique profile="FCOLLADA"><visibility>1.000000</visibility></technique></extra></node>
      <node name="polySurface5" id="polySurface5" sid="polySurface5"><matrix sid="matrix">100.000000 0.000000 0.000000 0.000000 0.000000 100.000000 0.000000 0.000000 0.000000 0.000000 100.000000 0.000000 0.000000 0.000000 0.000000 1.000000</matrix><extra><technique profile="FCOLLADA"><visibility>1.000000</visibility></technique></extra></node>
      <node name="polySurface6" id="polySurface6" sid="polySurface6"><matrix sid="matrix">100.000000 0.000000 0.000000 0.000000 0.000000 100.000000 0.000000 0.000000 0.000000 0.000000 100.000000 0.000000 0.000000 0.000000 0.000000 1.000000</matrix><extra><technique profile="FCOLLADA"><visibility>1.000000</visibility></technique></extra></node>
      <node name="polySurface7" id="polySurface7" sid="polySurface7"><matrix sid="matrix">100.000000 0.000000 0.000000 0.000000 0.000000 100.000000 0.000000 0.000000 0.000000 0.000000 100.000000 0.000000 0.000000 0.000000 0.000000 1.000000</matrix><extra><technique profile="FCOLLADA"><visibility>1.000000</visibility></technique></extra></node>
      <node name="polySurface8" id="polySurface8" sid="polySurface8"><matrix sid="matrix">100.000000 0.000000 0.000000 0.000000 0.000000 100.000000 0.000000 0.000000 0.000000 0.000000 100.000000 10.000000 0.000000 0.000000 0.000000 1.000000</matrix><extra><technique profile="FCOLLADA"><visibility>1.000000</visibility></technique></extra></node>
      <node name="pPlane2" id="pPlane2" sid="pPlane2"><matrix sid="matrix">400.000000 0.000000 0.000000 0.000000 0.000000 100.000000 0.000000 180.000000 0.000000 0.000000 20.000000 0.000000 0.000000 0.000000 0.000000 1.000000</matrix><extra><technique profile="FCOLLADA"><visibility>1.000000</visibility></technique></extra></node>
      <node name="pPlane3" id="pPlane3" sid="pPlane3"><matrix sid="matrix">400.000000 0.000000 0.000000 0.000000 0.000000 0.000000 -400.000000 200.000000 0.000000 100.000000 0.000000 0.000000 0.000000 0.000000 0.000000 1.000000</matrix><extra><technique profile="FCOLLADA"><visibility>1.000000</visibility></technique></extra></node>
      <node name="pCube9" id="pCube9" sid="pCube9"><matrix sid="matrix">114.373800 0.000000 0.000000 -101.883499 0.000000 143.805800 0.000000 276.265289 0.000000 0.000000 200.000000 80.000000 0.000000 0.000000 0.000000 1.000000</matrix><extra><technique profile="FCOLLADA"><visibility>1.000000</visibility></technique></extra></node>
      <node name="pCube10" id="pCube10" sid="pCube10"><matrix sid="matrix">114.373800 0.000000 0.000000 99.311058 0.000000 143.805800 0.000000 276.265289 0.000000 0.000000 200.000000 80.000000 0.000000 0.000000 0.000000 1.000000</matrix><extra><technique profile="FCOLLADA"><visibility>1.000000</visibility></technique></extra></node>
      <node name="polySurface9" id="polySurface9" sid="polySurface9"><matrix sid="matrix">100.000000 0.000000 0.000000 0.000000 0.000000 100.000000 0.000000 0.000000 0.000000 0.000000 100.000000 0.000000 0.000000 0.000000 0.000000 1.000000</matrix><extra><technique profile="FCOLLADA"><visibility>1.000000</visibility></technique></extra></node>
      <node name="polySurface10" id="polySurface10" sid="polySurface10"><matrix sid="matrix">100.000000 0.000000 0.000000 0.000000 0.000000 100.000000 0.000000 0.000000 0.000000 0.000000 100.000000 0.000000 0.000000 0.000000 0.000000 1.000000</matrix><extra><technique profile="FCOLLADA"><visibility>1.000000</visibility></technique></extra></node>
      <node name="pCube11" id="pCube11" sid="pCube11"><matrix sid="matrix">375.548600 0.000000 0.000000 0.000000 0.000000 370.681000 0.000000 175.017197 0.000000 0.000000 100.000000 20.000000 0.000000 0.000000 0.000000 1.000000</matrix><extra><technique profile="FCOLLADA"><visibility>1.000000</visibility></technique></extra></node>
      <node name="pCube12" id="pCube12" sid="pCube12"><matrix sid="matrix">375.548600 0.000000 0.000000 0.000000 0.000000 370.681000 0.000000 175.017197 0.000000 0.000000 100.000000 20.000000 0.000000 0.000000 0.000000 1.000000</matrix><extra><technique profile="FCOLLADA"><visibility>1.000000</visibility></technique></extra></node>
      <node name="polySurface11" id="polySurface11" sid="polySurface11"><matrix sid="matrix">100.000000 0.000000 0.000000 0.000000 0.000000 100.000000 0.000000 0.000000 0.000000 0.000000 100.000000 0.000000 0.000000 0.000000 0.000000 1.000000</matrix><extra><technique profile="FCOLLADA"><visibility>1.000000</visibility></technique></extra></node>
      <node name="pCube13" id="pCube13" sid="pCube13"><matrix sid="matrix">375.548600 0.000000 0.000000 0.000000 0.000000 370.681000 0.000000 175.017197 0.000000 0.000000 100.000000 20.000000 0.000000 0.000000 0.000000 1.000000</matrix><extra><technique profile="FCOLLADA"><visibility>1.000000</visibility></technique></extra></node>
      <node name="pPlane4" id="pPlane4" sid="pPlane4"><matrix sid="matrix">400.000000 0.000000 0.000000 0.000000 0.000000 0.000000 -400.000000 200.000000 0.000000 100.000000 0.000000 -18.980591 0.000000 0.000000 0.000000 1.000000</matrix><extra><technique profile="FCOLLADA"><visibility>1.000000</visibility></technique></extra></node>
      <node name="pPlane5" id="pPlane5" sid="pPlane5"><matrix sid="matrix">400.000000 0.000000 0.000000 380.000000 0.000000 100.000000 0.000000 180.000000 0.000000 0.000000 20.000000 0.000000 0.000000 0.000000 0.000000 1.000000</matrix><extra><technique profile="FCOLLADA"><visibility>1.000000</visibility></technique></extra></node>
      <node name="pCube14" id="pCube14" sid="pCube14"><matrix sid="matrix">355.399100 0.000000 0.000000 0.000000 0.000000 350.792700 0.000000 175.017197 0.000000 0.000000 145.138600 20.000000 0.000000 0.000000 0.000000 1.000000</matrix><extra><technique profile="FCOLLADA"><visibility>1.000000</visibility></technique></extra></node>
      <node name="polySurface13" id="polySurface13" sid="polySurface13"><matrix sid="matrix">100.000000 0.000000 0.000000 0.000000 0.000000 100.000000 0.000000 8.813863 0.000000 0.000000 47.089140 -10.357940 0.000000 0.000000 0.000000 1.000000</matrix><extra><technique profile="FCOLLADA"><visibility>1.000000</visibility></technique></extra></node>
      <node name="pCube16" id="pCube16" sid="pCube16"><matrix sid="matrix">10.445000 0.000000 0.000000 -85.914368 0.000000 362.951900 0.000000 198.278503 0.000000 0.000000 5.760610 -15.289540 0.000000 0.000000 0.000000 1.000000</matrix><extra><technique profile="FCOLLADA"><visibility>1.000000</visibility></technique></extra></node>
      <node name="pCube17" id="pCube17" sid="pCube17"><matrix sid="matrix">10.445000 0.000000 0.000000 83.025803 0.000000 362.951900 0.000000 198.278503 0.000000 0.000000 5.760610 -15.289540 0.000000 0.000000 0.000000 1.000000</matrix><extra><technique profile="FCOLLADA"><visibility>1.000000</visibility></technique></extra></node>
      <node name="pCube18" id="pCube18" sid="pCube18"><matrix sid="matrix">0.000000 362.951900 0.000000 6.298442 -10.445000 0.000000 0.000000 198.278503 0.000000 0.000000 5.760610 -16.927090 0.000000 0.000000 0.000000 1.000000</matrix><extra><technique profile="FCOLLADA"><visibility>1.000000</visibility></technique></extra></node>
      <node name="pCube19" id="pCube19" sid="pCube19"><matrix sid="matrix">0.000000 362.951900 0.000000 6.298442 -10.445000 0.000000 0.000000 285.105713 0.000000 0.000000 5.760610 -16.927090 0.000000 0.000000 0.000000 1.000000</matrix><extra><technique profile="FCOLLADA"><visibility>1.000000</visibility></technique></extra></node>
      <node name="pCube20" id="pCube20" sid="pCube20"><matrix sid="matrix">0.000000 362.951900 0.000000 6.298442 -10.445000 0.000000 0.000000 114.003899 0.000000 0.000000 5.760610 -16.927090 0.000000 0.000000 0.000000 1.000000</matrix><extra><technique profile="FCOLLADA"><visibility>1.000000</visibility></technique></extra></node>
      <node name="pCube21" id="pCube21" sid="pCube21"><matrix sid="matrix">0.000000 362.951900 0.000000 6.298442 -10.445000 0.000000 0.000000 26.526039 0.000000 0.000000 5.760610 -16.927090 0.000000 0.000000 0.000000 1.000000</matrix><extra><technique profile="FCOLLADA"><visibility>1.000000</visibility></technique></extra></node>
      <node name="pPlane6" id="pPlane6" sid="pPlane6"><matrix sid="matrix">20.000000 0.000000 0.000000 -190.000000 0.000000 0.000000 -200.000000 100.000000 0.000000 100.000000 0.000000 10.000000 0.000000 0.000000 0.000000 1.000000</matrix><extra><technique profile="FCOLLADA"><visibility>1.000000</visibility></technique></extra></node>
      <node name="pPlane7" id="pPlane7" sid="pPlane7"><matrix sid="matrix">20.000000 0.000000 0.000000 190.000000 0.000000 0.000000 -200.000000 100.000000 0.000000 100.000000 0.000000 10.000000 0.000000 0.000000 0.000000 1.000000</matrix><extra><technique profile="FCOLLADA"><visibility>1.000000</visibility></technique></extra></node>
      <node name="pCube22" id="pCube22" sid="pCube22"><matrix sid="matrix">10.445000 0.000000 0.000000 0.000000 0.000000 362.951900 0.000000 198.278503 0.000000 0.000000 5.760610 -15.289540 0.000000 0.000000 0.000000 1.000000</matrix><extra><technique profile="FCOLLADA"><visibility>1.000000</visibility></technique></extra></node>
      <node name="polySurface14" id="polySurface14" sid="polySurface14"><matrix sid="matrix">100.000000 0.000000 0.000000 0.000000 0.000000 100.000000 0.000000 0.000000 0.000000 0.000000 100.000000 0.000000 0.000000 0.000000 0.000000 1.000000</matrix><extra><technique profile="FCOLLADA"><visibility>1.000000</visibility></technique></extra><node name="polySurface15" id="polySurface15" sid="polySurface15"><matrix sid="matrix">1.000000 0.000000 0.000000 0.000000 0.000000 1.000000 0.000000 0.000000 0.000000 0.000000 1.000000 0.000000 0.000000 0.000000 0.000000 1.000000</matrix><extra><technique profile="FCOLLADA"><visibility>1.000000</visibility></technique></extra></node><node name="polySurface16" id="polySurface16" sid="polySurface16"><matrix sid="matrix">1.000000 0.000000 0.000000 0.000000 0.000000 1.000000 0.000000 0.000000 0.000000 0.000000 1.000000 0.000000 0.000000 0.000000 0.000000 1.000000</matrix><extra><technique profile="FCOLLADA"><visibility>1.000000</visibility></technique></extra></node><node name="polySurface18" id="polySurface18" sid="polySurface18"><matrix sid="matrix">1.000000 0.000000 0.000000 0.000000 0.000000 1.000000 0.000000 0.000000 0.000000 0.000000 1.000000 0.000000 0.000000 0.000000 0.000000 1.000000</matrix><extra><technique profile="FCOLLADA"><visibility>1.000000</visibility></technique></extra></node><node name="polySurface19" id="polySurface19" sid="polySurface19"><matrix sid="matrix">1.000000 0.000000 0.000000 0.000000 0.000000 1.000000 0.000000 0.000000 0.000000 0.000000 1.000000 0.000000 0.000000 0.000000 0.000000 1.000000</matrix><extra><technique profile="FCOLLADA"><visibility>1.000000</visibility></technique></extra></node><node name="polySurface25" id="polySurface25" sid="polySurface25"><matrix sid="matrix">1.000000 0.000000 0.000000 0.000000 0.000000 1.000000 0.000000 0.000000 0.000000 0.000000 1.000000 0.000000 0.000000 0.000000 0.000000 1.000000</matrix><extra><technique profile="FCOLLADA"><visibility>1.000000</visibility></technique></extra></node><node name="polySurface26" id="polySurface26" sid="polySurface26"><matrix sid="matrix">1.000000 0.000000 0.000000 0.000000 0.000000 1.000000 0.000000 0.000000 0.000000 0.000000 1.000000 0.000000 0.000000 0.000000 0.000000 1.000000</matrix><extra><technique profile="FCOLLADA"><visibility>1.000000</visibility></technique></extra></node><node name="polySurface27" id="polySurface27" sid="polySurface27"><matrix sid="matrix">1.000000 0.000000 0.000000 0.000000 0.000000 1.000000 0.000000 0.000000 0.000000 0.000000 1.000000 0.000000 0.000000 0.000000 0.000000 1.000000</matrix><extra><technique profile="FCOLLADA"><visibility>1.000000</visibility></technique></extra></node></node>
      <node name="polySurface28" id="polySurface28" sid="polySurface28"><matrix sid="matrix">100.000000 0.000000 0.000000 0.000000 0.000000 100.000000 0.000000 0.000000 0.000000 0.000000 100.000000 0.000000 0.000000 0.000000 0.000000 1.000000</matrix><extra><technique profile="FCOLLADA"><visibility>1.000000</visibility></technique></extra><node name="polySurface29" id="polySurface29" sid="polySurface29"><matrix sid="matrix">1.000000 0.000000 0.000000 0.000000 0.000000 1.000000 0.000000 0.000000 0.000000 0.000000 1.000000 0.000000 0.000000 0.000000 0.000000 1.000000</matrix><instance_geometry url="#polySurface29-lib"><bind_material><technique_common><instance_material symbol="blinn3" target="#blinn3"/></technique_common></bind_material></instance_geometry><extra><technique profile="FCOLLADA"><visibility>1.000000</visibility></technique></extra></node><node name="polySurface30" id="polySurface30" sid="polySurface30"><matrix sid="matrix">1.000000 0.000000 0.000000 0.000000 0.000000 1.000000 0.000000 0.000000 0.000000 0.000000 1.000000 0.000000 0.000000 0.000000 0.000000 1.000000</matrix><instance_geometry url="#polySurface30-lib"><bind_material><technique_common><instance_material symbol="blinn6" target="#blinn6"/></technique_common></bind_material></instance_geometry><extra><technique profile="FCOLLADA"><visibility>1.000000</visibility></technique></extra></node><node name="polySurface31" id="polySurface31" sid="polySurface31"><matrix sid="matrix">1.000000 0.000000 0.000000 0.000000 0.000000 1.000000 0.000000 0.000000 0.000000 0.000000 1.000000 0.000000 0.000000 0.000000 0.000000 1.000000</matrix><instance_geometry url="#polySurface31-lib"><bind_material><technique_common><instance_material symbol="blinn3" target="#blinn3"/></technique_common></bind_material></instance_geometry><extra><technique profile="FCOLLADA"><visibility>1.000000</visibility></technique></extra></node><node name="polySurface32" id="polySurface32" sid="polySurface32"><matrix sid="matrix">1.000000 0.000000 0.000000 0.000000 0.000000 1.000000 0.000000 0.000000 0.000000 0.000000 1.000000 0.000000 0.000000 0.000000 0.000000 1.000000</matrix><instance_geometry url="#polySurface32-lib"><bind_material><technique_common><instance_material symbol="blinn8" target="#blinn8"/></technique_common></bind_material></instance_geometry><extra><technique profile="FCOLLADA"><visibility>1.000000</visibility></technique></extra></node><node name="polySurface33" id="polySurface33" sid="polySurface33"><matrix sid="matrix">1.000000 0.000000 0.000000 0.000000 0.000000 1.000000 0.000000 0.000000 0.000000 0.000000 1.000000 0.000000 0.000000 0.000000 0.000000 1.000000</matrix><instance_geometry url="#polySurface33-lib"><bind_material><technique_common><instance_material symbol="blinn9" target="#blinn9"/></technique_common></bind_material></instance_geometry><extra><technique profile="FCOLLADA"><visibility>1.000000</visibility></technique></extra></node><node name="polySurface34" id="polySurface34" sid="polySurface34"><matrix sid="matrix">1.000000 0.000000 0.000000 0.000000 0.000000 1.000000 0.000000 0.000000 0.000000 0.000000 1.000000 0.000000 0.000000 0.000000 0.000000 1.000000</matrix><instance_geometry url="#polySurface34-lib"><bind_material><technique_common><instance_material symbol="blinn11" target="#blinn11"/></technique_common></bind_material></instance_geometry><extra><technique profile="FCOLLADA"><visibility>1.000000</visibility></technique></extra></node><node name="polySurface35" id="polySurface35" sid="polySurface35"><matrix sid="matrix">1.000000 0.000000 0.000000 0.000000 0.000000 1.000000 0.000000 0.000000 0.000000 0.000000 1.000000 0.000000 0.000000 0.000000 0.000000 1.000000</matrix><instance_geometry url="#polySurface35-lib"><bind_material><technique_common><instance_material symbol="blinn11" target="#blinn11"/></technique_common></bind_material></instance_geometry><extra><technique profile="FCOLLADA"><visibility>1.000000</visibility></technique></extra></node></node>
      <extra><technique profile="MAX3D"><frame_rate>30.000000</frame_rate></technique><technique profile="FCOLLADA"><start_time>0.000000</start_time><end_time>1.000000</end_time></technique></extra>
    </visual_scene>
  </library_visual_scenes>
  <scene>
    <instance_visual_scene url="#mansion_wall_wood_window_no_glass"></instance_visual_scene>
  </scene>
</COLLADA>
