<?xml version="1.0" encoding="utf-8"?>
<COLLADA xmlns="http://www.collada.org/2005/11/COLLADASchema" version="1.4.1">
  <asset><contributor><author></author><authoring_tool>FBX COLLADA exporter</authoring_tool><comments></comments></contributor><created>2018-01-23T23:06:29Z</created><keywords></keywords><modified>2018-01-23T23:06:29Z</modified><revision></revision><subject></subject><title></title><unit meter="0.010000" name="centimeter"></unit><up_axis>Y_UP</up_axis></asset>
  <library_images>
    <image id="file2-image" name="file2"><init_from>file://C:\Users\Nocturne\Documents\maya\projects\default\scenes\mansion_wall_wood\mansion_concave.dds</init_from></image>
  </library_images>
  <library_materials>
    <material id="blinn3" name="blinn3">
      <instance_effect url="#blinn3-fx"/>
    </material>
  </library_materials>
  <library_effects>
    <effect id="blinn3-fx" name="blinn3">
      <profile_COMMON>
        <technique sid="standard">
          <phong>
            <emission>
              <color sid="emission">0.000000  0.000000 0.000000 1.000000</color>
            </emission>
            <ambient>
              <color sid="ambient">0.000000  0.000000 0.000000 1.000000</color>
            </ambient>
            <diffuse>
              <texture texture="file2-image" texcoord="CHANNEL0">
                <extra>
                  <technique profile="MAYA">
                    <wrapU sid="wrapU0">TRUE</wrapU>
                    <wrapV sid="wrapV0">TRUE</wrapV>
                    <blend_mode>NONE</blend_mode>
                  </technique>
                </extra>
              </texture>
            </diffuse>
            <specular>
              <color sid="specular">0.500000  0.500000 0.500000 1.000000</color>
            </specular>
            <shininess>
              <float sid="shininess">2.000000</float>
            </shininess>
            <reflective>
              <color sid="reflective">0.000000  0.000000 0.000000 1.000000</color>
            </reflective>
            <reflectivity>
              <float sid="reflectivity">0.500000</float>
            </reflectivity>
            <transparent opaque="RGB_ZERO">
              <texture texture="file2-image" texcoord="CHANNEL0">
                <extra>
                  <technique profile="MAYA">
                    <wrapU sid="wrapU0">TRUE</wrapU>
                    <wrapV sid="wrapV0">TRUE</wrapV>
                    <blend_mode>NONE</blend_mode>
                  </technique>
                </extra>
              </texture>
            </transparent>
            <transparency>
              <float sid="transparency">1.000000</float>
            </transparency>
          </phong>
        </technique>
      </profile_COMMON>
    </effect>
  </library_effects>
  <library_geometries>
    <geometry id="pPlane1-lib" name="pPlane1Mesh">
      <mesh>
        <source id="pPlane1-POSITION">
          <float_array id="pPlane1-POSITION-array" count="54">
-0.500000 0.000000 0.500000
-0.000625 2.000000 0.500000
-0.500000 0.000000 0.375000
-0.000625 2.000000 0.375000
-0.500000 0.250000 0.250000
-0.062500 2.000000 0.250000
-0.500000 0.750000 0.125000
-0.187500 2.000000 0.125000
-0.500000 1.375000 0.031250
-0.343750 2.000000 0.031250
-0.500000 2.000000 0.000000
-0.499375 2.000000 0.000000
0.000000 0.000000 0.500000
0.000000 0.000000 0.375000
-0.062500 0.250000 0.250000
-0.187500 0.750000 0.125000
-0.343750 1.375000 0.031250
-0.500625 2.000000 0.000000
</float_array>
          <technique_common>
            <accessor source="#pPlane1-POSITION-array" count="18" stride="3">
              <param name="X" type="float"/>
              <param name="Y" type="float"/>
              <param name="Z" type="float"/>
            </accessor>
          </technique_common>
        </source>
        <source id="pPlane1-Normal0">
          <float_array id="pPlane1-Normal0-array" count="54">
0.000000 1.000000 0.000000
-1.000000 -0.000312 0.000000
0.000000 0.850651 0.525731
-0.952690 -0.000202 0.303945
0.000000 0.312419 0.949944
-0.779303 0.000000 0.626647
0.000000 0.179923 0.983681
-0.582578 0.000000 0.812775
0.000000 0.148340 0.988936
-0.360957 0.000000 0.932583
0.000000 -0.049938 -0.998752
-0.098955 0.025099 0.994775
-0.447269 0.894399 0.000000
-0.826382 0.412901 0.382892
-0.485148 0.220763 0.846106
-0.345456 0.113452 0.931552
-0.180432 0.058368 0.981854
0.000000 0.049936 0.998752
</float_array>
          <technique_common>
            <accessor source="#pPlane1-Normal0-array" count="18" stride="3">
              <param name="X" type="float"/>
              <param name="Y" type="float"/>
              <param name="Z" type="float"/>
            </accessor>
          </technique_common>
        </source>
        <source id="pPlane1-UV0">
          <float_array id="pPlane1-UV0-array" count="36">
0.458136 0.678838
0.960338 0.433352
0.997197 0.490178
0.479389 0.740699
0.998313 0.567388
0.537502 0.784523
0.973625 0.643792
0.616115 0.818314
0.913491 0.744394
0.732880 0.833436
0.883616 0.814094
0.808260 0.856789
0.709253 0.556066
0.737715 0.614226
0.766199 0.672436
0.794747 0.730779
0.823321 0.789182
0.847089 0.837783
</float_array>
          <technique_common>
            <accessor source="#pPlane1-UV0-array" count="18" stride="2">
              <param name="S" type="float"/>
              <param name="T" type="float"/>
            </accessor>
          </technique_common>
        </source>
        <vertices id="pPlane1-VERTEX">
          <input semantic="POSITION" source="#pPlane1-POSITION"/>
          <input semantic="NORMAL" source="#pPlane1-Normal0"/>
        </vertices>
        <triangles count="20" material="blinn3"><input semantic="VERTEX" offset="0" source="#pPlane1-VERTEX"/><input semantic="TEXCOORD" offset="1" set="0" source="#pPlane1-UV0"/><p> 0 0 12 12 2 3 2 3 12 12 13 13 13 13 14 14 2 3 2 3 14 14 4 5 14 14 15 15 4 5 4 5 15 15 6 7 15 15 16 16 6 7 6 7 16 16 8 9 16 16 17 17 8 9 8 9 17 17 10 11 12 12 1 1 13 13 13 13 1 1 3 2 13 13 3 2 14 14 14 14 3 2 5 4 14 14 5 4 15 15 15 15 5 4 7 6 15 15 7 6 16 16 16 16 7 6 9 8 17 17 16 16 11 10 16 16 9 8 11 10</p></triangles>
      </mesh>
    </geometry>
    <geometry id="pCube1-lib" name="pCube1Mesh">
      <mesh>
        <source id="pCube1-POSITION">
          <float_array id="pCube1-POSITION-array" count="72">
-0.500000 -0.500000 0.390098
0.499999 -0.500000 0.390098
-0.500000 -0.375000 0.390098
0.499999 -0.375000 0.390098
-0.500000 -0.281250 1.000000
0.499999 -0.281250 1.000000
-0.500000 -0.156250 3.000000
0.499999 -0.156250 3.000000
-0.500000 -0.062500 5.500000
0.499999 -0.062500 5.500000
-0.500000 -0.031250 7.500000
0.499999 -0.031250 7.500000
-0.500000 0.000000 7.500000
0.499999 0.000000 7.500000
-0.500000 -0.031250 5.000000
0.499999 -0.031250 5.000000
-0.500000 -0.125000 2.500000
0.499999 -0.125000 2.500000
-0.500000 -0.250000 0.500000
0.499999 -0.250000 0.500000
-0.500000 -0.375000 -0.500000
0.499999 -0.375000 -0.500000
-0.500000 -0.500000 -0.500000
0.499999 -0.500000 -0.500000
</float_array>
          <technique_common>
            <accessor source="#pCube1-POSITION-array" count="24" stride="3">
              <param name="X" type="float"/>
              <param name="Y" type="float"/>
              <param name="Z" type="float"/>
            </accessor>
          </technique_common>
        </source>
        <source id="pCube1-Normal0">
          <float_array id="pCube1-Normal0-array" count="270">
0.000000 0.000000 1.000000
0.000000 0.000000 1.000000
0.000000 -0.417384 0.908730
0.000000 -0.417384 0.908730
0.000000 0.000000 1.000000
0.000000 -0.834768 0.550601
0.000000 -0.417384 0.908730
0.000000 -0.834768 0.550601
0.000000 -0.992507 0.122189
0.000000 -0.992507 0.122189
0.000000 -0.834768 0.550601
0.000000 -0.995730 0.092312
0.000000 -0.992507 0.122189
0.000000 -0.995730 0.092312
0.000000 -0.998537 0.054080
0.000000 -0.998537 0.054080
0.000000 -0.995730 0.092312
0.000000 -0.998952 0.045778
0.000000 -0.998537 0.054080
0.000000 -0.998952 0.045778
0.000000 -0.999544 0.030192
0.000000 -0.999544 0.030192
0.000000 -0.998952 0.045778
0.000000 -0.999738 0.022908
0.000000 -0.999544 0.030192
0.000000 -0.999738 0.022908
0.000000 -0.999878 0.015623
0.000000 -0.999878 0.015623
0.000000 -0.999738 0.022908
0.000000 -0.999878 0.015623
1.000000 0.000000 0.000000
1.000000 0.000000 0.000000
1.000000 0.000000 0.000000
1.000000 0.000000 0.000000
1.000000 0.000000 0.000000
1.000000 0.000000 0.000000
1.000000 0.000000 0.000000
1.000000 0.000000 0.000000
1.000000 0.000000 0.000000
1.000000 0.000000 0.000000
1.000000 0.000000 0.000000
1.000000 0.000000 0.000000
1.000000 0.000000 0.000000
1.000000 0.000000 0.000000
1.000000 0.000000 0.000000
1.000000 0.000000 0.000000
1.000000 0.000000 0.000000
1.000000 0.000000 0.000000
1.000000 0.000000 0.000000
1.000000 0.000000 0.000000
1.000000 0.000000 0.000000
1.000000 0.000000 0.000000
1.000000 0.000000 0.000000
1.000000 0.000000 0.000000
1.000000 0.000000 0.000000
1.000000 0.000000 0.000000
1.000000 0.000000 0.000000
1.000000 0.000000 0.000000
1.000000 0.000000 0.000000
1.000000 0.000000 0.000000
-1.000000 0.000000 0.000000
-1.000000 0.000000 0.000000
-1.000000 0.000000 0.000000
-1.000000 0.000000 0.000000
-1.000000 0.000000 0.000000
-1.000000 0.000000 0.000000
-1.000000 0.000000 0.000000
-1.000000 0.000000 0.000000
-1.000000 0.000000 0.000000
-1.000000 0.000000 0.000000
-1.000000 0.000000 0.000000
-1.000000 0.000000 0.000000
-1.000000 0.000000 0.000000
-1.000000 0.000000 0.000000
-1.000000 0.000000 0.000000
-1.000000 0.000000 0.000000
-1.000000 0.000000 0.000000
-1.000000 0.000000 0.000000
-1.000000 0.000000 0.000000
-1.000000 0.000000 0.000000
-1.000000 0.000000 0.000000
-1.000000 0.000000 0.000000
-1.000000 0.000000 0.000000
-1.000000 0.000000 0.000000
-1.000000 0.000000 0.000000
-1.000000 0.000000 0.000000
-1.000000 0.000000 0.000000
-1.000000 0.000000 0.000000
-1.000000 0.000000 0.000000
-1.000000 0.000000 0.000000
</float_array>
          <technique_common>
            <accessor source="#pCube1-Normal0-array" count="90" stride="3">
              <param name="X" type="float"/>
              <param name="Y" type="float"/>
              <param name="Z" type="float"/>
            </accessor>
          </technique_common>
        </source>
        <source id="pCube1-UV0">
          <float_array id="pCube1-UV0-array" count="72">
0.000939 0.926620
1.000939 0.864121
0.000939 0.864120
1.000938 0.926621
0.200939 0.864120
0.800938 0.926621
0.200939 0.926620
0.800938 0.864121
0.400939 0.864120
0.600939 0.926620
0.600939 0.864120
0.400939 0.926620
0.400939 0.864120
0.200938 0.926620
0.200939 0.864120
0.000939 0.926620
0.400939 0.926620
0.600939 0.864120
0.600939 0.926620
0.800938 0.864120
0.800938 0.926620
1.000938 0.864120
1.000939 0.937277
1.000939 0.996153
0.800938 0.996153
0.800938 0.937277
0.600939 0.996153
0.600939 0.937277
0.400939 0.996153
0.400939 0.937277
0.200938 0.996153
0.200938 0.937277
0.000939 0.996153
0.000939 0.937277
0.000939 0.864120
1.000939 0.926620
</float_array>
          <technique_common>
            <accessor source="#pCube1-UV0-array" count="36" stride="2">
              <param name="S" type="float"/>
              <param name="T" type="float"/>
            </accessor>
          </technique_common>
        </source>
        <vertices id="pCube1-VERTEX">
          <input semantic="POSITION" source="#pCube1-POSITION"/>
        </vertices>
        <triangles count="30" material="blinn3"><input semantic="VERTEX" offset="0" source="#pCube1-VERTEX"/><input semantic="NORMAL" offset="1" source="#pCube1-Normal0"/><input semantic="TEXCOORD" offset="2" set="0" source="#pCube1-UV0"/><p> 0 0 22 1 1 23 2 2 25 2 3 25 1 4 23 3 5 24 2 6 25 3 7 24 4 8 27 4 9 27 3 10 24 5 11 26 4 12 27 5 13 26 6 14 29 6 15 29 5 16 26 7 17 28 6 18 29 7 19 28 8 20 31 8 21 31 7 22 28 9 23 30 8 24 31 9 25 30 10 26 33 10 27 33 9 28 30 11 29 32 1 30 1 23 31 3 3 32 7 3 33 7 23 34 3 21 35 5 21 36 5 19 37 9 3 38 7 3 39 7 19 40 9 5 41 10 19 42 9 17 43 11 5 44 10 5 45 10 17 46 11 7 47 12 17 48 11 15 49 13 7 50 12 7 51 12 15 52 13 9 53 14 15 54 13 13 55 15 9 56 14 9 57 14 13 58 15 11 59 34 22 60 0 0 61 2 20 62 6 20 63 6 0 64 2 2 65 4 20 66 6 2 67 4 18 68 16 18 69 16 2 70 4 4 71 8 18 72 16 4 73 8 16 74 18 16 75 18 4 76 8 6 77 17 16 78 18 6 79 17 14 80 20 14 81 20 6 82 17 8 83 19 14 84 20 8 85 19 12 86 35 12 87 35 8 88 19 10 89 21</p></triangles>
      </mesh>
    </geometry>
    <geometry id="pCube2-lib" name="pCube2Mesh">
      <mesh>
        <source id="pCube2-POSITION">
          <float_array id="pCube2-POSITION-array" count="24">
-0.500000 -0.500000 0.500000
0.500000 -0.500000 0.500000
-0.500000 0.500000 0.500000
0.500000 0.500000 0.500000
-0.500000 0.500000 -0.500000
0.500000 0.500000 -0.500000
-0.500000 -0.500000 -0.500000
0.500000 -0.500000 -0.500000
</float_array>
          <technique_common>
            <accessor source="#pCube2-POSITION-array" count="8" stride="3">
              <param name="X" type="float"/>
              <param name="Y" type="float"/>
              <param name="Z" type="float"/>
            </accessor>
          </technique_common>
        </source>
        <source id="pCube2-Normal0">
          <float_array id="pCube2-Normal0-array" count="90">
0.000000 0.000000 1.000000
0.000000 0.000000 1.000000
0.000000 0.000000 1.000000
0.000000 0.000000 1.000000
0.000000 0.000000 1.000000
0.000000 0.000000 1.000000
0.000000 1.000000 0.000000
0.000000 1.000000 0.000000
0.000000 1.000000 0.000000
0.000000 1.000000 0.000000
0.000000 1.000000 0.000000
0.000000 1.000000 0.000000
0.000000 -1.000000 0.000000
0.000000 -1.000000 0.000000
0.000000 -1.000000 0.000000
0.000000 -1.000000 0.000000
0.000000 -1.000000 0.000000
0.000000 -1.000000 0.000000
1.000000 0.000000 0.000000
1.000000 0.000000 0.000000
1.000000 0.000000 0.000000
1.000000 0.000000 0.000000
1.000000 0.000000 0.000000
1.000000 0.000000 0.000000
-1.000000 0.000000 0.000000
-1.000000 0.000000 0.000000
-1.000000 0.000000 0.000000
-1.000000 0.000000 0.000000
-1.000000 0.000000 0.000000
-1.000000 0.000000 0.000000
</float_array>
          <technique_common>
            <accessor source="#pCube2-Normal0-array" count="30" stride="3">
              <param name="X" type="float"/>
              <param name="Y" type="float"/>
              <param name="Z" type="float"/>
            </accessor>
          </technique_common>
        </source>
        <source id="pCube2-UV0">
          <float_array id="pCube2-UV0-array" count="40">
0.285879 0.985466
0.211408 0.985466
0.285879 0.918081
0.211408 0.918081
0.000000 0.930696
1.000000 0.930696
0.000000 0.930696
1.000000 0.930698
1.000000 0.983329
0.000000 0.983328
0.285080 0.985466
0.285080 0.918081
0.212207 0.985466
0.212207 0.918081
0.000000 0.863836
1.000000 0.863836
1.000000 0.950000
0.000000 0.950000
1.000000 0.983328
0.000000 0.983328
</float_array>
          <technique_common>
            <accessor source="#pCube2-UV0-array" count="20" stride="2">
              <param name="S" type="float"/>
              <param name="T" type="float"/>
            </accessor>
          </technique_common>
        </source>
        <vertices id="pCube2-VERTEX">
          <input semantic="POSITION" source="#pCube2-POSITION"/>
        </vertices>
        <triangles count="10" material="blinn3"><input semantic="VERTEX" offset="0" source="#pCube2-VERTEX"/><input semantic="NORMAL" offset="1" source="#pCube2-Normal0"/><input semantic="TEXCOORD" offset="2" set="0" source="#pCube2-UV0"/><p> 0 0 14 1 1 15 2 2 17 2 3 17 1 4 15 3 5 16 2 6 4 3 7 5 4 8 19 4 9 19 3 10 5 5 11 18 6 12 6 7 13 7 0 14 9 0 15 9 7 16 7 1 17 8 1 18 1 7 19 10 3 20 3 3 21 3 7 22 10 5 23 11 6 24 12 0 25 0 4 26 13 4 27 13 0 28 0 2 29 2</p></triangles>
      </mesh>
    </geometry>
    <geometry id="pCube3-lib" name="pCube3Mesh">
      <mesh>
        <source id="pCube3-POSITION">
          <float_array id="pCube3-POSITION-array" count="24">
-0.500000 -0.500000 0.500000
0.500000 -0.500000 0.500000
-0.500000 0.500000 0.500000
0.500000 0.500000 0.500000
-0.500000 0.500000 -0.500000
0.500000 0.500000 -0.500000
-0.500000 -0.500000 -0.500000
0.500000 -0.500000 -0.500000
</float_array>
          <technique_common>
            <accessor source="#pCube3-POSITION-array" count="8" stride="3">
              <param name="X" type="float"/>
              <param name="Y" type="float"/>
              <param name="Z" type="float"/>
            </accessor>
          </technique_common>
        </source>
        <source id="pCube3-Normal0">
          <float_array id="pCube3-Normal0-array" count="90">
0.000000 0.000000 1.000000
0.000000 0.000000 1.000000
0.000000 0.000000 1.000000
0.000000 0.000000 1.000000
0.000000 0.000000 1.000000
0.000000 0.000000 1.000000
0.000000 1.000000 0.000000
0.000000 1.000000 0.000000
0.000000 1.000000 0.000000
0.000000 1.000000 0.000000
0.000000 1.000000 0.000000
0.000000 1.000000 0.000000
0.000000 -1.000000 0.000000
0.000000 -1.000000 0.000000
0.000000 -1.000000 0.000000
0.000000 -1.000000 0.000000
0.000000 -1.000000 0.000000
0.000000 -1.000000 0.000000
1.000000 0.000000 0.000000
1.000000 0.000000 0.000000
1.000000 0.000000 0.000000
1.000000 0.000000 0.000000
1.000000 0.000000 0.000000
1.000000 0.000000 0.000000
-1.000000 0.000000 0.000000
-1.000000 0.000000 0.000000
-1.000000 0.000000 0.000000
-1.000000 0.000000 0.000000
-1.000000 0.000000 0.000000
-1.000000 0.000000 0.000000
</float_array>
          <technique_common>
            <accessor source="#pCube3-Normal0-array" count="30" stride="3">
              <param name="X" type="float"/>
              <param name="Y" type="float"/>
              <param name="Z" type="float"/>
            </accessor>
          </technique_common>
        </source>
        <source id="pCube3-UV0">
          <float_array id="pCube3-UV0-array" count="40">
0.285879 0.985466
0.211408 0.985466
0.285879 0.918081
0.211408 0.918081
0.000000 0.930696
1.000000 0.930696
0.000000 0.930696
1.000000 0.930698
1.000000 0.983329
0.000000 0.983328
0.285080 0.985466
0.285080 0.918081
0.212207 0.985466
0.212207 0.918081
0.000000 0.863836
1.000000 0.863836
1.000000 0.950000
0.000000 0.950000
1.000000 0.983328
0.000000 0.983328
</float_array>
          <technique_common>
            <accessor source="#pCube3-UV0-array" count="20" stride="2">
              <param name="S" type="float"/>
              <param name="T" type="float"/>
            </accessor>
          </technique_common>
        </source>
        <vertices id="pCube3-VERTEX">
          <input semantic="POSITION" source="#pCube3-POSITION"/>
        </vertices>
        <triangles count="10" material="blinn3"><input semantic="VERTEX" offset="0" source="#pCube3-VERTEX"/><input semantic="NORMAL" offset="1" source="#pCube3-Normal0"/><input semantic="TEXCOORD" offset="2" set="0" source="#pCube3-UV0"/><p> 0 0 14 1 1 15 2 2 17 2 3 17 1 4 15 3 5 16 2 6 4 3 7 5 4 8 19 4 9 19 3 10 5 5 11 18 6 12 6 7 13 7 0 14 9 0 15 9 7 16 7 1 17 8 1 18 1 7 19 10 3 20 3 3 21 3 7 22 10 5 23 11 6 24 12 0 25 0 4 26 13 4 27 13 0 28 0 2 29 2</p></triangles>
      </mesh>
    </geometry>
    <geometry id="pCube4-lib" name="pCube4Mesh">
      <mesh>
        <source id="pCube4-POSITION">
          <float_array id="pCube4-POSITION-array" count="72">
-0.500000 -0.500000 0.390098
0.499999 -0.500000 0.390098
-0.500000 -0.375000 0.390098
0.499999 -0.375000 0.390098
-0.500000 -0.281250 1.000000
0.499999 -0.281250 1.000000
-0.500000 -0.156250 3.000000
0.499999 -0.156250 3.000000
-0.500000 -0.062500 5.500000
0.499999 -0.062500 5.500000
-0.500000 -0.031250 7.500000
0.499999 -0.031250 7.500000
-0.500000 0.000000 7.500000
0.499999 0.000000 7.500000
-0.500000 -0.031250 5.000000
0.499999 -0.031250 5.000000
-0.500000 -0.125000 2.500000
0.499999 -0.125000 2.500000
-0.500000 -0.250000 0.500000
0.499999 -0.250000 0.500000
-0.500000 -0.375000 -0.500000
0.499999 -0.375000 -0.500000
-0.500000 -0.500000 -0.500000
0.499999 -0.500000 -0.500000
</float_array>
          <technique_common>
            <accessor source="#pCube4-POSITION-array" count="24" stride="3">
              <param name="X" type="float"/>
              <param name="Y" type="float"/>
              <param name="Z" type="float"/>
            </accessor>
          </technique_common>
        </source>
        <source id="pCube4-Normal0">
          <float_array id="pCube4-Normal0-array" count="270">
0.000000 0.000000 1.000000
0.000000 0.000000 1.000000
0.000000 -0.417384 0.908730
0.000000 -0.417384 0.908730
0.000000 0.000000 1.000000
0.000000 -0.834768 0.550601
0.000000 -0.417384 0.908730
0.000000 -0.834768 0.550601
0.000000 -0.992507 0.122189
0.000000 -0.992507 0.122189
0.000000 -0.834768 0.550601
0.000000 -0.995730 0.092312
0.000000 -0.992507 0.122189
0.000000 -0.995730 0.092312
0.000000 -0.998537 0.054080
0.000000 -0.998537 0.054080
0.000000 -0.995730 0.092312
0.000000 -0.998952 0.045778
0.000000 -0.998537 0.054080
0.000000 -0.998952 0.045778
0.000000 -0.999544 0.030192
0.000000 -0.999544 0.030192
0.000000 -0.998952 0.045778
0.000000 -0.999738 0.022908
0.000000 -0.999544 0.030192
0.000000 -0.999738 0.022908
0.000000 -0.999878 0.015623
0.000000 -0.999878 0.015623
0.000000 -0.999738 0.022908
0.000000 -0.999878 0.015623
1.000000 0.000000 0.000000
1.000000 0.000000 0.000000
1.000000 0.000000 0.000000
1.000000 0.000000 0.000000
1.000000 0.000000 0.000000
1.000000 0.000000 0.000000
1.000000 0.000000 0.000000
1.000000 0.000000 0.000000
1.000000 0.000000 0.000000
1.000000 0.000000 0.000000
1.000000 0.000000 0.000000
1.000000 0.000000 0.000000
1.000000 0.000000 0.000000
1.000000 0.000000 0.000000
1.000000 0.000000 0.000000
1.000000 0.000000 0.000000
1.000000 0.000000 0.000000
1.000000 0.000000 0.000000
1.000000 0.000000 0.000000
1.000000 0.000000 0.000000
1.000000 0.000000 0.000000
1.000000 0.000000 0.000000
1.000000 0.000000 0.000000
1.000000 0.000000 0.000000
1.000000 0.000000 0.000000
1.000000 0.000000 0.000000
1.000000 0.000000 0.000000
1.000000 0.000000 0.000000
1.000000 0.000000 0.000000
1.000000 0.000000 0.000000
-1.000000 0.000000 0.000000
-1.000000 0.000000 0.000000
-1.000000 0.000000 0.000000
-1.000000 0.000000 0.000000
-1.000000 0.000000 0.000000
-1.000000 0.000000 0.000000
-1.000000 0.000000 0.000000
-1.000000 0.000000 0.000000
-1.000000 0.000000 0.000000
-1.000000 0.000000 0.000000
-1.000000 0.000000 0.000000
-1.000000 0.000000 0.000000
-1.000000 0.000000 0.000000
-1.000000 0.000000 0.000000
-1.000000 0.000000 0.000000
-1.000000 0.000000 0.000000
-1.000000 0.000000 0.000000
-1.000000 0.000000 0.000000
-1.000000 0.000000 0.000000
-1.000000 0.000000 0.000000
-1.000000 0.000000 0.000000
-1.000000 0.000000 0.000000
-1.000000 0.000000 0.000000
-1.000000 0.000000 0.000000
-1.000000 0.000000 0.000000
-1.000000 0.000000 0.000000
-1.000000 0.000000 0.000000
-1.000000 0.000000 0.000000
-1.000000 0.000000 0.000000
-1.000000 0.000000 0.000000
</float_array>
          <technique_common>
            <accessor source="#pCube4-Normal0-array" count="90" stride="3">
              <param name="X" type="float"/>
              <param name="Y" type="float"/>
              <param name="Z" type="float"/>
            </accessor>
          </technique_common>
        </source>
        <source id="pCube4-UV0">
          <float_array id="pCube4-UV0-array" count="72">
0.000939 0.926620
1.000939 0.864121
0.000939 0.864120
1.000938 0.926621
0.200939 0.864120
0.800938 0.926621
0.200939 0.926620
0.800938 0.864121
0.400939 0.864120
0.600939 0.926620
0.600939 0.864120
0.400939 0.926620
0.400939 0.864120
0.200938 0.926620
0.200939 0.864120
0.000939 0.926620
0.400939 0.926620
0.600939 0.864120
0.600939 0.926620
0.800938 0.864120
0.800938 0.926620
1.000938 0.864120
1.000939 0.937277
1.000939 0.996153
0.800938 0.996153
0.800938 0.937277
0.600939 0.996153
0.600939 0.937277
0.400939 0.996153
0.400939 0.937277
0.200938 0.996153
0.200938 0.937277
0.000939 0.996153
0.000939 0.937277
0.000939 0.864120
1.000939 0.926620
</float_array>
          <technique_common>
            <accessor source="#pCube4-UV0-array" count="36" stride="2">
              <param name="S" type="float"/>
              <param name="T" type="float"/>
            </accessor>
          </technique_common>
        </source>
        <vertices id="pCube4-VERTEX">
          <input semantic="POSITION" source="#pCube4-POSITION"/>
        </vertices>
        <triangles count="30" material="blinn3"><input semantic="VERTEX" offset="0" source="#pCube4-VERTEX"/><input semantic="NORMAL" offset="1" source="#pCube4-Normal0"/><input semantic="TEXCOORD" offset="2" set="0" source="#pCube4-UV0"/><p> 0 0 22 1 1 23 2 2 25 2 3 25 1 4 23 3 5 24 2 6 25 3 7 24 4 8 27 4 9 27 3 10 24 5 11 26 4 12 27 5 13 26 6 14 29 6 15 29 5 16 26 7 17 28 6 18 29 7 19 28 8 20 31 8 21 31 7 22 28 9 23 30 8 24 31 9 25 30 10 26 33 10 27 33 9 28 30 11 29 32 1 30 1 23 31 3 3 32 7 3 33 7 23 34 3 21 35 5 21 36 5 19 37 9 3 38 7 3 39 7 19 40 9 5 41 10 19 42 9 17 43 11 5 44 10 5 45 10 17 46 11 7 47 12 17 48 11 15 49 13 7 50 12 7 51 12 15 52 13 9 53 14 15 54 13 13 55 15 9 56 14 9 57 14 13 58 15 11 59 34 22 60 0 0 61 2 20 62 6 20 63 6 0 64 2 2 65 4 20 66 6 2 67 4 18 68 16 18 69 16 2 70 4 4 71 8 18 72 16 4 73 8 16 74 18 16 75 18 4 76 8 6 77 17 16 78 18 6 79 17 14 80 20 14 81 20 6 82 17 8 83 19 14 84 20 8 85 19 12 86 35 12 87 35 8 88 19 10 89 21</p></triangles>
      </mesh>
    </geometry>
  </library_geometries>
  <library_visual_scenes>
    <visual_scene id="mansion_concave_corner" name="mansion_concave_corner">
      <node name="pPlane1" id="pPlane1" sid="pPlane1"><matrix sid="matrix">400.000000 0.000000 0.000000 0.000000 0.000000 0.000000 -400.000000 200.000000 0.000000 100.000000 0.000000 0.000000 0.000000 0.000000 0.000000 1.000000</matrix><instance_geometry url="#pPlane1-lib"><bind_material><technique_common><instance_material symbol="blinn3" target="#blinn3"/></technique_common></bind_material></instance_geometry><extra><technique profile="FCOLLADA"><visibility>1.000000</visibility></technique></extra></node>
      <node name="pCube1" id="pCube1" sid="pCube1"><matrix sid="matrix">25.000000 0.000000 0.000000 -187.500000 0.000000 400.000000 0.000000 200.000000 0.000000 0.000000 25.000000 12.500000 0.000000 0.000000 0.000000 1.000000</matrix><instance_geometry url="#pCube1-lib"><bind_material><technique_common><instance_material symbol="blinn3" target="#blinn3"/></technique_common></bind_material></instance_geometry><extra><technique profile="FCOLLADA"><visibility>1.000000</visibility></technique></extra></node>
      <node name="pCube2" id="pCube2" sid="pCube2"><matrix sid="matrix">0.000000 0.000000 -25.000000 -12.500000 0.000000 24.900000 0.000000 12.500000 200.000000 0.000000 0.000000 100.000000 0.000000 0.000000 0.000000 1.000000</matrix><instance_geometry url="#pCube2-lib"><bind_material><technique_common><instance_material symbol="blinn3" target="#blinn3"/></technique_common></bind_material></instance_geometry><extra><technique profile="FCOLLADA"><visibility>1.000000</visibility></technique></extra></node>
      <node name="pCube3" id="pCube3" sid="pCube3"><matrix sid="matrix">200.000000 0.000000 0.000000 -100.000000 0.000000 25.000000 0.000000 12.500000 0.000000 0.000000 25.000000 12.500000 0.000000 0.000000 0.000000 1.000000</matrix><instance_geometry url="#pCube3-lib"><bind_material><technique_common><instance_material symbol="blinn3" target="#blinn3"/></technique_common></bind_material></instance_geometry><extra><technique profile="FCOLLADA"><visibility>1.000000</visibility></technique></extra></node>
      <node name="pCube4" id="pCube4" sid="pCube4"><matrix sid="matrix">0.000000 0.000000 -25.000000 -12.500000 0.000000 400.000000 0.000000 200.000000 25.000000 0.000000 0.000000 187.500000 0.000000 0.000000 0.000000 1.000000</matrix><instance_geometry url="#pCube4-lib"><bind_material><technique_common><instance_material symbol="blinn3" target="#blinn3"/></technique_common></bind_material></instance_geometry><extra><technique profile="FCOLLADA"><visibility>1.000000</visibility></technique></extra></node>
      <extra><technique profile="MAX3D"><frame_rate>30.000000</frame_rate></technique><technique profile="FCOLLADA"><start_time>0.000000</start_time><end_time>1.000000</end_time></technique></extra>
    </visual_scene>
  </library_visual_scenes>
  <scene>
    <instance_visual_scene url="#mansion_concave_corner"></instance_visual_scene>
  </scene>
</COLLADA>
