//Maya ASCII 2018 scene
requires maya "2018";
currentUnit -l meter -a degree -t film;
createNode script -n "upAxisScriptNode";
	setAttr ".b" -type "string" "string $currentAxis = `upAxis -q -ax`; if ($currentAxis != \"y\") { upAxis -ax \"y\"; viewSet -home persp; }";
	setAttr ".st" 2;
createNode transform -n "pPlane1";
	addAttr -ln "colladaId" -dt "string";
	setAttr .colladaId -type "string" "pPlane1";
	setAttr ".t" -type "double3" 0.000000 1.500000 0.000000;
	setAttr ".r" -type "double3" 90.000000 0.000000 0.000000;
	setAttr ".s" -type "double3" 4.000000 1.000000 3.000000;
createNode transform -n "pCube1";
	addAttr -ln "colladaId" -dt "string";
	setAttr .colladaId -type "string" "pCube1";
	setAttr ".t" -type "double3" -1.512326 2.147774 -0.025000;
	setAttr ".s" -type "double3" 0.602819 0.789012 0.050000;
createNode transform -n "pCube2";
	addAttr -ln "colladaId" -dt "string";
	setAttr .colladaId -type "string" "pCube2";
	setAttr ".t" -type "double3" -0.506341 2.147774 -0.025000;
	setAttr ".s" -type "double3" 0.602819 0.789012 0.050000;
createNode transform -n "pCube3";
	addAttr -ln "colladaId" -dt "string";
	setAttr .colladaId -type "string" "pCube3";
	setAttr ".t" -type "double3" 0.489045 2.147774 -0.025000;
	setAttr ".s" -type "double3" 0.602819 0.789012 0.050000;
createNode transform -n "pCube4";
	addAttr -ln "colladaId" -dt "string";
	setAttr .colladaId -type "string" "pCube4";
	setAttr ".t" -type "double3" 1.489228 2.147774 -0.025000;
	setAttr ".s" -type "double3" 0.602819 0.789012 0.050000;
createNode transform -n "pCube5";
	addAttr -ln "colladaId" -dt "string";
	setAttr .colladaId -type "string" "pCube5";
	setAttr ".t" -type "double3" 1.489228 1.117396 -0.025000;
	setAttr ".s" -type "double3" 0.602819 0.789012 0.050000;
createNode transform -n "pCube6";
	addAttr -ln "colladaId" -dt "string";
	setAttr .colladaId -type "string" "pCube6";
	setAttr ".t" -type "double3" 0.489045 1.117396 -0.025000;
	setAttr ".s" -type "double3" 0.602819 0.789012 0.050000;
createNode transform -n "pCube7";
	addAttr -ln "colladaId" -dt "string";
	setAttr .colladaId -type "string" "pCube7";
	setAttr ".t" -type "double3" -0.506341 1.117396 -0.025000;
	setAttr ".s" -type "double3" 0.602819 0.789012 0.050000;
createNode transform -n "pCube8";
	addAttr -ln "colladaId" -dt "string";
	setAttr .colladaId -type "string" "pCube8";
	setAttr ".t" -type "double3" -1.512326 1.117396 -0.025000;
	setAttr ".s" -type "double3" 0.602819 0.789012 0.050000;
createNode transform -n "polySurface1";
	addAttr -ln "colladaId" -dt "string";
	setAttr .colladaId -type "string" "polySurface1";
createNode transform -n "polySurface2";
	addAttr -ln "colladaId" -dt "string";
	setAttr .colladaId -type "string" "polySurface2";
createNode transform -n "polySurface3";
	addAttr -ln "colladaId" -dt "string";
	setAttr .colladaId -type "string" "polySurface3";
createNode transform -n "polySurface4";
	addAttr -ln "colladaId" -dt "string";
	setAttr .colladaId -type "string" "polySurface4";
createNode transform -n "polySurface5";
	addAttr -ln "colladaId" -dt "string";
	setAttr .colladaId -type "string" "polySurface5";
createNode transform -n "polySurface6";
	addAttr -ln "colladaId" -dt "string";
	setAttr .colladaId -type "string" "polySurface6";
createNode transform -n "polySurface7";
	addAttr -ln "colladaId" -dt "string";
	setAttr .colladaId -type "string" "polySurface7";
createNode transform -n "polySurface8";
	addAttr -ln "colladaId" -dt "string";
	setAttr .colladaId -type "string" "polySurface8";
	setAttr ".t" -type "double3" -2.000000 0.000000 0.100000;
createNode transform -n "pPlane2";
	addAttr -ln "colladaId" -dt "string";
	setAttr .colladaId -type "string" "pPlane2";
	setAttr ".t" -type "double3" -2.000000 1.800000 0.000000;
	setAttr ".s" -type "double3" 4.000000 1.000000 0.200000;
createNode transform -n "pPlane3";
	addAttr -ln "colladaId" -dt "string";
	setAttr .colladaId -type "string" "pPlane3";
	setAttr ".t" -type "double3" 0.000000 2.000000 0.000000;
	setAttr ".r" -type "double3" 90.000000 0.000000 0.000000;
	setAttr ".s" -type "double3" 4.000000 1.000000 4.000000;
createNode transform -n "pCube9";
	addAttr -ln "colladaId" -dt "string";
	setAttr .colladaId -type "string" "pCube9";
	setAttr ".t" -type "double3" -1.018835 2.762653 0.800000;
	setAttr ".s" -type "double3" 1.143738 1.438058 2.000000;
createNode transform -n "pCube10";
	addAttr -ln "colladaId" -dt "string";
	setAttr .colladaId -type "string" "pCube10";
	setAttr ".t" -type "double3" 0.993111 2.762653 0.800000;
	setAttr ".s" -type "double3" 1.143738 1.438058 2.000000;
createNode transform -n "polySurface9";
	addAttr -ln "colladaId" -dt "string";
	setAttr .colladaId -type "string" "polySurface9";
createNode transform -n "polySurface10";
	addAttr -ln "colladaId" -dt "string";
	setAttr .colladaId -type "string" "polySurface10";
	setAttr ".t" -type "double3" -2.000000 0.000000 0.000000;
createNode transform -n "polySurface11";
	addAttr -ln "colladaId" -dt "string";
	setAttr .colladaId -type "string" "polySurface11";
	setAttr ".t" -type "double3" 2.000000 0.000000 0.100000;
createNode transform -n "pPlane4";
	addAttr -ln "colladaId" -dt "string";
	setAttr .colladaId -type "string" "pPlane4";
	setAttr ".t" -type "double3" 2.000000 1.800000 0.000000;
	setAttr ".s" -type "double3" 4.000000 1.000000 0.200000;
createNode transform -n "polySurface12";
	addAttr -ln "colladaId" -dt "string";
	setAttr .colladaId -type "string" "polySurface12";
	setAttr ".t" -type "double3" 2.000000 0.000000 0.000000;
createNode transform -n "pCube11";
	addAttr -ln "colladaId" -dt "string";
	setAttr .colladaId -type "string" "pCube11";
	setAttr ".t" -type "double3" 0.000000 2.487648 0.000000;
	setAttr ".r" -type "double3" 0.000000 0.000000 27.000000;
	setAttr ".s" -type "double3" 12.000000 1.000000 1.000000;
createNode transform -n "polySurface13";
	addAttr -ln "colladaId" -dt "string";
	setAttr .colladaId -type "string" "polySurface13";
createNode transform -n "pCube13";
	addAttr -ln "colladaId" -dt "string";
	setAttr .colladaId -type "string" "pCube13";
	setAttr ".t" -type "double3" 0.000000 2.487648 -0.110139;
	setAttr ".r" -type "double3" 0.000000 0.000000 27.000000;
	setAttr ".s" -type "double3" 12.000000 1.000000 1.000000;
createNode transform -n "polySurface14";
	addAttr -ln "colladaId" -dt "string";
	setAttr .colladaId -type "string" "polySurface14";
createNode transform -n "pCube14";
	addAttr -ln "colladaId" -dt "string";
	setAttr .colladaId -type "string" "pCube14";
	setAttr ".t" -type "double3" 0.000000 2.487648 0.114214;
	setAttr ".r" -type "double3" 0.000000 0.000000 27.000000;
	setAttr ".s" -type "double3" 12.000000 1.000000 1.000000;
createNode transform -n "polySurface15";
	addAttr -ln "colladaId" -dt "string";
	setAttr .colladaId -type "string" "polySurface15";
createNode blinn -n "blinn1";
	setAttr ".dc" 1.000000;
	setAttr ".ec" 0.300000;
	addAttr -ln "colladaEffectId" -dt "string";
	setAttr .colladaEffectId -type "string" "blinn1-fx";
	addAttr -ln "colladaMaterialId" -dt "string";
	setAttr .colladaMaterialId -type "string" "blinn1";
createNode shadingEngine -n "blinn1SG";
createNode materialInfo -n "materialInfo_1";
createNode place2dTexture -n "place2dTexture_1";
createNode place2dTexture -n "place2dTexture_2";
createNode blinn -n "blinn2";
	setAttr ".dc" 1.000000;
	setAttr ".ec" 0.300000;
	addAttr -ln "colladaEffectId" -dt "string";
	setAttr .colladaEffectId -type "string" "blinn2-fx";
	addAttr -ln "colladaMaterialId" -dt "string";
	setAttr .colladaMaterialId -type "string" "blinn2";
createNode shadingEngine -n "blinn2SG";
createNode materialInfo -n "materialInfo_2";
createNode place2dTexture -n "place2dTexture_3";
createNode place2dTexture -n "place2dTexture_4";
createNode blinn -n "blinn3";
	setAttr ".dc" 1.000000;
	setAttr ".ec" 0.300000;
	addAttr -ln "colladaEffectId" -dt "string";
	setAttr .colladaEffectId -type "string" "blinn3-fx";
	addAttr -ln "colladaMaterialId" -dt "string";
	setAttr .colladaMaterialId -type "string" "blinn3";
createNode shadingEngine -n "blinn3SG";
createNode materialInfo -n "materialInfo_3";
createNode place2dTexture -n "place2dTexture_5";
createNode place2dTexture -n "place2dTexture_6";
createNode blinn -n "blinn4";
	setAttr ".dc" 1.000000;
	setAttr ".ec" 0.300000;
	addAttr -ln "colladaEffectId" -dt "string";
	setAttr .colladaEffectId -type "string" "blinn4-fx";
	addAttr -ln "colladaMaterialId" -dt "string";
	setAttr .colladaMaterialId -type "string" "blinn4";
createNode shadingEngine -n "blinn4SG";
createNode materialInfo -n "materialInfo_4";
createNode place2dTexture -n "place2dTexture_7";
createNode place2dTexture -n "place2dTexture_8";
createNode blinn -n "blinn5";
	setAttr ".dc" 1.000000;
	setAttr ".ec" 0.300000;
	addAttr -ln "colladaEffectId" -dt "string";
	setAttr .colladaEffectId -type "string" "blinn5-fx";
	addAttr -ln "colladaMaterialId" -dt "string";
	setAttr .colladaMaterialId -type "string" "blinn5";
createNode shadingEngine -n "blinn5SG";
createNode materialInfo -n "materialInfo_5";
createNode place2dTexture -n "place2dTexture_9";
createNode place2dTexture -n "place2dTexture_10";
createNode blinn -n "blinn6";
	setAttr ".dc" 1.000000;
	setAttr ".ec" 0.300000;
	addAttr -ln "colladaEffectId" -dt "string";
	setAttr .colladaEffectId -type "string" "blinn6-fx";
	addAttr -ln "colladaMaterialId" -dt "string";
	setAttr .colladaMaterialId -type "string" "blinn6";
createNode shadingEngine -n "blinn6SG";
createNode materialInfo -n "materialInfo_6";
createNode place2dTexture -n "place2dTexture_11";
createNode place2dTexture -n "place2dTexture_12";
createNode lambert -n "lambert1_1";
	setAttr ".dc" 1.000000;
	setAttr ".c" -type "float3" 0.400000 0.400000 0.400000;
	addAttr -ln "colladaEffectId" -dt "string";
	setAttr .colladaEffectId -type "string" "lambert1-fx";
	addAttr -ln "colladaMaterialId" -dt "string";
	setAttr .colladaMaterialId -type "string" "lambert1";
createNode shadingEngine -n "lambert1_1SG";
createNode materialInfo -n "materialInfo_7";
createNode file -n "file1";
	setAttr ".ftn" -type "string" "C:/Users/Nocturne/Documents/maya/projects/default/scenes/dark_mansion_panneling/dark_mansion_panneling.dds";
	addAttr -ln "colladaId" -dt "string";
	setAttr .colladaId -type "string" "file1";
createNode file -n "file1_1";
	setAttr ".ftn" -type "string" "C:/Users/Nocturne/Documents/maya/projects/default/scenes/dark_mansion_panneling/dark_mansion_panneling.dds";
	addAttr -ln "colladaId" -dt "string";
	setAttr .colladaId -type "string" "file1";
createNode file -n "file1_2";
	setAttr ".ftn" -type "string" "C:/Users/Nocturne/Documents/maya/projects/default/scenes/dark_mansion_panneling/dark_mansion_panneling.dds";
	addAttr -ln "colladaId" -dt "string";
	setAttr .colladaId -type "string" "file1";
createNode file -n "file1_3";
	setAttr ".ftn" -type "string" "C:/Users/Nocturne/Documents/maya/projects/default/scenes/dark_mansion_panneling/dark_mansion_panneling.dds";
	addAttr -ln "colladaId" -dt "string";
	setAttr .colladaId -type "string" "file1";
createNode file -n "file1_4";
	setAttr ".ftn" -type "string" "C:/Users/Nocturne/Documents/maya/projects/default/scenes/dark_mansion_panneling/dark_mansion_panneling.dds";
	addAttr -ln "colladaId" -dt "string";
	setAttr .colladaId -type "string" "file1";
createNode file -n "file1_5";
	setAttr ".ftn" -type "string" "C:/Users/Nocturne/Documents/maya/projects/default/scenes/dark_mansion_panneling/dark_mansion_panneling.dds";
	addAttr -ln "colladaId" -dt "string";
	setAttr .colladaId -type "string" "file1";
createNode file -n "file4";
	setAttr ".ftn" -type "string" "C:/Users/Nocturne/Documents/maya/projects/default/scenes/mansion_wall_wood/mansion_wall_wood.dds";
	addAttr -ln "colladaId" -dt "string";
	setAttr .colladaId -type "string" "file4";
createNode file -n "file4_1";
	setAttr ".ftn" -type "string" "C:/Users/Nocturne/Documents/maya/projects/default/scenes/mansion_wall_wood/mansion_wall_wood.dds";
	addAttr -ln "colladaId" -dt "string";
	setAttr .colladaId -type "string" "file4";
createNode file -n "file4_2";
	setAttr ".ftn" -type "string" "C:/Users/Nocturne/Documents/maya/projects/default/scenes/mansion_wall_wood/mansion_wall_wood.dds";
	addAttr -ln "colladaId" -dt "string";
	setAttr .colladaId -type "string" "file4";
createNode file -n "file4_3";
	setAttr ".ftn" -type "string" "C:/Users/Nocturne/Documents/maya/projects/default/scenes/mansion_wall_wood/mansion_wall_wood.dds";
	addAttr -ln "colladaId" -dt "string";
	setAttr .colladaId -type "string" "file4";
createNode file -n "file4_4";
	setAttr ".ftn" -type "string" "C:/Users/Nocturne/Documents/maya/projects/default/scenes/mansion_wall_wood/mansion_wall_wood.dds";
	addAttr -ln "colladaId" -dt "string";
	setAttr .colladaId -type "string" "file4";
createNode file -n "file4_5";
	setAttr ".ftn" -type "string" "C:/Users/Nocturne/Documents/maya/projects/default/scenes/mansion_wall_wood/mansion_wall_wood.dds";
	addAttr -ln "colladaId" -dt "string";
	setAttr .colladaId -type "string" "file4";
createNode mesh -n "pPlaneShape2" -p "|pPlane2";
	addAttr -ln "colladaId" -dt "string";
	setAttr .colladaId -type "string" "pPlaneShape2";
	setAttr ".vt[0:3]" 0.437754 0.000000 0.500000 0.500000 0.000000 0.500000 0.437754 0.072108 0.021237 0.500000 0.072108 0.021237;
	setAttr ".n[0:5]" 0.000000 0.988847 0.148934 0.000000 0.988847 0.148934 0.000000 0.988847 0.148934 0.000000 0.988847 0.148934 0.000000 0.988847 0.148934 0.000000 0.988847 0.148934;
	setAttr ".usz" 1.000000;
	setAttr ".uvst[0].uvsn" -type "string" "pPlaneShape2-map1";
	setAttr ".cuvs" -type "string" "pPlaneShape2-map1";
	setAttr ".uvst[0].uvsp[0:3]" 0.940260 0.652940 1.000000 0.652934 0.940260 0.668996 1.000000 0.669002;
	setAttr ".ed[0:4]" 0 1 0 1 2 0 0 2 0 1 3 0 2 3 0;
	setAttr ".fc[0:1]" -type "polyFaces"  
		f 3 0 1 -3
		mu 0 3 0 1 2 
		f 3 -2 3 -5
		mu 0 3 2 1 3;
createNode mesh -n "polySurfaceShape11" -p "|polySurface11";
	addAttr -ln "colladaId" -dt "string";
	setAttr .colladaId -type "string" "polySurfaceShape11";
	setAttr ".vt[0:35]" 0.887932 1.566619 -0.050000 0.103186 1.566619 -0.050000 0.103186 0.722890 -0.050000 0.887932 0.722890 -0.050000 0.103186 1.566619 0.000000 0.887932 1.566619 0.000000 0.887932 0.722890 0.000000 0.103186 0.722890 0.000000 -1.113439 1.566619 -0.050000 -1.898185 1.566619 -0.050000 -1.898185 0.722890 -0.050000 -1.113439 0.722890 -0.050000 -1.898185 1.566619 0.000000 -1.113439 1.566619 0.000000 -1.113439 0.722890 0.000000 -1.898185 0.722890 0.000000 -2.000000 0.000000 0.000000 2.000000 0.000000 0.000000 2.000000 1.800000 0.000000 -2.000000 1.800000 0.000000 -0.107454 1.566619 0.000000 -0.107454 0.722890 0.000000 -0.892200 0.722890 0.000000 -0.892200 1.566619 0.000000 1.888115 1.566619 0.000000 1.888115 0.722890 0.000000 1.103369 0.722890 0.000000 1.103369 1.566619 0.000000 -0.892200 0.722890 -0.050000 -0.892200 1.566619 -0.050000 -0.107454 0.722890 -0.050000 -0.107454 1.566619 -0.050000 1.103369 0.722890 -0.050000 1.103369 1.566619 -0.050000 1.888115 0.722890 -0.050000 1.888115 1.566619 -0.050000;
	setAttr ".n[0:165]" 0.000000 0.000000 1.000000 0.000000 0.000000 1.000000 0.000000 0.000000 1.000000 0.000000 0.000000 1.000000 0.000000 0.000000 1.000000 0.000000 0.000000 1.000000 0.000000 -1.000000 0.000000 0.000000 -1.000000 0.000000 0.000000 -1.000000 0.000000 0.000000 -1.000000 0.000000 0.000000 -1.000000 0.000000 0.000000 -1.000000 0.000000 -1.000000 0.000000 0.000000 -1.000000 0.000000 0.000000 -1.000000 0.000000 0.000000 -1.000000 0.000000 0.000000 -1.000000 0.000000 0.000000 -1.000000 0.000000 0.000000 0.000000 1.000000 0.000000 0.000000 1.000000 0.000000 0.000000 1.000000 0.000000 0.000000 1.000000 0.000000 0.000000 1.000000 0.000000 0.000000 1.000000 0.000000 1.000000 0.000000 0.000000 1.000000 0.000000 0.000000 1.000000 0.000000 0.000000 1.000000 0.000000 0.000000 1.000000 0.000000 0.000000 1.000000 0.000000 0.000000 0.000000 0.000000 1.000000 0.000000 0.000000 1.000000 0.000000 0.000000 1.000000 0.000000 0.000000 1.000000 0.000000 0.000000 1.000000 0.000000 0.000000 1.000000 0.000000 -1.000000 0.000000 0.000000 -1.000000 0.000000 0.000000 -1.000000 0.000000 0.000000 -1.000000 0.000000 0.000000 -1.000000 0.000000 0.000000 -1.000000 0.000000 -1.000000 0.000000 0.000000 -1.000000 0.000000 0.000000 -1.000000 0.000000 0.000000 -1.000000 0.000000 0.000000 -1.000000 0.000000 0.000000 -1.000000 0.000000 0.000000 0.000000 1.000000 0.000000 0.000000 1.000000 0.000000 0.000000 1.000000 0.000000 0.000000 1.000000 0.000000 0.000000 1.000000 0.000000 0.000000 1.000000 0.000000 1.000000 0.000000 0.000000 1.000000 0.000000 0.000000 1.000000 0.000000 0.000000 1.000000 0.000000 0.000000 1.000000 0.000000 0.000000 1.000000 0.000000 0.000000 0.000000 0.000000 1.000000 0.000000 0.000000 1.000000 0.000000 0.000000 1.000000 0.000000 0.000000 1.000000 0.000000 0.000000 1.000000 0.000000 0.000000 1.000000 0.000000 0.000000 1.000000 0.000000 0.000000 1.000000 0.000000 0.000000 1.000000 0.000000 0.000000 1.000000 0.000000 0.000000 1.000000 0.000000 0.000000 1.000000 0.000000 0.000000 1.000000 0.000000 0.000000 1.000000 0.000000 0.000000 1.000000 0.000000 0.000000 1.000000 0.000000 0.000000 1.000000 0.000000 0.000000 1.000000 0.000000 0.000000 1.000000 0.000000 0.000000 1.000000 0.000000 0.000000 1.000000 0.000000 0.000000 1.000000 0.000000 0.000000 1.000000 0.000000 0.000000 1.000000 0.000000 0.000000 1.000000 0.000000 0.000000 1.000000 0.000000 0.000000 1.000000 0.000000 0.000000 1.000000 0.000000 0.000000 1.000000 0.000000 0.000000 1.000000 0.000000 0.000000 1.000000 0.000000 0.000000 1.000000 0.000000 0.000000 1.000000 0.000000 0.000000 1.000000 0.000000 0.000000 1.000000 0.000000 0.000000 1.000000 0.000000 0.000000 1.000000 0.000000 0.000000 1.000000 0.000000 0.000000 1.000000 0.000000 0.000000 1.000000 0.000000 0.000000 1.000000 0.000000 0.000000 1.000000 0.000000 0.000000 1.000000 0.000000 0.000000 1.000000 0.000000 0.000000 1.000000 0.000000 0.000000 1.000000 0.000000 0.000000 1.000000 0.000000 0.000000 1.000000 0.000000 0.000000 0.000000 0.000000 0.000000 1.000000 0.000000 0.000000 1.000000 0.000000 0.000000 1.000000 0.000000 0.000000 0.000000 0.000000 0.000000 1.000000 0.000000 0.000000 0.000000 0.000000 0.000000 0.000000 0.000000 0.000000 1.000000 0.000000 0.000000 1.000000 0.000000 0.000000 0.000000 0.000000 0.000000 1.000000 0.000000 0.000000 0.000000 0.000000 0.000000 1.000000 0.000000 0.000000 1.000000 0.000000 0.000000 1.000000 0.000000 0.000000 0.000000 0.000000 0.000000 1.000000 0.000000 0.000000 0.000000 0.000000 0.000000 1.000000 0.000000 0.000000 1.000000 0.000000 0.000000 1.000000 0.000000 0.000000 1.000000 0.000000 0.000000 1.000000 0.000000 0.000000 1.000000 0.000000 0.000000 1.000000 0.000000 0.000000 1.000000 0.000000 0.000000 1.000000 0.000000 0.000000 1.000000 0.000000 0.000000 1.000000 1.000000 0.000000 0.000000 1.000000 0.000000 0.000000 1.000000 0.000000 0.000000 1.000000 0.000000 0.000000 1.000000 0.000000 0.000000 1.000000 0.000000 0.000000 0.000000 1.000000 0.000000 0.000000 1.000000 0.000000 0.000000 1.000000 0.000000 0.000000 1.000000 0.000000 0.000000 1.000000 0.000000 0.000000 1.000000 0.000000 -1.000000 0.000000 0.000000 -1.000000 0.000000 0.000000 -1.000000 0.000000 0.000000 -1.000000 0.000000 0.000000 -1.000000 0.000000 0.000000 -1.000000 0.000000 0.000000 0.000000 -1.000000 0.000000 0.000000 -1.000000 0.000000 0.000000 -1.000000 0.000000 0.000000 -1.000000 0.000000 0.000000 -1.000000 0.000000 0.000000 -1.000000 0.000000 0.000000 0.000000 1.000000 0.000000 0.000000 1.000000 0.000000 0.000000 1.000000 0.000000 0.000000 1.000000;
	setAttr ".n[166:197]" 0.000000 0.000000 1.000000 0.000000 0.000000 1.000000 1.000000 0.000000 0.000000 1.000000 0.000000 0.000000 1.000000 0.000000 0.000000 1.000000 0.000000 0.000000 1.000000 0.000000 0.000000 1.000000 0.000000 0.000000 0.000000 1.000000 0.000000 0.000000 1.000000 0.000000 0.000000 1.000000 0.000000 0.000000 1.000000 0.000000 0.000000 1.000000 0.000000 0.000000 1.000000 0.000000 -1.000000 0.000000 0.000000 -1.000000 0.000000 0.000000 -1.000000 0.000000 0.000000 -1.000000 0.000000 0.000000 -1.000000 0.000000 0.000000 -1.000000 0.000000 0.000000 0.000000 -1.000000 0.000000 0.000000 -1.000000 0.000000 0.000000 -1.000000 0.000000 0.000000 -1.000000 0.000000 0.000000 -1.000000 0.000000 0.000000 -1.000000 0.000000 0.000000 0.000000 1.000000 0.000000 0.000000 1.000000 0.000000 0.000000 1.000000 0.000000 0.000000 1.000000 0.000000 0.000000 1.000000 0.000000 0.000000 1.000000;
	setAttr ".usz" 1.000000;
	setAttr ".uvst[0].uvsn" -type "string" "polySurfaceShape11-map1";
	setAttr ".cuvs" -type "string" "polySurfaceShape11-map1";
	setAttr ".uvst[0].uvsp[0:99]" 0.000000 0.000000 1.000000 0.000000 0.000000 0.399718 0.999997 0.399704 0.034907 0.662771 0.715659 0.353066 0.534767 0.353066 0.534767 0.158578 0.715659 0.158578 0.699815 0.662433 0.618147 0.627684 -0.005444 0.628683 0.034907 0.627684 0.658498 0.628683 0.712291 0.661291 -0.046638 0.661291 0.618147 0.662771 -0.005444 0.661772 -0.059360 0.662771 0.658498 0.661772 0.025455 0.347878 0.025455 0.160860 0.221641 0.160820 0.221641 0.347877 0.034907 0.662771 0.212858 0.353066 0.031966 0.353066 0.031966 0.158578 0.212858 0.158578 0.699815 0.662433 0.618147 0.627684 -0.005444 0.628683 0.034907 0.627684 0.658498 0.628683 0.712291 0.661291 -0.046638 0.661291 0.618147 0.662771 -0.005444 0.661772 -0.059360 0.662771 0.658498 0.661772 0.276951 0.347877 0.276950 0.160849 0.473137 0.160819 0.473137 0.347877 0.034907 0.662771 0.466776 0.353066 0.285884 0.353066 0.285884 0.158578 0.466776 0.158578 0.699815 0.662433 0.618147 0.627684 -0.005444 0.628683 0.034907 0.627684 0.658498 0.628683 0.712291 0.661291 -0.046638 0.661291 0.618147 0.662771 -0.005444 0.661772 -0.059360 0.662771 0.658498 0.661772 0.525797 0.347877 0.525796 0.160838 0.721983 0.160819 0.721982 0.347877 0.034907 0.662771 0.968239 0.353066 0.787347 0.353066 0.787347 0.158578 0.968239 0.158578 0.699815 0.662433 0.618147 0.627684 -0.005444 0.628683 0.034907 0.627684 0.658498 0.628683 0.712291 0.661291 -0.046638 0.661291 0.618147 0.662771 -0.005444 0.661772 -0.059360 0.662771 0.658498 0.661772 0.775841 0.347877 0.775842 0.160828 0.972028 0.160818 0.972027 0.347877 -0.046638 0.629163 0.712291 0.629163 -0.059360 0.627684 0.699815 0.628021 -0.046638 0.629163 0.712291 0.629163 -0.059360 0.627684 0.699815 0.628021 -0.059360 0.627684 0.699815 0.628021 -0.046638 0.629163 0.712291 0.629163 -0.059360 0.627684 0.699815 0.628021 -0.046638 0.629163 0.712291 0.629163;
	setAttr ".ed[0:100]" 0 1 0 1 3 0 0 3 0 1 2 0 2 3 0 1 4 0 1 5 0 4 5 0 0 5 0 0 6 0 5 6 0 3 6 0 3 7 0 6 7 0 2 7 0 2 4 0 4 7 0 8 9 0 9 11 0 8 11 0 9 10 0 10 11 0 9 12 0 9 13 0 12 13 0 8 13 0 8 14 0 13 14 0 11 14 0 11 15 0 14 15 0 10 15 0 10 12 0 12 15 0 15 16 0 15 19 0 16 19 0 12 19 0 12 18 0 18 19 0 13 18 0 16 17 0 15 17 0 14 17 0 17 18 0 18 25 0 17 25 0 18 24 0 24 25 0 25 26 0 17 26 0 14 26 0 14 22 0 13 22 0 22 23 0 13 23 0 18 23 0 20 23 0 18 20 0 18 27 0 24 27 0 20 27 0 4 20 0 7 20 0 20 21 0 7 21 0 5 20 0 5 27 0 6 27 0 6 21 0 21 22 0 6 22 0 6 14 0 6 26 0 26 27 0 22 28 0 23 28 0 28 29 0 23 29 0 21 30 0 22 30 0 28 30 0 20 31 0 21 31 0 30 31 0 20 29 0 29 31 0 29 30 0 26 32 0 27 32 0 32 33 0 27 33 0 25 34 0 26 34 0 32 34 0 24 35 0 25 35 0 34 35 0 24 33 0 33 35 0 33 34 0;
	setAttr ".fc[0:65]" -type "polyFaces"  
		f 3 0 1 -3
		mu 0 3 5 6 8 
		f 3 -2 3 4
		mu 0 3 8 6 7 
		f 3 -6 6 -8
		mu 0 3 55 84 54 
		f 3 -7 -1 8
		mu 0 3 54 84 85 
		f 3 -9 9 -11
		mu 0 3 57 51 56 
		f 3 -10 2 11
		mu 0 3 56 51 50 
		f 3 -12 12 -14
		mu 0 3 58 86 49 
		f 3 -13 -5 14
		mu 0 3 49 86 87 
		f 3 -15 15 16
		mu 0 3 44 52 59 
		f 3 -16 -4 5
		mu 0 3 59 52 53 
		f 3 17 18 -20
		mu 0 3 25 26 28 
		f 3 -19 20 21
		mu 0 3 28 26 27 
		f 3 -23 23 -25
		mu 0 3 15 88 14 
		f 3 -24 -18 25
		mu 0 3 14 88 89 
		f 3 -26 26 -28
		mu 0 3 17 11 16 
		f 3 -27 19 28
		mu 0 3 16 11 10 
		f 3 -29 29 -31
		mu 0 3 18 90 9 
		f 3 -30 -22 31
		mu 0 3 9 90 91 
		f 3 -32 32 33
		mu 0 3 4 12 19 
		f 3 -33 -21 22
		mu 0 3 19 12 13 
		f 3 -35 35 -37
		mu 0 3 0 21 2 
		f 3 -34 37 -36
		mu 0 3 21 20 2 
		f 3 -38 38 39
		mu 0 3 2 20 3 
		f 3 24 40 -39
		mu 0 3 20 23 3 
		f 3 41 -43 34
		mu 0 3 0 1 21 
		f 3 42 -44 30
		mu 0 3 21 1 22 
		f 3 44 45 -47
		mu 0 3 1 3 82 
		f 3 -46 47 48
		mu 0 3 82 3 83 
		f 3 49 -51 46
		mu 0 3 82 81 1 
		f 3 50 -52 43
		mu 0 3 1 81 22 
		f 3 52 -54 27
		mu 0 3 22 41 23 
		f 3 54 -56 53
		mu 0 3 41 40 23 
		f 3 55 -57 -41
		mu 0 3 23 40 3 
		f 3 -58 -59 56
		mu 0 3 40 43 3 
		f 3 -48 59 -61
		mu 0 3 83 3 80 
		f 3 58 61 -60
		mu 0 3 3 43 80 
		f 3 62 -64 -17
		mu 0 3 60 43 61 
		f 3 64 -66 63
		mu 0 3 43 42 61 
		f 3 7 66 -63
		mu 0 3 60 63 43 
		f 3 -67 67 -62
		mu 0 3 43 63 80 
		f 3 10 68 -68
		mu 0 3 63 62 80 
		f 3 65 -70 13
		mu 0 3 61 42 62 
		f 3 70 -72 69
		mu 0 3 42 41 62 
		f 3 -53 -73 71
		mu 0 3 41 22 62 
		f 3 51 -74 72
		mu 0 3 22 81 62 
		f 3 73 74 -69
		mu 0 3 62 81 80 
		f 3 75 -77 -55
		mu 0 3 24 32 39 
		f 3 76 77 -79
		mu 0 3 39 32 33 
		f 3 79 -81 -71
		mu 0 3 38 92 29 
		f 3 80 -82 -76
		mu 0 3 29 92 93 
		f 3 82 -84 -65
		mu 0 3 37 31 36 
		f 3 83 -85 -80
		mu 0 3 36 31 30 
		f 3 78 -86 57
		mu 0 3 35 94 34 
		f 3 85 86 -83
		mu 0 3 34 94 95 
		f 3 -87 87 84
		mu 0 3 45 46 48 
		f 3 -88 -78 81
		mu 0 3 48 46 47 
		f 3 88 -90 -75
		mu 0 3 64 72 79 
		f 3 89 90 -92
		mu 0 3 79 72 73 
		f 3 92 -94 -50
		mu 0 3 78 96 69 
		f 3 93 -95 -89
		mu 0 3 69 96 97 
		f 3 95 -97 -49
		mu 0 3 77 71 76 
		f 3 96 -98 -93
		mu 0 3 76 71 70 
		f 3 91 -99 60
		mu 0 3 75 98 74 
		f 3 98 99 -96
		mu 0 3 74 98 99 
		f 3 -100 100 97
		mu 0 3 65 66 68 
		f 3 -101 -91 94
		mu 0 3 68 66 67;
createNode mesh -n "pPlaneShape4" -p "|pPlane4";
	addAttr -ln "colladaId" -dt "string";
	setAttr .colladaId -type "string" "pPlaneShape4";
	setAttr ".vt[0:3]" -0.500000 0.000000 0.500000 0.500000 0.000000 0.500000 -0.500000 0.072108 0.021237 0.500000 0.072108 0.021237;
	setAttr ".n[0:5]" 0.000000 0.988847 0.148934 0.000000 0.988847 0.148934 0.000000 0.988847 0.148934 0.000000 0.988847 0.148934 0.000000 0.988847 0.148934 0.000000 0.988847 0.148934;
	setAttr ".usz" 1.000000;
	setAttr ".uvst[0].uvsn" -type "string" "pPlaneShape4-map1";
	setAttr ".cuvs" -type "string" "pPlaneShape4-map1";
	setAttr ".uvst[0].uvsp[0:3]" 0.000000 0.652934 1.000000 0.652934 0.000000 0.669002 1.000000 0.669002;
	setAttr ".ed[0:4]" 0 1 0 1 2 0 0 2 0 1 3 0 2 3 0;
	setAttr ".fc[0:1]" -type "polyFaces"  
		f 3 0 1 -3
		mu 0 3 0 1 2 
		f 3 -2 3 -5
		mu 0 3 2 1 3;
createNode mesh -n "polySurfaceShape13" -p "|polySurface13";
	addAttr -ln "colladaId" -dt "string";
	setAttr .colladaId -type "string" "polySurfaceShape13";
	setAttr ".iog[0].og[0].gcl" -type "componentList" 1 "f[0:37]";
	setAttr ".iog[0].og[1].gcl" -type "componentList" 1 "f[38:43]";
	setAttr ".vt[0:27]" -0.706276 1.566619 0.100000 -0.896631 1.469629 0.100000 -0.896631 1.469629 0.050000 -0.706276 1.566619 0.050000 -1.112068 1.359858 0.100000 -1.896814 0.960010 0.100000 -1.896814 0.960010 0.050000 -1.112068 1.359858 0.050000 -2.107454 0.852683 0.100000 -2.362188 0.722890 0.100000 -2.362188 0.722890 0.050000 -2.107454 0.852683 0.050000 -0.248240 1.800000 0.100000 0.000000 1.800000 0.100000 0.000000 0.000000 0.100000 -3.780939 0.000000 0.100000 -0.896631 0.722890 0.050000 -0.111885 0.722890 0.050000 -0.111885 1.566619 0.050000 -0.111885 1.566619 0.100000 -0.111885 0.722890 0.100000 -0.896631 0.722890 0.100000 -2.107454 0.722890 0.050000 -2.107454 0.722890 0.100000 -1.112068 0.722890 0.100000 -1.896814 0.722890 0.100000 -1.896814 0.722890 0.050000 -1.112068 0.722890 0.050000;
	setAttr ".n[0:131]" 0.000000 0.000000 1.000000 0.000000 0.000000 1.000000 0.000000 0.000000 1.000000 0.000000 0.000000 1.000000 0.000000 0.000000 1.000000 0.000000 0.000000 1.000000 0.000000 0.000000 1.000000 0.000000 0.000000 1.000000 0.000000 0.000000 1.000000 0.233445 -0.972370 0.000000 0.233445 -0.972370 0.000000 0.000000 -1.000000 0.000000 0.000000 -1.000000 0.000000 0.233445 -0.972370 0.000000 0.000000 -1.000000 0.000000 -1.000000 0.000000 0.000000 -1.000000 0.000000 0.000000 -1.000000 0.000000 0.000000 -1.000000 0.000000 0.000000 -1.000000 0.000000 0.000000 -1.000000 0.000000 0.000000 0.000000 1.000000 0.000000 0.000000 1.000000 0.000000 0.000000 1.000000 0.000000 0.000000 1.000000 0.000000 0.000000 1.000000 0.000000 0.000000 1.000000 0.000000 1.000000 0.000000 0.000000 1.000000 0.000000 0.000000 1.000000 0.000000 0.000000 1.000000 0.000000 0.000000 1.000000 0.000000 0.000000 1.000000 0.000000 0.000000 0.000000 0.000000 1.000000 0.000000 0.000000 1.000000 0.000000 0.000000 1.000000 -1.000000 0.000000 0.000000 -1.000000 0.000000 0.000000 -1.000000 0.000000 0.000000 -1.000000 0.000000 0.000000 -1.000000 0.000000 0.000000 -1.000000 0.000000 0.000000 0.000000 1.000000 0.000000 0.000000 1.000000 0.000000 0.000000 1.000000 0.000000 0.000000 1.000000 0.000000 0.000000 1.000000 0.000000 0.000000 1.000000 0.000000 0.000000 0.000000 1.000000 0.000000 0.000000 1.000000 0.000000 0.000000 1.000000 0.000000 0.000000 1.000000 0.000000 0.000000 1.000000 0.000000 0.000000 1.000000 0.000000 0.000000 1.000000 0.000000 0.000000 1.000000 0.000000 0.000000 1.000000 0.000000 0.000000 1.000000 0.000000 0.000000 1.000000 0.000000 0.000000 1.000000 0.000000 0.000000 1.000000 0.000000 0.000000 1.000000 0.000000 0.000000 1.000000 0.000000 0.000000 1.000000 0.000000 0.000000 1.000000 0.000000 0.000000 1.000000 0.000000 0.000000 1.000000 0.000000 0.000000 1.000000 0.000000 0.000000 1.000000 0.000000 0.000000 1.000000 0.000000 0.000000 1.000000 0.000000 0.000000 1.000000 0.000000 0.000000 1.000000 0.000000 0.000000 1.000000 0.000000 0.000000 1.000000 0.000000 0.000000 1.000000 0.000000 0.000000 1.000000 0.000000 0.000000 1.000000 0.000000 0.000000 1.000000 0.000000 0.000000 1.000000 0.000000 0.000000 1.000000 0.000000 0.000000 1.000000 0.000000 0.000000 1.000000 0.000000 0.000000 1.000000 0.000000 0.000000 1.000000 0.000000 0.000000 1.000000 0.000000 0.000000 1.000000 0.000000 0.000000 1.000000 0.000000 0.000000 1.000000 0.000000 0.000000 1.000000 1.000000 0.000000 0.000000 1.000000 0.000000 0.000000 1.000000 0.000000 0.000000 1.000000 0.000000 0.000000 1.000000 0.000000 0.000000 1.000000 0.000000 0.000000 0.000000 1.000000 0.000000 0.000000 1.000000 0.000000 0.000000 1.000000 0.000000 0.000000 1.000000 0.000000 0.000000 1.000000 0.000000 0.000000 1.000000 0.000000 -1.000000 0.000000 0.000000 -1.000000 0.000000 0.000000 -1.000000 0.000000 0.000000 -1.000000 0.000000 0.000000 -1.000000 0.000000 0.000000 -1.000000 0.000000 0.000000 0.000000 0.000000 1.000000 0.000000 0.000000 1.000000 0.000000 0.000000 1.000000 0.000000 0.000000 1.000000 0.000000 0.000000 1.000000 0.000000 0.000000 1.000000 0.233445 -0.972370 0.000000 0.453991 -0.891007 0.000000 0.233445 -0.972370 0.000000 0.233445 -0.972370 0.000000 0.453991 -0.891007 0.000000 0.453991 -0.891007 0.000000 0.453991 -0.891007 0.000000 0.453991 -0.891007 0.000000 0.453991 -0.891007 0.000000 0.453991 -0.891007 0.000000 0.453991 -0.891007 0.000000 0.453990 -0.891007 0.000000 0.453991 -0.891007 0.000000 0.453991 -0.891007 0.000000 0.453991 -0.891007 0.000000 0.453991 -0.891007 0.000000 0.453991 -0.891007 0.000000 0.453991 -0.891007 0.000000;
	setAttr ".usz" 1.000000;
	setAttr ".uvst[0].uvsn" -type "string" "polySurfaceShape13-map1";
	setAttr ".cuvs" -type "string" "polySurfaceShape13-map1";
	setAttr ".uvst[0].uvsp[0:75]" 0.393231 0.159280 0.019937 -0.000339 0.534767 0.158578 0.715659 0.158578 0.618147 0.627684 0.618147 0.662771 -0.059360 0.662771 0.034907 0.662771 0.466776 0.158578 0.699815 0.662433 0.618147 0.627684 0.034907 0.627684 0.618147 0.662771 -0.059360 0.662771 0.034907 0.662771 0.968239 0.353066 0.787347 0.158578 0.968239 0.158578 0.699815 0.662433 0.618147 0.627684 -0.005444 0.628683 0.034907 0.627684 0.712291 0.661291 0.618147 0.662771 -0.005444 0.661772 -0.059360 0.662771 -0.059360 0.627684 0.699815 0.628021 -0.059360 0.627684 -0.059360 0.627684 0.699815 0.628021 0.712291 0.629163 0.478178 0.887500 0.473728 0.887500 0.473728 0.900000 0.478178 0.900000 0.468690 0.887500 0.450341 0.887500 0.450341 0.900000 0.468690 0.900000 0.445416 0.887500 0.439460 0.887500 0.439460 0.900000 0.445416 0.900000 0.787347 0.330709 0.831226 0.353066 0.137455 0.629163 0.137455 0.661291 0.586813 0.661887 0.586813 0.628568 0.408057 0.158578 0.466776 0.188496 0.522218 0.627838 0.522218 0.662617 0.187073 0.662661 0.187073 0.627793 1.014756 -0.000339 1.014756 0.397114 0.949440 0.397114 0.828925 0.345582 0.985317 0.345582 0.985317 0.159280 0.778840 0.159280 0.778840 0.324165 0.722155 0.299927 0.722155 0.159280 0.515677 0.159280 0.515677 0.211638 0.460255 0.187939 0.460255 0.159280 0.210160 0.662490 0.210160 0.627965 0.147371 0.628438 0.147371 0.662017 0.534767 0.213236 0.715659 0.305406;
	setAttr ".ed[0:70]" 16 17 0 2 17 0 2 16 0 3 17 0 2 3 0 17 18 0 3 18 0 0 3 0 3 19 0 0 19 0 18 19 0 18 20 0 19 20 0 17 20 0 17 21 0 20 21 0 16 21 0 1 2 0 1 16 0 1 21 0 10 11 0 10 22 0 11 22 0 8 11 0 11 23 0 8 23 0 22 23 0 9 10 0 9 22 0 9 23 0 14 15 0 9 14 0 9 15 0 14 23 0 12 19 0 0 12 0 13 19 0 12 13 0 14 19 0 13 14 0 14 20 0 1 4 0 4 21 0 4 24 0 21 24 0 5 8 0 8 25 0 5 25 0 23 25 0 14 25 0 14 24 0 24 25 0 14 21 0 5 6 0 5 26 0 6 26 0 25 26 0 24 27 0 25 27 0 26 27 0 4 7 0 7 24 0 7 27 0 6 7 0 6 27 0 0 1 0 1 3 0 4 5 0 5 7 0 8 9 0 9 11 0;
	setAttr ".fc[0:43]" -type "polyFaces"  
		f 3 0 -2 2
		mu 0 3 16 17 44 
		f 3 1 -4 -5
		mu 0 3 44 17 45 
		f 3 3 5 -7
		mu 0 3 45 17 15 
		f 3 7 8 -10
		mu 0 3 47 46 22 
		f 3 -9 6 10
		mu 0 3 22 46 31 
		f 3 -11 11 -13
		mu 0 3 24 20 23 
		f 3 -12 -6 13
		mu 0 3 23 20 19 
		f 3 -14 14 -16
		mu 0 3 25 29 18 
		f 3 -15 -1 16
		mu 0 3 18 29 30 
		f 3 -18 18 -3
		mu 0 3 49 48 21 
		f 3 -19 19 -17
		mu 0 3 21 48 14 
		f 3 -21 21 -23
		mu 0 3 51 50 8 
		f 3 23 24 -26
		mu 0 3 53 52 5 
		f 3 -25 22 26
		mu 0 3 5 52 4 
		f 3 -28 28 -22
		mu 0 3 55 54 28 
		f 3 -29 29 -27
		mu 0 3 28 54 6 
		f 3 -31 -32 32
		mu 0 3 1 56 0 
		f 3 31 33 -30
		mu 0 3 0 56 69 
		f 3 9 -35 -36
		mu 0 3 59 60 58 
		f 3 34 -37 -38
		mu 0 3 58 60 57 
		f 3 36 -39 -40
		mu 0 3 57 60 56 
		f 3 12 -41 38
		mu 0 3 60 61 56 
		f 3 41 42 -20
		mu 0 3 63 64 62 
		f 3 43 -45 -43
		mu 0 3 64 65 62 
		f 3 45 46 -48
		mu 0 3 67 68 66 
		f 3 25 48 -47
		mu 0 3 68 69 66 
		f 3 -34 49 -49
		mu 0 3 69 56 66 
		f 3 -50 50 51
		mu 0 3 66 56 65 
		f 3 -51 52 44
		mu 0 3 65 56 62 
		f 3 40 15 -53
		mu 0 3 56 61 62 
		f 3 -54 54 -56
		mu 0 3 71 70 11 
		f 3 -55 47 56
		mu 0 3 11 70 7 
		f 3 57 -59 -52
		mu 0 3 13 26 9 
		f 3 58 -60 -57
		mu 0 3 9 26 27 
		f 3 60 61 -44
		mu 0 3 73 72 12 
		f 3 -62 62 -58
		mu 0 3 12 72 10 
		f 3 -64 64 -63
		mu 0 3 75 74 3 
		f 3 -65 55 59
		mu 0 3 3 74 2 
		f 3 65 66 -8
		mu 0 3 35 34 32 
		f 3 -67 17 4
		mu 0 3 32 34 33 
		f 3 67 68 -61
		mu 0 3 39 38 36 
		f 3 -69 53 63
		mu 0 3 36 38 37 
		f 3 69 70 -24
		mu 0 3 43 42 40 
		f 3 -71 27 20
		mu 0 3 40 42 41;
createNode groupId -n "groupId_1";
	setAttr ".ihi" 0;
createNode groupId -n "groupId_2";
	setAttr ".ihi" 0;
createNode mesh -n "polySurfaceShape14" -p "|polySurface14";
	addAttr -ln "colladaId" -dt "string";
	setAttr .colladaId -type "string" "polySurfaceShape14";
	setAttr ".iog[0].og[0].gcl" -type "componentList" 1 "f[0:29]";
	setAttr ".iog[0].og[1].gcl" -type "componentList" 1 "f[30:33]";
	setAttr ".vt[0:21]" 3.052247 3.481682 0.000000 2.421242 3.160169 0.000000 2.421242 3.160169 -0.050022 3.052247 3.481682 -0.050022 0.409296 2.135032 0.000000 0.409296 2.135032 -0.050022 1.553033 2.717795 -0.050022 1.553033 2.717795 0.000000 3.564979 2.043624 0.000000 3.564979 2.043624 -0.050022 2.421242 2.043624 -0.050022 2.421242 2.043624 0.000000 3.564979 3.481682 0.000000 3.564979 3.481682 -0.050022 1.553033 2.043624 0.000000 1.553033 2.043624 -0.050022 0.409296 2.043624 -0.050022 0.409296 2.043624 0.000000 4.000000 3.964586 0.000000 4.000000 1.820894 0.000000 0.000000 1.820894 0.000000 0.000000 1.926485 0.000000;
	setAttr ".n[0:101]" 0.000000 1.000000 0.000000 0.000000 1.000000 0.000000 0.000000 1.000000 0.000000 0.000000 1.000000 0.000000 0.000000 1.000000 0.000000 0.000000 1.000000 0.000000 -1.000000 0.000000 0.000000 -1.000000 0.000000 0.000000 -1.000000 0.000000 0.000000 -1.000000 0.000000 0.000000 -1.000000 0.000000 0.000000 -1.000000 0.000000 0.000000 0.000000 1.000000 0.000000 0.000000 1.000000 0.000000 0.000000 1.000000 0.000000 0.000000 1.000000 0.000000 0.000000 1.000000 0.000000 0.000000 1.000000 0.000000 0.233445 -0.972370 0.000000 0.233445 -0.972370 0.000000 0.000000 -1.000000 0.000000 0.000000 -1.000000 0.000000 0.233445 -0.972370 0.000000 0.000000 -1.000000 0.000000 0.000000 0.000000 1.000000 0.000000 0.000000 1.000000 0.000000 0.000000 1.000000 0.000000 0.000000 1.000000 0.000000 0.000000 1.000000 0.000000 0.000000 1.000000 0.000000 0.000000 1.000000 0.000000 0.000000 1.000000 0.000000 0.000000 1.000000 1.000000 0.000000 0.000000 1.000000 0.000000 0.000000 1.000000 0.000000 0.000000 1.000000 0.000000 0.000000 1.000000 0.000000 0.000000 1.000000 0.000000 0.000000 0.000000 0.000000 1.000000 0.000000 0.000000 1.000000 0.000000 0.000000 1.000000 0.000000 0.000000 1.000000 0.000000 0.000000 1.000000 0.000000 0.000000 1.000000 0.000000 0.000000 1.000000 0.000000 0.000000 1.000000 0.000000 0.000000 1.000000 0.000000 0.000000 1.000000 0.000000 0.000000 1.000000 0.000000 0.000000 1.000000 0.000000 0.000000 1.000000 0.000000 0.000000 1.000000 0.000000 0.000000 1.000000 0.000000 0.000000 1.000000 0.000000 0.000000 1.000000 0.000000 0.000000 1.000000 0.000000 0.000000 1.000000 0.000000 0.000000 1.000000 0.000000 0.000000 1.000000 0.000000 0.000000 1.000000 0.000000 0.000000 1.000000 0.000000 0.000000 1.000000 0.000000 0.000000 1.000000 0.000000 0.000000 1.000000 0.000000 0.000000 1.000000 0.000000 0.000000 1.000000 0.000000 0.000000 1.000000 0.000000 0.000000 1.000000 0.000000 0.000000 1.000000 0.000000 0.000000 1.000000 0.000000 0.000000 1.000000 -1.000000 0.000000 0.000000 -1.000000 0.000000 0.000000 -1.000000 0.000000 0.000000 -1.000000 0.000000 0.000000 -1.000000 0.000000 0.000000 -1.000000 0.000000 0.000000 0.000000 0.000000 1.000000 0.000000 0.000000 1.000000 0.000000 0.000000 1.000000 0.000000 0.000000 1.000000 0.000000 0.000000 1.000000 0.000000 0.000000 1.000000 1.000000 0.000000 0.000000 1.000000 0.000000 0.000000 1.000000 0.000000 0.000000 1.000000 0.000000 0.000000 1.000000 0.000000 0.000000 1.000000 0.000000 0.000000 0.233445 -0.972370 0.000000 0.453991 -0.891007 0.000000 0.233445 -0.972370 0.000000 0.233445 -0.972370 0.000000 0.453991 -0.891007 0.000000 0.453990 -0.891007 0.000000 0.453990 -0.891007 0.000000 0.453990 -0.891007 0.000000 0.453990 -0.891007 0.000000 0.453990 -0.891007 0.000000 0.453990 -0.891007 0.000000 0.453990 -0.891007 0.000000;
	setAttr ".usz" 1.000000;
	setAttr ".uvst[0].uvsn" -type "string" "polySurfaceShape14-map1";
	setAttr ".cuvs" -type "string" "polySurfaceShape14-map1";
	setAttr ".uvst[0].uvsp[0:57]" 0.000000 0.455341 0.999925 0.455341 0.084488 0.887466 0.402709 0.887466 0.402454 0.887223 0.402454 0.502837 0.389307 0.887223 0.389307 0.887223 0.389307 0.502837 0.389307 0.502837 0.402709 0.498219 0.084488 0.887466 0.402709 0.887466 0.402454 0.887223 0.402454 0.502837 0.402454 0.502837 0.389307 0.887223 0.389307 0.502837 0.389307 0.887223 0.389307 0.502837 0.389307 0.502837 0.389307 0.887223 0.402454 0.502837 0.402454 0.887223 0.402454 0.887223 0.402454 0.502837 0.402454 0.887223 0.566059 0.890029 0.551305 0.890029 0.551305 0.902535 0.566060 0.902535 0.531005 0.902535 0.531005 0.890029 0.504263 0.890029 0.504263 0.902535 0.402454 0.714904 0.389307 0.714904 0.084488 0.585244 0.260052 0.498219 0.389307 0.801284 0.402454 0.801284 0.102376 0.511012 0.388268 0.511012 0.388255 0.679518 0.605292 0.790088 0.605288 0.511012 0.891181 0.511012 0.891227 0.870449 0.763044 0.870449 0.999999 0.991149 0.000000 0.481733 0.102373 0.533859 0.402454 0.707020 0.389307 0.707021 0.084488 0.862724 0.402709 0.704984 0.389307 0.527270 0.402454 0.527270;
	setAttr ".ed[0:54]" 8 9 0 9 11 0 8 11 0 9 10 0 10 11 0 12 13 0 8 13 0 8 12 0 9 13 0 14 15 0 15 17 0 14 17 0 15 16 0 16 17 0 0 3 0 3 12 0 0 12 0 3 13 0 2 9 0 2 10 0 3 9 0 2 3 0 1 2 0 1 10 0 1 11 0 12 18 0 0 18 0 12 19 0 18 19 0 8 19 0 8 20 0 19 20 0 11 20 0 4 21 0 17 21 0 4 17 0 1 7 0 7 11 0 7 14 0 11 14 0 14 20 0 14 21 0 20 21 0 6 7 0 6 14 0 6 15 0 5 15 0 5 16 0 5 6 0 4 5 0 4 16 0 0 1 0 1 3 0 5 7 0 4 7 0;
	setAttr ".fc[0:33]" -type "polyFaces"  
		f 3 0 1 -3
		mu 0 3 19 22 18 
		f 3 -2 3 4
		mu 0 3 18 22 23 
		f 3 5 -7 7
		mu 0 3 17 14 16 
		f 3 6 -9 -1
		mu 0 3 16 14 13 
		f 3 9 10 -12
		mu 0 3 8 25 7 
		f 3 -11 12 13
		mu 0 3 7 25 26 
		f 3 14 15 -17
		mu 0 3 36 35 21 
		f 3 -16 17 -6
		mu 0 3 21 35 24 
		f 3 -4 -19 19
		mu 0 3 11 12 37 
		f 3 18 -21 -22
		mu 0 3 37 12 38 
		f 3 20 8 -18
		mu 0 3 38 12 10 
		f 3 -23 23 -20
		mu 0 3 40 39 15 
		f 3 -24 24 -5
		mu 0 3 15 39 20 
		f 3 16 25 -27
		mu 0 3 48 47 49 
		f 3 -26 27 -29
		mu 0 3 49 47 1 
		f 3 -8 29 -28
		mu 0 3 47 46 1 
		f 3 -30 30 -32
		mu 0 3 1 46 0 
		f 3 2 32 -31
		mu 0 3 46 45 0 
		f 3 33 -35 -36
		mu 0 3 51 50 41 
		f 3 36 37 -25
		mu 0 3 44 43 45 
		f 3 38 -40 -38
		mu 0 3 43 42 45 
		f 3 39 40 -33
		mu 0 3 45 42 0 
		f 3 -41 41 -43
		mu 0 3 0 42 50 
		f 3 -42 11 34
		mu 0 3 50 42 41 
		f 3 -44 44 -39
		mu 0 3 53 52 6 
		f 3 -45 45 -10
		mu 0 3 6 52 4 
		f 3 -13 -47 47
		mu 0 3 2 3 54 
		f 3 -49 46 -46
		mu 0 3 55 54 3 
		f 3 -50 50 -48
		mu 0 3 57 56 5 
		f 3 -51 35 -14
		mu 0 3 5 56 9 
		f 3 51 52 -15
		mu 0 3 30 29 27 
		f 3 -53 22 21
		mu 0 3 27 29 28 
		f 3 49 53 -55
		mu 0 3 34 33 31 
		f 3 -54 48 43
		mu 0 3 31 33 32;
createNode groupId -n "groupId_3";
	setAttr ".ihi" 0;
createNode groupId -n "groupId_4";
	setAttr ".ihi" 0;
createNode mesh -n "polySurfaceShape15" -p "|polySurface15";
	addAttr -ln "colladaId" -dt "string";
	setAttr .colladaId -type "string" "polySurfaceShape15";
	setAttr ".vt[0:2]" -0.207234 1.820894 0.000000 0.000000 1.820894 0.000000 0.000000 1.926485 0.000000;
	setAttr ".n[0:2]" 0.000000 0.000000 1.000000 0.000000 0.000000 1.000000 0.000000 0.000000 1.000000;
	setAttr ".usz" 1.000000;
	setAttr ".uvst[0].uvsn" -type "string" "polySurfaceShape15-map1";
	setAttr ".cuvs" -type "string" "polySurfaceShape15-map1";
	setAttr ".uvst[0].uvsp[0:2]" 0.999925 0.455341 0.999929 0.481733 0.948124 0.455341;
	setAttr ".ed[0:2]" 0 1 0 1 2 0 0 2 0;
	setAttr ".fc[0:1]" -type "polyFaces"  
		f 3 0 1 -3
		mu 0 3 2 0 1 
		f 3 0 1 -3
		mu 0 3 2 0 1;
connectAttr "lambert1_1SG.msg" "materialInfo_7.sg";
connectAttr "lambert1_1SG.pa" ":renderPartition.st" -na;
connectAttr "lambert1_1.oc" "lambert1_1SG.ss";
connectAttr "lambert1_1.msg" "materialInfo_7.m";
connectAttr "blinn1SG.msg" "materialInfo_1.sg";
connectAttr "blinn1SG.pa" ":renderPartition.st" -na;
connectAttr "blinn1.oc" "blinn1SG.ss";
connectAttr "blinn1.msg" "materialInfo_1.m";
connectAttr "blinn2SG.msg" "materialInfo_2.sg";
connectAttr "blinn2SG.pa" ":renderPartition.st" -na;
connectAttr "blinn2.oc" "blinn2SG.ss";
connectAttr "blinn2.msg" "materialInfo_2.m";
connectAttr "blinn3SG.msg" "materialInfo_3.sg";
connectAttr "blinn3SG.pa" ":renderPartition.st" -na;
connectAttr "blinn3.oc" "blinn3SG.ss";
connectAttr "blinn3.msg" "materialInfo_3.m";
connectAttr "blinn4SG.msg" "materialInfo_4.sg";
connectAttr "blinn4SG.pa" ":renderPartition.st" -na;
connectAttr "blinn4.oc" "blinn4SG.ss";
connectAttr "blinn4.msg" "materialInfo_4.m";
connectAttr "blinn5SG.msg" "materialInfo_5.sg";
connectAttr "blinn5SG.pa" ":renderPartition.st" -na;
connectAttr "blinn5.oc" "blinn5SG.ss";
connectAttr "blinn5.msg" "materialInfo_5.m";
connectAttr "blinn6SG.msg" "materialInfo_6.sg";
connectAttr "blinn6SG.pa" ":renderPartition.st" -na;
connectAttr "blinn6.oc" "blinn6SG.ss";
connectAttr "blinn6.msg" "materialInfo_6.m";
connectAttr "groupId_1.msg" "blinn4SG.gn" -na;
connectAttr "groupId_2.msg" "lambert1_1SG.gn" -na;
connectAttr "groupId_4.msg" "lambert1_1SG.gn" -na;
connectAttr "groupId_3.msg" "blinn6SG.gn" -na;
connectAttr "|pPlane2|pPlaneShape2.iog" "blinn3SG.dsm" -na;
connectAttr "|polySurface11|polySurfaceShape11.iog" "blinn4SG.dsm" -na;
connectAttr "|pPlane4|pPlaneShape4.iog" "blinn3SG.dsm" -na;
connectAttr "|polySurface13|polySurfaceShape13.iog.og[0]" "blinn4SG.dsm" -na;
connectAttr "blinn4SG.mwc" "|polySurface13|polySurfaceShape13.iog.og[0].gco";
connectAttr "groupId_1.id" "|polySurface13|polySurfaceShape13.iog.og[0].gid";
connectAttr "|polySurface13|polySurfaceShape13.iog.og[1]" "lambert1_1SG.dsm" -na;
connectAttr "lambert1_1SG.mwc" "|polySurface13|polySurfaceShape13.iog.og[1].gco";
connectAttr "groupId_2.id" "|polySurface13|polySurfaceShape13.iog.og[1].gid";
connectAttr "|polySurface14|polySurfaceShape14.iog.og[0]" "blinn6SG.dsm" -na;
connectAttr "blinn6SG.mwc" "|polySurface14|polySurfaceShape14.iog.og[0].gco";
connectAttr "groupId_3.id" "|polySurface14|polySurfaceShape14.iog.og[0].gid";
connectAttr "|polySurface14|polySurfaceShape14.iog.og[1]" "lambert1_1SG.dsm" -na;
connectAttr "lambert1_1SG.mwc" "|polySurface14|polySurfaceShape14.iog.og[1].gco";
connectAttr "groupId_4.id" "|polySurface14|polySurfaceShape14.iog.og[1].gid";
connectAttr "|polySurface15|polySurfaceShape15.iog" "blinn6SG.dsm" -na;
connectAttr "lambert1_1.msg" ":defaultShaderList1.s" -na;
connectAttr "blinn1.msg" ":defaultShaderList1.s" -na;
connectAttr "blinn2.msg" ":defaultShaderList1.s" -na;
connectAttr "blinn3.msg" ":defaultShaderList1.s" -na;
connectAttr "blinn4.msg" ":defaultShaderList1.s" -na;
connectAttr "blinn5.msg" ":defaultShaderList1.s" -na;
connectAttr "blinn6.msg" ":defaultShaderList1.s" -na;
connectAttr "defaultLightSet.msg" "lightLinker1.lnk[0].llnk";
connectAttr "lambert1_1SG.msg" "lightLinker1.lnk[0].olnk";
connectAttr "defaultLightSet.msg" "lightLinker1.slnk[0].sllk";
connectAttr "lambert1_1SG.msg" "lightLinker1.slnk[0].solk";
connectAttr "defaultLightSet.msg" "lightLinker1.lnk[1].llnk";
connectAttr "blinn1SG.msg" "lightLinker1.lnk[1].olnk";
connectAttr "defaultLightSet.msg" "lightLinker1.slnk[1].sllk";
connectAttr "blinn1SG.msg" "lightLinker1.slnk[1].solk";
connectAttr "defaultLightSet.msg" "lightLinker1.lnk[2].llnk";
connectAttr "blinn2SG.msg" "lightLinker1.lnk[2].olnk";
connectAttr "defaultLightSet.msg" "lightLinker1.slnk[2].sllk";
connectAttr "blinn2SG.msg" "lightLinker1.slnk[2].solk";
connectAttr "defaultLightSet.msg" "lightLinker1.lnk[3].llnk";
connectAttr "blinn3SG.msg" "lightLinker1.lnk[3].olnk";
connectAttr "defaultLightSet.msg" "lightLinker1.slnk[3].sllk";
connectAttr "blinn3SG.msg" "lightLinker1.slnk[3].solk";
connectAttr "defaultLightSet.msg" "lightLinker1.lnk[4].llnk";
connectAttr "blinn4SG.msg" "lightLinker1.lnk[4].olnk";
connectAttr "defaultLightSet.msg" "lightLinker1.slnk[4].sllk";
connectAttr "blinn4SG.msg" "lightLinker1.slnk[4].solk";
connectAttr "defaultLightSet.msg" "lightLinker1.lnk[5].llnk";
connectAttr "blinn5SG.msg" "lightLinker1.lnk[5].olnk";
connectAttr "defaultLightSet.msg" "lightLinker1.slnk[5].sllk";
connectAttr "blinn5SG.msg" "lightLinker1.slnk[5].solk";
connectAttr "defaultLightSet.msg" "lightLinker1.lnk[6].llnk";
connectAttr "blinn6SG.msg" "lightLinker1.lnk[6].olnk";
connectAttr "defaultLightSet.msg" "lightLinker1.slnk[6].sllk";
connectAttr "blinn6SG.msg" "lightLinker1.slnk[6].solk";
connectAttr "defaultLightSet.msg" "lightLinker1.lnk[7].llnk";
connectAttr ":initialShadingGroup.msg" "lightLinker1.lnk[7].olnk";
connectAttr "defaultLightSet.msg" "lightLinker1.slnk[7].sllk";
connectAttr ":initialShadingGroup.msg" "lightLinker1.slnk[7].solk";
connectAttr "lightLinker1.msg" ":lightList1.ln[0]";
connectAttr "place2dTexture_1.o" "file1.uv";
connectAttr "place2dTexture_1.ofs" "file1.fs";
connectAttr "place2dTexture_1.vt1" "file1.vt1";
connectAttr "place2dTexture_1.vt2" "file1.vt2";
connectAttr "place2dTexture_1.vt3" "file1.vt3";
connectAttr "place2dTexture_1.vc1" "file1.vc1";
connectAttr "place2dTexture_1.of" "file1.of";
connectAttr "place2dTexture_1.s" "file1.s";
connectAttr "place2dTexture_1.c" "file1.c";
connectAttr "place2dTexture_1.tf" "file1.tf";
connectAttr "place2dTexture_1.mu" "file1.mu";
connectAttr "place2dTexture_1.mv" "file1.mv";
connectAttr "place2dTexture_1.wu" "file1.wu";
connectAttr "place2dTexture_1.wv" "file1.wv";
connectAttr "place2dTexture_1.n" "file1.n";
connectAttr "place2dTexture_1.r" "file1.ro";
connectAttr "place2dTexture_1.re" "file1.re";
connectAttr "place2dTexture_2.o" "file1_1.uv";
connectAttr "place2dTexture_2.ofs" "file1_1.fs";
connectAttr "place2dTexture_2.vt1" "file1_1.vt1";
connectAttr "place2dTexture_2.vt2" "file1_1.vt2";
connectAttr "place2dTexture_2.vt3" "file1_1.vt3";
connectAttr "place2dTexture_2.vc1" "file1_1.vc1";
connectAttr "place2dTexture_2.of" "file1_1.of";
connectAttr "place2dTexture_2.s" "file1_1.s";
connectAttr "place2dTexture_2.c" "file1_1.c";
connectAttr "place2dTexture_2.tf" "file1_1.tf";
connectAttr "place2dTexture_2.mu" "file1_1.mu";
connectAttr "place2dTexture_2.mv" "file1_1.mv";
connectAttr "place2dTexture_2.wu" "file1_1.wu";
connectAttr "place2dTexture_2.wv" "file1_1.wv";
connectAttr "place2dTexture_2.n" "file1_1.n";
connectAttr "place2dTexture_2.r" "file1_1.ro";
connectAttr "place2dTexture_2.re" "file1_1.re";
connectAttr "place2dTexture_3.o" "file1_2.uv";
connectAttr "place2dTexture_3.ofs" "file1_2.fs";
connectAttr "place2dTexture_3.vt1" "file1_2.vt1";
connectAttr "place2dTexture_3.vt2" "file1_2.vt2";
connectAttr "place2dTexture_3.vt3" "file1_2.vt3";
connectAttr "place2dTexture_3.vc1" "file1_2.vc1";
connectAttr "place2dTexture_3.of" "file1_2.of";
connectAttr "place2dTexture_3.s" "file1_2.s";
connectAttr "place2dTexture_3.c" "file1_2.c";
connectAttr "place2dTexture_3.tf" "file1_2.tf";
connectAttr "place2dTexture_3.mu" "file1_2.mu";
connectAttr "place2dTexture_3.mv" "file1_2.mv";
connectAttr "place2dTexture_3.wu" "file1_2.wu";
connectAttr "place2dTexture_3.wv" "file1_2.wv";
connectAttr "place2dTexture_3.n" "file1_2.n";
connectAttr "place2dTexture_3.r" "file1_2.ro";
connectAttr "place2dTexture_3.re" "file1_2.re";
connectAttr "place2dTexture_4.o" "file1_3.uv";
connectAttr "place2dTexture_4.ofs" "file1_3.fs";
connectAttr "place2dTexture_4.vt1" "file1_3.vt1";
connectAttr "place2dTexture_4.vt2" "file1_3.vt2";
connectAttr "place2dTexture_4.vt3" "file1_3.vt3";
connectAttr "place2dTexture_4.vc1" "file1_3.vc1";
connectAttr "place2dTexture_4.of" "file1_3.of";
connectAttr "place2dTexture_4.s" "file1_3.s";
connectAttr "place2dTexture_4.c" "file1_3.c";
connectAttr "place2dTexture_4.tf" "file1_3.tf";
connectAttr "place2dTexture_4.mu" "file1_3.mu";
connectAttr "place2dTexture_4.mv" "file1_3.mv";
connectAttr "place2dTexture_4.wu" "file1_3.wu";
connectAttr "place2dTexture_4.wv" "file1_3.wv";
connectAttr "place2dTexture_4.n" "file1_3.n";
connectAttr "place2dTexture_4.r" "file1_3.ro";
connectAttr "place2dTexture_4.re" "file1_3.re";
connectAttr "place2dTexture_5.o" "file1_4.uv";
connectAttr "place2dTexture_5.ofs" "file1_4.fs";
connectAttr "place2dTexture_5.vt1" "file1_4.vt1";
connectAttr "place2dTexture_5.vt2" "file1_4.vt2";
connectAttr "place2dTexture_5.vt3" "file1_4.vt3";
connectAttr "place2dTexture_5.vc1" "file1_4.vc1";
connectAttr "place2dTexture_5.of" "file1_4.of";
connectAttr "place2dTexture_5.s" "file1_4.s";
connectAttr "place2dTexture_5.c" "file1_4.c";
connectAttr "place2dTexture_5.tf" "file1_4.tf";
connectAttr "place2dTexture_5.mu" "file1_4.mu";
connectAttr "place2dTexture_5.mv" "file1_4.mv";
connectAttr "place2dTexture_5.wu" "file1_4.wu";
connectAttr "place2dTexture_5.wv" "file1_4.wv";
connectAttr "place2dTexture_5.n" "file1_4.n";
connectAttr "place2dTexture_5.r" "file1_4.ro";
connectAttr "place2dTexture_5.re" "file1_4.re";
connectAttr "place2dTexture_6.o" "file1_5.uv";
connectAttr "place2dTexture_6.ofs" "file1_5.fs";
connectAttr "place2dTexture_6.vt1" "file1_5.vt1";
connectAttr "place2dTexture_6.vt2" "file1_5.vt2";
connectAttr "place2dTexture_6.vt3" "file1_5.vt3";
connectAttr "place2dTexture_6.vc1" "file1_5.vc1";
connectAttr "place2dTexture_6.of" "file1_5.of";
connectAttr "place2dTexture_6.s" "file1_5.s";
connectAttr "place2dTexture_6.c" "file1_5.c";
connectAttr "place2dTexture_6.tf" "file1_5.tf";
connectAttr "place2dTexture_6.mu" "file1_5.mu";
connectAttr "place2dTexture_6.mv" "file1_5.mv";
connectAttr "place2dTexture_6.wu" "file1_5.wu";
connectAttr "place2dTexture_6.wv" "file1_5.wv";
connectAttr "place2dTexture_6.n" "file1_5.n";
connectAttr "place2dTexture_6.r" "file1_5.ro";
connectAttr "place2dTexture_6.re" "file1_5.re";
connectAttr "place2dTexture_7.o" "file4.uv";
connectAttr "place2dTexture_7.ofs" "file4.fs";
connectAttr "place2dTexture_7.vt1" "file4.vt1";
connectAttr "place2dTexture_7.vt2" "file4.vt2";
connectAttr "place2dTexture_7.vt3" "file4.vt3";
connectAttr "place2dTexture_7.vc1" "file4.vc1";
connectAttr "place2dTexture_7.of" "file4.of";
connectAttr "place2dTexture_7.s" "file4.s";
connectAttr "place2dTexture_7.c" "file4.c";
connectAttr "place2dTexture_7.tf" "file4.tf";
connectAttr "place2dTexture_7.mu" "file4.mu";
connectAttr "place2dTexture_7.mv" "file4.mv";
connectAttr "place2dTexture_7.wu" "file4.wu";
connectAttr "place2dTexture_7.wv" "file4.wv";
connectAttr "place2dTexture_7.n" "file4.n";
connectAttr "place2dTexture_7.r" "file4.ro";
connectAttr "place2dTexture_7.re" "file4.re";
connectAttr "place2dTexture_8.o" "file4_1.uv";
connectAttr "place2dTexture_8.ofs" "file4_1.fs";
connectAttr "place2dTexture_8.vt1" "file4_1.vt1";
connectAttr "place2dTexture_8.vt2" "file4_1.vt2";
connectAttr "place2dTexture_8.vt3" "file4_1.vt3";
connectAttr "place2dTexture_8.vc1" "file4_1.vc1";
connectAttr "place2dTexture_8.of" "file4_1.of";
connectAttr "place2dTexture_8.s" "file4_1.s";
connectAttr "place2dTexture_8.c" "file4_1.c";
connectAttr "place2dTexture_8.tf" "file4_1.tf";
connectAttr "place2dTexture_8.mu" "file4_1.mu";
connectAttr "place2dTexture_8.mv" "file4_1.mv";
connectAttr "place2dTexture_8.wu" "file4_1.wu";
connectAttr "place2dTexture_8.wv" "file4_1.wv";
connectAttr "place2dTexture_8.n" "file4_1.n";
connectAttr "place2dTexture_8.r" "file4_1.ro";
connectAttr "place2dTexture_8.re" "file4_1.re";
connectAttr "place2dTexture_9.o" "file4_2.uv";
connectAttr "place2dTexture_9.ofs" "file4_2.fs";
connectAttr "place2dTexture_9.vt1" "file4_2.vt1";
connectAttr "place2dTexture_9.vt2" "file4_2.vt2";
connectAttr "place2dTexture_9.vt3" "file4_2.vt3";
connectAttr "place2dTexture_9.vc1" "file4_2.vc1";
connectAttr "place2dTexture_9.of" "file4_2.of";
connectAttr "place2dTexture_9.s" "file4_2.s";
connectAttr "place2dTexture_9.c" "file4_2.c";
connectAttr "place2dTexture_9.tf" "file4_2.tf";
connectAttr "place2dTexture_9.mu" "file4_2.mu";
connectAttr "place2dTexture_9.mv" "file4_2.mv";
connectAttr "place2dTexture_9.wu" "file4_2.wu";
connectAttr "place2dTexture_9.wv" "file4_2.wv";
connectAttr "place2dTexture_9.n" "file4_2.n";
connectAttr "place2dTexture_9.r" "file4_2.ro";
connectAttr "place2dTexture_9.re" "file4_2.re";
connectAttr "place2dTexture_10.o" "file4_3.uv";
connectAttr "place2dTexture_10.ofs" "file4_3.fs";
connectAttr "place2dTexture_10.vt1" "file4_3.vt1";
connectAttr "place2dTexture_10.vt2" "file4_3.vt2";
connectAttr "place2dTexture_10.vt3" "file4_3.vt3";
connectAttr "place2dTexture_10.vc1" "file4_3.vc1";
connectAttr "place2dTexture_10.of" "file4_3.of";
connectAttr "place2dTexture_10.s" "file4_3.s";
connectAttr "place2dTexture_10.c" "file4_3.c";
connectAttr "place2dTexture_10.tf" "file4_3.tf";
connectAttr "place2dTexture_10.mu" "file4_3.mu";
connectAttr "place2dTexture_10.mv" "file4_3.mv";
connectAttr "place2dTexture_10.wu" "file4_3.wu";
connectAttr "place2dTexture_10.wv" "file4_3.wv";
connectAttr "place2dTexture_10.n" "file4_3.n";
connectAttr "place2dTexture_10.r" "file4_3.ro";
connectAttr "place2dTexture_10.re" "file4_3.re";
connectAttr "place2dTexture_11.o" "file4_4.uv";
connectAttr "place2dTexture_11.ofs" "file4_4.fs";
connectAttr "place2dTexture_11.vt1" "file4_4.vt1";
connectAttr "place2dTexture_11.vt2" "file4_4.vt2";
connectAttr "place2dTexture_11.vt3" "file4_4.vt3";
connectAttr "place2dTexture_11.vc1" "file4_4.vc1";
connectAttr "place2dTexture_11.of" "file4_4.of";
connectAttr "place2dTexture_11.s" "file4_4.s";
connectAttr "place2dTexture_11.c" "file4_4.c";
connectAttr "place2dTexture_11.tf" "file4_4.tf";
connectAttr "place2dTexture_11.mu" "file4_4.mu";
connectAttr "place2dTexture_11.mv" "file4_4.mv";
connectAttr "place2dTexture_11.wu" "file4_4.wu";
connectAttr "place2dTexture_11.wv" "file4_4.wv";
connectAttr "place2dTexture_11.n" "file4_4.n";
connectAttr "place2dTexture_11.r" "file4_4.ro";
connectAttr "place2dTexture_11.re" "file4_4.re";
connectAttr "place2dTexture_12.o" "file4_5.uv";
connectAttr "place2dTexture_12.ofs" "file4_5.fs";
connectAttr "place2dTexture_12.vt1" "file4_5.vt1";
connectAttr "place2dTexture_12.vt2" "file4_5.vt2";
connectAttr "place2dTexture_12.vt3" "file4_5.vt3";
connectAttr "place2dTexture_12.vc1" "file4_5.vc1";
connectAttr "place2dTexture_12.of" "file4_5.of";
connectAttr "place2dTexture_12.s" "file4_5.s";
connectAttr "place2dTexture_12.c" "file4_5.c";
connectAttr "place2dTexture_12.tf" "file4_5.tf";
connectAttr "place2dTexture_12.mu" "file4_5.mu";
connectAttr "place2dTexture_12.mv" "file4_5.mv";
connectAttr "place2dTexture_12.wu" "file4_5.wu";
connectAttr "place2dTexture_12.wv" "file4_5.wv";
connectAttr "place2dTexture_12.n" "file4_5.n";
connectAttr "place2dTexture_12.r" "file4_5.ro";
connectAttr "place2dTexture_12.re" "file4_5.re";
connectAttr "file1.msg" ":defaultTextureList1.tx" -na;
connectAttr "file1.oc" "blinn1.c";
connectAttr "file1.msg" "materialInfo_1.t" -na;
connectAttr "file1_1.msg" ":defaultTextureList1.tx" -na;
connectAttr "file1_1.ot" "blinn1.it";
connectAttr "file1_1.msg" "materialInfo_1.t" -na;
connectAttr "file1_2.msg" ":defaultTextureList1.tx" -na;
connectAttr "file1_2.oc" "blinn2.c";
connectAttr "file1_2.msg" "materialInfo_2.t" -na;
connectAttr "file1_3.msg" ":defaultTextureList1.tx" -na;
connectAttr "file1_3.ot" "blinn2.it";
connectAttr "file1_3.msg" "materialInfo_2.t" -na;
connectAttr "file1_4.msg" ":defaultTextureList1.tx" -na;
connectAttr "file1_4.oc" "blinn3.c";
connectAttr "file1_4.msg" "materialInfo_3.t" -na;
connectAttr "file1_5.msg" ":defaultTextureList1.tx" -na;
connectAttr "file1_5.ot" "blinn3.it";
connectAttr "file1_5.msg" "materialInfo_3.t" -na;
connectAttr "file4.msg" ":defaultTextureList1.tx" -na;
connectAttr "file4.oc" "blinn4.c";
connectAttr "file4.msg" "materialInfo_4.t" -na;
connectAttr "file4_1.msg" ":defaultTextureList1.tx" -na;
connectAttr "file4_1.ot" "blinn4.it";
connectAttr "file4_1.msg" "materialInfo_4.t" -na;
connectAttr "file4_2.msg" ":defaultTextureList1.tx" -na;
connectAttr "file4_2.oc" "blinn5.c";
connectAttr "file4_2.msg" "materialInfo_5.t" -na;
connectAttr "file4_3.msg" ":defaultTextureList1.tx" -na;
connectAttr "file4_3.ot" "blinn5.it";
connectAttr "file4_3.msg" "materialInfo_5.t" -na;
connectAttr "file4_4.msg" ":defaultTextureList1.tx" -na;
connectAttr "file4_4.oc" "blinn6.c";
connectAttr "file4_4.msg" "materialInfo_6.t" -na;
connectAttr "file4_5.msg" ":defaultTextureList1.tx" -na;
connectAttr "file4_5.ot" "blinn6.it";
connectAttr "file4_5.msg" "materialInfo_6.t" -na;
