<?xml version="1.0" encoding="utf-8"?>
<COLLADA xmlns="http://www.collada.org/2005/11/COLLADASchema" version="1.4.1">
  <asset><contributor><author></author><authoring_tool>FBX COLLADA exporter</authoring_tool><comments></comments></contributor><created>2018-01-24T00:11:14Z</created><keywords></keywords><modified>2018-01-24T00:11:14Z</modified><revision></revision><subject></subject><title></title><unit meter="0.010000" name="centimeter"></unit><up_axis>Y_UP</up_axis></asset>
  <library_images>
    <image id="file2-image" name="file2"><init_from>file://C:\Users\Nocturne\Documents\maya\projects\default\scenes\mansion_wallpaper\mansion_wallpaper_panneling.dds</init_from></image>
    <image id="file1-image" name="file1"><init_from>file://C:\Users\Nocturne\Documents\maya\projects\default\scenes\mansion_wallpaper\mansion_wallpaper_3.dds</init_from></image>
    <image id="file10-image" name="file10"><init_from>file://C:\Users\Nocturne\Documents\maya\projects\default\scenes\mansion_wall_wood\elevator_lamp_glass.dds</init_from></image>
  </library_images>
  <library_materials>
    <material id="blinn2" name="blinn2">
      <instance_effect url="#blinn2-fx"/>
    </material>
    <material id="blinn3" name="blinn3">
      <instance_effect url="#blinn3-fx"/>
    </material>
    <material id="blinn1" name="blinn1">
      <instance_effect url="#blinn1-fx"/>
    </material>
    <material id="blinn10" name="blinn10">
      <instance_effect url="#blinn10-fx"/>
    </material>
    <material id="blinn7" name="blinn7">
      <instance_effect url="#blinn7-fx"/>
    </material>
    <material id="blinn9" name="blinn9">
      <instance_effect url="#blinn9-fx"/>
    </material>
  </library_materials>
  <library_effects>
    <effect id="blinn2-fx" name="blinn2">
      <profile_COMMON>
        <technique sid="standard">
          <phong>
            <emission>
              <color sid="emission">0.000000  0.000000 0.000000 1.000000</color>
            </emission>
            <ambient>
              <color sid="ambient">0.000000  0.000000 0.000000 1.000000</color>
            </ambient>
            <diffuse>
              <texture texture="file2-image" texcoord="CHANNEL0">
                <extra>
                  <technique profile="MAYA">
                    <wrapU sid="wrapU0">TRUE</wrapU>
                    <wrapV sid="wrapV0">TRUE</wrapV>
                    <blend_mode>NONE</blend_mode>
                  </technique>
                </extra>
              </texture>
            </diffuse>
            <specular>
              <color sid="specular">0.500000  0.500000 0.500000 1.000000</color>
            </specular>
            <shininess>
              <float sid="shininess">2.000000</float>
            </shininess>
            <reflective>
              <color sid="reflective">0.000000  0.000000 0.000000 1.000000</color>
            </reflective>
            <reflectivity>
              <float sid="reflectivity">0.500000</float>
            </reflectivity>
            <transparent opaque="RGB_ZERO">
              <texture texture="file2-image" texcoord="CHANNEL0">
                <extra>
                  <technique profile="MAYA">
                    <wrapU sid="wrapU0">TRUE</wrapU>
                    <wrapV sid="wrapV0">TRUE</wrapV>
                    <blend_mode>NONE</blend_mode>
                  </technique>
                </extra>
              </texture>
            </transparent>
            <transparency>
              <float sid="transparency">1.000000</float>
            </transparency>
          </phong>
        </technique>
      </profile_COMMON>
    </effect>
    <effect id="blinn3-fx" name="blinn3">
      <profile_COMMON>
        <technique sid="standard">
          <phong>
            <emission>
              <color sid="emission">0.000000  0.000000 0.000000 1.000000</color>
            </emission>
            <ambient>
              <color sid="ambient">0.000000  0.000000 0.000000 1.000000</color>
            </ambient>
            <diffuse>
              <texture texture="file2-image" texcoord="CHANNEL0">
                <extra>
                  <technique profile="MAYA">
                    <wrapU sid="wrapU0">TRUE</wrapU>
                    <wrapV sid="wrapV0">TRUE</wrapV>
                    <blend_mode>NONE</blend_mode>
                  </technique>
                </extra>
              </texture>
            </diffuse>
            <specular>
              <color sid="specular">0.500000  0.500000 0.500000 1.000000</color>
            </specular>
            <shininess>
              <float sid="shininess">2.000000</float>
            </shininess>
            <reflective>
              <color sid="reflective">0.000000  0.000000 0.000000 1.000000</color>
            </reflective>
            <reflectivity>
              <float sid="reflectivity">0.500000</float>
            </reflectivity>
            <transparent opaque="RGB_ZERO">
              <texture texture="file2-image" texcoord="CHANNEL0">
                <extra>
                  <technique profile="MAYA">
                    <wrapU sid="wrapU0">TRUE</wrapU>
                    <wrapV sid="wrapV0">TRUE</wrapV>
                    <blend_mode>NONE</blend_mode>
                  </technique>
                </extra>
              </texture>
            </transparent>
            <transparency>
              <float sid="transparency">1.000000</float>
            </transparency>
          </phong>
        </technique>
      </profile_COMMON>
    </effect>
    <effect id="blinn1-fx" name="blinn1">
      <profile_COMMON>
        <technique sid="standard">
          <phong>
            <emission>
              <color sid="emission">0.000000  0.000000 0.000000 1.000000</color>
            </emission>
            <ambient>
              <color sid="ambient">0.000000  0.000000 0.000000 1.000000</color>
            </ambient>
            <diffuse>
              <texture texture="file1-image" texcoord="CHANNEL0">
                <extra>
                  <technique profile="MAYA">
                    <wrapU sid="wrapU0">TRUE</wrapU>
                    <wrapV sid="wrapV0">TRUE</wrapV>
                    <blend_mode>NONE</blend_mode>
                  </technique>
                </extra>
              </texture>
            </diffuse>
            <specular>
              <color sid="specular">0.500000  0.500000 0.500000 1.000000</color>
            </specular>
            <shininess>
              <float sid="shininess">2.000000</float>
            </shininess>
            <reflective>
              <color sid="reflective">0.000000  0.000000 0.000000 1.000000</color>
            </reflective>
            <reflectivity>
              <float sid="reflectivity">0.500000</float>
            </reflectivity>
            <transparent opaque="RGB_ZERO">
              <texture texture="file1-image" texcoord="CHANNEL0">
                <extra>
                  <technique profile="MAYA">
                    <wrapU sid="wrapU0">TRUE</wrapU>
                    <wrapV sid="wrapV0">TRUE</wrapV>
                    <blend_mode>NONE</blend_mode>
                  </technique>
                </extra>
              </texture>
            </transparent>
            <transparency>
              <float sid="transparency">1.000000</float>
            </transparency>
          </phong>
        </technique>
      </profile_COMMON>
    </effect>
    <effect id="blinn10-fx" name="blinn10">
      <profile_COMMON>
        <technique sid="standard">
          <phong>
            <emission>
              <color sid="emission">0.000000  0.000000 0.000000 1.000000</color>
            </emission>
            <ambient>
              <color sid="ambient">0.000000  0.000000 0.000000 1.000000</color>
            </ambient>
            <diffuse>
              <texture texture="file10-image" texcoord="CHANNEL0">
                <extra>
                  <technique profile="MAYA">
                    <wrapU sid="wrapU0">TRUE</wrapU>
                    <wrapV sid="wrapV0">TRUE</wrapV>
                    <blend_mode>NONE</blend_mode>
                  </technique>
                </extra>
              </texture>
            </diffuse>
            <specular>
              <color sid="specular">0.500000  0.500000 0.500000 1.000000</color>
            </specular>
            <shininess>
              <float sid="shininess">2.000000</float>
            </shininess>
            <reflective>
              <color sid="reflective">0.000000  0.000000 0.000000 1.000000</color>
            </reflective>
            <reflectivity>
              <float sid="reflectivity">0.500000</float>
            </reflectivity>
            <transparent opaque="RGB_ZERO">
              <texture texture="file10-image" texcoord="CHANNEL0">
                <extra>
                  <technique profile="MAYA">
                    <wrapU sid="wrapU0">TRUE</wrapU>
                    <wrapV sid="wrapV0">TRUE</wrapV>
                    <blend_mode>NONE</blend_mode>
                  </technique>
                </extra>
              </texture>
            </transparent>
            <transparency>
              <float sid="transparency">1.000000</float>
            </transparency>
          </phong>
        </technique>
      </profile_COMMON>
    </effect>
    <effect id="blinn7-fx" name="blinn7">
      <profile_COMMON>
        <technique sid="standard">
          <phong>
            <emission>
              <color sid="emission">0.000000  0.000000 0.000000 1.000000</color>
            </emission>
            <ambient>
              <color sid="ambient">0.000000  0.000000 0.000000 1.000000</color>
            </ambient>
            <diffuse>
              <texture texture="file2-image" texcoord="CHANNEL0">
                <extra>
                  <technique profile="MAYA">
                    <wrapU sid="wrapU0">TRUE</wrapU>
                    <wrapV sid="wrapV0">TRUE</wrapV>
                    <blend_mode>NONE</blend_mode>
                  </technique>
                </extra>
              </texture>
            </diffuse>
            <specular>
              <color sid="specular">0.500000  0.500000 0.500000 1.000000</color>
            </specular>
            <shininess>
              <float sid="shininess">2.000000</float>
            </shininess>
            <reflective>
              <color sid="reflective">0.000000  0.000000 0.000000 1.000000</color>
            </reflective>
            <reflectivity>
              <float sid="reflectivity">0.500000</float>
            </reflectivity>
            <transparent opaque="RGB_ZERO">
              <color sid="transparent">0.000000  0.000000 0.000000 1.000000</color>
            </transparent>
            <transparency>
              <float sid="transparency">1.000000</float>
            </transparency>
          </phong>
        </technique>
      </profile_COMMON>
    </effect>
    <effect id="blinn9-fx" name="blinn9">
      <profile_COMMON>
        <technique sid="standard">
          <phong>
            <emission>
              <color sid="emission">0.000000  0.000000 0.000000 1.000000</color>
            </emission>
            <ambient>
              <color sid="ambient">0.000000  0.000000 0.000000 1.000000</color>
            </ambient>
            <diffuse>
              <texture texture="file2-image" texcoord="CHANNEL0">
                <extra>
                  <technique profile="MAYA">
                    <wrapU sid="wrapU0">TRUE</wrapU>
                    <wrapV sid="wrapV0">TRUE</wrapV>
                    <blend_mode>NONE</blend_mode>
                  </technique>
                </extra>
              </texture>
            </diffuse>
            <specular>
              <color sid="specular">0.500000  0.500000 0.500000 1.000000</color>
            </specular>
            <shininess>
              <float sid="shininess">2.000000</float>
            </shininess>
            <reflective>
              <color sid="reflective">0.000000  0.000000 0.000000 1.000000</color>
            </reflective>
            <reflectivity>
              <float sid="reflectivity">0.500000</float>
            </reflectivity>
            <transparent opaque="RGB_ZERO">
              <color sid="transparent">0.000000  0.000000 0.000000 1.000000</color>
            </transparent>
            <transparency>
              <float sid="transparency">1.000000</float>
            </transparency>
          </phong>
        </technique>
      </profile_COMMON>
    </effect>
  </library_effects>
  <library_geometries>
    <geometry id="pCube1-lib" name="pCube1Mesh">
      <mesh>
        <source id="pCube1-POSITION">
          <float_array id="pCube1-POSITION-array" count="48">
-0.500000 -0.500000 0.500000
0.500000 -0.500000 0.500000
-0.500000 0.750000 0.500000
0.500000 0.750000 0.500000
-0.500000 0.794204 0.375000
0.500000 0.794204 0.375000
-0.500000 0.636669 0.500000
0.500000 0.636669 0.500000
-0.500000 0.611494 0.468912
0.500000 0.611494 0.468912
-0.500000 -0.388764 0.500000
0.500000 -0.388764 0.500000
-0.500000 -0.334291 0.468912
0.500000 -0.334291 0.468912
-0.500000 0.786829 0.443985
0.500000 0.786829 0.443985
</float_array>
          <technique_common>
            <accessor source="#pCube1-POSITION-array" count="16" stride="3">
              <param name="X" type="float"/>
              <param name="Y" type="float"/>
              <param name="Z" type="float"/>
            </accessor>
          </technique_common>
        </source>
        <source id="pCube1-Normal0">
          <float_array id="pCube1-Normal0-array" count="126">
0.000000 0.000000 1.000000
0.000000 -0.283447 0.958988
0.000000 0.000000 1.000000
0.000000 0.000000 1.000000
0.000000 -0.283447 0.958988
0.000000 -0.566893 0.823791
0.000000 0.994335 0.106296
0.000000 0.965479 0.260481
0.000000 0.994335 0.106296
0.000000 0.994335 0.106296
0.000000 0.965479 0.260481
0.000000 0.911207 0.411949
0.000000 -0.283447 0.958988
0.000000 -0.566893 0.823791
0.000000 -0.566893 0.823791
0.000000 -0.566893 0.823791
0.000000 -0.566893 0.823791
0.000000 -0.283447 0.958988
0.000000 -0.566893 0.823791
0.000000 0.170273 0.985397
0.000000 -0.283447 0.958988
0.000000 -0.283447 0.958988
0.000000 0.170273 0.985397
0.000000 0.340546 0.940228
0.000000 0.340546 0.940228
0.000000 0.000000 1.000000
0.000000 0.170273 0.985397
0.000000 0.170273 0.985397
0.000000 0.000000 1.000000
0.000000 0.000000 1.000000
0.000000 0.170273 0.985397
0.000000 0.340546 0.940228
0.000000 0.340546 0.940228
0.000000 0.340546 0.940228
0.000000 0.340546 0.940228
0.000000 0.170273 0.985397
0.000000 0.965479 0.260481
0.000000 0.835576 0.549374
0.000000 0.911207 0.411949
0.000000 0.911207 0.411949
0.000000 0.835576 0.549374
0.000000 0.835576 0.549374
</float_array>
          <technique_common>
            <accessor source="#pCube1-Normal0-array" count="42" stride="3">
              <param name="X" type="float"/>
              <param name="Y" type="float"/>
              <param name="Z" type="float"/>
            </accessor>
          </technique_common>
        </source>
        <source id="pCube1-UV0">
          <float_array id="pCube1-UV0-array" count="36">
0.001728 0.316425
0.996688 0.316425
0.994021 0.345022
0.004396 0.345022
0.005947 0.000000
0.996688 0.000000
0.996688 0.346010
0.005947 0.346010
0.005947 0.315584
0.996688 0.315584
0.005947 0.308595
0.996688 0.308595
0.005947 0.030884
0.996688 0.030884
0.005947 0.046007
0.996688 0.046007
0.003106 0.331831
0.995311 0.331831
</float_array>
          <technique_common>
            <accessor source="#pCube1-UV0-array" count="18" stride="2">
              <param name="S" type="float"/>
              <param name="T" type="float"/>
            </accessor>
          </technique_common>
        </source>
        <vertices id="pCube1-VERTEX">
          <input semantic="POSITION" source="#pCube1-POSITION"/>
        </vertices>
        <triangles count="14" material="blinn2"><input semantic="VERTEX" offset="0" source="#pCube1-VERTEX"/><input semantic="NORMAL" offset="1" source="#pCube1-Normal0"/><input semantic="TEXCOORD" offset="2" set="0" source="#pCube1-UV0"/><p> 2 0 7 6 1 8 3 2 6 3 3 6 6 4 8 7 5 9 4 6 3 14 7 16 5 8 2 5 9 2 14 10 16 15 11 17 6 12 8 8 13 10 7 14 9 7 15 9 8 16 10 9 17 11 8 18 10 12 19 14 9 20 11 9 21 11 12 22 14 13 23 15 10 24 12 0 25 4 11 26 13 11 27 13 0 28 4 1 29 5 12 30 14 10 31 12 13 32 15 13 33 15 10 34 12 11 35 13 14 36 16 2 37 0 15 38 17 15 39 17 2 40 0 3 41 1</p></triangles>
      </mesh>
    </geometry>
    <geometry id="pPlane2-lib" name="pPlane2Mesh">
      <mesh>
        <source id="pPlane2-POSITION">
          <float_array id="pPlane2-POSITION-array" count="24">
-0.500000 0.000000 0.250000
0.500000 0.000000 0.250000
-0.500000 0.096366 0.013867
0.500000 0.096366 0.013867
-0.500000 0.133675 -0.218007
0.500000 0.133675 -0.218007
-0.500000 0.250000 -0.500000
0.500000 0.250000 -0.500000
</float_array>
          <technique_common>
            <accessor source="#pPlane2-POSITION-array" count="8" stride="3">
              <param name="X" type="float"/>
              <param name="Y" type="float"/>
              <param name="Z" type="float"/>
            </accessor>
          </technique_common>
        </source>
        <source id="pPlane2-Normal0">
          <float_array id="pPlane2-Normal0-array" count="24">
0.000000 0.925868 0.377848
0.000000 0.925868 0.377848
0.000000 0.972429 0.233199
0.000000 0.951832 0.306619
0.000000 0.951056 0.309020
0.000000 0.972137 0.234415
0.000000 0.924435 0.381340
0.000000 0.924435 0.381340
</float_array>
          <technique_common>
            <accessor source="#pPlane2-Normal0-array" count="8" stride="3">
              <param name="X" type="float"/>
              <param name="Y" type="float"/>
              <param name="Z" type="float"/>
            </accessor>
          </technique_common>
        </source>
        <source id="pPlane2-UV0">
          <float_array id="pPlane2-UV0-array" count="16">
0.000000 0.887599
1.000000 0.887599
1.000000 0.925530
0.000000 0.925530
1.000000 0.952531
0.000000 0.952531
1.000000 0.997629
0.000000 0.997629
</float_array>
          <technique_common>
            <accessor source="#pPlane2-UV0-array" count="8" stride="2">
              <param name="S" type="float"/>
              <param name="T" type="float"/>
            </accessor>
          </technique_common>
        </source>
        <vertices id="pPlane2-VERTEX">
          <input semantic="POSITION" source="#pPlane2-POSITION"/>
          <input semantic="NORMAL" source="#pPlane2-Normal0"/>
        </vertices>
        <triangles count="6" material="blinn3"><input semantic="VERTEX" offset="0" source="#pPlane2-VERTEX"/><input semantic="TEXCOORD" offset="1" set="0" source="#pPlane2-UV0"/><p> 2 3 0 0 3 2 3 2 0 0 1 1 4 5 2 3 5 4 5 4 2 3 3 2 6 7 4 5 7 6 7 6 4 5 5 4</p></triangles>
      </mesh>
    </geometry>
    <geometry id="polySurface5-lib" name="polySurface5Mesh">
      <mesh>
        <source id="polySurface5-POSITION">
          <float_array id="polySurface5-POSITION-array" count="57">
0.976118 1.283189 0.000000
0.976118 2.637991 0.000000
0.813139 3.190559 0.000000
0.650160 3.540465 0.000000
0.487181 3.763067 0.000000
0.324202 3.947289 0.000000
0.161223 4.096122 0.000000
-0.001756 4.216811 0.000000
-0.164735 4.096122 0.000000
-0.327714 3.947289 0.000000
-0.490693 3.763067 0.000000
-0.653672 3.540465 0.000000
-0.816651 3.190559 0.000000
-0.979630 2.637991 0.000000
-0.979630 1.283189 0.000000
-2.000000 1.250000 0.000000
-2.000000 5.250000 0.000000
2.000000 5.250000 0.000000
2.000000 1.250000 0.000000
</float_array>
          <technique_common>
            <accessor source="#polySurface5-POSITION-array" count="19" stride="3">
              <param name="X" type="float"/>
              <param name="Y" type="float"/>
              <param name="Z" type="float"/>
            </accessor>
          </technique_common>
        </source>
        <source id="polySurface5-Normal0">
          <float_array id="polySurface5-Normal0-array" count="57">
0.000000 0.000000 1.000000
0.000000 0.000000 1.000000
0.000000 0.000000 1.000000
0.000000 0.000000 1.000000
0.000000 0.000000 1.000000
0.000000 0.000000 1.000000
0.000000 0.000000 1.000000
0.000000 0.000000 1.000000
0.000000 0.000000 1.000000
0.000000 0.000000 1.000000
0.000000 0.000000 1.000000
0.000000 0.000000 1.000000
0.000000 0.000000 1.000000
0.000000 0.000000 1.000000
0.000000 0.000000 1.000000
0.000000 0.000000 1.000000
0.000000 0.000000 1.000000
0.000000 0.000000 1.000000
0.000000 0.000000 1.000000
</float_array>
          <technique_common>
            <accessor source="#polySurface5-Normal0-array" count="19" stride="3">
              <param name="X" type="float"/>
              <param name="Y" type="float"/>
              <param name="Z" type="float"/>
            </accessor>
          </technique_common>
        </source>
        <source id="polySurface5-UV0">
          <float_array id="polySurface5-UV0-array" count="38">
0.744030 0.008297
0.744030 0.346998
0.703285 0.485140
0.662540 0.572616
0.621795 0.628267
0.581051 0.674322
0.540306 0.711531
0.499561 0.741703
0.458816 0.711531
0.418072 0.674322
0.377327 0.628267
0.336582 0.572616
0.295837 0.485140
0.255092 0.346998
0.255092 0.008297
0.000000 0.000000
0.000000 1.000000
1.000000 1.000000
1.000000 0.000000
</float_array>
          <technique_common>
            <accessor source="#polySurface5-UV0-array" count="19" stride="2">
              <param name="S" type="float"/>
              <param name="T" type="float"/>
            </accessor>
          </technique_common>
        </source>
        <vertices id="polySurface5-VERTEX">
          <input semantic="POSITION" source="#polySurface5-POSITION"/>
          <input semantic="NORMAL" source="#polySurface5-Normal0"/>
        </vertices>
        <triangles count="17" material="blinn1"><input semantic="VERTEX" offset="0" source="#polySurface5-VERTEX"/><input semantic="TEXCOORD" offset="1" set="0" source="#polySurface5-UV0"/><p> 18 18 17 17 0 0 0 0 17 17 1 1 1 1 17 17 2 2 2 2 17 17 3 3 3 3 17 17 4 4 15 15 14 14 16 16 14 14 13 13 16 16 13 13 12 12 16 16 12 12 11 11 16 16 11 11 10 10 16 16 10 10 9 9 16 16 4 4 17 17 5 5 9 9 8 8 16 16 5 5 17 17 6 6 8 8 7 7 16 16 6 6 17 17 7 7 17 17 16 16 7 7</p></triangles>
      </mesh>
    </geometry>
    <geometry id="pCube10-lib" name="pCube10Mesh">
      <mesh>
        <source id="pCube10-POSITION">
          <float_array id="pCube10-POSITION-array" count="78">
-0.500000 -0.038181 -0.500000
-0.416667 0.150176 -0.500000
-0.333333 0.269450 -0.500000
-0.250000 0.345330 -0.500000
-0.166667 0.408127 -0.500000
-0.083333 0.458860 -0.500000
0.000000 0.500000 -0.500000
0.083333 0.458860 -0.500000
0.166667 0.408127 -0.500000
0.250000 0.345330 -0.500000
0.333333 0.269450 -0.500000
0.416667 0.150176 -0.500000
0.500000 -0.038181 -0.500000
-0.500000 -0.500000 -0.500000
-0.416667 -0.500000 -0.500000
-0.333333 -0.500000 -0.500000
-0.250000 -0.500000 -0.500000
-0.166667 -0.500000 -0.500000
-0.083333 -0.500000 -0.500000
0.000000 -0.500000 -0.500000
0.083333 -0.500000 -0.500000
0.166667 -0.500000 -0.500000
0.250000 -0.500000 -0.500000
0.333333 -0.500000 -0.500000
0.416667 -0.500000 -0.500000
0.500000 -0.500000 -0.500000
</float_array>
          <technique_common>
            <accessor source="#pCube10-POSITION-array" count="26" stride="3">
              <param name="X" type="float"/>
              <param name="Y" type="float"/>
              <param name="Z" type="float"/>
            </accessor>
          </technique_common>
        </source>
        <source id="pCube10-Normal0">
          <float_array id="pCube10-Normal0-array" count="78">
0.000000 0.000000 1.000000
0.000000 0.000000 1.000000
0.000000 0.000000 1.000000
0.000000 0.000000 1.000000
0.000000 0.000000 1.000000
0.000000 0.000000 1.000000
0.000000 0.000000 1.000000
0.000000 0.000000 1.000000
0.000000 0.000000 1.000000
0.000000 0.000000 1.000000
0.000000 0.000000 1.000000
0.000000 0.000000 1.000000
0.000000 0.000000 1.000000
0.000000 0.000000 1.000000
0.000000 0.000000 1.000000
0.000000 0.000000 1.000000
0.000000 0.000000 1.000000
0.000000 0.000000 1.000000
0.000000 0.000000 1.000000
0.000000 0.000000 1.000000
0.000000 0.000000 1.000000
0.000000 0.000000 1.000000
0.000000 0.000000 1.000000
0.000000 0.000000 1.000000
0.000000 0.000000 1.000000
0.000000 0.000000 1.000000
</float_array>
          <technique_common>
            <accessor source="#pCube10-Normal0-array" count="26" stride="3">
              <param name="X" type="float"/>
              <param name="Y" type="float"/>
              <param name="Z" type="float"/>
            </accessor>
          </technique_common>
        </source>
        <source id="pCube10-UV0">
          <float_array id="pCube10-UV0-array" count="52">
-0.584756 0.521522
-0.446844 0.989101
-0.446844 -0.624903
-0.584756 -0.624903
-0.308932 1.285190
-0.308932 -0.624903
-0.171021 1.473554
-0.171021 -0.624903
-0.033109 1.629442
-0.033109 -0.624903
0.104803 1.755383
0.104803 -0.624903
0.242715 1.857509
0.242715 -0.624903
0.380627 1.755383
0.380627 -0.624903
0.518538 1.629442
0.518538 -0.624903
0.656450 1.473554
0.656450 -0.624903
0.794362 1.285190
0.794362 -0.624903
0.932274 0.989101
0.932274 -0.624903
1.070185 0.521522
1.070185 -0.624903
</float_array>
          <technique_common>
            <accessor source="#pCube10-UV0-array" count="26" stride="2">
              <param name="S" type="float"/>
              <param name="T" type="float"/>
            </accessor>
          </technique_common>
        </source>
        <vertices id="pCube10-VERTEX">
          <input semantic="POSITION" source="#pCube10-POSITION"/>
          <input semantic="NORMAL" source="#pCube10-Normal0"/>
        </vertices>
        <triangles count="24" material="blinn10"><input semantic="VERTEX" offset="0" source="#pCube10-VERTEX"/><input semantic="TEXCOORD" offset="1" set="0" source="#pCube10-UV0"/><p> 13 3 14 2 0 0 0 0 14 2 1 1 14 2 15 5 1 1 1 1 15 5 2 4 15 5 16 7 2 4 2 4 16 7 3 6 16 7 17 9 3 6 3 6 17 9 4 8 17 9 18 11 4 8 4 8 18 11 5 10 18 11 19 13 5 10 5 10 19 13 6 12 6 12 19 13 7 14 7 14 19 13 20 15 7 14 20 15 8 16 8 16 20 15 21 17 8 16 21 17 9 18 9 18 21 17 22 19 9 18 22 19 10 20 10 20 22 19 23 21 10 20 23 21 11 22 11 22 23 21 24 23 11 22 24 23 12 24 12 24 24 23 25 25</p></triangles>
      </mesh>
    </geometry>
    <geometry id="polySurface6-lib" name="polySurface6Mesh">
      <mesh>
        <source id="polySurface6-POSITION">
          <float_array id="polySurface6-POSITION-array" count="399">
-0.252824 3.857533 6.120249
-0.252824 3.857533 5.379751
-0.117968 3.980683 5.379751
-0.102063 3.995208 5.379751
-0.102063 3.995208 6.120249
-0.117968 3.980683 6.120249
0.048698 4.106850 5.379751
0.048698 4.106850 6.120249
0.199459 3.995208 5.379751
0.199459 3.995208 6.120249
0.215365 3.980683 5.379751
0.350220 3.857533 5.379751
0.350220 3.857533 6.120249
0.215365 3.980683 6.120249
0.382032 3.821576 5.379751
0.500981 3.687121 5.379751
0.500981 3.687121 6.120249
0.382032 3.821575 6.120249
0.548698 3.621948 5.379751
0.651743 3.481206 5.379751
0.651743 3.481206 6.120249
0.548698 3.621948 6.120249
0.715365 3.344613 5.379751
0.802504 3.157531 5.379751
0.802504 3.157531 6.120249
0.715365 3.344613 6.120249
0.882032 2.887898 5.379751
0.953265 2.646388 5.379751
0.953265 2.646388 6.120249
0.882032 2.887898 6.120249
0.953265 1.393150 5.379751
0.953265 1.360366 6.120249
0.882032 1.360366 6.120249
0.882032 1.393150 5.379751
0.802504 1.393150 5.379751
0.802504 1.360366 6.120249
0.715365 1.360366 6.120249
0.715365 1.393150 5.379751
0.651743 1.393150 5.379751
0.651743 1.360366 6.120249
0.548698 1.360366 6.120249
0.548698 1.393150 5.379751
0.500981 1.393150 5.379751
0.500981 1.360366 6.120249
0.382032 1.360366 6.120249
0.382032 1.393150 5.379751
0.350220 1.393150 5.379751
0.350220 1.360366 6.120249
0.215365 1.360366 6.120249
0.215365 1.393150 5.379751
0.199459 1.393150 5.379751
0.199459 1.360366 6.120249
0.048698 1.393150 5.379751
0.048698 1.360366 6.120249
-0.102063 1.393150 5.379751
-0.102063 1.360366 6.120249
-0.117968 1.360366 6.120249
-0.117968 1.393150 5.379751
-0.252824 1.393150 5.379751
-0.252824 1.360366 6.120249
-0.284635 1.360366 6.120249
-0.284635 1.393150 5.379751
-0.403585 1.393150 5.379751
-0.403585 1.360366 6.120249
-0.451302 1.393150 5.379751
-0.554346 1.393150 5.379751
-0.554346 1.360366 6.120249
-0.451302 1.360366 6.120249
-0.705107 1.393150 5.379751
-0.705107 1.360366 6.120249
-0.617969 1.360366 6.120249
-0.617969 1.393150 5.379751
-0.855868 1.393150 5.379751
-0.855868 1.360366 6.120249
-0.784635 1.360366 6.120249
-0.784635 1.393150 5.379751
-0.855868 2.646388 5.379751
-0.855868 2.646388 6.120249
-0.784635 2.887898 5.379751
-0.705107 3.157531 5.379751
-0.705107 3.157531 6.120249
-0.784635 2.887898 6.120249
-0.617969 3.344613 5.379751
-0.554346 3.481206 5.379751
-0.554346 3.481206 6.120249
-0.617969 3.344613 6.120249
-0.451302 3.621948 6.120249
-0.451302 3.621948 5.379751
-0.403585 3.687121 5.379751
-0.403585 3.687121 6.120249
-0.284635 3.821575 5.379751
-0.284635 3.821575 6.120249
-0.451302 1.250000 6.120249
-0.284635 1.250000 6.120249
-0.117968 1.250000 6.120249
0.048698 4.250000 6.120249
-0.117968 4.126580 6.120249
0.048698 1.250000 6.120249
0.215365 1.250000 6.120249
0.382032 1.250000 6.120249
0.548698 1.250000 6.120249
0.715365 1.250000 6.120249
0.882032 1.250000 6.120249
-0.784635 3.200527 5.379751
-0.617969 3.558350 5.379751
-0.451302 3.785989 5.379751
-0.284635 3.974380 5.379751
-0.117968 4.126580 5.379751
0.048698 4.250000 5.379751
0.215365 4.126580 5.379751
0.382032 3.974380 5.379751
0.548698 3.785989 5.379751
0.715365 3.558350 5.379751
0.882032 3.200527 5.379751
-0.617969 3.558350 6.120249
-0.784635 3.200527 6.120249
-0.617969 1.250000 6.120249
-0.951302 1.250000 5.379751
-0.951302 1.250000 6.120249
-0.951302 2.635457 6.120249
-0.951302 2.635457 5.379751
1.048698 1.250000 6.120249
1.048698 1.250000 5.379751
1.048698 2.635457 5.379751
1.048698 2.635457 6.120249
-0.784635 1.250000 6.120249
0.882032 3.200527 6.120249
0.715365 3.558350 6.120249
0.548698 3.785989 6.120249
0.382032 3.974380 6.120249
0.215365 4.126580 6.120249
-0.284635 3.974380 6.120249
-0.451302 3.785989 6.120249
</float_array>
          <technique_common>
            <accessor source="#polySurface6-POSITION-array" count="133" stride="3">
              <param name="X" type="float"/>
              <param name="Y" type="float"/>
              <param name="Z" type="float"/>
            </accessor>
          </technique_common>
        </source>
        <source id="polySurface6-Normal0">
          <float_array id="polySurface6-Normal0-array" count="1728">
0.712662 -0.701508 0.000000
0.712661 -0.701508 0.000000
0.674332 -0.738428 0.000000
0.622247 -0.782821 0.000000
0.648684 -0.761058 0.000000
0.674332 -0.738428 0.000000
0.648684 -0.761058 0.000000
0.674332 -0.738428 0.000000
0.674332 -0.738428 0.000000
0.712661 -0.701508 0.000000
0.674332 -0.738428 0.000000
0.674332 -0.738428 0.000000
0.648684 -0.761058 0.000000
0.622247 -0.782821 0.000000
0.239647 -0.970860 0.000000
0.239647 -0.970860 0.000000
0.622247 -0.782821 0.000000
-0.239647 -0.970860 0.000000
0.239647 -0.970860 0.000000
-0.239647 -0.970860 0.000000
-0.622247 -0.782821 0.000000
-0.622247 -0.782821 0.000000
-0.239647 -0.970860 0.000000
-0.648684 -0.761058 0.000000
-0.622247 -0.782821 0.000000
-0.648684 -0.761058 0.000000
-0.674332 -0.738428 0.000000
-0.648684 -0.761058 0.000000
-0.674332 -0.738428 0.000000
-0.674332 -0.738428 0.000000
-0.674332 -0.738428 0.000000
-0.712660 -0.701509 0.000000
-0.674332 -0.738428 0.000000
-0.712660 -0.701509 0.000000
-0.712660 -0.701509 0.000000
-0.674332 -0.738428 0.000000
-0.712660 -0.701509 0.000000
-0.712660 -0.701509 0.000000
-0.748970 -0.662604 0.000000
-0.712660 -0.701509 0.000000
-0.748970 -0.662604 0.000000
-0.748970 -0.662604 0.000000
-0.748970 -0.662604 0.000000
-0.778744 -0.627342 0.000000
-0.748970 -0.662604 0.000000
-0.778744 -0.627342 0.000000
-0.778744 -0.627342 0.000000
-0.748970 -0.662604 0.000000
-0.778744 -0.627342 0.000000
-0.778744 -0.627342 0.000000
-0.806859 -0.590745 0.000000
-0.778744 -0.627342 0.000000
-0.806858 -0.590745 0.000000
-0.806859 -0.590745 0.000000
-0.806858 -0.590745 0.000000
-0.860809 -0.508929 0.000000
-0.806859 -0.590745 0.000000
-0.860809 -0.508929 0.000000
-0.860808 -0.508929 0.000000
-0.806859 -0.590745 0.000000
-0.860808 -0.508929 0.000000
-0.860809 -0.508929 0.000000
-0.906491 -0.422225 0.000000
-0.860809 -0.508929 0.000000
-0.906492 -0.422224 0.000000
-0.906491 -0.422225 0.000000
-0.906492 -0.422224 0.000000
-0.935418 -0.353544 0.000000
-0.906491 -0.422225 0.000000
-0.935418 -0.353544 0.000000
-0.935418 -0.353544 0.000000
-0.906491 -0.422225 0.000000
-0.935418 -0.353544 0.000000
-0.935418 -0.353544 0.000000
-0.959149 -0.282900 0.000000
-0.935418 -0.353544 0.000000
-0.959150 -0.282900 0.000000
-0.959149 -0.282900 0.000000
-0.959150 -0.282900 0.000000
-0.959150 -0.282899 0.000000
-0.959149 -0.282900 0.000000
-0.959150 -0.282899 0.000000
-0.959149 -0.282900 0.000000
-0.959149 -0.282900 0.000000
-1.000000 0.000000 0.000000
-1.000000 0.000000 0.000000
-1.000000 0.000000 0.000000
-1.000000 0.000000 0.000000
-1.000000 0.000000 0.000000
-1.000000 0.000000 0.000000
0.000000 0.999021 0.044230
0.000000 0.999021 0.044230
0.000000 0.999021 0.044230
0.000000 0.999021 0.044230
0.000000 0.999021 0.044230
0.000000 0.999021 0.044230
0.000000 0.999021 0.044230
0.000000 0.999021 0.044230
0.000000 0.999021 0.044230
0.000000 0.999021 0.044230
0.000000 0.999021 0.044230
0.000000 0.999021 0.044230
0.000000 0.999021 0.044230
0.000000 0.999021 0.044230
0.000000 0.999021 0.044230
0.000000 0.999021 0.044230
0.000000 0.999021 0.044230
0.000000 0.999021 0.044230
0.000000 0.999021 0.044230
0.000000 0.999021 0.044230
0.000000 0.999021 0.044229
0.000000 0.999021 0.044230
0.000000 0.999021 0.044229
0.000000 0.999021 0.044229
0.000000 0.999021 0.044229
0.000000 0.999021 0.044229
0.000000 0.999021 0.044229
0.000000 0.999021 0.044229
0.000000 0.999021 0.044230
0.000000 0.999021 0.044229
0.000000 0.999021 0.044229
0.000000 0.999021 0.044230
0.000000 0.999021 0.044230
0.000000 0.999021 0.044230
0.000000 0.999021 0.044230
0.000000 0.999021 0.044230
0.000000 0.999021 0.044230
0.000000 0.999021 0.044230
0.000000 0.999021 0.044230
0.000000 0.999021 0.044230
0.000000 0.999021 0.044230
0.000000 0.999021 0.044230
0.000000 0.999021 0.044230
0.000000 0.999021 0.044230
0.000000 0.999021 0.044229
0.000000 0.999021 0.044230
0.000000 0.999021 0.044230
0.000000 0.999021 0.044229
0.000000 0.999021 0.044229
0.000000 0.999021 0.044230
0.000000 0.999021 0.044230
0.000000 0.999021 0.044230
0.000000 0.999021 0.044230
0.000000 0.999021 0.044230
0.000000 0.999021 0.044230
0.000000 0.999021 0.044230
0.000000 0.999021 0.044230
0.000000 0.999021 0.044230
0.000000 0.999021 0.044230
0.000000 0.999021 0.044230
0.000000 0.999021 0.044230
0.000000 0.999021 0.044230
0.000000 0.999021 0.044230
0.000000 0.999021 0.044230
0.000000 0.999021 0.044230
0.000000 0.999021 0.044230
0.000000 0.999021 0.044230
0.000000 0.999021 0.044230
0.000000 0.999021 0.044230
0.000000 0.999021 0.044230
0.000000 0.999021 0.044230
0.000000 0.999021 0.044229
0.000000 0.999021 0.044230
0.000000 0.999021 0.044229
0.000000 0.999021 0.044230
0.000000 0.999021 0.044229
0.000000 0.999021 0.044230
0.000000 0.999021 0.044230
0.000000 0.999021 0.044230
0.000000 0.999021 0.044230
0.000000 0.999021 0.044230
0.000000 0.999021 0.044230
0.000000 0.999021 0.044229
0.000000 0.999021 0.044230
0.000000 0.999021 0.044230
0.000000 0.999021 0.044229
0.000000 0.999021 0.044230
0.000000 0.999021 0.044229
0.000000 0.999021 0.044230
0.000000 0.999021 0.044230
0.000000 0.999021 0.044230
0.000000 0.999021 0.044230
0.000000 0.999021 0.044230
0.000000 0.999021 0.044230
0.000000 0.999021 0.044230
0.000000 0.999021 0.044230
0.000000 0.999021 0.044230
0.000000 0.999021 0.044230
0.000000 0.999021 0.044230
0.000000 0.999021 0.044230
0.000000 0.999021 0.044230
0.000000 0.999021 0.044230
0.000000 0.999021 0.044230
0.000000 0.999021 0.044229
0.000000 0.999021 0.044230
0.000000 0.999021 0.044229
0.000000 0.999021 0.044229
0.000000 0.999021 0.044230
0.000000 0.999021 0.044229
0.000000 0.999021 0.044230
0.000000 0.999021 0.044230
0.000000 0.999021 0.044230
0.000000 0.999021 0.044230
0.000000 0.999021 0.044230
0.000000 0.999021 0.044230
0.000000 0.999021 0.044229
0.000000 0.999021 0.044230
0.000000 0.999021 0.044229
0.000000 0.999021 0.044229
0.000000 0.999021 0.044230
0.000000 0.999021 0.044230
0.000000 0.999021 0.044230
0.000000 0.999021 0.044230
0.000000 0.999021 0.044230
0.000000 0.999021 0.044230
0.000000 0.999021 0.044230
0.000000 0.999021 0.044230
0.000000 0.999021 0.044230
0.000000 0.999021 0.044230
0.000000 0.999021 0.044230
0.000000 0.999021 0.044229
0.000000 0.999021 0.044230
1.000000 0.000000 0.000000
1.000000 0.000000 0.000000
1.000000 0.000000 0.000000
1.000000 0.000000 0.000000
1.000000 0.000000 0.000000
1.000000 0.000000 0.000000
0.926330 -0.376713 0.000000
0.943926 -0.330157 0.000000
0.959149 -0.282900 0.000000
0.943926 -0.330157 0.000000
0.959149 -0.282900 0.000000
0.959149 -0.282900 0.000000
0.959149 -0.282900 0.000000
0.959149 -0.282900 0.000000
0.959150 -0.282899 0.000000
0.959149 -0.282900 0.000000
0.959150 -0.282899 0.000000
0.959150 -0.282899 0.000000
0.843670 -0.536862 0.000000
0.877023 -0.480449 0.000000
0.906491 -0.422225 0.000000
0.877023 -0.480449 0.000000
0.906491 -0.422225 0.000000
0.906491 -0.422225 0.000000
0.906491 -0.422225 0.000000
0.906491 -0.422225 0.000000
0.926330 -0.376713 0.000000
0.906491 -0.422225 0.000000
0.943926 -0.330157 0.000000
0.926330 -0.376713 0.000000
0.877023 -0.480449 0.000000
0.843670 -0.536862 0.000000
0.806859 -0.590745 0.000000
0.843670 -0.536862 0.000000
0.806859 -0.590745 0.000000
0.806859 -0.590745 0.000000
0.806859 -0.590745 0.000000
0.806859 -0.590745 0.000000
0.788309 -0.615280 0.000000
0.806859 -0.590745 0.000000
0.768994 -0.639256 0.000000
0.788309 -0.615280 0.000000
0.788309 -0.615280 0.000000
0.768994 -0.639256 0.000000
0.748971 -0.662603 0.000000
0.768994 -0.639256 0.000000
0.748971 -0.662603 0.000000
0.748971 -0.662603 0.000000
0.748971 -0.662603 0.000000
0.712661 -0.701508 0.000000
0.748971 -0.662603 0.000000
0.712661 -0.701508 0.000000
0.712662 -0.701508 0.000000
0.748971 -0.662603 0.000000
0.000000 0.000000 1.000000
0.000000 0.000000 1.000000
0.000000 0.000000 1.000000
0.000000 0.000000 1.000000
0.000000 0.000000 1.000000
0.000000 0.000000 1.000000
0.000000 0.000000 1.000000
0.000000 0.000000 1.000000
0.000000 0.000000 1.000000
0.000000 0.000000 1.000000
0.000000 0.000000 1.000000
0.000000 0.000000 1.000000
0.000000 0.000000 1.000000
0.000000 0.000000 1.000000
0.000000 0.000000 1.000000
0.000000 0.000000 1.000000
0.000000 0.000000 1.000000
0.000000 0.000000 1.000000
0.000000 0.000000 1.000000
0.000000 0.000000 1.000000
0.000000 0.000000 1.000000
0.000000 0.000000 1.000000
0.000000 0.000000 1.000000
0.000000 0.000000 1.000000
0.000000 0.000000 1.000000
0.000000 0.000000 1.000000
0.000000 0.000000 1.000000
0.000000 0.000000 1.000000
0.000000 0.000000 1.000000
0.000000 0.000000 1.000000
0.000000 0.000000 1.000000
0.000000 0.000000 1.000000
0.000000 0.000000 1.000000
0.000000 0.000000 1.000000
0.000000 0.000000 1.000000
0.000000 0.000000 1.000000
0.000000 0.000000 1.000000
0.000000 0.000000 1.000000
0.000000 0.000000 1.000000
0.000000 0.000000 1.000000
0.000000 0.000000 1.000000
0.000000 0.000000 1.000000
0.000000 0.000000 1.000000
0.000000 0.000000 1.000000
0.000000 0.000000 1.000000
0.000000 0.000000 1.000000
0.000000 0.000000 1.000000
0.000000 0.000000 1.000000
0.000000 0.000000 1.000000
0.000000 0.000000 1.000000
0.000000 0.000000 1.000000
0.000000 0.000000 1.000000
0.000000 0.000000 1.000000
0.000000 0.000000 1.000000
0.000000 0.000000 1.000000
0.000000 0.000000 1.000000
0.000000 0.000000 1.000000
0.000000 0.000000 1.000000
0.000000 0.000000 1.000000
0.000000 0.000000 1.000000
0.000000 0.000000 1.000000
0.000000 0.000000 1.000000
0.000000 0.000000 1.000000
0.000000 0.000000 1.000000
0.000000 0.000000 1.000000
0.000000 0.000000 1.000000
0.000000 0.000000 1.000000
0.000000 0.000000 1.000000
0.000000 0.000000 1.000000
0.000000 0.000000 1.000000
0.000000 0.000000 1.000000
0.000000 0.000000 1.000000
0.000000 0.000000 1.000000
0.000000 0.000000 1.000000
0.000000 0.000000 1.000000
0.000000 0.000000 1.000000
0.000000 0.000000 1.000000
0.000000 0.000000 1.000000
0.000000 0.000000 1.000000
0.000000 0.000000 1.000000
0.000000 0.000000 1.000000
0.000000 0.000000 1.000000
0.000000 0.000000 1.000000
0.000000 0.000000 1.000000
0.000000 0.000000 1.000000
0.000000 0.000000 1.000000
0.000000 0.000000 1.000000
0.000000 0.000000 1.000000
0.000000 0.000000 1.000000
0.000000 0.000000 1.000000
-1.000000 0.000000 0.000000
-1.000000 0.000000 0.000000
-1.000000 0.000000 0.000000
-1.000000 0.000000 0.000000
-1.000000 0.000000 0.000000
-1.000000 0.000000 0.000000
1.000000 0.000000 0.000000
1.000000 0.000000 0.000000
1.000000 0.000000 0.000000
1.000000 0.000000 0.000000
1.000000 0.000000 0.000000
1.000000 0.000000 0.000000
0.926330 0.376713 0.000000
0.959150 0.282900 0.000000
0.943926 0.330156 0.000000
0.943926 0.330156 0.000000
0.959150 0.282900 0.000000
0.959150 0.282899 0.000000
0.843669 0.536863 0.000000
0.926330 0.376713 0.000000
0.877023 0.480449 0.000000
0.877023 0.480449 0.000000
0.926330 0.376713 0.000000
0.943926 0.330156 0.000000
0.768994 0.639255 0.000000
0.843669 0.536863 0.000000
0.788309 0.615280 0.000000
0.788309 0.615280 0.000000
0.843669 0.536863 0.000000
0.877023 0.480449 0.000000
0.700093 0.714051 0.000000
0.768994 0.639255 0.000000
0.725004 0.688744 0.000000
0.725004 0.688744 0.000000
0.768994 0.639255 0.000000
0.788309 0.615280 0.000000
0.622248 0.782821 0.000000
0.700093 0.714051 0.000000
0.648686 0.761057 0.000000
0.648686 0.761057 0.000000
0.700093 0.714051 0.000000
0.725004 0.688744 0.000000
-0.239647 0.970860 0.000000
0.622248 0.782821 0.000000
0.239647 0.970860 0.000000
0.239647 0.970860 0.000000
0.622248 0.782821 0.000000
0.648686 0.761057 0.000000
-0.648685 0.761057 0.000000
-0.239647 0.970860 0.000000
-0.622248 0.782821 0.000000
-0.622248 0.782821 0.000000
-0.239647 0.970860 0.000000
0.239647 0.970860 0.000000
-0.725004 0.688744 0.000000
-0.648685 0.761057 0.000000
-0.700094 0.714051 0.000000
-0.700094 0.714051 0.000000
-0.648685 0.761057 0.000000
-0.622248 0.782821 0.000000
-0.788308 0.615280 0.000000
-0.725004 0.688744 0.000000
-0.768995 0.639255 0.000000
-0.768995 0.639255 0.000000
-0.725004 0.688744 0.000000
-0.700094 0.714051 0.000000
-0.877023 0.480449 0.000000
-0.788308 0.615280 0.000000
-0.843669 0.536863 0.000000
-0.843669 0.536863 0.000000
-0.788308 0.615280 0.000000
-0.768995 0.639255 0.000000
-0.943926 0.330156 0.000000
-0.877023 0.480449 0.000000
-0.926330 0.376713 0.000000
-0.926330 0.376713 0.000000
-0.877023 0.480449 0.000000
-0.843669 0.536863 0.000000
-0.959149 0.282900 0.000000
-0.943926 0.330156 0.000000
-0.959150 0.282900 0.000000
-0.959150 0.282900 0.000000
-0.943926 0.330156 0.000000
-0.926330 0.376713 0.000000
0.000000 0.000000 1.000000
0.000000 0.000000 1.000000
0.000000 0.000000 1.000000
0.000000 0.000000 1.000000
0.000000 0.000000 1.000000
0.000000 0.000000 1.000000
0.000000 0.000000 1.000000
0.000000 0.000000 1.000000
0.000000 0.000000 1.000000
0.000000 0.000000 1.000000
0.000000 0.000000 1.000000
0.000000 0.000000 1.000000
0.000000 0.000000 1.000000
0.000000 0.000000 1.000000
0.000000 0.000000 1.000000
0.000000 0.000000 1.000000
0.000000 0.000000 1.000000
0.000000 0.000000 1.000000
0.000000 0.000000 1.000000
0.000000 0.000000 1.000000
0.000000 0.000000 1.000000
0.000000 0.000000 1.000000
0.000000 0.000000 1.000000
0.000000 0.000000 1.000000
0.000000 0.000000 1.000000
0.000000 0.000000 1.000000
0.000000 0.000000 1.000000
0.000000 0.000000 1.000000
0.000000 0.000000 1.000000
0.000000 0.000000 1.000000
0.000000 0.000000 1.000000
0.000000 0.000000 1.000000
0.000000 0.000000 1.000000
0.000000 0.000000 1.000000
0.000000 0.000000 1.000000
0.000000 0.000000 1.000000
0.000000 0.000000 1.000000
0.000000 0.000000 1.000000
0.000000 0.000000 1.000000
0.000000 0.000000 1.000000
0.000000 0.000000 1.000000
0.000000 0.000000 1.000000
0.000000 0.000000 1.000000
0.000000 0.000000 1.000000
0.000000 0.000000 1.000000
0.000000 0.000000 1.000000
0.000000 0.000000 1.000000
0.000000 0.000000 1.000000
0.000000 0.000000 1.000000
0.000000 0.000000 1.000000
0.000000 0.000000 1.000000
0.000000 0.000000 1.000000
0.000000 0.000000 1.000000
0.000000 0.000000 1.000000
0.000000 0.000000 1.000000
0.000000 0.000000 1.000000
0.000000 0.000000 1.000000
0.000000 0.000000 1.000000
0.000000 0.000000 1.000000
0.000000 0.000000 1.000000
0.000000 0.000000 1.000000
0.000000 0.000000 1.000000
0.000000 0.000000 1.000000
0.000000 0.000000 1.000000
0.000000 0.000000 1.000000
0.000000 0.000000 1.000000
0.000000 0.000000 1.000000
0.000000 0.000000 1.000000
0.000000 0.000000 1.000000
0.000000 0.000000 1.000000
0.000000 0.000000 1.000000
0.000000 0.000000 1.000000
0.000000 0.000000 1.000000
0.000000 0.000000 1.000000
0.000000 0.000000 1.000000
0.000000 0.000000 1.000000
0.000000 0.000000 1.000000
0.000000 0.000000 1.000000
0.000000 0.000000 1.000000
0.000000 0.000000 1.000000
0.000000 0.000000 1.000000
0.000000 0.000000 1.000000
0.000000 0.000000 1.000000
0.000000 0.000000 1.000000
0.000000 0.000000 1.000000
0.000000 0.000000 1.000000
0.000000 0.000000 1.000000
0.000000 0.000000 1.000000
0.000000 0.000000 1.000000
0.000000 0.000000 1.000000
0.000000 0.000000 1.000000
0.000000 0.000000 1.000000
0.000000 0.000000 1.000000
0.000000 0.000000 1.000000
0.000000 0.000000 1.000000
0.000000 0.000000 1.000000
0.000000 0.000000 1.000000
0.000000 0.000000 1.000000
0.000000 0.000000 1.000000
0.000000 0.000000 1.000000
0.000000 0.000000 1.000000
0.000000 0.000000 1.000000
0.000000 0.000000 1.000000
0.000000 0.000000 1.000000
0.000000 0.000000 1.000000
0.000000 0.000000 1.000000
0.000000 0.000000 1.000000
0.000000 0.000000 1.000000
0.000000 0.000000 1.000000
0.000000 0.000000 1.000000
0.000000 0.000000 1.000000
0.000000 0.000000 1.000000
0.000000 0.000000 1.000000
0.000000 0.000000 1.000000
0.000000 0.000000 1.000000
0.000000 0.000000 1.000000
0.000000 0.000000 1.000000
0.000000 0.000000 1.000000
0.000000 0.000000 1.000000
0.000000 0.000000 1.000000
0.000000 0.000000 1.000000
0.000000 0.000000 1.000000
0.000000 0.000000 1.000000
0.000000 0.000000 1.000000
0.000000 0.000000 1.000000
0.000000 0.000000 1.000000
</float_array>
          <technique_common>
            <accessor source="#polySurface6-Normal0-array" count="576" stride="3">
              <param name="X" type="float"/>
              <param name="Y" type="float"/>
              <param name="Z" type="float"/>
            </accessor>
          </technique_common>
        </source>
        <source id="polySurface6-UV0">
          <float_array id="polySurface6-UV0-array" count="420">
0.524851 0.440859
0.071760 0.621833
0.071766 0.629649
0.053735 0.629648
0.053735 0.602406
0.071766 0.602407
0.071761 0.597185
0.053735 0.575164
0.071766 0.575166
0.502444 0.572564
0.520692 0.547922
0.544090 0.547922
0.527831 0.467347
0.074674 0.555325
0.010374 0.554635
0.010374 0.445365
0.074674 0.444675
0.148865 0.555560
0.148865 0.444440
0.441124 0.494776
0.566367 0.499540
0.566366 0.587674
0.441124 0.592438
0.332983 0.492104
0.332983 0.595110
0.527831 0.584702
0.233118 0.555208
0.233118 0.444792
0.325317 0.554245
0.325317 0.445755
0.439216 0.551431
0.439216 0.448569
0.245444 0.491190
0.245444 0.596025
0.165450 0.490856
0.165450 0.596358
0.095009 0.491079
0.095009 0.596136
0.033959 0.491733
0.039791 0.584701
0.039791 0.467346
0.524851 0.559142
0.032953 0.559142
0.122083 0.103049
0.122084 0.291681
0.076135 0.291977
0.070697 0.292013
0.070696 0.102720
0.076134 0.102755
0.022089 0.293016
0.022088 0.101719
0.406898 0.304159
0.331596 0.298356
0.019814 0.273434
0.019815 0.073191
0.068246 0.074240
0.068246 0.272385
0.073665 0.074277
0.119446 0.074587
0.119446 0.272039
0.073664 0.272348
0.131233 0.074477
0.175539 0.074067
0.175539 0.272560
0.131233 0.272149
0.195297 0.073600
0.238605 0.072576
0.238605 0.274051
0.195297 0.273027
0.275363 0.070533
0.328197 0.067597
0.328197 0.279031
0.275363 0.276094
0.403226 0.061522
0.478148 0.055456
0.478147 0.291172
0.403226 0.285106
0.441434 0.629648
0.499040 0.602406
0.479941 0.597206
0.474063 0.602406
0.071762 0.572538
0.502444 0.523280
0.523917 0.520680
0.479941 0.498638
0.500070 0.520680
0.499040 0.493438
0.004257 0.285594
0.004257 0.056204
0.478150 0.056200
0.490532 0.285569
0.922952 0.060046
0.959793 0.060047
0.959961 0.329410
0.922958 0.329410
0.881645 0.329410
0.881645 0.060038
0.836398 0.060046
0.836380 0.329410
0.803330 0.329410
0.803327 0.060038
0.749842 0.060046
0.749801 0.329409
0.725014 0.329409
0.725009 0.060038
0.663283 0.060046
0.663223 0.329409
0.646698 0.329409
0.646691 0.060038
0.576720 0.060046
0.576645 0.329409
0.568382 0.329409
0.568384 0.060039
0.490067 0.329409
0.490067 0.060042
0.411751 0.329409
0.411749 0.060039
0.403414 0.060045
0.403488 0.329409
0.333435 0.329409
0.333442 0.060037
0.316851 0.060045
0.316910 0.329409
0.255119 0.329409
0.255124 0.060037
0.230332 0.329409
0.176803 0.329408
0.176806 0.060037
0.230292 0.060045
0.098488 0.329408
0.098488 0.060037
0.143736 0.060045
0.143753 0.329408
0.020172 0.329408
0.020340 0.060045
0.057182 0.060045
0.057175 0.329408
0.452086 0.473996
0.474063 0.493438
0.468247 0.466196
0.418429 0.449353
0.441434 0.466196
0.431039 0.438954
0.365524 0.424711
0.396103 0.438954
0.281977 0.400069
0.321452 0.411712
0.372552 0.411712
0.280190 0.384470
0.053735 0.384470
0.071777 0.400071
0.053735 0.656890
0.071766 0.656890
0.071759 0.646482
0.372552 0.684132
0.431039 0.656890
0.396103 0.656890
0.365524 0.671133
0.321452 0.684132
0.019428 0.314295
0.019428 0.088307
0.498049 0.088328
0.485863 0.314295
0.331595 0.096367
0.406898 0.090563
0.482092 0.084767
0.482093 0.309953
0.278570 0.295552
0.241677 0.293600
0.241677 0.101125
0.278569 0.099173
0.198211 0.102104
0.198212 0.292623
0.178382 0.292177
0.178381 0.102551
0.133914 0.291785
0.133913 0.102944
0.071777 0.695773
0.053735 0.711374
0.280190 0.711374
0.281977 0.695775
0.053735 0.684132
0.071776 0.684130
0.071758 0.671131
0.418429 0.646491
0.468247 0.629648
0.452086 0.621849
0.523917 0.575164
0.500070 0.575164
0.071763 0.523306
0.071766 0.547922
0.053735 0.547922
0.053735 0.520680
0.071766 0.520678
0.071761 0.498659
0.053735 0.493438
0.071766 0.493437
0.071760 0.474011
0.053735 0.466196
0.071766 0.466195
0.071759 0.449362
0.053735 0.438954
0.071767 0.438954
0.071758 0.424713
0.053735 0.411712
0.071776 0.411714
0.032953 0.440858
0.571127 0.546414
0.571127 0.453587
0.033959 0.595481
</float_array>
          <technique_common>
            <accessor source="#polySurface6-UV0-array" count="210" stride="2">
              <param name="S" type="float"/>
              <param name="T" type="float"/>
            </accessor>
          </technique_common>
        </source>
        <vertices id="polySurface6-VERTEX">
          <input semantic="POSITION" source="#polySurface6-POSITION"/>
        </vertices>
        <triangles count="192" material="blinn7"><input semantic="VERTEX" offset="0" source="#polySurface6-VERTEX"/><input semantic="NORMAL" offset="1" source="#polySurface6-Normal0"/><input semantic="TEXCOORD" offset="2" set="0" source="#polySurface6-UV0"/><p> 0 0 43 1 1 44 5 2 48 3 3 46 4 4 47 2 5 45 4 6 47 5 7 48 2 8 45 1 9 44 2 10 45 5 11 48 4 12 47 3 13 46 7 14 50 7 15 50 3 16 46 6 17 49 7 18 53 6 19 54 9 20 56 9 21 56 6 22 54 8 23 55 9 24 56 8 25 55 13 26 60 8 27 55 10 28 57 13 29 60 10 30 57 11 31 58 13 32 60 11 33 58 12 34 59 13 35 60 12 36 59 11 37 58 17 38 64 11 39 58 14 40 61 17 41 64 14 42 61 15 43 62 17 44 64 15 45 62 16 46 63 17 47 64 16 48 63 15 49 62 21 50 68 15 51 62 18 52 65 21 53 68 18 54 65 19 55 66 21 56 68 19 57 66 20 58 67 21 59 68 20 60 67 19 61 66 25 62 72 19 63 66 22 64 69 25 65 72 22 66 69 23 67 70 25 68 72 23 69 70 24 70 71 25 71 72 24 72 71 23 73 70 29 74 76 23 75 70 26 76 73 29 77 76 26 78 73 27 79 74 29 80 76 27 81 74 28 82 75 29 83 76 27 84 88 30 85 89 28 86 87 28 87 87 30 88 89 31 89 90 31 90 92 30 91 93 32 92 91 30 93 93 33 94 94 32 95 91 32 96 91 33 97 94 35 98 96 33 99 94 34 100 95 35 101 96 35 102 96 34 103 95 36 104 97 34 105 95 37 106 98 36 107 97 36 108 97 37 109 98 39 110 100 37 111 98 38 112 99 39 113 100 39 114 100 38 115 99 40 116 101 38 117 99 41 118 102 40 119 101 40 120 101 41 121 102 43 122 104 41 123 102 42 124 103 43 125 104 43 126 104 42 127 103 44 128 105 42 129 103 45 130 106 44 131 105 44 132 105 45 133 106 47 134 108 45 135 106 46 136 107 47 137 108 47 138 108 46 139 107 48 140 109 50 141 111 51 142 112 49 143 110 51 144 112 48 145 109 49 146 110 48 147 109 46 148 107 49 149 110 51 150 112 50 151 111 53 152 114 53 153 114 50 154 111 52 155 113 53 156 114 52 157 113 55 158 116 55 159 116 52 160 113 54 161 115 55 162 116 54 163 115 56 164 117 54 165 115 57 166 118 56 167 117 56 168 117 57 169 118 59 170 120 57 171 118 58 172 119 59 173 120 59 174 120 58 175 119 60 176 121 58 177 119 61 178 122 60 179 121 60 180 121 61 181 122 63 182 124 61 183 122 62 184 123 63 185 124 63 186 124 62 187 123 67 188 128 62 189 123 64 190 125 67 191 128 64 192 125 65 193 126 67 194 128 65 195 126 66 196 127 67 197 128 68 198 129 69 199 130 71 200 132 69 201 130 70 202 131 71 203 132 70 204 131 66 205 127 71 206 132 66 207 127 65 208 126 71 209 132 72 210 133 73 211 134 75 212 136 73 213 134 74 214 135 75 215 136 74 216 135 69 217 130 75 218 136 69 219 130 68 220 129 75 221 136 76 222 159 77 223 160 72 224 162 72 225 162 77 226 160 73 227 161 79 228 52 80 229 163 78 230 51 80 231 163 81 232 164 78 233 51 78 234 51 81 235 164 76 236 166 81 237 164 77 238 165 76 239 166 83 240 168 84 241 169 82 242 167 84 243 169 85 244 170 82 245 167 82 246 167 85 247 170 79 248 52 85 249 170 80 250 163 79 251 52 84 252 169 83 253 168 86 254 171 83 255 168 87 256 172 86 257 171 86 258 171 87 259 172 89 260 174 87 261 172 88 262 173 89 263 174 89 264 174 88 265 173 91 266 176 88 267 173 90 268 175 91 269 176 90 270 175 1 271 44 91 272 176 1 273 44 0 274 43 91 275 176 67 276 2 92 277 3 63 278 1 92 279 3 93 280 4 63 281 1 63 282 1 93 283 4 60 284 5 60 285 5 93 286 4 59 287 6 93 288 4 94 289 7 59 290 6 59 291 6 94 292 7 56 293 8 5 294 188 4 295 9 96 296 187 95 297 11 96 298 187 7 299 10 4 300 9 7 301 10 96 302 187 53 303 190 97 304 191 51 305 189 98 306 192 48 307 193 97 308 191 51 309 189 97 310 191 48 311 193 48 312 193 98 313 192 47 314 194 99 315 195 44 316 196 98 317 192 47 318 194 98 319 192 44 320 196 44 321 196 99 322 195 43 323 197 100 324 198 40 325 199 99 326 195 43 327 197 99 328 195 40 329 199 40 330 199 100 331 198 39 332 200 100 333 198 101 334 201 39 335 200 39 336 200 101 337 201 36 338 202 36 339 202 101 340 201 35 341 203 101 342 201 102 343 204 35 344 203 35 345 203 102 346 204 32 347 205 81 348 158 80 349 157 115 350 154 114 351 155 115 352 154 85 353 156 80 354 157 85 355 156 115 356 154 70 357 152 116 358 151 66 359 153 116 360 151 92 361 3 66 362 153 66 363 153 92 364 3 67 365 2 117 366 0 118 367 41 120 368 206 120 369 206 118 370 41 119 371 42 121 372 12 122 373 25 124 374 40 124 375 40 122 376 25 123 377 39 126 378 19 124 379 20 113 380 22 113 381 22 124 382 20 123 383 21 127 384 23 126 385 19 112 386 24 112 387 24 126 388 19 113 389 22 128 390 32 127 391 23 111 392 33 111 393 33 127 394 23 112 395 24 129 396 34 128 397 32 110 398 35 110 399 35 128 400 32 111 401 33 130 402 36 129 403 34 109 404 37 109 405 37 129 406 34 110 407 35 95 408 38 130 409 36 108 410 209 108 411 209 130 412 36 109 413 37 96 414 13 95 415 14 107 416 16 107 417 16 95 418 14 108 419 15 131 420 17 96 421 13 106 422 18 106 423 18 96 424 13 107 425 16 132 426 26 131 427 17 105 428 27 105 429 27 131 430 17 106 431 18 114 432 28 132 433 26 104 434 29 104 435 29 132 436 26 105 437 27 115 438 30 114 439 28 103 440 31 103 441 31 114 442 28 104 443 29 119 444 207 115 445 30 120 446 208 120 447 208 115 448 30 103 449 31 126 450 147 29 451 146 124 452 148 29 453 146 28 454 145 124 455 148 28 456 145 31 457 150 124 458 148 32 459 205 102 460 204 31 461 150 102 462 204 121 463 149 31 464 150 31 465 150 121 466 149 124 467 148 29 468 146 126 469 147 24 470 143 127 471 142 25 472 144 126 473 147 25 474 144 24 475 143 126 476 147 25 477 144 127 478 142 20 479 140 128 480 139 21 481 141 127 482 142 21 483 141 20 484 140 127 485 142 21 486 141 128 487 139 16 488 137 129 489 86 17 490 138 128 491 139 17 492 138 16 493 137 128 494 139 17 495 138 129 496 86 12 497 84 130 498 83 13 499 85 129 500 86 13 501 85 12 502 84 129 503 86 13 504 85 130 505 83 9 506 82 95 507 11 7 508 10 130 509 83 7 510 10 9 511 82 130 512 83 56 513 8 94 514 7 55 515 81 94 516 7 97 517 191 55 518 81 55 519 81 97 520 191 53 521 190 91 522 80 0 523 79 131 524 78 96 525 187 131 526 78 5 527 188 0 528 79 5 529 188 131 530 78 86 531 77 89 532 186 132 533 185 131 534 78 132 535 185 91 536 80 89 537 186 91 538 80 132 539 185 85 540 156 84 541 184 114 542 155 132 543 185 114 544 155 86 545 77 84 546 184 86 547 77 114 548 155 74 549 182 125 550 181 69 551 183 125 552 181 116 553 151 69 554 183 69 555 183 116 556 151 70 557 152 115 558 154 119 559 179 81 560 158 81 561 158 119 562 179 77 563 180 77 564 180 119 565 179 73 566 177 125 567 181 74 568 182 118 569 178 74 570 182 73 571 177 118 572 178 119 573 179 118 574 178 73 575 177</p></triangles>
      </mesh>
    </geometry>
    <geometry id="pCube11-lib" name="pCube11Mesh">
      <mesh>
        <source id="pCube11-POSITION">
          <float_array id="pCube11-POSITION-array" count="24">
-0.500000 -0.500000 0.316733
0.500000 -0.500000 0.316733
-0.500000 0.499998 0.316733
0.500000 0.499998 0.316733
-0.500000 0.499998 0.270521
0.500000 0.499998 0.270521
-0.500000 -0.500000 0.270521
0.500000 -0.500000 0.270521
</float_array>
          <technique_common>
            <accessor source="#pCube11-POSITION-array" count="8" stride="3">
              <param name="X" type="float"/>
              <param name="Y" type="float"/>
              <param name="Z" type="float"/>
            </accessor>
          </technique_common>
        </source>
        <source id="pCube11-Normal0">
          <float_array id="pCube11-Normal0-array" count="90">
0.000000 0.000000 1.000000
0.000000 0.000000 1.000000
0.000000 0.000000 1.000000
0.000000 0.000000 1.000000
0.000000 0.000000 1.000000
0.000000 0.000000 1.000000
0.000000 1.000000 0.000000
0.000000 1.000000 0.000000
0.000000 1.000000 0.000000
0.000000 1.000000 0.000000
0.000000 1.000000 0.000000
0.000000 1.000000 0.000000
0.000000 -1.000000 0.000000
0.000000 -1.000000 0.000000
0.000000 -1.000000 0.000000
0.000000 -1.000000 0.000000
0.000000 -1.000000 0.000000
0.000000 -1.000000 0.000000
1.000000 0.000000 0.000000
1.000000 0.000000 0.000000
1.000000 0.000000 0.000000
1.000000 0.000000 0.000000
1.000000 0.000000 0.000000
1.000000 0.000000 0.000000
-1.000000 0.000000 0.000000
-1.000000 0.000000 0.000000
-1.000000 0.000000 0.000000
-1.000000 0.000000 0.000000
-1.000000 0.000000 0.000000
-1.000000 0.000000 0.000000
</float_array>
          <technique_common>
            <accessor source="#pCube11-Normal0-array" count="30" stride="3">
              <param name="X" type="float"/>
              <param name="Y" type="float"/>
              <param name="Z" type="float"/>
            </accessor>
          </technique_common>
        </source>
        <source id="pCube11-UV0">
          <float_array id="pCube11-UV0-array" count="40">
0.728527 -0.016612
0.229167 -0.017729
0.770833 -0.016614
0.271473 -0.017727
0.033843 0.270201
0.472746 0.270201
0.271472 0.026253
0.229167 0.026255
0.770833 0.026300
0.728527 0.026298
0.000000 -0.017380
0.999900 -0.017379
0.999900 0.026035
0.000000 0.026034
0.033386 0.076344
0.472749 0.076345
0.472744 0.095129
0.033392 0.095128
0.472768 0.286408
0.033822 0.286408
</float_array>
          <technique_common>
            <accessor source="#pCube11-UV0-array" count="20" stride="2">
              <param name="S" type="float"/>
              <param name="T" type="float"/>
            </accessor>
          </technique_common>
        </source>
        <vertices id="pCube11-VERTEX">
          <input semantic="POSITION" source="#pCube11-POSITION"/>
        </vertices>
        <triangles count="10" material="blinn9"><input semantic="VERTEX" offset="0" source="#pCube11-VERTEX"/><input semantic="NORMAL" offset="1" source="#pCube11-Normal0"/><input semantic="TEXCOORD" offset="2" set="0" source="#pCube11-UV0"/><p> 0 0 10 1 1 11 2 2 13 2 3 13 1 4 11 3 5 12 2 6 14 3 7 15 4 8 17 4 9 17 3 10 15 5 11 16 6 12 4 7 13 5 0 14 19 0 15 19 7 16 5 1 17 18 1 18 1 7 19 3 3 20 7 3 21 7 7 22 3 5 23 6 6 24 0 0 25 2 4 26 9 4 27 9 0 28 2 2 29 8</p></triangles>
      </mesh>
    </geometry>
    <geometry id="pCube12-lib" name="pCube12Mesh">
      <mesh>
        <source id="pCube12-POSITION">
          <float_array id="pCube12-POSITION-array" count="24">
-0.500000 -0.500000 0.316733
0.500000 -0.500000 0.316733
-0.500000 0.499998 0.316733
0.500000 0.499998 0.316733
-0.500000 0.499998 0.270521
0.500000 0.499998 0.270521
-0.500000 -0.500000 0.270521
0.500000 -0.500000 0.270521
</float_array>
          <technique_common>
            <accessor source="#pCube12-POSITION-array" count="8" stride="3">
              <param name="X" type="float"/>
              <param name="Y" type="float"/>
              <param name="Z" type="float"/>
            </accessor>
          </technique_common>
        </source>
        <source id="pCube12-Normal0">
          <float_array id="pCube12-Normal0-array" count="90">
0.000000 0.000000 1.000000
0.000000 0.000000 1.000000
0.000000 0.000000 1.000000
0.000000 0.000000 1.000000
0.000000 0.000000 1.000000
0.000000 0.000000 1.000000
0.000000 1.000000 0.000000
0.000000 1.000000 0.000000
0.000000 1.000000 0.000000
0.000000 1.000000 0.000000
0.000000 1.000000 0.000000
0.000000 1.000000 0.000000
0.000000 -1.000000 0.000000
0.000000 -1.000000 0.000000
0.000000 -1.000000 0.000000
0.000000 -1.000000 0.000000
0.000000 -1.000000 0.000000
0.000000 -1.000000 0.000000
1.000000 0.000000 0.000000
1.000000 0.000000 0.000000
1.000000 0.000000 0.000000
1.000000 0.000000 0.000000
1.000000 0.000000 0.000000
1.000000 0.000000 0.000000
-1.000000 0.000000 0.000000
-1.000000 0.000000 0.000000
-1.000000 0.000000 0.000000
-1.000000 0.000000 0.000000
-1.000000 0.000000 0.000000
-1.000000 0.000000 0.000000
</float_array>
          <technique_common>
            <accessor source="#pCube12-Normal0-array" count="30" stride="3">
              <param name="X" type="float"/>
              <param name="Y" type="float"/>
              <param name="Z" type="float"/>
            </accessor>
          </technique_common>
        </source>
        <source id="pCube12-UV0">
          <float_array id="pCube12-UV0-array" count="40">
0.728527 -0.016612
0.229167 -0.017729
0.770833 -0.016614
0.271473 -0.017727
0.033843 0.270201
0.472746 0.270201
0.271472 0.026253
0.229167 0.026255
0.770833 0.026300
0.728527 0.026298
0.000000 -0.017380
0.999900 -0.017379
0.999900 0.026035
0.000000 0.026034
0.033386 0.076344
0.472749 0.076345
0.472744 0.095129
0.033392 0.095128
0.472768 0.286408
0.033822 0.286408
</float_array>
          <technique_common>
            <accessor source="#pCube12-UV0-array" count="20" stride="2">
              <param name="S" type="float"/>
              <param name="T" type="float"/>
            </accessor>
          </technique_common>
        </source>
        <vertices id="pCube12-VERTEX">
          <input semantic="POSITION" source="#pCube12-POSITION"/>
        </vertices>
        <triangles count="10" material="blinn9"><input semantic="VERTEX" offset="0" source="#pCube12-VERTEX"/><input semantic="NORMAL" offset="1" source="#pCube12-Normal0"/><input semantic="TEXCOORD" offset="2" set="0" source="#pCube12-UV0"/><p> 0 0 10 1 1 11 2 2 13 2 3 13 1 4 11 3 5 12 2 6 14 3 7 15 4 8 17 4 9 17 3 10 15 5 11 16 6 12 4 7 13 5 0 14 19 0 15 19 7 16 5 1 17 18 1 18 1 7 19 3 3 20 7 3 21 7 7 22 3 5 23 6 6 24 0 0 25 2 4 26 9 4 27 9 0 28 2 2 29 8</p></triangles>
      </mesh>
    </geometry>
    <geometry id="pCube13-lib" name="pCube13Mesh">
      <mesh>
        <source id="pCube13-POSITION">
          <float_array id="pCube13-POSITION-array" count="24">
-0.500000 -0.500000 0.316733
0.500000 -0.500000 0.316733
-0.500000 0.499998 0.316733
0.500000 0.499998 0.316733
-0.500000 0.499998 0.270521
0.500000 0.499998 0.270521
-0.500000 -0.500000 0.270521
0.500000 -0.500000 0.270521
</float_array>
          <technique_common>
            <accessor source="#pCube13-POSITION-array" count="8" stride="3">
              <param name="X" type="float"/>
              <param name="Y" type="float"/>
              <param name="Z" type="float"/>
            </accessor>
          </technique_common>
        </source>
        <source id="pCube13-Normal0">
          <float_array id="pCube13-Normal0-array" count="90">
0.000000 0.000000 1.000000
0.000000 0.000000 1.000000
0.000000 0.000000 1.000000
0.000000 0.000000 1.000000
0.000000 0.000000 1.000000
0.000000 0.000000 1.000000
0.000000 1.000000 0.000000
0.000000 1.000000 0.000000
0.000000 1.000000 0.000000
0.000000 1.000000 0.000000
0.000000 1.000000 0.000000
0.000000 1.000000 0.000000
0.000000 -1.000000 0.000000
0.000000 -1.000000 0.000000
0.000000 -1.000000 0.000000
0.000000 -1.000000 0.000000
0.000000 -1.000000 0.000000
0.000000 -1.000000 0.000000
1.000000 0.000000 0.000000
1.000000 0.000000 0.000000
1.000000 0.000000 0.000000
1.000000 0.000000 0.000000
1.000000 0.000000 0.000000
1.000000 0.000000 0.000000
-1.000000 0.000000 0.000000
-1.000000 0.000000 0.000000
-1.000000 0.000000 0.000000
-1.000000 0.000000 0.000000
-1.000000 0.000000 0.000000
-1.000000 0.000000 0.000000
</float_array>
          <technique_common>
            <accessor source="#pCube13-Normal0-array" count="30" stride="3">
              <param name="X" type="float"/>
              <param name="Y" type="float"/>
              <param name="Z" type="float"/>
            </accessor>
          </technique_common>
        </source>
        <source id="pCube13-UV0">
          <float_array id="pCube13-UV0-array" count="40">
0.728527 -0.016612
0.229167 -0.017729
0.770833 -0.016614
0.271473 -0.017727
0.033843 0.270201
0.472746 0.270201
0.271472 0.026253
0.229167 0.026255
0.770833 0.026300
0.728527 0.026298
0.000000 -0.017380
0.999900 -0.017379
0.999900 0.026035
0.000000 0.026034
0.033386 0.076344
0.472749 0.076345
0.472744 0.095129
0.033392 0.095128
0.472768 0.286408
0.033822 0.286408
</float_array>
          <technique_common>
            <accessor source="#pCube13-UV0-array" count="20" stride="2">
              <param name="S" type="float"/>
              <param name="T" type="float"/>
            </accessor>
          </technique_common>
        </source>
        <vertices id="pCube13-VERTEX">
          <input semantic="POSITION" source="#pCube13-POSITION"/>
        </vertices>
        <triangles count="10" material="blinn9"><input semantic="VERTEX" offset="0" source="#pCube13-VERTEX"/><input semantic="NORMAL" offset="1" source="#pCube13-Normal0"/><input semantic="TEXCOORD" offset="2" set="0" source="#pCube13-UV0"/><p> 0 0 10 1 1 11 2 2 13 2 3 13 1 4 11 3 5 12 2 6 14 3 7 15 4 8 17 4 9 17 3 10 15 5 11 16 6 12 4 7 13 5 0 14 19 0 15 19 7 16 5 1 17 18 1 18 1 7 19 3 3 20 7 3 21 7 7 22 3 5 23 6 6 24 0 0 25 2 4 26 9 4 27 9 0 28 2 2 29 8</p></triangles>
      </mesh>
    </geometry>
    <geometry id="pCube14-lib" name="pCube14Mesh">
      <mesh>
        <source id="pCube14-POSITION">
          <float_array id="pCube14-POSITION-array" count="24">
-0.500000 -0.500000 0.316733
0.500000 -0.500000 0.316733
-0.500000 0.499998 0.316733
0.500000 0.499998 0.316733
-0.500000 0.499998 0.270521
0.500000 0.499998 0.270521
-0.500000 -0.500000 0.270521
0.500000 -0.500000 0.270521
</float_array>
          <technique_common>
            <accessor source="#pCube14-POSITION-array" count="8" stride="3">
              <param name="X" type="float"/>
              <param name="Y" type="float"/>
              <param name="Z" type="float"/>
            </accessor>
          </technique_common>
        </source>
        <source id="pCube14-Normal0">
          <float_array id="pCube14-Normal0-array" count="90">
0.000000 0.000000 1.000000
0.000000 0.000000 1.000000
0.000000 0.000000 1.000000
0.000000 0.000000 1.000000
0.000000 0.000000 1.000000
0.000000 0.000000 1.000000
0.000000 1.000000 0.000000
0.000000 1.000000 0.000000
0.000000 1.000000 0.000000
0.000000 1.000000 0.000000
0.000000 1.000000 0.000000
0.000000 1.000000 0.000000
0.000000 -1.000000 0.000000
0.000000 -1.000000 0.000000
0.000000 -1.000000 0.000000
0.000000 -1.000000 0.000000
0.000000 -1.000000 0.000000
0.000000 -1.000000 0.000000
1.000000 0.000000 0.000000
1.000000 0.000000 0.000000
1.000000 0.000000 0.000000
1.000000 0.000000 0.000000
1.000000 0.000000 0.000000
1.000000 0.000000 0.000000
-1.000000 0.000000 0.000000
-1.000000 0.000000 0.000000
-1.000000 0.000000 0.000000
-1.000000 0.000000 0.000000
-1.000000 0.000000 0.000000
-1.000000 0.000000 0.000000
</float_array>
          <technique_common>
            <accessor source="#pCube14-Normal0-array" count="30" stride="3">
              <param name="X" type="float"/>
              <param name="Y" type="float"/>
              <param name="Z" type="float"/>
            </accessor>
          </technique_common>
        </source>
        <source id="pCube14-UV0">
          <float_array id="pCube14-UV0-array" count="40">
0.728527 -0.016612
0.229167 -0.017729
0.770833 -0.016614
0.271473 -0.017727
0.033843 0.270201
0.472746 0.270201
0.271472 0.026253
0.229167 0.026255
0.770833 0.026300
0.728527 0.026298
0.000000 -0.017380
0.999900 -0.017379
0.999900 0.026035
0.000000 0.026034
0.033386 0.076344
0.472749 0.076345
0.472744 0.095129
0.033392 0.095128
0.472768 0.286408
0.033822 0.286408
</float_array>
          <technique_common>
            <accessor source="#pCube14-UV0-array" count="20" stride="2">
              <param name="S" type="float"/>
              <param name="T" type="float"/>
            </accessor>
          </technique_common>
        </source>
        <vertices id="pCube14-VERTEX">
          <input semantic="POSITION" source="#pCube14-POSITION"/>
        </vertices>
        <triangles count="10" material="blinn9"><input semantic="VERTEX" offset="0" source="#pCube14-VERTEX"/><input semantic="NORMAL" offset="1" source="#pCube14-Normal0"/><input semantic="TEXCOORD" offset="2" set="0" source="#pCube14-UV0"/><p> 0 0 10 1 1 11 2 2 13 2 3 13 1 4 11 3 5 12 2 6 14 3 7 15 4 8 17 4 9 17 3 10 15 5 11 16 6 12 4 7 13 5 0 14 19 0 15 19 7 16 5 1 17 18 1 18 1 7 19 3 3 20 7 3 21 7 7 22 3 5 23 6 6 24 0 0 25 2 4 26 9 4 27 9 0 28 2 2 29 8</p></triangles>
      </mesh>
    </geometry>
    <geometry id="pCube15-lib" name="pCube15Mesh">
      <mesh>
        <source id="pCube15-POSITION">
          <float_array id="pCube15-POSITION-array" count="24">
-0.500000 -0.500000 0.316733
0.915871 -0.500000 0.316733
-0.500000 0.499998 0.316733
0.915871 0.499998 0.316733
-0.500000 0.499998 0.270521
0.915871 0.499998 0.270521
-0.500000 -0.500000 0.270521
0.915871 -0.500000 0.270521
</float_array>
          <technique_common>
            <accessor source="#pCube15-POSITION-array" count="8" stride="3">
              <param name="X" type="float"/>
              <param name="Y" type="float"/>
              <param name="Z" type="float"/>
            </accessor>
          </technique_common>
        </source>
        <source id="pCube15-Normal0">
          <float_array id="pCube15-Normal0-array" count="90">
0.000000 0.000000 1.000000
0.000000 0.000000 1.000000
0.000000 0.000000 1.000000
0.000000 0.000000 1.000000
0.000000 0.000000 1.000000
0.000000 0.000000 1.000000
0.000000 1.000000 0.000000
0.000000 1.000000 0.000000
0.000000 1.000000 0.000000
0.000000 1.000000 0.000000
0.000000 1.000000 0.000000
0.000000 1.000000 0.000000
0.000000 -1.000000 0.000000
0.000000 -1.000000 0.000000
0.000000 -1.000000 0.000000
0.000000 -1.000000 0.000000
0.000000 -1.000000 0.000000
0.000000 -1.000000 0.000000
1.000000 0.000000 0.000000
1.000000 0.000000 0.000000
1.000000 0.000000 0.000000
1.000000 0.000000 0.000000
1.000000 0.000000 0.000000
1.000000 0.000000 0.000000
-1.000000 0.000000 0.000000
-1.000000 0.000000 0.000000
-1.000000 0.000000 0.000000
-1.000000 0.000000 0.000000
-1.000000 0.000000 0.000000
-1.000000 0.000000 0.000000
</float_array>
          <technique_common>
            <accessor source="#pCube15-Normal0-array" count="30" stride="3">
              <param name="X" type="float"/>
              <param name="Y" type="float"/>
              <param name="Z" type="float"/>
            </accessor>
          </technique_common>
        </source>
        <source id="pCube15-UV0">
          <float_array id="pCube15-UV0-array" count="40">
0.728527 -0.016612
0.229167 -0.017729
0.770833 -0.016614
0.271473 -0.017727
0.033843 0.270201
0.472746 0.270201
0.271472 0.026253
0.229167 0.026255
0.770833 0.026300
0.728527 0.026298
0.000000 -0.017380
0.999900 -0.017379
0.999900 0.026035
0.000000 0.026034
0.033386 0.076344
0.472749 0.076345
0.472744 0.095129
0.033392 0.095128
0.472768 0.286408
0.033822 0.286408
</float_array>
          <technique_common>
            <accessor source="#pCube15-UV0-array" count="20" stride="2">
              <param name="S" type="float"/>
              <param name="T" type="float"/>
            </accessor>
          </technique_common>
        </source>
        <vertices id="pCube15-VERTEX">
          <input semantic="POSITION" source="#pCube15-POSITION"/>
        </vertices>
        <triangles count="10" material="blinn9"><input semantic="VERTEX" offset="0" source="#pCube15-VERTEX"/><input semantic="NORMAL" offset="1" source="#pCube15-Normal0"/><input semantic="TEXCOORD" offset="2" set="0" source="#pCube15-UV0"/><p> 0 0 10 1 1 11 2 2 13 2 3 13 1 4 11 3 5 12 2 6 14 3 7 15 4 8 17 4 9 17 3 10 15 5 11 16 6 12 4 7 13 5 0 14 19 0 15 19 7 16 5 1 17 18 1 18 1 7 19 3 3 20 7 3 21 7 7 22 3 5 23 6 6 24 0 0 25 2 4 26 9 4 27 9 0 28 2 2 29 8</p></triangles>
      </mesh>
    </geometry>
    <geometry id="pCube16-lib" name="pCube16Mesh">
      <mesh>
        <source id="pCube16-POSITION">
          <float_array id="pCube16-POSITION-array" count="24">
-0.500000 -0.500000 0.316733
0.915871 -0.500000 0.316733
-0.500000 0.499998 0.316733
0.915871 0.499998 0.316733
-0.500000 0.499998 0.270521
0.915871 0.499998 0.270521
-0.500000 -0.500000 0.270521
0.915871 -0.500000 0.270521
</float_array>
          <technique_common>
            <accessor source="#pCube16-POSITION-array" count="8" stride="3">
              <param name="X" type="float"/>
              <param name="Y" type="float"/>
              <param name="Z" type="float"/>
            </accessor>
          </technique_common>
        </source>
        <source id="pCube16-Normal0">
          <float_array id="pCube16-Normal0-array" count="90">
0.000000 0.000000 1.000000
0.000000 0.000000 1.000000
0.000000 0.000000 1.000000
0.000000 0.000000 1.000000
0.000000 0.000000 1.000000
0.000000 0.000000 1.000000
0.000000 1.000000 0.000000
0.000000 1.000000 0.000000
0.000000 1.000000 0.000000
0.000000 1.000000 0.000000
0.000000 1.000000 0.000000
0.000000 1.000000 0.000000
0.000000 -1.000000 0.000000
0.000000 -1.000000 0.000000
0.000000 -1.000000 0.000000
0.000000 -1.000000 0.000000
0.000000 -1.000000 0.000000
0.000000 -1.000000 0.000000
1.000000 0.000000 0.000000
1.000000 0.000000 0.000000
1.000000 0.000000 0.000000
1.000000 0.000000 0.000000
1.000000 0.000000 0.000000
1.000000 0.000000 0.000000
-1.000000 0.000000 0.000000
-1.000000 0.000000 0.000000
-1.000000 0.000000 0.000000
-1.000000 0.000000 0.000000
-1.000000 0.000000 0.000000
-1.000000 0.000000 0.000000
</float_array>
          <technique_common>
            <accessor source="#pCube16-Normal0-array" count="30" stride="3">
              <param name="X" type="float"/>
              <param name="Y" type="float"/>
              <param name="Z" type="float"/>
            </accessor>
          </technique_common>
        </source>
        <source id="pCube16-UV0">
          <float_array id="pCube16-UV0-array" count="40">
0.728527 -0.016612
0.229167 -0.017729
0.770833 -0.016614
0.271473 -0.017727
0.033843 0.270201
0.472746 0.270201
0.271472 0.026253
0.229167 0.026255
0.770833 0.026300
0.728527 0.026298
0.000000 -0.017380
0.999900 -0.017379
0.999900 0.026035
0.000000 0.026034
0.033386 0.076344
0.472749 0.076345
0.472744 0.095129
0.033392 0.095128
0.472768 0.286408
0.033822 0.286408
</float_array>
          <technique_common>
            <accessor source="#pCube16-UV0-array" count="20" stride="2">
              <param name="S" type="float"/>
              <param name="T" type="float"/>
            </accessor>
          </technique_common>
        </source>
        <vertices id="pCube16-VERTEX">
          <input semantic="POSITION" source="#pCube16-POSITION"/>
        </vertices>
        <triangles count="10" material="blinn9"><input semantic="VERTEX" offset="0" source="#pCube16-VERTEX"/><input semantic="NORMAL" offset="1" source="#pCube16-Normal0"/><input semantic="TEXCOORD" offset="2" set="0" source="#pCube16-UV0"/><p> 0 0 10 1 1 11 2 2 13 2 3 13 1 4 11 3 5 12 2 6 14 3 7 15 4 8 17 4 9 17 3 10 15 5 11 16 6 12 4 7 13 5 0 14 19 0 15 19 7 16 5 1 17 18 1 18 1 7 19 3 3 20 7 3 21 7 7 22 3 5 23 6 6 24 0 0 25 2 4 26 9 4 27 9 0 28 2 2 29 8</p></triangles>
      </mesh>
    </geometry>
  </library_geometries>
  <library_visual_scenes>
    <visual_scene id="mansion_wallpaper_3_window_small_seethrough" name="mansion_wallpaper_3_window_small_seethrough">
      <node name="pPlane1" id="pPlane1" sid="pPlane1"><matrix sid="matrix">400.000000 0.000000 0.000000 0.000000 0.000000 0.000000 -400.000000 325.000000 0.000000 100.000000 0.000000 0.000000 0.000000 0.000000 0.000000 1.000000</matrix><extra><technique profile="FCOLLADA"><visibility>1.000000</visibility></technique></extra></node>
      <node name="pCube1" id="pCube1" sid="pCube1"><matrix sid="matrix">400.000000 0.000000 0.000000 0.000000 0.000000 100.000000 0.000000 50.000000 0.000000 0.000000 100.000000 -37.500000 0.000000 0.000000 0.000000 1.000000</matrix><instance_geometry url="#pCube1-lib"><bind_material><technique_common><instance_material symbol="blinn2" target="#blinn2"/></technique_common></bind_material></instance_geometry><extra><technique profile="FCOLLADA"><visibility>1.000000</visibility></technique></extra></node>
      <node name="pPlane2" id="pPlane2" sid="pPlane2"><matrix sid="matrix">400.000000 0.000000 0.000000 0.000000 0.000000 0.000000 -50.000000 500.000000 0.000000 100.000000 0.000000 0.000000 0.000000 0.000000 0.000000 1.000000</matrix><instance_geometry url="#pPlane2-lib"><bind_material><technique_common><instance_material symbol="blinn3" target="#blinn3"/></technique_common></bind_material></instance_geometry><extra><technique profile="FCOLLADA"><visibility>1.000000</visibility></technique></extra></node>
      <node name="pCube2" id="pCube2" sid="pCube2"><matrix sid="matrix">50.000000 0.000000 0.000000 -225.000000 0.000000 525.000000 0.000000 262.500000 0.000000 0.000000 50.000000 0.000000 0.000000 0.000000 0.000000 1.000000</matrix><extra><technique profile="FCOLLADA"><visibility>1.000000</visibility></technique></extra></node>
      <node name="pCube3" id="pCube3" sid="pCube3"><matrix sid="matrix">13.174710 0.000000 0.000000 -225.000000 0.000000 404.392200 0.000000 251.363998 0.000000 0.000000 100.000000 60.609329 0.000000 0.000000 0.000000 1.000000</matrix><extra><technique profile="FCOLLADA"><visibility>1.000000</visibility></technique></extra></node>
      <node name="polySurface1" id="polySurface1" sid="polySurface1"><matrix sid="matrix">100.000000 0.000000 0.000000 0.000000 0.000000 100.000000 0.000000 0.000000 0.000000 0.000000 100.000000 0.000000 0.000000 0.000000 0.000000 1.000000</matrix><extra><technique profile="FCOLLADA"><visibility>1.000000</visibility></technique></extra></node>
      <node name="pCube4" id="pCube4" sid="pCube4"><matrix sid="matrix">100.000000 0.000000 0.000000 -277.807709 0.000000 401.983800 0.000000 251.900894 0.000000 0.000000 15.240380 0.000000 0.000000 0.000000 0.000000 1.000000</matrix><extra><technique profile="FCOLLADA"><visibility>1.000000</visibility></technique></extra></node>
      <node name="pCube5" id="pCube5" sid="pCube5"><matrix sid="matrix">100.000000 0.000000 0.000000 -154.485596 0.000000 401.983800 0.000000 251.900894 0.000000 0.000000 15.240380 0.000000 0.000000 0.000000 0.000000 1.000000</matrix><extra><technique profile="FCOLLADA"><visibility>1.000000</visibility></technique></extra></node>
      <node name="polySurface2" id="polySurface2" sid="polySurface2"><matrix sid="matrix">100.000000 0.000000 0.000000 0.000000 0.000000 100.000000 0.000000 0.000000 0.000000 0.000000 100.000000 0.000000 0.000000 0.000000 0.000000 1.000000</matrix><extra><technique profile="FCOLLADA"><visibility>1.000000</visibility></technique></extra></node>
      <node name="polySurface4" id="polySurface4" sid="polySurface4"><matrix sid="matrix">100.000000 0.000000 0.000000 0.000000 0.000000 100.000000 0.000000 0.000000 0.000000 0.000000 100.000000 587.500000 0.000000 0.000000 0.000000 1.000000</matrix><extra><technique profile="FCOLLADA"><visibility>1.000000</visibility></technique></extra></node>
      <node name="pCube6" id="pCube6" sid="pCube6"><matrix sid="matrix">14.049410 0.000000 0.000000 -226.139008 0.000000 401.593100 0.000000 252.131104 0.000000 0.000000 100.000000 515.865906 0.000000 0.000000 0.000000 1.000000</matrix><extra><technique profile="FCOLLADA"><visibility>1.000000</visibility></technique></extra></node>
      <node name="pCube7" id="pCube7" sid="pCube7"><matrix sid="matrix">200.000000 0.000000 0.000000 4.869808 0.000000 300.000000 0.000000 275.000000 0.000000 0.000000 100.000000 -40.130100 0.000000 0.000000 0.000000 1.000000</matrix><extra><technique profile="FCOLLADA"><visibility>1.000000</visibility></technique></extra></node>
      <node name="pCube8" id="pCube8" sid="pCube8"><matrix sid="matrix">200.000000 0.000000 0.000000 4.869808 0.000000 300.000000 0.000000 275.000000 0.000000 0.000000 74.049760 575.000000 0.000000 0.000000 0.000000 1.000000</matrix><extra><technique profile="FCOLLADA"><visibility>1.000000</visibility></technique></extra></node>
      <node name="polySurface5" id="polySurface5" sid="polySurface5"><matrix sid="matrix">100.000000 0.000000 0.000000 0.000000 0.000000 100.000000 0.000000 0.000000 0.000000 0.000000 100.000000 0.000000 0.000000 0.000000 0.000000 1.000000</matrix><instance_geometry url="#polySurface5-lib"><bind_material><technique_common><instance_material symbol="blinn1" target="#blinn1"/></technique_common></bind_material></instance_geometry><extra><technique profile="FCOLLADA"><visibility>1.000000</visibility></technique></extra></node>
      <node name="pCube9" id="pCube9" sid="pCube9"><matrix sid="matrix">180.913300 0.000000 0.000000 4.869808 0.000000 271.369900 0.000000 275.000000 0.000000 0.000000 114.566200 575.000000 0.000000 0.000000 0.000000 1.000000</matrix><extra><technique profile="FCOLLADA"><visibility>1.000000</visibility></technique></extra></node>
      <node name="pCube10" id="pCube10" sid="pCube10"><matrix sid="matrix">200.000000 0.000000 0.000000 0.054016 0.000000 300.000000 0.000000 273.785797 0.000000 0.000000 74.049760 12.500000 0.000000 0.000000 0.000000 1.000000</matrix><instance_geometry url="#pCube10-lib"><bind_material><technique_common><instance_material symbol="blinn10" target="#blinn10"/></technique_common></bind_material></instance_geometry><extra><technique profile="FCOLLADA"><visibility>1.000000</visibility></technique></extra></node>
      <node name="polySurface6" id="polySurface6" sid="polySurface6"><matrix sid="matrix">100.000000 0.000000 0.000000 -4.853074 0.000000 100.000000 0.000000 0.000000 0.000000 0.000000 44.990060 -270.539703 0.000000 0.000000 0.000000 1.000000</matrix><instance_geometry url="#polySurface6-lib"><bind_material><technique_common><instance_material symbol="blinn7" target="#blinn7"/></technique_common></bind_material></instance_geometry><extra><technique profile="FCOLLADA"><visibility>1.000000</visibility></technique></extra></node>
      <node name="pCube11" id="pCube11" sid="pCube11"><matrix sid="matrix">180.969100 0.000000 0.000000 0.000000 0.000000 4.448848 0.000000 200.049393 0.000000 0.000000 100.000000 -52.510330 0.000000 0.000000 0.000000 1.000000</matrix><instance_geometry url="#pCube11-lib"><bind_material><technique_common><instance_material symbol="blinn9" target="#blinn9"/></technique_common></bind_material></instance_geometry><extra><technique profile="FCOLLADA"><visibility>1.000000</visibility></technique></extra></node>
      <node name="pCube12" id="pCube12" sid="pCube12"><matrix sid="matrix">180.969100 0.000000 0.000000 0.000000 0.000000 4.448848 0.000000 259.563385 0.000000 0.000000 100.000000 -52.510330 0.000000 0.000000 0.000000 1.000000</matrix><instance_geometry url="#pCube12-lib"><bind_material><technique_common><instance_material symbol="blinn9" target="#blinn9"/></technique_common></bind_material></instance_geometry><extra><technique profile="FCOLLADA"><visibility>1.000000</visibility></technique></extra></node>
      <node name="pCube13" id="pCube13" sid="pCube13"><matrix sid="matrix">180.969100 0.000000 0.000000 0.000000 0.000000 4.448848 0.000000 319.782104 0.000000 0.000000 100.000000 -52.510330 0.000000 0.000000 0.000000 1.000000</matrix><instance_geometry url="#pCube13-lib"><bind_material><technique_common><instance_material symbol="blinn9" target="#blinn9"/></technique_common></bind_material></instance_geometry><extra><technique profile="FCOLLADA"><visibility>1.000000</visibility></technique></extra></node>
      <node name="pCube14" id="pCube14" sid="pCube14"><matrix sid="matrix">180.969100 0.000000 0.000000 0.000000 0.000000 4.448848 0.000000 380.895691 0.000000 0.000000 100.000000 -52.510330 0.000000 0.000000 0.000000 1.000000</matrix><instance_geometry url="#pCube14-lib"><bind_material><technique_common><instance_material symbol="blinn9" target="#blinn9"/></technique_common></bind_material></instance_geometry><extra><technique profile="FCOLLADA"><visibility>1.000000</visibility></technique></extra></node>
      <node name="pCube15" id="pCube15" sid="pCube15"><matrix sid="matrix">0.000000 4.448848 0.000000 -28.885160 -180.969100 0.000000 0.000000 302.925903 0.000000 0.000000 100.000000 -51.633732 0.000000 0.000000 0.000000 1.000000</matrix><instance_geometry url="#pCube15-lib"><bind_material><technique_common><instance_material symbol="blinn9" target="#blinn9"/></technique_common></bind_material></instance_geometry><extra><technique profile="FCOLLADA"><visibility>1.000000</visibility></technique></extra></node>
      <node name="pCube16" id="pCube16" sid="pCube16"><matrix sid="matrix">0.000000 4.448848 0.000000 32.493801 -180.969100 0.000000 0.000000 302.925903 0.000000 0.000000 100.000000 -51.633732 0.000000 0.000000 0.000000 1.000000</matrix><instance_geometry url="#pCube16-lib"><bind_material><technique_common><instance_material symbol="blinn9" target="#blinn9"/></technique_common></bind_material></instance_geometry><extra><technique profile="FCOLLADA"><visibility>1.000000</visibility></technique></extra></node>
      <extra><technique profile="MAX3D"><frame_rate>30.000000</frame_rate></technique><technique profile="FCOLLADA"><start_time>0.000000</start_time><end_time>1.000000</end_time></technique></extra>
    </visual_scene>
  </library_visual_scenes>
  <scene>
    <instance_visual_scene url="#mansion_wallpaper_3_window_small_seethrough"></instance_visual_scene>
  </scene>
</COLLADA>
