﻿<?xml version="1.0" encoding="utf-8"?>
<COLLADA version="1.4.0" xmlns="http://www.collada.org/2005/11/COLLADASchema">
  <asset>
    <contributor>
      <author>Illusoft Collada 1.4.0 plugin for Blender - http://colladablender.illusoft.com</author>
      <authoring_tool>Blender v:249 - Illusoft Collada Exporter v:0.3.160</authoring_tool>
      <comments></comments>
      <copyright></copyright>
      <source_data>file://C:/penumbra/lux/redist/_temp/jens/wall_secret_door.blend</source_data>
    </contributor>
    <created>2009-07-29T18:52:18.078000</created>
    <modified>2009-07-29T18:52:18.078000</modified>
    <up_axis>Z_UP</up_axis>
    <hpl2scaling />
  </asset>
  <library_effects>
    <effect id="lambert7-fx" name="lambert7-fx">
      <profile_COMMON>
        <newparam sid="castlebase_wall_dds-surface">
          <surface type="2D">
            <init_from>castlebase_wall_dds-img</init_from>
            <format>A8R8G8B8</format>
          </surface>
        </newparam>
        <newparam sid="castlebase_wall_dds-sampler">
          <sampler2D>
            <source>castlebase_wall_dds-surface</source>
            <minfilter>LINEAR_MIPMAP_LINEAR</minfilter>
            <magfilter>LINEAR</magfilter>
          </sampler2D>
        </newparam>
        <technique sid="blender">
          <lambert>
            <emission>
              <color>0.00000 0.00000 0.00000 1</color>
            </emission>
            <ambient>
              <color>0.40000 0.40000 0.40000 1</color>
            </ambient>
            <diffuse>
              <texture texcoord="CHANNEL1" texture="castlebase_wall_dds-sampler" />
            </diffuse>
            <reflective>
              <color>1.00000 1.00000 1.00000 1</color>
            </reflective>
            <reflectivity>
              <float>0.0</float>
            </reflectivity>
            <transparent>
              <color>1 1 1 1</color>
            </transparent>
            <transparency>
              <float>0.0</float>
            </transparency>
          </lambert>
        </technique>
      </profile_COMMON>
    </effect>
  </library_effects>
  <library_images>
    <image id="castlebase_wall_dds-img" name="castlebase_wall_dds-img">
      <init_from>castlebase_wall.dds</init_from>
    </image>
  </library_images>
  <library_materials>
    <material id="lambert7" name="lambert7">
      <instance_effect url="#lambert7-fx" />
    </material>
  </library_materials>
  <library_geometries>
    <geometry id="polySurfaceShape132" name="polySurfaceShape132">
      <mesh>
        <source id="polySurfaceShape132-Position">
          <float_array count="696" id="polySurfaceShape132-Position-array">0.32190 -2.00000 4.00000 0.32190 2.00000 4.00000 0.00000 -2.00000 1.49570 0.00000 2.00000 1.49570 0.25000 2.00000 1.35709 0.25000 -2.00000 1.35709 0.11556 2.00000 1.47316 0.11556 -2.00000 1.47316 0.06149 2.00000 1.49570 0.06149 -2.00000 1.49570 0.24119 2.00000 1.39109 0.24119 -2.00000 1.39109 0.20368 2.00000 1.42097 0.20368 -2.00000 1.42097 0.00000 -1.75000 0.27223 0.15170 -1.75000 0.15745 0.15170 -1.75000 0.00000 0.00000 1.75000 0.27223 0.15170 1.75000 0.15745 0.15170 1.75000 0.00000 0.15170 1.75000 0.07873 0.15170 -1.75000 0.07873 0.17458 -1.75000 0.02056 0.17458 -1.75000 0.05816 0.17458 1.75000 0.02056 0.17458 1.75000 0.05816 0.07585 -1.75000 0.21484 0.07585 1.75000 0.21484 0.07354 -1.75000 0.25251 0.03688 -1.75000 0.28025 0.07354 1.75000 0.25251 0.03688 1.75000 0.28025 0.26784 1.75000 0.21522 0.26784 2.00000 0.21522 0.00000 2.00000 0.45924 0.00000 1.75000 0.45924 0.29657 1.75000 0.00000 0.29657 2.00000 0.00000 0.26784 -2.00000 0.21522 0.26784 -1.75000 0.21522 0.00000 -1.75000 0.45924 0.00000 -2.00000 0.45924 0.29657 -2.00000 0.00000 0.29657 -1.75000 0.00000 0.25000 1.75000 1.35709 0.08925 1.75000 1.32264 0.00000 1.75000 1.20825 0.25000 -1.75000 1.35709 0.08925 -1.75000 1.32264 0.00000 -1.75000 1.20825 0.11154 2.00000 1.10507 0.11154 1.75000 1.10507 0.00000 1.75000 1.02189 0.00000 2.00000 1.02189 0.11154 -1.75000 1.10507 0.11154 -2.00000 1.10507 0.00000 -2.00000 1.02189 0.00000 -1.75000 1.02189 0.16739 -2.00000 1.27891 0.16739 -1.75000 1.27891 0.16739 1.75000 1.27891 0.16739 2.00000 1.27891 0.00000 2.00000 3.75000 0.00000 -2.00000 3.75000 0.30272 2.00000 3.92814 0.30272 -2.00000 3.92814 0.16376 -2.00000 3.86320 0.16376 2.00000 3.86320 0.23721 -2.00000 3.87762 0.23721 2.00000 3.87762 0.12345 -2.00000 3.80896 0.12345 2.00000 3.80896 0.06789 -2.00000 3.76717 0.06789 2.00000 3.76717 0.00000 -2.00000 4.00000 0.00000 2.00000 4.00000 0.11556 1.16848 1.47316 0.06149 1.16848 1.49570 0.24119 1.16848 1.39109 0.20368 1.16848 1.42097 0.25000 1.16848 1.35709 0.08925 1.16848 1.32264 0.00000 1.12795 0.27223 0.15170 1.12795 0.15745 0.15170 1.12795 0.00000 0.15170 1.12795 0.07873 0.17458 1.12795 0.02056 0.17458 1.12795 0.05816 0.07585 1.12795 0.21484 0.07354 1.12795 0.25251 0.03688 1.12795 0.28025 0.00000 1.16848 1.20825 0.00000 1.16848 1.49570 0.15170 -1.12352 0.15745 0.15170 -1.12352 0.00000 0.17458 -1.12352 0.02056 0.07585 -1.12352 0.21484 0.07354 -1.12352 0.25251 0.03688 -1.12352 0.28025 0.00000 -1.16406 1.20825 0.00000 -1.16406 1.49570 0.11556 -1.16406 1.47316 0.06149 -1.16406 1.49570 0.24119 -1.16406 1.39109 0.20368 -1.16406 1.42097 0.15170 -1.12352 0.07873 0.17458 -1.12352 0.05816 0.08925 -1.16406 1.32264 0.25000 -1.16406 1.35709 0.00000 1.12795 0.45924 0.00000 1.12795 1.02189 0.00000 -1.12352 0.27223 0.00000 -1.12352 1.02189 0.00000 -1.12352 0.45924 0.00000 1.16848 2.98421 0.00000 -1.16406 2.98421 -0.57190 2.00000 4.00000 -0.57190 -2.00000 4.00000 -0.25000 2.00000 1.49570 -0.25000 -2.00000 1.49570 -0.50000 -2.00000 1.35709 -0.50000 2.00000 1.35709 -0.36556 -2.00000 1.47316 -0.36556 2.00000 1.47316 -0.31149 -2.00000 1.49570 -0.31149 2.00000 1.49570 -0.49119 -2.00000 1.39109 -0.49119 2.00000 1.39109 -0.45368 -2.00000 1.42097 -0.45368 2.00000 1.42097 -0.25000 1.75000 0.27223 -0.40170 1.75000 0.15745 -0.40170 1.75000 0.00000 -0.25000 -1.75000 0.27223 -0.40170 -1.75000 0.15745 -0.40170 -1.75000 0.00000 -0.40170 -1.75000 0.07873 -0.40170 1.75000 0.07873 -0.42458 1.75000 0.02056 -0.42458 1.75000 0.05816 -0.42458 -1.75000 0.02056 -0.42458 -1.75000 0.05816 -0.32585 1.75000 0.21484 -0.32585 -1.75000 0.21484 -0.32354 1.75000 0.25251 -0.28688 1.75000 0.28025 -0.32354 -1.75000 0.25251 -0.28688 -1.75000 0.28025 -0.51784 -1.75000 0.21522 -0.51784 -2.00000 0.21522 -0.25000 -2.00000 0.45924 -0.25000 -1.75000 0.45924 -0.54657 -1.75000 0.00000 -0.54657 -2.00000 0.00000 -0.51784 2.00000 0.21522 -0.51784 1.75000 0.21522 -0.25000 1.75000 0.45924 -0.25000 2.00000 0.45924 -0.54657 2.00000 0.00000 -0.54657 1.75000 0.00000 -0.50000 -1.75000 1.35709 -0.33925 -1.75000 1.32264 -0.25000 -1.75000 1.20825 -0.50000 1.75000 1.35709 -0.33925 1.75000 1.32264 -0.25000 1.75000 1.20825 -0.36154 -2.00000 1.10507 -0.36154 -1.75000 1.10507 -0.25000 -1.75000 1.02189 -0.25000 -2.00000 1.02189 -0.36154 1.75000 1.10507 -0.36154 2.00000 1.10507 -0.25000 2.00000 1.02189 -0.25000 1.75000 1.02189 -0.41739 2.00000 1.27891 -0.41739 1.75000 1.27891 -0.41740 -1.75000 1.27891 -0.41740 -2.00000 1.27891 -0.25000 -2.00000 3.75000 -0.25000 2.00000 3.75000 -0.55272 -2.00000 3.92814 -0.55272 2.00000 3.92814 -0.41376 2.00000 3.86320 -0.41376 -2.00000 3.86320 -0.48721 2.00000 3.87762 -0.48721 -2.00000 3.87762 -0.37345 2.00000 3.80896 -0.37345 -2.00000 3.80896 -0.31789 2.00000 3.76717 -0.31789 -2.00000 3.76717 -0.25000 2.00000 4.00000 -0.25000 -2.00000 4.00000 -0.36556 -1.16848 1.47316 -0.31149 -1.16848 1.49570 -0.49119 -1.16848 1.39109 -0.45368 -1.16848 1.42097 -0.50000 -1.16848 1.35709 -0.33925 -1.16848 1.32264 -0.25000 -1.12795 0.27223 -0.40170 -1.12795 0.15745 -0.40170 -1.12795 0.00000 -0.40170 -1.12795 0.07873 -0.42458 -1.12795 0.02056 -0.42458 -1.12795 0.05816 -0.32585 -1.12795 0.21484 -0.32354 -1.12795 0.25251 -0.28688 -1.12795 0.28025 -0.25000 -1.16848 1.20825 -0.25000 -1.16848 1.49570 -0.40170 1.12352 0.15745 -0.40170 1.12352 0.00000 -0.42458 1.12352 0.02056 -0.32585 1.12352 0.21484 -0.32354 1.12352 0.25251 -0.28688 1.12352 0.28025 -0.25000 1.16406 1.20825 -0.25000 1.16406 1.49570 -0.36556 1.16406 1.47316 -0.31149 1.16406 1.49570 -0.49119 1.16406 1.39109 -0.45368 1.16406 1.42097 -0.40170 1.12352 0.07873 -0.42458 1.12352 0.05816 -0.33925 1.16406 1.32264 -0.50000 1.16406 1.35709 -0.25000 -1.12795 0.45924 -0.25000 -1.12795 1.02189 -0.25000 1.12352 0.27223 -0.25000 1.12352 1.02189 -0.25000 1.12352 0.45924 -0.25000 -1.16848 2.98421 -0.25000 1.16406 2.98421</float_array>
          <technique_common>
            <accessor count="232" source="#polySurfaceShape132-Position-array" stride="3">
              <param type="float" name="X"></param>
              <param type="float" name="Y"></param>
              <param type="float" name="Z"></param>
            </accessor>
          </technique_common>
        </source>
        <source id="polySurfaceShape132-Normals">
          <float_array count="1047" id="polySurfaceShape132-Normals-array">0.68739 0.00000 -0.72629 0.68739 0.00000 -0.72629 0.96804 -0.00000 0.25078 0.96804 0.00000 0.25078 0.96804 0.00000 0.25078 0.38474 0.00000 0.92302 0.38474 0.00000 0.92302 0.00000 0.00000 1.00000 -0.00000 0.00000 1.00000 0.62304 0.00000 0.78219 0.62304 0.00000 0.78219 0.50960 -0.00000 0.86041 0.50960 0.00000 0.86041 0.60337 0.00000 0.79746 0.60337 0.00000 0.79746 0.67347 0.00000 0.73922 0.67347 0.00000 0.73922 1.00000 0.00000 -0.00000 1.00000 0.00000 0.00000 0.99121 0.00000 0.13231 0.99121 0.00000 0.13231 0.67347 0.00000 0.73922 0.67347 0.00000 0.73922 0.99121 0.00000 0.13231 0.99121 0.00000 0.13231 1.00000 0.00000 -0.00000 1.00000 0.00000 0.00000 0.66846 0.00000 -0.74375 0.66846 0.00000 -0.74375 0.66848 -0.00000 0.74373 0.66848 0.00000 0.74373 0.60337 0.00000 0.79746 0.60337 0.00000 0.79746 0.99813 0.00000 0.06118 0.99813 0.00000 0.06118 -0.21253 0.00000 0.97716 -0.21253 0.00000 0.97716 0.00000 1.00000 -0.00000 -0.00000 1.00000 -0.00000 -0.00000 1.00000 -0.00000 -0.00000 1.00000 0.00000 -0.00000 1.00000 0.00000 -0.00000 1.00000 0.00000 0.00000 1.00000 0.00000 0.00000 1.00000 0.00000 -0.00000 1.00000 0.00000 -0.00000 1.00000 0.00000 -0.00000 -1.00000 0.00000 -0.00000 -1.00000 -0.00000 0.00000 -1.00000 0.00000 0.00000 -1.00000 0.00000 0.00000 -1.00000 0.00000 0.00000 -1.00000 0.00000 0.00000 -1.00000 0.00000 0.00000 -1.00000 0.00000 0.00000 -1.00000 0.00000 0.00000 -1.00000 0.00000 0.59782 0.00000 -0.80163 0.59782 0.00000 -0.80163 1.00000 0.00000 0.00000 1.00000 0.00000 -0.00000 0.20955 0.00000 -0.97780 0.20955 0.00000 -0.97780 0.78842 0.00000 -0.61513 0.78842 0.00000 -0.61513 0.68739 0.00000 -0.72629 0.68739 0.00000 -0.72629 0.59782 0.00000 -0.80163 0.59782 0.00000 -0.80163 0.00000 -1.00000 -0.00000 0.00000 -1.00000 0.00000 0.00000 -1.00000 0.00000 0.00000 1.00000 0.00000 0.00000 1.00000 0.00000 0.00000 1.00000 0.00000 0.95206 0.00000 -0.30590 0.95206 0.00000 -0.30590 0.00000 1.00000 0.00000 0.00000 -1.00000 -0.00000 0.95206 0.00000 -0.30590 0.95206 0.00000 -0.30590 1.00000 -0.00000 0.00000 1.00000 -0.00000 0.00000 1.00000 -0.00000 0.00000 1.00000 -0.00000 0.00000 1.00000 0.00000 -0.00000 1.00000 0.00000 0.00000 1.00000 0.00000 0.00000 1.00000 0.00000 0.00000 1.00000 -0.00000 0.00000 1.00000 -0.00000 0.00000 1.00000 0.00000 -0.00000 1.00000 0.00000 0.00000 1.00000 0.00000 -0.00000 1.00000 0.00000 -0.00000 1.00000 -0.00000 0.00000 1.00000 -0.00000 0.00000 -0.00000 -1.00000 0.00000 0.00000 -1.00000 0.00000 0.00000 -1.00000 0.00000 0.00000 -1.00000 0.00000 0.00000 -1.00000 -0.00000 -0.00000 -1.00000 0.00000 0.60337 -0.00000 0.79746 0.60337 0.00000 0.79746 1.00000 0.00000 0.00000 1.00000 0.00000 -0.00000 1.00000 0.00000 0.00000 1.00000 0.00000 -0.00000 0.66846 0.00000 -0.74375 0.66846 0.00000 -0.74375 0.60337 -0.00000 0.79746 0.60337 0.00000 0.79746 0.99813 -0.00000 0.06118 0.99813 0.00000 0.06118 1.00000 0.00000 0.00000 1.00000 0.00000 -0.00000 0.78842 0.00000 -0.61513 0.78842 0.00000 -0.61513 0.20955 0.00000 -0.97780 0.20955 0.00000 -0.97780 0.96804 -0.00000 0.25078 0.96804 0.00000 0.25078 0.96804 0.00000 0.25078 0.38474 -0.00000 0.92302 0.38474 0.00000 0.92302 0.00000 -0.00000 1.00000 0.00000 0.00000 1.00000 0.62304 -0.00000 0.78219 0.62304 0.00000 0.78219 0.50960 -0.00000 0.86041 0.50960 0.00000 0.86041 -0.00000 1.00000 0.00000 0.00000 1.00000 0.00000 0.00000 1.00000 0.00000 0.00000 1.00000 0.00000 0.00000 1.00000 -0.00000 0.00000 1.00000 0.00000 0.66848 0.00000 0.74373 0.66848 -0.00000 0.74373 -0.21253 0.00000 0.97716 -0.21253 0.00000 0.97716 1.00000 0.00000 0.00000 1.00000 -0.00000 0.00000 0.61063 0.00000 -0.79191 0.61063 0.00000 -0.79191 0.96618 0.00000 -0.25788 0.96618 0.00000 -0.25788 0.80263 0.00000 -0.59648 0.80263 0.00000 -0.59648 0.19265 0.00000 -0.98127 0.19265 0.00000 -0.98127 0.60115 0.00000 -0.79914 0.60115 0.00000 -0.79914 0.24518 0.00000 -0.96948 0.24518 0.00000 -0.96948 0.00000 0.00000 1.00000 0.00000 0.00000 1.00000 -0.68739 0.00000 -0.72629 -0.68739 0.00000 -0.72629 -0.96804 0.00000 0.25078 -0.96804 0.00000 0.25078 -0.96804 0.00000 0.25078 -0.38474 0.00000 0.92302 -0.38474 0.00000 0.92302 0.00000 0.00000 1.00000 0.00000 -0.00000 1.00000 -0.62304 0.00000 0.78219 -0.62304 0.00000 0.78219 -0.50960 0.00000 0.86041 -0.50960 0.00000 0.86041 -0.60337 0.00000 0.79746 -0.60337 0.00000 0.79746 -0.67347 0.00000 0.73922 -0.67347 0.00000 0.73922 -1.00000 0.00000 0.00000 -1.00000 0.00000 0.00000 -0.99121 0.00000 0.13231 -0.99121 0.00000 0.13231 -0.67347 0.00000 0.73922 -0.67347 0.00000 0.73922 -0.99121 0.00000 0.13231 -0.99121 0.00000 0.13231 -1.00000 0.00000 0.00000 -1.00000 0.00000 0.00000 -0.66846 0.00000 -0.74375 -0.66846 0.00000 -0.74375 -0.66848 0.00000 0.74373 -0.66848 0.00000 0.74373 -0.60337 0.00000 0.79746 -0.60337 0.00000 0.79746 -0.99813 0.00000 0.06118 -0.99813 0.00000 0.06118 0.21253 -0.00000 0.97716 0.21253 -0.00000 0.97716 0.00000 -1.00000 0.00000 -0.00000 -1.00000 0.00000 -0.00000 -1.00000 0.00000 -0.00000 -1.00000 0.00000 -0.00000 -1.00000 0.00000 -0.00000 -1.00000 -0.00000 0.00000 -1.00000 -0.00000 0.00000 -1.00000 -0.00000 -0.00000 -1.00000 0.00000 -0.00000 -1.00000 -0.00000 -0.00000 1.00000 0.00000 -0.00000 1.00000 0.00000 0.00000 1.00000 0.00000 0.00000 1.00000 -0.00000 0.00000 1.00000 -0.00000 0.00000 1.00000 0.00000 0.00000 1.00000 0.00000 0.00000 1.00000 -0.00000 0.00000 1.00000 -0.00000 0.00000 1.00000 -0.00000 -0.59782 0.00000 -0.80163 -0.59782 0.00000 -0.80163 -1.00000 0.00000 0.00000 -1.00000 0.00000 0.00000 -0.20955 0.00000 -0.97780 -0.20955 0.00000 -0.97780 -0.78842 0.00000 -0.61513 -0.78842 0.00000 -0.61513 -0.68739 0.00000 -0.72629 -0.68739 0.00000 -0.72629 -0.59782 0.00000 -0.80163 -0.59782 0.00000 -0.80163 0.00000 1.00000 0.00000 0.00000 1.00000 0.00000 0.00000 1.00000 -0.00000 0.00000 -1.00000 -0.00000 0.00000 -1.00000 0.00000 0.00000 -1.00000 0.00000 -0.95206 0.00000 -0.30590 -0.95206 0.00000 -0.30590 0.00000 -1.00000 -0.00000 0.00000 1.00000 0.00000 -0.95206 0.00000 -0.30590 -0.95206 0.00000 -0.30590 -1.00000 0.00000 0.00000 -1.00000 0.00000 0.00000 -1.00000 0.00000 0.00000 -1.00000 0.00000 0.00000 -1.00000 0.00000 0.00000 -1.00000 0.00000 0.00000 -1.00000 0.00000 -0.00000 -1.00000 0.00000 0.00000 -1.00000 0.00000 0.00000 -1.00000 0.00000 0.00000 -1.00000 0.00000 0.00000 -1.00000 0.00000 0.00000 -1.00000 0.00000 -0.00000 -1.00000 0.00000 -0.00000 -1.00000 0.00000 0.00000 -1.00000 0.00000 0.00000 -0.00000 1.00000 0.00000 0.00000 1.00000 -0.00000 0.00000 1.00000 -0.00000 0.00000 1.00000 0.00000 0.00000 1.00000 0.00000 -0.00000 1.00000 -0.00000 -0.60337 0.00000 0.79746 -0.60337 0.00000 0.79746 -1.00000 0.00000 0.00000 -1.00000 0.00000 0.00000 -1.00000 0.00000 0.00000 -1.00000 0.00000 0.00000 -0.66846 0.00000 -0.74375 -0.66846 0.00000 -0.74375 -0.60337 0.00000 0.79746 -0.60337 0.00000 0.79746 -0.99813 0.00000 0.06118 -0.99813 0.00000 0.06118 -1.00000 0.00000 0.00000 -1.00000 0.00000 0.00000 -0.78842 0.00000 -0.61513 -0.78842 0.00000 -0.61513 -0.20955 0.00000 -0.97780 -0.20955 0.00000 -0.97780 -0.96804 0.00000 0.25078 -0.96804 0.00000 0.25078 -0.96804 0.00000 0.25078 -0.38474 0.00000 0.92302 -0.38474 0.00000 0.92302 -0.00000 0.00000 1.00000 -0.00000 0.00000 1.00000 -0.62304 0.00000 0.78219 -0.62304 0.00000 0.78219 -0.50960 0.00000 0.86041 -0.50960 0.00000 0.86041 -0.00000 -1.00000 -0.00000 0.00000 -1.00000 -0.00000 0.00000 -1.00000 -0.00000 0.00000 -1.00000 0.00000 0.00000 -1.00000 0.00000 0.00000 -1.00000 0.00000 -0.66848 0.00000 0.74373 -0.66848 0.00000 0.74373 0.21253 -0.00000 0.97716 0.21253 -0.00000 0.97716 -1.00000 0.00000 0.00000 -1.00000 0.00000 0.00000 -0.61063 0.00000 -0.79191 -0.61063 0.00000 -0.79191 -0.96618 0.00000 -0.25788 -0.96618 0.00000 -0.25788 -0.80263 0.00000 -0.59648 -0.80263 0.00000 -0.59648 -0.19265 0.00000 -0.98127 -0.19265 0.00000 -0.98127 -0.60115 0.00000 -0.79914 -0.60115 0.00000 -0.79914 -0.24518 0.00000 -0.96948 -0.24518 0.00000 -0.96948 0.00000 -0.00000 1.00000 -0.00000 0.00000 1.00000 -0.01768 0.99984 0.00000 0.00000 1.00000 0.00000 0.00000 1.00000 -0.00000 0.00000 1.00000 0.00000 -0.00000 1.00000 0.00000 0.00000 1.00000 0.00000 -0.00000 1.00000 0.00000 0.00000 1.00000 0.00000 0.00000 1.00000 0.00000 -0.01103 0.99994 0.00000 0.00000 1.00000 0.00000 -0.00000 1.00000 -0.00000 0.00000 1.00000 0.00000 -0.01768 0.99984 0.00000 0.01768 -0.99984 0.00000 0.01768 -0.99984 0.00000 0.01103 -0.99994 -0.00000 0.00000 -1.00000 -0.00000 -0.00000 -1.00000 0.00000 0.00000 -1.00000 -0.00000 0.00000 -1.00000 0.00000 0.00000 -1.00000 0.00000 0.00000 -1.00000 -0.00000 0.00000 -1.00000 0.00000 0.00000 -1.00000 0.00000 -0.00000 -1.00000 -0.00000 -0.00000 -1.00000 -0.00000 0.01729 -0.97701 0.21251 0.01772 -0.99984 0.00000 0.01772 -0.99984 0.00000 -0.01772 0.99984 0.00000 -0.01772 0.99984 0.00000 -0.01729 0.97701 0.21251</float_array>
          <technique_common>
            <accessor count="349" source="#polySurfaceShape132-Normals-array" stride="3">
              <param type="float" name="X"></param>
              <param type="float" name="Y"></param>
              <param type="float" name="Z"></param>
            </accessor>
          </technique_common>
        </source>
        <source id="polySurfaceShape132-UV">
          <float_array count="2208" id="polySurfaceShape132-UV-array">0.15218 0.14135 0.15218 0.11127 0.24258 0.11127 0.15218 0.14135 0.24258 0.11127 0.24258 0.14135 1.83265 0.48963 1.84193 0.48963 1.84193 0.76755 1.83310 0.68693 1.83265 0.48963 1.84193 0.76755 1.84193 0.76755 1.83265 0.76755 1.83310 0.68693 1.88890 0.76755 1.87414 0.76755 1.87414 0.48963 1.88890 0.76755 1.87414 0.48963 1.88890 0.48963 1.90568 0.76755 1.88890 0.76755 1.88890 0.48963 1.90568 0.76755 1.88890 0.48963 1.90568 0.48963 1.85009 0.76755 1.84193 0.76755 1.84193 0.48963 1.85009 0.76755 1.84193 0.48963 1.85009 0.48963 1.87414 0.48963 1.87414 0.76755 1.85009 0.76755 1.87414 0.48963 1.85009 0.76755 1.85009 0.48963 0.98226 0.16832 0.96360 0.16832 0.96360 0.01040 0.98226 0.16832 0.96360 0.01040 0.98226 0.01040 0.03520 0.14282 0.03520 0.08237 0.10541 0.08021 0.03520 0.14282 0.10541 0.08021 0.10541 0.14282 0.87026 0.16879 0.85989 0.16879 0.85989 0.01040 0.87026 0.16879 0.85989 0.01040 0.87026 0.01040 0.03520 0.08237 0.03520 0.01383 0.10541 0.01383 0.03520 0.08237 0.10541 0.01383 0.10541 0.08021 0.02203 0.14282 0.02203 0.08237 0.09224 0.08237 0.02203 0.14282 0.09224 0.08237 0.09224 0.14282 0.02203 0.08237 0.02203 0.01383 0.09224 0.01383 0.02203 0.08237 0.09224 0.01383 0.09224 0.08237 0.91758 0.16832 0.88559 0.16832 0.88559 0.01040 0.91758 0.16832 0.88559 0.01040 0.91758 0.01005 0.85989 0.16879 0.84795 0.16879 0.84795 0.01005 0.85989 0.16879 0.84795 0.01005 0.85989 0.01040 0.87026 0.01040 0.88559 0.01040 0.88559 0.16832 0.87026 0.01040 0.88559 0.16832 0.87026 0.16879 0.94982 0.16832 0.91758 0.16832 0.91758 0.01005 0.94982 0.16832 0.91758 0.01005 0.94982 0.01005 0.96360 0.16832 0.94982 0.16832 0.94982 0.01005 0.96360 0.16832 0.94982 0.01005 0.96360 0.01040 0.98226 0.01040 0.99566 0.01040 0.99566 0.16832 0.98226 0.01040 0.99566 0.16832 0.98226 0.16832 0.58798 0.19981 0.57571 0.14027 0.58798 0.13760 0.58798 0.19981 0.49889 0.11864 0.56352 0.13104 0.58798 0.19981 0.56352 0.13104 0.57571 0.14027 0.49889 0.11864 0.56275 0.11851 0.56352 0.13104 0.49889 0.11864 0.53752 0.09942 0.56275 0.11851 0.48933 0.04705 0.53752 0.04705 0.52991 0.05389 0.48933 0.04705 0.52991 0.05389 0.52991 0.05389 0.48933 0.04705 0.52991 0.05389 0.49889 0.11864 0.49889 0.11864 0.52991 0.05389 0.53752 0.07323 0.49889 0.11864 0.53752 0.07323 0.53752 0.09942 0.84197 0.44318 0.84197 0.40355 0.84979 0.40525 0.85756 0.39937 0.89874 0.39147 0.84197 0.44318 0.84197 0.44318 0.84979 0.40525 0.85756 0.39937 0.89874 0.39147 0.85756 0.39937 0.85805 0.39139 0.89874 0.39147 0.85805 0.39139 0.87412 0.37922 0.90483 0.34585 0.87897 0.35021 0.87412 0.34585 0.87897 0.35818 0.87897 0.35021 0.90483 0.34585 0.89874 0.39147 0.87897 0.35818 0.90483 0.34585 0.89874 0.39147 0.87412 0.36254 0.87897 0.35818 0.89874 0.39147 0.87412 0.37922 0.87412 0.36254 0.15218 0.04841 0.15218 0.02015 0.24258 0.02015 0.15218 0.04841 0.24258 0.02015 0.24258 0.04841 0.14409 0.48437 0.05327 0.48494 0.05350 0.44564 0.14409 0.48437 0.05350 0.44564 0.14409 0.44564 0.82427 0.15579 0.76801 0.15579 0.76801 0.00773 0.82427 0.15579 0.76801 0.00773 0.82427 0.00773 0.76801 0.15579 0.73375 0.15579 0.73375 0.00773 0.76801 0.15579 0.73375 0.00773 0.76801 0.00773 0.13267 0.14135 0.13267 0.11127 0.22307 0.11127 0.13267 0.14135 0.22307 0.11127 0.22307 0.14135 0.13267 0.04841 0.13267 0.02015 0.22307 0.02015 0.13267 0.04841 0.22307 0.02015 0.22307 0.04841 0.45691 0.23402 0.48458 0.26020 0.43075 0.24866 0.43821 0.17580 0.43075 0.24866 0.40086 0.21035 0.43821 0.17580 0.40086 0.21035 0.40086 0.14795 0.16839 0.24296 0.19456 0.25760 0.14073 0.26914 0.22445 0.21930 0.19456 0.25760 0.18709 0.18474 0.22445 0.15689 0.22445 0.21930 0.18709 0.18474 0.13267 0.11127 0.13267 0.04841 0.22307 0.04841 0.13267 0.11127 0.22307 0.04841 0.22307 0.11127 0.18709 0.18474 0.19456 0.25760 0.16839 0.24296 0.43821 0.17580 0.45691 0.23402 0.43075 0.24866 0.15218 0.11127 0.15218 0.04841 0.24258 0.04841 0.15218 0.11127 0.24258 0.04841 0.24258 0.11127 0.05327 0.48494 0.05350 0.60090 0.00127 0.59911 0.05327 0.48494 0.00127 0.59911 0.00127 0.48494 0.70372 0.48423 0.70372 0.60079 0.64520 0.60090 0.70372 0.48423 0.64520 0.60090 0.64520 0.48437 0.53378 0.63949 0.53378 0.60090 0.64520 0.60090 0.53378 0.63949 0.64520 0.60090 0.64520 0.63949 0.05350 0.60090 0.14409 0.60090 0.14409 0.63949 0.14409 0.63949 0.05350 0.63949 0.05350 0.60090 0.64520 0.48437 0.64520 0.60090 0.53378 0.60090 0.64520 0.48437 0.53378 0.60090 0.53378 0.48437 0.00288 0.99593 0.00288 0.64941 0.14792 0.64941 0.00288 0.99593 0.14792 0.64941 0.14736 0.87638 0.69692 0.99593 0.00288 0.99593 0.14736 0.87638 0.69692 0.99593 0.14736 0.87638 0.55321 0.87638 0.69692 0.64941 0.69692 0.99593 0.55321 0.87638 0.69692 0.64941 0.55321 0.87638 0.55264 0.64941 0.08556 0.27343 0.08556 0.16658 0.11873 0.20910 0.10841 0.27343 0.08556 0.27343 0.11873 0.20910 0.12851 0.26505 0.10841 0.27343 0.11873 0.20910 0.16127 0.24565 0.12851 0.26505 0.11873 0.20910 0.11873 0.20910 0.17849 0.22190 0.17521 0.23454 0.16127 0.24565 0.11873 0.20910 0.17521 0.23454 0.98226 0.01040 0.98226 0.16832 0.96360 0.16832 0.98226 0.01040 0.96360 0.16832 0.96360 0.01040 0.91758 0.01005 0.91758 0.16832 0.88559 0.16832 0.91758 0.01005 0.88559 0.16832 0.88559 0.01040 0.87026 0.01040 0.87026 0.16879 0.85989 0.16879 0.87026 0.01040 0.85989 0.16879 0.85989 0.01040 0.85989 0.01040 0.85989 0.16879 0.84795 0.16879 0.85989 0.01040 0.84795 0.16879 0.84795 0.01005 0.94982 0.01005 0.94982 0.16832 0.91758 0.16832 0.94982 0.01005 0.91758 0.16832 0.91758 0.01005 0.96360 0.01040 0.96360 0.16832 0.94982 0.16832 0.96360 0.01040 0.94982 0.16832 0.94982 0.01005 0.64520 0.48437 0.53378 0.48437 0.53378 0.44564 0.64520 0.48437 0.53378 0.44564 0.64520 0.44564 0.76801 0.00773 0.76801 0.15579 0.73375 0.15579 0.76801 0.00773 0.73375 0.15579 0.73375 0.00773 0.82427 0.00773 0.82427 0.15579 0.76801 0.15579 0.82427 0.00773 0.76801 0.15579 0.76801 0.00773 1.84193 0.62749 1.84193 0.96667 1.83265 0.96667 1.84193 0.62749 1.83265 0.96667 1.83265 0.72849 1.84193 0.62749 1.83265 0.72849 1.83265 0.62749 1.88890 0.62749 1.88890 0.96667 1.87414 0.96667 1.88890 0.62749 1.87414 0.96667 1.87414 0.62749 1.90568 0.62749 1.90568 0.96667 1.88890 0.96667 1.90568 0.62749 1.88890 0.96667 1.88890 0.62749 1.85009 0.62749 1.85009 0.96667 1.84193 0.96667 1.85009 0.62749 1.84193 0.96667 1.84193 0.62749 1.87414 0.62749 1.87414 0.96667 1.85009 0.96667 1.87414 0.62749 1.85009 0.96667 1.85009 0.62749 0.06579 0.21012 0.04241 0.19188 0.10117 0.19188 0.06579 0.21012 0.10117 0.19188 0.10117 0.20445 0.06579 0.21012 0.10117 0.20445 0.09657 0.21550 0.06579 0.21012 0.09657 0.21550 0.08590 0.23352 0.07979 0.24119 0.07284 0.24299 0.06579 0.21012 0.06579 0.21012 0.08590 0.23352 0.07979 0.24119 0.87026 0.16879 0.87026 0.01040 0.88559 0.01040 0.87026 0.16879 0.88559 0.01040 0.88559 0.16832 0.98226 0.16832 0.98226 0.01040 0.99566 0.01040 0.98226 0.16832 0.99566 0.01040 0.99566 0.16832 0.05327 0.48494 0.14409 0.48437 0.14409 0.60090 0.05327 0.48494 0.14409 0.60090 0.05350 0.60090 0.87906 0.92474 0.87906 0.32078 0.89567 0.32078 0.87906 0.92474 0.89567 0.32078 0.89567 0.92474 0.85544 0.92474 0.85544 0.32078 0.87906 0.32078 0.85544 0.92474 0.87906 0.32078 0.87906 0.92474 0.91982 0.92474 0.91982 0.32078 0.93307 0.32078 0.91982 0.92474 0.93307 0.32078 0.93307 0.92474 0.89567 0.92474 0.89567 0.32078 0.91982 0.32078 0.89567 0.92474 0.91982 0.32078 0.91982 0.92474 0.93307 0.92474 0.93307 0.32078 0.95133 0.32078 0.93307 0.92474 0.95133 0.32078 0.95133 0.92474 0.95133 0.92474 0.95133 0.32078 0.97365 0.32078 0.95133 0.92474 0.97365 0.32078 0.97365 0.92474 0.74961 0.32078 0.85544 0.32078 0.74961 0.92474 0.74961 0.92474 0.85544 0.32078 0.85544 0.92474 0.15218 0.14135 0.15218 0.11127 0.24258 0.11127 0.15218 0.14135 0.24258 0.11127 0.24258 0.14135 1.83265 0.48963 1.84193 0.48963 1.84193 0.76755 1.83310 0.68693 1.83265 0.48963 1.84193 0.76755 1.84193 0.76755 1.83265 0.76755 1.83310 0.68693 1.88890 0.76755 1.87414 0.76755 1.87414 0.48963 1.88890 0.76755 1.87414 0.48963 1.88890 0.48963 1.90568 0.76755 1.88890 0.76755 1.88890 0.48963 1.90568 0.76755 1.88890 0.48963 1.90568 0.48963 1.85009 0.76755 1.84193 0.76755 1.84193 0.48963 1.85009 0.76755 1.84193 0.48963 1.85009 0.48963 1.87414 0.48963 1.87414 0.76755 1.85009 0.76755 1.87414 0.48963 1.85009 0.76755 1.85009 0.48963 0.98226 0.16832 0.96360 0.16832 0.96360 0.01040 0.98226 0.16832 0.96360 0.01040 0.98226 0.01040 0.03520 0.14282 0.03520 0.08237 0.10541 0.08021 0.03520 0.14282 0.10541 0.08021 0.10541 0.14282 0.87026 0.16879 0.85989 0.16879 0.85989 0.01040 0.87026 0.16879 0.85989 0.01040 0.87026 0.01040 0.03520 0.08237 0.03520 0.01383 0.10541 0.01383 0.03520 0.08237 0.10541 0.01383 0.10541 0.08021 0.02203 0.14282 0.02203 0.08237 0.09224 0.08237 0.02203 0.14282 0.09224 0.08237 0.09224 0.14282 0.02203 0.08237 0.02203 0.01383 0.09224 0.01383 0.02203 0.08237 0.09224 0.01383 0.09224 0.08237 0.91758 0.16832 0.88559 0.16832 0.88559 0.01040 0.91758 0.16832 0.88559 0.01040 0.91758 0.01005 0.85989 0.16879 0.84795 0.16879 0.84795 0.01005 0.85989 0.16879 0.84795 0.01005 0.85989 0.01040 0.87026 0.01040 0.88559 0.01040 0.88559 0.16832 0.87026 0.01040 0.88559 0.16832 0.87026 0.16879 0.94982 0.16832 0.91758 0.16832 0.91758 0.01005 0.94982 0.16832 0.91758 0.01005 0.94982 0.01005 0.96360 0.16832 0.94982 0.16832 0.94982 0.01005 0.96360 0.16832 0.94982 0.01005 0.96360 0.01040 0.98226 0.01040 0.99566 0.01040 0.99566 0.16832 0.98226 0.01040 0.99566 0.16832 0.98226 0.16832 0.58798 0.19981 0.57571 0.14027 0.58798 0.13760 0.58798 0.19981 0.49889 0.11864 0.56352 0.13104 0.58798 0.19981 0.56352 0.13104 0.57571 0.14027 0.49889 0.11864 0.56275 0.11851 0.56352 0.13104 0.49889 0.11864 0.53752 0.09942 0.56275 0.11851 0.48933 0.04705 0.53752 0.04705 0.52991 0.05389 0.48933 0.04705 0.52991 0.05389 0.52991 0.05389 0.48933 0.04705 0.52991 0.05389 0.49889 0.11864 0.49889 0.11864 0.52991 0.05389 0.53752 0.07323 0.49889 0.11864 0.53752 0.07323 0.53752 0.09942 0.84197 0.44318 0.84197 0.40355 0.84979 0.40525 0.85756 0.39937 0.89874 0.39147 0.84197 0.44318 0.84197 0.44318 0.84979 0.40525 0.85756 0.39937 0.89874 0.39147 0.85756 0.39937 0.85805 0.39139 0.89874 0.39147 0.85805 0.39139 0.87412 0.37922 0.90483 0.34585 0.87897 0.35021 0.87412 0.34585 0.87897 0.35818 0.87897 0.35021 0.90483 0.34585 0.89874 0.39147 0.87897 0.35818 0.90483 0.34585 0.89874 0.39147 0.87412 0.36254 0.87897 0.35818 0.89874 0.39147 0.87412 0.37922 0.87412 0.36254 0.15218 0.04841 0.15218 0.02015 0.24258 0.02015 0.15218 0.04841 0.24258 0.02015 0.24258 0.04841 0.14409 0.48437 0.05327 0.48494 0.05350 0.44564 0.14409 0.48437 0.05350 0.44564 0.14409 0.44564 0.82427 0.15579 0.76801 0.15579 0.76801 0.00773 0.82427 0.15579 0.76801 0.00773 0.82427 0.00773 0.76801 0.15579 0.73375 0.15579 0.73375 0.00773 0.76801 0.15579 0.73375 0.00773 0.76801 0.00773 0.13267 0.14135 0.13267 0.11127 0.22307 0.11127 0.13267 0.14135 0.22307 0.11127 0.22307 0.14135 0.13267 0.04841 0.13267 0.02015 0.22307 0.02015 0.13267 0.04841 0.22307 0.02015 0.22307 0.04841 0.45691 0.23402 0.48458 0.26020 0.43075 0.24866 0.43821 0.17580 0.43075 0.24866 0.40086 0.21035 0.43821 0.17580 0.40086 0.21035 0.40086 0.14795 0.16839 0.24296 0.19456 0.25760 0.14073 0.26914 0.22445 0.21930 0.19456 0.25760 0.18709 0.18474 0.22445 0.15689 0.22445 0.21930 0.18709 0.18474 0.13267 0.11127 0.13267 0.04841 0.22307 0.04841 0.13267 0.11127 0.22307 0.04841 0.22307 0.11127 0.18709 0.18474 0.19456 0.25760 0.16839 0.24296 0.43821 0.17580 0.45691 0.23402 0.43075 0.24866 0.15218 0.11127 0.15218 0.04841 0.24258 0.04841 0.15218 0.11127 0.24258 0.04841 0.24258 0.11127 0.05327 0.48494 0.05350 0.60090 0.00127 0.59911 0.05327 0.48494 0.00127 0.59911 0.00127 0.48494 0.70372 0.48423 0.70372 0.60079 0.64520 0.60090 0.70372 0.48423 0.64520 0.60090 0.64520 0.48437 0.53378 0.63949 0.53378 0.60090 0.64520 0.60090 0.53378 0.63949 0.64520 0.60090 0.64520 0.63949 0.05350 0.60090 0.14409 0.60090 0.14409 0.63949 0.14409 0.63949 0.05350 0.63949 0.05350 0.60090 0.64520 0.48437 0.64520 0.60090 0.53378 0.60090 0.64520 0.48437 0.53378 0.60090 0.53378 0.48437 0.00288 0.99593 0.00288 0.64941 0.14792 0.64941 0.00288 0.99593 0.14792 0.64941 0.14736 0.87638 0.69692 0.99593 0.00288 0.99593 0.14736 0.87638 0.69692 0.99593 0.14736 0.87638 0.55321 0.87638 0.69692 0.64941 0.69692 0.99593 0.55321 0.87638 0.69692 0.64941 0.55321 0.87638 0.55264 0.64941 0.08556 0.27343 0.08556 0.16658 0.11873 0.20910 0.10841 0.27343 0.08556 0.27343 0.11873 0.20910 0.12851 0.26505 0.10841 0.27343 0.11873 0.20910 0.16127 0.24565 0.12851 0.26505 0.11873 0.20910 0.11873 0.20910 0.17849 0.22190 0.17521 0.23454 0.16127 0.24565 0.11873 0.20910 0.17521 0.23454 0.98226 0.01040 0.98226 0.16832 0.96360 0.16832 0.98226 0.01040 0.96360 0.16832 0.96360 0.01040 0.91758 0.01005 0.91758 0.16832 0.88559 0.16832 0.91758 0.01005 0.88559 0.16832 0.88559 0.01040 0.87026 0.01040 0.87026 0.16879 0.85989 0.16879 0.87026 0.01040 0.85989 0.16879 0.85989 0.01040 0.85989 0.01040 0.85989 0.16879 0.84795 0.16879 0.85989 0.01040 0.84795 0.16879 0.84795 0.01005 0.94982 0.01005 0.94982 0.16832 0.91758 0.16832 0.94982 0.01005 0.91758 0.16832 0.91758 0.01005 0.96360 0.01040 0.96360 0.16832 0.94982 0.16832 0.96360 0.01040 0.94982 0.16832 0.94982 0.01005 0.64520 0.48437 0.53378 0.48437 0.53378 0.44564 0.64520 0.48437 0.53378 0.44564 0.64520 0.44564 0.76801 0.00773 0.76801 0.15579 0.73375 0.15579 0.76801 0.00773 0.73375 0.15579 0.73375 0.00773 0.82427 0.00773 0.82427 0.15579 0.76801 0.15579 0.82427 0.00773 0.76801 0.15579 0.76801 0.00773 1.84193 0.62749 1.84193 0.96667 1.83265 0.96667 1.84193 0.62749 1.83265 0.96667 1.83265 0.72849 1.84193 0.62749 1.83265 0.72849 1.83265 0.62749 1.88890 0.62749 1.88890 0.96667 1.87414 0.96667 1.88890 0.62749 1.87414 0.96667 1.87414 0.62749 1.90568 0.62749 1.90568 0.96667 1.88890 0.96667 1.90568 0.62749 1.88890 0.96667 1.88890 0.62749 1.85009 0.62749 1.85009 0.96667 1.84193 0.96667 1.85009 0.62749 1.84193 0.96667 1.84193 0.62749 1.87414 0.62749 1.87414 0.96667 1.85009 0.96667 1.87414 0.62749 1.85009 0.96667 1.85009 0.62749 0.06579 0.21012 0.04241 0.19188 0.10117 0.19188 0.06579 0.21012 0.10117 0.19188 0.10117 0.20445 0.06579 0.21012 0.10117 0.20445 0.09657 0.21550 0.06579 0.21012 0.09657 0.21550 0.08590 0.23352 0.07979 0.24119 0.07284 0.24299 0.06579 0.21012 0.06579 0.21012 0.08590 0.23352 0.07979 0.24119 0.87026 0.16879 0.87026 0.01040 0.88559 0.01040 0.87026 0.16879 0.88559 0.01040 0.88559 0.16832 0.98226 0.16832 0.98226 0.01040 0.99566 0.01040 0.98226 0.16832 0.99566 0.01040 0.99566 0.16832 0.05327 0.48494 0.14409 0.48437 0.14409 0.60090 0.05327 0.48494 0.14409 0.60090 0.05350 0.60090 0.87906 0.92474 0.87906 0.32078 0.89567 0.32078 0.87906 0.92474 0.89567 0.32078 0.89567 0.92474 0.85544 0.92474 0.85544 0.32078 0.87906 0.32078 0.85544 0.92474 0.87906 0.32078 0.87906 0.92474 0.91982 0.92474 0.91982 0.32078 0.93307 0.32078 0.91982 0.92474 0.93307 0.32078 0.93307 0.92474 0.89567 0.92474 0.89567 0.32078 0.91982 0.32078 0.89567 0.92474 0.91982 0.32078 0.91982 0.92474 0.93307 0.92474 0.93307 0.32078 0.95133 0.32078 0.93307 0.92474 0.95133 0.32078 0.95133 0.92474 0.95133 0.92474 0.95133 0.32078 0.97365 0.32078 0.95133 0.92474 0.97365 0.32078 0.97365 0.92474 0.74961 0.32078 0.85544 0.32078 0.74961 0.92474 0.74961 0.92474 0.85544 0.32078 0.85544 0.92474 0.83385 0.54881 0.78025 0.54881 0.78025 0.61043 0.78025 0.61043 0.83385 0.61043 0.83385 0.54881 0.03530 0.21158 0.03158 0.21493 0.03158 0.22104 0.03158 0.22104 0.03530 0.22439 0.03530 0.21158 0.03530 0.23719 0.04764 0.24653 0.03530 0.22439 0.04764 0.24653 0.04801 0.25266 0.05398 0.25717 0.05998 0.25586 0.04764 0.24653 0.05398 0.25717 0.12532 0.21158 0.12532 0.22439 0.12904 0.22104 0.12904 0.22104 0.12904 0.21493 0.12532 0.21158 0.12532 0.23719 0.12532 0.22439 0.11298 0.24653 0.11298 0.24653 0.10064 0.25586 0.11261 0.25266 0.11261 0.25266 0.10064 0.25586 0.10664 0.25717 0.12532 0.21158 0.03530 0.21158 0.05998 0.25586 0.05998 0.25586 0.10064 0.25586 0.12532 0.21158 0.12532 0.21158 0.10064 0.25586 0.12532 0.22439 0.11298 0.24653 0.12532 0.22439 0.10064 0.25586 0.03530 0.21158 0.03530 0.22439 0.04764 0.24653 0.04764 0.24653 0.05998 0.25586 0.03530 0.21158 0.83385 0.61043 0.78025 0.61043 0.78025 0.92953 0.78025 0.92953 0.83385 0.92953 0.83385 0.61043 0.83240 0.52156 0.83240 0.92993 0.76381 0.92993 0.76381 0.92993 0.76381 0.52156 0.83240 0.52156 0.83240 0.44269 0.83240 0.52156 0.76381 0.52156 0.76381 0.52156 0.76381 0.44269 0.83240 0.44269 0.09716 0.25404 0.05763 0.25404 0.03364 0.21099 0.03364 0.21099 0.12114 0.21099 0.09716 0.25404 0.03364 0.21099 0.05763 0.25404 0.04564 0.24496 0.04564 0.24496 0.03364 0.22344 0.03364 0.21099 0.03364 0.23589 0.03364 0.22344 0.04564 0.24496 0.04564 0.24496 0.05763 0.25404 0.05180 0.25530 0.05180 0.25530 0.04600 0.25092 0.04564 0.24496 0.03364 0.21099 0.03364 0.22344 0.03003 0.22019 0.03364 0.21099 0.03003 0.22019 0.03003 0.21424 0.12114 0.21099 0.12476 0.21424 0.12476 0.22019 0.12476 0.22019 0.12114 0.22344 0.12114 0.21099 0.12114 0.23589 0.10915 0.24496 0.12114 0.22344 0.10915 0.24496 0.10878 0.25092 0.10299 0.25530 0.09716 0.25404 0.10915 0.24496 0.10299 0.25530 0.09716 0.25404 0.12114 0.21099 0.12114 0.22344 0.12114 0.22344 0.10915 0.24496 0.09716 0.25404 0.83240 0.44269 0.76381 0.44269 0.76381 0.39157 0.76381 0.39157 0.83240 0.39157 0.83240 0.44269 0.83240 0.78590 0.83240 0.94027 0.76381 0.94027 0.76381 0.94027 0.76381 0.78590 0.83240 0.78590 0.83240 0.73460 0.83240 0.78590 0.76381 0.78590 0.76381 0.78590 0.76381 0.73460 0.83240 0.73460 0.83385 0.77690 0.78025 0.77690 0.78025 0.81699 0.78025 0.81699 0.83385 0.81699 0.83385 0.77690 0.83385 0.50886 0.83385 0.38824 0.78025 0.38824 0.78025 0.38824 0.78025 0.50886 0.83385 0.50886 0.83385 0.54881 0.83385 0.50886 0.78025 0.50886 0.78025 0.50886 0.78025 0.54881 0.83385 0.54881</float_array>
          <technique_common>
            <accessor count="1104" source="#polySurfaceShape132-UV-array" stride="2">
              <param type="float" name="S"></param>
              <param type="float" name="T"></param>
            </accessor>
          </technique_common>
        </source>
        <vertices id="polySurfaceShape132-Vertex">
          <input semantic="POSITION" source="#polySurfaceShape132-Position" />
        </vertices>
        <triangles count="368" material="lambert7">
          <input offset="0" semantic="VERTEX" source="#polySurfaceShape132-Vertex" />
          <input offset="1" semantic="NORMAL" source="#polySurfaceShape132-Normals" />
          <input offset="2" semantic="TEXCOORD" source="#polySurfaceShape132-UV" />
          <p>44 0 0 60 0 1 61 0 2 44 1 3 61 1 4 4 1 5 108 2 6 103 2 7 11 2 8 47 3 9 108 3 10 11 3 11 11 4 12 5 4 13 47 4 14 9 5 15 7 5 16 101 5 17 9 6 18 101 6 19 102 6 20 2 7 21 9 7 22 102 7 23 2 8 24 102 8 25 100 8 26 13 9 27 11 9 28 103 9 29 13 10 30 103 10 31 104 10 32 101 11 33 7 11 34 13 11 35 101 12 36 13 12 37 104 12 38 29 13 39 28 13 40 97 13 41 29 14 42 97 14 43 98 14 44 35 15 45 32 15 46 33 15 47 35 16 48 33 16 49 34 16 50 23 17 51 22 17 52 95 17 53 23 18 54 95 18 55 106 18 56 32 19 57 36 19 58 37 19 59 32 20 60 37 20 61 33 20 62 41 21 63 38 21 64 39 21 65 41 22 66 39 22 67 40 22 68 38 23 69 42 23 70 43 23 71 38 24 72 43 24 73 39 24 74 15 25 75 21 25 76 105 25 77 15 26 78 105 26 79 93 26 80 22 27 81 16 27 82 94 27 83 22 28 84 94 28 85 95 28 86 25 29 87 20 29 88 85 29 89 25 30 90 85 30 91 87 30 92 26 31 93 15 31 94 93 31 95 26 32 96 93 32 97 96 32 98 28 33 99 26 33 100 96 33 101 28 34 102 96 34 103 97 34 104 31 35 105 17 35 106 82 35 107 31 36 108 82 36 109 90 36 110 40 37 111 29 37 112 14 37 113 40 38 114 39 38 115 28 38 116 40 39 117 28 39 118 29 39 119 39 40 120 26 40 121 28 40 122 39 41 123 15 41 124 26 41 125 43 42 126 16 42 127 22 42 128 43 43 129 22 43 130 23 43 131 43 44 132 23 44 133 39 44 134 39 45 135 23 45 136 21 45 137 39 46 138 21 46 139 15 46 140 35 47 141 17 47 142 31 47 143 30 48 144 32 48 145 35 48 146 35 49 147 31 49 148 30 49 149 32 50 150 30 50 151 27 50 152 32 51 153 27 51 154 18 51 155 36 52 156 24 52 157 19 52 158 25 53 159 24 53 160 36 53 161 32 54 162 25 54 163 36 54 164 32 55 165 20 55 166 25 55 167 32 56 168 18 56 169 20 56 170 51 57 171 52 57 172 53 57 173 51 58 174 53 58 175 50 58 176 113 59 177 40 59 178 14 59 179 113 60 180 14 60 181 111 60 182 47 61 183 48 61 184 107 61 185 47 62 186 107 62 187 108 62 188 48 63 189 49 63 190 99 63 191 48 64 192 99 64 193 107 64 194 5 65 195 58 65 196 59 65 197 5 66 198 59 66 199 47 66 200 55 67 201 56 67 202 57 67 203 55 68 204 57 68 205 54 68 206 60 69 207 44 69 208 45 69 209 51 70 210 45 70 211 46 70 212 51 71 213 46 71 214 52 71 215 59 72 216 48 72 217 47 72 218 49 73 219 48 73 220 54 73 221 57 74 222 49 74 223 54 74 224 58 75 225 55 75 226 54 75 227 58 76 228 54 76 229 59 76 230 54 77 231 48 77 232 59 77 233 51 78 234 60 78 235 45 78 236 60 79 237 51 79 238 50 79 239 60 80 240 50 80 241 61 80 242 40 81 243 57 81 244 56 81 245 40 82 246 56 82 247 41 82 248 34 83 249 53 83 250 52 83 251 34 84 252 52 84 253 35 84 254 91 85 255 110 85 256 52 85 257 91 86 258 52 86 259 46 86 260 57 87 261 112 87 262 99 87 263 99 88 264 49 88 265 57 88 266 35 89 267 52 89 268 110 89 269 35 90 270 110 90 271 109 90 272 63 91 273 2 91 274 100 91 275 63 92 276 100 92 277 115 92 278 62 93 279 63 93 280 115 93 281 62 94 282 115 94 283 114 94 284 3 95 285 62 95 286 114 95 287 3 96 288 114 96 289 92 96 290 92 97 291 91 97 292 81 97 293 77 98 294 92 98 295 81 98 296 76 99 297 77 99 298 81 99 299 79 100 300 76 100 301 81 100 302 81 101 303 80 101 304 78 101 305 79 102 306 81 102 307 78 102 308 31 103 309 90 103 310 89 103 311 31 104 312 89 104 313 30 104 314 18 105 315 83 105 316 85 105 317 18 106 318 85 106 319 20 106 320 25 107 321 87 107 322 86 107 323 25 108 324 86 108 325 24 108 326 24 109 327 86 109 328 84 109 329 24 110 330 84 110 331 19 110 332 27 111 333 88 111 334 83 111 335 27 112 336 83 112 337 18 112 338 30 113 339 89 113 340 88 113 341 30 114 342 88 114 343 27 114 344 35 115 345 109 115 346 82 115 347 35 116 348 82 116 349 17 116 350 45 117 351 81 117 352 91 117 353 45 118 354 91 118 355 46 118 356 44 119 357 80 119 358 81 119 359 44 120 360 81 120 361 45 120 362 10 121 363 78 121 364 80 121 365 10 122 366 80 122 367 44 122 368 10 123 369 44 123 370 4 123 371 8 124 372 77 124 373 76 124 374 8 125 375 76 125 376 6 125 377 3 126 378 92 126 379 77 126 380 3 127 381 77 127 382 8 127 383 12 128 384 79 128 385 78 128 386 12 129 387 78 129 388 10 129 389 6 130 390 76 130 391 79 130 392 6 131 393 79 131 394 12 131 395 107 132 396 99 132 397 100 132 398 107 133 399 100 133 400 102 133 401 107 134 402 102 134 403 101 134 404 107 135 405 101 135 406 104 135 407 103 136 408 108 136 409 107 136 410 107 137 411 104 137 412 103 137 413 23 138 414 106 138 415 105 138 416 23 139 417 105 139 418 21 139 419 29 140 420 98 140 421 111 140 422 29 141 423 111 141 424 14 141 425 40 142 426 113 142 427 112 142 428 40 143 429 112 143 430 57 143 431 64 144 432 65 144 433 68 144 434 64 145 435 68 145 436 69 145 437 1 146 438 0 146 439 65 146 440 1 147 441 65 147 442 64 147 443 67 148 444 66 148 445 70 148 446 67 149 447 70 149 448 71 149 449 69 150 450 68 150 451 66 150 452 69 151 453 66 151 454 67 151 455 71 152 456 70 152 457 72 152 458 71 153 459 72 153 460 73 153 461 73 154 462 72 154 463 63 154 464 73 155 465 63 155 466 62 155 467 74 156 468 0 156 469 75 156 470 75 157 471 0 157 472 1 157 473 160 158 474 176 158 475 177 158 476 160 159 477 177 159 478 120 159 479 224 160 480 219 160 481 127 160 482 163 161 483 224 161 484 127 161 485 127 162 486 121 162 487 163 162 488 125 163 489 123 163 490 217 163 491 125 164 492 217 164 493 218 164 494 118 165 495 125 165 496 218 165 497 118 166 498 218 166 499 216 166 500 129 167 501 127 167 502 219 167 503 129 168 504 219 168 505 220 168 506 217 169 507 123 169 508 129 169 509 217 170 510 129 170 511 220 170 512 145 171 513 144 171 514 213 171 515 145 172 516 213 172 517 214 172 518 151 173 519 148 173 520 149 173 521 151 174 522 149 174 523 150 174 524 139 175 525 138 175 526 211 175 527 139 176 528 211 176 529 222 176 530 148 177 531 152 177 532 153 177 533 148 178 534 153 178 535 149 178 536 157 179 537 154 179 538 155 179 539 157 180 540 155 180 541 156 180 542 154 181 543 158 181 544 159 181 545 154 182 546 159 182 547 155 182 548 131 183 549 137 183 550 221 183 551 131 184 552 221 184 553 209 184 554 138 185 555 132 185 556 210 185 557 138 186 558 210 186 559 211 186 560 141 187 561 136 187 562 201 187 563 141 188 564 201 188 565 203 188 566 142 189 567 131 189 568 209 189 569 142 190 570 209 190 571 212 190 572 144 191 573 142 191 574 212 191 575 144 192 576 212 192 577 213 192 578 147 193 579 133 193 580 198 193 581 147 194 582 198 194 583 206 194 584 156 195 585 145 195 586 130 195 587 156 196 588 155 196 589 144 196 590 156 197 591 144 197 592 145 197 593 155 198 594 142 198 595 144 198 596 155 199 597 131 199 598 142 199 599 159 200 600 132 200 601 138 200 602 159 201 603 138 201 604 139 201 605 159 202 606 139 202 607 155 202 608 155 203 609 139 203 610 137 203 611 155 204 612 137 204 613 131 204 614 151 205 615 133 205 616 147 205 617 146 206 618 148 206 619 151 206 620 151 207 621 147 207 622 146 207 623 148 208 624 146 208 625 143 208 626 148 209 627 143 209 628 134 209 629 152 210 630 140 210 631 135 210 632 141 211 633 140 211 634 152 211 635 148 212 636 141 212 637 152 212 638 148 213 639 136 213 640 141 213 641 148 214 642 134 214 643 136 214 644 167 215 645 168 215 646 169 215 647 167 216 648 169 216 649 166 216 650 229 217 651 156 217 652 130 217 653 229 218 654 130 218 655 227 218 656 163 219 657 164 219 658 223 219 659 163 220 660 223 220 661 224 220 662 164 221 663 165 221 664 215 221 665 164 222 666 215 222 667 223 222 668 121 223 669 174 223 670 175 223 671 121 224 672 175 224 673 163 224 674 171 225 675 172 225 676 173 225 677 171 226 678 173 226 679 170 226 680 176 227 681 160 227 682 161 227 683 167 228 684 161 228 685 162 228 686 167 229 687 162 229 688 168 229 689 175 230 690 164 230 691 163 230 692 165 231 693 164 231 694 170 231 695 173 232 696 165 232 697 170 232 698 174 233 699 171 233 700 170 233 701 174 234 702 170 234 703 175 234 704 170 235 705 164 235 706 175 235 707 167 236 708 176 236 709 161 236 710 176 237 711 167 237 712 166 237 713 176 238 714 166 238 715 177 238 716 156 239 717 173 239 718 172 239 719 156 240 720 172 240 721 157 240 722 150 241 723 169 241 724 168 241 725 150 242 726 168 242 727 151 242 728 207 243 729 226 243 730 168 243 731 207 244 732 168 244 733 162 244 734 173 245 735 228 245 736 215 245 737 215 246 738 165 246 739 173 246 740 151 247 741 168 247 742 226 247 743 151 248 744 226 248 745 225 248 746 179 249 747 118 249 748 216 249 749 179 250 750 216 250 751 231 250 752 178 251 753 179 251 754 231 251 755 178 252 756 231 252 757 230 252 758 119 253 759 178 253 760 230 253 761 119 254 762 230 254 763 208 254 764 208 255 765 207 255 766 197 255 767 193 256 768 208 256 769 197 256 770 192 257 771 193 257 772 197 257 773 195 258 774 192 258 775 197 258 776 197 259 777 196 259 778 194 259 779 195 260 780 197 260 781 194 260 782 147 261 783 206 261 784 205 261 785 147 262 786 205 262 787 146 262 788 134 263 789 199 263 790 201 263 791 134 264 792 201 264 793 136 264 794 141 265 795 203 265 796 202 265 797 141 266 798 202 266 799 140 266 800 140 267 801 202 267 802 200 267 803 140 268 804 200 268 805 135 268 806 143 269 807 204 269 808 199 269 809 143 270 810 199 270 811 134 270 812 146 271 813 205 271 814 204 271 815 146 272 816 204 272 817 143 272 818 151 273 819 225 273 820 198 273 821 151 274 822 198 274 823 133 274 824 161 275 825 197 275 826 207 275 827 161 276 828 207 276 829 162 276 830 160 277 831 196 277 832 197 277 833 160 278 834 197 278 835 161 278 836 126 279 837 194 279 838 196 279 839 126 280 840 196 280 841 160 280 842 126 281 843 160 281 844 120 281 845 124 282 846 193 282 847 192 282 848 124 283 849 192 283 850 122 283 851 119 284 852 208 284 853 193 284 854 119 285 855 193 285 856 124 285 857 128 286 858 195 286 859 194 286 860 128 287 861 194 287 862 126 287 863 122 288 864 192 288 865 195 288 866 122 289 867 195 289 868 128 289 869 223 290 870 215 290 871 216 290 872 223 291 873 216 291 874 218 291 875 223 292 876 218 292 877 217 292 878 223 293 879 217 293 880 220 293 881 219 294 882 224 294 883 223 294 884 223 295 885 220 295 886 219 295 887 139 296 888 222 296 889 221 296 890 139 297 891 221 297 892 137 297 893 145 298 894 214 298 895 227 298 896 145 299 897 227 299 898 130 299 899 156 300 900 229 300 901 228 300 902 156 301 903 228 301 904 173 301 905 180 302 906 181 302 907 184 302 908 180 303 909 184 303 910 185 303 911 117 304 912 116 304 913 181 304 914 117 305 915 181 305 916 180 305 917 183 306 918 182 306 919 186 306 920 183 307 921 186 307 922 187 307 923 185 308 924 184 308 925 182 308 926 185 309 927 182 309 928 183 309 929 187 310 930 186 310 931 188 310 932 187 311 933 188 311 934 189 311 935 189 312 936 188 312 937 179 312 938 189 313 939 179 313 940 178 313 941 190 314 942 116 314 943 191 314 944 191 315 945 116 315 946 117 315 947 99 316 948 207 316 949 208 316 950 208 316 951 100 316 952 99 316 953 200 317 954 202 317 955 203 317 956 203 317 957 201 317 958 200 317 959 199 318 960 204 318 961 201 318 962 204 319 963 205 319 964 206 319 965 198 320 966 204 320 967 206 320 968 94 321 969 105 321 970 106 321 971 106 321 972 95 321 973 94 321 974 93 322 975 105 322 976 96 322 977 96 323 978 111 323 979 97 323 980 97 324 981 111 324 982 98 324 983 94 325 984 200 325 985 198 325 986 198 325 987 111 325 988 94 325 989 94 326 990 111 326 991 105 326 992 96 327 993 105 327 994 111 327 995 200 328 996 201 328 997 204 328 998 204 328 999 198 328 1000 200 328 1001 100 329 1002 208 329 1003 230 329 1004 230 329 1005 115 329 1006 100 329 1007 92 330 1008 114 330 1009 231 330 1010 231 330 1011 216 330 1012 92 330 1013 91 331 1014 92 331 1015 216 331 1016 216 331 1017 215 331 1018 91 331 1019 82 332 1020 227 332 1021 210 332 1022 210 332 1023 84 332 1024 82 332 1025 210 333 1026 227 333 1027 212 333 1028 212 333 1029 221 333 1030 210 333 1031 209 334 1032 221 334 1033 212 334 1034 212 335 1035 227 335 1036 214 335 1037 214 335 1038 213 335 1039 212 335 1040 210 336 1041 221 336 1042 222 336 1043 210 337 1044 222 337 1045 211 337 1046 84 338 1047 86 338 1048 87 338 1049 87 338 1050 85 338 1051 84 338 1052 83 339 1053 88 339 1054 85 339 1055 88 340 1056 89 340 1057 90 340 1058 82 341 1059 88 341 1060 90 341 1061 82 342 1062 84 342 1063 85 342 1064 85 342 1065 88 342 1066 82 342 1067 91 343 1068 215 343 1069 228 343 1070 228 343 1071 110 343 1072 91 343 1073 109 344 1074 110 344 1075 228 344 1076 228 344 1077 229 344 1078 109 344 1079 82 345 1080 109 345 1081 229 345 1082 229 345 1083 227 345 1084 82 345 1085 111 346 1086 198 346 1087 225 346 1088 225 346 1089 113 346 1090 111 346 1091 112 347 1092 113 347 1093 225 347 1094 225 347 1095 226 347 1096 112 347 1097 99 348 1098 112 348 1099 226 348 1100 226 348 1101 207 348 1102 99 348 1103</p>
        </triangles>
      </mesh>
    </geometry>
  </library_geometries>
  <library_visual_scenes>
    <visual_scene id="doorway_straight" name="doorway_straight">
      <node layer="L1" id="polySurface125" name="polySurface125">
        <translate sid="translate">0.00000 0.00000 0.00000</translate>
        <rotate sid="rotateZ">0 0 1 0.00000</rotate>
        <rotate sid="rotateY">0 1 0 -0.00000</rotate>
        <rotate sid="rotateX">1 0 0 0.00000</rotate>
        <scale sid="scale">1.00000 1.00000 1.00000</scale>
        <instance_geometry url="#polySurfaceShape132">
          <bind_material>
            <technique_common>
              <instance_material symbol="lambert7" target="#lambert7">
                <bind_vertex_input input_semantic="TEXCOORD" input_set="1" semantic="CHANNEL1" />
              </instance_material>
            </technique_common>
          </bind_material>
        </instance_geometry>
      </node>
    </visual_scene>
  </library_visual_scenes>
  <scene>
    <instance_visual_scene url="#doorway_straight" />
  </scene>
</COLLADA>