﻿<?xml version="1.0" encoding="utf-8"?>
<COLLADA xmlns="http://www.collada.org/2005/11/COLLADASchema" version="1.4.1">
  <asset>
    <contributor>
      <author>marc</author>
      <authoring_tool>Maya7.0 | ColladaMaya v3.05B</authoring_tool>
      <comments>ColladaMaya export options: bakeTransforms=0;exportPolygonMeshes=1;bakeLighting=0;isSampling=0;
curveConstrainSampling=0;removeStaticCurves=1;exportCameraAsLookat=0;
exportLights=1;exportCameras=1;exportJointsAndSkin=1;
exportAnimations=1;exportTriangles=1;exportInvisibleNodes=0;
exportNormals=1;exportTexCoords=1;
exportVertexColors=1;exportVertexColorsAnimation=0;exportTangents=0;
exportTexTangents=0;exportConstraints=1;exportPhysics=1;exportXRefs=1;
dereferenceXRefs=0;cameraXFov=0;cameraYFov=1</comments>
      <source_data>file:///E:/lux/work_static_objects/castlebase/wall/door/doorway_straight.mb</source_data>
    </contributor>
    <created>2009-02-18T10:42:15Z</created>
    <modified>2009-02-18T10:42:15Z</modified>
    <up_axis>Y_UP</up_axis>
    <hpl2scaling />
  </asset>
  <library_physics_scenes>
    <physics_scene id="MayaNativePhysicsScene">
      <technique_common>
        <gravity>0 -980 0</gravity>
        <time_step>0.083</time_step>
      </technique_common>
    </physics_scene>
  </library_physics_scenes>
  <library_images>
    <image id="file6" name="file6">
      <init_from>file:///E:/lux/redist/static_objects/castlebase/wall/door/castlebase_wall_door_straight.dds</init_from>
      <extra>
        <technique profile="MAYA">
          <dgnode_type>kFile</dgnode_type>
          <image_sequence>0</image_sequence>
        </technique>
      </extra>
    </image>
  </library_images>
  <library_materials>
    <material id="lambert7" name="lambert7">
      <instance_effect url="#lambert7-fx" />
    </material>
  </library_materials>
  <library_effects>
    <effect id="lambert7-fx">
      <profile_COMMON>
        <newparam sid="file6-surface">
          <surface type="2D">
            <init_from>file6</init_from>
            <format>A8R8G8B8</format>
          </surface>
        </newparam>
        <newparam sid="file6-sampler">
          <sampler2D>
            <source>file6-surface</source>
            <wrap_s>WRAP</wrap_s>
            <wrap_t>WRAP</wrap_t>
            <minfilter>NONE</minfilter>
            <magfilter>NONE</magfilter>
            <mipfilter>NONE</mipfilter>
          </sampler2D>
        </newparam>
        <technique sid="common">
          <lambert>
            <emission>
              <color>0 0 0 1</color>
            </emission>
            <ambient>
              <color>0 0 0 1</color>
            </ambient>
            <diffuse>
              <texture texture="file6-sampler" texcoord="TEX0">
                <extra>
                  <technique profile="MAYA">
                    <wrapU>1</wrapU>
                    <wrapV>1</wrapV>
                    <mirrorU>0</mirrorU>
                    <mirrorV>0</mirrorV>
                    <coverageU>1</coverageU>
                    <coverageV>1</coverageV>
                    <translateFrameU>0</translateFrameU>
                    <translateFrameV>0</translateFrameV>
                    <rotateFrame>0</rotateFrame>
                    <stagger>0</stagger>
                    <fast>0</fast>
                    <repeatU>1</repeatU>
                    <repeatV>1</repeatV>
                    <offsetU>0</offsetU>
                    <offsetV>0</offsetV>
                    <rotateUV>0</rotateUV>
                    <noiseU>0</noiseU>
                    <noiseV>0</noiseV>
                    <blend_mode>NONE</blend_mode>
                  </technique>
                </extra>
              </texture>
            </diffuse>
            <transparent opaque="RGB_ZERO">
              <color>0 0 0 1</color>
            </transparent>
            <transparency>
              <float>1</float>
            </transparency>
          </lambert>
          <extra>
            <technique profile="FCOLLADA" />
          </extra>
        </technique>
      </profile_COMMON>
    </effect>
  </library_effects>
  <library_geometries>
    <geometry id="polySurfaceShape132" name="polySurfaceShape132">
      <mesh>
        <source id="polySurfaceShape132-positions" name="position">
          <float_array id="polySurfaceShape132-positions-array" count="348">-2 4 0.321904 2 4 0.321904 -2 1.4957 0 2 1.4957 0 2 1.35709 0.25 -2 1.35709 0.25 2 1.47316 0.115563 -2 1.47316 0.115563 2 1.4957 0.061488 -2 1.4957 0.061488 2 1.39109 0.241192 -2 1.39109 0.241192 2 1.42097 0.20368 -2 1.42097 0.20368 -1.75 0.27223 0 -1.75 0.157453 0.151698 -1.75 0 0.151698 1.75 0.27223 0 1.75 0.157453 0.151698 1.75 0 0.151698 1.75 0.078726 0.151698 -1.75 0.078726 0.151698 -1.75 0.020562 0.174576 -1.75 0.058163 0.174576 1.75 0.020562 0.174576 1.75 0.058163 0.174576 -1.75 0.214842 0.075849 1.75 0.214842 0.075849 -1.75 0.252513 0.07354 -1.75 0.280251 0.036879 1.75 0.252513 0.07354 1.75 0.280251 0.036879 1.75 0.215218 0.267841 2 0.215218 0.267841 2 0.459237 0 1.75 0.459237 0 1.75 0 0.29657 2 0 0.29657 -2 0.215218 0.267841 -1.75 0.215218 0.267841 -1.75 0.459237 0 -2 0.459237 0 -2 0 0.29657 -1.75 0 0.29657 1.75 1.35709 0.25 1.75 1.32264 0.089248 1.75 1.20825 0 -1.75 1.35709 0.25 -1.75 1.32264 0.089248 -1.75 1.20825 0 2 1.10507 0.111539 1.75 1.10507 0.111539 1.75 1.02189 0 2 1.02189 0 -1.75 1.10507 0.111539 -2 1.10507 0.111539 -2 1.02189 0 -1.75 1.02189 0 -2 1.27891 0.167395 -1.75 1.27891 0.167395 1.75 1.27891 0.167395 2 1.27891 0.167395 2 3.75 0 -2 3.75 0 2 3.92814 0.302724 -2 3.92814 0.302724 -2 3.8632 0.163756 2 3.8632 0.163756 -2 3.87762 0.237206 2 3.87762 0.237206 -2 3.80896 0.123447 2 3.80896 0.123447 -2 3.76717 0.067893 2 3.76717 0.067893 -2 4 0 2 4 0 1.16848 1.47316 0.115563 1.16848 1.4957 0.061488 1.16848 1.39109 0.241192 1.16848 1.42097 0.20368 1.16848 1.35709 0.25 1.16848 1.32264 0.089248 1.12795 0.27223 0 1.12795 0.157453 0.151698 1.12795 0 0.151698 1.12795 0.078726 0.151698 1.12795 0.020562 0.174576 1.12795 0.058163 0.174576 1.12795 0.214842 0.075849 1.12795 0.252513 0.07354 1.12795 0.280251 0.036879 1.16848 1.20825 0 1.16848 1.4957 0 -1.12352 0.157453 0.151698 -1.12352 0 0.151698 -1.12352 0.020562 0.174576 -1.12352 0.214842 0.075849 -1.12352 0.252513 0.07354 -1.12352 0.280251 0.036879 -1.16406 1.20825 0 -1.16406 1.4957 0 -1.16406 1.47316 0.115563 -1.16406 1.4957 0.061488 -1.16406 1.39109 0.241192 -1.16406 1.42097 0.20368 -1.12352 0.078726 0.151698 -1.12352 0.058163 0.174576 -1.16406 1.32264 0.089248 -1.16406 1.35709 0.25 1.12795 0.459237 0 1.12795 1.02189 0 -1.12352 0.27223 0 -1.12352 1.02189 0 -1.12352 0.459237 0 1.16848 2.98421 0 -1.16406 2.98421 0</float_array>
          <technique_common>
            <accessor source="#polySurfaceShape132-positions-array" count="116" stride="3">
              <param name="X" type="float" />
              <param name="Y" type="float" />
              <param name="Z" type="float" />
            </accessor>
          </technique_common>
        </source>
        <source id="polySurfaceShape132-normals" name="normal">
          <float_array id="polySurfaceShape132-normals-array" count="798">0 -0.7263 0.687378 0 -0.7263 0.687378 0 -0.276083 0.961134 0 -0.276083 0.961134 0 -0.276083 0.961134 0 -0.276083 0.961134 0 0.250785 0.968043 0 0.544504 0.838759 0 0.544504 0.838759 0 0.893902 0.448262 0 0.893902 0.448262 0 0.980571 0.196166 0 0.980571 0.196166 0 1 0 0 1 0 0 0.823229 0.567709 0 0.823229 0.567709 0 0.472514 0.881323 0 0.472514 0.881323 0 0.976595 0.215088 0 0.976595 0.215088 0 0.739215 0.673469 0 0.739215 0.673469 0 0.739215 0.673469 0 0.739215 0.673469 0 -0.407144 0.913364 0 -0.407144 0.913364 0 0.407144 0.913364 0 0.407144 0.913364 0 0.132318 0.991207 0 0.132318 0.991207 0 0.132318 0.991207 0 0.132318 0.991207 0 0.739215 0.673469 0 0.739215 0.673469 0 0.739215 0.673469 0 0.739215 0.673469 0 0.132318 0.991207 0 0.132318 0.991207 0 0.132318 0.991207 0 0.132318 0.991207 0 0 1 0 0 1 0 0 1 0 0 1 0 -0.743741 0.668467 0 -0.743741 0.668467 0 0.407144 0.913364 0 0.407144 0.913364 0 0.407144 0.913364 0 0.407144 0.913364 0 0.797462 0.60337 0 0.797462 0.60337 0 0.797462 0.60337 0 0.797462 0.60337 0 0.06116 0.998128 0 0.06116 0.998128 0 0.977158 -0.212516 0 0.977158 -0.212516 0 0.976595 0.215088 0 0.976595 0.215088 1 0 0 1 0 0 1 0 0 1 -0.000000 0 1 -0.000000 0 1 -0.000000 0 1 -0.000000 0 1 -0.000001 0 1 -0.000001 0 1 -0.000001 0 1 0 0 1 0 0 1 0 0 1 -0.000004 0 1 -0.000004 0 1 -0.000004 0 1 -0.000000 0 1 -0.000000 0 1 -0.000000 0 1 -0.000000 0 1 0 0 1 0 0 1 0 0 1 0 0 1 0 0 1 0 0 -1 0 0 -1 0 0 -1 0 0 -1 0.000000 0 -1 0.000000 0 -1 0.000000 0 -1 0.000000 0 -1 -0.000001 0 -1 -0.000001 0 -1 -0.000001 0 -1 0.000001 0 -1 0.000001 0 -1 0.000001 0 -1 0.000004 0 -1 0.000004 0 -1 0.000004 0 -1 0 0 -1 0 0 -1 0 0 -1 0 0 -1 0 0 -1 0 0 -1 0 0 -1 0 0 -1 0 0 -1 0 0 0 -0.801622 0.597831 0 -0.801622 0.597831 0 -0.801622 0.597831 0 -0.801622 0.597831 0 0 1 0 0 1 0 0 1 0 0 1 0 -0.847432 0.530903 0 -0.847432 0.530903 0 -0.977804 0.209521 0 -0.977804 0.209521 0 -0.615129 0.788427 0 -0.615129 0.788427 0 -0.7263 0.687378 0 -0.7263 0.687378 0 -0.801622 0.597831 0 -0.801622 0.597831 0 -0.801622 0.597831 0 -0.801622 0.597831 -1 0 0 -1 0 0 -1 0 0 -1 0 0 -1 0 0 -1 0 0 -1 0 0 1 0 0 1 0 0 1 0 0 1 0 0 1 0 0 1 0 0 1 0 0 0 -0.305911 0.95206 0 -0.305911 0.95206 0 -0.305911 0.95206 0 -0.305911 0.95206 1 0 0 -1 0 0 0 -0.305911 0.95206 0 -0.305911 0.95206 0 -0.305911 0.95206 0 -0.305911 0.95206 0 0 1 0 0 1 0 0 1 0 0 1 0 0 1 0 0 1 0 0 1 0 0 1 0 0 1 0 0 1 0 0 1 0 0 1 0 0 1 0 0 1 0 0 1 0 0 1 0 0 1 0 0 1 0 0 1 0 0 1 0 0 1 0 0 1 0 0 1 0 0 1 0 0 1 0 0 1 0 0 1 0 0 1 -1 0 0 -1 0 0 -1 0 0 -1 0 0 -1 0 0 -1 0 0 -1 0 0 -1 0 0 0 0.472514 0.881323 0 0.472514 0.881323 0 0 1 0 0 1 0 0 1 0 0 1 0 -0.743741 0.668467 0 -0.743741 0.668467 0 -0.743741 0.668467 0 -0.743741 0.668467 0 0.797462 0.603369 0 0.797462 0.603369 0 0.797462 0.603369 0 0.797462 0.603369 0 0.06116 0.998128 0 0.06116 0.998128 0 0 1 0 0 1 0 0 1 0 0 1 0 -0.847432 0.530903 0 -0.615129 0.788427 0 -0.615129 0.788427 0 -0.847432 0.530903 0 -0.977804 0.209521 0 -0.977804 0.209521 0 0.544503 0.838759 0 0.250784 0.968043 0 0.544503 0.838759 0 0.980571 0.196166 0 0.893902 0.448262 0 0.893902 0.448262 0 0.980571 0.196166 0 1 0.000000 0 1 0.000000 0 0.823229 0.567709 0 0.823229 0.567709 1 0 0 1 0 0 1 0 0 1 0 0 1 0 0 1 0 0 1 0 0 1 0 0 0 0.743741 0.668467 0 0.743741 0.668467 0 0.977158 -0.212516 0 0.977158 -0.212516 0 0 1 0 0 1 0 0 1 0 0 1 0 -0.554191 0.83239 0 -0.910893 0.412642 0 -0.910893 0.412642 0 -0.554191 0.83239 0 -0.257893 0.966174 0 -0.257893 0.966174 0 -0.596473 0.802633 0 -0.705016 0.709191 0 -0.705016 0.709191 0 -0.596473 0.802633 0 -0.98127 0.192638 0 -0.98127 0.192638 0 -0.902037 0.431659 0 -0.902037 0.431659 0 -0.969489 0.245135 0 -0.969489 0.245135 0 1 0 0 1 0 0 1 0 0 1 0</float_array>
          <technique_common>
            <accessor source="#polySurfaceShape132-normals-array" count="266" stride="3">
              <param name="X" type="float" />
              <param name="Y" type="float" />
              <param name="Z" type="float" />
            </accessor>
          </technique_common>
        </source>
        <source id="polySurfaceShape132-map1" name="map1">
          <float_array id="polySurfaceShape132-map1-array" count="396">0.152178 0.111271 0.242575 0.111271 0.242575 0.141349 0.152178 0.141349 1.83265 0.767549 1.8331 0.686926 1.83265 0.48963 1.84193 0.489629 1.84193 0.767549 1.87414 0.489629 1.87414 0.767549 1.8889 0.489629 1.8889 0.767549 1.90568 0.489629 1.90568 0.767549 1.85009 0.489629 1.85009 0.767549 0.963604 0.168317 0.963604 0.010402 0.982259 0.010402 0.982259 0.168317 0.035195 0.082368 0.105411 0.08021 0.105411 0.142816 0.035195 0.142816 0.859888 0.16879 0.859888 0.010402 0.870258 0.010402 0.870259 0.16879 0.035195 0.013832 0.105411 0.013832 0.022025 0.082368 0.092241 0.082368 0.092241 0.142816 0.022025 0.142816 0.022025 0.013832 0.092241 0.013832 0.885589 0.168317 0.885589 0.010402 0.917578 0.010045 0.917578 0.168317 0.847949 0.16879 0.847948 0.010045 0.885589 0.010402 0.885589 0.168317 0.870259 0.16879 0.870258 0.010402 0.949822 0.010045 0.949822 0.168317 0.995657 0.010402 0.995657 0.168317 0.982259 0.168317 0.982259 0.010402 0.474387 0.134308 0.486655 0.13164 0.486655 0.193845 0.462193 0.125081 0.397561 0.112676 0.461425 0.11255 0.436195 0.09346 0.436195 0.041085 0.428585 0.047925 0.388005 0.041085 0.428585 0.047925 0.436195 0.067273 0.283914 0.131299 0.296182 0.133967 0.283914 0.193505 0.308377 0.12474 0.373008 0.112335 0.309145 0.112209 0.334375 0.093119 0.341985 0.047584 0.334375 0.040744 0.382565 0.040744 0.341985 0.060092 0.334375 0.066932 0.152178 0.020145 0.242575 0.020145 0.242575 0.048414 0.152178 0.048414 0.053266 0.484938 0.053499 0.445643 0.144089 0.445643 0.144089 0.484372 0.768012 0.155789 0.768012 0.007734 0.824267 0.007734 0.824267 0.155789 0.733749 0.155789 0.733749 0.007734 0.132673 0.111271 0.22307 0.111271 0.22307 0.141349 0.132673 0.141349 0.132673 0.020145 0.22307 0.020145 0.22307 0.048414 0.132673 0.048414 0.484578 0.260197 0.430746 0.248662 0.456915 0.234017 0.400859 0.210355 0.400859 0.147947 0.438211 0.175803 0.343571 0.248662 0.289739 0.260197 0.317401 0.234017 0.373458 0.210355 0.336106 0.175803 0.373458 0.147947 0.053499 0.600896 0.001266 0.599108 0.001266 0.484938 0.703717 0.600795 0.645196 0.600896 0.645196 0.484372 0.703717 0.484227 0.645196 0.63949 0.533776 0.63949 0.533777 0.600896 0.053499 0.63949 0.144089 0.600896 0.144089 0.63949 0.533776 0.484372 0.696917 0.995926 0.002877 0.995926 0.002877 0.649406 0.147922 0.649406 0.147356 0.876379 0.553207 0.876379 0.552641 0.649406 0.696917 0.649406 0.270379 0.109315 0.270379 0.050547 0.288625 0.073934 0.321489 0.080976 0.319689 0.087927 0.31202 0.094036 0.294005 0.104707 0.28295 0.109315 0.963604 0.168317 0.963604 0.010402 0.917578 0.168317 0.917578 0.010045 0.859888 0.16879 0.859888 0.010402 0.847949 0.16879 0.847948 0.010045 0.949822 0.168317 0.949822 0.010045 0.533776 0.445644 0.645196 0.445643 0.768012 0.155789 0.733749 0.155789 0.733749 0.007734 0.768012 0.007734 0.824267 0.155789 0.824267 0.007734 1.84193 0.966665 1.83265 0.966665 1.83265 0.728486 1.83265 0.627494 1.84193 0.627494 1.87414 0.966665 1.87414 0.627494 1.8889 0.966665 1.8889 0.627494 1.90568 0.966665 1.90568 0.627494 1.85009 0.966665 1.85009 0.627494 0.321712 0.028616 0.317104 0.039671 0.306434 0.057686 0.300324 0.065355 0.293373 0.067156 0.286331 0.034291 0.262945 0.016045 0.321712 0.016045 0.995657 0.010402 0.995657 0.168317 0.879061 0.320776 0.895669 0.320776 0.895669 0.924736 0.879061 0.924736 0.855438 0.320776 0.855438 0.924736 0.919815 0.320776 0.933067 0.320776 0.933066 0.924736 0.919815 0.924736 0.95133 0.320776 0.951329 0.924736 0.973649 0.320776 0.973649 0.924736 0.749614 0.320776 0.749614 0.924736</float_array>
          <technique_common>
            <accessor source="#polySurfaceShape132-map1-array" count="198" stride="2">
              <param name="S" type="float" />
              <param name="T" type="float" />
            </accessor>
          </technique_common>
        </source>
        <vertices id="polySurfaceShape132-vertices">
          <input semantic="POSITION" source="#polySurfaceShape132-positions" />
        </vertices>
        <triangles material="lambert7SG" count="158">
          <input semantic="VERTEX" source="#polySurfaceShape132-vertices" offset="0" />
          <input semantic="NORMAL" source="#polySurfaceShape132-normals" offset="1" />
          <input semantic="TEXCOORD" source="#polySurfaceShape132-map1" offset="2" set="0" />
          <p>60 0 0 61 1 1 44 3 3 61 1 1 4 2 2 44 3 3 103 7 7 11 8 8 108 6 6 108 6 6 11 8 8 47 5 5 5 4 4 47 5 5 11 8 8 7 9 10 101 10 9 9 12 12 101 10 9 102 11 11 9 12 12 9 12 12 102 11 11 2 14 14 102 11 11 100 13 13 2 14 14 11 8 8 103 7 7 13 16 16 103 7 7 104 15 15 13 16 16 7 9 10 13 16 16 101 10 9 13 16 16 104 15 15 101 10 9 28 17 17 97 18 18 29 20 20 97 18 18 98 19 19 29 20 20 32 21 21 33 22 22 35 24 24 33 22 22 34 23 23 35 24 24 22 25 25 95 26 26 23 28 28 95 26 26 106 27 27 23 28 28 36 29 29 37 30 30 32 32 21 37 30 30 33 31 22 32 32 21 38 33 31 39 34 32 41 36 34 39 34 32 40 35 33 41 36 34 42 37 35 43 38 36 38 40 31 43 38 36 39 39 32 38 40 31 21 41 37 105 42 38 15 44 40 105 42 38 93 43 39 15 44 40 16 45 41 94 46 42 22 25 25 94 46 42 95 26 26 22 25 25 20 47 43 85 48 44 25 50 46 85 48 44 87 49 45 25 50 46 15 51 40 93 52 39 26 54 48 93 52 39 96 53 47 26 54 48 26 55 48 96 56 47 28 17 17 96 56 47 97 18 18 28 17 17 17 57 49 82 58 50 31 60 52 82 58 50 90 59 51 31 60 52 29 61 53 14 62 54 40 63 55 39 67 57 28 64 56 40 66 55 28 64 56 29 65 53 40 66 55 26 68 58 28 69 56 39 70 57 15 71 59 26 72 58 39 73 57 16 74 60 22 75 61 43 76 62 22 77 61 23 78 63 43 80 62 23 78 63 39 79 57 43 80 62 23 81 63 21 82 64 39 83 57 21 84 64 15 85 59 39 86 57 17 87 65 31 88 66 35 89 67 32 92 69 35 93 67 30 91 68 31 90 66 30 91 68 35 93 67 30 94 68 27 95 70 32 96 69 27 97 70 18 98 71 32 99 69 24 100 72 19 101 73 36 102 74 24 104 72 36 105 74 25 103 75 25 103 75 36 105 74 32 106 69 20 107 76 25 108 75 32 109 69 18 110 71 20 111 76 32 112 69 52 113 77 53 114 78 51 116 80 53 114 78 50 115 79 51 116 80 40 117 81 14 118 82 113 120 84 14 118 82 111 119 83 113 120 84 48 121 85 107 122 86 47 124 88 107 122 86 108 123 87 47 124 88 49 125 89 99 126 90 48 121 85 99 126 90 107 122 86 48 121 85 58 127 91 59 128 92 5 4 94 59 128 92 47 5 93 5 4 94 56 129 95 57 130 96 55 132 98 57 130 96 54 131 97 55 132 98 44 133 99 45 134 100 60 135 101 45 136 100 46 137 102 51 139 104 46 137 102 52 138 103 51 139 104 48 140 105 47 141 106 59 142 107 48 144 105 54 145 109 49 143 108 49 143 108 54 145 109 57 146 110 55 147 98 54 148 97 58 150 91 54 148 97 59 149 92 58 150 91 48 144 105 59 151 107 54 145 109 60 152 101 45 136 100 51 139 104 51 153 80 50 154 79 60 156 0 50 154 79 61 155 1 60 156 0 57 157 111 56 158 112 40 160 81 56 158 112 41 159 113 40 160 81 53 161 114 52 162 115 34 164 117 52 162 115 35 163 116 34 164 117 110 168 120 52 165 115 91 167 119 52 165 115 46 166 118 91 167 119 112 171 122 99 172 123 57 170 111 49 169 121 57 170 111 99 172 123 52 173 115 110 174 120 35 176 116 110 174 120 109 175 124 35 176 116 2 179 127 100 180 128 63 178 126 100 180 128 115 181 129 63 178 126 63 178 126 115 181 129 62 177 125 115 181 129 114 182 130 62 177 125 62 177 125 114 182 130 3 184 132 114 182 130 92 183 131 3 184 132 91 186 134 81 187 135 92 185 133 92 185 133 81 187 135 77 192 140 77 192 140 81 187 135 76 191 139 76 191 139 81 187 135 79 190 138 80 188 136 78 189 137 81 187 135 81 187 135 78 189 137 79 190 138 90 59 51 89 193 141 31 60 52 89 193 141 30 194 142 31 60 52 83 195 143 85 48 44 18 196 144 85 48 44 20 47 43 18 196 144 87 49 45 86 197 145 25 50 46 86 197 145 24 198 146 25 50 46 86 199 145 84 200 147 24 202 146 84 200 147 19 201 148 24 202 146 88 203 149 83 204 143 27 206 150 83 204 143 18 205 144 27 206 150 89 193 141 88 207 149 30 194 142 88 207 149 27 208 150 30 194 142 109 209 124 82 210 151 35 212 116 82 210 151 17 211 152 35 212 116 81 213 153 91 214 154 45 216 156 91 214 154 46 215 155 45 216 156 80 217 157 81 213 153 44 218 158 81 213 153 45 216 156 44 218 158 78 219 159 80 220 160 10 221 163 80 220 160 44 3 161 10 221 163 44 3 161 4 2 162 10 221 163 77 222 166 76 223 164 8 225 167 76 223 164 6 224 165 8 225 167 92 226 168 77 222 166 3 227 169 77 222 166 8 225 167 3 227 169 79 228 170 78 219 159 12 229 171 78 219 159 10 221 163 12 229 171 76 223 164 79 228 170 6 224 165 79 228 170 12 229 171 6 224 165 99 236 178 100 237 179 107 235 177 100 237 179 102 230 172 107 235 177 102 230 172 101 231 173 107 235 177 101 231 173 104 232 174 107 235 177 108 234 176 107 235 177 103 233 175 104 232 174 103 233 175 107 235 177 106 27 27 105 238 38 23 28 28 105 238 38 21 239 37 23 28 28 98 19 19 111 240 180 29 20 20 111 240 180 14 241 181 29 20 20 113 242 84 112 243 122 40 245 81 112 243 122 57 244 111 40 245 81 65 246 182 68 247 183 64 249 185 68 247 183 69 248 184 64 249 185 0 250 186 65 246 182 1 251 187 65 246 182 64 249 185 1 251 187 66 252 188 70 253 189 67 255 191 70 253 189 71 254 190 67 255 191 68 247 183 66 256 188 69 248 184 66 256 188 67 257 191 69 248 184 70 253 189 72 258 192 71 254 190 72 258 192 73 259 193 71 254 190 72 258 192 63 260 194 73 259 193 63 260 194 62 261 195 73 259 193 74 262 196 0 263 186 75 265 197 0 263 186 1 264 187 75 265 197</p>
        </triangles>
      </mesh>
      <extra>
        <technique profile="MAYA">
          <double_sided>1</double_sided>
        </technique>
      </extra>
    </geometry>
  </library_geometries>
  <library_visual_scenes>
    <visual_scene id="VisualSceneNode" name="doorway_straight">
      <node id="polySurface115" name="polySurface115" type="NODE">
        <rotate sid="rotateZ">0 0 1 0</rotate>
        <rotate sid="rotateY">0 1 0 0</rotate>
        <rotate sid="rotateX">1 0 0 0</rotate>
        <node id="polySurface125" name="polySurface125" type="NODE">
          <rotate sid="rotateZ">0 0 1 0</rotate>
          <rotate sid="rotateY">0 1 0 0</rotate>
          <rotate sid="rotateX">1 0 0 0</rotate>
          <instance_geometry url="#polySurfaceShape132">
            <bind_material>
              <technique_common>
                <instance_material symbol="lambert7SG" target="#lambert7">
                  <bind_vertex_input semantic="TEX0" input_semantic="TEXCOORD" input_set="0" />
                </instance_material>
              </technique_common>
            </bind_material>
          </instance_geometry>
        </node>
      </node>
      <extra>
        <technique profile="FCOLLADA">
          <start_time>0.041666</start_time>
          <end_time>2</end_time>
        </technique>
      </extra>
    </visual_scene>
  </library_visual_scenes>
  <scene>
    <instance_physics_scene url="#MayaNativePhysicsScene" />
    <instance_visual_scene url="#VisualSceneNode" />
  </scene>
</COLLADA>