﻿<?xml version="1.0" encoding="utf-8"?>
<COLLADA xmlns="http://www.collada.org/2005/11/COLLADASchema" version="1.4.1">
  <asset>
    <contributor>
      <author>marc</author>
      <authoring_tool>Maya7.0 | ColladaMaya v3.05B</authoring_tool>
      <comments>ColladaMaya export options: bakeTransforms=0;exportPolygonMeshes=1;bakeLighting=0;isSampling=0;
curveConstrainSampling=0;removeStaticCurves=1;exportCameraAsLookat=0;
exportLights=1;exportCameras=1;exportJointsAndSkin=1;
exportAnimations=1;exportTriangles=1;exportInvisibleNodes=0;
exportNormals=1;exportTexCoords=1;
exportVertexColors=1;exportVertexColorsAnimation=0;exportTangents=0;
exportTexTangents=0;exportConstraints=1;exportPhysics=1;exportXRefs=1;
dereferenceXRefs=0;cameraXFov=0;cameraYFov=1</comments>
      <source_data>file:///E:/lux/work_static_objects/castlebase/wall/default_window.mb</source_data>
    </contributor>
    <created>2009-03-20T10:13:09Z</created>
    <modified>2009-03-20T10:13:09Z</modified>
    <up_axis>Y_UP</up_axis>
    <hpl2scaling />
  </asset>
  <library_physics_scenes>
    <physics_scene id="MayaNativePhysicsScene">
      <technique_common>
        <gravity>0 -980 0</gravity>
        <time_step>0.083</time_step>
      </technique_common>
    </physics_scene>
  </library_physics_scenes>
  <library_images>
    <image id="file2" name="file2">
      <init_from>file:///E:/lux/redist/static_objects/castlebase/wall/castlebase_wall_win.dds</init_from>
      <extra>
        <technique profile="MAYA">
          <dgnode_type>kFile</dgnode_type>
          <image_sequence>0</image_sequence>
        </technique>
      </extra>
    </image>
    <image id="file9" name="file9">
      <init_from>file:///E:/lux/redist/static_objects/castlebase/wall/castlebase_wall_windows.dds</init_from>
      <extra>
        <technique profile="MAYA">
          <dgnode_type>kFile</dgnode_type>
          <image_sequence>0</image_sequence>
        </technique>
      </extra>
    </image>
  </library_images>
  <library_materials>
    <material id="lambert3" name="lambert3">
      <instance_effect url="#lambert3-fx" />
    </material>
    <material id="lambert10" name="lambert10">
      <instance_effect url="#lambert10-fx" />
    </material>
  </library_materials>
  <library_effects>
    <effect id="lambert3-fx">
      <profile_COMMON>
        <newparam sid="file2-surface">
          <surface type="2D">
            <init_from>file2</init_from>
            <format>A8R8G8B8</format>
          </surface>
        </newparam>
        <newparam sid="file2-sampler">
          <sampler2D>
            <source>file2-surface</source>
            <wrap_s>WRAP</wrap_s>
            <wrap_t>WRAP</wrap_t>
            <minfilter>NONE</minfilter>
            <magfilter>NONE</magfilter>
            <mipfilter>NONE</mipfilter>
          </sampler2D>
        </newparam>
        <technique sid="common">
          <lambert>
            <emission>
              <color>0 0 0 1</color>
            </emission>
            <ambient>
              <color>0 0 0 1</color>
            </ambient>
            <diffuse>
              <texture texture="file2-sampler" texcoord="TEX0">
                <extra>
                  <technique profile="MAYA">
                    <wrapU>1</wrapU>
                    <wrapV>1</wrapV>
                    <mirrorU>0</mirrorU>
                    <mirrorV>0</mirrorV>
                    <coverageU>1</coverageU>
                    <coverageV>1</coverageV>
                    <translateFrameU>0</translateFrameU>
                    <translateFrameV>0</translateFrameV>
                    <rotateFrame>0</rotateFrame>
                    <stagger>0</stagger>
                    <fast>0</fast>
                    <repeatU>1</repeatU>
                    <repeatV>1</repeatV>
                    <offsetU>0</offsetU>
                    <offsetV>0</offsetV>
                    <rotateUV>0</rotateUV>
                    <noiseU>0</noiseU>
                    <noiseV>0</noiseV>
                    <blend_mode>NONE</blend_mode>
                  </technique>
                </extra>
              </texture>
            </diffuse>
            <transparent opaque="RGB_ZERO">
              <color>0 0 0 1</color>
            </transparent>
            <transparency>
              <float>1</float>
            </transparency>
          </lambert>
          <extra>
            <technique profile="FCOLLADA" />
          </extra>
        </technique>
      </profile_COMMON>
    </effect>
    <effect id="lambert10-fx">
      <profile_COMMON>
        <newparam sid="file9-surface">
          <surface type="2D">
            <init_from>file9</init_from>
            <format>A8R8G8B8</format>
          </surface>
        </newparam>
        <newparam sid="file9-sampler">
          <sampler2D>
            <source>file9-surface</source>
            <wrap_s>WRAP</wrap_s>
            <wrap_t>WRAP</wrap_t>
            <minfilter>NONE</minfilter>
            <magfilter>NONE</magfilter>
            <mipfilter>NONE</mipfilter>
          </sampler2D>
        </newparam>
        <technique sid="common">
          <lambert>
            <emission>
              <color>0 0 0 1</color>
            </emission>
            <ambient>
              <color>0 0 0 1</color>
            </ambient>
            <diffuse>
              <texture texture="file9-sampler" texcoord="TEX0">
                <extra>
                  <technique profile="MAYA">
                    <wrapU>1</wrapU>
                    <wrapV>1</wrapV>
                    <mirrorU>0</mirrorU>
                    <mirrorV>0</mirrorV>
                    <coverageU>1</coverageU>
                    <coverageV>1</coverageV>
                    <translateFrameU>0</translateFrameU>
                    <translateFrameV>0</translateFrameV>
                    <rotateFrame>0</rotateFrame>
                    <stagger>0</stagger>
                    <fast>0</fast>
                    <repeatU>1</repeatU>
                    <repeatV>1</repeatV>
                    <offsetU>0</offsetU>
                    <offsetV>0</offsetV>
                    <rotateUV>0</rotateUV>
                    <noiseU>0</noiseU>
                    <noiseV>0</noiseV>
                    <blend_mode>NONE</blend_mode>
                  </technique>
                </extra>
              </texture>
            </diffuse>
            <transparent opaque="A_ONE">
              <texture texture="file9-sampler" texcoord="TEX1">
                <extra>
                  <technique profile="MAYA">
                    <wrapU>1</wrapU>
                    <wrapV>1</wrapV>
                    <mirrorU>0</mirrorU>
                    <mirrorV>0</mirrorV>
                    <coverageU>1</coverageU>
                    <coverageV>1</coverageV>
                    <translateFrameU>0</translateFrameU>
                    <translateFrameV>0</translateFrameV>
                    <rotateFrame>0</rotateFrame>
                    <stagger>0</stagger>
                    <fast>0</fast>
                    <repeatU>1</repeatU>
                    <repeatV>1</repeatV>
                    <offsetU>0</offsetU>
                    <offsetV>0</offsetV>
                    <rotateUV>0</rotateUV>
                    <noiseU>0</noiseU>
                    <noiseV>0</noiseV>
                    <blend_mode>NONE</blend_mode>
                  </technique>
                </extra>
              </texture>
            </transparent>
            <transparency>
              <float>1</float>
            </transparency>
          </lambert>
          <extra>
            <technique profile="FCOLLADA" />
          </extra>
        </technique>
      </profile_COMMON>
    </effect>
  </library_effects>
  <library_geometries>
    <geometry id="polySurfaceShape105" name="polySurfaceShape105">
      <mesh>
        <source id="polySurfaceShape105-positions" name="position">
          <float_array id="polySurfaceShape105-positions-array" count="753">2 0.459237 0 1.75 1.02189 0 1.75 0.459237 0 2 1.02189 0 1.75 0.27223 0 0.25 0.27223 0 1.75 0.459237 0 0.25 0.459237 0 1.75 1.02189 0 0.25 1.02189 0 0.25 1.20825 0 1.75 1.20825 0 -0.25 0.459237 0 -0.25 1.02189 0 -1.75 1.20825 0 -1.75 1.02189 0 -0.25 1.20825 0 -1.75 0.459237 0 -0.25 0.27223 0 -1.75 0.27223 0 -1.75 0.459237 0 -2 1.02189 0 -2 0.459237 0 -1.75 1.02189 0 -0.25 0 0.151698 -0.25 0.157453 0.151698 0.25 0.27223 0 0.25 0.157453 0.151698 0.25 0 0.151698 -1.75 0.27223 0 -1.75 0.157453 0.151698 -1.75 0 0.151698 1.75 0.157453 0.151698 1.75 0 0.151698 0.25 0.078726 0.151698 1.75 0.078726 0.151698 -0.25 0.078726 0.151698 -1.75 0.078726 0.151698 -1.75 0.020562 0.174576 -0.25 0.020562 0.174576 -0.25 0.058163 0.174576 -1.75 0.058163 0.174576 0.25 0.020562 0.174576 1.75 0.020562 0.174576 1.75 0.058163 0.174576 0.25 0.058163 0.174576 -1.75 0.214842 0.075849 -0.25 0.214842 0.075849 0.25 0.214842 0.075849 1.75 0.214842 0.075849 -1.75 0.252513 0.07354 -0.25 0.252513 0.07354 -0.25 0.280251 0.03688 -1.75 0.280251 0.03688 0.25 0.252513 0.07354 1.75 0.252513 0.07354 1.75 0.280251 0.03688 0.25 0.280251 0.03688 1.75 0.215218 0.26784 2 0.215218 0.26784 1.75 0.459237 0 1.75 0 0.29657 2 0 0.29657 -0.25 0.215218 0.26784 0.25 0.215218 0.26784 -0.25 0 0.29657 0.25 0 0.29657 -2 0.215218 0.26784 -1.75 0.215218 0.26784 -2 0.459237 0 -2 0 0.29657 -1.75 0 0.29657 -0.25 0.27223 0 1.75 0.27223 0 0.25 0.459237 0 -0.25 0.459237 0 2 0.459237 0 -1.75 0.459237 0 -2 1.4957 0 2 1.35709 0.25 -2 1.35709 0.25 2 1.47316 0.115563 -2 1.47316 0.115563 2 1.4957 0.061488 -2 1.4957 0.061488 2 1.39109 0.241191 -2 1.39109 0.241191 2 1.42097 0.203679 -2 1.42097 0.203679 1.75 1.35709 0.25 1.75 1.32264 0.089248 1.75 1.20825 0 -1.75 1.35709 0.25 -1.75 1.32264 0.089248 -0.25 1.20825 0 -0.25 1.32264 0.089248 -0.25 1.35709 0.25 0.25 1.32264 0.089248 0.25 1.35709 0.25 2 1.10507 0.11154 1.75 1.10507 0.11154 2 1.02189 0 -1.75 1.10507 0.11154 -2 1.10507 0.11154 0.25 1.10507 0.11154 -0.25 1.10507 0.11154 -2 1.27891 0.167395 -1.75 1.27891 0.167395 -0.25 1.27891 0.167395 0.25 1.27891 0.167395 1.75 1.27891 0.167395 2 1.27891 0.167395 2 1.4957 0 0 1.4957 0 -1.75 1.20825 0 0.25 1.20825 0 -1.75 1.02189 0 -0.25 1.02189 0 0.25 1.02189 0 -2 1.02189 0 1.75 1.02189 0 1 1.4957 0 1 1.4957 0.061488 1 1.47316 0.115563 1 1.42097 0.203679 1 1.39109 0.241191 1 1.35709 0.25 -1 1.4957 0 -1 1.4957 0.061488 -1 1.47316 0.115563 -1 1.42097 0.203679 -1 1.39109 0.241191 -1 1.35709 0.25 2 1.4957 0 2 2.70099 0 0.756407 1.59733 0 2 3.75 0 0.756407 2.45681 0 0.697504 2.81817 0 0.560678 3.17954 0 0 3.75 0 0.333528 3.42869 0 0 3.58635 0 -2 3.75 0 -0.333528 3.42869 0 -0.560678 3.17954 0 -0.697504 2.81817 0 -2 2.70099 0 -2 1.4957 0 -0.756407 2.45681 0 -0.756407 1.59733 0 0 1.4957 0 0 1.59733 0 0.756407 2.45681 0 -0.756407 2.45681 0 -0.756407 1.59733 0.082852 -0.756407 2.45681 0.082852 0.756407 1.59733 0.082852 0.756407 2.45681 0.082852 0.697504 2.81817 0.082852 0.560678 3.17954 0.082852 0.333528 3.42869 0.082852 0 3.58635 0.082852 -0.333528 3.42869 0.082852 -0.560678 3.17954 0.082852 -0.697504 2.81817 0.082852 -0.64273 1.70465 0.134763 -0.64273 2.43496 0.134763 0.64273 1.70465 0.134763 0.64273 2.43496 0.134763 0.59268 2.74202 0.134763 0.476417 3.04908 0.134763 0.283404 3.26079 0.134763 0 3.39228 0.134763 -0.283404 3.26079 0.134763 -0.476417 3.04908 0.134763 -0.59268 2.74202 0.134763 -0.554698 1.93522 -0.689495 -0.554698 2.56551 -0.689495 0.554698 1.93522 -0.689495 0.554698 2.56551 -0.689495 0.511503 2.83051 -0.689495 0.411164 3.09551 -0.689495 0.244587 3.27822 -0.689495 0 3.40589 -0.689495 -0.244587 3.27822 -0.689495 -0.411164 3.09551 -0.689495 -0.511503 2.83051 -0.689495 -0.554698 2.45163 0.01732 -0.511503 2.71664 0.01732 -0.411164 2.98164 0.01732 -0.244587 3.16435 0.01732 0 3.29202 0.01732 0.244587 3.16435 0.01732 0.411164 2.98164 0.01732 0.511503 2.71664 0.01732 0.554698 2.45163 0.01732 0.554698 1.82135 0.01732 -0.554698 1.82135 0.01732 0 3.50514 0.134763 0.312551 3.35843 0.134763 0.525416 3.12495 0.134763 0.653636 2.78631 0.134763 0.708834 2.44767 0.134763 0.708834 1.64224 0.134763 -0.708834 1.64224 0.134763 -0.708834 2.44767 0.134763 -0.653636 2.78631 0.134763 -0.525416 3.12495 0.134763 -0.312551 3.35843 0.134763 0 3.58635 0 0.756407 1.59733 0 -0.756407 1.59733 0 0.560678 3.17954 0 -0.560678 3.17954 0 -0.333528 3.42869 0 0.333528 3.42869 0 -0.697504 2.81817 0 0.697504 2.81817 0 -2 4 0.321904 2 4 0.321904 2 3.75 0 2 3.92814 0.302724 -2 3.92814 0.302724 -2 3.8632 0.163757 2 3.8632 0.163757 -2 3.87762 0.237206 2 3.87762 0.237206 -2 3.80896 0.123447 2 3.80896 0.123447 -2 3.76717 0.067893 2 3.76717 0.067893 -2 4 0 2 4 0 -2 3.75 0 1 3.75 0 1 3.76717 0.067893 1 3.80896 0.123447 1 3.8632 0.163757 1 3.87762 0.237206 1 3.92814 0.302724 1 4 0.321904 1 4 0 -1 3.75 0 -1 3.76717 0.067893 -1 3.80896 0.123447 -1 3.8632 0.163757 -1 3.87762 0.237206 -1 3.92814 0.302724 -1 4 0.321904 -1 4 0</float_array>
          <technique_common>
            <accessor source="#polySurfaceShape105-positions-array" count="251" stride="3">
              <param name="X" type="float" />
              <param name="Y" type="float" />
              <param name="Z" type="float" />
            </accessor>
          </technique_common>
        </source>
        <source id="polySurfaceShape105-normals" name="normal">
          <float_array id="polySurfaceShape105-normals-array" count="1542">0 0 1 0 0 1 0 0 1 0 0 1 0 0 1 0 0 1 0 0 1 0 0 1 0 0 1 0 0 1 0 0 1 0 0 1 0 0 1 0 0 1 0 0 1 0 0 1 0 0 1 0 0 1 0 0 1 0 0 1 0 0 1 0 0 1 0 0 1 0 0 1 0 0 1 0 0 1 0 0 1 0 0 1 0 0 1 0 0 1 0 0 1 0 0 1 0 0 1 0 0 1 0 0 1 0 0 1 0 0.472511 0.881325 0 0.472511 0.881325 0 0.976593 0.215093 0 0.976593 0.215093 0 0.739215 0.67347 0 0.739215 0.67347 0 0.739215 0.67347 0 0.739215 0.67347 0 -0.407144 0.913364 0 -0.407144 0.913364 0 0.407144 0.913364 0 0.407144 0.913364 0 0.132321 0.991207 0 0.132321 0.991207 0 0.132321 0.991207 0 0.132321 0.991207 0 0.739215 0.67347 0 0.739215 0.67347 0 0.739215 0.67347 0 0.739215 0.67347 0 0.132321 0.991207 0 0.132321 0.991207 0 0.132321 0.991207 0 0.132321 0.991207 0 0.739215 0.67347 0 0.739215 0.67347 0 0.739215 0.67347 0 0.739215 0.67347 0 0.132321 0.991207 0 0.132321 0.991207 0 0.132321 0.991207 0 0.132321 0.991207 0 0.472511 0.881325 0 0.472511 0.881325 0 0.976593 0.215093 0 0.976593 0.215093 0 0 1 0 0 1 0 0.445326 0.895369 0 0.445326 0.895369 0 -0.407144 0.913364 0 -0.407144 0.913364 0 0.407144 0.913364 0 0.407144 0.913364 0 0 1 0 0 1 0 0.445326 0.895369 0 0.445326 0.895369 0 -0.743741 0.668467 0 -0.743741 0.668467 0 0.743741 0.668467 0 0.743741 0.668467 0 -0.743741 0.668467 0 -0.743741 0.668467 0 0.743741 0.668467 0 0.743741 0.668467 0 0.797462 0.60337 0 0.797462 0.60337 0 0.797462 0.60337 0 0.797462 0.60337 0 0.06116 0.998128 0 0.06116 0.998128 0 0.977158 -0.212513 0 0.977158 -0.212513 0 0.06116 0.998128 0 0.06116 0.998128 0 0.977158 -0.212513 0 0.977158 -0.212513 1 0 0 1 0 0 1 0 0 1 0 0 1 0 0 1 0 0 1 0 0 1 -0.000003 0 1 -0.000003 0 1 -0.000003 0 1 0.000001 0 1 0.000001 0 1 0.000001 0 1 -0.000004 0 1 -0.000004 0 1 -0.000004 0 1 -0.000000 0 1 -0.000000 0 1 -0.000000 0 1 -0.000000 0 1 -0.000002 0 1 -0.000002 0 1 -0.000002 0 1 -0.000001 0 1 -0.000001 0 1 -0.000001 0 -1 0 0 -1 0 0 -1 0 0 -1 0 0 -1 0 0 -1 0 0 -1 0 0 -1 0 0 -1 0 0 -1 0 0 -1 0 0 -1 0 0 -1 0 0 -1 0 0 -1 0 0 -1 0 0 -1 0 0 -1 0 0 -1 0 0 -1 0 0 -1 0 0 -1 0 0 -1 0 0 -1 0 0 -1 0 0 -1 0 0 1 0 0 1 0 0 1 0 0 1 0 0 1 0 0 1 0 0 1 0 0 1 0 0 1 0 0 1 0 0 1 0 0 1 0 0 1 0 0 1 0 0 1 0 0 1 0 0 1 0 0 1 0 0 1 0 0 1 0 0 1 0 0 1 0 0 1 0 0 1 0 0 1 0 0 1 0 0 -1 0 0 -1 0 0 -1 0 0 -1 0 0 -1 0 0 -1 0 0 -1 0 0 -1 0 0 -1 0 0 -1 0 0 -1 0.000002 0 -1 0.000002 0 -1 0.000002 0 -1 0.000004 0 -1 0.000004 0 -1 0.000004 0 -1 0.000000 0 -1 0.000000 0 -1 0.000000 0 -1 0.000000 0 -1 0.000002 0 -1 0.000002 0 -1 0.000002 0 -1 0.000001 0 -1 0.000001 0 -1 0.000001 0 0 -0.7263 0.687378 0 -0.7263 0.687378 0 -0.276075 0.961136 0 -0.276075 0.961136 0 0.54451 0.838754 0 0.250801 0.968039 0 0.54451 0.838754 0 0.893902 0.448263 0 0.893902 0.448263 0 0.98057 0.196167 0 0.98057 0.196167 0 1 0 0 1 0 0 0.823229 0.567709 0 0.823229 0.567709 0 -0.801624 0.597829 0 -0.801624 0.597829 0 -0.801624 0.597829 0 -0.801624 0.597829 0 -0.847432 0.530903 0 -0.847432 0.530903 0 -0.977804 0.209521 0 -0.977804 0.209521 0 -0.977804 0.209521 0 -0.615129 0.788427 0 -0.615129 0.788427 0 -0.7263 0.687378 0 -0.7263 0.687378 0 -0.276075 0.961136 0 -0.276075 0.961136 0 -0.801624 0.597829 0 -0.801624 0.597829 0 -0.801624 0.597829 0 -0.801624 0.597829 0 -0.801624 0.597829 0 -0.801624 0.597829 0 -0.801624 0.597829 0 -0.801624 0.597829 0 -0.276075 0.961136 0 -0.7263 0.687378 0 -0.7263 0.687378 0 -0.276075 0.961136 0 -0.615129 0.788427 0 -0.615129 0.788427 0 -0.847432 0.530903 0 -0.847432 0.530903 0 -0.977804 0.209521 0 -0.977804 0.209521 0 -0.977804 0.209521 -1 0 0 -1 0 0 -1 0 0 -1 0 0 -1 0 0 -1 0 0 -1 0 0 1 0 0 1 0 0 1 0 0 1 -0.000000 0 1 -0.000000 0 1 -0.000000 0 1 -0.000000 0 1 0 0 1 0 0 1 0 0 1 0 0 -1 0 0 -1 0 0 -1 0 0 -1 0 0 -1 0 0 -1 0 0 -1 0 0 1 0 0 1 0 0 1 0 0 0 -0.305908 0.952061 0 -0.305908 0.952061 0 -0.305908 0.952061 0 -0.305908 0.952061 1 0 0 -1 0 0 0 -0.305908 0.952061 0 -0.305908 0.952061 0 -0.305908 0.952061 0 -0.305908 0.952061 1 0 0 -1 0 0 0 -0.305908 0.952061 0 -0.305908 0.952061 0 -0.305908 0.952061 0 -0.305908 0.952061 0 0.98057 0.196167 0 0.98057 0.196167 0 1 0 0 1 0 0 1 0 0 0.893902 0.448263 0 0.893902 0.448263 0 0.823229 0.567709 0 0.823229 0.567709 0 0.54451 0.838754 0 0.54451 0.838754 0 0.250801 0.968039 0 0.250801 0.968039 0 0.98057 0.196167 0 0.98057 0.196167 0 1 0 0 1 0 0 0.893902 0.448263 0 0.893902 0.448263 0 0.823229 0.567709 0 0.823229 0.567709 0 0.54451 0.838754 0 0.54451 0.838754 0 0.250801 0.968039 0 0 1 0 0 1 0 0 1 0 0 1 0 0 1 0 0 1 0 0 1 0 0 1 0 0 1 0 0 1 0 0 1 0 0 1 0 0 1 0 0 1 0 0 1 0 0 1 0 0 1 0 0 1 0 0 1 0 0 1 0 0 1 0 0 1 0 0 1 0 0 1 0 0 1 0 0 1 0 0 1 0 0 1 0 0 1 0 0 1 0 0 1 0 0 1 0 0 1 0 0 1 0 0 1 0 0 1 0 0 1 0 0 1 0 0 1 0 0 1 0 0 1 0 0 1 0 0 1 0 0 1 -1 0 0 -1 0 0 -0.619218 -0.625988 0.474034 -0.927766 0.074985 0.365552 0 -1 -0.000000 0 -1 -0.000000 0.619218 -0.625988 0.474034 1 0 0 1 0 0 0.927766 0.074985 0.365552 0.986975 0.160875 0 0.986975 0.160875 0 0.894802 0.238975 0.377121 0.935207 0.354101 0 0.935207 0.354101 0 0.778642 0.473901 0.41126 0.738982 0.673725 -0.000000 0.738982 0.673725 -0.000000 0.533481 0.716753 0.44907 0.427357 0.904083 -0.000002 0.427357 0.904083 -0.000002 0 0.868588 0.495535 -0.427357 0.904083 -0.000001 -0.427357 0.904083 -0.000001 -0.533481 0.716753 0.44907 -0.738982 0.673725 -0.000000 -0.738982 0.673725 -0.000000 -0.778642 0.473901 0.41126 -0.935207 0.354101 0 -0.935207 0.354101 0 -0.894802 0.238975 0.377121 -0.986975 0.160876 0 -0.986975 0.160876 0 -0.211039 -0.216477 0.953205 -0.398308 0.032116 0.916689 0.211039 -0.216477 0.953205 0.398308 0.032116 0.916689 0.375083 0.099734 0.92161 0.303453 0.182305 0.935244 0.18989 0.252271 0.948842 0 0.277543 0.960713 -0.18989 0.252272 0.948842 -0.303452 0.182305 0.935244 -0.375083 0.099734 0.92161 0.449389 -0.036669 0.892583 0.230373 0.204226 0.95143 0.948726 0 0.316098 0.948966 -0.077094 0.305811 0 0.709348 0.704859 0 0.709348 0.704859 -0.230373 0.204226 0.95143 -0.449389 -0.036669 0.892583 -0.948966 -0.077094 0.305811 -0.948726 0 0.316099 -0.438648 -0.117452 0.890951 -0.924882 -0.247689 0.28852 -0.374112 -0.227916 0.898941 -0.817899 -0.500165 0.284389 -0.254973 -0.338775 0.90566 -0.582437 -0.763553 0.278845 0 -0.38981 0.920895 -0.436192 -0.858248 0.270456 0.254973 -0.338775 0.90566 0.582437 -0.763552 0.278845 0.436192 -0.858248 0.270457 0.374112 -0.227916 0.898941 0.817899 -0.500165 0.284389 0.438648 -0.117452 0.890951 0.924882 -0.247689 0.28852 0.996655 -0.08068 -0.012998 0.965113 -0.258499 -0.041646 0.849416 -0.521006 -0.083938 0.605585 -0.78565 -0.126574 0.458074 -0.877598 -0.141388 -0.458074 -0.877598 -0.141388 -0.605585 -0.78565 -0.126574 -0.849416 -0.521006 -0.083938 -0.965113 -0.258499 -0.041646 -0.996655 -0.08068 -0.012998 -1 0 0 0 0.987269 0.159057 0 0.987269 0.159057 0 0.987269 0.159057 0 0.987269 0.159057 1 0 0 0 -0.554191 0.83239 0 -0.910892 0.412645 0 -0.910892 0.412645 0 -0.554191 0.83239 0 -0.257893 0.966174 0 -0.257893 0.966174 0 -0.59648 0.802628 0 -0.705019 0.709188 0 -0.705019 0.709188 0 -0.59648 0.802628 0.000000 -0.981269 0.192644 0.000000 -0.981269 0.192644 0 -0.902037 0.431659 0 -0.902037 0.431659 0 -0.969489 0.245135 0 -0.969489 0.245135 0 1 0 0 1 0 0 1 0 0 1 0 0 -0.902037 0.431659 0 -0.969489 0.245135 0 -0.969489 0.245135 0 -0.902037 0.431659 0 -0.705019 0.709188 0 -0.705019 0.709188 0 -0.59648 0.802628 0 -0.59648 0.802628 0 -0.910892 0.412645 -0.000000 -0.981269 0.192644 -0.000000 -0.981269 0.192644 0 -0.910892 0.412645 0 -0.554191 0.83239 0 -0.554191 0.83239 0 -0.257893 0.966174 0 -0.257893 0.966174 0 1 0 0 1 0 0 1 0 0 1 0 0 -0.902037 0.431659 0 -0.969489 0.245135 0 -0.969489 0.245135 0 -0.902037 0.431659 0 -0.705019 0.709188 0 -0.705019 0.709188 0 -0.596479 0.802629 0 -0.596479 0.802629 0 -0.910893 0.412643 0 -0.98127 0.192639 0 -0.98127 0.192639 0 -0.910893 0.412643 0 -0.554191 0.83239 0 -0.554191 0.83239 0 -0.257893 0.966174 0 -0.257893 0.966174 0 1 0 0 1 0 0 1 0 0 1 0</float_array>
          <technique_common>
            <accessor source="#polySurfaceShape105-normals-array" count="514" stride="3">
              <param name="X" type="float" />
              <param name="Y" type="float" />
              <param name="Z" type="float" />
            </accessor>
          </technique_common>
        </source>
        <source id="polySurfaceShape105-map1" name="map1">
          <float_array id="polySurfaceShape105-map1-array" count="806">0.70378 0.600795 0.645216 0.600795 0.645216 0.484227 0.70378 0.484227 0.391612 0.484372 0.391612 0.445644 0.645196 0.445643 0.645196 0.484372 0.645196 0.600896 0.391612 0.600896 0.82991 0.908507 0.82991 0.400946 0.853152 0.908507 0.645196 0.63949 0.391612 0.63949 0.853152 0.400946 0.874403 0.908507 0.307084 0.600896 0.307084 0.484372 0.874403 0.400946 0.053499 0.63949 0.053499 0.600896 0.903966 0.908507 0.307084 0.63949 0.903966 0.400946 0.929579 0.908507 0.053499 0.484372 0.929579 0.400946 0.947548 0.908507 0.053499 0.445644 0.307084 0.445644 0.969508 0.908507 0.053266 0.599108 0.000258 0.599108 0.000258 0.484938 0.053266 0.484938 0.963604 0.307408 0.963604 0.010045 0.982259 0.010045 0.982259 0.307408 0.092241 0.082368 0.022025 0.082368 0.022025 0.013832 0.092241 0.013832 0.859888 0.307408 0.859888 0.010045 0.870258 0.010045 0.870259 0.307408 0.092241 0.142816 0.022025 0.142816 0.02049 0.209077 0.131172 0.209077 0.131172 0.268836 0.02049 0.268836 0.02049 0.156371 0.131172 0.156371 0.105412 0.08021 0.035195 0.082368 0.035195 0.013832 0.105412 0.013832 0.105412 0.142816 0.035195 0.142816 0.963604 0.306935 0.963604 0.010402 0.982259 0.010402 0.982259 0.306935 0.885589 0.306935 0.885589 0.010402 0.917578 0.010402 0.917578 0.306935 0.859888 0.306935 0.859888 0.010402 0.870258 0.010402 0.870258 0.306935 0.885589 0.307408 0.885589 0.010045 0.917578 0.010045 0.917578 0.307408 0.847949 0.307408 0.847948 0.010045 0.847948 0.306935 0.847948 0.010402 0.949822 0.010045 0.949822 0.307408 0.949822 0.010402 0.949822 0.306935 0.995657 0.010045 0.995657 0.307408 0.995657 0.010402 0.995657 0.306935 0.436888 0.768231 0.449156 0.765563 0.449156 0.827769 0.424693 0.759005 0.360062 0.746599 0.423925 0.746473 0.398695 0.727384 0.398695 0.675009 0.391085 0.681849 0.350505 0.675009 0.391085 0.694356 0.398695 0.701196 0.304485 0.681508 0.296875 0.674668 0.345065 0.674668 0.304485 0.694016 0.335509 0.746258 0.296875 0.700855 0.296875 0.727043 0.246415 0.765222 0.258683 0.76789 0.246415 0.827428 0.270877 0.758663 0.271645 0.746133 0.436888 0.768231 0.449156 0.765563 0.449156 0.827769 0.424693 0.759004 0.360062 0.746599 0.423925 0.746474 0.398695 0.727384 0.398695 0.675009 0.391085 0.681849 0.350505 0.675009 0.391085 0.694356 0.398695 0.701197 0.246415 0.765222 0.258683 0.76789 0.246415 0.827428 0.270877 0.758663 0.335508 0.746258 0.271645 0.746133 0.296875 0.727043 0.304485 0.681508 0.296875 0.674668 0.345065 0.674668 0.304485 0.694016 0.296875 0.700855 0.22307 0.048414 0.132673 0.048414 0.132673 0.020145 0.22307 0.020145 1.84161 0.892343 1.83238 0.892343 1.83238 0.648196 1.83238 0.561006 1.84161 0.561006 1.87365 0.561006 1.87365 0.892343 1.88833 0.561006 1.88833 0.892343 1.90503 0.561006 1.90503 0.892343 1.84973 0.561006 1.84973 0.892343 0.22307 0.141349 0.132673 0.141349 0.132673 0.111271 0.22307 0.111271 0.768012 0.308487 0.768012 0.007734 0.824267 0.007734 0.824267 0.158111 0.824267 0.308487 0.733749 0.308487 0.733749 0.007734 0.242575 0.048414 0.152178 0.048414 0.152178 0.020145 0.242575 0.020145 0.242575 0.141349 0.152178 0.141349 0.152178 0.111271 0.242575 0.111271 0.250697 0.267563 0.144873 0.267563 0.144874 0.239916 0.250697 0.239916 0.250697 0.155318 0.250697 0.182139 0.144873 0.182139 0.144873 0.155318 0.733749 0.308487 0.733749 0.007734 0.768012 0.007734 0.768012 0.308487 0.824267 0.308487 0.824267 0.007734 0.824267 0.158111 0.447078 0.89412 0.393246 0.882585 0.419416 0.86794 0.363359 0.844278 0.363359 0.781871 0.400711 0.809726 0.306071 0.882585 0.252239 0.89412 0.279902 0.86794 0.335958 0.844278 0.298606 0.809726 0.335958 0.781871 0.335958 0.844278 0.306071 0.882585 0.298606 0.809727 0.335958 0.781871 0.393246 0.882585 0.363359 0.844278 0.363359 0.781871 0.400711 0.809727 0.447078 0.89412 0.419416 0.86794 0.252239 0.89412 0.279902 0.86794 1.88888 0.862248 1.88888 0.360429 1.90594 0.360429 1.90594 0.605762 1.90594 0.862248 1.87388 0.862248 1.87388 0.360429 1.84942 0.862248 1.84942 0.360429 1.84113 0.862248 1.84113 0.360429 1.83169 0.862248 1.83169 0.674106 1.83169 0.553715 1.83169 0.360429 1.88836 0.608497 1.88836 0.337472 1.90515 0.337472 1.90515 0.608497 1.8736 0.608497 1.8736 0.337472 1.84954 0.608497 1.84954 0.337472 1.84138 0.608497 1.84138 0.337472 1.8321 0.608497 1.8321 0.540741 1.8321 0.337472 0.695281 0.834449 0.484062 0.797128 0.484062 0.665764 0.695281 0.650232 0.695281 0.994781 0.473797 0.85236 0.449952 0.907591 0.348132 0.994781 0.351213 0.97228 0.410365 0.945672 0.002032 0.994781 0.290006 0.945672 0.25042 0.907591 0.226575 0.85236 0.002032 0.834449 0.216309 0.797128 0.002032 0.650232 0.216309 0.665764 0.348132 0.650232 0.348132 0.665764 0.461921 0.114783 0.716682 0.114388 0.716682 0.135228 0.461921 0.135623 0.698115 0.19117 0.723105 0.19117 0.723105 0.473366 0.698115 0.473366 0.717808 0.099746 0.459119 0.100142 0.459119 0.07674 0.717808 0.076345 0.350482 0.100537 0.957083 0.568649 0.974276 0.718931 0.957082 0.718932 0.974276 0.810737 0.957083 0.810738 0.974276 0.917088 0.957083 0.917088 0.746682 0.973809 0.746682 0.912771 0.778832 0.905555 0.778832 0.976029 0.746682 0.844173 0.778832 0.844173 0.746682 0.712658 0.351863 0.136018 0.703775 0.148691 0.461921 0.149086 0.68128 0.464492 0.68128 0.200044 0.459119 0.06443 0.704777 0.06291 0.352806 0.065297 0.937132 0.711712 0.937133 0.801129 0.937132 0.904855 0.7996 0.900559 0.7996 0.971588 0.7996 0.838773 0.7996 0.719858 0.461921 0.169569 0.689383 0.169174 0.45827 0.290626 0.456892 0.198973 0.638532 0.43574 0.638532 0.228796 0.666063 0.212375 0.666063 0.452161 0.690248 0.045342 0.459119 0.045737 0.456195 0.023143 0.660519 0.022749 0.359779 0.046131 0.866752 0.556383 0.90483 0.701843 0.866752 0.694483 0.90483 0.789373 0.866752 0.778687 0.90483 0.891093 0.866751 0.883242 0.8312 0.963261 0.8312 0.897901 0.08709 0.290626 0.015879 0.290626 0.8312 0.827073 0.136524 0.290626 0.8312 0.715076 0.207279 0.290626 0.268865 0.437024 0.203267 0.437024 0.364999 0.199689 0.129019 0.437024 0.877554 0.81619 0.086988 0.437024 0.877612 0.963064 0.010121 0.437024 0.433454 0.290872 0.466202 0.290872 0.494155 0.437838 0.444036 0.437838 0.37775 0.290872 0.876353 0.888118 0.387616 0.437838 0.306995 0.290872 0.288597 0.290626 0.316861 0.437838 0.225677 0.290872 0.659936 0.197813 0.235543 0.437838 0.056003 0.290872 0.749085 0.908507 0.065869 0.437838 0.506674 0.228796 0.506674 0.43574 0.438538 0.437024 0.749084 0.400946 0.853649 0.330827 0.8749 0.330826 0.8749 0.686973 0.853649 0.686973 0.830407 0.330827 0.830407 0.686974 0.904464 0.330826 0.930077 0.330826 0.930077 0.686973 0.904464 0.686973 0.948046 0.330826 0.948046 0.686973 0.970005 0.330826 0.970005 0.686973 0.749582 0.686974 0.749582 0.330827 0.948735 0.556887 0.970694 0.556887 0.970694 0.986956 0.948734 0.986956 0.930766 0.556887 0.930765 0.986956 0.905153 0.556887 0.905152 0.986956 0.875589 0.556887 0.875589 0.986956 0.854338 0.556887 0.854338 0.986956 0.831096 0.556887 0.831096 0.986956 0.750271 0.556887 0.75027 0.986956 0.947548 0.400946 0.969508 0.400946 0.974276 0.572218 0.352123 0.11067 0.348158 0.077134 0.778832 0.712181 0.366808 0.023538 0.877058 0.720615 0.90483 0.558013 0.937132 0.563866 0.358107 0.169964 0.353285 0.14948</float_array>
          <technique_common>
            <accessor source="#polySurfaceShape105-map1-array" count="403" stride="2">
              <param name="S" type="float" />
              <param name="T" type="float" />
            </accessor>
          </technique_common>
        </source>
        <vertices id="polySurfaceShape105-vertices">
          <input semantic="POSITION" source="#polySurfaceShape105-positions" />
        </vertices>
        <triangles material="lambert3SG" count="353">
          <input semantic="VERTEX" source="#polySurfaceShape105-vertices" offset="0" />
          <input semantic="NORMAL" source="#polySurfaceShape105-normals" offset="1" />
          <input semantic="TEXCOORD" source="#polySurfaceShape105-map1" offset="2" set="0" />
          <p>3 0 0 1 1 1 0 3 3 1 1 1 2 2 2 0 3 3 7 4 4 5 5 5 6 7 7 5 5 5 4 6 6 6 7 7 8 8 8 9 9 9 6 11 7 9 9 9 7 10 4 6 11 7 8 12 8 11 13 13 9 15 9 11 13 13 10 14 14 9 15 9 9 16 9 13 17 17 7 19 4 13 17 17 12 18 18 7 19 4 14 20 20 15 21 21 16 23 23 15 21 21 13 22 17 16 23 23 13 24 17 15 25 21 12 27 18 15 25 21 17 26 26 12 27 18 17 28 26 19 29 29 12 31 18 19 29 29 18 30 30 12 31 18 23 32 32 21 33 33 20 35 35 21 33 33 22 34 34 20 35 35 50 36 36 51 37 37 53 39 39 51 37 37 52 38 38 53 39 39 58 40 40 59 41 41 60 43 43 59 41 41 76 42 42 60 43 43 38 44 44 39 45 45 41 47 47 39 45 45 40 46 46 41 47 47 61 48 48 62 49 49 58 51 40 62 49 49 59 50 41 58 51 40 63 52 50 64 53 51 75 55 53 64 53 51 74 54 52 75 55 53 65 56 54 66 57 55 63 59 50 66 57 55 64 58 51 63 59 50 67 60 56 68 61 57 69 63 59 68 61 57 77 62 58 69 63 59 70 64 60 71 65 61 67 67 56 71 65 61 68 66 57 67 67 56 54 68 62 55 69 63 57 71 65 55 69 63 56 70 64 57 71 65 34 72 66 35 73 67 27 75 69 35 73 67 32 74 68 27 75 69 42 76 70 43 77 71 45 79 73 43 77 71 44 78 72 45 79 73 37 80 74 36 81 75 30 83 77 36 81 75 25 82 76 30 83 77 31 84 78 24 85 79 38 44 44 24 85 79 39 45 45 38 44 44 36 86 75 37 87 74 40 46 46 37 87 74 41 47 47 40 46 46 28 88 80 33 89 81 42 76 70 33 89 81 43 77 71 42 76 70 35 90 67 34 91 66 44 78 72 34 91 66 45 79 73 44 78 72 30 83 77 25 82 76 46 93 83 25 82 76 47 92 82 46 93 83 27 75 69 32 74 68 48 95 85 32 74 68 49 94 84 48 95 85 46 96 83 47 97 82 50 36 36 47 97 82 51 37 37 50 36 36 72 98 86 29 99 87 52 38 38 29 99 87 53 39 39 52 38 38 48 100 85 49 101 84 54 68 62 49 101 84 55 69 63 54 68 62 73 102 88 26 103 89 56 70 64 26 103 89 57 71 65 56 70 64 53 104 90 29 105 91 77 106 92 68 110 94 50 107 93 77 109 92 50 107 93 53 108 90 77 109 92 46 111 95 50 112 93 68 113 94 30 114 96 46 115 95 68 116 94 31 117 97 38 118 98 71 119 99 38 120 98 41 121 100 71 123 99 41 121 100 68 122 94 71 123 99 41 124 100 37 125 101 68 126 94 37 127 101 30 128 96 68 129 94 39 130 102 24 131 103 65 132 104 39 134 102 65 135 104 40 133 105 40 133 105 65 135 104 63 136 106 36 137 107 40 138 105 63 139 106 25 140 108 36 141 107 63 142 106 72 143 109 52 144 110 75 145 111 63 148 106 75 149 111 51 147 112 52 146 110 51 147 112 75 149 111 51 150 112 47 151 113 63 152 106 47 153 113 25 154 108 63 155 106 57 156 114 26 157 115 74 158 116 64 162 118 54 159 117 74 161 116 54 159 117 57 160 114 74 161 116 48 163 119 54 164 117 64 165 118 27 166 120 48 167 119 64 168 118 28 169 121 42 170 122 66 171 123 42 172 122 45 173 124 66 175 123 45 173 124 64 174 118 66 175 123 45 176 124 34 177 125 64 178 118 64 179 118 34 180 125 27 181 120 73 182 126 56 183 127 60 184 128 58 187 130 60 188 128 55 186 129 56 185 127 55 186 129 60 188 128 55 189 129 49 190 131 58 191 130 49 192 131 32 193 132 58 194 130 43 195 133 33 196 134 61 197 135 43 199 133 61 200 135 44 198 136 44 198 136 61 200 135 58 201 130 35 202 137 44 203 136 58 204 130 32 205 132 35 206 137 58 207 130 110 208 138 111 209 139 89 211 141 111 209 139 79 210 140 89 211 141 125 212 142 126 213 143 85 214 146 126 213 143 89 211 144 85 214 146 89 211 144 79 210 145 85 214 146 123 215 148 81 216 147 122 218 150 81 216 147 83 217 149 122 218 150 122 218 150 83 217 149 121 220 152 83 217 149 112 219 151 121 220 152 125 212 142 85 214 146 124 222 154 85 214 146 87 221 153 124 222 154 123 215 148 124 222 154 81 216 147 124 222 154 87 221 153 81 216 147 120 223 155 101 224 156 100 226 158 101 224 156 99 225 157 100 226 158 93 227 159 95 228 160 92 231 163 92 231 163 95 228 160 132 230 162 95 228 160 96 229 161 132 230 162 114 232 164 94 233 165 93 227 159 94 233 165 95 228 160 93 227 159 106 234 166 107 235 167 80 237 169 107 235 167 92 236 168 80 237 169 119 238 170 116 239 171 103 241 173 116 239 171 102 240 172 103 241 173 117 242 174 118 243 175 105 245 177 118 243 175 104 244 176 105 245 177 96 246 178 108 247 179 98 249 181 108 247 179 109 248 180 98 249 181 115 250 182 91 251 183 97 253 185 91 251 183 90 252 184 97 253 185 98 254 186 97 253 185 126 256 188 97 253 185 90 252 184 126 256 188 90 252 184 89 255 187 126 256 188 89 257 189 90 258 190 110 259 191 90 260 190 91 261 192 100 263 194 91 261 192 120 262 193 100 263 194 93 264 195 92 265 196 107 266 197 93 268 195 102 269 199 114 267 198 114 267 198 102 269 199 116 270 200 97 272 202 104 273 203 115 271 201 115 271 201 104 273 203 118 274 204 95 275 205 94 276 206 105 278 208 94 276 206 117 277 207 105 278 208 96 279 209 95 280 205 108 281 210 97 282 202 98 283 211 109 284 212 103 285 173 102 286 172 106 288 166 102 286 172 107 287 167 106 288 166 93 268 195 107 289 197 102 269 199 108 290 210 95 275 205 105 278 208 109 291 180 108 292 179 104 294 176 108 292 179 105 293 177 104 294 176 97 272 202 109 295 212 104 273 203 110 296 191 90 260 190 100 263 194 100 297 158 99 298 157 110 300 138 99 298 157 111 299 139 110 300 138 128 301 213 122 302 214 127 305 217 127 305 217 122 302 214 113 304 216 122 302 214 121 303 215 113 304 216 129 306 218 123 307 219 128 301 213 123 307 219 122 302 214 128 301 213 129 306 218 130 308 220 123 307 219 130 308 220 124 309 221 123 307 219 131 310 222 125 311 223 130 308 220 125 311 223 124 309 221 130 308 220 131 310 222 132 312 224 125 311 223 132 312 224 96 246 225 125 311 223 96 246 225 98 249 226 125 311 223 98 249 226 126 313 227 125 311 223 84 314 228 128 315 229 78 317 231 128 315 229 127 316 230 78 317 231 82 318 232 129 319 233 84 314 228 129 319 233 128 315 229 84 314 228 82 318 232 88 320 234 129 319 233 88 320 234 130 321 235 129 319 233 86 322 236 131 323 237 88 320 234 131 323 237 130 321 235 88 320 234 131 323 237 86 322 236 132 324 240 80 237 238 92 236 239 86 322 236 92 236 239 132 324 240 86 322 236 134 325 241 137 326 242 133 328 244 137 326 242 135 327 243 133 328 244 136 329 245 138 330 246 134 332 241 138 330 246 137 331 242 134 332 241 136 333 245 139 334 247 138 335 246 140 336 248 142 337 249 136 339 245 142 337 249 141 338 250 136 339 245 136 340 245 141 341 250 139 342 247 140 346 248 143 343 251 142 345 249 143 343 251 144 344 252 142 345 249 143 347 251 145 348 253 144 349 252 143 350 251 146 351 254 145 352 253 143 353 251 147 354 255 146 356 254 147 354 255 149 355 256 146 356 254 147 357 255 148 358 257 149 360 256 148 358 257 150 359 258 149 360 256 148 362 257 151 363 259 150 361 258 150 361 258 151 363 259 152 364 260 133 365 244 135 366 243 151 368 259 135 366 243 152 367 260 151 368 259 154 369 261 212 370 262 156 372 264 212 370 262 155 371 263 156 372 264 155 371 265 212 373 266 157 375 268 212 373 266 211 374 267 157 375 268 153 377 270 158 378 271 211 376 269 211 376 269 158 378 271 157 375 272 153 379 270 218 380 273 158 378 271 218 380 273 159 381 395 158 378 271 218 382 393 213 383 275 159 381 274 213 383 275 160 384 276 159 381 274 213 385 275 216 386 277 160 384 276 216 386 277 161 387 278 160 384 276 216 388 277 210 389 279 161 387 278 210 389 279 162 390 280 161 387 278 215 392 282 163 393 283 210 391 281 210 391 281 163 393 283 162 390 284 214 395 285 164 396 286 215 394 282 215 394 282 164 396 286 163 393 283 217 398 287 165 399 396 214 397 285 214 397 285 165 399 396 164 396 286 154 401 261 156 372 264 217 400 394 217 400 394 156 372 264 165 399 288 156 372 264 155 371 263 206 403 290 155 371 263 205 402 289 206 403 290 155 371 265 157 375 268 205 402 292 204 404 291 205 402 292 157 375 268 158 378 271 203 405 293 157 375 272 157 375 272 203 405 293 204 404 294 158 378 271 159 381 395 203 405 293 159 381 395 202 406 295 203 405 293 159 381 274 160 384 276 202 406 400 160 384 276 201 407 296 202 406 400 160 384 276 161 387 278 201 407 296 161 387 278 200 408 297 201 407 296 161 387 278 162 390 280 200 408 297 162 390 280 199 409 298 200 408 297 163 393 283 209 410 299 162 390 284 162 390 284 209 410 299 199 409 300 164 396 286 208 411 301 163 393 283 163 393 283 208 411 301 209 410 299 165 399 396 207 412 302 164 396 286 164 396 286 207 412 302 208 411 301 156 372 264 206 403 290 165 399 288 165 399 288 206 403 290 207 412 402 166 414 304 198 415 350 167 413 303 167 413 303 198 415 350 188 416 306 166 414 309 168 419 310 198 418 308 197 417 307 198 418 308 168 419 310 168 419 311 169 420 312 197 422 314 169 420 312 196 421 313 197 422 314 169 420 312 170 423 315 196 421 313 170 423 315 195 424 397 196 421 313 171 425 317 194 426 318 170 423 399 170 423 399 194 426 318 195 424 316 172 427 319 193 428 320 171 425 317 171 425 317 193 428 320 194 426 318 173 429 321 192 430 322 172 427 319 172 427 319 192 430 322 193 428 320 173 429 323 174 431 324 192 433 337 174 431 324 191 432 344 192 433 337 174 431 324 175 434 327 191 432 344 175 434 327 190 435 335 191 432 344 175 434 327 176 436 329 190 435 335 176 436 329 189 437 398 190 435 335 167 413 303 188 416 306 176 436 401 176 436 401 188 416 306 189 437 333 188 416 347 178 438 331 189 437 330 189 437 330 178 438 331 187 439 332 189 437 330 187 439 332 190 435 328 190 435 328 187 439 332 186 440 334 190 435 328 186 440 334 191 432 325 191 432 325 186 440 334 185 441 336 191 432 325 185 441 336 192 433 326 192 433 326 185 441 336 184 442 338 193 428 339 192 430 340 183 444 342 192 430 340 184 443 341 183 444 342 194 426 343 193 428 339 182 445 345 193 428 339 183 444 342 182 445 345 195 424 346 194 426 343 181 446 348 194 426 343 182 445 345 181 446 348 196 421 349 195 424 346 180 447 351 195 424 346 181 446 348 180 447 351 197 422 352 196 421 349 179 448 354 196 421 349 180 447 351 179 448 354 177 449 355 198 450 308 179 452 356 198 450 308 197 451 307 179 452 356 198 415 305 177 453 357 188 416 347 188 416 347 177 453 357 178 438 331 199 409 298 173 429 321 200 408 297 200 408 297 173 429 321 172 427 319 201 407 296 200 408 297 171 425 317 200 408 297 172 427 319 171 425 317 202 406 400 201 407 296 170 423 399 201 407 296 171 425 317 170 423 399 203 405 293 202 406 295 169 420 312 202 406 295 170 423 315 169 420 312 204 404 294 203 405 293 168 419 311 203 405 293 169 420 312 168 419 311 205 402 292 204 404 291 166 414 309 166 414 309 204 404 291 168 419 310 205 402 289 166 414 304 206 403 290 206 403 290 166 414 304 167 413 303 206 403 290 167 413 303 207 412 402 207 412 402 167 413 303 176 436 401 207 412 302 176 436 329 208 411 301 208 411 301 176 436 329 175 434 327 208 411 301 175 434 327 209 410 299 209 410 299 175 434 327 174 431 324 199 409 300 209 410 299 173 429 323 209 410 299 174 431 324 173 429 323 223 454 359 226 455 360 248 457 362 226 455 360 247 456 361 248 457 362 219 458 363 223 454 359 249 459 364 223 454 359 248 457 362 249 459 364 224 460 365 228 461 366 246 463 368 228 461 366 245 462 367 246 463 368 226 455 360 224 464 365 247 456 361 224 464 365 246 465 368 247 456 361 228 461 366 230 466 369 245 462 367 230 466 369 244 467 370 245 462 367 230 466 369 234 468 371 244 467 370 234 468 371 243 469 372 244 467 370 219 470 363 249 471 364 232 473 374 249 471 364 250 472 373 232 473 374 236 474 375 235 475 376 231 477 378 235 475 376 221 476 377 231 477 378 237 478 379 236 474 375 229 479 380 236 474 375 231 477 378 229 479 380 238 480 381 237 478 379 225 481 382 237 478 379 229 479 380 225 481 382 239 482 383 238 483 381 227 485 384 238 483 381 225 484 382 227 485 384 240 486 385 239 482 383 222 487 386 239 482 383 227 485 384 222 487 386 241 488 387 240 486 385 220 489 388 240 486 385 222 487 386 220 489 388 242 490 389 241 491 387 233 493 390 241 491 387 220 492 388 233 493 390 244 494 391 243 495 392 236 497 28 243 495 392 235 496 31 236 497 28 245 498 27 244 494 391 237 499 25 244 494 391 236 497 28 237 499 25 246 500 24 245 498 27 238 501 22 245 498 27 237 499 25 238 501 22 247 502 19 246 503 24 239 505 16 246 503 24 238 504 22 239 505 16 248 506 15 247 502 19 240 507 12 247 502 19 239 505 16 240 507 12 249 508 11 248 506 15 241 509 10 248 506 15 240 507 12 241 509 10 250 510 358 249 511 11 242 513 353 249 511 11 241 512 10 242 513 353</p>
        </triangles>
      </mesh>
      <extra>
        <technique profile="MAYA">
          <double_sided>1</double_sided>
        </technique>
      </extra>
    </geometry>
    <geometry id="polySurfaceShape113" name="polySurfaceShape113">
      <mesh>
        <source id="polySurfaceShape113-positions" name="position">
          <float_array id="polySurfaceShape113-positions-array" count="33">-0.554698 1.93522 -0.689495 -0.554698 2.56551 -0.689495 0.554698 1.93522 -0.689495 0.554698 2.56551 -0.689495 0.511503 2.83051 -0.689495 0.411164 3.09551 -0.689495 0.244587 3.27822 -0.689495 0 3.40589 -0.689495 -0.244587 3.27822 -0.689495 -0.411164 3.09551 -0.689495 -0.511503 2.83051 -0.689495</float_array>
          <technique_common>
            <accessor source="#polySurfaceShape113-positions-array" count="11" stride="3">
              <param name="X" type="float" />
              <param name="Y" type="float" />
              <param name="Z" type="float" />
            </accessor>
          </technique_common>
        </source>
        <source id="polySurfaceShape113-normals" name="normal">
          <float_array id="polySurfaceShape113-normals-array" count="33">0 0 1 0 0 1 0 0 1 0 0 1 0 0 1 0 0 1 0 0 1 0 0 1 0 0 1 0 0 1 0 0 1</float_array>
          <technique_common>
            <accessor source="#polySurfaceShape113-normals-array" count="11" stride="3">
              <param name="X" type="float" />
              <param name="Y" type="float" />
              <param name="Z" type="float" />
            </accessor>
          </technique_common>
        </source>
        <source id="polySurfaceShape113-map1" name="map1">
          <float_array id="polySurfaceShape113-map1-array" count="22">0.021615 0.211196 0.021615 0.006205 0.382436 0.006205 0.382436 0.211196 0.368387 0.297384 0.335753 0.383572 0.281575 0.442996 0.202026 0.484517 0.122476 0.442996 0.068298 0.383572 0.035663 0.297384</float_array>
          <technique_common>
            <accessor source="#polySurfaceShape113-map1-array" count="11" stride="2">
              <param name="S" type="float" />
              <param name="T" type="float" />
            </accessor>
          </technique_common>
        </source>
        <vertices id="polySurfaceShape113-vertices">
          <input semantic="POSITION" source="#polySurfaceShape113-positions" />
          <input semantic="NORMAL" source="#polySurfaceShape113-normals" />
        </vertices>
        <triangles material="lambert10SG" count="9">
          <input semantic="VERTEX" source="#polySurfaceShape113-vertices" offset="0" />
          <input semantic="TEXCOORD" source="#polySurfaceShape113-map1" offset="1" set="0" />
          <p>0 1 2 2 1 0 2 2 3 3 1 0 1 0 3 3 10 10 3 3 4 4 10 10 4 4 5 5 10 10 10 10 5 5 9 9 5 5 6 6 9 9 9 9 6 6 8 8 6 6 7 7 8 8</p>
        </triangles>
      </mesh>
      <extra>
        <technique profile="MAYA">
          <double_sided>1</double_sided>
        </technique>
      </extra>
    </geometry>
  </library_geometries>
  <library_visual_scenes>
    <visual_scene id="VisualSceneNode" name="default_window">
      <node id="polySurface105" name="polySurface105" type="NODE">
        <rotate sid="rotateZ">0 0 1 0</rotate>
        <rotate sid="rotateY">0 1 0 0</rotate>
        <rotate sid="rotateX">1 0 0 0</rotate>
        <instance_geometry url="#polySurfaceShape105">
          <bind_material>
            <technique_common>
              <instance_material symbol="lambert3SG" target="#lambert3">
                <bind_vertex_input semantic="TEX0" input_semantic="TEXCOORD" input_set="0" />
              </instance_material>
            </technique_common>
          </bind_material>
        </instance_geometry>
        <node id="polySurface102" name="polySurface102" type="NODE">
          <translate sid="rotatePivot">0 0 6</translate>
          <rotate sid="rotateZ">0 0 1 0</rotate>
          <rotate sid="rotateY">0 1 0 0</rotate>
          <rotate sid="rotateX">1 0 0 0</rotate>
          <translate sid="rotatePivotInverse">0 0 -6</translate>
          <translate sid="scalePivot">0 0 6</translate>
          <translate sid="scalePivotInverse">0 0 -6</translate>
          <instance_geometry url="#polySurfaceShape113">
            <bind_material>
              <technique_common>
                <instance_material symbol="lambert10SG" target="#lambert10">
                  <bind_vertex_input semantic="TEX0" input_semantic="TEXCOORD" input_set="0" />
                  <bind_vertex_input semantic="TEX1" input_semantic="TEXCOORD" input_set="0" />
                </instance_material>
              </technique_common>
            </bind_material>
          </instance_geometry>
        </node>
      </node>
      <extra>
        <technique profile="FCOLLADA">
          <start_time>0.041666</start_time>
          <end_time>2</end_time>
        </technique>
      </extra>
    </visual_scene>
  </library_visual_scenes>
  <scene>
    <instance_physics_scene url="#MayaNativePhysicsScene" />
    <instance_visual_scene url="#VisualSceneNode" />
  </scene>
</COLLADA>