<?xml version="1.0" encoding="utf-8"?>
<COLLADA xmlns="http://www.collada.org/2005/11/COLLADASchema" version="1.4.1">
  <asset>
    <contributor>
      <author></author>
      <authoring_tool>FBX COLLADA exporter</authoring_tool>
      <comments></comments>
    </contributor>
    <created>2012-07-31T08:45:01Z</created>
    <keywords></keywords>
    <modified>2012-07-31T08:45:01Z</modified>
    <revision></revision>
    <subject></subject>
    <title></title>
    <unit meter="1.000000" name="centimeter"></unit>
    <up_axis>Y_UP</up_axis>
  </asset>
  <library_images>
    <image id="Map #24-image" name="Map #24">
      <init_from>file://C:\Users\WesleyTack\Desktop\amnesia_raw\StaticObjects\factorybase\truck_cab.psd</init_from>
    </image>
  </library_images>
  <library_materials>
    <material id="truck_cab" name="truck_cab">
      <instance_effect url="#truck_cab-fx"/>
    </material>
  </library_materials>
  <library_effects>
    <effect id="truck_cab-fx" name="truck_cab">
      <profile_COMMON>
        <technique sid="standard">
          <phong>
            <emission>
              <color sid="emission">0.000000  0.000000 0.000000 1.000000</color>
            </emission>
            <ambient>
              <color sid="ambient">0.588235  0.588235 0.588235 1.000000</color>
            </ambient>
            <diffuse>
              <texture texture="Map #24-image" texcoord="CHANNEL0">
                <extra>
                  <technique profile="MAYA">
                    <wrapU sid="wrapU0">TRUE</wrapU>
                    <wrapV sid="wrapV0">TRUE</wrapV>
                    <blend_mode>ADD</blend_mode>
                  </technique>
                </extra>
              </texture>
            </diffuse>
            <specular>
              <color sid="specular">0.000000  0.000000 0.000000 1.000000</color>
            </specular>
            <shininess>
              <float sid="shininess">2.000000</float>
            </shininess>
            <reflective>
              <color sid="reflective">0.000000  0.000000 0.000000 1.000000</color>
            </reflective>
            <reflectivity>
              <float sid="reflectivity">1.000000</float>
            </reflectivity>
            <transparent opaque="RGB_ZERO">
              <color sid="transparent">1.000000  1.000000 1.000000 1.000000</color>
            </transparent>
            <transparency>
              <float sid="transparency">0.000000</float>
            </transparency>
          </phong>
        </technique>
      </profile_COMMON>
    </effect>
  </library_effects>
  <library_geometries>
    <geometry id="Object098-lib" name="Object098Mesh">
      <mesh>
        <source id="Object098-POSITION">
          <float_array id="Object098-POSITION-array" count="168">
-0.190939 0.072722 0.206640
-0.190939 0.064787 0.177027
-0.190939 0.043109 0.155349
-0.190939 0.013497 0.147415
-0.190939 -0.016116 0.155349
-0.190939 -0.037794 0.177027
-0.190939 -0.045728 0.206640
-0.190939 -0.037794 0.236252
-0.190939 -0.016116 0.257930
-0.190939 0.013497 0.265865
-0.190939 0.043109 0.257930
-0.190939 0.064787 0.236252
-0.233224 0.072722 0.206640
-0.233224 0.064787 0.177027
-0.233224 0.043109 0.155349
-0.233224 0.013497 0.147415
-0.233224 -0.016116 0.155350
-0.233224 -0.037794 0.177027
-0.233224 -0.045728 0.206640
-0.233224 -0.037794 0.236252
-0.233224 -0.016116 0.257930
-0.233224 0.013497 0.265865
-0.233224 0.043109 0.257930
-0.233224 0.064787 0.236252
-0.201500 -0.365626 0.000008
-0.201500 0.365625 0.000008
-0.201500 -0.365626 0.421852
-0.201500 0.365626 0.421852
0.233224 -0.365626 0.000008
0.233224 0.365626 0.000008
0.233224 -0.365626 0.421852
0.233224 0.365626 0.421852
0.001654 -0.045728 0.387213
0.031267 -0.037793 0.387213
0.052945 -0.016115 0.387213
0.060879 0.013497 0.387213
0.052945 0.043110 0.387213
0.031267 0.064788 0.387213
0.001654 0.072722 0.387213
-0.027958 0.064788 0.387213
-0.049636 0.043110 0.387213
-0.057571 0.013497 0.387213
-0.049636 -0.016115 0.387213
-0.027958 -0.037793 0.387213
0.001654 -0.045728 0.429498
0.031267 -0.037793 0.429498
0.052945 -0.016115 0.429498
0.060879 0.013497 0.429498
0.052944 0.043110 0.429498
0.031267 0.064788 0.429498
0.001654 0.072722 0.429498
-0.027958 0.064788 0.429498
-0.049636 0.043110 0.429498
-0.057571 0.013497 0.429498
-0.049636 -0.016115 0.429498
-0.027958 -0.037793 0.429498
</float_array>
          <technique_common>
            <accessor source="#Object098-POSITION-array" count="56" stride="3">
              <param name="X" type="float"/>
              <param name="Y" type="float"/>
              <param name="Z" type="float"/>
            </accessor>
          </technique_common>
        </source>
        <source id="Object098-Normal0">
          <float_array id="Object098-Normal0-array" count="720">
0.000000 1.000000 0.000000
0.000000 0.866026 -0.499999
0.000000 0.866026 -0.499999
0.000000 0.866026 -0.499999
0.000000 1.000000 -0.000000
0.000000 1.000000 0.000000
0.000000 0.866026 -0.499999
0.000000 0.499999 -0.866026
0.000000 0.499999 -0.866026
0.000000 0.499999 -0.866026
0.000000 0.866026 -0.499999
0.000000 0.866026 -0.499999
0.000000 0.499999 -0.866026
-0.000002 -0.000001 -1.000000
0.000000 -0.000004 -1.000000
0.000000 -0.000004 -1.000000
0.000000 0.499999 -0.866026
0.000000 0.499999 -0.866026
-0.000002 -0.000001 -1.000000
-0.000004 -0.499997 -0.866027
-0.000003 -0.499999 -0.866026
-0.000003 -0.499999 -0.866026
0.000000 -0.000004 -1.000000
-0.000002 -0.000001 -1.000000
-0.000004 -0.499997 -0.866027
0.000000 -0.866026 -0.499999
-0.000001 -0.866025 -0.500000
-0.000001 -0.866025 -0.500000
-0.000003 -0.499999 -0.866026
-0.000004 -0.499997 -0.866027
0.000000 -0.866026 -0.499999
0.000000 -1.000000 -0.000000
0.000000 -1.000000 0.000000
0.000000 -1.000000 0.000000
-0.000001 -0.866025 -0.500000
0.000000 -0.866026 -0.499999
0.000000 -1.000000 -0.000000
0.000000 -0.866026 0.499999
0.000000 -0.866026 0.499999
0.000000 -0.866026 0.499999
0.000000 -1.000000 0.000000
0.000000 -1.000000 -0.000000
0.000000 -0.866026 0.499999
0.000000 -0.499999 0.866026
0.000000 -0.499999 0.866026
0.000000 -0.499999 0.866026
0.000000 -0.866026 0.499999
0.000000 -0.866026 0.499999
0.000000 -0.499999 0.866026
0.000000 -0.000000 1.000000
0.000000 0.000000 1.000000
0.000000 0.000000 1.000000
0.000000 -0.499999 0.866026
0.000000 -0.499999 0.866026
0.000000 -0.000000 1.000000
0.000000 0.499999 0.866026
0.000000 0.499999 0.866026
0.000000 0.499999 0.866026
0.000000 0.000000 1.000000
0.000000 -0.000000 1.000000
0.000000 0.499999 0.866026
0.000000 0.866026 0.499999
0.000000 0.866026 0.499999
0.000000 0.866026 0.499999
0.000000 0.499999 0.866026
0.000000 0.499999 0.866026
0.000000 0.866026 0.499999
0.000000 1.000000 0.000000
0.000000 1.000000 -0.000000
0.000000 1.000000 -0.000000
0.000000 0.866026 0.499999
0.000000 0.866026 0.499999
-1.000000 0.000002 -0.000003
-1.000000 0.000002 -0.000003
-1.000000 0.000002 -0.000003
-1.000000 -0.000001 -0.000001
-1.000000 -0.000001 -0.000001
-1.000000 -0.000001 -0.000001
-1.000000 0.000000 0.000000
-1.000000 0.000000 0.000000
-1.000000 0.000000 0.000000
-1.000000 -0.000001 0.000000
-1.000000 -0.000001 0.000000
-1.000000 -0.000001 0.000000
-1.000000 0.000000 0.000000
-1.000000 0.000000 0.000000
-1.000000 0.000000 0.000000
-1.000000 0.000000 0.000000
-1.000000 0.000000 0.000000
-1.000000 0.000000 0.000000
-1.000000 0.000000 0.000000
-1.000000 0.000000 0.000000
-1.000000 0.000000 0.000000
-1.000000 0.000000 0.000000
-1.000000 0.000000 0.000000
-1.000000 0.000000 0.000000
-1.000000 -0.000000 0.000001
-1.000000 -0.000000 0.000001
-1.000000 -0.000000 0.000001
-1.000000 0.000002 0.000001
-1.000000 0.000002 0.000001
-1.000000 0.000002 0.000001
-1.000000 0.000000 0.000000
-1.000000 0.000000 0.000000
-1.000000 0.000000 0.000000
-1.000000 0.000000 0.000000
-1.000000 0.000000 0.000000
-1.000000 0.000000 0.000000
1.000000 0.000000 -0.000000
1.000000 0.000000 -0.000000
1.000000 0.000000 -0.000000
1.000000 0.000000 -0.000000
1.000000 0.000000 -0.000000
1.000000 0.000000 -0.000000
-0.000000 0.000000 -1.000000
-0.000000 0.000000 -1.000000
-0.000000 0.000000 -1.000000
-0.000000 0.000000 -1.000000
-0.000000 0.000000 -1.000000
-0.000000 0.000000 -1.000000
-0.000000 1.000000 -0.000001
-0.000000 1.000000 -0.000001
-0.000000 1.000000 -0.000001
-0.000001 1.000000 0.000000
-0.000001 1.000000 0.000000
-0.000001 1.000000 0.000000
0.000001 0.000000 1.000000
0.000001 0.000000 1.000000
0.000001 0.000000 1.000000
0.000001 0.000000 1.000000
0.000001 0.000000 1.000000
0.000001 0.000000 1.000000
0.000000 -1.000000 0.000000
0.000000 -1.000000 0.000000
0.000000 -1.000000 0.000000
0.000000 -1.000000 0.000000
0.000000 -1.000000 0.000000
0.000000 -1.000000 0.000000
-0.000000 -1.000000 0.000000
0.499999 -0.866026 0.000000
0.499999 -0.866026 0.000000
0.499999 -0.866026 0.000000
0.000000 -1.000000 0.000000
-0.000000 -1.000000 0.000000
0.499999 -0.866026 0.000000
0.866026 -0.499999 0.000000
0.866026 -0.499999 0.000000
0.866026 -0.499999 0.000000
0.499999 -0.866026 0.000000
0.499999 -0.866026 0.000000
0.866026 -0.499999 0.000000
1.000000 0.000001 0.000002
1.000000 0.000004 0.000000
1.000000 0.000004 0.000000
0.866026 -0.499999 0.000000
0.866026 -0.499999 0.000000
1.000000 0.000001 0.000002
0.866027 0.499997 0.000004
0.866026 0.499999 0.000003
0.866026 0.499999 0.000003
1.000000 0.000004 0.000000
1.000000 0.000001 0.000002
0.866027 0.499997 0.000004
0.499999 0.866026 0.000000
0.500000 0.866025 0.000001
0.500000 0.866025 0.000001
0.866026 0.499999 0.000003
0.866027 0.499997 0.000004
0.499999 0.866026 0.000000
0.000000 1.000000 0.000000
-0.000000 1.000000 0.000000
-0.000000 1.000000 0.000000
0.500000 0.866025 0.000001
0.499999 0.866026 0.000000
0.000000 1.000000 0.000000
-0.499999 0.866026 0.000000
-0.499999 0.866026 0.000000
-0.499999 0.866026 0.000000
-0.000000 1.000000 0.000000
0.000000 1.000000 0.000000
-0.499999 0.866026 0.000000
-0.866026 0.499999 0.000000
-0.866026 0.499999 0.000000
-0.866026 0.499999 0.000000
-0.499999 0.866026 0.000000
-0.499999 0.866026 0.000000
-0.866026 0.499999 0.000000
-1.000000 0.000000 0.000000
-1.000000 -0.000000 0.000000
-1.000000 -0.000000 0.000000
-0.866026 0.499999 0.000000
-0.866026 0.499999 0.000000
-1.000000 0.000000 0.000000
-0.866026 -0.499999 0.000000
-0.866026 -0.499999 0.000000
-0.866026 -0.499999 0.000000
-1.000000 -0.000000 0.000000
-1.000000 0.000000 0.000000
-0.866026 -0.499999 0.000000
-0.499999 -0.866026 0.000000
-0.499999 -0.866026 0.000000
-0.499999 -0.866026 0.000000
-0.866026 -0.499999 0.000000
-0.866026 -0.499999 0.000000
-0.499999 -0.866026 0.000000
-0.000000 -1.000000 0.000000
0.000000 -1.000000 0.000000
0.000000 -1.000000 0.000000
-0.499999 -0.866026 0.000000
-0.499999 -0.866026 0.000000
0.000000 0.000000 1.000000
0.000000 0.000000 1.000000
0.000000 0.000000 1.000000
0.000000 0.000000 1.000000
0.000000 0.000000 1.000000
0.000000 0.000000 1.000000
0.000000 0.000000 1.000000
0.000000 0.000000 1.000000
0.000000 0.000000 1.000000
0.000000 0.000000 1.000000
0.000000 0.000000 1.000000
0.000000 0.000000 1.000000
0.000000 0.000000 1.000000
0.000000 0.000000 1.000000
0.000000 0.000000 1.000000
0.000000 0.000000 1.000000
0.000000 0.000000 1.000000
0.000000 0.000000 1.000000
0.000000 0.000000 1.000000
0.000000 0.000000 1.000000
0.000000 0.000000 1.000000
0.000000 0.000000 1.000000
0.000000 0.000000 1.000000
0.000000 0.000000 1.000000
0.000000 0.000000 1.000000
0.000000 0.000000 1.000000
0.000000 0.000000 1.000000
0.000000 0.000000 1.000000
0.000000 0.000000 1.000000
0.000000 0.000000 1.000000
</float_array>
          <technique_common>
            <accessor source="#Object098-Normal0-array" count="240" stride="3">
              <param name="X" type="float"/>
              <param name="Y" type="float"/>
              <param name="Z" type="float"/>
            </accessor>
          </technique_common>
        </source>
        <source id="Object098-UV0">
          <float_array id="Object098-UV0-array" count="200">
0.267574 0.667426
0.267574 0.650443
0.267574 0.823606
0.267574 0.806623
0.291825 0.806623
0.291825 0.823606
0.267574 0.777207
0.267574 0.760224
0.267574 0.730808
0.267574 0.713825
0.291825 0.713825
0.291825 0.650443
0.291825 0.667426
0.267574 0.638010
0.267574 0.789640
0.291825 0.789640
0.291825 0.777207
0.291825 0.760224
0.291825 0.730808
0.267574 0.696842
0.291825 0.696842
0.291825 0.638010
0.510498 0.434964
0.511486 0.431383
0.514131 0.428776
0.517726 0.427840
0.521306 0.428827
0.523914 0.431472
0.524850 0.435067
0.523863 0.438648
0.521218 0.441256
0.517623 0.442191
0.514042 0.441204
0.511434 0.438559
0.267574 0.684409
0.291825 0.684409
0.267574 0.743241
0.291825 0.743241
0.818980 0.593744
0.922510 0.593744
0.922510 0.773210
0.818980 0.773210
0.139096 0.242008
0.019046 0.242008
0.019046 0.171970
0.139096 0.171970
0.868527 0.971983
0.868527 0.770446
0.988339 0.770446
0.988339 0.971983
0.868527 0.935609
0.868527 0.819347
0.988339 0.819347
0.988339 0.935609
0.868527 0.971983
0.868527 0.770446
0.988339 0.770446
0.988339 0.971983
0.868527 0.935609
0.868527 0.819347
0.988339 0.819346
0.988339 0.935609
0.818068 0.876988
0.818068 0.867576
0.818068 0.860686
0.818068 0.851273
0.831508 0.851273
0.831508 0.860686
0.818068 0.834971
0.818068 0.825559
0.818068 0.809256
0.818068 0.799844
0.831508 0.799844
0.831508 0.867576
0.831508 0.876988
0.818068 0.841861
0.831508 0.841861
0.831508 0.834971
0.831508 0.825559
0.831508 0.809256
0.818068 0.893290
0.831508 0.893290
0.517961 0.452334
0.521542 0.453321
0.524149 0.455966
0.525085 0.459561
0.524098 0.463142
0.521453 0.465750
0.517858 0.466685
0.514277 0.465698
0.511670 0.463053
0.510734 0.459458
0.511721 0.455877
0.514366 0.453270
0.818068 0.886400
0.831508 0.886400
0.818068 0.816147
0.831508 0.816147
0.818068 0.902702
0.831508 0.902702
</float_array>
          <technique_common>
            <accessor source="#Object098-UV0-array" count="100" stride="2">
              <param name="S" type="float"/>
              <param name="T" type="float"/>
            </accessor>
          </technique_common>
        </source>
        <vertices id="Object098-VERTEX">
          <input semantic="POSITION" source="#Object098-POSITION"/>
        </vertices>
        <triangles count="80" material="truck_cab">
          <input semantic="VERTEX" offset="0" source="#Object098-VERTEX"/>
          <input semantic="NORMAL" offset="1" source="#Object098-Normal0"/>
          <input semantic="TEXCOORD" offset="2" set="0" source="#Object098-UV0"/>
          <p> 0 0 0 1 1 1 13 2 11 13 3 11 12 4 12 0 5 0 1 6 1 2 7 13 14 8 21 14 9 21 13 10 11 1 11 1 2 12 2 3 13 3 15 14 4 15 15 4 14 16 5 2 17 2 3 18 3 4 19 14 16 20 15 16 21 15 15 22 4 3 23 3 4 24 14 5 25 6 17 26 16 17 27 16 16 28 15 4 29 14 5 30 6 6 31 7 18 32 17 18 33 17 17 34 16 5 35 6 6 36 7 7 37 36 19 38 37 19 39 37 18 40 17 6 41 7 7 42 36 8 43 8 20 44 18 20 45 18 19 46 37 7 47 36 8 48 8 9 49 9 21 50 10 21 51 10 20 52 18 8 53 8 9 54 9 10 55 19 22 56 20 22 57 20 21 58 10 9 59 9 10 60 19 11 61 34 23 62 35 23 63 35 22 64 20 10 65 19 11 66 34 0 67 0 12 68 12 12 69 12 23 70 35 11 71 34 13 72 23 14 73 24 15 74 25 15 75 25 16 76 26 17 77 27 17 78 27 18 79 28 19 80 29 15 81 25 17 82 27 19 83 29 19 84 29 20 85 30 21 86 31 21 87 31 22 88 32 23 89 33 19 90 29 21 91 31 23 92 33 15 93 25 19 94 29 23 95 33 13 96 23 15 97 25 23 98 33 12 99 22 13 100 23 23 101 33 24 102 38 26 103 39 27 104 40 27 105 40 25 106 41 24 107 38 28 108 42 29 109 43 31 110 44 31 111 44 30 112 45 28 113 42 24 114 46 25 115 47 29 116 48 29 117 48 28 118 49 24 119 46 25 120 50 27 121 51 31 122 52 31 123 52 29 124 53 25 125 50 27 126 54 26 127 55 30 128 56 30 129 56 31 130 57 27 131 54 26 132 58 24 133 59 28 134 60 28 135 60 30 136 61 26 137 58 32 138 62 33 139 63 45 140 73 45 141 73 44 142 74 32 143 62 33 144 63 34 145 64 46 146 67 46 147 67 45 148 73 33 149 63 34 150 64 35 151 65 47 152 66 47 153 66 46 154 67 34 155 64 35 156 65 36 157 75 48 158 76 48 159 76 47 160 66 35 161 65 36 162 75 37 163 68 49 164 77 49 165 77 48 166 76 36 167 75 37 168 68 38 169 69 50 170 78 50 171 78 49 172 77 37 173 68 38 174 69 39 175 96 51 176 97 51 177 97 50 178 78 38 179 69 39 180 96 40 181 70 52 182 79 52 183 79 51 184 97 39 185 96 40 186 70 41 187 71 53 188 72 53 189 72 52 190 79 40 191 70 41 192 98 42 193 80 54 194 81 54 195 81 53 196 99 41 197 98 42 198 80 43 199 94 55 200 95 55 201 95 54 202 81 42 203 80 43 204 94 32 205 62 44 206 74 44 207 74 55 208 95 43 209 94 45 210 83 46 211 84 47 212 85 47 213 85 48 214 86 49 215 87 49 216 87 50 217 88 51 218 89 47 219 85 49 220 87 51 221 89 51 222 89 52 223 90 53 224 91 53 225 91 54 226 92 55 227 93 51 228 89 53 229 91 55 230 93 47 231 85 51 232 89 55 233 93 45 234 83 47 235 85 55 236 93 44 237 82 45 238 83 55 239 93</p>
        </triangles>
      </mesh>
    </geometry>
  </library_geometries>
  <library_lights>
    <light id="SceneAmbient" name="SceneAmbient">
      <technique_common>
        <ambient>
          <color>0.007843 0.007843 0.007843</color>
        </ambient>
      </technique_common>
    </light>
  </library_lights>
  <library_visual_scenes>
    <visual_scene id="" name="">
      <node name="Object098" id="Object098" layer="fuel_canister" sid="Object098">
        <matrix sid="matrix">-1.000000 -0.000000 0.000000 0.000000 0.000000 -0.000000 1.000000 0.000000 -0.000000 1.000000 0.000000 0.000000 0.000000 0.000000 0.000000 1.000000</matrix>
        <instance_geometry url="#Object098-lib">
          <bind_material>
            <technique_common>
              <instance_material symbol="truck_cab" target="#truck_cab"/>
            </technique_common>
          </bind_material>
        </instance_geometry>
        <extra>
          <technique profile="FCOLLADA">
            <visibility>1.000000</visibility>
          </technique>
        </extra>
      </node>
      <extra>
        <technique profile="MAX3D">
          <frame_rate>30.000000</frame_rate>
        </technique>
        <technique profile="FCOLLADA">
          <start_time>0.000000</start_time>
          <end_time>0.066667</end_time>
        </technique>
      </extra>
      <node>
        <instance_light url="#SceneAmbient"></instance_light>
      </node>
    </visual_scene>
  </library_visual_scenes>
  <scene>
    <instance_visual_scene url="#"></instance_visual_scene>
  </scene>
</COLLADA>

