<?xml version="1.0" encoding="utf-8"?>
<COLLADA xmlns="http://www.collada.org/2005/11/COLLADASchema" version="1.4.1">
  <asset>
    <contributor>
      <author></author>
      <authoring_tool>FBX COLLADA exporter</authoring_tool>
      <comments></comments>
    </contributor>
    <created>2012-08-28T22:08:59Z</created>
    <keywords></keywords>
    <modified>2012-08-28T22:08:59Z</modified>
    <revision></revision>
    <subject></subject>
    <title></title>
    <unit meter="1.000000" name="centimeter"></unit>
    <up_axis>Y_UP</up_axis>
  </asset>
  <library_images>
    <image id="Map #9-image" name="Map #9">
      <init_from>file://C:\Users\WesleyTack\Desktop\amnesia_raw\StaticObjects\factorybase\rainpipes01.psd</init_from>
    </image>
    <image id="Map #32-image" name="Map #32">
      <init_from>file://C:\Users\WesleyTack\Desktop\amnesia_raw\StaticObjects\factorybase\rainpipes.psd</init_from>
    </image>
    <image id="Map #33-image" name="Map #33">
      <init_from>file://C:\Users\WesleyTack\Desktop\amnesia_raw\StaticObjects\factorybase\conveyorbelt_blood.jpg</init_from>
    </image>
  </library_images>
  <library_materials>
    <material id="rainpipes01" name="rainpipes01">
      <instance_effect url="#rainpipes01-fx"/>
    </material>
    <material id="_09 - Default" name="_09 - Default">
      <instance_effect url="#_09 - Default-fx"/>
    </material>
    <material id="_10 - Default" name="_10 - Default">
      <instance_effect url="#_10 - Default-fx"/>
    </material>
  </library_materials>
  <library_effects>
    <effect id="rainpipes01-fx" name="rainpipes01">
      <profile_COMMON>
        <technique sid="standard">
          <phong>
            <emission>
              <color sid="emission">0.000000  0.000000 0.000000 1.000000</color>
            </emission>
            <ambient>
              <color sid="ambient">0.588235  0.588235 0.588235 1.000000</color>
            </ambient>
            <diffuse>
              <texture texture="Map #9-image" texcoord="CHANNEL0">
                <extra>
                  <technique profile="MAYA">
                    <wrapU sid="wrapU0">TRUE</wrapU>
                    <wrapV sid="wrapV0">TRUE</wrapV>
                    <blend_mode>ADD</blend_mode>
                  </technique>
                </extra>
              </texture>
            </diffuse>
            <specular>
              <color sid="specular">0.000000  0.000000 0.000000 1.000000</color>
            </specular>
            <shininess>
              <float sid="shininess">2.000000</float>
            </shininess>
            <reflective>
              <color sid="reflective">0.000000  0.000000 0.000000 1.000000</color>
            </reflective>
            <reflectivity>
              <float sid="reflectivity">1.000000</float>
            </reflectivity>
            <transparent opaque="RGB_ZERO">
              <color sid="transparent">1.000000  1.000000 1.000000 1.000000</color>
            </transparent>
            <transparency>
              <float sid="transparency">0.000000</float>
            </transparency>
          </phong>
        </technique>
      </profile_COMMON>
    </effect>
    <effect id="_09 - Default-fx" name="_09 - Default">
      <profile_COMMON>
        <technique sid="standard">
          <phong>
            <emission>
              <color sid="emission">0.000000  0.000000 0.000000 1.000000</color>
            </emission>
            <ambient>
              <color sid="ambient">0.588235  0.588235 0.588235 1.000000</color>
            </ambient>
            <diffuse>
              <texture texture="Map #32-image" texcoord="CHANNEL0">
                <extra>
                  <technique profile="MAYA">
                    <wrapU sid="wrapU0">TRUE</wrapU>
                    <wrapV sid="wrapV0">TRUE</wrapV>
                    <blend_mode>ADD</blend_mode>
                  </technique>
                </extra>
              </texture>
            </diffuse>
            <specular>
              <color sid="specular">0.000000  0.000000 0.000000 1.000000</color>
            </specular>
            <shininess>
              <float sid="shininess">2.000000</float>
            </shininess>
            <reflective>
              <color sid="reflective">0.000000  0.000000 0.000000 1.000000</color>
            </reflective>
            <reflectivity>
              <float sid="reflectivity">1.000000</float>
            </reflectivity>
            <transparent opaque="RGB_ZERO">
              <color sid="transparent">1.000000  1.000000 1.000000 1.000000</color>
            </transparent>
            <transparency>
              <float sid="transparency">0.000000</float>
            </transparency>
          </phong>
        </technique>
      </profile_COMMON>
    </effect>
    <effect id="_10 - Default-fx" name="_10 - Default">
      <profile_COMMON>
        <technique sid="standard">
          <phong>
            <emission>
              <color sid="emission">0.000000  0.000000 0.000000 1.000000</color>
            </emission>
            <ambient>
              <color sid="ambient">0.588235  0.588235 0.588235 1.000000</color>
            </ambient>
            <diffuse>
              <texture texture="Map #33-image" texcoord="CHANNEL0">
                <extra>
                  <technique profile="MAYA">
                    <wrapU sid="wrapU0">TRUE</wrapU>
                    <wrapV sid="wrapV0">TRUE</wrapV>
                    <blend_mode>ADD</blend_mode>
                  </technique>
                </extra>
              </texture>
            </diffuse>
            <specular>
              <color sid="specular">0.000000  0.000000 0.000000 1.000000</color>
            </specular>
            <shininess>
              <float sid="shininess">2.000000</float>
            </shininess>
            <reflective>
              <color sid="reflective">0.000000  0.000000 0.000000 1.000000</color>
            </reflective>
            <reflectivity>
              <float sid="reflectivity">1.000000</float>
            </reflectivity>
            <transparent opaque="RGB_ZERO">
              <color sid="transparent">1.000000  1.000000 1.000000 1.000000</color>
            </transparent>
            <transparency>
              <float sid="transparency">0.000000</float>
            </transparency>
          </phong>
        </technique>
      </profile_COMMON>
    </effect>
  </library_effects>
  <library_geometries>
    <geometry id="Object061-lib" name="Object061Mesh">
      <mesh>
        <source id="Object061-POSITION">
          <float_array id="Object061-POSITION-array" count="144">
1.170603 1.083302 0.839343
1.202562 1.083301 0.720068
1.289878 1.083301 0.632752
1.409153 1.083301 0.600792
1.528428 1.083301 0.632752
1.615743 1.083301 0.720067
1.647703 1.083301 0.839343
1.615744 1.083301 0.958618
1.528428 1.083301 1.045933
1.409153 1.083301 1.077893
1.289878 1.083302 1.045933
1.202563 1.083301 0.958618
1.170603 -1.081917 0.839343
1.202562 -1.081917 0.720067
1.289877 -1.081917 0.632752
1.409152 -1.081918 0.600792
1.528427 -1.081918 0.632753
1.615742 -1.081918 0.720068
1.647703 -1.081916 0.839342
1.615743 -1.081916 0.958617
1.528428 -1.081915 1.045933
1.409153 -1.081917 1.077892
1.289877 -1.081915 1.045933
1.202562 -1.081916 0.958618
1.538100 1.129197 0.841251
1.474794 1.129197 0.731601
1.348180 1.129197 0.731601
1.284873 1.129197 0.841251
1.348180 1.129197 0.950902
1.474794 1.129197 0.950902
1.538100 1.235918 0.841251
1.474794 1.235918 0.731601
1.348180 1.235918 0.731601
1.284873 1.235918 0.841251
1.348180 1.235918 0.950902
1.474794 1.235918 0.950902
1.533786 -1.233820 0.808482
1.444256 -1.233820 0.718953
1.321957 -1.233820 0.751723
1.289187 -1.233820 0.874022
1.378717 -1.233820 0.963551
1.501016 -1.233820 0.930782
1.533786 -1.127099 0.808482
1.444256 -1.127099 0.718953
1.321957 -1.127099 0.751723
1.289187 -1.127099 0.874022
1.378717 -1.127099 0.963551
1.501016 -1.127099 0.930782
</float_array>
          <technique_common>
            <accessor source="#Object061-POSITION-array" count="48" stride="3">
              <param name="X" type="float"/>
              <param name="Y" type="float"/>
              <param name="Z" type="float"/>
            </accessor>
          </technique_common>
        </source>
        <source id="Object061-Normal0">
          <float_array id="Object061-Normal0-array" count="756">
-1.000000 0.000000 0.000002
-0.866026 0.000000 -0.499998
-0.866027 0.000000 -0.499998
-0.866027 0.000000 -0.499998
-1.000000 0.000000 -0.000000
-1.000000 0.000000 0.000002
-0.866026 0.000000 -0.499998
-0.500000 0.000000 -0.866025
-0.500001 0.000000 -0.866025
-0.500001 0.000000 -0.866025
-0.866027 0.000000 -0.499998
-0.866026 0.000000 -0.499998
-0.500000 0.000000 -0.866025
0.000000 -0.000000 -1.000000
0.000003 -0.000000 -1.000000
0.000003 -0.000000 -1.000000
-0.500001 0.000000 -0.866025
-0.500000 0.000000 -0.866025
0.000000 -0.000000 -1.000000
0.500000 -0.000000 -0.866025
0.500002 -0.000000 -0.866024
0.500002 -0.000000 -0.866024
0.000003 -0.000000 -1.000000
0.000000 -0.000000 -1.000000
0.500000 -0.000000 -0.866025
0.866026 -0.000000 -0.499999
0.866023 -0.000001 -0.500004
0.866023 -0.000001 -0.500004
0.500002 -0.000000 -0.866024
0.500000 -0.000000 -0.866025
0.866026 -0.000000 -0.499999
1.000000 -0.000000 -0.000000
1.000000 -0.000000 -0.000003
1.000000 -0.000000 -0.000003
0.866023 -0.000001 -0.500004
0.866026 -0.000000 -0.499999
1.000000 -0.000000 -0.000000
0.866025 -0.000000 0.500000
0.866026 -0.000000 0.499999
0.866026 -0.000000 0.499999
1.000000 -0.000000 -0.000003
1.000000 -0.000000 -0.000000
0.866025 -0.000000 0.500000
0.500000 -0.000000 0.866025
0.499998 -0.000000 0.866027
0.499998 -0.000000 0.866027
0.866026 -0.000000 0.499999
0.866025 -0.000000 0.500000
0.500000 -0.000000 0.866025
-0.000000 -0.000000 1.000000
0.000001 -0.000000 1.000000
0.000001 -0.000000 1.000000
0.499998 -0.000000 0.866027
0.500000 -0.000000 0.866025
-0.000000 -0.000000 1.000000
-0.500001 0.000000 0.866025
-0.499997 0.000000 0.866027
-0.499997 0.000000 0.866027
0.000001 -0.000000 1.000000
-0.000000 -0.000000 1.000000
-0.500001 0.000000 0.866025
-0.866025 0.000000 0.500001
-0.866026 0.000000 0.499999
-0.866026 0.000000 0.499999
-0.499997 0.000000 0.866027
-0.500001 0.000000 0.866025
-0.866025 0.000000 0.500001
-1.000000 0.000000 0.000002
-1.000000 0.000000 -0.000000
-1.000000 0.000000 -0.000000
-0.866026 0.000000 0.499999
-0.866025 0.000000 0.500001
0.000000 1.000000 0.000002
0.000001 1.000000 0.000019
0.000001 1.000000 0.000002
0.000001 1.000000 0.000002
0.000006 1.000000 0.000004
0.000001 1.000000 -0.000001
0.000001 1.000000 -0.000001
0.000016 1.000000 -0.000010
0.000002 1.000000 -0.000003
0.000001 1.000000 0.000002
0.000001 1.000000 -0.000001
0.000002 1.000000 -0.000003
0.000002 1.000000 -0.000003
0.000001 1.000000 -0.000011
-0.000000 1.000000 -0.000002
-0.000000 1.000000 -0.000002
-0.000009 1.000000 -0.000006
-0.000001 1.000000 -0.000001
0.000002 1.000000 -0.000003
-0.000000 1.000000 -0.000002
-0.000001 1.000000 -0.000001
0.000001 1.000000 0.000002
0.000002 1.000000 -0.000003
-0.000001 1.000000 -0.000001
0.000000 1.000000 0.000002
0.000001 1.000000 0.000002
-0.000001 1.000000 -0.000001
-0.000006 1.000000 0.000004
0.000000 1.000000 0.000002
-0.000001 1.000000 -0.000001
0.000000 -1.000000 0.000003
-0.000011 -1.000000 -0.000011
-0.000003 -1.000000 0.000003
-0.000003 -1.000000 0.000003
0.000000 -1.000000 0.000000
0.000000 -1.000000 0.000005
0.000000 -1.000000 0.000005
0.000030 -1.000000 0.000006
0.000003 -1.000000 0.000005
-0.000003 -1.000000 0.000003
0.000000 -1.000000 0.000005
0.000003 -1.000000 0.000005
0.000003 -1.000000 0.000005
0.000017 -1.000000 0.000025
-0.000001 -1.000000 0.000000
-0.000001 -1.000000 0.000000
-0.000018 -1.000000 0.000024
-0.000000 -1.000000 0.000004
0.000003 -1.000000 0.000005
-0.000001 -1.000000 0.000000
-0.000000 -1.000000 0.000004
-0.000003 -1.000000 0.000003
0.000003 -1.000000 0.000005
-0.000000 -1.000000 0.000004
0.000000 -1.000000 0.000003
-0.000003 -1.000000 0.000003
-0.000000 -1.000000 0.000004
0.000030 -1.000000 0.000004
0.000000 -1.000000 0.000003
-0.000000 -1.000000 0.000004
0.866026 0.000000 -0.500000
0.866026 0.000000 -0.500000
0.866026 0.000000 -0.500000
0.866026 0.000000 -0.500000
0.866026 0.000000 -0.500000
0.866026 0.000000 -0.500000
0.000000 0.000000 -1.000000
0.000000 0.000000 -1.000000
0.000000 0.000000 -1.000000
0.000000 0.000000 -1.000000
0.000000 0.000000 -1.000000
0.000000 0.000000 -1.000000
-0.866027 0.000000 -0.499997
-0.866027 0.000000 -0.499997
-0.866027 0.000000 -0.499997
-0.866026 0.000004 -0.500000
-0.866026 0.000004 -0.500000
-0.866026 0.000004 -0.500000
-0.866027 0.000004 0.499997
-0.866027 0.000004 0.499997
-0.866027 0.000004 0.499997
-0.866026 0.000000 0.500000
-0.866026 0.000000 0.500000
-0.866026 0.000000 0.500000
0.000000 0.000000 1.000000
0.000000 0.000000 1.000000
0.000000 0.000000 1.000000
0.000000 0.000000 1.000000
0.000000 0.000000 1.000000
0.000000 0.000000 1.000000
0.866026 0.000000 0.500000
0.866026 0.000000 0.500000
0.866026 0.000000 0.500000
0.866026 0.000000 0.500000
0.866026 0.000000 0.500000
0.866026 0.000000 0.500000
0.000000 -1.000000 0.000000
0.000000 -1.000000 0.000000
0.000000 -1.000000 0.000000
0.000000 -1.000000 0.000000
0.000000 -1.000000 0.000000
0.000000 -1.000000 0.000000
0.000000 -1.000000 0.000000
0.000000 -1.000000 0.000000
0.000000 -1.000000 0.000000
0.000000 -1.000000 0.000000
0.000000 -1.000000 0.000000
0.000000 -1.000000 0.000000
0.000000 1.000000 0.000000
0.000000 1.000000 0.000000
0.000000 1.000000 0.000000
0.000000 1.000000 0.000000
0.000000 1.000000 0.000000
0.000000 1.000000 0.000000
0.000000 1.000000 0.000000
0.000000 1.000000 0.000000
0.000000 1.000000 0.000000
0.000000 1.000000 0.000000
0.000000 1.000000 0.000000
0.000000 1.000000 0.000000
0.707105 0.000000 -0.707109
0.707105 0.000000 -0.707109
0.707105 0.000000 -0.707109
0.707105 0.000000 -0.707109
0.707105 0.000000 -0.707109
0.707105 0.000000 -0.707109
-0.258819 -0.000001 -0.965926
-0.258819 -0.000001 -0.965926
-0.258819 -0.000001 -0.965926
-0.258818 0.000000 -0.965926
-0.258818 0.000000 -0.965926
-0.258818 0.000000 -0.965926
-0.965926 0.000000 -0.258817
-0.965926 0.000000 -0.258817
-0.965926 0.000000 -0.258817
-0.965927 -0.000000 -0.258816
-0.965927 -0.000000 -0.258816
-0.965927 -0.000000 -0.258816
-0.707106 0.000000 0.707107
-0.707106 0.000000 0.707107
-0.707106 0.000000 0.707107
-0.707106 0.000000 0.707107
-0.707106 0.000000 0.707107
-0.707106 0.000000 0.707107
0.258818 -0.000000 0.965926
0.258818 -0.000000 0.965926
0.258818 -0.000000 0.965926
0.258818 0.000000 0.965926
0.258818 0.000000 0.965926
0.258818 0.000000 0.965926
0.965926 0.000000 0.258820
0.965926 0.000000 0.258820
0.965926 0.000000 0.258820
0.965926 -0.000001 0.258819
0.965926 -0.000001 0.258819
0.965926 -0.000001 0.258819
0.000000 -1.000000 0.000000
0.000000 -1.000000 0.000000
0.000000 -1.000000 0.000000
0.000000 -1.000000 0.000000
0.000000 -1.000000 0.000000
0.000000 -1.000000 0.000000
0.000000 -1.000000 0.000000
0.000000 -1.000000 0.000000
0.000000 -1.000000 0.000000
0.000000 -1.000000 0.000000
0.000000 -1.000000 0.000000
0.000000 -1.000000 0.000000
0.000000 1.000000 0.000000
0.000000 1.000000 0.000000
0.000000 1.000000 0.000000
0.000000 1.000000 0.000000
0.000000 1.000000 0.000000
0.000000 1.000000 0.000000
0.000000 1.000000 0.000000
0.000000 1.000000 0.000000
0.000000 1.000000 0.000000
0.000000 1.000000 0.000000
0.000000 1.000000 0.000000
0.000000 1.000000 0.000000
</float_array>
          <technique_common>
            <accessor source="#Object061-Normal0-array" count="252" stride="3">
              <param name="X" type="float"/>
              <param name="Y" type="float"/>
              <param name="Z" type="float"/>
            </accessor>
          </technique_common>
        </source>
        <source id="Object061-UV0">
          <float_array id="Object061-UV0-array" count="246">
0.421217 0.653320
0.484477 0.653320
0.484476 0.295251
0.421217 0.295251
0.547735 0.653319
0.547735 0.295251
0.610994 0.653319
0.610993 0.295251
0.674253 0.653319
0.674253 0.295251
0.737511 0.653319
0.737512 0.295251
0.800770 0.653320
0.690126 0.934186
0.104923 0.653320
0.104923 0.295251
0.168182 0.653320
0.168182 0.295251
0.231441 0.653319
0.231441 0.295251
0.294700 0.653320
0.294700 0.295251
0.357959 0.653320
0.357958 0.295251
0.660713 0.938060
0.624096 0.938005
0.590085 0.934036
0.567793 0.927217
0.563195 0.919375
0.577521 0.912610
0.606934 0.908736
0.643551 0.908791
0.677562 0.912760
0.699853 0.919579
0.704452 0.927422
0.573423 0.923654
0.587749 0.916889
0.617162 0.913015
0.653779 0.913070
0.687790 0.917039
0.710081 0.923858
0.714680 0.931701
0.700354 0.938466
0.670941 0.942339
0.634324 0.942284
0.600313 0.938316
0.578021 0.931496
0.800770 0.295251
0.864029 0.653320
0.864030 0.295251
0.800770 0.295251
0.530487 0.407190
0.530487 0.407190
0.530487 0.407190
0.774094 0.407190
0.530487 0.407190
0.774094 0.407190
0.774094 0.407190
0.774094 0.407190
0.774094 0.458238
0.530487 0.458238
0.774094 0.458238
0.530487 0.458238
0.774094 0.458238
0.530487 0.458238
0.624176 0.698997
0.624176 0.671866
0.721038 0.658301
0.817901 0.671866
0.817901 0.698997
0.721038 0.712563
0.721038 0.712786
0.624176 0.699221
0.624176 0.672089
0.721038 0.658524
0.817901 0.672089
0.817901 0.699221
0.774094 0.458238
0.530487 0.458238
0.530487 0.407190
0.530487 0.458238
0.774094 0.407190
0.774094 0.458238
0.774094 0.407190
0.530487 0.407190
0.530487 0.458238
0.774094 0.458238
0.530487 0.407190
0.530487 0.407190
0.530487 0.407190
0.774094 0.407190
0.530487 0.407190
0.774094 0.407190
0.774094 0.407190
0.774094 0.407190
0.774094 0.458238
0.530487 0.458238
0.774094 0.458238
0.530487 0.458238
0.774094 0.458238
0.530487 0.458238
0.624176 0.698997
0.624176 0.671866
0.721038 0.658301
0.817901 0.671866
0.817901 0.698997
0.721038 0.712563
0.721038 0.712786
0.624176 0.699221
0.624176 0.672089
0.721038 0.658524
0.817901 0.672089
0.817901 0.699221
0.774094 0.458238
0.530487 0.458238
0.530487 0.407190
0.530487 0.458238
0.774094 0.407190
0.774094 0.458238
0.774094 0.407190
0.530487 0.407190
0.530487 0.458238
0.774094 0.458238
</float_array>
          <technique_common>
            <accessor source="#Object061-UV0-array" count="123" stride="2">
              <param name="S" type="float"/>
              <param name="T" type="float"/>
            </accessor>
          </technique_common>
        </source>
        <vertices id="Object061-VERTEX">
          <input semantic="POSITION" source="#Object061-POSITION"/>
        </vertices>
        <triangles count="84" material="rainpipes01">
          <input semantic="VERTEX" offset="0" source="#Object061-VERTEX"/>
          <input semantic="NORMAL" offset="1" source="#Object061-Normal0"/>
          <input semantic="TEXCOORD" offset="2" set="0" source="#Object061-UV0"/>
          <p> 0 0 0 1 1 1 13 2 2 13 3 2 12 4 3 0 5 0 1 6 1 2 7 4 14 8 5 14 9 5 13 10 2 1 11 1 2 12 4 3 13 6 15 14 7 15 15 7 14 16 5 2 17 4 3 18 6 4 19 8 16 20 9 16 21 9 15 22 7 3 23 6 4 24 8 5 25 10 17 26 11 17 27 11 16 28 9 4 29 8 5 30 10 6 31 12 18 32 47 18 33 47 17 34 11 5 35 10 6 36 12 7 37 48 19 38 49 19 39 49 18 40 50 6 41 12 7 42 14 8 43 16 20 44 17 20 45 17 19 46 15 7 47 14 8 48 16 9 49 18 21 50 19 21 51 19 20 52 17 8 53 16 9 54 18 10 55 20 22 56 21 22 57 21 21 58 19 9 59 18 10 60 20 11 61 22 23 62 23 23 63 23 22 64 21 10 65 20 11 66 22 0 67 0 12 68 3 12 69 3 23 70 23 11 71 22 10 72 24 9 73 25 8 74 26 8 75 26 7 76 27 6 77 28 6 78 28 5 79 29 4 80 30 8 81 26 6 82 28 4 83 30 4 84 30 3 85 31 2 86 32 2 87 32 1 88 33 0 89 34 4 90 30 2 91 32 0 92 34 8 93 26 4 94 30 0 95 34 10 96 24 8 97 26 0 98 34 11 99 13 10 100 24 0 101 34 13 102 36 14 103 37 15 104 38 15 105 38 16 106 39 17 107 40 17 108 40 18 109 41 19 110 42 15 111 38 17 112 40 19 113 42 19 114 42 20 115 43 21 116 44 21 117 44 22 118 45 23 119 46 19 120 42 21 121 44 23 122 46 15 123 38 19 124 42 23 125 46 13 126 36 15 127 38 23 128 46 12 129 35 13 130 36 23 131 46 24 132 51 25 133 57 31 134 77 31 135 77 30 136 78 24 137 51 25 138 52 26 139 58 32 140 63 32 141 63 31 142 64 25 143 52 26 144 53 27 145 54 33 146 59 33 147 59 32 148 60 26 149 53 27 150 84 28 151 81 34 152 82 34 153 82 33 154 85 27 155 84 28 156 55 29 157 56 35 158 61 35 159 61 34 160 62 28 161 55 29 162 79 24 163 83 30 164 86 30 165 86 35 166 80 29 167 79 28 168 66 27 169 67 26 170 68 26 171 68 25 172 69 24 173 70 28 174 66 26 175 68 24 176 70 29 177 65 28 178 66 24 179 70 31 180 72 32 181 73 33 182 74 33 183 74 34 184 75 35 185 76 31 186 72 33 187 74 35 188 76 30 189 71 31 190 72 35 191 76 36 192 87 37 193 93 43 194 113 43 195 113 42 196 114 36 197 87 37 198 88 38 199 94 44 200 99 44 201 99 43 202 100 37 203 88 38 204 89 39 205 90 45 206 95 45 207 95 44 208 96 38 209 89 39 210 120 40 211 117 46 212 118 46 213 118 45 214 121 39 215 120 40 216 91 41 217 92 47 218 97 47 219 97 46 220 98 40 221 91 41 222 115 36 223 119 42 224 122 42 225 122 47 226 116 41 227 115 40 228 102 39 229 103 38 230 104 38 231 104 37 232 105 36 233 106 40 234 102 38 235 104 36 236 106 41 237 101 40 238 102 36 239 106 43 240 108 44 241 109 45 242 110 45 243 110 46 244 111 47 245 112 43 246 108 45 247 110 47 248 112 42 249 107 43 250 108 47 251 112</p>
        </triangles>
      </mesh>
    </geometry>
    <geometry id="Box025-lib" name="Box025Mesh">
      <mesh>
        <source id="Box025-POSITION">
          <float_array id="Box025-POSITION-array" count="96">
2.928263 1.454572 0.733998
2.928263 1.454572 0.905240
2.928263 1.500671 0.733998
2.928263 1.500671 0.905240
1.139166 1.454571 0.733998
1.139166 1.454571 0.905240
1.094304 1.500670 0.905240
1.094304 1.500670 0.733998
2.928263 -1.454228 0.905240
2.928263 -1.454228 0.733998
2.928263 -1.500327 0.905240
2.928263 -1.500327 0.733998
1.139166 -1.454228 0.733998
1.139166 -1.454228 0.905240
1.094304 -1.500327 0.905240
1.094304 -1.500327 0.733998
1.138773 -1.081759 0.733998
1.138773 -1.081759 0.905240
1.138773 -1.127858 0.733998
1.138773 -1.127858 0.905240
1.913546 -1.081759 0.733998
1.913546 -1.081759 0.905240
1.958408 -1.127858 0.905240
1.958408 -1.127858 0.733998
1.138773 1.083475 0.905240
1.138773 1.083475 0.733998
1.138773 1.129574 0.905240
1.138773 1.129574 0.733998
1.913546 1.083475 0.733998
1.913546 1.083475 0.905240
1.958408 1.129574 0.905240
1.958408 1.129574 0.733998
</float_array>
          <technique_common>
            <accessor source="#Box025-POSITION-array" count="32" stride="3">
              <param name="X" type="float"/>
              <param name="Y" type="float"/>
              <param name="Z" type="float"/>
            </accessor>
          </technique_common>
        </source>
        <source id="Box025-Normal0">
          <float_array id="Box025-Normal0-array" count="468">
0.000000 -1.000000 0.000000
0.000000 -1.000000 0.000000
0.000000 -1.000000 0.000000
0.000000 -1.000000 0.000000
0.000000 -1.000000 0.000000
0.000000 -1.000000 0.000000
0.000000 0.000000 1.000000
0.000000 0.000000 1.000000
0.000000 0.000000 1.000000
0.000000 0.000000 1.000000
0.000000 0.000000 1.000000
0.000000 0.000000 1.000000
-0.000000 1.000000 0.000000
-0.000000 1.000000 0.000000
-0.000000 1.000000 0.000000
-0.000000 1.000000 0.000000
-0.000000 1.000000 0.000000
-0.000000 1.000000 0.000000
0.000000 0.000000 -1.000000
0.000000 0.000000 -1.000000
0.000000 0.000000 -1.000000
0.000000 0.000000 -1.000000
0.000000 0.000000 -1.000000
0.000000 0.000000 -1.000000
0.000000 1.000000 0.000000
0.000000 1.000000 0.000000
0.000000 1.000000 0.000000
0.000000 1.000000 0.000000
0.000000 1.000000 0.000000
0.000000 1.000000 0.000000
0.000000 0.000000 -1.000000
0.000000 0.000000 -1.000000
0.000000 0.000000 -1.000000
0.000000 0.000000 -1.000000
0.000000 0.000000 -1.000000
0.000000 0.000000 -1.000000
-0.000000 -1.000000 0.000000
-0.000000 -1.000000 0.000000
-0.000000 -1.000000 0.000000
0.000000 -1.000000 0.000001
0.000000 -1.000000 0.000001
0.000000 -1.000000 0.000001
0.000000 0.000000 1.000000
0.000000 0.000000 1.000000
0.000000 0.000000 1.000000
0.000000 0.000000 1.000000
0.000000 0.000000 1.000000
0.000000 0.000000 1.000000
1.000000 0.000000 0.000000
1.000000 0.000000 0.000000
1.000000 0.000000 0.000000
1.000000 0.000000 0.000000
1.000000 0.000000 0.000000
1.000000 0.000000 0.000000
0.000000 0.000000 1.000000
0.000000 0.000000 1.000000
0.000000 0.000000 1.000000
0.000000 0.000000 1.000000
0.000000 0.000000 1.000000
0.000000 0.000000 1.000000
-1.000000 -0.000000 0.000000
-1.000000 -0.000000 0.000000
-1.000000 -0.000000 0.000000
-1.000000 -0.000000 0.000000
-1.000000 -0.000000 0.000000
-1.000000 -0.000000 0.000000
0.000000 0.000000 -1.000000
0.000000 0.000000 -1.000000
0.000000 0.000000 -1.000000
0.000000 0.000000 -1.000000
0.000000 0.000000 -1.000000
0.000000 0.000000 -1.000000
-0.000001 1.000000 0.000000
-0.000001 1.000000 0.000000
-0.000001 1.000000 0.000000
-0.000001 1.000000 0.000000
-0.000001 1.000000 0.000000
-0.000001 1.000000 0.000000
0.000000 0.000000 1.000000
0.000000 0.000000 1.000000
0.000000 0.000000 1.000000
0.000000 0.000000 1.000000
0.000000 0.000000 1.000000
0.000000 0.000000 1.000000
0.000000 -1.000000 0.000000
0.000000 -1.000000 0.000000
0.000000 -1.000000 0.000000
0.000000 -1.000000 0.000000
0.000000 -1.000000 0.000000
0.000000 -1.000000 0.000000
0.000000 0.000000 -1.000000
0.000000 0.000000 -1.000000
0.000000 0.000000 -1.000000
0.000000 0.000000 -1.000000
0.000000 0.000000 -1.000000
0.000000 0.000000 -1.000000
-0.000000 -1.000000 0.000000
-0.000000 -1.000000 0.000000
-0.000000 -1.000000 0.000000
-0.000000 -1.000000 0.000000
-0.000000 -1.000000 0.000000
-0.000000 -1.000000 0.000000
0.000000 0.000000 -1.000000
0.000000 0.000000 -1.000000
0.000000 0.000000 -1.000000
0.000000 0.000000 -1.000000
0.000000 0.000000 -1.000000
0.000000 0.000000 -1.000000
0.000000 1.000000 0.000000
0.000000 1.000000 0.000000
0.000000 1.000000 0.000000
-0.000000 1.000000 0.000001
-0.000000 1.000000 0.000001
-0.000000 1.000000 0.000001
0.000000 0.000000 1.000000
0.000000 0.000000 1.000000
0.000000 0.000000 1.000000
0.000000 0.000000 1.000000
0.000000 0.000000 1.000000
0.000000 0.000000 1.000000
-1.000000 -0.000000 0.000000
-1.000000 -0.000000 0.000000
-1.000000 -0.000000 0.000000
-1.000000 -0.000000 0.000000
-1.000000 -0.000000 0.000000
-1.000000 -0.000000 0.000000
0.000000 0.000000 1.000000
0.000000 0.000000 1.000000
0.000000 0.000000 1.000000
0.000000 0.000000 1.000000
0.000000 0.000000 1.000000
0.000000 0.000000 1.000000
1.000000 0.000000 0.000000
1.000000 0.000000 0.000000
1.000000 0.000000 0.000000
1.000000 0.000000 0.000000
1.000000 0.000000 0.000000
1.000000 0.000000 0.000000
0.000000 0.000000 -1.000000
0.000000 0.000000 -1.000000
0.000000 0.000000 -1.000000
0.000000 0.000000 -1.000000
0.000000 0.000000 -1.000000
0.000000 0.000000 -1.000000
1.000000 0.000000 0.000000
1.000000 0.000000 0.000000
1.000000 0.000000 0.000000
1.000000 0.000000 0.000000
1.000000 0.000000 0.000000
1.000000 0.000000 0.000000
1.000000 0.000000 0.000000
1.000000 0.000000 0.000000
1.000000 0.000000 0.000000
1.000000 0.000000 0.000000
1.000000 0.000000 0.000000
1.000000 0.000000 0.000000
</float_array>
          <technique_common>
            <accessor source="#Box025-Normal0-array" count="156" stride="3">
              <param name="X" type="float"/>
              <param name="Y" type="float"/>
              <param name="Z" type="float"/>
            </accessor>
          </technique_common>
        </source>
        <source id="Box025-UV0">
          <float_array id="Box025-UV0-array" count="192">
0.847676 0.209764
0.847676 0.142989
1.269187 0.142989
1.269187 0.209764
0.835232 0.599005
0.835232 0.532230
0.947739 0.716442
0.947739 0.783216
0.526229 0.783217
0.526229 0.716443
1.209724 0.651245
1.209724 0.718020
0.409164 0.720192
0.409164 0.653417
1.395175 0.534401
1.395175 0.601176
0.521435 0.497273
0.521435 0.361692
-0.296851 0.572522
-0.296851 0.708104
0.592632 0.361691
0.592632 0.497273
-0.594741 0.708104
-0.594741 0.572522
0.896557 0.486110
0.896557 0.552884
-0.506290 0.433666
-0.506290 0.298084
0.751996 0.552885
0.751995 0.486110
-0.131647 0.298084
-0.131647 0.433666
1.019737 0.142989
1.019737 0.209764
0.882004 0.383686
0.882004 0.450460
0.931497 0.143973
0.935620 0.180472
1.231205 0.149235
1.227082 0.185734
1.212605 0.522609
1.216727 0.486110
0.987127 0.354172
0.983005 0.317673
0.615735 0.429655
0.615735 0.362880
1.148073 0.716442
1.148073 0.752941
1.076876 0.752942
1.072754 0.716442
1.333202 0.149236
1.333202 0.185734
1.257883 0.185734
1.262005 0.149235
1.430756 0.788619
1.430756 0.752120
1.506076 0.752120
1.501953 0.788619
0.860177 0.398191
0.860177 0.361692
0.931374 0.361691
0.935497 0.398190
0.615735 0.211936
0.615735 0.145162
0.460799 0.448289
0.460799 0.381514
0.951904 0.651245
0.951904 0.718020
1.045616 0.429655
1.045616 0.362880
0.779844 0.651245
0.779844 0.718020
0.723902 0.143973
0.723902 0.180472
0.534830 0.149236
0.526229 0.166729
1.019486 0.185734
1.019486 0.149235
1.086174 0.166729
1.077573 0.149235
1.424322 0.486110
1.424322 0.522608
0.835232 0.752121
0.843834 0.769614
1.194723 0.354171
1.194723 0.317673
1.386583 0.769613
1.395184 0.752120
0.938832 0.335166
0.947433 0.317673
0.526229 0.317673
0.534830 0.335166
1.294758 0.380373
1.286157 0.362880
0.882156 0.362880
0.873555 0.380373
</float_array>
          <technique_common>
            <accessor source="#Box025-UV0-array" count="96" stride="2">
              <param name="S" type="float"/>
              <param name="T" type="float"/>
            </accessor>
          </technique_common>
        </source>
        <vertices id="Box025-VERTEX">
          <input semantic="POSITION" source="#Box025-POSITION"/>
        </vertices>
        <triangles count="52" material="_09 - Default">
          <input semantic="VERTEX" offset="0" source="#Box025-VERTEX"/>
          <input semantic="NORMAL" offset="1" source="#Box025-Normal0"/>
          <input semantic="TEXCOORD" offset="2" set="0" source="#Box025-UV0"/>
          <p> 0 0 0 1 1 1 5 2 2 5 3 2 4 4 3 0 5 0 1 6 80 3 7 81 6 8 40 6 9 40 5 10 41 1 11 80 3 12 69 2 13 68 7 14 44 7 15 44 6 16 45 3 17 69 2 18 73 0 19 72 4 20 36 4 21 36 7 22 37 2 23 73 8 24 6 9 25 7 12 26 8 12 27 8 13 28 9 8 29 6 9 30 76 11 31 77 15 32 38 15 33 38 12 34 39 9 35 76 11 36 71 10 37 70 14 38 10 14 39 10 15 40 11 11 41 71 10 42 85 8 43 84 13 44 42 13 45 42 14 46 43 10 47 85 4 48 12 5 49 13 13 50 66 13 51 66 12 52 67 4 53 12 5 54 83 6 55 82 14 56 87 14 57 87 13 58 86 5 59 83 6 60 4 7 61 5 15 62 14 15 63 14 14 64 15 6 65 4 7 66 75 4 67 74 12 68 79 12 69 79 15 70 78 7 71 75 16 72 16 17 73 17 21 74 20 21 75 20 20 76 21 16 77 16 17 78 54 19 79 55 22 80 56 22 81 56 21 82 57 17 83 54 19 84 18 18 85 19 23 86 22 23 87 22 22 88 23 19 89 18 18 90 46 16 91 47 20 92 48 20 93 48 23 94 49 18 95 46 24 96 24 25 97 25 28 98 28 28 99 28 29 100 29 24 101 24 25 102 50 27 103 51 31 104 52 31 105 52 28 106 53 25 107 50 27 108 26 26 109 27 30 110 30 30 111 30 31 112 31 27 113 26 26 114 58 24 115 59 29 116 60 29 117 60 30 118 61 26 119 58 20 120 32 21 121 33 29 122 62 29 123 62 28 124 63 20 125 32 21 126 93 22 127 92 30 128 95 30 129 95 29 130 94 21 131 93 22 132 34 23 133 35 31 134 64 31 135 64 30 136 65 22 137 34 23 138 89 20 139 88 28 140 91 28 141 91 31 142 90 23 143 89 2 144 73 3 145 69 1 146 80 1 147 80 0 148 0 2 149 73 10 150 85 11 151 71 9 152 76 9 153 76 8 154 6 10 155 85</p>
        </triangles>
      </mesh>
    </geometry>
    <geometry id="Object062-lib" name="Object062Mesh">
      <mesh>
        <source id="Object062-POSITION">
          <float_array id="Object062-POSITION-array" count="132">
2.000000 -0.979384 1.359385
2.000000 0.979384 1.359385
2.000000 -0.539048 1.150201
2.000000 0.539048 1.150201
2.000000 -0.777285 1.236484
2.000000 0.777285 1.236484
1.405068 -0.979384 1.100295
2.000000 -1.020326 0.577250
1.405067 0.979384 1.100295
2.000000 1.020326 0.577250
1.282008 -0.996209 1.055880
1.191136 -1.009087 0.965803
1.159622 -1.021843 0.840043
1.194761 -1.020326 0.716936
1.284071 -1.020326 0.627142
1.405963 -1.020326 0.594081
1.405963 1.020326 0.594081
1.284072 1.020326 0.627142
1.194761 1.020326 0.716936
1.159622 1.021843 0.840043
1.191136 1.009087 0.965803
1.282007 0.996208 1.055880
2.000000 -0.979384 1.359385
2.000000 0.979384 1.359385
2.000000 -0.539048 1.150201
2.000000 0.539048 1.150201
2.000000 -0.777285 1.236484
2.000000 0.777285 1.236484
1.405068 -0.979384 1.100295
2.000000 -1.020326 0.577250
1.405067 0.979384 1.100295
2.000000 1.020326 0.577250
1.282008 -0.996209 1.055880
1.191136 -1.009087 0.965803
1.159622 -1.021843 0.840043
1.194761 -1.020326 0.716936
1.284071 -1.020326 0.627142
1.405963 -1.020326 0.594081
1.405963 1.020326 0.594081
1.284072 1.020326 0.627142
1.194761 1.020326 0.716936
1.159622 1.021843 0.840043
1.191136 1.009087 0.965803
1.282007 0.996208 1.055880
</float_array>
          <technique_common>
            <accessor source="#Object062-POSITION-array" count="44" stride="3">
              <param name="X" type="float"/>
              <param name="Y" type="float"/>
              <param name="Z" type="float"/>
            </accessor>
          </technique_common>
        </source>
        <source id="Object062-Normal0">
          <float_array id="Object062-Normal0-array" count="360">
-0.330863 -0.397105 0.856059
-0.272586 -0.088529 0.958050
-0.158705 -0.103136 0.981925
-0.863109 0.000000 -0.505017
-0.999715 0.000000 -0.023872
-0.999715 0.000000 -0.023871
-0.999715 0.000000 -0.023871
-0.863110 -0.000000 -0.505016
-0.863109 0.000000 -0.505017
-0.146068 -0.000000 -0.989275
-0.146068 -0.000000 -0.989275
-0.028322 -0.000000 -0.999599
-0.028322 -0.000000 -0.999599
-0.028322 -0.000000 -0.999599
-0.146068 -0.000000 -0.989275
-0.146068 -0.000000 -0.989275
-0.502493 -0.000000 -0.864581
-0.502492 -0.000000 -0.864582
-0.502492 -0.000000 -0.864582
-0.146068 -0.000000 -0.989275
-0.146068 -0.000000 -0.989275
-0.502493 -0.000000 -0.864581
-0.863109 0.000000 -0.505017
-0.863110 -0.000000 -0.505016
-0.863110 -0.000000 -0.505016
-0.502492 -0.000000 -0.864582
-0.502493 -0.000000 -0.864581
-0.272586 -0.088529 0.958050
-0.547916 0.000000 0.836533
-0.547914 -0.000000 0.836534
-0.547914 -0.000000 0.836534
-0.272586 0.088529 0.958050
-0.272586 -0.088529 0.958050
-0.547916 0.000000 0.836533
-0.877570 0.000000 0.479448
-0.877569 0.000000 0.479450
-0.877569 0.000000 0.479450
-0.547914 -0.000000 0.836534
-0.547916 0.000000 0.836533
-0.877570 0.000000 0.479448
-0.999715 0.000000 -0.023871
-0.999715 0.000000 -0.023872
-0.999715 0.000000 -0.023872
-0.877569 0.000000 0.479450
-0.877570 0.000000 0.479448
-0.330863 -0.397105 0.856059
-0.348735 -0.486969 0.800777
-0.272586 -0.088529 0.958050
-0.272586 0.088529 0.958050
-0.158705 0.103135 0.981925
-0.158705 -0.103136 0.981925
-0.158705 -0.103136 0.981925
-0.272586 -0.088529 0.958050
-0.272586 0.088529 0.958050
-0.272586 0.088529 0.958050
-0.330863 0.397104 0.856060
-0.158705 0.103135 0.981925
-0.272586 0.088529 0.958050
-0.348735 0.486969 0.800778
-0.330863 0.397104 0.856060
0.330863 0.397105 -0.856059
0.158705 0.103136 -0.981925
0.272586 0.088529 -0.958050
0.863109 -0.000000 0.505017
0.863110 0.000000 0.505016
0.999715 -0.000000 0.023871
0.999715 -0.000000 0.023871
0.999715 -0.000000 0.023872
0.863109 -0.000000 0.505017
0.146068 0.000000 0.989275
0.028322 0.000000 0.999599
0.028322 0.000000 0.999599
0.028322 0.000000 0.999599
0.146068 0.000000 0.989275
0.146068 0.000000 0.989275
0.146068 0.000000 0.989275
0.146068 0.000000 0.989275
0.502492 0.000000 0.864582
0.502492 0.000000 0.864582
0.502493 0.000000 0.864581
0.146068 0.000000 0.989275
0.502493 0.000000 0.864581
0.502492 0.000000 0.864582
0.863110 0.000000 0.505016
0.863110 0.000000 0.505016
0.863109 -0.000000 0.505017
0.502493 0.000000 0.864581
0.272586 0.088529 -0.958050
0.272586 -0.088529 -0.958050
0.547914 0.000000 -0.836534
0.547914 0.000000 -0.836534
0.547916 -0.000000 -0.836533
0.272586 0.088529 -0.958050
0.547916 -0.000000 -0.836533
0.547914 0.000000 -0.836534
0.877569 -0.000000 -0.479450
0.877569 -0.000000 -0.479450
0.877570 -0.000000 -0.479448
0.547916 -0.000000 -0.836533
0.877570 -0.000000 -0.479448
0.877569 -0.000000 -0.479450
0.999715 -0.000000 0.023872
0.999715 -0.000000 0.023872
0.999715 -0.000000 0.023871
0.877570 -0.000000 -0.479448
0.330863 0.397105 -0.856059
0.272586 0.088529 -0.958050
0.348735 0.486969 -0.800777
0.272586 -0.088529 -0.958050
0.272586 0.088529 -0.958050
0.158705 0.103136 -0.981925
0.158705 0.103136 -0.981925
0.158705 -0.103135 -0.981925
0.272586 -0.088529 -0.958050
0.272586 -0.088529 -0.958050
0.158705 -0.103135 -0.981925
0.330863 -0.397104 -0.856060
0.272586 -0.088529 -0.958050
0.330863 -0.397104 -0.856060
0.348735 -0.486969 -0.800778
</float_array>
          <technique_common>
            <accessor source="#Object062-Normal0-array" count="120" stride="3">
              <param name="X" type="float"/>
              <param name="Y" type="float"/>
              <param name="Z" type="float"/>
            </accessor>
          </technique_common>
        </source>
        <source id="Object062-UV0">
          <float_array id="Object062-UV0-array" count="88">
0.000523 0.774111
0.000523 0.225492
0.000523 0.999026
0.000523 0.895344
0.000523 0.104258
0.000523 0.000688
0.187680 0.998968
0.187680 0.000630
0.289607 0.999026
0.289607 0.000688
0.324711 0.000688
0.324712 0.999026
0.584836 0.000688
0.584837 0.999026
0.409484 0.999026
0.409484 0.000688
0.361927 0.999026
0.361927 0.000688
0.218542 0.000688
0.218542 0.999026
0.252391 0.000688
0.252391 0.999026
0.412581 0.774111
0.412581 0.225492
0.412581 0.999026
0.412581 0.895344
0.412581 0.104258
0.412581 0.000688
0.600152 0.998967
0.600152 0.000630
0.702078 0.999026
0.702078 0.000688
0.735533 0.000688
0.735534 0.999026
1.000226 0.000688
1.000226 0.999025
0.820307 0.999026
0.820306 0.000688
0.772750 0.999026
0.772749 0.000688
0.631013 0.000688
0.631014 0.999026
0.664862 0.000688
0.664863 0.999026
</float_array>
          <technique_common>
            <accessor source="#Object062-UV0-array" count="44" stride="2">
              <param name="S" type="float"/>
              <param name="T" type="float"/>
            </accessor>
          </technique_common>
        </source>
        <vertices id="Object062-VERTEX">
          <input semantic="POSITION" source="#Object062-POSITION"/>
        </vertices>
        <triangles count="40" material="_10 - Default">
          <input semantic="VERTEX" offset="0" source="#Object062-VERTEX"/>
          <input semantic="NORMAL" offset="1" source="#Object062-Normal0"/>
          <input semantic="TEXCOORD" offset="2" set="0" source="#Object062-UV0"/>
          <p> 5 0 4 8 1 7 3 2 1 13 3 11 12 4 8 19 5 9 19 6 9 18 7 10 13 8 11 15 9 14 16 10 15 9 11 12 9 12 12 7 13 13 15 14 14 15 15 14 14 16 16 17 17 17 17 18 17 16 19 15 15 20 14 14 21 16 13 22 11 18 23 10 18 24 10 17 25 17 14 26 16 8 27 7 21 28 18 10 29 19 10 30 19 6 31 6 8 32 7 21 33 18 20 34 20 11 35 21 11 36 21 10 37 19 21 38 18 20 39 20 19 40 9 12 41 8 12 42 8 11 43 21 20 44 20 5 45 4 1 46 5 8 47 7 6 48 6 2 49 0 3 50 1 3 51 1 8 52 7 6 53 6 6 54 6 4 55 3 2 56 0 6 57 6 0 58 2 4 59 3 27 60 26 25 61 23 30 62 29 35 63 33 40 64 32 41 65 31 41 66 31 34 67 30 35 68 33 37 69 36 29 70 35 31 71 34 31 72 34 38 73 37 37 74 36 37 75 36 38 76 37 39 77 39 39 78 39 36 79 38 37 80 36 36 81 38 39 82 39 40 83 32 40 84 32 35 85 33 36 86 38 30 87 29 28 88 28 32 89 41 32 90 41 43 91 40 30 92 29 43 93 40 32 94 41 33 95 43 33 96 43 42 97 42 43 98 40 42 99 42 33 100 43 34 101 30 34 102 30 41 103 31 42 104 42 27 105 26 30 106 29 23 107 27 28 108 28 30 109 29 25 110 23 25 111 23 24 112 22 28 113 28 28 114 28 24 115 22 26 116 25 28 117 28 26 118 25 22 119 24</p>
        </triangles>
      </mesh>
    </geometry>
  </library_geometries>
  <library_visual_scenes>
    <visual_scene id="" name="">
      <node name="Object061" id="Object061" layer="conveyor_section_02" sid="Object061">
        <matrix sid="matrix">1.000000 0.000000 0.000000 0.000000 0.000000 0.000000 1.000000 0.000000 0.000000 -1.000000 0.000000 0.000000 0.000000 0.000000 0.000000 1.000000</matrix>
        <instance_geometry url="#Object061-lib">
          <bind_material>
            <technique_common>
              <instance_material symbol="rainpipes01" target="#rainpipes01"/>
            </technique_common>
          </bind_material>
        </instance_geometry>
        <extra>
          <technique profile="FCOLLADA">
            <visibility>1.000000</visibility>
          </technique>
        </extra>
      </node>
      <node name="Box025" id="Box025" layer="conveyor_section_02" sid="Box025">
        <matrix sid="matrix">1.000000 0.000000 0.000000 0.000000 0.000000 0.000000 1.000000 0.000000 0.000000 -1.000000 0.000000 0.000000 0.000000 0.000000 0.000000 1.000000</matrix>
        <instance_geometry url="#Box025-lib">
          <bind_material>
            <technique_common>
              <instance_material symbol="_09 - Default" target="#_09 - Default"/>
            </technique_common>
          </bind_material>
        </instance_geometry>
        <extra>
          <technique profile="FCOLLADA">
            <visibility>1.000000</visibility>
          </technique>
        </extra>
      </node>
      <node name="Object062" id="Object062" layer="conveyor_section_02" sid="Object062">
        <matrix sid="matrix">1.000000 0.000000 0.000000 0.000000 0.000000 0.000000 1.000000 0.000000 0.000000 -1.000000 0.000000 0.000000 0.000000 0.000000 0.000000 1.000000</matrix>
        <instance_geometry url="#Object062-lib">
          <bind_material>
            <technique_common>
              <instance_material symbol="_10 - Default" target="#_10 - Default"/>
            </technique_common>
          </bind_material>
        </instance_geometry>
        <extra>
          <technique profile="FCOLLADA">
            <visibility>1.000000</visibility>
          </technique>
        </extra>
      </node>
      <extra>
        <technique profile="MAX3D">
          <frame_rate>30.000000</frame_rate>
        </technique>
        <technique profile="FCOLLADA">
          <start_time>0.000000</start_time>
          <end_time>6.666667</end_time>
        </technique>
      </extra>
    </visual_scene>
  </library_visual_scenes>
  <scene>
    <instance_visual_scene url="#"></instance_visual_scene>
  </scene>
</COLLADA>

