<?xml version="1.0" encoding="utf-8"?>
<COLLADA xmlns="http://www.collada.org/2005/11/COLLADASchema" version="1.4.1">
  <asset>
    <contributor>
      <author></author>
      <authoring_tool>FBX COLLADA exporter</authoring_tool>
      <comments></comments>
    </contributor>
    <created>2012-05-02T06:56:15Z</created>
    <keywords></keywords>
    <modified>2012-05-02T06:56:15Z</modified>
    <revision></revision>
    <subject></subject>
    <title></title>
    <unit meter="1.000000" name="centimeter"></unit>
    <up_axis>Y_UP</up_axis>
  </asset>
  <library_images>
    <image id="Map #11-image" name="Map #11">
      <init_from>file://C:\Users\WesleyTack\Desktop\amnesia_raw\StaticObjects\Spraylock\electric_cabin.psd</init_from>
    </image>
    <image id="Map #12-image" name="Map #12">
      <init_from>file://C:\Users\WesleyTack\Desktop\amnesia_raw\StaticObjects\Spraylock\gauges.psd</init_from>
    </image>
  </library_images>
  <library_materials>
    <material id="electric_cabin" name="electric_cabin">
      <instance_effect url="#electric_cabin-fx"/>
    </material>
    <material id="gauges" name="gauges">
      <instance_effect url="#gauges-fx"/>
    </material>
  </library_materials>
  <library_effects>
    <effect id="electric_cabin-fx" name="electric_cabin">
      <profile_COMMON>
        <technique sid="standard">
          <phong>
            <emission>
              <color sid="emission">0.000000  0.000000 0.000000 1.000000</color>
            </emission>
            <ambient>
              <color sid="ambient">0.588235  0.588235 0.588235 1.000000</color>
            </ambient>
            <diffuse>
              <texture texture="Map #11-image" texcoord="CHANNEL0">
                <extra>
                  <technique profile="MAYA">
                    <wrapU sid="wrapU0">TRUE</wrapU>
                    <wrapV sid="wrapV0">TRUE</wrapV>
                    <blend_mode>ADD</blend_mode>
                  </technique>
                </extra>
              </texture>
              <texture texture="Map #11-image" texcoord="CHANNEL0">
                <extra>
                  <technique profile="MAYA">
                    <wrapU sid="wrapU0">TRUE</wrapU>
                    <wrapV sid="wrapV0">TRUE</wrapV>
                    <blend_mode>ADD</blend_mode>
                  </technique>
                </extra>
              </texture>
              <texture texture="Map #11-image" texcoord="CHANNEL0">
                <extra>
                  <technique profile="MAYA">
                    <wrapU sid="wrapU0">TRUE</wrapU>
                    <wrapV sid="wrapV0">TRUE</wrapV>
                    <blend_mode>ADD</blend_mode>
                  </technique>
                </extra>
              </texture>
            </diffuse>
            <specular>
              <color sid="specular">0.000000  0.000000 0.000000 1.000000</color>
            </specular>
            <shininess>
              <float sid="shininess">2.000000</float>
            </shininess>
            <reflective>
              <color sid="reflective">0.000000  0.000000 0.000000 1.000000</color>
            </reflective>
            <reflectivity>
              <float sid="reflectivity">1.000000</float>
            </reflectivity>
            <transparent opaque="RGB_ZERO">
              <color sid="transparent">1.000000  1.000000 1.000000 1.000000</color>
            </transparent>
            <transparency>
              <float sid="transparency">0.000000</float>
            </transparency>
          </phong>
        </technique>
      </profile_COMMON>
    </effect>
    <effect id="gauges-fx" name="gauges">
      <profile_COMMON>
        <technique sid="standard">
          <phong>
            <emission>
              <color sid="emission">0.000000  0.000000 0.000000 1.000000</color>
            </emission>
            <ambient>
              <color sid="ambient">0.588235  0.588235 0.588235 1.000000</color>
            </ambient>
            <diffuse>
              <texture texture="Map #12-image" texcoord="CHANNEL0">
                <extra>
                  <technique profile="MAYA">
                    <wrapU sid="wrapU0">TRUE</wrapU>
                    <wrapV sid="wrapV0">TRUE</wrapV>
                    <blend_mode>ADD</blend_mode>
                  </technique>
                </extra>
              </texture>
            </diffuse>
            <specular>
              <color sid="specular">0.000000  0.000000 0.000000 1.000000</color>
            </specular>
            <shininess>
              <float sid="shininess">2.000000</float>
            </shininess>
            <reflective>
              <color sid="reflective">0.000000  0.000000 0.000000 1.000000</color>
            </reflective>
            <reflectivity>
              <float sid="reflectivity">1.000000</float>
            </reflectivity>
            <transparent opaque="RGB_ZERO">
              <color sid="transparent">1.000000  1.000000 1.000000 1.000000</color>
            </transparent>
            <transparency>
              <float sid="transparency">0.000000</float>
            </transparency>
          </phong>
        </technique>
      </profile_COMMON>
    </effect>
  </library_effects>
  <library_geometries>
    <geometry id="Object449-lib" name="Object449Mesh">
      <mesh>
        <source id="Object449-POSITION">
          <float_array id="Object449-POSITION-array" count="240">
-0.060772 0.066282 0.243638
-0.060772 0.182392 0.243638
-0.060772 0.066282 0.308488
-0.060772 0.182392 0.308488
-0.041657 0.066282 0.243638
-0.041657 0.182392 0.243638
-0.041657 0.066282 0.308488
-0.041657 0.182392 0.308488
-0.041657 0.097885 0.243638
-0.041657 0.113806 0.243638
-0.041657 0.134868 0.243638
-0.041657 0.152034 0.243638
-0.041657 0.152034 0.308488
-0.041657 0.134868 0.308488
-0.041657 0.113806 0.308488
-0.041657 0.097885 0.308488
0.030023 0.134868 0.243638
0.030023 0.152034 0.243638
0.030023 0.152034 0.308488
0.030023 0.134868 0.308488
0.030023 0.097885 0.243638
0.030023 0.113806 0.243638
0.030023 0.113806 0.308488
0.030023 0.097885 0.308488
-0.060772 -0.179469 0.243638
-0.060772 -0.064099 0.243638
-0.060772 -0.179469 0.308488
-0.060772 -0.064099 0.308488
-0.041656 -0.179469 0.243638
-0.041656 -0.064099 0.243638
-0.041656 -0.179469 0.308488
-0.041656 -0.064099 0.308488
-0.041656 -0.149111 0.243638
-0.041656 -0.131945 0.243638
-0.041656 -0.111623 0.243638
-0.041657 -0.095702 0.243638
-0.041656 -0.095702 0.308488
-0.041656 -0.111623 0.308488
-0.041656 -0.131945 0.308488
-0.041656 -0.149111 0.308488
0.030023 -0.111623 0.243638
0.030023 -0.095702 0.243638
0.030023 -0.095702 0.308488
0.030023 -0.111623 0.308488
0.030023 -0.149111 0.243638
0.030023 -0.131945 0.243638
0.030023 -0.131945 0.308488
0.030023 -0.149111 0.308488
-0.060867 -0.172968 -0.032798
-0.060867 -0.106926 -0.032798
-0.060867 -0.172968 0.032221
-0.060867 -0.106926 0.032221
-0.041487 -0.172968 -0.032798
-0.041487 -0.106926 -0.032798
-0.041487 -0.172968 0.032221
-0.041487 -0.106926 0.032221
-0.041487 -0.149223 -0.032798
-0.041487 -0.131211 -0.032798
-0.041487 -0.131211 0.032221
-0.041487 -0.149223 0.032221
0.029929 -0.149223 -0.032798
0.029929 -0.131211 -0.032798
0.029929 -0.131211 0.032221
0.029929 -0.149223 0.032221
-0.060867 0.109497 -0.032798
-0.060867 0.175539 -0.032798
-0.060867 0.109497 0.032221
-0.060867 0.175539 0.032221
-0.041487 0.109497 -0.032798
-0.041487 0.175539 -0.032798
-0.041487 0.109497 0.032221
-0.041487 0.175539 0.032221
-0.041487 0.133774 -0.032798
-0.041487 0.151794 -0.032798
-0.041487 0.151794 0.032221
-0.041487 0.133774 0.032221
0.029929 0.133774 -0.032798
0.029929 0.151794 -0.032798
0.029929 0.151794 0.032221
0.029929 0.133774 0.032221
</float_array>
          <technique_common>
            <accessor source="#Object449-POSITION-array" count="80" stride="3">
              <param name="X" type="float"/>
              <param name="Y" type="float"/>
              <param name="Z" type="float"/>
            </accessor>
          </technique_common>
        </source>
        <source id="Object449-Normal0">
          <float_array id="Object449-Normal0-array" count="1224">
1.000000 0.000000 0.000000
1.000000 0.000000 0.000000
1.000000 0.000000 0.000000
1.000000 0.000000 0.000000
1.000000 0.000000 0.000000
1.000000 0.000000 0.000000
0.000000 0.000000 -1.000000
0.000000 0.000000 -1.000000
0.000000 0.000000 -1.000000
0.000012 1.000000 0.000000
0.000012 1.000000 0.000000
0.000012 1.000000 0.000000
0.000012 1.000000 0.000000
0.000012 1.000000 0.000000
0.000012 1.000000 0.000000
0.000000 0.000000 1.000000
0.000000 0.000000 1.000000
0.000000 0.000000 1.000000
0.000000 -1.000000 0.000000
0.000000 -1.000000 0.000000
0.000000 -1.000000 0.000000
0.000000 -1.000000 0.000000
0.000000 -1.000000 0.000000
0.000000 -1.000000 0.000000
1.000000 0.000000 0.000000
1.000000 0.000000 0.000000
1.000000 0.000000 0.000000
1.000000 0.000000 0.000000
1.000000 0.000000 0.000000
1.000000 0.000000 0.000000
1.000000 -0.000000 0.000001
1.000000 -0.000000 0.000001
1.000000 -0.000000 0.000001
1.000000 -0.000004 0.000000
1.000000 -0.000004 0.000000
1.000000 -0.000004 0.000000
1.000000 0.000000 0.000000
1.000000 0.000000 0.000000
1.000000 0.000000 0.000000
1.000000 0.000000 0.000000
1.000000 0.000000 0.000000
1.000000 0.000000 0.000000
1.000000 0.000000 0.000000
1.000000 0.000000 0.000000
1.000000 0.000000 0.000000
1.000000 0.000000 0.000000
1.000000 0.000000 0.000000
1.000000 0.000000 0.000000
0.000000 0.000000 1.000000
0.000000 0.000000 1.000000
0.000000 0.000000 1.000000
0.000000 0.000000 1.000000
0.000000 0.000000 1.000000
0.000000 0.000000 1.000000
0.000000 0.000000 1.000000
0.000000 0.000000 1.000000
0.000000 0.000000 1.000000
0.000000 0.000000 1.000000
0.000000 0.000000 1.000000
0.000000 0.000000 1.000000
0.000000 0.000000 1.000000
0.000000 0.000000 1.000000
0.000000 0.000000 1.000000
0.000001 0.000000 -1.000000
0.000001 0.000000 -1.000000
0.000001 0.000000 -1.000000
0.000000 -0.000000 -1.000000
0.000000 -0.000000 -1.000000
0.000000 -0.000000 -1.000000
0.000000 0.000000 -1.000000
0.000000 0.000000 -1.000000
0.000000 0.000000 -1.000000
-0.000000 -0.000000 -1.000000
-0.000000 -0.000000 -1.000000
-0.000000 -0.000000 -1.000000
0.000001 0.000000 -1.000000
0.000001 0.000000 -1.000000
0.000001 0.000000 -1.000000
0.000000 0.000000 -1.000000
0.000000 0.000000 -1.000000
0.000000 0.000000 -1.000000
0.000000 0.000000 -1.000000
0.000000 0.000000 -1.000000
0.000000 0.000000 -1.000000
0.000000 1.000000 0.000000
0.000000 1.000000 0.000000
0.000000 1.000000 0.000000
0.000000 1.000000 0.000000
0.000000 1.000000 0.000000
0.000000 1.000000 0.000000
0.000000 0.000000 1.000000
0.000000 0.000000 1.000000
0.000000 0.000000 1.000000
0.000000 0.000000 1.000000
0.000000 0.000000 1.000000
0.000000 0.000000 1.000000
0.000000 -1.000000 0.000000
0.000000 -1.000000 0.000000
0.000000 -1.000000 0.000000
0.000000 -1.000000 0.000000
0.000000 -1.000000 0.000000
0.000000 -1.000000 0.000000
0.000000 0.000000 -1.000000
0.000000 0.000000 -1.000000
0.000000 0.000000 -1.000000
0.000000 0.000000 -1.000000
0.000000 0.000000 -1.000000
0.000000 0.000000 -1.000000
0.000000 1.000000 -0.000000
0.000000 1.000000 -0.000000
0.000000 1.000000 -0.000000
0.000000 1.000000 -0.000000
0.000000 1.000000 -0.000000
0.000000 1.000000 -0.000000
0.000000 0.000000 1.000000
0.000000 0.000000 1.000000
0.000000 0.000000 1.000000
0.000000 0.000000 1.000000
0.000000 0.000000 1.000000
0.000000 0.000000 1.000000
0.000000 -1.000000 0.000000
0.000000 -1.000000 0.000000
0.000000 -1.000000 0.000000
0.000000 -1.000000 0.000000
0.000000 -1.000000 0.000000
0.000000 -1.000000 0.000000
1.000000 0.000000 0.000000
1.000000 0.000000 0.000000
1.000000 0.000000 0.000000
1.000000 0.000000 0.000000
1.000000 0.000000 0.000000
1.000000 0.000000 0.000000
0.000000 -0.000001 -1.000000
0.000000 -0.000001 -1.000000
0.000000 -0.000001 -1.000000
0.000006 1.000000 -0.000000
0.000006 1.000000 -0.000000
0.000006 1.000000 -0.000000
0.000006 1.000000 -0.000000
0.000006 1.000000 -0.000000
0.000006 1.000000 -0.000000
0.000000 0.000000 1.000000
0.000000 0.000000 1.000000
0.000000 0.000000 1.000000
0.000000 -1.000000 0.000000
0.000000 -1.000000 0.000000
0.000000 -1.000000 0.000000
0.000000 -1.000000 0.000000
0.000000 -1.000000 0.000000
0.000000 -1.000000 0.000000
1.000000 0.000000 0.000000
1.000000 0.000000 0.000000
1.000000 0.000000 0.000000
1.000000 -0.000002 -0.000001
1.000000 -0.000002 -0.000001
1.000000 -0.000002 -0.000001
1.000000 -0.000000 0.000001
1.000000 -0.000000 0.000001
1.000000 -0.000000 0.000001
1.000000 -0.000004 0.000000
1.000000 -0.000004 0.000000
1.000000 -0.000004 0.000000
1.000000 0.000000 0.000000
1.000000 0.000000 0.000000
1.000000 0.000000 0.000000
1.000000 0.000000 0.000000
1.000000 0.000000 0.000000
1.000000 0.000000 0.000000
1.000000 -0.000000 0.000000
1.000000 -0.000000 0.000000
1.000000 -0.000000 0.000000
1.000000 -0.000000 0.000000
1.000000 -0.000000 0.000000
1.000000 -0.000000 0.000000
0.000000 0.000000 1.000000
0.000000 0.000000 1.000000
0.000000 0.000000 1.000000
0.000000 0.000000 1.000000
0.000000 0.000000 1.000000
0.000000 0.000000 1.000000
0.000000 0.000000 1.000000
0.000000 0.000000 1.000000
0.000000 0.000000 1.000000
0.000000 0.000000 1.000000
0.000000 0.000000 1.000000
0.000000 0.000000 1.000000
0.000000 0.000000 1.000000
0.000000 0.000000 1.000000
0.000000 0.000000 1.000000
0.000000 0.000000 -1.000000
0.000000 0.000000 -1.000000
0.000000 0.000000 -1.000000
-0.000001 -0.000000 -1.000000
-0.000001 -0.000000 -1.000000
-0.000001 -0.000000 -1.000000
-0.000002 0.000000 -1.000000
-0.000002 0.000000 -1.000000
-0.000002 0.000000 -1.000000
0.000000 0.000000 -1.000000
0.000000 0.000000 -1.000000
0.000000 0.000000 -1.000000
0.000000 0.000000 -1.000000
0.000000 0.000000 -1.000000
0.000000 0.000000 -1.000000
0.000000 0.000000 -1.000000
0.000000 0.000000 -1.000000
0.000000 0.000000 -1.000000
0.000000 0.000000 -1.000000
0.000000 0.000000 -1.000000
0.000000 0.000000 -1.000000
0.000000 1.000000 -0.000000
0.000000 1.000000 -0.000000
0.000000 1.000000 -0.000000
-0.000000 1.000000 -0.000000
-0.000000 1.000000 -0.000000
-0.000000 1.000000 -0.000000
0.000000 0.000000 1.000000
0.000000 0.000000 1.000000
0.000000 0.000000 1.000000
0.000000 0.000000 1.000000
0.000000 0.000000 1.000000
0.000000 0.000000 1.000000
0.000000 -1.000000 0.000000
0.000000 -1.000000 0.000000
0.000000 -1.000000 0.000000
0.000000 -1.000000 0.000000
0.000000 -1.000000 0.000000
0.000000 -1.000000 0.000000
0.000000 0.000000 -1.000000
0.000000 0.000000 -1.000000
0.000000 0.000000 -1.000000
0.000000 0.000000 -1.000000
0.000000 0.000000 -1.000000
0.000000 0.000000 -1.000000
0.000002 1.000000 0.000000
0.000002 1.000000 0.000000
0.000002 1.000000 0.000000
0.000002 1.000000 0.000000
0.000002 1.000000 0.000000
0.000002 1.000000 0.000000
0.000000 0.000000 1.000000
0.000000 0.000000 1.000000
0.000000 0.000000 1.000000
0.000000 0.000000 1.000000
0.000000 0.000000 1.000000
0.000000 0.000000 1.000000
0.000000 -1.000000 0.000000
0.000000 -1.000000 0.000000
0.000000 -1.000000 0.000000
0.000000 -1.000000 0.000000
0.000000 -1.000000 0.000000
0.000000 -1.000000 0.000000
1.000000 0.000000 0.000001
1.000000 0.000000 0.000001
1.000000 0.000000 0.000001
1.000000 -0.000003 0.000000
1.000000 -0.000003 0.000000
1.000000 -0.000003 0.000000
0.000000 0.000000 -1.000000
0.000000 0.000000 -1.000000
0.000000 0.000000 -1.000000
0.000000 1.000000 0.000000
0.000000 1.000000 0.000000
0.000000 1.000000 0.000000
0.000000 1.000000 0.000000
0.000000 1.000000 0.000000
0.000000 1.000000 0.000000
0.000000 0.000000 1.000000
0.000000 0.000000 1.000000
0.000000 0.000000 1.000000
0.000000 -1.000000 0.000000
0.000000 -1.000000 0.000000
0.000000 -1.000000 0.000000
0.000000 -1.000000 0.000000
0.000000 -1.000000 0.000000
0.000000 -1.000000 0.000000
1.000000 0.000000 0.000000
1.000000 0.000000 0.000000
1.000000 0.000000 0.000000
1.000000 0.000000 0.000000
1.000000 0.000000 0.000000
1.000000 0.000000 0.000000
1.000000 0.000000 0.000000
1.000000 0.000000 0.000000
1.000000 0.000000 0.000000
1.000000 0.000000 0.000000
1.000000 0.000000 0.000000
1.000000 0.000000 0.000000
0.000000 0.000000 -1.000000
0.000000 0.000000 -1.000000
0.000000 0.000000 -1.000000
0.000000 0.000000 -1.000000
0.000000 0.000000 -1.000000
0.000000 0.000000 -1.000000
0.000000 1.000000 0.000000
0.000000 1.000000 0.000000
0.000000 1.000000 0.000000
0.000000 1.000000 0.000000
0.000000 1.000000 0.000000
0.000000 1.000000 0.000000
0.000000 0.000000 1.000000
0.000000 0.000000 1.000000
0.000000 0.000000 1.000000
0.000000 0.000000 1.000000
0.000000 0.000000 1.000000
0.000000 0.000000 1.000000
-0.000002 -1.000000 0.000000
-0.000002 -1.000000 0.000000
-0.000002 -1.000000 0.000000
-0.000002 -1.000000 0.000000
-0.000002 -1.000000 0.000000
-0.000002 -1.000000 0.000000
0.000000 0.000000 1.000000
0.000000 0.000000 1.000000
0.000000 0.000000 1.000000
0.000000 0.000000 -1.000000
0.000000 0.000000 -1.000000
0.000000 0.000000 -1.000000
0.000000 0.000000 -1.000000
0.000000 0.000000 -1.000000
0.000000 0.000000 -1.000000
0.000000 0.000000 1.000000
0.000000 0.000000 1.000000
0.000000 0.000000 1.000000
0.000000 0.000000 1.000000
0.000000 0.000000 1.000000
0.000000 0.000000 1.000000
0.000000 0.000000 -1.000000
0.000000 0.000000 -1.000000
0.000000 0.000000 -1.000000
1.000000 0.000000 0.000001
1.000000 0.000000 0.000001
1.000000 0.000000 0.000001
1.000000 -0.000003 0.000000
1.000000 -0.000003 0.000000
1.000000 -0.000003 0.000000
0.000000 0.000000 -1.000000
0.000000 0.000000 -1.000000
0.000000 0.000000 -1.000000
0.000000 1.000000 0.000000
0.000000 1.000000 0.000000
0.000000 1.000000 0.000000
0.000000 1.000000 0.000000
0.000000 1.000000 0.000000
0.000000 1.000000 0.000000
0.000000 0.000000 1.000000
0.000000 0.000000 1.000000
0.000000 0.000000 1.000000
0.000000 -1.000000 0.000000
0.000000 -1.000000 0.000000
0.000000 -1.000000 0.000000
0.000000 -1.000000 0.000000
0.000000 -1.000000 0.000000
0.000000 -1.000000 0.000000
1.000000 0.000000 0.000000
1.000000 0.000000 0.000000
1.000000 0.000000 0.000000
1.000000 0.000000 0.000000
1.000000 0.000000 0.000000
1.000000 0.000000 0.000000
1.000000 0.000000 0.000000
1.000000 0.000000 0.000000
1.000000 0.000000 0.000000
1.000000 0.000000 0.000000
1.000000 0.000000 0.000000
1.000000 0.000000 0.000000
0.000000 0.000000 -1.000000
0.000000 0.000000 -1.000000
0.000000 0.000000 -1.000000
0.000000 0.000000 -1.000000
0.000000 0.000000 -1.000000
0.000000 0.000000 -1.000000
0.000000 1.000000 0.000000
0.000000 1.000000 0.000000
0.000000 1.000000 0.000000
0.000000 1.000000 0.000000
0.000000 1.000000 0.000000
0.000000 1.000000 0.000000
0.000000 0.000000 1.000000
0.000000 0.000000 1.000000
0.000000 0.000000 1.000000
0.000000 0.000000 1.000000
0.000000 0.000000 1.000000
0.000000 0.000000 1.000000
-0.000003 -1.000000 0.000000
-0.000003 -1.000000 0.000000
-0.000003 -1.000000 0.000000
-0.000003 -1.000000 0.000000
-0.000003 -1.000000 0.000000
-0.000003 -1.000000 0.000000
0.000000 0.000000 1.000000
0.000000 0.000000 1.000000
0.000000 0.000000 1.000000
0.000000 0.000000 -1.000000
0.000000 0.000000 -1.000000
0.000000 0.000000 -1.000000
0.000000 0.000000 -1.000000
0.000000 0.000000 -1.000000
0.000000 0.000000 -1.000000
0.000000 0.000000 1.000000
0.000000 0.000000 1.000000
0.000000 0.000000 1.000000
0.000000 0.000000 1.000000
0.000000 0.000000 1.000000
0.000000 0.000000 1.000000
0.000000 0.000000 -1.000000
0.000000 0.000000 -1.000000
0.000000 0.000000 -1.000000
</float_array>
          <technique_common>
            <accessor source="#Object449-Normal0-array" count="408" stride="3">
              <param name="X" type="float"/>
              <param name="Y" type="float"/>
              <param name="Z" type="float"/>
            </accessor>
          </technique_common>
        </source>
        <source id="Object449-UV0">
          <float_array id="Object449-UV0-array" count="448">
0.843789 0.207048
0.868051 0.221820
0.843789 0.221820
0.930916 0.207048
0.894431 0.221820
0.880274 0.221820
0.930916 0.221820
0.906654 0.221820
0.906654 0.276802
0.894431 0.276802
0.894402 0.221820
0.843789 0.221820
0.868051 0.276802
0.868051 0.221820
0.843789 0.276802
0.880274 0.276802
0.868051 0.276802
0.880243 0.276802
0.880243 0.221820
0.894425 0.221820
0.894425 0.276802
0.843780 0.207048
0.868042 0.221820
0.843780 0.221820
0.930907 0.207048
0.894402 0.276802
0.880246 0.276802
0.880246 0.221820
0.868051 0.276802
0.906643 0.221820
0.906639 0.221820
0.843789 0.221820
0.868051 0.221820
0.956425 0.221820
0.956429 0.221820
0.843789 0.276802
0.930907 0.221820
0.906644 0.221820
0.880265 0.221820
0.894421 0.221820
0.894420 0.276802
0.880261 0.276802
0.880261 0.221820
0.894420 0.221820
0.880265 0.221820
0.894424 0.221820
0.894424 0.276802
0.880265 0.276802
0.894422 0.276802
0.880266 0.276802
0.880266 0.221820
0.894422 0.221820
0.956425 0.276802
0.906639 0.276802
0.906639 0.221820
0.956426 0.221820
0.956426 0.276802
0.906639 0.276802
0.880265 0.276802
0.868042 0.276802
0.906644 0.276802
0.894422 0.276802
0.906646 0.221820
0.956433 0.221820
0.956433 0.276802
0.906646 0.276802
0.956429 0.276802
0.906643 0.276802
0.843789 0.207048
0.868051 0.221820
0.843789 0.221820
0.930916 0.207048
0.894431 0.221820
0.880274 0.221820
0.930916 0.221820
0.906654 0.221820
0.906654 0.276802
0.894431 0.276802
0.894402 0.221820
0.843789 0.221820
0.868051 0.276802
0.868051 0.221820
0.843789 0.276802
0.880274 0.276802
0.868051 0.276802
0.880243 0.276802
0.880243 0.221820
0.894425 0.221820
0.894425 0.276802
0.843780 0.207048
0.868042 0.221820
0.843780 0.221820
0.930907 0.207048
0.894402 0.276802
0.880246 0.276802
0.880246 0.221820
0.938196 0.207048
0.868051 0.276802
0.906643 0.221820
0.906639 0.221820
0.843789 0.221820
0.868051 0.221820
0.956425 0.221820
0.956429 0.221820
0.843789 0.276802
0.930907 0.221820
0.906644 0.221820
0.880265 0.221820
0.894421 0.221820
0.894420 0.276802
0.880261 0.276802
0.880261 0.221820
0.894420 0.221820
0.880265 0.221820
0.894424 0.221820
0.894424 0.276802
0.880265 0.276802
0.868043 0.276833
0.843782 0.221825
0.843785 0.276833
0.868040 0.221825
0.956426 0.221825
0.938196 0.221825
0.970668 0.221825
0.970668 0.276813
0.894409 0.221812
0.894409 0.276802
0.880278 0.276802
0.880155 0.221812
0.938197 0.207048
0.956427 0.221820
0.938197 0.221820
0.970669 0.221820
0.880278 0.276802
0.880155 0.221812
0.894408 0.221812
0.894408 0.276802
0.843784 0.221821
0.868040 0.276837
0.956426 0.276813
0.988897 0.207048
0.843782 0.276837
0.868043 0.221821
0.970669 0.276808
0.956427 0.276808
0.880167 0.221811
0.894409 0.221811
0.894409 0.276801
0.880290 0.276801
0.988897 0.221825
0.894422 0.276802
0.880266 0.276802
0.880266 0.221820
0.894422 0.221820
0.956425 0.276802
0.906639 0.276802
0.906639 0.221820
0.956426 0.221820
0.956426 0.276802
0.906639 0.276802
0.880265 0.276802
0.868042 0.276802
0.906644 0.276802
0.894422 0.276802
0.906646 0.221820
0.956433 0.221820
0.956433 0.276802
0.906646 0.276802
0.956429 0.276802
0.906643 0.276802
0.988899 0.207048
0.988899 0.221820
0.906636 0.221819
0.956425 0.221819
0.956425 0.276807
0.906636 0.276807
0.906636 0.221818
0.956425 0.221818
0.956425 0.276806
0.906636 0.276807
0.938196 0.207048
0.868043 0.276833
0.843782 0.221825
0.843785 0.276833
0.868040 0.221825
0.956426 0.221825
0.938196 0.221825
0.970668 0.221825
0.970668 0.276813
0.894409 0.221812
0.894409 0.276802
0.880278 0.276802
0.880155 0.221812
0.938197 0.207048
0.956427 0.221820
0.938197 0.221820
0.970669 0.221820
0.880278 0.276802
0.880155 0.221812
0.894408 0.221812
0.894408 0.276802
0.843784 0.221821
0.868040 0.276837
0.956426 0.276813
0.988897 0.207048
0.843782 0.276837
0.868043 0.221821
0.970669 0.276808
0.956427 0.276808
0.880167 0.221811
0.894409 0.221811
0.894409 0.276801
0.880290 0.276801
0.988897 0.221825
0.988899 0.207048
0.988899 0.221820
0.906636 0.221819
0.956425 0.221819
0.956425 0.276807
0.906636 0.276807
0.906636 0.221818
0.956425 0.221818
0.956425 0.276806
0.906636 0.276807
</float_array>
          <technique_common>
            <accessor source="#Object449-UV0-array" count="224" stride="2">
              <param name="S" type="float"/>
              <param name="T" type="float"/>
            </accessor>
          </technique_common>
        </source>
        <vertices id="Object449-VERTEX">
          <input semantic="POSITION" source="#Object449-POSITION"/>
        </vertices>
        <triangles count="136" material="electric_cabin">
          <input semantic="VERTEX" offset="0" source="#Object449-VERTEX"/>
          <input semantic="NORMAL" offset="1" source="#Object449-Normal0"/>
          <input semantic="TEXCOORD" offset="2" set="0" source="#Object449-UV0"/>
          <p> 10 0 49 13 1 50 14 2 51 14 3 51 9 4 48 10 5 49 0 6 0 8 7 1 4 8 2 1 9 17 3 10 18 7 11 19 7 12 19 5 13 20 1 14 17 3 15 21 12 16 22 7 17 23 2 18 10 0 19 25 4 20 26 4 21 26 6 22 27 2 23 10 5 24 14 7 25 31 12 26 32 12 27 32 11 28 12 5 29 14 17 30 41 18 31 42 19 32 43 19 33 43 16 34 40 17 35 41 6 36 13 4 37 28 8 38 35 8 39 35 15 40 11 6 41 13 23 42 45 20 43 46 21 44 47 21 45 47 22 46 44 23 47 45 2 48 24 6 49 36 15 50 37 3 51 21 13 52 38 12 53 22 2 54 24 14 55 39 13 56 38 13 57 38 3 58 21 2 59 24 2 60 24 15 61 37 14 62 39 1 63 3 10 64 4 9 65 5 9 66 5 0 67 0 1 68 3 0 69 0 9 70 5 8 71 1 1 72 3 5 73 6 11 74 7 1 75 3 11 76 7 10 77 4 10 78 4 11 79 7 17 80 8 17 81 8 16 82 9 10 83 4 11 84 54 12 85 55 18 86 56 18 87 56 17 88 57 11 89 54 12 90 22 13 91 38 19 92 58 19 93 58 18 94 59 12 95 22 13 96 30 10 97 33 16 98 52 16 99 52 19 100 53 13 101 30 8 102 1 9 103 5 21 104 15 21 105 15 20 106 16 8 107 1 9 108 29 14 109 34 22 110 66 22 111 66 21 112 67 9 113 29 14 114 39 15 115 37 23 116 60 23 117 60 22 118 61 14 119 39 15 120 62 8 121 63 20 122 64 20 123 64 23 124 65 15 125 62 34 126 151 37 127 152 38 128 153 38 129 153 33 130 150 34 131 151 24 132 68 32 133 69 28 134 70 25 135 85 27 136 86 31 137 87 31 138 87 29 139 88 25 140 85 27 141 89 36 142 90 31 143 91 26 144 78 24 145 93 28 146 94 28 147 94 30 148 95 26 149 78 29 150 82 31 151 100 36 152 101 36 153 101 35 154 80 29 155 82 41 156 110 42 157 111 43 158 112 43 159 112 40 160 109 41 161 110 30 162 81 28 163 97 32 164 104 32 165 104 39 166 79 30 167 81 47 168 114 44 169 115 45 170 116 45 171 116 46 172 113 47 173 114 26 174 92 30 175 105 39 176 106 27 177 89 37 178 107 36 179 90 26 180 92 38 181 108 37 182 107 37 183 107 27 184 89 26 185 92 26 186 92 39 187 106 38 188 108 25 189 71 34 190 72 33 191 73 33 192 73 24 193 68 25 194 71 24 195 68 33 196 73 32 197 69 25 198 71 29 199 74 35 200 75 25 201 71 35 202 75 34 203 72 34 204 72 35 205 75 41 206 76 41 207 76 40 208 77 34 209 72 35 210 156 36 211 157 42 212 158 42 213 158 41 214 159 35 215 156 36 216 90 37 217 107 43 218 160 43 219 160 42 220 161 36 221 90 37 222 99 34 223 102 40 224 154 40 225 154 43 226 155 37 227 99 32 228 69 33 229 73 45 230 83 45 231 83 44 232 84 32 233 69 33 234 98 38 235 103 46 236 168 46 237 168 45 238 169 33 239 98 38 240 108 39 241 106 47 242 162 47 243 162 46 244 163 38 245 108 39 246 164 32 247 165 44 248 166 44 249 166 47 250 167 39 251 164 61 252 146 62 253 147 63 254 148 63 255 148 60 256 145 61 257 146 48 258 96 56 259 121 52 260 122 49 261 125 51 262 126 55 263 127 55 264 127 53 265 128 49 266 125 51 267 129 58 268 130 55 269 131 50 270 133 48 271 134 52 272 135 52 273 135 54 274 136 50 275 133 53 276 120 55 277 138 58 278 141 58 279 141 57 280 118 53 281 120 54 282 119 52 283 137 56 284 142 56 285 142 59 286 117 54 287 119 56 288 121 57 289 123 61 290 124 61 291 124 60 292 139 56 293 121 57 294 176 58 295 177 62 296 178 62 297 178 61 298 179 57 299 176 58 300 130 59 301 132 63 302 143 63 303 143 62 304 144 58 305 130 59 306 172 56 307 173 60 308 174 60 309 174 63 310 175 59 311 172 50 312 170 54 313 171 59 314 132 49 315 140 57 316 123 56 317 121 56 318 121 48 319 96 49 320 140 51 321 129 50 322 170 59 323 132 59 324 132 58 325 130 51 326 129 49 327 140 53 328 149 57 329 123 77 330 210 78 331 211 79 332 212 79 333 212 76 334 209 77 335 210 64 336 180 72 337 185 68 338 186 65 339 189 67 340 190 71 341 191 71 342 191 69 343 192 65 344 189 67 345 193 74 346 194 71 347 195 66 348 197 64 349 198 68 350 199 68 351 199 70 352 200 66 353 197 69 354 184 71 355 202 74 356 205 74 357 205 73 358 182 69 359 184 70 360 183 68 361 201 72 362 206 72 363 206 75 364 181 70 365 183 72 366 185 73 367 187 77 368 188 77 369 188 76 370 203 72 371 185 73 372 220 74 373 221 78 374 222 78 375 222 77 376 223 73 377 220 74 378 194 75 379 196 79 380 207 79 381 207 78 382 208 74 383 194 75 384 216 72 385 217 76 386 218 76 387 218 79 388 219 75 389 216 66 390 214 70 391 215 75 392 196 65 393 204 73 394 187 72 395 185 72 396 185 64 397 180 65 398 204 67 399 193 66 400 214 75 401 196 75 402 196 74 403 194 67 404 193 65 405 204 69 406 213 73 407 187</p>
        </triangles>
      </mesh>
    </geometry>
    <geometry id="Object450-lib" name="Object450Mesh">
      <mesh>
        <source id="Object450-POSITION">
          <float_array id="Object450-POSITION-array" count="72">
0.011217 -0.148876 -0.020545
0.022943 -0.148876 -0.000235
0.011217 -0.148876 0.020075
-0.012235 -0.148876 0.020075
-0.023961 -0.148876 -0.000235
-0.012235 -0.148876 -0.020545
0.011217 -0.169772 -0.020545
0.022943 -0.169772 -0.000235
0.011217 -0.169772 0.020075
-0.012235 -0.169772 0.020075
-0.023961 -0.169772 -0.000235
-0.012235 -0.169772 -0.020545
0.020746 0.151770 -0.010147
0.001535 0.151770 -0.023598
-0.019720 0.151770 -0.013687
-0.021764 0.151770 0.009676
-0.002553 0.151770 0.023128
0.018702 0.151770 0.013216
0.020746 0.172666 -0.010147
0.001535 0.172666 -0.023598
-0.019720 0.172666 -0.013687
-0.021764 0.172666 0.009676
-0.002553 0.172666 0.023128
0.018702 0.172666 0.013216
</float_array>
          <technique_common>
            <accessor source="#Object450-POSITION-array" count="24" stride="3">
              <param name="X" type="float"/>
              <param name="Y" type="float"/>
              <param name="Z" type="float"/>
            </accessor>
          </technique_common>
        </source>
        <source id="Object450-Normal0">
          <float_array id="Object450-Normal0-array" count="288">
0.866026 0.000000 -0.500000
0.866026 0.000000 -0.500000
0.866026 0.000000 -0.500000
0.866027 0.000003 -0.499998
0.866027 0.000003 -0.499998
0.866027 0.000003 -0.499998
0.866024 -0.000002 0.500002
0.866024 -0.000002 0.500002
0.866024 -0.000002 0.500002
0.866026 -0.000005 0.500000
0.866026 -0.000005 0.500000
0.866026 -0.000005 0.500000
0.000000 0.000000 1.000000
0.000000 0.000000 1.000000
0.000000 0.000000 1.000000
0.000000 0.000000 1.000000
0.000000 0.000000 1.000000
0.000000 0.000000 1.000000
-0.866024 -0.000000 0.500002
-0.866024 -0.000000 0.500002
-0.866024 -0.000000 0.500002
-0.866025 0.000002 0.500000
-0.866026 0.000002 0.500000
-0.866026 0.000002 0.500000
-0.866027 0.000002 -0.499998
-0.866027 0.000002 -0.499998
-0.866027 0.000002 -0.499998
-0.866026 0.000005 -0.500000
-0.866026 0.000005 -0.500000
-0.866026 0.000005 -0.500000
0.000005 0.000006 -1.000000
0.000005 0.000006 -1.000000
0.000005 0.000006 -1.000000
0.000000 0.000000 -1.000000
0.000000 0.000000 -1.000000
0.000000 0.000000 -1.000000
0.000000 -1.000000 -0.000006
0.000000 -1.000000 -0.000006
0.000000 -1.000000 -0.000006
-0.000005 -1.000000 -0.000003
-0.000005 -1.000000 -0.000003
-0.000005 -1.000000 -0.000003
0.000002 -1.000000 -0.000003
0.000002 -1.000000 -0.000003
0.000002 -1.000000 -0.000003
0.000000 -1.000000 0.000000
0.000000 -1.000000 0.000000
0.000000 -1.000000 0.000000
0.573577 0.000003 -0.819152
0.573577 0.000003 -0.819152
0.573577 0.000003 -0.819152
0.573575 0.000000 -0.819153
0.573575 0.000000 -0.819153
0.573575 0.000000 -0.819153
-0.422621 0.000001 -0.906307
-0.422621 0.000001 -0.906307
-0.422621 0.000001 -0.906307
-0.422617 0.000006 -0.906309
-0.422617 0.000006 -0.906309
-0.422617 0.000006 -0.906309
-0.996195 0.000003 -0.087157
-0.996195 0.000003 -0.087157
-0.996195 0.000003 -0.087157
-0.996195 0.000003 -0.087157
-0.996195 0.000003 -0.087157
-0.996195 0.000003 -0.087157
-0.573577 0.000000 0.819152
-0.573577 0.000000 0.819152
-0.573577 0.000000 0.819152
-0.573578 0.000002 0.819151
-0.573578 0.000002 0.819151
-0.573578 0.000002 0.819151
0.422620 0.000000 0.906307
0.422620 0.000000 0.906307
0.422620 0.000000 0.906307
0.422620 0.000000 0.906307
0.422620 0.000000 0.906307
0.422620 0.000000 0.906307
0.996195 0.000000 0.087154
0.996195 0.000000 0.087154
0.996195 0.000000 0.087154
0.996195 0.000000 0.087154
0.996195 0.000000 0.087154
0.996195 0.000000 0.087154
0.000000 1.000000 0.000000
0.000000 1.000000 0.000000
0.000000 1.000000 0.000000
0.000000 1.000000 0.000000
0.000000 1.000000 0.000000
0.000000 1.000000 0.000000
0.000000 1.000000 0.000000
0.000000 1.000000 0.000000
0.000000 1.000000 0.000000
0.000000 1.000000 0.000000
0.000000 1.000000 0.000000
0.000000 1.000000 0.000000
</float_array>
          <technique_common>
            <accessor source="#Object450-Normal0-array" count="96" stride="3">
              <param name="X" type="float"/>
              <param name="Y" type="float"/>
              <param name="Z" type="float"/>
            </accessor>
          </technique_common>
        </source>
        <source id="Object450-UV0">
          <float_array id="Object450-UV0-array" count="80">
0.693951 0.294134
0.612102 0.294134
0.612102 0.369655
0.693951 0.369655
0.611692 0.294134
0.693992 0.294134
0.693992 0.369655
0.611692 0.369655
0.611713 0.294134
0.693582 0.294134
0.693971 0.294134
0.693971 0.369654
0.693582 0.369655
0.611713 0.369655
0.615292 0.048714
0.636892 0.011303
0.680091 0.011303
0.701690 0.048714
0.680091 0.086125
0.636892 0.086125
0.693951 0.294134
0.612102 0.294134
0.612102 0.369655
0.693951 0.369655
0.611692 0.294134
0.693992 0.294134
0.693992 0.369655
0.611692 0.369655
0.611713 0.294134
0.693582 0.294134
0.693971 0.294134
0.693971 0.369654
0.693582 0.369655
0.611713 0.369655
0.615292 0.048714
0.636892 0.011303
0.680091 0.011303
0.701690 0.048714
0.680091 0.086125
0.636892 0.086125
</float_array>
          <technique_common>
            <accessor source="#Object450-UV0-array" count="40" stride="2">
              <param name="S" type="float"/>
              <param name="T" type="float"/>
            </accessor>
          </technique_common>
        </source>
        <vertices id="Object450-VERTEX">
          <input semantic="POSITION" source="#Object450-POSITION"/>
        </vertices>
        <triangles count="32" material="gauges">
          <input semantic="VERTEX" offset="0" source="#Object450-VERTEX"/>
          <input semantic="NORMAL" offset="1" source="#Object450-Normal0"/>
          <input semantic="TEXCOORD" offset="2" set="0" source="#Object450-UV0"/>
          <p> 0 0 8 1 1 9 7 2 12 7 3 12 6 4 13 0 5 8 1 6 0 2 7 1 8 8 2 8 9 2 7 10 3 1 11 0 2 12 1 3 13 10 9 14 11 9 15 11 8 16 2 2 17 1 3 18 10 4 19 4 10 20 7 10 21 7 9 22 11 3 23 10 4 24 4 5 25 5 11 26 6 11 27 6 10 28 7 4 29 4 5 30 5 0 31 8 6 32 13 6 33 13 11 34 6 5 35 5 7 36 15 8 37 16 9 38 17 9 39 17 10 40 18 11 41 19 7 42 15 9 43 17 11 44 19 6 45 14 7 46 15 11 47 19 12 48 28 13 49 29 19 50 32 19 51 32 18 52 33 12 53 28 13 54 20 14 55 21 20 56 22 20 57 22 19 58 23 13 59 20 14 60 21 15 61 30 21 62 31 21 63 31 20 64 22 14 65 21 15 66 30 16 67 24 22 68 27 22 69 27 21 70 31 15 71 30 16 72 24 17 73 25 23 74 26 23 75 26 22 76 27 16 77 24 17 78 25 12 79 28 18 80 33 18 81 33 23 82 26 17 83 25 19 84 35 20 85 36 21 86 37 21 87 37 22 88 38 23 89 39 19 90 35 21 91 37 23 92 39 18 93 34 19 94 35 23 95 39</p>
        </triangles>
      </mesh>
    </geometry>
    <geometry id="Object458-lib" name="Object458Mesh">
      <mesh>
        <source id="Object458-POSITION">
          <float_array id="Object458-POSITION-array" count="192">
-0.013605 0.001324 0.364019
-0.009743 -0.007998 0.364019
-0.000421 -0.011860 0.364019
0.008901 -0.007998 0.364019
0.012763 0.001324 0.364019
0.008901 0.010646 0.364019
-0.000421 0.014508 0.364019
-0.009743 0.010646 0.364019
-0.024647 0.001324 0.416249
-0.017552 -0.015806 0.416249
-0.000421 -0.022902 0.416249
0.016709 -0.015806 0.416249
0.023805 0.001324 0.416249
0.016709 0.018455 0.416249
-0.000421 0.025550 0.416249
-0.017552 0.018455 0.416249
-0.024647 0.001324 0.557186
-0.017552 -0.015806 0.557186
-0.000421 -0.022902 0.557186
0.016709 -0.015806 0.557186
0.023805 0.001324 0.557186
0.016709 0.018455 0.557186
-0.000421 0.025550 0.557186
-0.017552 0.018455 0.557186
-0.020238 0.001324 0.577342
-0.014434 -0.012688 0.577342
-0.000421 -0.018492 0.577342
0.013591 -0.012688 0.577342
0.019395 0.001324 0.577342
0.013591 0.015337 0.577342
-0.000421 0.021141 0.577342
-0.014434 0.015337 0.577342
0.020327 0.115517 0.020511
-0.000232 0.115517 0.029027
-0.020792 0.115517 0.020511
-0.029307 0.115517 -0.000048
-0.020792 0.115517 -0.020607
-0.000232 0.115517 -0.029123
0.020327 0.115517 -0.020607
0.028842 0.115517 -0.000048
0.020327 -0.113402 0.020511
-0.000232 -0.113402 0.029027
-0.020792 -0.113402 0.020511
-0.029307 -0.113402 -0.000048
-0.020792 -0.113402 -0.020607
-0.000232 -0.113402 -0.029123
0.020327 -0.113402 -0.020607
0.028842 -0.113402 -0.000048
0.026658 -0.112930 -0.023400
0.026658 -0.112930 0.347746
-0.027501 -0.112930 -0.023400
-0.027501 -0.112930 0.347746
0.026658 -0.130585 -0.023400
0.026658 -0.130585 0.365248
-0.027501 -0.130585 -0.023400
-0.027501 -0.130585 0.365248
0.026658 0.115578 0.347746
-0.027501 0.115578 0.347746
-0.027501 0.133234 0.365248
0.026658 0.133234 0.365248
0.026658 0.133234 -0.023400
-0.027501 0.133234 -0.023400
0.026658 0.115578 -0.023400
-0.027501 0.115578 -0.023400
</float_array>
          <technique_common>
            <accessor source="#Object458-POSITION-array" count="64" stride="3">
              <param name="X" type="float"/>
              <param name="Y" type="float"/>
              <param name="Z" type="float"/>
            </accessor>
          </technique_common>
        </source>
        <source id="Object458-Normal0">
          <float_array id="Object458-Normal0-array" count="882">
-0.978373 -0.000000 -0.206847
-0.691814 -0.691815 -0.206846
-0.703456 -0.703460 -0.101459
-0.703456 -0.703460 -0.101459
-0.994840 0.000000 -0.101459
-0.978373 -0.000000 -0.206847
-0.691814 -0.691815 -0.206846
-0.000001 -0.978373 -0.206846
-0.000000 -0.994840 -0.101459
-0.000000 -0.994840 -0.101459
-0.703456 -0.703460 -0.101459
-0.691814 -0.691815 -0.206846
-0.000001 -0.978373 -0.206846
0.691815 -0.691814 -0.206847
0.703456 -0.703460 -0.101459
0.703456 -0.703460 -0.101459
-0.000000 -0.994840 -0.101459
-0.000001 -0.978373 -0.206846
0.691815 -0.691814 -0.206847
0.978373 0.000000 -0.206847
0.994840 -0.000000 -0.101459
0.994840 -0.000000 -0.101459
0.703456 -0.703460 -0.101459
0.691815 -0.691814 -0.206847
0.978373 0.000000 -0.206847
0.691814 0.691815 -0.206846
0.703456 0.703460 -0.101459
0.703456 0.703460 -0.101459
0.994840 -0.000000 -0.101459
0.978373 0.000000 -0.206847
0.691814 0.691815 -0.206846
0.000001 0.978373 -0.206846
0.000000 0.994840 -0.101459
0.000000 0.994840 -0.101459
0.703456 0.703460 -0.101459
0.691814 0.691815 -0.206846
0.000001 0.978373 -0.206846
-0.691815 0.691814 -0.206847
-0.703456 0.703460 -0.101459
-0.703456 0.703460 -0.101459
0.000000 0.994840 -0.101459
0.000001 0.978373 -0.206846
-0.691815 0.691814 -0.206847
-0.978373 -0.000000 -0.206847
-0.994840 0.000000 -0.101459
-0.994840 0.000000 -0.101459
-0.703456 0.703460 -0.101459
-0.691815 0.691814 -0.206847
-0.498512 -0.498513 0.709204
0.000000 -0.705004 0.709204
0.498512 -0.498514 0.709204
0.498512 -0.498514 0.709204
0.705004 0.000000 0.709203
0.498512 0.498513 0.709204
0.498512 0.498513 0.709204
-0.000000 0.705004 0.709204
-0.498512 0.498514 0.709204
0.498512 -0.498514 0.709204
0.498512 0.498513 0.709204
-0.498512 0.498514 0.709204
-0.498512 -0.498513 0.709204
0.498512 -0.498514 0.709204
-0.498512 0.498514 0.709204
-0.705004 -0.000000 0.709203
-0.498512 -0.498513 0.709204
-0.498512 0.498514 0.709204
-0.994840 0.000000 -0.101459
-0.703456 -0.703460 -0.101459
-0.703212 -0.703215 0.104788
-0.703212 -0.703215 0.104788
-0.994495 -0.000000 0.104788
-0.994840 0.000000 -0.101459
-0.703456 -0.703460 -0.101459
-0.000000 -0.994840 -0.101459
0.000000 -0.994495 0.104788
0.000000 -0.994495 0.104788
-0.703212 -0.703215 0.104788
-0.703456 -0.703460 -0.101459
-0.000000 -0.994840 -0.101459
0.703456 -0.703460 -0.101459
0.703212 -0.703216 0.104788
0.703212 -0.703216 0.104788
0.000000 -0.994495 0.104788
-0.000000 -0.994840 -0.101459
0.703456 -0.703460 -0.101459
0.994840 -0.000000 -0.101459
0.994495 0.000000 0.104788
0.994495 0.000000 0.104788
0.703212 -0.703216 0.104788
0.703456 -0.703460 -0.101459
0.994840 -0.000000 -0.101459
0.703456 0.703460 -0.101459
0.703212 0.703215 0.104788
0.703212 0.703215 0.104788
0.994495 0.000000 0.104788
0.994840 -0.000000 -0.101459
0.703456 0.703460 -0.101459
0.000000 0.994840 -0.101459
-0.000000 0.994495 0.104788
-0.000000 0.994495 0.104788
0.703212 0.703215 0.104788
0.703456 0.703460 -0.101459
0.000000 0.994840 -0.101459
-0.703456 0.703460 -0.101459
-0.703212 0.703216 0.104788
-0.703212 0.703216 0.104788
-0.000000 0.994495 0.104788
0.000000 0.994840 -0.101459
-0.703456 0.703460 -0.101459
-0.994840 0.000000 -0.101459
-0.994495 -0.000000 0.104788
-0.994495 -0.000000 0.104788
-0.703212 0.703216 0.104788
-0.703456 0.703460 -0.101459
-0.994495 -0.000000 0.104788
-0.703212 -0.703215 0.104788
-0.498512 -0.498513 0.709204
-0.498512 -0.498513 0.709204
-0.705004 -0.000000 0.709203
-0.994495 -0.000000 0.104788
-0.703212 -0.703215 0.104788
0.000000 -0.994495 0.104788
0.000000 -0.705004 0.709204
0.000000 -0.705004 0.709204
-0.498512 -0.498513 0.709204
-0.703212 -0.703215 0.104788
0.000000 -0.994495 0.104788
0.703212 -0.703216 0.104788
0.498512 -0.498514 0.709204
0.498512 -0.498514 0.709204
0.000000 -0.705004 0.709204
0.000000 -0.994495 0.104788
0.703212 -0.703216 0.104788
0.994495 0.000000 0.104788
0.705004 0.000000 0.709203
0.705004 0.000000 0.709203
0.498512 -0.498514 0.709204
0.703212 -0.703216 0.104788
0.994495 0.000000 0.104788
0.703212 0.703215 0.104788
0.498512 0.498513 0.709204
0.498512 0.498513 0.709204
0.705004 0.000000 0.709203
0.994495 0.000000 0.104788
0.703212 0.703215 0.104788
-0.000000 0.994495 0.104788
-0.000000 0.705004 0.709204
-0.000000 0.705004 0.709204
0.498512 0.498513 0.709204
0.703212 0.703215 0.104788
-0.000000 0.994495 0.104788
-0.703212 0.703216 0.104788
-0.498512 0.498514 0.709204
-0.498512 0.498514 0.709204
-0.000000 0.705004 0.709204
-0.000000 0.994495 0.104788
-0.703212 0.703216 0.104788
-0.994495 -0.000000 0.104788
-0.705004 -0.000000 0.709203
-0.705004 -0.000000 0.709203
-0.498512 0.498514 0.709204
-0.703212 0.703216 0.104788
0.707107 0.000000 0.707107
0.000000 -0.000000 1.000000
-0.000000 0.000000 1.000000
-0.000000 0.000000 1.000000
0.707107 0.000000 0.707107
0.707107 0.000000 0.707107
0.000000 -0.000000 1.000000
-0.707106 -0.000000 0.707107
-0.707107 -0.000000 0.707107
-0.707107 -0.000000 0.707107
-0.000000 0.000000 1.000000
0.000000 -0.000000 1.000000
-0.707106 -0.000000 0.707107
-1.000000 -0.000000 0.000000
-1.000000 -0.000000 -0.000000
-1.000000 -0.000000 -0.000000
-0.707107 -0.000000 0.707107
-0.707106 -0.000000 0.707107
-1.000000 -0.000000 0.000000
-0.707106 -0.000000 -0.707107
-0.707107 -0.000000 -0.707107
-0.707107 -0.000000 -0.707107
-1.000000 -0.000000 -0.000000
-1.000000 -0.000000 0.000000
-0.707106 -0.000000 -0.707107
0.000000 0.000000 -1.000000
0.000000 -0.000000 -1.000000
0.000000 -0.000000 -1.000000
-0.707107 -0.000000 -0.707107
-0.707106 -0.000000 -0.707107
0.000000 0.000000 -1.000000
0.707107 0.000000 -0.707107
0.707107 0.000000 -0.707107
0.707107 0.000000 -0.707107
0.000000 -0.000000 -1.000000
0.000000 0.000000 -1.000000
0.707107 0.000000 -0.707107
1.000000 0.000000 -0.000000
1.000000 0.000000 0.000000
1.000000 0.000000 0.000000
0.707107 0.000000 -0.707107
0.707107 0.000000 -0.707107
1.000000 0.000000 -0.000000
0.707107 0.000000 0.707107
0.707107 0.000000 0.707107
0.707107 0.000000 0.707107
1.000000 0.000000 0.000000
1.000000 0.000000 -0.000000
0.000000 1.000000 0.000000
0.000000 1.000000 0.000000
0.000000 1.000000 0.000000
0.000000 1.000000 0.000000
0.000000 1.000000 0.000000
0.000000 1.000000 0.000000
0.000000 -1.000000 0.000000
0.000000 -1.000000 0.000000
0.000000 -1.000000 0.000000
0.000000 -1.000000 0.000000
0.000000 -1.000000 0.000000
0.000000 -1.000000 0.000000
1.000000 0.000000 0.000000
1.000000 0.000000 0.000000
1.000000 0.000000 0.000000
1.000000 0.000000 0.000000
1.000000 0.000000 0.000000
1.000000 0.000000 0.000000
-1.000000 0.000000 0.000000
-1.000000 0.000000 0.000000
-1.000000 0.000000 0.000000
-1.000000 0.000000 0.000000
-1.000000 0.000000 0.000000
-1.000000 0.000000 0.000000
0.000000 0.000000 -1.000000
0.000000 0.000000 -1.000000
0.000000 0.000000 -1.000000
0.000000 0.000000 -1.000000
0.000000 0.000000 -1.000000
0.000000 0.000000 -1.000000
0.000000 0.000000 -1.000000
0.000000 0.000000 -1.000000
0.000000 0.000000 -1.000000
0.000000 0.000000 -1.000000
0.000000 0.000000 -1.000000
0.000000 0.000000 -1.000000
-1.000000 -0.000000 -0.000000
-1.000000 -0.000000 -0.000000
-1.000000 -0.000000 -0.000000
-1.000000 0.000000 -0.000003
-1.000000 0.000000 -0.000003
-1.000000 0.000000 -0.000003
0.000000 0.000000 1.000000
0.000000 0.000000 1.000000
0.000000 0.000000 1.000000
0.000000 0.000000 1.000000
0.000000 0.000000 1.000000
0.000000 0.000000 1.000000
1.000000 0.000000 0.000000
1.000000 0.000000 0.000000
1.000000 0.000000 0.000000
1.000000 0.000000 0.000000
1.000000 0.000000 0.000000
1.000000 0.000000 0.000000
0.000000 1.000000 0.000000
0.000000 1.000000 0.000000
0.000000 1.000000 0.000000
0.000000 1.000000 0.000000
0.000000 1.000000 0.000000
0.000000 1.000000 0.000000
0.000000 -1.000000 0.000000
0.000000 -1.000000 0.000000
0.000000 -1.000000 0.000000
-0.000002 -1.000000 0.000000
-0.000002 -1.000000 0.000000
-0.000002 -1.000000 0.000000
1.000000 0.000000 0.000000
1.000000 0.000000 0.000000
1.000000 0.000000 0.000000
1.000000 0.000000 0.000000
1.000000 0.000000 0.000000
1.000000 0.000000 0.000000
-1.000000 0.000000 0.000000
-1.000000 0.000000 0.000000
-1.000000 0.000000 0.000000
-1.000000 -0.000004 0.000000
-1.000000 -0.000004 0.000000
-1.000000 -0.000004 0.000000
0.000000 0.000000 -1.000000
0.000000 0.000000 -1.000000
0.000000 0.000000 -1.000000
0.000000 0.000000 -1.000000
0.000000 0.000000 -1.000000
0.000000 0.000000 -1.000000
</float_array>
          <technique_common>
            <accessor source="#Object458-Normal0-array" count="294" stride="3">
              <param name="X" type="float"/>
              <param name="Y" type="float"/>
              <param name="Z" type="float"/>
            </accessor>
          </technique_common>
        </source>
        <source id="Object458-UV0">
          <float_array id="Object458-UV0-array" count="236">
0.600580 0.067039
0.633632 0.067039
0.722821 0.067039
0.735576 0.067039
0.600580 0.153764
0.600580 0.132083
0.600580 0.110402
0.600580 0.088721
0.633632 0.088721
0.600580 0.142942
0.633632 0.132083
0.633632 0.142924
0.600580 0.121443
0.633632 0.110402
0.633632 0.121242
0.633632 0.099561
0.722821 0.132083
0.722821 0.142924
0.722821 0.121242
0.735576 0.132083
0.600580 0.099580
0.633632 0.077880
0.722821 0.088721
0.807019 0.408688
0.735576 0.121210
0.722821 0.099561
0.722821 0.110402
0.722821 0.077880
0.735576 0.088721
0.633632 0.153764
0.600580 0.077862
0.722821 0.153764
0.735576 0.142891
0.735576 0.153764
0.735576 0.077730
0.806896 0.421251
0.797925 0.430047
0.785362 0.429924
0.776566 0.420954
0.776689 0.408390
0.785659 0.399594
0.798222 0.399717
0.735576 0.110402
0.735576 0.099529
0.878279 0.067923
0.878279 0.164898
0.878279 0.140654
0.878279 0.128532
0.878279 0.152776
0.878279 0.080045
0.878279 0.092167
0.743306 0.140654
0.743306 0.128532
0.743306 0.164898
0.743306 0.152776
0.743306 0.080045
0.878279 0.104289
0.878279 0.116410
0.743306 0.092167
0.743306 0.067923
0.743306 0.116410
0.743306 0.104289
0.943671 0.046961
0.943671 0.007253
0.970512 0.007253
0.970512 0.046961
0.957556 0.007227
0.794891 0.007227
0.794891 0.046935
0.957556 0.046935
0.944657 0.046894
0.672541 0.046894
0.659709 0.059838
0.944657 0.059838
0.672643 0.046850
0.944758 0.046850
0.944758 0.059794
0.659811 0.059794
0.908052 0.059788
0.868344 0.059788
0.868344 0.046843
0.908052 0.046843
0.976541 0.046906
0.989486 0.059738
0.945784 0.007227
0.945784 0.046935
0.988281 0.046935
0.988281 0.007227
0.944669 0.046961
0.800045 0.046961
0.800045 0.007253
0.944669 0.007253
0.944754 0.059796
0.944754 0.046852
0.799786 0.059733
0.812730 0.046901
0.944652 0.059840
0.944652 0.046896
0.908061 0.059774
0.868353 0.059774
0.868353 0.046830
0.908061 0.046830
0.809004 0.046906
0.796060 0.059738
0.980267 0.046901
0.993212 0.059733
0.672638 0.046852
0.659806 0.059796
0.659704 0.059840
0.672537 0.046896
0.653980 0.007227
0.653980 0.046935
0.671556 0.007253
0.671556 0.046961
0.672554 0.046961
0.672554 0.007253
0.660836 0.046935
0.660836 0.007227
</float_array>
          <technique_common>
            <accessor source="#Object458-UV0-array" count="118" stride="2">
              <param name="S" type="float"/>
              <param name="T" type="float"/>
            </accessor>
          </technique_common>
        </source>
        <vertices id="Object458-VERTEX">
          <input semantic="POSITION" source="#Object458-POSITION"/>
        </vertices>
        <triangles count="98" material="electric_cabin">
          <input semantic="VERTEX" offset="0" source="#Object458-VERTEX"/>
          <input semantic="NORMAL" offset="1" source="#Object458-Normal0"/>
          <input semantic="TEXCOORD" offset="2" set="0" source="#Object458-UV0"/>
          <p> 0 0 4 1 1 9 9 2 11 9 3 11 8 4 29 0 5 4 1 6 9 2 7 5 10 8 10 10 9 10 9 10 11 1 11 9 2 12 5 3 13 12 11 14 14 11 15 14 10 16 10 2 17 5 3 18 12 4 19 6 12 20 13 12 21 13 11 22 14 3 23 12 4 24 6 5 25 20 13 26 15 13 27 15 12 28 13 4 29 6 5 30 20 6 31 7 14 32 8 14 33 8 13 34 15 5 35 20 6 36 7 7 37 30 15 38 21 15 39 21 14 40 8 6 41 7 7 42 30 0 43 0 8 44 1 8 45 1 15 46 21 7 47 30 25 48 35 26 49 36 27 50 37 27 51 37 28 52 38 29 53 39 29 54 39 30 55 40 31 56 41 27 57 37 29 58 39 31 59 41 25 60 35 27 61 37 31 62 41 24 63 23 25 64 35 31 65 41 8 66 29 9 67 11 17 68 17 17 69 17 16 70 31 8 71 29 9 72 11 10 73 10 18 74 16 18 75 16 17 76 17 9 77 11 10 78 10 11 79 14 19 80 18 19 81 18 18 82 16 10 83 10 11 84 14 12 85 13 20 86 26 20 87 26 19 88 18 11 89 14 12 90 13 13 91 15 21 92 25 21 93 25 20 94 26 12 95 13 13 96 15 14 97 8 22 98 22 22 99 22 21 100 25 13 101 15 14 102 8 15 103 21 23 104 27 23 105 27 22 106 22 14 107 8 15 108 21 8 109 1 16 110 2 16 111 2 23 112 27 15 113 21 16 114 31 17 115 17 25 116 32 25 117 32 24 118 33 16 119 31 17 120 17 18 121 16 26 122 19 26 123 19 25 124 32 17 125 17 18 126 16 19 127 18 27 128 24 27 129 24 26 130 19 18 131 16 19 132 18 20 133 26 28 134 42 28 135 42 27 136 24 19 137 18 20 138 26 21 139 25 29 140 43 29 141 43 28 142 42 20 143 26 21 144 25 22 145 22 30 146 28 30 147 28 29 148 43 21 149 25 22 150 22 23 151 27 31 152 34 31 153 34 30 154 28 22 155 22 23 156 27 16 157 2 24 158 3 24 159 3 31 160 34 23 161 27 32 162 57 33 163 47 41 164 52 41 165 52 40 166 60 32 167 57 33 168 47 34 169 46 42 170 51 42 171 51 41 172 52 33 173 47 34 174 46 35 175 48 43 176 54 43 177 54 42 178 51 34 179 46 35 180 48 36 181 45 44 182 53 44 183 53 43 184 54 35 185 48 36 186 44 37 187 49 45 188 55 45 189 55 44 190 59 36 191 44 37 192 49 38 193 50 46 194 58 46 195 58 45 196 55 37 197 49 38 198 50 39 199 56 47 200 61 47 201 61 46 202 58 38 203 50 39 204 56 32 205 57 40 206 60 40 207 60 47 208 61 39 209 56 48 210 62 50 211 63 51 212 112 51 213 112 49 214 113 48 215 62 52 216 66 53 217 110 55 218 111 55 219 111 54 220 69 52 221 66 48 222 70 49 223 71 53 224 72 53 225 72 52 226 73 48 227 70 51 228 74 50 229 75 54 230 76 54 231 76 55 232 77 51 233 74 50 234 78 48 235 79 52 236 80 52 237 80 54 238 81 50 239 78 49 240 65 51 241 64 57 242 90 57 243 90 56 244 89 49 245 65 51 246 104 55 247 105 58 248 94 58 249 94 57 250 95 51 251 104 55 252 68 53 253 67 59 254 87 59 255 87 58 256 86 55 257 68 53 258 103 49 259 102 56 260 82 56 261 82 59 262 83 53 263 103 60 264 84 61 265 85 58 266 116 58 267 116 59 268 117 60 269 84 62 270 88 56 271 114 57 272 115 57 273 115 63 274 91 62 275 88 60 276 92 59 277 107 56 278 106 56 279 106 62 280 93 60 281 92 58 282 108 61 283 96 63 284 97 63 285 97 57 286 109 58 287 108 61 288 98 60 289 99 62 290 100 62 291 100 63 292 101 61 293 98</p>
        </triangles>
      </mesh>
    </geometry>
    <geometry id="Object459-lib" name="Object459Mesh">
      <mesh>
        <source id="Object459-POSITION">
          <float_array id="Object459-POSITION-array" count="96">
0.002929 0.168341 -0.012772
-0.007333 0.168341 -0.011420
-0.013634 0.168341 -0.003209
-0.012283 0.168341 0.007053
-0.004072 0.168341 0.013355
0.006191 0.168341 0.012003
0.012492 0.168341 0.003792
0.011141 0.168341 -0.006470
0.002929 0.183893 -0.012772
-0.007333 0.183893 -0.011420
-0.013634 0.183893 -0.003209
-0.012283 0.183893 0.007053
-0.004072 0.183893 0.013355
0.006191 0.183893 0.012003
0.012492 0.183893 0.003792
0.011141 0.183893 -0.006470
-0.004072 -0.168341 -0.012772
0.006191 -0.168341 -0.011420
0.012492 -0.168341 -0.003209
0.011141 -0.168341 0.007053
0.002929 -0.168341 0.013355
-0.007333 -0.168341 0.012003
-0.013634 -0.168341 0.003792
-0.012283 -0.168341 -0.006470
-0.004072 -0.183893 -0.012772
0.006191 -0.183893 -0.011420
0.012492 -0.183893 -0.003209
0.011141 -0.183893 0.007053
0.002929 -0.183893 0.013355
-0.007333 -0.183893 0.012003
-0.013634 -0.183893 0.003792
-0.012283 -0.183893 -0.006470
</float_array>
          <technique_common>
            <accessor source="#Object459-POSITION-array" count="32" stride="3">
              <param name="X" type="float"/>
              <param name="Y" type="float"/>
              <param name="Z" type="float"/>
            </accessor>
          </technique_common>
        </source>
        <source id="Object459-Normal0">
          <float_array id="Object459-Normal0-array" count="396">
0.258817 0.000000 -0.965926
-0.500002 0.000000 -0.866024
-0.500002 0.000000 -0.866024
-0.500002 0.000000 -0.866024
0.258817 0.000000 -0.965926
0.258817 0.000000 -0.965926
-0.500002 0.000000 -0.866024
-0.965925 0.000001 -0.258821
-0.965926 0.000000 -0.258819
-0.965926 0.000000 -0.258819
-0.500002 0.000000 -0.866024
-0.500002 0.000000 -0.866024
-0.965925 0.000001 -0.258821
-0.866027 0.000003 0.499998
-0.866026 0.000002 0.499999
-0.866026 0.000002 0.499999
-0.965926 0.000000 -0.258819
-0.965925 0.000001 -0.258821
-0.866027 0.000003 0.499998
-0.258815 0.000000 0.965927
-0.258816 0.000001 0.965927
-0.258816 0.000001 0.965927
-0.866026 0.000002 0.499999
-0.866027 0.000003 0.499998
-0.258815 0.000000 0.965927
0.500002 0.000000 0.866024
0.500002 0.000000 0.866024
0.500002 0.000000 0.866024
-0.258816 0.000001 0.965927
-0.258815 0.000000 0.965927
0.500002 0.000000 0.866024
0.965926 0.000000 0.258819
0.965926 0.000000 0.258819
0.965926 0.000000 0.258819
0.500002 0.000000 0.866024
0.500002 0.000000 0.866024
0.965926 0.000000 0.258819
0.866026 0.000000 -0.500000
0.866025 0.000000 -0.500000
0.866025 0.000000 -0.500000
0.965926 0.000000 0.258819
0.965926 0.000000 0.258819
0.866026 0.000000 -0.500000
0.258817 0.000000 -0.965926
0.258817 0.000000 -0.965926
0.258817 0.000000 -0.965926
0.866025 0.000000 -0.500000
0.866026 0.000000 -0.500000
0.000000 1.000000 0.000000
0.000000 1.000000 0.000000
0.000000 1.000000 0.000000
0.000000 1.000000 0.000000
0.000000 1.000000 0.000000
0.000000 1.000000 0.000000
0.000000 1.000000 0.000000
0.000000 1.000000 0.000000
0.000000 1.000000 0.000000
0.000000 1.000000 0.000000
0.000000 1.000000 0.000000
0.000000 1.000000 0.000000
0.000000 1.000000 0.000000
0.000000 1.000000 0.000000
0.000000 1.000000 0.000000
0.000000 1.000000 0.000000
0.000000 1.000000 0.000000
0.000000 1.000000 0.000000
-0.258817 0.000000 -0.965927
0.500001 -0.000001 -0.866025
0.500003 0.000000 -0.866024
0.500003 0.000000 -0.866024
-0.258817 0.000000 -0.965927
-0.258817 0.000000 -0.965927
0.500001 -0.000001 -0.866025
0.965925 -0.000002 -0.258822
0.965925 -0.000003 -0.258823
0.965925 -0.000003 -0.258823
0.500003 0.000000 -0.866024
0.500001 -0.000001 -0.866025
0.965925 -0.000002 -0.258822
0.866026 0.000000 0.500000
0.866026 -0.000001 0.499998
0.866026 -0.000001 0.499998
0.965925 -0.000003 -0.258823
0.965925 -0.000002 -0.258822
0.866026 0.000000 0.500000
0.258817 0.000000 0.965927
0.258816 0.000000 0.965927
0.258816 0.000000 0.965927
0.866026 -0.000001 0.499998
0.866026 0.000000 0.500000
0.258817 0.000000 0.965927
-0.500003 0.000000 0.866024
-0.500003 0.000000 0.866024
-0.500003 0.000000 0.866024
0.258816 0.000000 0.965927
0.258817 0.000000 0.965927
-0.500003 0.000000 0.866024
-0.965925 0.000000 0.258822
-0.965925 0.000000 0.258822
-0.965925 0.000000 0.258822
-0.500003 0.000000 0.866024
-0.500003 0.000000 0.866024
-0.965925 0.000000 0.258822
-0.866027 0.000000 -0.499997
-0.866027 0.000000 -0.499997
-0.866027 0.000000 -0.499997
-0.965925 0.000000 0.258822
-0.965925 0.000000 0.258822
-0.866027 0.000000 -0.499997
-0.258817 0.000000 -0.965927
-0.258817 0.000000 -0.965927
-0.258817 0.000000 -0.965927
-0.866027 0.000000 -0.499997
-0.866027 0.000000 -0.499997
0.000000 -1.000000 0.000000
0.000000 -1.000000 0.000000
0.000000 -1.000000 0.000000
0.000000 -1.000000 0.000000
0.000000 -1.000000 0.000000
0.000000 -1.000000 0.000000
0.000000 -1.000000 0.000000
0.000000 -1.000000 0.000000
0.000000 -1.000000 0.000000
0.000000 -1.000000 0.000000
0.000000 -1.000000 0.000000
0.000000 -1.000000 0.000000
0.000000 -1.000000 0.000000
0.000000 -1.000000 0.000000
0.000000 -1.000000 0.000000
0.000000 -1.000000 0.000000
0.000000 -1.000000 0.000000
0.000000 -1.000000 0.000000
</float_array>
          <technique_common>
            <accessor source="#Object459-Normal0-array" count="132" stride="3">
              <param name="X" type="float"/>
              <param name="Y" type="float"/>
              <param name="Z" type="float"/>
            </accessor>
          </technique_common>
        </source>
        <source id="Object459-UV0">
          <float_array id="Object459-UV0-array" count="104">
0.990638 0.325448
0.990638 0.335901
0.990638 0.346353
0.995123 0.346353
0.990638 0.356805
0.990638 0.377710
0.990638 0.388163
0.995123 0.388163
0.995123 0.335901
0.995123 0.356805
0.990638 0.367258
0.995123 0.377710
0.990638 0.398615
0.995123 0.398615
0.672779 0.267010
0.666964 0.266953
0.662892 0.262801
0.662949 0.256986
0.667102 0.252915
0.672916 0.252972
0.676988 0.257124
0.676931 0.262939
0.995123 0.325448
0.990638 0.314996
0.995123 0.314996
0.995123 0.367258
0.990638 0.325448
0.990638 0.335901
0.990638 0.346353
0.995123 0.346353
0.990638 0.356805
0.990638 0.377710
0.990638 0.388163
0.995123 0.388163
0.995123 0.335901
0.995123 0.356805
0.990638 0.367258
0.995123 0.377710
0.990638 0.398615
0.995123 0.398615
0.672779 0.267010
0.666964 0.266953
0.662892 0.262801
0.662949 0.256986
0.667102 0.252915
0.672916 0.252972
0.676988 0.257124
0.676931 0.262939
0.995123 0.325448
0.990638 0.314996
0.995123 0.314996
0.995123 0.367258
</float_array>
          <technique_common>
            <accessor source="#Object459-UV0-array" count="52" stride="2">
              <param name="S" type="float"/>
              <param name="T" type="float"/>
            </accessor>
          </technique_common>
        </source>
        <vertices id="Object459-VERTEX">
          <input semantic="POSITION" source="#Object459-POSITION"/>
        </vertices>
        <triangles count="44" material="electric_cabin">
          <input semantic="VERTEX" offset="0" source="#Object459-VERTEX"/>
          <input semantic="NORMAL" offset="1" source="#Object459-Normal0"/>
          <input semantic="TEXCOORD" offset="2" set="0" source="#Object459-UV0"/>
          <p> 0 0 0 1 1 1 9 2 8 9 3 8 8 4 22 0 5 0 1 6 1 2 7 2 10 8 3 10 9 3 9 10 8 1 11 1 2 12 2 3 13 4 11 14 9 11 15 9 10 16 3 2 17 2 3 18 4 4 19 10 12 20 25 12 21 25 11 22 9 3 23 4 4 24 10 5 25 5 13 26 11 13 27 11 12 28 25 4 29 10 5 30 5 6 31 6 14 32 7 14 33 7 13 34 11 5 35 5 6 36 6 7 37 12 15 38 13 15 39 13 14 40 7 6 41 6 7 42 23 0 43 0 8 44 22 8 45 22 15 46 24 7 47 23 9 48 15 10 49 16 11 50 17 11 51 17 12 52 18 13 53 19 13 54 19 14 55 20 15 56 21 11 57 17 13 58 19 15 59 21 9 60 15 11 61 17 15 62 21 8 63 14 9 64 15 15 65 21 16 66 26 17 67 27 25 68 34 25 69 34 24 70 48 16 71 26 17 72 27 18 73 28 26 74 29 26 75 29 25 76 34 17 77 27 18 78 28 19 79 30 27 80 35 27 81 35 26 82 29 18 83 28 19 84 30 20 85 36 28 86 51 28 87 51 27 88 35 19 89 30 20 90 36 21 91 31 29 92 37 29 93 37 28 94 51 20 95 36 21 96 31 22 97 32 30 98 33 30 99 33 29 100 37 21 101 31 22 102 32 23 103 38 31 104 39 31 105 39 30 106 33 22 107 32 23 108 49 16 109 26 24 110 48 24 111 48 31 112 50 23 113 49 25 114 41 26 115 42 27 116 43 27 117 43 28 118 44 29 119 45 29 120 45 30 121 46 31 122 47 27 123 43 29 124 45 31 125 47 25 126 41 27 127 43 31 128 47 24 129 40 25 130 41 31 131 47</p>
        </triangles>
      </mesh>
    </geometry>
  </library_geometries>
  <library_visual_scenes>
    <visual_scene id="" name="">
      <node name="Object449" id="Object449" layer="electric_switch" sid="Object449">
        <matrix sid="matrix">1.000000 0.000000 0.000000 0.000000 0.000000 0.000000 1.000000 0.000000 0.000000 -1.000000 0.000000 0.000000 0.000000 0.000000 0.000000 1.000000</matrix>
        <instance_geometry url="#Object449-lib">
          <bind_material>
            <technique_common>
              <instance_material symbol="electric_cabin" target="#electric_cabin"/>
            </technique_common>
          </bind_material>
        </instance_geometry>
        <extra>
          <technique profile="FCOLLADA">
            <visibility>1.000000</visibility>
          </technique>
        </extra>
      </node>
      <node name="Object450" id="Object450" layer="electric_switch" sid="Object450">
        <matrix sid="matrix">1.000000 0.000000 0.000000 0.000000 0.000000 0.000000 1.000000 0.000000 0.000000 -1.000000 0.000000 0.000000 0.000000 0.000000 0.000000 1.000000</matrix>
        <instance_geometry url="#Object450-lib">
          <bind_material>
            <technique_common>
              <instance_material symbol="gauges" target="#gauges"/>
            </technique_common>
          </bind_material>
        </instance_geometry>
        <extra>
          <technique profile="FCOLLADA">
            <visibility>1.000000</visibility>
          </technique>
        </extra>
      </node>
      <node name="Object458" id="Object458" layer="electric_switch" sid="Object458">
        <matrix sid="matrix">1.000000 0.000000 0.000000 0.000000 0.000000 0.000000 1.000000 0.000000 0.000000 -1.000000 0.000000 0.000000 0.000000 0.000000 0.000000 1.000000</matrix>
        <instance_geometry url="#Object458-lib">
          <bind_material>
            <technique_common>
              <instance_material symbol="electric_cabin" target="#electric_cabin"/>
            </technique_common>
          </bind_material>
        </instance_geometry>
        <extra>
          <technique profile="FCOLLADA">
            <visibility>1.000000</visibility>
          </technique>
        </extra>
      </node>
      <node name="Object459" id="Object459" layer="electric_switch" sid="Object459">
        <matrix sid="matrix">1.000000 0.000000 0.000000 0.000000 0.000000 0.000000 1.000000 0.000000 0.000000 -1.000000 0.000000 0.000000 0.000000 0.000000 0.000000 1.000000</matrix>
        <instance_geometry url="#Object459-lib">
          <bind_material>
            <technique_common>
              <instance_material symbol="electric_cabin" target="#electric_cabin"/>
            </technique_common>
          </bind_material>
        </instance_geometry>
        <extra>
          <technique profile="FCOLLADA">
            <visibility>1.000000</visibility>
          </technique>
        </extra>
      </node>
      <extra>
        <technique profile="MAX3D">
          <frame_rate>30.000000</frame_rate>
        </technique>
        <technique profile="FCOLLADA">
          <start_time>0.000000</start_time>
          <end_time>0.166667</end_time>
        </technique>
      </extra>
    </visual_scene>
  </library_visual_scenes>
  <scene>
    <instance_visual_scene url="#"></instance_visual_scene>
  </scene>
</COLLADA>

