<?xml version="1.0" encoding="utf-8"?>
<COLLADA xmlns="http://www.collada.org/2005/11/COLLADASchema" version="1.4.1">
  <asset>
    <contributor>
      <author></author>
      <authoring_tool>FBX COLLADA exporter</authoring_tool>
      <comments></comments>
    </contributor>
    <created>2012-02-11T11:45:23Z</created>
    <keywords></keywords>
    <modified>2012-02-11T11:45:23Z</modified>
    <revision></revision>
    <subject></subject>
    <title></title>
    <unit meter="1.000000" name="centimeter"></unit>
    <up_axis>Y_UP</up_axis>
  </asset>
  <library_images>
    <image id="Map #11-image" name="Map #11">
      <init_from>file://C:\Users\WesleyTack\Desktop\amnesia_raw\StaticObjects\Spraylock\electric_cabin.psd</init_from>
    </image>
  </library_images>
  <library_materials>
    <material id="electric_cabin" name="electric_cabin">
      <instance_effect url="#electric_cabin-fx"/>
    </material>
  </library_materials>
  <library_effects>
    <effect id="electric_cabin-fx" name="electric_cabin">
      <profile_COMMON>
        <technique sid="standard">
          <phong>
            <emission>
              <color sid="emission">0.000000  0.000000 0.000000 1.000000</color>
            </emission>
            <ambient>
              <color sid="ambient">0.588235  0.588235 0.588235 1.000000</color>
            </ambient>
            <diffuse>
              <texture texture="Map #11-image" texcoord="CHANNEL0">
                <extra>
                  <technique profile="MAYA">
                    <wrapU sid="wrapU0">TRUE</wrapU>
                    <wrapV sid="wrapV0">TRUE</wrapV>
                    <blend_mode>ADD</blend_mode>
                  </technique>
                </extra>
              </texture>
            </diffuse>
            <specular>
              <color sid="specular">0.000000  0.000000 0.000000 1.000000</color>
            </specular>
            <shininess>
              <float sid="shininess">2.000000</float>
            </shininess>
            <reflective>
              <color sid="reflective">0.000000  0.000000 0.000000 1.000000</color>
            </reflective>
            <reflectivity>
              <float sid="reflectivity">1.000000</float>
            </reflectivity>
            <transparent opaque="RGB_ZERO">
              <color sid="transparent">1.000000  1.000000 1.000000 1.000000</color>
            </transparent>
            <transparency>
              <float sid="transparency">0.000000</float>
            </transparency>
          </phong>
        </technique>
      </profile_COMMON>
    </effect>
  </library_effects>
  <library_geometries>
    <geometry id="Object528-lib" name="Object528Mesh">
      <mesh>
        <source id="Object528-POSITION">
          <float_array id="Object528-POSITION-array" count="588">
0.198988 0.114886 0.028795
0.229129 0.017171 0.028795
0.213888 -0.083945 0.028795
0.156284 -0.168434 0.028795
0.067726 -0.219563 0.028795
-0.034246 -0.227205 0.028795
-0.129435 -0.189846 0.028795
-0.198988 -0.114886 0.028795
-0.229129 -0.017171 0.028795
-0.213888 0.083945 0.028795
-0.156284 0.168434 0.028795
-0.067726 0.219563 0.028795
0.034246 0.227205 0.028795
0.129435 0.189846 0.028795
0.198988 0.114886 -0.091871
0.229129 0.017171 -0.091871
0.213888 -0.083945 -0.091871
0.156284 -0.168434 -0.091871
0.067726 -0.219563 -0.091871
-0.034246 -0.227205 -0.091871
-0.129435 -0.189846 -0.091871
-0.198988 -0.114886 -0.091871
-0.229129 -0.017171 -0.091871
-0.213888 0.083945 -0.091871
-0.156284 0.168434 -0.091871
-0.067726 0.219563 -0.091871
0.034246 0.227205 -0.091871
0.129435 0.189846 -0.091871
0.123203 -0.071131 0.027214
0.141864 -0.010631 0.027214
0.132428 0.051974 0.027214
0.096763 0.104285 0.027214
0.041932 0.135942 0.027214
-0.021203 0.140673 0.027214
-0.080139 0.117542 0.027214
-0.123202 0.071131 0.027214
-0.141864 0.010631 0.027214
-0.132428 -0.051974 0.027214
-0.096763 -0.104285 0.027214
-0.041932 -0.135942 0.027214
0.021203 -0.140673 0.027214
0.080139 -0.117542 0.027214
0.123203 -0.071131 0.056176
0.141864 -0.010631 0.056176
0.132428 0.051974 0.056176
0.096763 0.104285 0.056176
0.041932 0.135942 0.056176
-0.021203 0.140673 0.056176
-0.080139 0.117542 0.056176
-0.123202 0.071131 0.056176
-0.141864 0.010631 0.056176
-0.132428 -0.051974 0.056176
-0.096763 -0.104285 0.056176
-0.041932 -0.135942 0.056176
0.021203 -0.140673 0.056176
0.080139 -0.117542 0.056176
0.210151 0.046499 -0.000103
0.662267 0.046499 -0.000103
0.210151 0.041179 -0.019957
0.662267 0.041179 -0.019957
0.210151 -0.047235 0.003733
0.662267 -0.047235 0.003733
0.677607 0.031723 0.003856
0.677607 -0.027139 0.019628
0.677607 -0.032459 -0.000226
0.677607 0.026403 -0.015998
0.210151 -0.041915 0.023587
0.662267 -0.041915 0.023587
0.294021 0.129843 -0.037355
1.412953 0.129843 -0.037355
0.294021 -0.132719 0.032998
1.412953 -0.132719 0.032998
1.452581 -0.093823 0.022575
1.452581 0.090946 -0.026933
0.254394 0.090946 -0.026933
0.254394 -0.093823 0.022576
0.294021 0.131874 -0.029773
1.412953 0.131874 -0.029773
0.294021 -0.130688 0.040580
1.412953 -0.130688 0.040580
1.452581 -0.091791 0.030158
1.452581 0.092978 -0.019351
0.254394 0.092978 -0.019351
0.254394 -0.091791 0.030158
0.115570 -0.181574 -0.000103
0.270203 -0.606424 -0.000103
0.110571 -0.183394 -0.019957
0.265204 -0.608244 -0.019957
0.027489 -0.213633 0.003733
0.182122 -0.638483 0.003733
0.261565 -0.625892 0.003856
0.206252 -0.646024 0.019628
0.201253 -0.647844 -0.000226
0.256566 -0.627712 -0.015998
0.032489 -0.211813 0.023587
0.187121 -0.636663 0.023587
0.222573 -0.231881 -0.037355
0.605271 -1.283333 -0.037355
-0.024154 -0.321682 0.032998
0.358543 -1.373135 0.032998
0.408647 -1.397069 0.022575
0.582273 -1.333874 -0.026933
0.172469 -0.207947 -0.026933
-0.001157 -0.271142 0.022576
0.224482 -0.231186 -0.029773
0.607180 -1.282638 -0.029773
-0.022245 -0.320988 0.040580
0.360452 -1.372440 0.040580
0.410556 -1.396374 0.030158
0.584183 -1.333179 -0.019351
0.174378 -0.207252 -0.019351
0.000752 -0.270447 0.030158
-0.145475 -0.158627 -0.000103
-0.515827 -0.417950 -0.000103
-0.148527 -0.154269 -0.019957
-0.518878 -0.413592 -0.019957
-0.199239 -0.081845 0.003733
-0.569591 -0.341168 0.003733
-0.536868 -0.414645 0.003856
-0.570630 -0.366428 0.019628
-0.573681 -0.362070 -0.000226
-0.539919 -0.410287 -0.015998
-0.196187 -0.086203 0.023587
-0.566539 -0.345526 0.023587
-0.166374 -0.275005 -0.037355
-1.082949 -0.916798 -0.037355
-0.316973 -0.059926 0.032998
-1.233549 -0.701719 0.032998
-1.243699 -0.756311 0.022575
-1.137720 -0.907665 -0.026933
-0.156223 -0.220413 -0.026933
-0.262202 -0.069059 0.022576
-0.165208 -0.276669 -0.029773
-1.081784 -0.918462 -0.029773
-0.315808 -0.061590 0.040580
-1.232383 -0.703384 0.040580
-1.242534 -0.757975 0.030158
-1.136555 -0.909329 -0.019351
-0.155058 -0.222077 -0.019351
-0.261037 -0.070723 0.030158
-0.198816 0.082448 -0.000103
-0.569168 0.341771 -0.000103
-0.195765 0.086806 -0.019957
-0.566117 0.346129 -0.019957
-0.145053 0.159231 0.003733
-0.515405 0.418554 0.003733
-0.573259 0.362673 0.003856
-0.539496 0.410891 0.019628
-0.536445 0.415249 -0.000226
-0.570207 0.367031 -0.015998
-0.148104 0.154873 0.023587
-0.518456 0.414196 0.023587
-0.315323 0.062283 -0.037355
-1.231898 0.704076 -0.037355
-0.164723 0.277361 0.032998
-1.081299 0.919154 0.032998
-1.136070 0.910021 0.022575
-1.242049 0.758667 -0.026933
-0.260552 0.071416 -0.026933
-0.154573 0.222770 0.022576
-0.316488 0.060619 -0.029773
-1.233064 0.702412 -0.029773
-0.165889 0.275697 0.040580
-1.082464 0.917490 0.040580
-1.137235 0.908357 0.030158
-1.243214 0.757003 -0.019351
-0.261717 0.069752 -0.019351
-0.155738 0.221106 0.030158
0.028182 0.213381 -0.000103
0.182814 0.638231 -0.000103
0.033181 0.211561 -0.019957
0.187813 0.636411 -0.019957
0.116263 0.181322 0.003733
0.270895 0.606172 0.003733
0.201945 0.647592 0.003856
0.257258 0.627460 0.019628
0.262257 0.625640 -0.000226
0.206945 0.645772 -0.015998
0.111263 0.183142 0.023587
0.265896 0.607992 0.023587
-0.021451 0.320699 -0.037355
0.361246 1.372151 -0.037355
0.225277 0.230897 0.032998
0.607974 1.282349 0.032998
0.584977 1.332890 0.022575
0.411350 1.396085 -0.026933
0.001546 0.270158 -0.026933
0.175173 0.206963 0.022576
-0.023360 0.321393 -0.029773
0.359337 1.372846 -0.029773
0.223368 0.231592 0.040580
0.606065 1.283044 0.040580
0.583067 1.333585 0.030158
0.409441 1.396780 -0.019351
-0.000363 0.270853 -0.019351
0.173264 0.207658 0.030158
</float_array>
          <technique_common>
            <accessor source="#Object528-POSITION-array" count="196" stride="3">
              <param name="X" type="float"/>
              <param name="Y" type="float"/>
              <param name="Z" type="float"/>
            </accessor>
          </technique_common>
        </source>
        <source id="Object528-Normal0">
          <float_array id="Object528-Normal0-array" count="2178">
0.866026 0.500000 0.000000
0.997204 0.074730 0.000000
0.997204 0.074730 0.000000
0.997204 0.074730 0.000000
0.866026 0.500000 0.000000
0.866026 0.500000 0.000000
0.997204 0.074730 0.000000
0.930874 -0.365341 -0.000000
0.930874 -0.365341 -0.000000
0.930874 -0.365341 -0.000000
0.997204 0.074730 0.000000
0.997204 0.074730 0.000000
0.930874 -0.365341 -0.000000
0.680173 -0.733052 -0.000000
0.680173 -0.733052 -0.000000
0.680173 -0.733052 -0.000000
0.930874 -0.365341 -0.000000
0.930874 -0.365341 -0.000000
0.680173 -0.733052 -0.000000
0.294755 -0.955573 -0.000000
0.294755 -0.955573 -0.000000
0.294755 -0.955573 -0.000000
0.680173 -0.733052 -0.000000
0.680173 -0.733052 -0.000000
0.294755 -0.955573 -0.000000
-0.149042 -0.988831 -0.000000
-0.149042 -0.988831 -0.000000
-0.149042 -0.988831 -0.000000
0.294755 -0.955573 -0.000000
0.294755 -0.955573 -0.000000
-0.149042 -0.988831 -0.000000
-0.563320 -0.826239 -0.000000
-0.563320 -0.826239 -0.000000
-0.563320 -0.826239 -0.000000
-0.149042 -0.988831 -0.000000
-0.149042 -0.988831 -0.000000
-0.563320 -0.826239 -0.000000
-0.866025 -0.500000 -0.000000
-0.866025 -0.500000 -0.000000
-0.866025 -0.500000 -0.000000
-0.563320 -0.826239 -0.000000
-0.563320 -0.826239 -0.000000
-0.866025 -0.500000 -0.000000
-0.997204 -0.074730 0.000000
-0.997204 -0.074730 -0.000000
-0.997204 -0.074730 -0.000000
-0.866025 -0.500000 -0.000000
-0.866025 -0.500000 -0.000000
-0.997204 -0.074730 0.000000
-0.930874 0.365341 0.000000
-0.930874 0.365341 0.000000
-0.930874 0.365341 0.000000
-0.997204 -0.074730 -0.000000
-0.997204 -0.074730 0.000000
-0.930874 0.365341 0.000000
-0.680173 0.733052 0.000000
-0.680173 0.733052 0.000000
-0.680173 0.733052 0.000000
-0.930874 0.365341 0.000000
-0.930874 0.365341 0.000000
-0.680173 0.733052 0.000000
-0.294755 0.955573 0.000000
-0.294755 0.955573 0.000000
-0.294755 0.955573 0.000000
-0.680173 0.733052 0.000000
-0.680173 0.733052 0.000000
-0.294755 0.955573 0.000000
0.149043 0.988831 0.000000
0.149042 0.988831 0.000000
0.149042 0.988831 0.000000
-0.294755 0.955573 0.000000
-0.294755 0.955573 0.000000
0.149043 0.988831 0.000000
0.563321 0.826239 0.000000
0.563321 0.826239 0.000000
0.563321 0.826239 0.000000
0.149042 0.988831 0.000000
0.149043 0.988831 0.000000
0.563321 0.826239 0.000000
0.866026 0.500000 0.000000
0.866026 0.500000 0.000000
0.866026 0.500000 0.000000
0.563321 0.826239 0.000000
0.563321 0.826239 0.000000
0.000000 0.000000 -1.000000
0.000000 0.000000 -1.000000
0.000000 0.000000 -1.000000
0.000000 0.000000 -1.000000
0.000000 0.000000 -1.000000
0.000000 0.000000 -1.000000
0.000000 0.000000 -1.000000
0.000000 0.000000 -1.000000
0.000000 0.000000 -1.000000
-0.000000 0.000000 -1.000000
-0.000000 0.000000 -1.000000
-0.000000 0.000000 -1.000000
-0.000000 0.000000 -1.000000
-0.000000 0.000000 -1.000000
-0.000000 0.000000 -1.000000
-0.000000 0.000000 -1.000000
-0.000000 0.000000 -1.000000
-0.000000 0.000000 -1.000000
-0.000000 0.000000 -1.000000
-0.000000 0.000000 -1.000000
-0.000000 0.000000 -1.000000
0.000000 0.000000 -1.000000
0.000000 0.000000 -1.000000
0.000000 0.000000 -1.000000
0.000000 0.000000 -1.000000
0.000000 0.000000 -1.000000
0.000000 0.000000 -1.000000
-0.000000 0.000000 -1.000000
-0.000000 0.000000 -1.000000
-0.000000 0.000000 -1.000000
-0.000000 0.000000 -1.000000
-0.000000 0.000000 -1.000000
-0.000000 0.000000 -1.000000
-0.000000 0.000000 -1.000000
-0.000000 0.000000 -1.000000
-0.000000 0.000000 -1.000000
0.000000 0.000000 1.000000
0.000000 0.000000 1.000000
0.000000 0.000000 1.000000
0.000000 -0.000001 1.000000
0.000000 -0.000001 1.000000
0.000000 -0.000001 1.000000
0.000001 -0.000000 1.000000
0.000001 -0.000000 1.000000
0.000001 -0.000000 1.000000
-0.000000 -0.000000 1.000000
-0.000000 -0.000000 1.000000
-0.000000 -0.000000 1.000000
0.000000 0.000000 1.000000
0.000000 0.000000 1.000000
0.000000 0.000000 1.000000
0.000000 0.000000 1.000000
0.000000 0.000000 1.000000
0.000000 0.000000 1.000000
0.000000 0.000000 1.000000
0.000000 0.000000 1.000000
0.000000 0.000000 1.000000
-0.000001 0.000000 1.000000
-0.000001 0.000000 1.000000
-0.000001 0.000000 1.000000
-0.000000 -0.000000 1.000000
-0.000000 -0.000000 1.000000
-0.000000 -0.000000 1.000000
-0.000000 -0.000000 1.000000
-0.000000 -0.000000 1.000000
-0.000000 -0.000000 1.000000
-0.000000 -0.000000 1.000000
-0.000000 -0.000000 1.000000
-0.000000 -0.000000 1.000000
-0.000000 -0.000000 1.000000
-0.000000 -0.000000 1.000000
-0.000000 -0.000000 1.000000
0.866025 -0.500000 -0.000000
0.997204 -0.074730 0.000000
0.997204 -0.074730 -0.000000
0.997204 -0.074730 -0.000000
0.866025 -0.500000 -0.000000
0.866025 -0.500000 -0.000000
0.997204 -0.074730 0.000000
0.930874 0.365341 0.000001
0.930874 0.365341 0.000001
0.930874 0.365341 0.000001
0.997204 -0.074730 -0.000000
0.997204 -0.074730 0.000000
0.930874 0.365341 0.000001
0.680173 0.733052 0.000001
0.680173 0.733052 0.000001
0.680173 0.733052 0.000001
0.930874 0.365341 0.000001
0.930874 0.365341 0.000001
0.680173 0.733052 0.000001
0.294755 0.955573 0.000001
0.294755 0.955573 0.000001
0.294755 0.955573 0.000001
0.680173 0.733052 0.000001
0.680173 0.733052 0.000001
0.294755 0.955573 0.000001
-0.149042 0.988831 0.000001
-0.149042 0.988831 0.000001
-0.149042 0.988831 0.000001
0.294755 0.955573 0.000001
0.294755 0.955573 0.000001
-0.149042 0.988831 0.000001
-0.563320 0.826239 -0.000000
-0.563320 0.826239 -0.000000
-0.563320 0.826239 -0.000000
-0.149042 0.988831 0.000001
-0.149042 0.988831 0.000001
-0.563320 0.826239 -0.000000
-0.866025 0.500000 -0.000000
-0.866025 0.500000 -0.000000
-0.866025 0.500000 -0.000000
-0.563320 0.826239 -0.000000
-0.563320 0.826239 -0.000000
-0.866025 0.500000 -0.000000
-0.997204 0.074730 -0.000000
-0.997204 0.074730 0.000000
-0.997204 0.074730 0.000000
-0.866025 0.500000 -0.000000
-0.866025 0.500000 -0.000000
-0.997204 0.074730 -0.000000
-0.930874 -0.365341 -0.000001
-0.930874 -0.365341 -0.000001
-0.930874 -0.365341 -0.000001
-0.997204 0.074730 0.000000
-0.997204 0.074730 -0.000000
-0.930874 -0.365341 -0.000001
-0.680173 -0.733052 -0.000001
-0.680173 -0.733052 -0.000001
-0.680173 -0.733052 -0.000001
-0.930874 -0.365341 -0.000001
-0.930874 -0.365341 -0.000001
-0.680173 -0.733052 -0.000001
-0.294755 -0.955573 -0.000001
-0.294755 -0.955573 -0.000001
-0.294755 -0.955573 -0.000001
-0.680173 -0.733052 -0.000001
-0.680173 -0.733052 -0.000001
-0.294755 -0.955573 -0.000001
0.149043 -0.988831 -0.000001
0.149043 -0.988831 -0.000001
0.149043 -0.988831 -0.000001
-0.294755 -0.955573 -0.000001
-0.294755 -0.955573 -0.000001
0.149043 -0.988831 -0.000001
0.563320 -0.826239 -0.000001
0.563321 -0.826238 -0.000001
0.563321 -0.826238 -0.000001
0.149043 -0.988831 -0.000001
0.149043 -0.988831 -0.000001
0.563320 -0.826239 -0.000001
0.866025 -0.500000 -0.000000
0.866025 -0.500000 -0.000000
0.866025 -0.500000 -0.000000
0.563321 -0.826238 -0.000001
0.563320 -0.826239 -0.000001
0.000001 0.000000 1.000000
0.000001 0.000000 1.000000
0.000001 0.000000 1.000000
0.000000 0.000000 1.000000
0.000000 0.000000 1.000000
0.000000 0.000000 1.000000
0.000000 -0.000001 1.000000
0.000000 -0.000001 1.000000
0.000000 -0.000001 1.000000
-0.000000 -0.000000 1.000000
-0.000000 -0.000000 1.000000
-0.000000 -0.000000 1.000000
0.000000 0.000000 1.000000
0.000000 0.000000 1.000000
0.000000 0.000000 1.000000
-0.000001 -0.000001 1.000000
-0.000001 -0.000001 1.000000
-0.000001 -0.000001 1.000000
0.000000 -0.000000 1.000000
0.000000 -0.000000 1.000000
0.000000 -0.000000 1.000000
0.000000 0.000000 1.000000
0.000000 0.000000 1.000000
0.000000 0.000000 1.000000
0.000000 -0.000000 1.000000
0.000000 -0.000000 1.000000
0.000000 -0.000000 1.000000
-0.000000 -0.000000 1.000000
-0.000000 -0.000000 1.000000
-0.000000 -0.000000 1.000000
-0.000000 -0.000000 1.000000
-0.000000 -0.000000 1.000000
-0.000000 -0.000000 1.000000
-0.000001 0.000000 1.000000
-0.000001 0.000000 1.000000
-0.000001 0.000000 1.000000
0.000000 -0.258819 -0.965926
0.000000 -0.258819 -0.965926
0.000000 -0.258819 -0.965926
-0.000000 -0.258819 -0.965926
-0.000000 -0.258819 -0.965926
-0.000000 -0.258819 -0.965926
-0.000000 0.965926 -0.258819
-0.000000 0.965926 -0.258819
-0.000000 0.965926 -0.258819
-0.000000 0.965926 -0.258818
-0.000000 0.965926 -0.258818
-0.000000 0.965926 -0.258818
1.000000 -0.000001 0.000000
1.000000 -0.000001 0.000000
1.000000 -0.000001 0.000000
1.000000 -0.000001 0.000000
1.000000 -0.000001 0.000000
1.000000 -0.000001 0.000000
0.000000 -0.965926 0.258818
0.000000 -0.965926 0.258818
0.000000 -0.965926 0.258818
0.000000 -0.965926 0.258819
0.000000 -0.965926 0.258819
0.000000 -0.965926 0.258819
0.706122 -0.683962 0.183271
0.706122 -0.683962 0.183271
0.706122 -0.683962 0.183271
0.706119 -0.683966 0.183268
0.706119 -0.683966 0.183268
0.706119 -0.683965 0.183268
-0.000000 -0.258819 -0.965926
-0.000000 -0.258819 -0.965926
-0.000000 -0.258819 -0.965926
-0.000000 -0.258819 -0.965926
-0.000000 -0.258819 -0.965926
-0.000000 -0.258819 -0.965926
0.706118 0.683967 -0.183266
0.706118 0.683967 -0.183266
0.706118 0.683967 -0.183266
0.706119 0.683966 -0.183268
0.706119 0.683966 -0.183268
0.706119 0.683966 -0.183268
0.000000 0.258819 0.965926
0.000000 0.258819 0.965926
0.000000 0.258819 0.965926
0.000000 0.258819 0.965926
0.000000 0.258819 0.965926
0.000000 0.258819 0.965926
-0.000001 0.258819 0.965926
-0.000001 0.258819 0.965926
-0.000001 0.258819 0.965926
-0.000000 0.258819 0.965926
-0.000000 0.258819 0.965926
-0.000000 0.258819 0.965926
-0.000000 -0.258819 -0.965926
-0.000000 -0.258819 -0.965926
-0.000000 -0.258819 -0.965926
-0.000000 -0.258819 -0.965926
-0.000000 -0.258819 -0.965926
-0.000000 -0.258819 -0.965926
-0.000000 -0.258819 -0.965926
-0.000000 -0.258819 -0.965926
-0.000000 -0.258819 -0.965926
0.000000 -0.258819 -0.965926
0.000000 -0.258819 -0.965926
0.000000 -0.258819 -0.965926
-0.000000 -0.258819 -0.965926
-0.000000 -0.258819 -0.965926
-0.000000 -0.258819 -0.965926
-0.000000 -0.258819 -0.965926
-0.000000 -0.258819 -0.965926
-0.000000 -0.258819 -0.965926
0.000000 0.258819 0.965926
0.000000 0.258819 0.965926
0.000000 0.258819 0.965926
0.000000 0.258819 0.965926
0.000000 0.258819 0.965926
0.000000 0.258819 0.965926
-0.000000 0.258819 0.965926
-0.000000 0.258819 0.965926
-0.000000 0.258819 0.965926
0.000000 0.258819 0.965926
0.000000 0.258819 0.965926
0.000000 0.258819 0.965926
0.000000 0.258819 0.965926
0.000000 0.258819 0.965926
0.000000 0.258819 0.965926
-0.000000 0.258819 0.965926
-0.000000 0.258819 0.965926
-0.000000 0.258819 0.965926
-0.243210 -0.088521 -0.965926
-0.243210 -0.088521 -0.965926
-0.243210 -0.088521 -0.965926
-0.243210 -0.088521 -0.965926
-0.243210 -0.088521 -0.965926
-0.243210 -0.088521 -0.965926
0.907673 0.330366 -0.258820
0.907673 0.330366 -0.258820
0.907673 0.330366 -0.258820
0.907673 0.330366 -0.258819
0.907673 0.330366 -0.258819
0.907673 0.330366 -0.258819
0.342019 -0.939693 0.000001
0.342019 -0.939693 0.000001
0.342019 -0.939693 0.000001
0.342019 -0.939693 0.000001
0.342019 -0.939693 0.000001
0.342019 -0.939693 0.000001
-0.907673 -0.330366 0.258819
-0.907673 -0.330366 0.258819
-0.907673 -0.330366 0.258819
-0.907673 -0.330366 0.258819
-0.907673 -0.330366 0.258819
-0.907673 -0.330366 0.258819
-0.401204 -0.897467 0.183272
-0.401204 -0.897467 0.183272
-0.401204 -0.897467 0.183272
-0.401209 -0.897465 0.183268
-0.401209 -0.897465 0.183268
-0.401209 -0.897465 0.183268
-0.243210 -0.088522 -0.965926
-0.243210 -0.088522 -0.965926
-0.243210 -0.088522 -0.965926
-0.243210 -0.088520 -0.965926
-0.243210 -0.088520 -0.965926
-0.243210 -0.088520 -0.965926
0.884225 -0.429603 -0.183267
0.884225 -0.429603 -0.183267
0.884225 -0.429603 -0.183267
0.884225 -0.429604 -0.183268
0.884225 -0.429604 -0.183268
0.884225 -0.429604 -0.183268
0.243210 0.088521 0.965926
0.243210 0.088521 0.965926
0.243210 0.088521 0.965926
0.243210 0.088521 0.965926
0.243210 0.088521 0.965926
0.243210 0.088521 0.965926
0.243210 0.088522 0.965926
0.243210 0.088522 0.965926
0.243210 0.088522 0.965926
0.243210 0.088522 0.965926
0.243210 0.088522 0.965926
0.243210 0.088522 0.965926
-0.243210 -0.088521 -0.965926
-0.243210 -0.088521 -0.965926
-0.243210 -0.088521 -0.965926
-0.243210 -0.088521 -0.965926
-0.243210 -0.088521 -0.965926
-0.243210 -0.088521 -0.965926
-0.243210 -0.088521 -0.965926
-0.243210 -0.088521 -0.965926
-0.243210 -0.088521 -0.965926
-0.243210 -0.088521 -0.965926
-0.243210 -0.088521 -0.965926
-0.243210 -0.088521 -0.965926
-0.243210 -0.088521 -0.965926
-0.243210 -0.088521 -0.965926
-0.243210 -0.088521 -0.965926
-0.243210 -0.088521 -0.965926
-0.243210 -0.088521 -0.965926
-0.243210 -0.088521 -0.965926
0.243210 0.088521 0.965926
0.243210 0.088521 0.965926
0.243210 0.088521 0.965926
0.243210 0.088521 0.965926
0.243210 0.088521 0.965926
0.243210 0.088521 0.965926
0.243210 0.088522 0.965926
0.243210 0.088522 0.965926
0.243210 0.088522 0.965926
0.243210 0.088521 0.965926
0.243210 0.088521 0.965926
0.243210 0.088521 0.965926
0.243210 0.088521 0.965926
0.243210 0.088521 0.965926
0.243210 0.088521 0.965926
0.243210 0.088521 0.965926
0.243210 0.088521 0.965926
0.243210 0.088521 0.965926
-0.148452 0.212012 -0.965926
-0.148452 0.212012 -0.965926
-0.148452 0.212012 -0.965926
-0.148452 0.212012 -0.965926
-0.148452 0.212012 -0.965926
-0.148452 0.212012 -0.965926
0.554032 -0.791240 -0.258819
0.554033 -0.791240 -0.258819
0.554032 -0.791240 -0.258819
0.554032 -0.791240 -0.258819
0.554032 -0.791240 -0.258819
0.554033 -0.791240 -0.258819
-0.819153 -0.573575 -0.000000
-0.819153 -0.573575 -0.000000
-0.819153 -0.573575 -0.000000
-0.819153 -0.573575 -0.000000
-0.819153 -0.573575 -0.000000
-0.819153 -0.573575 -0.000000
-0.554032 0.791240 0.258818
-0.554032 0.791240 0.258818
-0.554032 0.791240 0.258818
-0.554033 0.791240 0.258818
-0.554033 0.791240 0.258818
-0.554033 0.791240 0.258818
-0.970726 0.155253 0.183269
-0.970726 0.155253 0.183269
-0.970726 0.155253 0.183269
-0.970726 0.155256 0.183267
-0.970726 0.155256 0.183267
-0.970726 0.155256 0.183267
-0.148451 0.212013 -0.965926
-0.148451 0.212013 -0.965926
-0.148451 0.212013 -0.965926
-0.148451 0.212013 -0.965926
-0.148451 0.212013 -0.965926
-0.148451 0.212013 -0.965926
-0.186110 -0.965286 -0.183266
-0.186110 -0.965286 -0.183266
-0.186110 -0.965286 -0.183266
-0.186113 -0.965285 -0.183268
-0.186113 -0.965285 -0.183268
-0.186113 -0.965285 -0.183268
0.148453 -0.212012 0.965926
0.148453 -0.212012 0.965926
0.148453 -0.212012 0.965926
0.148452 -0.212012 0.965926
0.148452 -0.212012 0.965926
0.148452 -0.212012 0.965926
0.148453 -0.212011 0.965926
0.148453 -0.212011 0.965926
0.148453 -0.212011 0.965926
0.148453 -0.212012 0.965926
0.148453 -0.212012 0.965926
0.148453 -0.212012 0.965926
-0.148452 0.212012 -0.965926
-0.148452 0.212012 -0.965926
-0.148452 0.212012 -0.965926
-0.148452 0.212012 -0.965926
-0.148452 0.212012 -0.965926
-0.148452 0.212012 -0.965926
-0.148452 0.212012 -0.965926
-0.148452 0.212012 -0.965926
-0.148452 0.212012 -0.965926
-0.148452 0.212012 -0.965926
-0.148452 0.212012 -0.965926
-0.148452 0.212012 -0.965926
-0.148453 0.212012 -0.965926
-0.148453 0.212012 -0.965926
-0.148453 0.212012 -0.965926
-0.148452 0.212012 -0.965926
-0.148452 0.212012 -0.965926
-0.148452 0.212012 -0.965926
0.148452 -0.212012 0.965926
0.148452 -0.212012 0.965926
0.148452 -0.212012 0.965926
0.148452 -0.212012 0.965926
0.148452 -0.212012 0.965926
0.148452 -0.212012 0.965926
0.148452 -0.212012 0.965926
0.148452 -0.212012 0.965926
0.148452 -0.212012 0.965926
0.148452 -0.212012 0.965926
0.148452 -0.212012 0.965926
0.148452 -0.212012 0.965926
0.148452 -0.212012 0.965926
0.148452 -0.212012 0.965926
0.148452 -0.212012 0.965926
0.148453 -0.212012 0.965926
0.148453 -0.212012 0.965926
0.148453 -0.212012 0.965926
0.148452 0.212012 -0.965926
0.148452 0.212012 -0.965926
0.148452 0.212012 -0.965926
0.148452 0.212012 -0.965926
0.148452 0.212012 -0.965926
0.148452 0.212012 -0.965926
-0.554032 -0.791240 -0.258818
-0.554032 -0.791240 -0.258818
-0.554032 -0.791240 -0.258818
-0.554032 -0.791240 -0.258819
-0.554032 -0.791240 -0.258818
-0.554032 -0.791240 -0.258819
-0.819152 0.573577 0.000001
-0.819152 0.573577 0.000001
-0.819151 0.573577 0.000001
-0.819152 0.573577 0.000001
-0.819151 0.573577 0.000001
-0.819151 0.573577 0.000001
0.554032 0.791240 0.258818
0.554032 0.791240 0.258818
0.554032 0.791240 0.258818
0.554032 0.791240 0.258820
0.554032 0.791240 0.258820
0.554032 0.791240 0.258820
-0.186116 0.965284 0.183271
-0.186116 0.965284 0.183271
-0.186116 0.965284 0.183271
-0.186112 0.965285 0.183269
-0.186112 0.965285 0.183269
-0.186112 0.965285 0.183269
0.148453 0.212011 -0.965926
0.148453 0.212011 -0.965926
0.148453 0.212011 -0.965926
0.148453 0.212011 -0.965926
0.148453 0.212011 -0.965926
0.148453 0.212011 -0.965926
-0.970725 -0.155261 -0.183266
-0.970725 -0.155261 -0.183266
-0.970725 -0.155261 -0.183266
-0.970725 -0.155258 -0.183268
-0.970725 -0.155258 -0.183268
-0.970725 -0.155258 -0.183268
-0.148452 -0.212012 0.965926
-0.148452 -0.212012 0.965926
-0.148452 -0.212012 0.965926
-0.148452 -0.212012 0.965926
-0.148452 -0.212012 0.965926
-0.148452 -0.212012 0.965926
-0.148452 -0.212012 0.965926
-0.148452 -0.212012 0.965926
-0.148452 -0.212012 0.965926
-0.148451 -0.212013 0.965926
-0.148451 -0.212013 0.965926
-0.148451 -0.212013 0.965926
0.148452 0.212012 -0.965926
0.148452 0.212012 -0.965926
0.148452 0.212012 -0.965926
0.148452 0.212012 -0.965926
0.148452 0.212012 -0.965926
0.148452 0.212012 -0.965926
0.148453 0.212012 -0.965926
0.148453 0.212012 -0.965926
0.148453 0.212012 -0.965926
0.148453 0.212012 -0.965926
0.148453 0.212012 -0.965926
0.148453 0.212012 -0.965926
0.148452 0.212012 -0.965926
0.148452 0.212012 -0.965926
0.148452 0.212012 -0.965926
0.148453 0.212012 -0.965926
0.148453 0.212012 -0.965926
0.148453 0.212012 -0.965926
-0.148452 -0.212012 0.965926
-0.148452 -0.212012 0.965926
-0.148452 -0.212012 0.965926
-0.148453 -0.212012 0.965926
-0.148453 -0.212012 0.965926
-0.148453 -0.212012 0.965926
-0.148453 -0.212012 0.965926
-0.148453 -0.212012 0.965926
-0.148453 -0.212012 0.965926
-0.148452 -0.212012 0.965926
-0.148452 -0.212012 0.965926
-0.148452 -0.212012 0.965926
-0.148453 -0.212012 0.965926
-0.148453 -0.212012 0.965926
-0.148453 -0.212012 0.965926
-0.148452 -0.212012 0.965926
-0.148452 -0.212012 0.965926
-0.148452 -0.212012 0.965926
0.243210 -0.088521 -0.965926
0.243210 -0.088521 -0.965926
0.243210 -0.088521 -0.965926
0.243210 -0.088521 -0.965926
0.243210 -0.088521 -0.965926
0.243210 -0.088521 -0.965926
-0.907673 0.330366 -0.258820
-0.907673 0.330366 -0.258820
-0.907673 0.330366 -0.258820
-0.907673 0.330366 -0.258819
-0.907674 0.330366 -0.258819
-0.907674 0.330366 -0.258819
0.342021 0.939692 -0.000000
0.342021 0.939692 -0.000000
0.342021 0.939692 -0.000000
0.342021 0.939692 -0.000001
0.342021 0.939692 -0.000001
0.342021 0.939692 -0.000001
0.907674 -0.330366 0.258819
0.907674 -0.330366 0.258819
0.907674 -0.330366 0.258819
0.907674 -0.330366 0.258819
0.907674 -0.330366 0.258819
0.907673 -0.330366 0.258819
0.884222 0.429609 0.183271
0.884222 0.429609 0.183271
0.884222 0.429609 0.183271
0.884224 0.429605 0.183267
0.884224 0.429605 0.183267
0.884224 0.429605 0.183267
0.243210 -0.088521 -0.965926
0.243210 -0.088521 -0.965926
0.243210 -0.088521 -0.965926
0.243210 -0.088522 -0.965926
0.243210 -0.088522 -0.965926
0.243210 -0.088522 -0.965926
-0.401212 0.897464 -0.183267
-0.401212 0.897464 -0.183267
-0.401212 0.897464 -0.183267
-0.401210 0.897465 -0.183268
-0.401210 0.897465 -0.183268
-0.401210 0.897465 -0.183268
-0.243210 0.088521 0.965926
-0.243210 0.088521 0.965926
-0.243210 0.088521 0.965926
-0.243210 0.088521 0.965926
-0.243210 0.088521 0.965926
-0.243210 0.088521 0.965926
-0.243210 0.088521 0.965926
-0.243210 0.088521 0.965926
-0.243210 0.088521 0.965926
-0.243211 0.088520 0.965926
-0.243211 0.088520 0.965926
-0.243211 0.088520 0.965926
0.243210 -0.088521 -0.965926
0.243210 -0.088521 -0.965926
0.243210 -0.088521 -0.965926
0.243210 -0.088521 -0.965926
0.243210 -0.088521 -0.965926
0.243210 -0.088521 -0.965926
0.243210 -0.088521 -0.965926
0.243210 -0.088521 -0.965926
0.243210 -0.088521 -0.965926
0.243210 -0.088521 -0.965926
0.243210 -0.088521 -0.965926
0.243210 -0.088521 -0.965926
0.243210 -0.088521 -0.965926
0.243210 -0.088521 -0.965926
0.243210 -0.088521 -0.965926
0.243210 -0.088522 -0.965926
0.243210 -0.088522 -0.965926
0.243210 -0.088522 -0.965926
-0.243210 0.088521 0.965926
-0.243210 0.088521 0.965926
-0.243210 0.088521 0.965926
-0.243210 0.088521 0.965926
-0.243210 0.088521 0.965926
-0.243210 0.088521 0.965926
-0.243210 0.088522 0.965926
-0.243210 0.088522 0.965926
-0.243210 0.088522 0.965926
-0.243210 0.088522 0.965926
-0.243210 0.088522 0.965926
-0.243210 0.088522 0.965926
-0.243210 0.088522 0.965926
-0.243210 0.088522 0.965926
-0.243210 0.088522 0.965926
-0.243211 0.088521 0.965926
-0.243210 0.088521 0.965926
-0.243210 0.088521 0.965926
</float_array>
          <technique_common>
            <accessor source="#Object528-Normal0-array" count="726" stride="3">
              <param name="X" type="float"/>
              <param name="Y" type="float"/>
              <param name="Z" type="float"/>
            </accessor>
          </technique_common>
        </source>
        <source id="Object528-UV0">
          <float_array id="Object528-UV0-array" count="684">
0.591178 0.849085
0.591178 0.878195
0.563917 0.878195
0.563917 0.849085
0.591178 0.904423
0.563917 0.904423
0.591178 0.822858
0.563917 0.822858
0.591178 0.517060
0.591178 0.546171
0.563917 0.546171
0.563917 0.517060
0.591178 0.572398
0.591178 0.601508
0.591178 0.627735
0.591178 0.656845
0.591178 0.683073
0.591178 0.712183
0.591178 0.738410
0.591178 0.767520
0.591178 0.793747
0.563917 0.572398
0.563917 0.601508
0.563917 0.627735
0.563917 0.656845
0.563917 0.712183
0.563917 0.683073
0.563917 0.767520
0.563917 0.738410
0.563917 0.793747
0.702742 0.881540
0.712018 0.840897
0.738011 0.808304
0.775571 0.790216
0.817259 0.790216
0.854819 0.808304
0.880811 0.840897
0.890087 0.881540
0.880811 0.922183
0.854819 0.954777
0.817259 0.972864
0.775571 0.972864
0.738011 0.954777
0.712018 0.922183
0.881072 0.919496
0.855044 0.952254
0.817379 0.970475
0.775539 0.970549
0.737810 0.952462
0.711665 0.919797
0.702283 0.879022
0.711520 0.838215
0.737549 0.805457
0.775213 0.787236
0.817053 0.787161
0.854782 0.805248
0.880927 0.837913
0.890310 0.878688
0.956881 0.290149
0.967738 0.290149
0.967738 0.297936
0.956881 0.297936
0.977520 0.290149
0.977520 0.297936
0.947099 0.290149
0.947099 0.297936
0.833049 0.290149
0.843906 0.290149
0.843906 0.297936
0.833049 0.297936
0.853688 0.290149
0.864545 0.290149
0.874326 0.290149
0.885183 0.290149
0.894965 0.290149
0.905822 0.290149
0.915604 0.290149
0.926461 0.290149
0.936242 0.290149
0.853688 0.297936
0.864545 0.297936
0.874326 0.297936
0.885183 0.297936
0.905822 0.297936
0.894965 0.297936
0.926461 0.297936
0.915604 0.297936
0.936242 0.297936
0.857650 0.353251
0.862466 0.332147
0.875962 0.315224
0.895465 0.305832
0.917110 0.305832
0.936612 0.315224
0.950108 0.332147
0.954925 0.353251
0.950108 0.374354
0.936612 0.391277
0.917110 0.400669
0.895465 0.400669
0.875962 0.391277
0.862466 0.374354
0.656593 0.173369
0.733220 0.173369
0.733220 0.189514
0.656593 0.189514
0.648983 0.204065
0.724509 0.204065
0.724509 0.207498
0.648983 0.207498
0.650171 0.204774
0.725696 0.204774
0.725696 0.208208
0.650171 0.208208
0.713731 0.204778
0.723911 0.204778
0.723911 0.208212
0.713731 0.208212
0.647608 0.208208
0.647608 0.204774
0.727071 0.204065
0.727071 0.207498
0.735926 0.176067
0.735926 0.186816
0.733309 0.189549
0.656444 0.189549
0.656444 0.173416
0.733309 0.173416
0.735923 0.186759
0.735923 0.176035
0.564361 0.932140
0.564361 0.810542
0.063792 0.810542
0.564337 0.810542
0.564337 0.932140
0.063792 0.932140
0.582063 0.828556
0.582063 0.914127
0.582087 0.828556
0.582087 0.914127
0.564361 0.932140
0.564361 0.810542
0.063792 0.810542
0.564337 0.810542
0.564337 0.932140
0.063792 0.932140
0.582063 0.828556
0.582063 0.914127
0.582087 0.828556
0.582087 0.914127
0.656593 0.173369
0.733220 0.173369
0.733220 0.189514
0.656593 0.189514
0.648983 0.204065
0.724509 0.204065
0.724509 0.207498
0.648983 0.207498
0.650171 0.204774
0.725696 0.204774
0.725696 0.208208
0.650171 0.208208
0.713731 0.204778
0.723911 0.204778
0.723911 0.208212
0.713731 0.208212
0.647608 0.208208
0.647608 0.204774
0.727071 0.204065
0.727071 0.207498
0.735926 0.176067
0.735926 0.186816
0.733309 0.189549
0.656444 0.189549
0.656444 0.173416
0.733309 0.173416
0.735923 0.186759
0.735923 0.176035
0.564361 0.932140
0.564361 0.810542
0.063792 0.810542
0.564337 0.810542
0.564337 0.932140
0.063792 0.932140
0.582063 0.828556
0.582063 0.914127
0.582087 0.828556
0.582087 0.914127
0.564361 0.932140
0.564361 0.810542
0.063792 0.810542
0.564337 0.810542
0.564337 0.932140
0.063792 0.932140
0.582063 0.828556
0.582063 0.914127
0.582087 0.828556
0.582087 0.914127
0.656593 0.173369
0.733220 0.173369
0.733220 0.189514
0.656593 0.189514
0.648983 0.204065
0.724509 0.204065
0.724509 0.207498
0.648983 0.207498
0.650171 0.204774
0.725696 0.204774
0.725696 0.208208
0.650171 0.208208
0.713731 0.204778
0.723911 0.204778
0.723911 0.208212
0.713731 0.208212
0.647608 0.208208
0.647608 0.204774
0.727071 0.204065
0.727071 0.207498
0.735926 0.176067
0.735926 0.186816
0.733309 0.189549
0.656444 0.189549
0.656444 0.173416
0.733309 0.173416
0.735923 0.186759
0.735923 0.176035
0.564361 0.932140
0.564361 0.810542
0.063792 0.810542
0.564337 0.810542
0.564337 0.932140
0.063792 0.932140
0.582063 0.828556
0.582063 0.914127
0.582087 0.828556
0.582087 0.914127
0.564361 0.932140
0.564361 0.810542
0.063792 0.810542
0.564337 0.810542
0.564337 0.932140
0.063792 0.932140
0.582063 0.828556
0.582063 0.914127
0.582087 0.828556
0.582087 0.914127
0.656593 0.173369
0.733220 0.173369
0.733220 0.189514
0.656593 0.189514
0.648983 0.204065
0.724509 0.204065
0.724509 0.207498
0.648983 0.207498
0.650171 0.204774
0.725696 0.204774
0.725696 0.208208
0.650171 0.208208
0.713731 0.204778
0.723911 0.204778
0.723911 0.208212
0.713731 0.208212
0.647608 0.208208
0.647608 0.204774
0.727071 0.204065
0.727071 0.207498
0.735926 0.176067
0.735926 0.186816
0.733309 0.189549
0.656444 0.189549
0.656444 0.173416
0.733309 0.173416
0.735923 0.186759
0.735923 0.176035
0.564361 0.932140
0.564361 0.810542
0.063792 0.810542
0.564337 0.810542
0.564337 0.932140
0.063792 0.932140
0.582063 0.828556
0.582063 0.914127
0.582087 0.828556
0.582087 0.914127
0.564361 0.932140
0.564361 0.810542
0.063792 0.810542
0.564337 0.810542
0.564337 0.932140
0.063792 0.932140
0.582063 0.828556
0.582063 0.914127
0.582087 0.828556
0.582087 0.914127
0.656593 0.173369
0.733220 0.173369
0.733220 0.189514
0.656593 0.189514
0.648983 0.204065
0.724509 0.204065
0.724509 0.207498
0.648983 0.207498
0.650171 0.204774
0.725696 0.204774
0.725696 0.208208
0.650171 0.208208
0.713731 0.204778
0.723911 0.204778
0.723911 0.208212
0.713731 0.208212
0.647608 0.208208
0.647608 0.204774
0.727071 0.204065
0.727071 0.207498
0.735926 0.176067
0.735926 0.186816
0.733309 0.189549
0.656444 0.189549
0.656444 0.173416
0.733309 0.173416
0.735923 0.186759
0.735923 0.176035
0.564361 0.932140
0.564361 0.810542
0.063792 0.810542
0.564337 0.810542
0.564337 0.932140
0.063792 0.932140
0.582063 0.828556
0.582063 0.914127
0.582087 0.828556
0.582087 0.914127
0.564361 0.932140
0.564361 0.810542
0.063792 0.810542
0.564337 0.810542
0.564337 0.932140
0.063792 0.932140
0.582063 0.828556
0.582063 0.914127
0.582087 0.828556
0.582087 0.914127
</float_array>
          <technique_common>
            <accessor source="#Object528-UV0-array" count="342" stride="2">
              <param name="S" type="float"/>
              <param name="T" type="float"/>
            </accessor>
          </technique_common>
        </source>
        <vertices id="Object528-VERTEX">
          <input semantic="POSITION" source="#Object528-POSITION"/>
        </vertices>
        <triangles count="242" material="electric_cabin">
          <input semantic="VERTEX" offset="0" source="#Object528-VERTEX"/>
          <input semantic="NORMAL" offset="1" source="#Object528-Normal0"/>
          <input semantic="TEXCOORD" offset="2" set="0" source="#Object528-UV0"/>
          <p> 0 0 0 1 1 1 15 2 2 15 3 2 14 4 3 0 5 0 1 6 1 2 7 4 16 8 5 16 9 5 15 10 2 1 11 1 2 12 8 3 13 9 17 14 10 17 15 10 16 16 11 2 17 8 3 18 9 4 19 12 18 20 21 18 21 21 17 22 10 3 23 9 4 24 12 5 25 13 19 26 22 19 27 22 18 28 21 4 29 12 5 30 13 6 31 14 20 32 23 20 33 23 19 34 22 5 35 13 6 36 14 7 37 15 21 38 24 21 39 24 20 40 23 6 41 14 7 42 15 8 43 16 22 44 26 22 45 26 21 46 24 7 47 15 8 48 16 9 49 17 23 50 25 23 51 25 22 52 26 8 53 16 9 54 17 10 55 18 24 56 28 24 57 28 23 58 25 9 59 17 10 60 18 11 61 19 25 62 27 25 63 27 24 64 28 10 65 18 11 66 19 12 67 20 26 68 29 26 69 29 25 70 27 11 71 19 12 72 20 13 73 6 27 74 7 27 75 7 26 76 29 12 77 20 13 78 6 0 79 0 14 80 3 14 81 3 27 82 7 13 83 6 15 84 31 16 85 32 17 86 33 17 87 33 18 88 34 19 89 35 19 90 35 20 91 36 21 92 37 17 93 33 19 94 35 21 95 37 21 96 37 22 97 38 23 98 39 23 99 39 24 100 40 25 101 41 21 102 37 23 103 39 25 104 41 25 105 41 26 106 42 27 107 43 21 108 37 25 109 41 27 110 43 17 111 33 21 112 37 27 113 43 15 114 31 17 115 33 27 116 43 14 117 30 15 118 31 27 119 43 13 120 45 12 121 46 11 122 47 11 123 47 10 124 48 9 125 49 9 126 49 8 127 50 7 128 51 11 129 47 9 130 49 7 131 51 7 132 51 6 133 52 5 134 53 5 135 53 4 136 54 3 137 55 7 138 51 5 139 53 3 140 55 3 141 55 2 142 56 1 143 57 7 144 51 3 145 55 1 146 57 11 147 47 7 148 51 1 149 57 13 150 45 11 151 47 1 152 57 0 153 44 13 154 45 1 155 57 28 156 58 29 157 59 43 158 60 43 159 60 42 160 61 28 161 58 29 162 59 30 163 62 44 164 63 44 165 63 43 166 60 29 167 59 30 168 66 31 169 67 45 170 68 45 171 68 44 172 69 30 173 66 31 174 67 32 175 70 46 176 79 46 177 79 45 178 68 31 179 67 32 180 70 33 181 71 47 182 80 47 183 80 46 184 79 32 185 70 33 186 71 34 187 72 48 188 81 48 189 81 47 190 80 33 191 71 34 192 72 35 193 73 49 194 82 49 195 82 48 196 81 34 197 72 35 198 73 36 199 74 50 200 84 50 201 84 49 202 82 35 203 73 36 204 74 37 205 75 51 206 83 51 207 83 50 208 84 36 209 74 37 210 75 38 211 76 52 212 86 52 213 86 51 214 83 37 215 75 38 216 76 39 217 77 53 218 85 53 219 85 52 220 86 38 221 76 39 222 77 40 223 78 54 224 87 54 225 87 53 226 85 39 227 77 40 228 78 41 229 64 55 230 65 55 231 65 54 232 87 40 233 78 41 234 64 28 235 58 42 236 61 42 237 61 55 238 65 41 239 64 43 240 89 44 241 90 45 242 91 45 243 91 46 244 92 47 245 93 47 246 93 48 247 94 49 248 95 45 249 91 47 250 93 49 251 95 49 252 95 50 253 96 51 254 97 51 255 97 52 256 98 53 257 99 49 258 95 51 259 97 53 260 99 53 261 99 54 262 100 55 263 101 49 264 95 53 265 99 55 266 101 45 267 91 49 268 95 55 269 101 43 270 89 45 271 91 55 272 101 42 273 88 43 274 89 55 275 101 58 276 102 59 277 103 61 278 104 61 279 104 60 280 105 58 281 102 56 282 106 57 283 107 59 284 108 59 285 108 58 286 109 56 287 106 62 288 114 63 289 115 64 290 116 64 291 116 65 292 117 62 293 114 67 294 110 66 295 111 60 296 112 60 297 112 61 298 113 67 299 110 67 300 110 61 301 113 64 302 118 64 303 118 63 304 119 67 305 110 61 306 104 59 307 103 65 308 122 65 309 122 64 310 123 61 311 104 59 312 108 57 313 107 62 314 120 62 315 120 65 316 121 59 317 108 57 318 124 56 319 125 66 320 126 66 321 126 67 322 127 57 323 124 57 324 124 67 325 127 63 326 129 63 327 129 62 328 128 57 329 124 68 330 132 69 331 133 71 332 134 71 333 134 70 334 135 68 335 132 71 336 134 69 337 133 73 338 136 73 339 136 72 340 137 71 341 134 68 342 130 70 343 131 75 344 138 75 345 138 74 346 139 68 347 130 76 348 142 78 349 145 79 350 144 79 351 144 77 352 143 76 353 142 79 354 144 80 355 147 81 356 146 81 357 146 77 358 143 79 359 144 76 360 140 82 361 149 83 362 148 83 363 148 78 364 141 76 365 140 86 366 150 87 367 151 89 368 152 89 369 152 88 370 153 86 371 150 84 372 154 85 373 155 87 374 156 87 375 156 86 376 157 84 377 154 90 378 162 91 379 163 92 380 164 92 381 164 93 382 165 90 383 162 95 384 158 94 385 159 88 386 160 88 387 160 89 388 161 95 389 158 95 390 158 89 391 161 92 392 166 92 393 166 91 394 167 95 395 158 89 396 152 87 397 151 93 398 170 93 399 170 92 400 171 89 401 152 87 402 156 85 403 155 90 404 168 90 405 168 93 406 169 87 407 156 85 408 172 84 409 173 94 410 174 94 411 174 95 412 175 85 413 172 85 414 172 95 415 175 91 416 177 91 417 177 90 418 176 85 419 172 96 420 180 97 421 181 99 422 182 99 423 182 98 424 183 96 425 180 99 426 182 97 427 181 101 428 184 101 429 184 100 430 185 99 431 182 96 432 178 98 433 179 103 434 186 103 435 186 102 436 187 96 437 178 104 438 190 106 439 193 107 440 192 107 441 192 105 442 191 104 443 190 107 444 192 108 445 195 109 446 194 109 447 194 105 448 191 107 449 192 104 450 188 110 451 197 111 452 196 111 453 196 106 454 189 104 455 188 114 456 198 115 457 199 117 458 200 117 459 200 116 460 201 114 461 198 112 462 202 113 463 203 115 464 204 115 465 204 114 466 205 112 467 202 118 468 210 119 469 211 120 470 212 120 471 212 121 472 213 118 473 210 123 474 206 122 475 207 116 476 208 116 477 208 117 478 209 123 479 206 123 480 206 117 481 209 120 482 214 120 483 214 119 484 215 123 485 206 117 486 200 115 487 199 121 488 218 121 489 218 120 490 219 117 491 200 115 492 204 113 493 203 118 494 216 118 495 216 121 496 217 115 497 204 113 498 220 112 499 221 122 500 222 122 501 222 123 502 223 113 503 220 113 504 220 123 505 223 119 506 225 119 507 225 118 508 224 113 509 220 124 510 228 125 511 229 127 512 230 127 513 230 126 514 231 124 515 228 127 516 230 125 517 229 129 518 232 129 519 232 128 520 233 127 521 230 124 522 226 126 523 227 131 524 234 131 525 234 130 526 235 124 527 226 132 528 238 134 529 241 135 530 240 135 531 240 133 532 239 132 533 238 135 534 240 136 535 243 137 536 242 137 537 242 133 538 239 135 539 240 132 540 236 138 541 245 139 542 244 139 543 244 134 544 237 132 545 236 142 546 246 143 547 247 145 548 248 145 549 248 144 550 249 142 551 246 140 552 250 141 553 251 143 554 252 143 555 252 142 556 253 140 557 250 146 558 258 147 559 259 148 560 260 148 561 260 149 562 261 146 563 258 151 564 254 150 565 255 144 566 256 144 567 256 145 568 257 151 569 254 151 570 254 145 571 257 148 572 262 148 573 262 147 574 263 151 575 254 145 576 248 143 577 247 149 578 266 149 579 266 148 580 267 145 581 248 143 582 252 141 583 251 146 584 264 146 585 264 149 586 265 143 587 252 141 588 268 140 589 269 150 590 270 150 591 270 151 592 271 141 593 268 141 594 268 151 595 271 147 596 273 147 597 273 146 598 272 141 599 268 152 600 276 153 601 277 155 602 278 155 603 278 154 604 279 152 605 276 155 606 278 153 607 277 157 608 280 157 609 280 156 610 281 155 611 278 152 612 274 154 613 275 159 614 282 159 615 282 158 616 283 152 617 274 160 618 286 162 619 289 163 620 288 163 621 288 161 622 287 160 623 286 163 624 288 164 625 291 165 626 290 165 627 290 161 628 287 163 629 288 160 630 284 166 631 293 167 632 292 167 633 292 162 634 285 160 635 284 170 636 294 171 637 295 173 638 296 173 639 296 172 640 297 170 641 294 168 642 298 169 643 299 171 644 300 171 645 300 170 646 301 168 647 298 174 648 306 175 649 307 176 650 308 176 651 308 177 652 309 174 653 306 179 654 302 178 655 303 172 656 304 172 657 304 173 658 305 179 659 302 179 660 302 173 661 305 176 662 310 176 663 310 175 664 311 179 665 302 173 666 296 171 667 295 177 668 314 177 669 314 176 670 315 173 671 296 171 672 300 169 673 299 174 674 312 174 675 312 177 676 313 171 677 300 169 678 316 168 679 317 178 680 318 178 681 318 179 682 319 169 683 316 169 684 316 179 685 319 175 686 321 175 687 321 174 688 320 169 689 316 180 690 324 181 691 325 183 692 326 183 693 326 182 694 327 180 695 324 183 696 326 181 697 325 185 698 328 185 699 328 184 700 329 183 701 326 180 702 322 182 703 323 187 704 330 187 705 330 186 706 331 180 707 322 188 708 334 190 709 337 191 710 336 191 711 336 189 712 335 188 713 334 191 714 336 192 715 339 193 716 338 193 717 338 189 718 335 191 719 336 188 720 332 194 721 341 195 722 340 195 723 340 190 724 333 188 725 332</p>
        </triangles>
      </mesh>
    </geometry>
  </library_geometries>
  <library_animations>
    <animation id="Object528-anim" name="Object528">
      <animation>
        <source id="Object528-Matrix-animation-input">
          <float_array id="Object528-Matrix-animation-input-array" count="41">

0.000000 0.033333 0.066667 0.100000 0.133333 0.166667 0.200000 0.233333 0.266667 0.300000 0.333333 0.366667 0.400000 0.433333 0.466667 0.500000
0.533333 0.566667 0.600000 0.633333 0.666667 0.700000 0.733333 0.766667 0.800000 0.833333 0.866667 0.900000 0.933333 0.966667 1.000000 1.033333
1.066667 1.100000 1.133333 1.166667 1.200000 1.233333 1.266667 1.300000 1.333333</float_array>
          <technique_common>
            <accessor source="#Object528-Matrix-animation-input-array" count="41">
              <param name="TIME" type="float"/>
            </accessor>
          </technique_common>
        </source>
        <source id="Object528-Matrix-animation-output-transform">
          <float_array id="Object528-Matrix-animation-output-transform-array" count="656">

1.000000 0.000000 0.000000 0.000000 0.000000 0.000000 1.000000 0.000000 0.000000 -1.000000 0.000000 0.000000 0.000000 0.000000 0.000000 1.000000
0.987693 0.156389 -0.002408 0.000000 0.002691 -0.001596 0.999995 0.000000 0.156385 -0.987694 -0.001997 0.000000 0.000000 0.000000 0.000000 1.000000
0.951073 0.308935 -0.004373 0.000000 0.005694 -0.003376 0.999978 0.000000 0.308914 -0.951077 -0.004970 0.000000 0.000000 0.000000 0.000000 1.000000
0.891043 0.453884 -0.005539 0.000000 0.008906 -0.005280 0.999946 0.000000 0.453831 -0.891045 -0.008747 0.000000 0.000000 0.000000 0.000000 1.000000
0.809084 0.587666 -0.005631 0.000000 0.012222 -0.007246 0.999899 0.000000 0.587566 -0.809071 -0.013045 0.000000 0.000000 0.000000 0.000000 1.000000
0.707215 0.706984 -0.004477 0.000000 0.015537 -0.009211 0.999837 0.000000 0.706828 -0.707169 -0.017499 0.000000 0.000000 0.000000 0.000000 1.000000
0.587949 0.808896 -0.002033 0.000000 0.018749 -0.011115 0.999762 0.000000 0.808681 -0.587847 -0.021701 0.000000 0.000000 0.000000 0.000000 1.000000
0.454225 0.890886 0.001608 0.000000 0.021752 -0.012894 0.999680 0.000000 0.890622 -0.454044 -0.025235 0.000000 0.000000 0.000000 0.000000 1.000000
0.309336 0.950932 0.006219 0.000000 0.024442 -0.014488 0.999596 0.000000 0.950639 -0.309059 -0.027724 0.000000 0.000000 0.000000 0.000000 1.000000
0.156850 0.987556 0.011453 0.000000 0.026715 -0.015835 0.999518 0.000000 0.987261 -0.156468 -0.028867 0.000000 0.000000 0.000000 0.000000 1.000000
0.000516 0.999858 0.016866 0.000000 0.028468 -0.016873 0.999452 0.000000 0.999595 -0.000035 -0.028473 0.000000 0.000000 0.000000 0.000000 1.000000
-0.155826 0.987541 0.021948 0.000000 0.029596 -0.017541 0.999408 0.000000 0.987341 0.156384 -0.026494 0.000000 0.000000 0.000000 0.000000 1.000000
-0.308337 0.950917 0.026170 0.000000 0.029995 -0.017778 0.999392 0.000000 0.950804 0.308935 -0.023041 0.000000 0.000000 0.000000 0.000000 1.000000
-0.453276 0.890903 0.028859 0.000000 0.029248 -0.017493 0.999419 0.000000 0.890890 0.453857 -0.018128 0.000000 0.000000 0.000000 0.000000 1.000000
-0.587087 0.808988 0.029449 0.000000 0.027138 -0.016689 0.999492 0.000000 0.809069 0.587588 -0.012156 0.000000 0.000000 0.000000 0.000000 1.000000
-0.706479 0.707189 0.027785 0.000000 0.023858 -0.015439 0.999596 0.000000 0.707332 0.706856 -0.005965 0.000000 0.000000 0.000000 0.000000 1.000000
-0.808504 0.588002 0.023981 0.000000 0.019604 -0.013817 0.999712 0.000000 0.588164 0.808742 -0.000356 0.000000 0.000000 0.000000 0.000000 1.000000
-0.890635 0.454347 0.018385 0.000000 0.014570 -0.011898 0.999823 0.000000 0.454485 0.890745 0.003977 0.000000 0.000000 0.000000 0.000000 1.000000
-0.950830 0.309498 0.011530 0.000000 0.008950 -0.009754 0.999912 0.000000 0.309583 0.950850 0.006504 0.000000 0.000000 0.000000 0.000000 1.000000
-0.987589 0.157005 0.004076 0.000000 0.002941 -0.007461 0.999968 0.000000 0.157031 0.987570 0.006907 0.000000 0.000000 0.000000 0.000000 1.000000
-0.999994 0.000615 -0.003260 0.000000 -0.003263 -0.005094 0.999982 0.000000 0.000598 0.999987 0.005096 0.000000 0.000000 0.000000 0.000000 1.000000
-0.987736 -0.155827 -0.009776 0.000000 -0.009467 -0.002726 0.999951 0.000000 -0.155846 0.987781 0.001217 0.000000 0.000000 0.000000 0.000000 1.000000
-0.951121 -0.308461 -0.014855 0.000000 -0.015476 -0.000433 0.999880 0.000000 -0.308430 0.951237 -0.004362 0.000000 0.000000 0.000000 0.000000 1.000000
-0.891065 -0.453518 -0.018025 0.000000 -0.021095 0.001711 0.999776 0.000000 -0.453386 0.891245 -0.011092 0.000000 0.000000 0.000000 0.000000 1.000000
-0.809064 -0.587413 -0.019013 0.000000 -0.026128 0.003632 0.999652 0.000000 -0.587139 0.809279 -0.018286 0.000000 0.000000 0.000000 0.000000 1.000000
-0.707158 -0.706832 -0.017779 0.000000 -0.030382 0.005254 0.999525 0.000000 -0.706403 0.707362 -0.025191 0.000000 0.000000 0.000000 0.000000 1.000000
-0.587870 -0.808825 -0.014535 0.000000 -0.033661 0.006505 0.999412 0.000000 -0.808255 0.588013 -0.031050 0.000000 0.000000 0.000000 0.000000 1.000000
-0.454143 -0.890875 -0.009739 0.000000 -0.035771 0.007310 0.999333 0.000000 -0.890210 0.454189 -0.035187 0.000000 0.000000 0.000000 0.000000 1.000000
-0.309265 -0.950967 -0.004074 0.000000 -0.036518 0.007595 0.999304 0.000000 -0.950275 0.309198 -0.037076 0.000000 0.000000 0.000000 0.000000 1.000000
-0.156781 -0.987632 0.001753 0.000000 -0.036032 0.007494 0.999323 0.000000 -0.986976 0.156612 -0.036761 0.000000 0.000000 0.000000 0.000000 1.000000
-0.000425 -0.999974 0.007198 0.000000 -0.034659 0.007209 0.999373 0.000000 -0.999399 0.000175 -0.034661 0.000000 0.000000 0.000000 0.000000 1.000000
0.155965 -0.987693 0.011761 0.000000 -0.032525 0.006765 0.999448 0.000000 -0.987227 -0.156262 -0.031070 0.000000 0.000000 0.000000 0.000000 1.000000
0.308544 -0.951090 0.015075 0.000000 -0.029757 0.006190 0.999538 0.000000 -0.950744 -0.308850 -0.026392 0.000000 0.000000 0.000000 0.000000 1.000000
0.453553 -0.891068 0.016926 0.000000 -0.026482 0.005509 0.999634 0.000000 -0.890836 -0.453836 -0.021099 0.000000 0.000000 0.000000 0.000000 1.000000
0.587415 -0.809102 0.017256 0.000000 -0.022827 0.004749 0.999728 0.000000 -0.808964 -0.587650 -0.015680 0.000000 0.000000 0.000000 0.000000 1.000000
0.706823 -0.707206 0.016157 0.000000 -0.018917 0.003936 0.999813 0.000000 -0.707138 -0.706997 -0.010597 0.000000 0.000000 0.000000 0.000000 1.000000
0.808824 -0.587888 0.013857 0.000000 -0.014880 0.003096 0.999884 0.000000 -0.587863 -0.808937 -0.006244 0.000000 0.000000 0.000000 0.000000 1.000000
0.890895 -0.454084 0.010685 0.000000 -0.010843 0.002256 0.999939 0.000000 -0.454080 -0.890956 -0.002914 0.000000 0.000000 0.000000 0.000000 1.000000
0.951007 -0.309088 0.007039 0.000000 -0.006933 0.001443 0.999975 0.000000 -0.309091 -0.951032 -0.000771 0.000000 0.000000 0.000000 0.000000 1.000000
0.987677 -0.156473 0.003343 0.000000 -0.003276 0.000682 0.999994 0.000000 -0.156475 -0.987682 0.000161 0.000000 0.000000 0.000000 0.000000 1.000000
1.000000 -0.000000 0.000000 0.000000 -0.000000 0.000000 1.000000 0.000000 -0.000000 -1.000000 0.000000 0.000000 0.000000 0.000000 0.000000 1.000000</float_array>
          <technique_common>
            <accessor source="#Object528-Matrix-animation-output-transform-array" count="41" stride="16">
              <param type="float4x4"/>
            </accessor>
          </technique_common>
        </source>
        <source id="Object528-Interpolations">
          <Name_array id="Object528-Interpolations-array" count="41">
 LINEAR LINEAR LINEAR LINEAR LINEAR LINEAR LINEAR LINEAR LINEAR LINEAR LINEAR
LINEAR LINEAR LINEAR LINEAR LINEAR LINEAR LINEAR LINEAR LINEAR LINEAR LINEAR LINEAR
LINEAR LINEAR LINEAR LINEAR LINEAR LINEAR LINEAR LINEAR LINEAR LINEAR LINEAR LINEAR
LINEAR LINEAR LINEAR LINEAR LINEAR LINEAR</Name_array>
          <technique_common>
            <accessor source="#Object528-Interpolations-array" count="41">
              <param type="name"/>
            </accessor>
          </technique_common>
        </source>
        <sampler id="Object528-Matrix-animation-transform">
          <input semantic="INPUT" source="#Object528-Matrix-animation-input"/>
          <input semantic="OUTPUT" source="#Object528-Matrix-animation-output-transform"/>
          <input semantic="INTERPOLATION" source="#Object528-Interpolations"/>
        </sampler>
        <channel source="#Object528-Matrix-animation-transform" target="Object528/matrix"/>
      </animation>
    </animation>
  </library_animations>
  <library_visual_scenes>
    <visual_scene id="" name="">
      <node name="Object528" id="Object528" layer="fan_spraylock" sid="Object528">
        <matrix sid="matrix">1.000000 0.000000 0.000000 0.000000 0.000000 0.000000 1.000000 0.000000 0.000000 -1.000000 0.000000 0.000000 0.000000 0.000000 0.000000 1.000000</matrix>
        <instance_geometry url="#Object528-lib">
          <bind_material>
            <technique_common>
              <instance_material symbol="electric_cabin" target="#electric_cabin"/>
            </technique_common>
          </bind_material>
        </instance_geometry>
        <extra>
          <technique profile="FCOLLADA">
            <visibility>1.000000</visibility>
          </technique>
        </extra>
      </node>
      <extra>
        <technique profile="MAX3D">
          <frame_rate>30.000000</frame_rate>
        </technique>
        <technique profile="FCOLLADA">
          <start_time>0.000000</start_time>
          <end_time>1.333333</end_time>
        </technique>
      </extra>
    </visual_scene>
  </library_visual_scenes>
  <scene>
    <instance_visual_scene url="#"></instance_visual_scene>
  </scene>
</COLLADA>

