<?xml version="1.0" encoding="utf-8"?>
<COLLADA xmlns="http://www.collada.org/2005/11/COLLADASchema" version="1.4.1">
  <asset>
    <contributor>
      <author></author>
      <authoring_tool>FBX COLLADA exporter</authoring_tool>
      <comments></comments>
    </contributor>
    <created>2012-06-01T13:04:58Z</created>
    <keywords></keywords>
    <modified>2012-06-01T13:04:58Z</modified>
    <revision></revision>
    <subject></subject>
    <title></title>
    <unit meter="1.000000" name="centimeter"></unit>
    <up_axis>Y_UP</up_axis>
  </asset>
  <library_images>
    <image id="Map #15-image" name="Map #15">
      <init_from>file://C:\Users\WesleyTack\Desktop\amnesia_raw\StaticObjects\spraylock\pipes03.jpg</init_from>
    </image>
    <image id="Map #14-image" name="Map #14">
      <init_from>file://C:\Users\WesleyTack\Desktop\amnesia_raw\StaticObjects\spraylock\flanges_copper.jpg</init_from>
    </image>
  </library_images>
  <library_materials>
    <material id="_05 - Default" name="_05 - Default">
      <instance_effect url="#_05 - Default-fx"/>
    </material>
    <material id="_04 - Default" name="_04 - Default">
      <instance_effect url="#_04 - Default-fx"/>
    </material>
  </library_materials>
  <library_effects>
    <effect id="_05 - Default-fx" name="_05 - Default">
      <profile_COMMON>
        <technique sid="standard">
          <phong>
            <emission>
              <color sid="emission">0.000000  0.000000 0.000000 1.000000</color>
            </emission>
            <ambient>
              <color sid="ambient">0.588235  0.588235 0.588235 1.000000</color>
            </ambient>
            <diffuse>
              <texture texture="Map #15-image" texcoord="CHANNEL0">
                <extra>
                  <technique profile="MAYA">
                    <wrapU sid="wrapU0">TRUE</wrapU>
                    <wrapV sid="wrapV0">TRUE</wrapV>
                    <blend_mode>ADD</blend_mode>
                  </technique>
                </extra>
              </texture>
            </diffuse>
            <specular>
              <color sid="specular">0.000000  0.000000 0.000000 1.000000</color>
            </specular>
            <shininess>
              <float sid="shininess">2.000000</float>
            </shininess>
            <reflective>
              <color sid="reflective">0.000000  0.000000 0.000000 1.000000</color>
            </reflective>
            <reflectivity>
              <float sid="reflectivity">1.000000</float>
            </reflectivity>
            <transparent opaque="RGB_ZERO">
              <color sid="transparent">1.000000  1.000000 1.000000 1.000000</color>
            </transparent>
            <transparency>
              <float sid="transparency">0.000000</float>
            </transparency>
          </phong>
        </technique>
      </profile_COMMON>
    </effect>
    <effect id="_04 - Default-fx" name="_04 - Default">
      <profile_COMMON>
        <technique sid="standard">
          <phong>
            <emission>
              <color sid="emission">0.000000  0.000000 0.000000 1.000000</color>
            </emission>
            <ambient>
              <color sid="ambient">0.588235  0.588235 0.588235 1.000000</color>
            </ambient>
            <diffuse>
              <texture texture="Map #14-image" texcoord="CHANNEL0">
                <extra>
                  <technique profile="MAYA">
                    <wrapU sid="wrapU0">TRUE</wrapU>
                    <wrapV sid="wrapV0">TRUE</wrapV>
                    <blend_mode>ADD</blend_mode>
                  </technique>
                </extra>
              </texture>
            </diffuse>
            <specular>
              <color sid="specular">0.000000  0.000000 0.000000 1.000000</color>
            </specular>
            <shininess>
              <float sid="shininess">2.000000</float>
            </shininess>
            <reflective>
              <color sid="reflective">0.000000  0.000000 0.000000 1.000000</color>
            </reflective>
            <reflectivity>
              <float sid="reflectivity">1.000000</float>
            </reflectivity>
            <transparent opaque="RGB_ZERO">
              <color sid="transparent">1.000000  1.000000 1.000000 1.000000</color>
            </transparent>
            <transparency>
              <float sid="transparency">0.000000</float>
            </transparency>
          </phong>
        </technique>
      </profile_COMMON>
    </effect>
  </library_effects>
  <library_geometries>
    <geometry id="Object538-lib" name="Object538Mesh">
      <mesh>
        <source id="Object538-POSITION">
          <float_array id="Object538-POSITION-array" count="60">
0.000000 0.247361 1.456732
0.145817 0.199982 1.456732
0.235936 0.075943 1.456732
0.235936 -0.077377 1.456731
0.145816 -0.201416 1.456731
0.000000 -0.248795 1.456731
-0.145816 -0.201416 1.456731
-0.235936 -0.077377 1.456731
-0.235936 0.075943 1.456732
-0.145816 0.199982 1.456732
0.000001 0.247361 -1.455912
0.145817 0.199982 -1.455912
0.235937 0.075943 -1.455912
0.235936 -0.077377 -1.455912
0.145817 -0.201416 -1.455912
0.000000 -0.248795 -1.455912
-0.145816 -0.201416 -1.455912
-0.235936 -0.077377 -1.455912
-0.235935 0.075944 -1.455912
-0.145816 0.199983 -1.455912
</float_array>
          <technique_common>
            <accessor source="#Object538-POSITION-array" count="20" stride="3">
              <param name="X" type="float"/>
              <param name="Y" type="float"/>
              <param name="Z" type="float"/>
            </accessor>
          </technique_common>
        </source>
        <source id="Object538-Normal0">
          <float_array id="Object538-Normal0-array" count="180">
0.587786 0.809017 0.000000
0.000001 1.000000 0.000000
0.000001 1.000000 0.000000
0.000001 1.000000 0.000000
0.587786 0.809017 0.000000
0.587786 0.809016 0.000000
0.951057 0.309016 0.000000
0.951057 0.309016 0.000000
0.587786 0.809017 0.000000
0.587786 0.809017 0.000000
0.951057 0.309016 0.000000
0.587786 0.809016 0.000000
0.951056 -0.309018 0.000000
0.951057 0.309016 0.000000
0.951057 0.309016 0.000000
0.951057 0.309016 0.000000
0.951056 -0.309018 0.000000
0.951056 -0.309018 0.000000
0.587785 -0.809017 -0.000000
0.587785 -0.809017 -0.000000
0.951056 -0.309018 0.000000
0.951056 -0.309018 0.000000
0.587785 -0.809017 -0.000000
0.951056 -0.309018 0.000000
-0.000001 -1.000000 -0.000000
-0.000001 -1.000000 -0.000000
0.587785 -0.809017 -0.000000
0.587785 -0.809017 -0.000000
-0.000001 -1.000000 -0.000000
0.587785 -0.809017 -0.000000
-0.587786 -0.809016 -0.000000
-0.587786 -0.809016 -0.000000
-0.000001 -1.000000 -0.000000
-0.000001 -1.000000 -0.000000
-0.587786 -0.809016 -0.000000
-0.000001 -1.000000 -0.000000
-0.951057 -0.309016 -0.000000
-0.587786 -0.809016 -0.000000
-0.587786 -0.809016 -0.000000
-0.587786 -0.809016 -0.000000
-0.951057 -0.309016 -0.000000
-0.951057 -0.309016 -0.000000
-0.951056 0.309018 -0.000000
-0.951056 0.309018 -0.000000
-0.951057 -0.309016 -0.000000
-0.951057 -0.309016 -0.000000
-0.951056 0.309018 -0.000000
-0.951057 -0.309016 -0.000000
-0.587784 0.809018 0.000000
-0.951056 0.309018 -0.000000
-0.951056 0.309018 -0.000000
-0.951056 0.309018 -0.000000
-0.587784 0.809018 0.000000
-0.587784 0.809018 0.000000
0.000001 1.000000 0.000000
-0.587784 0.809018 0.000000
-0.587784 0.809018 0.000000
-0.587784 0.809018 0.000000
0.000001 1.000000 0.000000
0.000001 1.000000 0.000000
</float_array>
          <technique_common>
            <accessor source="#Object538-Normal0-array" count="60" stride="3">
              <param name="X" type="float"/>
              <param name="Y" type="float"/>
              <param name="Z" type="float"/>
            </accessor>
          </technique_common>
        </source>
        <source id="Object538-UV0">
          <float_array id="Object538-UV0-array" count="44">
0.062663 0.195187
0.062663 0.090002
0.062662 1.000371
0.062663 0.000575
0.062663 0.800295
0.062663 0.695110
0.502617 0.695110
0.062663 0.589924
0.062663 0.500448
0.502617 0.090003
0.502617 0.195188
0.062663 0.300377
0.502617 0.000725
0.502617 1.000371
0.502617 0.800297
0.502617 0.589924
0.502617 0.500448
0.502617 0.300271
0.062663 0.889771
0.502617 0.889774
0.062663 0.389850
0.502617 0.389850
</float_array>
          <technique_common>
            <accessor source="#Object538-UV0-array" count="22" stride="2">
              <param name="S" type="float"/>
              <param name="T" type="float"/>
            </accessor>
          </technique_common>
        </source>
        <vertices id="Object538-VERTEX">
          <input semantic="POSITION" source="#Object538-POSITION"/>
        </vertices>
        <triangles count="20" material="_05 - Default">
          <input semantic="VERTEX" offset="0" source="#Object538-VERTEX"/>
          <input semantic="NORMAL" offset="1" source="#Object538-Normal0"/>
          <input semantic="TEXCOORD" offset="2" set="0" source="#Object538-UV0"/>
          <p> 1 0 1 10 1 10 0 2 0 10 3 10 1 4 1 11 5 9 2 6 3 12 7 12 1 8 1 1 9 1 12 10 12 11 11 9 3 12 18 12 13 13 2 14 2 12 15 13 3 16 18 13 17 19 4 18 4 14 19 14 3 20 18 3 21 18 14 22 14 13 23 19 5 24 5 15 25 6 4 26 4 4 27 4 15 28 6 14 29 14 6 30 7 16 31 15 5 32 5 5 33 5 16 34 15 15 35 6 7 36 8 16 37 15 6 38 7 16 39 15 7 40 8 17 41 16 8 42 20 18 43 21 7 44 8 7 45 8 18 46 21 17 47 16 9 48 11 18 49 21 8 50 20 18 51 21 9 52 11 19 53 17 0 54 0 19 55 17 9 56 11 19 57 17 0 58 0 10 59 10</p>
        </triangles>
      </mesh>
    </geometry>
    <geometry id="Object539-lib" name="Object539Mesh">
      <mesh>
        <source id="Object539-POSITION">
          <float_array id="Object539-POSITION-array" count="192">
0.232126 -0.232126 1.499902
0.125626 -0.303287 1.499902
-0.000000 -0.328276 1.499902
-0.125626 -0.303287 1.499902
-0.232126 -0.232126 1.499902
-0.303287 -0.125626 1.499902
-0.328276 0.000000 1.499902
-0.303287 0.125626 1.499902
-0.232126 0.232126 1.499902
-0.125626 0.303288 1.499902
0.000000 0.328276 1.499902
0.125626 0.303287 1.499902
0.232126 0.232126 1.499902
0.303287 0.125626 1.499902
0.328276 -0.000000 1.499902
0.303287 -0.125626 1.499902
0.232126 -0.232126 1.454500
0.125626 -0.303287 1.454500
-0.000000 -0.328276 1.454500
-0.125626 -0.303287 1.454500
-0.232126 -0.232126 1.454500
-0.303287 -0.125626 1.454500
-0.328276 0.000000 1.454500
-0.303287 0.125626 1.454500
-0.232126 0.232126 1.454500
-0.125626 0.303288 1.454500
0.000000 0.328276 1.454500
0.125626 0.303287 1.454500
0.232126 0.232126 1.454500
0.303287 0.125626 1.454500
0.328276 -0.000000 1.454500
0.303287 -0.125626 1.454500
0.232126 0.232126 -1.454744
0.303287 0.125626 -1.454744
0.328276 -0.000000 -1.454744
0.303287 -0.125626 -1.454744
0.232126 -0.232126 -1.454744
0.125626 -0.303287 -1.454744
-0.000000 -0.328276 -1.454744
-0.125626 -0.303287 -1.454744
-0.232126 -0.232126 -1.454744
-0.303288 -0.125626 -1.454744
-0.328276 0.000000 -1.454744
-0.303287 0.125626 -1.454744
-0.232126 0.232126 -1.454744
-0.125626 0.303288 -1.454744
0.000000 0.328276 -1.454744
0.125626 0.303287 -1.454744
0.232126 0.232126 -1.500145
0.303287 0.125626 -1.500145
0.328276 0.000000 -1.500145
0.303287 -0.125626 -1.500145
0.232126 -0.232126 -1.500145
0.125626 -0.303287 -1.500145
-0.000000 -0.328276 -1.500145
-0.125626 -0.303287 -1.500145
-0.232126 -0.232126 -1.500145
-0.303288 -0.125626 -1.500145
-0.328276 0.000000 -1.500145
-0.303287 0.125626 -1.500145
-0.232126 0.232126 -1.500145
-0.125626 0.303288 -1.500145
0.000000 0.328276 -1.500145
0.125626 0.303287 -1.500145
</float_array>
          <technique_common>
            <accessor source="#Object539-POSITION-array" count="64" stride="3">
              <param name="X" type="float"/>
              <param name="Y" type="float"/>
              <param name="Z" type="float"/>
            </accessor>
          </technique_common>
        </source>
        <source id="Object539-Normal0">
          <float_array id="Object539-Normal0-array" count="1080">
0.707106 -0.707107 0.000000
0.382683 -0.923880 0.000000
0.382683 -0.923880 0.000000
0.382683 -0.923880 0.000000
0.707106 -0.707107 0.000000
0.707106 -0.707107 0.000000
0.382683 -0.923880 0.000000
-0.000000 -1.000000 0.000000
0.000000 -1.000000 0.000000
0.000000 -1.000000 0.000000
0.382683 -0.923880 0.000000
0.382683 -0.923880 0.000000
-0.000000 -1.000000 0.000000
-0.382684 -0.923879 0.000000
-0.382684 -0.923879 -0.000000
-0.382684 -0.923879 -0.000000
0.000000 -1.000000 0.000000
-0.000000 -1.000000 0.000000
-0.382684 -0.923879 0.000000
-0.707107 -0.707106 0.000000
-0.707107 -0.707106 0.000000
-0.707107 -0.707106 0.000000
-0.382684 -0.923879 -0.000000
-0.382684 -0.923879 0.000000
-0.707107 -0.707106 0.000000
-0.923880 -0.382683 0.000000
-0.923880 -0.382683 0.000000
-0.923880 -0.382683 0.000000
-0.707107 -0.707106 0.000000
-0.707107 -0.707106 0.000000
-0.923880 -0.382683 0.000000
-1.000000 -0.000000 0.000000
-1.000000 -0.000000 -0.000000
-1.000000 -0.000000 -0.000000
-0.923880 -0.382683 0.000000
-0.923880 -0.382683 0.000000
-1.000000 -0.000000 0.000000
-0.923879 0.382684 0.000000
-0.923879 0.382684 -0.000000
-0.923879 0.382684 -0.000000
-1.000000 -0.000000 -0.000000
-1.000000 -0.000000 0.000000
-0.923879 0.382684 0.000000
-0.707107 0.707107 0.000000
-0.707107 0.707107 0.000000
-0.707107 0.707107 0.000000
-0.923879 0.382684 -0.000000
-0.923879 0.382684 0.000000
-0.707107 0.707107 0.000000
-0.382683 0.923880 -0.000000
-0.382683 0.923880 0.000000
-0.382683 0.923880 0.000000
-0.707107 0.707107 0.000000
-0.707107 0.707107 0.000000
-0.382683 0.923880 -0.000000
0.000000 1.000000 0.000000
0.000000 1.000000 0.000000
0.000000 1.000000 0.000000
-0.382683 0.923880 0.000000
-0.382683 0.923880 -0.000000
0.000000 1.000000 0.000000
0.382683 0.923880 0.000000
0.382683 0.923880 0.000000
0.382683 0.923880 0.000000
0.000000 1.000000 0.000000
0.000000 1.000000 0.000000
0.382683 0.923880 0.000000
0.707107 0.707106 -0.000000
0.707107 0.707106 0.000000
0.707107 0.707106 0.000000
0.382683 0.923880 0.000000
0.382683 0.923880 0.000000
0.707107 0.707106 -0.000000
0.923880 0.382683 -0.000000
0.923880 0.382683 -0.000000
0.923880 0.382683 -0.000000
0.707107 0.707106 0.000000
0.707107 0.707106 -0.000000
0.923880 0.382683 -0.000000
1.000000 -0.000000 -0.000000
1.000000 -0.000000 -0.000000
1.000000 -0.000000 -0.000000
0.923880 0.382683 -0.000000
0.923880 0.382683 -0.000000
1.000000 -0.000000 -0.000000
0.923879 -0.382684 0.000000
0.923879 -0.382684 0.000000
0.923879 -0.382684 0.000000
1.000000 -0.000000 -0.000000
1.000000 -0.000000 -0.000000
0.923879 -0.382684 0.000000
0.707106 -0.707107 0.000000
0.707106 -0.707107 0.000000
0.707106 -0.707107 0.000000
0.923879 -0.382684 0.000000
0.923879 -0.382684 0.000000
0.000000 0.000000 1.000000
0.000000 0.000000 1.000000
0.000000 0.000000 1.000000
0.000000 0.000000 1.000000
0.000000 0.000000 1.000000
0.000000 0.000000 1.000000
0.000000 -0.000002 1.000000
0.000000 -0.000002 1.000000
0.000000 -0.000002 1.000000
-0.000000 -0.000001 1.000000
-0.000000 -0.000001 1.000000
-0.000000 -0.000001 1.000000
0.000000 0.000000 1.000000
0.000000 0.000000 1.000000
0.000000 0.000000 1.000000
0.000000 0.000000 1.000000
0.000000 0.000000 1.000000
0.000000 0.000000 1.000000
0.000000 0.000000 1.000000
0.000000 0.000000 1.000000
0.000000 0.000000 1.000000
0.000000 0.000000 1.000000
0.000000 0.000000 1.000000
0.000000 0.000000 1.000000
-0.000000 0.000001 1.000000
-0.000000 0.000001 1.000000
-0.000000 0.000001 1.000000
0.000000 0.000000 1.000000
0.000000 0.000000 1.000000
0.000000 0.000000 1.000000
0.000000 -0.000000 1.000000
0.000000 -0.000000 1.000000
0.000000 -0.000000 1.000000
-0.000000 -0.000000 1.000000
-0.000000 -0.000000 1.000000
-0.000000 -0.000000 1.000000
-0.000001 -0.000000 1.000000
-0.000001 -0.000000 1.000000
-0.000001 -0.000000 1.000000
-0.000003 0.000001 1.000000
-0.000003 0.000001 1.000000
-0.000003 0.000001 1.000000
0.000000 0.000000 -1.000000
0.000000 0.000000 -1.000000
0.000000 0.000000 -1.000000
0.000000 0.000000 -1.000000
0.000000 0.000000 -1.000000
0.000000 0.000000 -1.000000
0.000000 0.000000 -1.000000
0.000000 0.000000 -1.000000
0.000000 0.000000 -1.000000
0.000000 0.000000 -1.000000
0.000000 0.000000 -1.000000
0.000000 0.000000 -1.000000
0.000002 -0.000001 -1.000000
0.000002 -0.000001 -1.000000
0.000002 -0.000001 -1.000000
0.000000 0.000000 -1.000000
0.000000 0.000000 -1.000000
0.000000 0.000000 -1.000000
0.000000 0.000001 -1.000000
0.000000 0.000001 -1.000000
0.000000 0.000001 -1.000000
0.000000 0.000000 -1.000000
0.000000 0.000000 -1.000000
0.000000 0.000000 -1.000000
0.000000 0.000000 -1.000000
0.000000 0.000000 -1.000000
0.000000 0.000000 -1.000000
0.000000 0.000000 -1.000000
0.000000 0.000000 -1.000000
0.000000 0.000000 -1.000000
0.000000 0.000000 -1.000000
0.000000 0.000000 -1.000000
0.000000 0.000000 -1.000000
0.000000 0.000000 -1.000000
0.000000 0.000000 -1.000000
0.000000 0.000000 -1.000000
0.000000 0.000001 -1.000000
0.000000 0.000001 -1.000000
0.000000 0.000001 -1.000000
-0.000001 0.000002 -1.000000
-0.000001 0.000002 -1.000000
-0.000001 0.000002 -1.000000
0.707107 0.707106 0.000000
0.923880 0.382683 0.000000
0.923880 0.382683 0.000000
0.923880 0.382683 0.000000
0.707107 0.707106 0.000000
0.707107 0.707106 0.000000
0.923880 0.382683 0.000000
1.000000 -0.000000 0.000000
1.000000 -0.000000 -0.000000
1.000000 -0.000000 -0.000000
0.923880 0.382683 0.000000
0.923880 0.382683 0.000000
1.000000 -0.000000 0.000000
0.923879 -0.382684 0.000000
0.923879 -0.382684 -0.000000
0.923879 -0.382684 -0.000000
1.000000 -0.000000 -0.000000
1.000000 -0.000000 0.000000
0.923879 -0.382684 0.000000
0.707106 -0.707107 0.000000
0.707106 -0.707107 0.000000
0.707106 -0.707107 0.000000
0.923879 -0.382684 -0.000000
0.923879 -0.382684 0.000000
0.707106 -0.707107 0.000000
0.382683 -0.923880 0.000000
0.382683 -0.923880 0.000000
0.382683 -0.923880 0.000000
0.707106 -0.707107 0.000000
0.707106 -0.707107 0.000000
0.382683 -0.923880 0.000000
-0.000000 -1.000000 0.000000
-0.000000 -1.000000 -0.000000
-0.000000 -1.000000 -0.000000
0.382683 -0.923880 0.000000
0.382683 -0.923880 0.000000
-0.000000 -1.000000 0.000000
-0.382684 -0.923879 0.000000
-0.382684 -0.923879 -0.000000
-0.382684 -0.923879 -0.000000
-0.000000 -1.000000 -0.000000
-0.000000 -1.000000 0.000000
-0.382684 -0.923879 0.000000
-0.707107 -0.707106 0.000000
-0.707107 -0.707107 0.000000
-0.707107 -0.707107 0.000000
-0.382684 -0.923879 -0.000000
-0.382684 -0.923879 0.000000
-0.707107 -0.707106 0.000000
-0.923880 -0.382683 -0.000000
-0.923880 -0.382683 0.000000
-0.923880 -0.382683 0.000000
-0.707107 -0.707107 0.000000
-0.707107 -0.707106 0.000000
-0.923880 -0.382683 -0.000000
-1.000000 0.000000 0.000000
-1.000000 0.000001 0.000000
-1.000000 0.000001 0.000000
-0.923880 -0.382683 0.000000
-0.923880 -0.382683 -0.000000
-1.000000 0.000000 0.000000
-0.923880 0.382683 0.000000
-0.923879 0.382684 0.000000
-0.923879 0.382684 0.000000
-1.000000 0.000001 0.000000
-1.000000 0.000000 0.000000
-0.923880 0.382683 0.000000
-0.707106 0.707107 -0.000000
-0.707106 0.707107 0.000000
-0.707106 0.707107 0.000000
-0.923879 0.382684 0.000000
-0.923880 0.382683 0.000000
-0.707106 0.707107 -0.000000
-0.382683 0.923880 -0.000000
-0.382683 0.923880 -0.000000
-0.382683 0.923880 -0.000000
-0.707106 0.707107 0.000000
-0.707106 0.707107 -0.000000
-0.382683 0.923880 -0.000000
0.000000 1.000000 -0.000000
0.000000 1.000000 -0.000000
0.000000 1.000000 -0.000000
-0.382683 0.923880 -0.000000
-0.382683 0.923880 -0.000000
0.000000 1.000000 -0.000000
0.382684 0.923879 0.000000
0.382684 0.923879 0.000000
0.382684 0.923879 0.000000
0.000000 1.000000 -0.000000
0.000000 1.000000 -0.000000
0.382684 0.923879 0.000000
0.707107 0.707106 0.000000
0.707107 0.707106 0.000000
0.707107 0.707106 0.000000
0.382684 0.923879 0.000000
0.382684 0.923879 0.000000
0.000000 0.000000 1.000000
0.000000 0.000000 1.000000
0.000000 0.000000 1.000000
0.000000 0.000000 1.000000
0.000000 0.000000 1.000000
0.000000 0.000000 1.000000
0.000005 0.000001 1.000000
0.000005 0.000001 1.000000
0.000005 0.000001 1.000000
0.000001 -0.000001 1.000000
0.000001 -0.000001 1.000000
0.000001 -0.000001 1.000000
0.000000 0.000000 1.000000
0.000000 0.000000 1.000000
0.000000 0.000000 1.000000
0.000000 0.000000 1.000000
0.000000 0.000000 1.000000
0.000000 0.000000 1.000000
0.000000 0.000000 1.000000
0.000000 0.000000 1.000000
0.000000 0.000000 1.000000
0.000000 0.000000 1.000000
0.000000 0.000000 1.000000
0.000000 0.000000 1.000000
0.000000 0.000000 1.000000
0.000000 0.000000 1.000000
0.000000 0.000000 1.000000
0.000000 0.000000 1.000000
0.000000 0.000000 1.000000
0.000000 0.000000 1.000000
0.000000 0.000000 1.000000
0.000000 0.000000 1.000000
0.000000 0.000000 1.000000
0.000001 -0.000001 1.000000
0.000001 -0.000001 1.000000
0.000001 -0.000001 1.000000
0.000001 -0.000001 1.000000
0.000001 -0.000001 1.000000
0.000001 -0.000001 1.000000
-0.000001 -0.000005 1.000000
-0.000001 -0.000005 1.000000
-0.000001 -0.000005 1.000000
0.000000 0.000000 -1.000000
0.000000 0.000000 -1.000000
0.000000 0.000000 -1.000000
0.000000 0.000000 -1.000000
0.000000 0.000000 -1.000000
0.000000 0.000000 -1.000000
0.000000 0.000000 -1.000000
0.000000 0.000000 -1.000000
0.000000 0.000000 -1.000000
0.000000 0.000000 -1.000000
0.000000 0.000000 -1.000000
0.000000 0.000000 -1.000000
0.000000 0.000000 -1.000000
0.000000 0.000000 -1.000000
0.000000 0.000000 -1.000000
0.000000 0.000000 -1.000000
0.000000 0.000000 -1.000000
0.000000 0.000000 -1.000000
0.000000 0.000000 -1.000000
0.000000 0.000000 -1.000000
0.000000 0.000000 -1.000000
0.000000 0.000000 -1.000000
0.000000 0.000000 -1.000000
0.000000 0.000000 -1.000000
0.000000 0.000000 -1.000000
0.000000 0.000000 -1.000000
0.000000 0.000000 -1.000000
0.000000 0.000000 -1.000000
0.000000 0.000000 -1.000000
0.000000 0.000000 -1.000000
0.000000 0.000000 -1.000000
0.000000 0.000000 -1.000000
0.000000 0.000000 -1.000000
0.000000 0.000000 -1.000000
0.000000 0.000000 -1.000000
0.000000 0.000000 -1.000000
0.000000 0.000000 -1.000000
0.000000 0.000000 -1.000000
0.000000 0.000000 -1.000000
0.000000 0.000000 -1.000000
0.000000 0.000000 -1.000000
0.000000 0.000000 -1.000000
</float_array>
          <technique_common>
            <accessor source="#Object539-Normal0-array" count="360" stride="3">
              <param name="X" type="float"/>
              <param name="Y" type="float"/>
              <param name="Z" type="float"/>
            </accessor>
          </technique_common>
        </source>
        <source id="Object539-UV0">
          <float_array id="Object539-UV0-array" count="384">
0.085872 0.008566
0.085872 0.212921
0.010280 0.212921
0.085954 0.988417
0.085955 0.783405
0.010031 0.783405
0.988216 0.783073
0.085970 0.783326
0.009913 0.783326
0.912105 0.783282
0.085786 0.008555
0.085770 0.008356
0.085770 0.213046
0.010211 0.213046
0.010280 0.008566
0.988226 0.988371
0.912138 0.988371
0.988192 0.212968
0.085733 0.212858
0.010031 0.988417
0.988215 0.008092
0.912266 0.008092
0.009989 0.008555
0.988335 0.008002
0.912266 0.008002
0.085968 0.783322
0.010067 0.783322
0.010211 0.008356
0.085968 0.988418
0.009911 0.988418
0.010201 0.212858
0.912244 0.212968
0.085825 0.008426
0.010028 0.008426
0.688277 0.954542
0.847891 0.847892
0.954542 0.688278
0.991993 0.500000
0.954542 0.311722
0.847891 0.152108
0.688277 0.045458
0.500000 0.008007
0.311722 0.045458
0.152108 0.152108
0.045458 0.311722
0.008007 0.500000
0.045458 0.688277
0.152108 0.847891
0.311722 0.954542
0.500000 0.991993
0.500000 0.991993
0.311722 0.954542
0.152108 0.847891
0.045458 0.688277
0.008007 0.500000
0.045458 0.311722
0.152108 0.152108
0.311722 0.045458
0.500000 0.008007
0.688277 0.045458
0.847891 0.152108
0.954542 0.311722
0.991993 0.500000
0.954542 0.688278
0.847891 0.847892
0.688277 0.954542
0.988239 0.988359
0.912093 0.988359
0.085974 0.988410
0.988226 0.783281
0.912138 0.783281
0.988215 0.212990
0.912266 0.212990
0.085970 0.988406
0.085786 0.213065
0.009989 0.213065
0.009913 0.988406
0.988335 0.212887
0.085968 0.783339
0.009911 0.783339
0.009913 0.988410
0.085733 0.008351
0.085974 0.783373
0.085825 0.212936
0.010028 0.212936
0.912266 0.212887
0.085968 0.988419
0.010067 0.988419
0.988239 0.783284
0.912093 0.783284
0.009913 0.783373
0.010201 0.008351
0.988216 0.988379
0.912105 0.988379
0.988192 0.008092
0.912244 0.008092
0.085872 0.008566
0.085872 0.212921
0.010280 0.212921
0.085954 0.988417
0.085955 0.783405
0.010031 0.783405
0.988216 0.783073
0.085970 0.783326
0.009913 0.783326
0.912105 0.783282
0.085786 0.008555
0.085770 0.008356
0.085770 0.213046
0.010211 0.213046
0.010280 0.008566
0.988226 0.988371
0.912138 0.988371
0.988192 0.212968
0.085733 0.212858
0.010031 0.988417
0.988215 0.008092
0.912266 0.008092
0.009989 0.008555
0.988335 0.008002
0.912266 0.008002
0.085968 0.783322
0.010067 0.783322
0.010211 0.008356
0.085968 0.988418
0.009911 0.988418
0.010201 0.212858
0.912244 0.212968
0.085825 0.008426
0.010028 0.008426
0.688277 0.954542
0.847891 0.847892
0.954542 0.688278
0.991993 0.500000
0.954542 0.311722
0.847891 0.152108
0.688277 0.045458
0.500000 0.008007
0.311722 0.045458
0.152108 0.152108
0.045458 0.311722
0.008007 0.500000
0.045458 0.688277
0.152108 0.847891
0.311722 0.954542
0.500000 0.991993
0.500000 0.991993
0.311722 0.954542
0.152108 0.847891
0.045458 0.688277
0.008007 0.500000
0.045458 0.311722
0.152108 0.152108
0.311722 0.045458
0.500000 0.008007
0.688277 0.045458
0.847891 0.152108
0.954542 0.311722
0.991993 0.500000
0.954542 0.688278
0.847891 0.847892
0.688277 0.954542
0.988239 0.988359
0.912093 0.988359
0.085974 0.988410
0.988226 0.783281
0.912138 0.783281
0.988215 0.212990
0.912266 0.212990
0.085970 0.988406
0.085786 0.213065
0.009989 0.213065
0.009913 0.988406
0.988335 0.212887
0.085968 0.783339
0.009911 0.783339
0.009913 0.988410
0.085733 0.008351
0.085974 0.783373
0.085825 0.212936
0.010028 0.212936
0.912266 0.212887
0.085968 0.988419
0.010067 0.988419
0.988239 0.783284
0.912093 0.783284
0.009913 0.783373
0.010201 0.008351
0.988216 0.988379
0.912105 0.988379
0.988192 0.008092
0.912244 0.008092
</float_array>
          <technique_common>
            <accessor source="#Object539-UV0-array" count="192" stride="2">
              <param name="S" type="float"/>
              <param name="T" type="float"/>
            </accessor>
          </technique_common>
        </source>
        <vertices id="Object539-VERTEX">
          <input semantic="POSITION" source="#Object539-POSITION"/>
        </vertices>
        <triangles count="120" material="_04 - Default">
          <input semantic="VERTEX" offset="0" source="#Object539-VERTEX"/>
          <input semantic="NORMAL" offset="1" source="#Object539-Normal0"/>
          <input semantic="TEXCOORD" offset="2" set="0" source="#Object539-UV0"/>
          <p> 0 0 0 1 1 1 17 2 2 17 3 2 16 4 14 0 5 0 1 6 69 2 7 15 18 8 16 18 9 16 17 10 70 1 11 69 2 12 3 3 13 4 19 14 5 19 15 5 18 16 19 2 17 3 3 18 71 4 19 20 20 20 21 20 21 21 19 22 72 3 23 71 4 24 83 5 25 32 21 26 33 21 27 33 20 28 84 4 29 83 5 30 92 6 31 6 22 32 9 22 33 9 21 34 93 5 35 92 6 36 73 7 37 7 23 38 8 23 39 8 22 40 76 6 41 73 7 42 74 8 43 10 24 44 22 24 45 22 23 46 75 7 47 74 8 48 77 9 49 23 25 50 24 25 51 24 24 52 85 8 53 77 9 54 86 10 55 25 26 56 26 26 57 26 25 58 87 9 59 86 10 60 11 11 61 12 27 62 13 27 63 13 26 64 27 10 65 11 11 66 78 12 67 28 28 68 29 28 69 29 27 70 79 11 71 78 12 72 88 13 73 66 29 74 67 29 75 67 28 76 89 12 77 88 13 78 94 14 79 17 30 80 31 30 81 31 29 82 95 13 83 94 14 84 81 15 85 18 31 86 30 31 87 30 30 88 91 14 89 81 15 90 82 0 91 68 16 92 80 16 93 80 31 94 90 15 95 82 14 96 35 13 97 36 12 98 37 12 99 37 11 100 38 10 101 39 10 102 39 9 103 40 8 104 41 12 105 37 10 106 39 8 107 41 8 108 41 7 109 42 6 110 43 6 111 43 5 112 44 4 113 45 8 114 41 6 115 43 4 116 45 4 117 45 3 118 46 2 119 47 2 120 47 1 121 48 0 122 49 4 123 45 2 124 47 0 125 49 8 126 41 4 127 45 0 128 49 12 129 37 8 130 41 0 131 49 14 132 35 12 133 37 0 134 49 15 135 34 14 136 35 0 137 49 17 138 51 18 139 52 19 140 53 19 141 53 20 142 54 21 143 55 21 144 55 22 145 56 23 146 57 19 147 53 21 148 55 23 149 57 23 150 57 24 151 58 25 152 59 25 153 59 26 154 60 27 155 61 23 156 57 25 157 59 27 158 61 27 159 61 28 160 62 29 161 63 29 162 63 30 163 64 31 164 65 27 165 61 29 166 63 31 167 65 23 168 57 27 169 61 31 170 65 19 171 53 23 172 57 31 173 65 17 174 51 19 175 53 31 176 65 16 177 50 17 178 51 31 179 65 32 180 96 33 181 97 49 182 98 49 183 98 48 184 110 32 185 96 33 186 165 34 187 111 50 188 112 50 189 112 49 190 166 33 191 165 34 192 99 35 193 100 51 194 101 51 195 101 50 196 115 34 197 99 35 198 167 36 199 116 52 200 117 52 201 117 51 202 168 35 203 167 36 204 179 37 205 128 53 206 129 53 207 129 52 208 180 36 209 179 37 210 188 38 211 102 54 212 105 54 213 105 53 214 189 37 215 188 38 216 169 39 217 103 55 218 104 55 219 104 54 220 172 38 221 169 39 222 170 40 223 106 56 224 118 56 225 118 55 226 171 39 227 170 40 228 173 41 229 119 57 230 120 57 231 120 56 232 181 40 233 173 41 234 182 42 235 121 58 236 122 58 237 122 57 238 183 41 239 182 42 240 107 43 241 108 59 242 109 59 243 109 58 244 123 42 245 107 43 246 174 44 247 124 60 248 125 60 249 125 59 250 175 43 251 174 44 252 184 45 253 162 61 254 163 61 255 163 60 256 185 44 257 184 45 258 190 46 259 113 62 260 127 62 261 127 61 262 191 45 263 190 46 264 177 47 265 114 63 266 126 63 267 126 62 268 187 46 269 177 47 270 178 32 271 164 48 272 176 48 273 176 63 274 186 47 275 178 46 276 131 45 277 132 44 278 133 44 279 133 43 280 134 42 281 135 42 282 135 41 283 136 40 284 137 44 285 133 42 286 135 40 287 137 40 288 137 39 289 138 38 290 139 38 291 139 37 292 140 36 293 141 40 294 137 38 295 139 36 296 141 36 297 141 35 298 142 34 299 143 34 300 143 33 301 144 32 302 145 36 303 141 34 304 143 32 305 145 40 306 137 36 307 141 32 308 145 44 309 133 40 310 137 32 311 145 46 312 131 44 313 133 32 314 145 47 315 130 46 316 131 32 317 145 49 318 147 50 319 148 51 320 149 51 321 149 52 322 150 53 323 151 53 324 151 54 325 152 55 326 153 51 327 149 53 328 151 55 329 153 55 330 153 56 331 154 57 332 155 57 333 155 58 334 156 59 335 157 55 336 153 57 337 155 59 338 157 59 339 157 60 340 158 61 341 159 61 342 159 62 343 160 63 344 161 59 345 157 61 346 159 63 347 161 55 348 153 59 349 157 63 350 161 51 351 149 55 352 153 63 353 161 49 354 147 51 355 149 63 356 161 48 357 146 49 358 147 63 359 161</p>
        </triangles>
      </mesh>
    </geometry>
  </library_geometries>
  <library_visual_scenes>
    <visual_scene id="" name="">
      <node name="Object538" id="Object538" layer="pipe_3m_copper" sid="Object538">
        <matrix sid="matrix">1.000000 0.000000 0.000000 0.000000 0.000000 0.000000 1.000000 0.000000 0.000000 -1.000000 0.000000 0.000000 0.000000 0.000000 0.000000 1.000000</matrix>
        <instance_geometry url="#Object538-lib">
          <bind_material>
            <technique_common>
              <instance_material symbol="_05 - Default" target="#_05 - Default"/>
            </technique_common>
          </bind_material>
        </instance_geometry>
        <extra>
          <technique profile="FCOLLADA">
            <visibility>1.000000</visibility>
          </technique>
        </extra>
      </node>
      <node name="Object539" id="Object539" layer="pipe_3m_copper" sid="Object539">
        <matrix sid="matrix">1.000000 0.000000 0.000000 0.000033 0.000000 0.000000 1.000000 0.000000 0.000000 -1.000000 0.000000 0.000717 0.000000 0.000000 0.000000 1.000000</matrix>
        <instance_geometry url="#Object539-lib">
          <bind_material>
            <technique_common>
              <instance_material symbol="_04 - Default" target="#_04 - Default"/>
            </technique_common>
          </bind_material>
        </instance_geometry>
        <extra>
          <technique profile="FCOLLADA">
            <visibility>1.000000</visibility>
          </technique>
        </extra>
      </node>
      <extra>
        <technique profile="MAX3D">
          <frame_rate>30.000000</frame_rate>
        </technique>
        <technique profile="FCOLLADA">
          <start_time>0.000000</start_time>
          <end_time>0.166667</end_time>
        </technique>
      </extra>
    </visual_scene>
  </library_visual_scenes>
  <scene>
    <instance_visual_scene url="#"></instance_visual_scene>
  </scene>
</COLLADA>

