<?xml version="1.0" encoding="utf-8"?>
<COLLADA xmlns="http://www.collada.org/2005/11/COLLADASchema" version="1.4.1">
  <asset>
    <contributor>
      <author></author>
      <authoring_tool>FBX COLLADA exporter</authoring_tool>
      <comments></comments>
    </contributor>
    <created>2012-05-24T12:55:52Z</created>
    <keywords></keywords>
    <modified>2012-05-24T12:55:52Z</modified>
    <revision></revision>
    <subject></subject>
    <title></title>
    <unit meter="1.000000" name="centimeter"></unit>
    <up_axis>Y_UP</up_axis>
  </asset>
  <library_images>
    <image id="mat-image" name="mat">
      <init_from>file://C:\Users\WesleyTack\Desktop\amnesia_raw\StaticObjects\Spraylock\flanges.psd</init_from>
    </image>
    <image id="Map #11-image" name="Map #11">
      <init_from>file://C:\Users\WesleyTack\Desktop\amnesia_raw\StaticObjects\Spraylock\pipes01.psd</init_from>
    </image>
  </library_images>
  <library_materials>
    <material id="flanges" name="flanges">
      <instance_effect url="#flanges-fx"/>
    </material>
    <material id="pipes1" name="pipes1">
      <instance_effect url="#pipes1-fx"/>
    </material>
  </library_materials>
  <library_effects>
    <effect id="flanges-fx" name="flanges">
      <profile_COMMON>
        <technique sid="standard">
          <phong>
            <emission>
              <color sid="emission">0.000000  0.000000 0.000000 1.000000</color>
            </emission>
            <ambient>
              <color sid="ambient">0.588235  0.588235 0.588235 1.000000</color>
            </ambient>
            <diffuse>
              <texture texture="mat-image" texcoord="CHANNEL0">
                <extra>
                  <technique profile="MAYA">
                    <wrapU sid="wrapU0">TRUE</wrapU>
                    <wrapV sid="wrapV0">TRUE</wrapV>
                    <blend_mode>ADD</blend_mode>
                  </technique>
                </extra>
              </texture>
            </diffuse>
            <specular>
              <color sid="specular">0.000000  0.000000 0.000000 1.000000</color>
            </specular>
            <shininess>
              <float sid="shininess">2.000000</float>
            </shininess>
            <reflective>
              <color sid="reflective">0.000000  0.000000 0.000000 1.000000</color>
            </reflective>
            <reflectivity>
              <float sid="reflectivity">1.000000</float>
            </reflectivity>
            <transparent opaque="RGB_ZERO">
              <color sid="transparent">1.000000  1.000000 1.000000 1.000000</color>
            </transparent>
            <transparency>
              <float sid="transparency">0.000000</float>
            </transparency>
          </phong>
        </technique>
      </profile_COMMON>
    </effect>
    <effect id="pipes1-fx" name="pipes1">
      <profile_COMMON>
        <technique sid="standard">
          <phong>
            <emission>
              <color sid="emission">0.000000  0.000000 0.000000 1.000000</color>
            </emission>
            <ambient>
              <color sid="ambient">0.588235  0.588235 0.588235 1.000000</color>
            </ambient>
            <diffuse>
              <texture texture="Map #11-image" texcoord="CHANNEL0">
                <extra>
                  <technique profile="MAYA">
                    <wrapU sid="wrapU0">TRUE</wrapU>
                    <wrapV sid="wrapV0">TRUE</wrapV>
                    <blend_mode>ADD</blend_mode>
                  </technique>
                </extra>
              </texture>
            </diffuse>
            <specular>
              <color sid="specular">0.000000  0.000000 0.000000 1.000000</color>
            </specular>
            <shininess>
              <float sid="shininess">2.000000</float>
            </shininess>
            <reflective>
              <color sid="reflective">0.000000  0.000000 0.000000 1.000000</color>
            </reflective>
            <reflectivity>
              <float sid="reflectivity">1.000000</float>
            </reflectivity>
            <transparent opaque="RGB_ZERO">
              <color sid="transparent">1.000000  1.000000 1.000000 1.000000</color>
            </transparent>
            <transparency>
              <float sid="transparency">0.000000</float>
            </transparency>
          </phong>
        </technique>
      </profile_COMMON>
    </effect>
  </library_effects>
  <library_geometries>
    <geometry id="Box343-lib" name="Box343Mesh">
      <mesh>
        <source id="Box343-POSITION">
          <float_array id="Box343-POSITION-array" count="288">
-0.500063 0.232062 -0.232126
-0.500063 0.303223 -0.125626
-0.500063 0.328211 0.000000
-0.500063 0.303223 0.125626
-0.500063 0.232062 0.232126
-0.500063 0.125561 0.303287
-0.500063 -0.000065 0.328276
-0.500063 -0.125690 0.303287
-0.500063 -0.232191 0.232126
-0.500063 -0.303352 0.125626
-0.500063 -0.328340 -0.000000
-0.500063 -0.303352 -0.125626
-0.500063 -0.232191 -0.232126
-0.500063 -0.125690 -0.303288
-0.500063 -0.000064 -0.328276
-0.500063 0.125562 -0.303287
-0.454661 0.232062 -0.232126
-0.454661 0.303223 -0.125626
-0.454661 0.328211 0.000000
-0.454661 0.303223 0.125626
-0.454662 0.232062 0.232126
-0.454661 0.125561 0.303287
-0.454661 -0.000065 0.328276
-0.454661 -0.125690 0.303287
-0.454661 -0.232191 0.232126
-0.454662 -0.303352 0.125626
-0.454662 -0.328340 -0.000000
-0.454662 -0.303352 -0.125626
-0.454662 -0.232191 -0.232126
-0.454662 -0.125690 -0.303288
-0.454662 -0.000064 -0.328276
-0.454662 0.125562 -0.303287
-0.232229 -0.499943 0.232126
-0.125729 -0.499942 0.303287
-0.000103 -0.499943 0.328276
0.125523 -0.499943 0.303287
0.232023 -0.499942 0.232126
0.303184 -0.499942 0.125625
0.328173 -0.499942 -0.000000
0.303184 -0.499942 -0.125626
0.232023 -0.499942 -0.232126
0.125523 -0.499942 -0.303288
-0.000103 -0.499943 -0.328276
-0.125729 -0.499943 -0.303288
-0.232229 -0.499943 -0.232126
-0.303391 -0.499943 -0.125626
-0.328379 -0.499943 0.000000
-0.303390 -0.499943 0.125626
-0.232229 -0.454541 0.232126
-0.125729 -0.454541 0.303287
-0.000103 -0.454541 0.328276
0.125523 -0.454541 0.303287
0.232023 -0.454541 0.232126
0.303184 -0.454541 0.125625
0.328173 -0.454541 -0.000000
0.303184 -0.454541 -0.125626
0.232023 -0.454541 -0.232126
0.125523 -0.454541 -0.303288
-0.000103 -0.454541 -0.328276
-0.125729 -0.454541 -0.303288
-0.232229 -0.454541 -0.232126
-0.303391 -0.454541 -0.125626
-0.328379 -0.454541 0.000000
-0.303390 -0.454541 0.125626
0.328173 0.454803 -0.000000
0.303184 0.454803 -0.125626
0.232023 0.454803 -0.232126
0.125523 0.454803 -0.303287
-0.000103 0.454803 -0.328276
-0.125729 0.454803 -0.303287
-0.232229 0.454803 -0.232126
-0.303391 0.454803 -0.125626
-0.328379 0.454803 0.000000
-0.303391 0.454803 0.125626
-0.232229 0.454803 0.232126
-0.125729 0.454803 0.303288
-0.000103 0.454803 0.328276
0.125523 0.454803 0.303287
0.232023 0.454803 0.232126
0.303184 0.454803 0.125626
0.328173 0.500205 -0.000000
0.303184 0.500205 -0.125626
0.232023 0.500205 -0.232126
0.125523 0.500205 -0.303287
-0.000103 0.500205 -0.328276
-0.125729 0.500205 -0.303287
-0.232229 0.500205 -0.232126
-0.303391 0.500205 -0.125626
-0.328379 0.500205 0.000000
-0.303391 0.500204 0.125626
-0.232229 0.500204 0.232126
-0.125729 0.500204 0.303288
-0.000103 0.500204 0.328276
0.125523 0.500204 0.303287
0.232023 0.500204 0.232126
0.303184 0.500204 0.125626
</float_array>
          <technique_common>
            <accessor source="#Box343-POSITION-array" count="96" stride="3">
              <param name="X" type="float"/>
              <param name="Y" type="float"/>
              <param name="Z" type="float"/>
            </accessor>
          </technique_common>
        </source>
        <source id="Box343-Normal0">
          <float_array id="Box343-Normal0-array" count="1620">
0.000000 0.707107 -0.707106
-0.000001 0.923880 -0.382683
-0.000001 0.923880 -0.382683
-0.000001 0.923880 -0.382683
0.000000 0.707108 -0.707106
0.000000 0.707107 -0.707106
-0.000001 0.923880 -0.382683
-0.000000 1.000000 0.000001
-0.000000 1.000000 0.000000
-0.000000 1.000000 0.000000
-0.000001 0.923880 -0.382683
-0.000001 0.923880 -0.382683
-0.000000 1.000000 0.000001
0.000000 0.923879 0.382684
0.000000 0.923879 0.382684
0.000000 0.923879 0.382684
-0.000000 1.000000 0.000000
-0.000000 1.000000 0.000001
0.000000 0.923879 0.382684
0.000000 0.707106 0.707107
-0.000000 0.707106 0.707107
-0.000000 0.707106 0.707107
0.000000 0.923879 0.382684
0.000000 0.923879 0.382684
0.000000 0.707106 0.707107
0.000000 0.382683 0.923880
0.000000 0.382683 0.923880
0.000000 0.382683 0.923880
-0.000000 0.707106 0.707107
0.000000 0.707106 0.707107
0.000000 0.382683 0.923880
0.000000 -0.000000 1.000000
0.000000 -0.000000 1.000000
0.000000 -0.000000 1.000000
0.000000 0.382683 0.923880
0.000000 0.382683 0.923880
0.000000 -0.000000 1.000000
0.000001 -0.382684 0.923879
0.000001 -0.382684 0.923879
0.000001 -0.382684 0.923879
0.000000 -0.000000 1.000000
0.000000 -0.000000 1.000000
0.000001 -0.382684 0.923879
-0.000000 -0.707107 0.707107
-0.000000 -0.707107 0.707107
-0.000000 -0.707107 0.707107
0.000001 -0.382684 0.923879
0.000001 -0.382684 0.923879
-0.000000 -0.707107 0.707107
-0.000000 -0.923880 0.382683
-0.000000 -0.923880 0.382683
-0.000000 -0.923880 0.382683
-0.000000 -0.707107 0.707107
-0.000000 -0.707107 0.707107
-0.000000 -0.923880 0.382683
-0.000000 -1.000000 -0.000000
-0.000000 -1.000000 -0.000001
-0.000000 -1.000000 -0.000001
-0.000000 -0.923880 0.382683
-0.000000 -0.923880 0.382683
-0.000000 -1.000000 -0.000000
-0.000000 -0.923880 -0.382683
-0.000000 -0.923880 -0.382684
-0.000000 -0.923880 -0.382684
-0.000000 -1.000000 -0.000001
-0.000000 -1.000000 -0.000000
-0.000000 -0.923880 -0.382683
-0.000000 -0.707106 -0.707107
-0.000000 -0.707106 -0.707107
-0.000000 -0.707106 -0.707107
-0.000000 -0.923880 -0.382684
-0.000000 -0.923880 -0.382683
-0.000000 -0.707106 -0.707107
-0.000001 -0.382683 -0.923880
-0.000001 -0.382682 -0.923880
-0.000001 -0.382682 -0.923880
-0.000000 -0.707106 -0.707107
-0.000000 -0.707106 -0.707107
-0.000001 -0.382683 -0.923880
0.000000 0.000000 -1.000000
-0.000000 0.000001 -1.000000
-0.000000 0.000001 -1.000000
-0.000001 -0.382682 -0.923880
-0.000001 -0.382683 -0.923880
0.000000 0.000000 -1.000000
0.000000 0.382684 -0.923879
0.000000 0.382684 -0.923879
0.000000 0.382684 -0.923879
-0.000000 0.000001 -1.000000
0.000000 0.000000 -1.000000
0.000000 0.382684 -0.923879
0.000000 0.707107 -0.707106
0.000000 0.707108 -0.707106
0.000000 0.707108 -0.707106
0.000000 0.382684 -0.923879
0.000000 0.382684 -0.923879
-1.000000 0.000000 0.000000
-1.000000 0.000000 0.000000
-1.000000 0.000000 0.000000
-1.000000 0.000000 0.000000
-1.000000 0.000000 0.000000
-1.000000 0.000000 0.000000
-1.000000 0.000002 -0.000000
-1.000000 0.000002 -0.000000
-1.000000 0.000002 -0.000000
-1.000000 0.000001 0.000000
-1.000000 0.000001 0.000000
-1.000000 0.000001 0.000000
-1.000000 -0.000001 0.000002
-1.000000 -0.000001 0.000002
-1.000000 -0.000001 0.000002
-1.000000 0.000002 0.000004
-1.000000 0.000002 0.000004
-1.000000 0.000002 0.000004
-1.000000 -0.000000 -0.000001
-1.000000 -0.000000 -0.000001
-1.000000 -0.000000 -0.000001
-1.000000 0.000002 0.000000
-1.000000 0.000002 0.000000
-1.000000 0.000002 0.000000
-1.000000 0.000000 0.000000
-1.000000 0.000000 0.000000
-1.000000 0.000000 0.000000
-1.000000 0.000001 -0.000000
-1.000000 0.000001 -0.000000
-1.000000 0.000001 -0.000000
-1.000000 -0.000000 -0.000000
-1.000000 -0.000000 -0.000000
-1.000000 -0.000000 -0.000000
-1.000000 0.000000 0.000000
-1.000000 0.000000 0.000000
-1.000000 0.000000 0.000000
-1.000000 0.000000 0.000001
-1.000000 0.000000 0.000001
-1.000000 0.000000 0.000001
-1.000000 -0.000000 0.000002
-1.000000 -0.000000 0.000002
-1.000000 -0.000000 0.000002
1.000000 0.000000 0.000000
1.000000 0.000000 0.000000
1.000000 0.000000 0.000000
1.000000 0.000003 0.000003
1.000000 0.000003 0.000003
1.000000 0.000003 0.000003
1.000000 0.000000 0.000000
1.000000 0.000000 0.000000
1.000000 0.000000 0.000000
1.000000 0.000000 0.000000
1.000000 0.000000 0.000000
1.000000 0.000000 0.000000
1.000000 0.000001 -0.000002
1.000000 0.000001 -0.000002
1.000000 0.000001 -0.000002
1.000000 0.000000 0.000000
1.000000 0.000000 0.000000
1.000000 0.000000 0.000000
1.000000 -0.000001 -0.000000
1.000000 -0.000001 -0.000000
1.000000 -0.000001 -0.000000
1.000000 0.000000 0.000000
1.000000 0.000000 0.000000
1.000000 0.000000 0.000000
1.000000 0.000000 0.000002
1.000000 0.000000 0.000002
1.000000 0.000000 0.000002
1.000000 0.000000 0.000000
1.000000 0.000000 0.000000
1.000000 0.000000 0.000000
1.000000 0.000000 -0.000000
1.000000 0.000000 -0.000000
1.000000 0.000000 -0.000000
1.000000 -0.000000 -0.000000
1.000000 -0.000000 -0.000000
1.000000 -0.000000 -0.000000
1.000000 -0.000001 -0.000000
1.000000 -0.000001 -0.000000
1.000000 -0.000001 -0.000000
1.000000 -0.000004 0.000003
1.000000 -0.000004 0.000003
1.000000 -0.000004 0.000003
-0.707106 -0.000000 0.707107
-0.382683 0.000000 0.923880
-0.382683 -0.000000 0.923880
-0.382683 -0.000000 0.923880
-0.707106 -0.000000 0.707107
-0.707106 -0.000000 0.707107
-0.382683 0.000000 0.923880
0.000000 0.000000 1.000000
0.000000 0.000000 1.000000
0.000000 0.000000 1.000000
-0.382683 -0.000000 0.923880
-0.382683 0.000000 0.923880
0.000000 0.000000 1.000000
0.382684 0.000001 0.923879
0.382684 0.000001 0.923879
0.382684 0.000001 0.923879
0.000000 0.000000 1.000000
0.000000 0.000000 1.000000
0.382684 0.000001 0.923879
0.707107 0.000000 0.707106
0.707107 0.000000 0.707106
0.707107 0.000000 0.707106
0.382684 0.000001 0.923879
0.382684 0.000001 0.923879
0.707107 0.000000 0.707106
0.923880 -0.000001 0.382683
0.923880 -0.000001 0.382683
0.923880 -0.000001 0.382683
0.707107 0.000000 0.707106
0.707107 0.000000 0.707106
0.923880 -0.000001 0.382683
1.000000 -0.000001 -0.000000
1.000000 -0.000001 0.000000
1.000000 -0.000001 0.000000
0.923880 -0.000001 0.382683
0.923880 -0.000001 0.382683
1.000000 -0.000001 -0.000000
0.923880 0.000000 -0.382683
0.923880 0.000000 -0.382683
0.923880 0.000000 -0.382683
1.000000 -0.000001 0.000000
1.000000 -0.000001 -0.000000
0.923880 0.000000 -0.382683
0.707107 0.000000 -0.707107
0.707107 0.000000 -0.707107
0.707107 0.000000 -0.707107
0.923880 0.000000 -0.382683
0.923880 0.000000 -0.382683
0.707107 0.000000 -0.707107
0.382683 0.000000 -0.923880
0.382683 0.000000 -0.923880
0.382683 0.000000 -0.923880
0.707107 0.000000 -0.707107
0.707107 0.000000 -0.707107
0.382683 0.000000 -0.923880
-0.000000 0.000001 -1.000000
-0.000001 0.000001 -1.000000
-0.000001 0.000001 -1.000000
0.382683 0.000000 -0.923880
0.382683 0.000000 -0.923880
-0.000000 0.000001 -1.000000
-0.382684 -0.000000 -0.923879
-0.382684 -0.000000 -0.923879
-0.382684 -0.000000 -0.923879
-0.000001 0.000001 -1.000000
-0.000000 0.000001 -1.000000
-0.382684 -0.000000 -0.923879
-0.707107 0.000001 -0.707106
-0.707107 0.000000 -0.707106
-0.707107 0.000000 -0.707106
-0.382684 -0.000000 -0.923879
-0.382684 -0.000000 -0.923879
-0.707107 0.000001 -0.707106
-0.923880 0.000001 -0.382683
-0.923880 0.000001 -0.382683
-0.923880 0.000001 -0.382683
-0.707107 0.000000 -0.707106
-0.707107 0.000001 -0.707106
-0.923880 0.000001 -0.382683
-1.000000 0.000000 0.000000
-1.000000 0.000000 0.000000
-1.000000 0.000000 0.000000
-0.923880 0.000001 -0.382683
-0.923880 0.000001 -0.382683
-1.000000 0.000000 0.000000
-0.923879 -0.000000 0.382684
-0.923879 -0.000000 0.382684
-0.923879 -0.000000 0.382684
-1.000000 0.000000 0.000000
-1.000000 0.000000 0.000000
-0.923879 -0.000000 0.382684
-0.707106 -0.000000 0.707107
-0.707106 -0.000000 0.707107
-0.707106 -0.000000 0.707107
-0.923879 -0.000000 0.382684
-0.923879 -0.000000 0.382684
0.000001 -1.000000 0.000000
0.000001 -1.000000 0.000000
0.000001 -1.000000 0.000000
0.000000 -1.000000 0.000000
0.000000 -1.000000 0.000000
0.000000 -1.000000 0.000000
0.000000 -1.000000 0.000000
0.000000 -1.000000 0.000000
0.000000 -1.000000 0.000000
0.000000 -1.000000 0.000001
0.000000 -1.000000 0.000001
0.000000 -1.000000 0.000001
0.000001 -1.000000 -0.000001
0.000001 -1.000000 -0.000001
0.000001 -1.000000 -0.000001
0.000002 -1.000000 0.000001
0.000002 -1.000000 0.000001
0.000002 -1.000000 0.000001
-0.000000 -1.000000 -0.000000
-0.000000 -1.000000 -0.000000
-0.000000 -1.000000 -0.000000
-0.000000 -1.000000 -0.000001
-0.000000 -1.000000 -0.000001
-0.000000 -1.000000 -0.000001
-0.000001 -1.000000 0.000002
-0.000001 -1.000000 0.000002
-0.000001 -1.000000 0.000002
0.000000 -1.000000 -0.000000
0.000000 -1.000000 -0.000000
0.000000 -1.000000 -0.000000
0.000000 -1.000000 -0.000000
0.000000 -1.000000 -0.000000
0.000000 -1.000000 -0.000000
0.000000 -1.000000 -0.000000
0.000000 -1.000000 -0.000000
0.000000 -1.000000 -0.000000
0.000001 -1.000000 -0.000000
0.000001 -1.000000 -0.000000
0.000001 -1.000000 -0.000000
-0.000001 -1.000000 0.000001
-0.000001 -1.000000 0.000001
-0.000001 -1.000000 0.000001
0.000000 1.000000 0.000000
0.000000 1.000000 0.000000
0.000000 1.000000 0.000000
-0.000000 1.000000 0.000000
-0.000000 1.000000 0.000000
-0.000000 1.000000 0.000000
0.000002 1.000000 0.000000
0.000002 1.000000 0.000000
0.000002 1.000000 0.000000
-0.000001 1.000000 0.000000
-0.000001 1.000000 0.000000
-0.000001 1.000000 0.000000
-0.000002 1.000000 0.000001
-0.000002 1.000000 0.000001
-0.000002 1.000000 0.000001
0.000000 1.000000 -0.000001
0.000000 1.000000 -0.000001
0.000000 1.000000 -0.000001
0.000000 1.000000 -0.000001
0.000000 1.000000 -0.000001
0.000000 1.000000 -0.000001
-0.000001 1.000000 -0.000001
-0.000001 1.000000 -0.000001
-0.000001 1.000000 -0.000001
0.000001 1.000000 0.000000
0.000001 1.000000 0.000000
0.000001 1.000000 0.000000
-0.000000 1.000000 0.000000
-0.000000 1.000000 0.000000
-0.000000 1.000000 0.000000
-0.000000 1.000000 0.000000
-0.000000 1.000000 0.000000
-0.000000 1.000000 0.000000
-0.000000 1.000000 0.000000
-0.000000 1.000000 0.000000
-0.000000 1.000000 0.000000
-0.000000 1.000000 -0.000000
-0.000000 1.000000 -0.000000
-0.000000 1.000000 -0.000000
0.000001 1.000000 -0.000001
0.000001 1.000000 -0.000001
0.000001 1.000000 -0.000001
1.000000 -0.000000 -0.000000
0.923879 -0.000001 -0.382684
0.923879 -0.000001 -0.382684
0.923879 -0.000001 -0.382684
1.000000 0.000000 -0.000000
1.000000 -0.000000 -0.000000
0.923879 -0.000001 -0.382684
0.707107 0.000001 -0.707107
0.707107 0.000000 -0.707107
0.707107 0.000000 -0.707107
0.923879 -0.000001 -0.382684
0.923879 -0.000001 -0.382684
0.707107 0.000001 -0.707107
0.382683 0.000002 -0.923880
0.382683 0.000002 -0.923880
0.382683 0.000002 -0.923880
0.707107 0.000000 -0.707107
0.707107 0.000001 -0.707107
0.382683 0.000002 -0.923880
-0.000001 0.000001 -1.000000
-0.000001 0.000001 -1.000000
-0.000001 0.000001 -1.000000
0.382683 0.000002 -0.923880
0.382683 0.000002 -0.923880
-0.000001 0.000001 -1.000000
-0.382684 0.000000 -0.923879
-0.382684 0.000001 -0.923879
-0.382684 0.000001 -0.923879
-0.000001 0.000001 -1.000000
-0.000001 0.000001 -1.000000
-0.382684 0.000000 -0.923879
-0.707107 0.000000 -0.707107
-0.707107 0.000000 -0.707107
-0.707107 0.000000 -0.707107
-0.382684 0.000001 -0.923879
-0.382684 0.000000 -0.923879
-0.707107 0.000000 -0.707107
-0.923880 0.000000 -0.382683
-0.923880 0.000000 -0.382683
-0.923880 0.000000 -0.382683
-0.707107 0.000000 -0.707107
-0.707107 0.000000 -0.707107
-0.923880 0.000000 -0.382683
-1.000000 -0.000000 0.000000
-1.000000 -0.000000 0.000000
-1.000000 -0.000000 0.000000
-0.923880 0.000000 -0.382683
-0.923880 0.000000 -0.382683
-1.000000 -0.000000 0.000000
-0.923879 -0.000000 0.382684
-0.923879 -0.000000 0.382684
-0.923879 -0.000000 0.382684
-1.000000 -0.000000 0.000000
-1.000000 -0.000000 0.000000
-0.923879 -0.000000 0.382684
-0.707106 -0.000001 0.707107
-0.707106 -0.000001 0.707107
-0.707106 -0.000001 0.707107
-0.923879 -0.000000 0.382684
-0.923879 -0.000000 0.382684
-0.707106 -0.000001 0.707107
-0.382684 -0.000000 0.923879
-0.382683 -0.000000 0.923880
-0.382683 -0.000000 0.923880
-0.707106 -0.000001 0.707107
-0.707106 -0.000001 0.707107
-0.382684 -0.000000 0.923879
0.000001 0.000001 1.000000
0.000001 0.000000 1.000000
0.000001 0.000000 1.000000
-0.382683 -0.000000 0.923880
-0.382684 -0.000000 0.923879
0.000001 0.000001 1.000000
0.382684 0.000000 0.923879
0.382684 0.000001 0.923879
0.382684 0.000001 0.923879
0.000001 0.000000 1.000000
0.000001 0.000001 1.000000
0.382684 0.000000 0.923879
0.707107 -0.000001 0.707106
0.707107 -0.000001 0.707106
0.707107 -0.000001 0.707106
0.382684 0.000001 0.923879
0.382684 0.000000 0.923879
0.707107 -0.000001 0.707106
0.923880 -0.000000 0.382683
0.923880 -0.000000 0.382683
0.923880 -0.000000 0.382683
0.707107 -0.000001 0.707106
0.707107 -0.000001 0.707106
0.923880 -0.000000 0.382683
1.000000 -0.000000 -0.000000
1.000000 0.000000 -0.000000
1.000000 0.000000 -0.000000
0.923880 -0.000000 0.382683
0.923880 -0.000000 0.382683
-0.000000 -1.000000 -0.000001
-0.000000 -1.000000 -0.000001
-0.000000 -1.000000 -0.000001
-0.000001 -1.000000 0.000002
-0.000001 -1.000000 0.000002
-0.000001 -1.000000 0.000002
-0.000001 -1.000000 -0.000000
-0.000001 -1.000000 -0.000000
-0.000001 -1.000000 -0.000000
0.000000 -1.000000 -0.000000
0.000000 -1.000000 -0.000000
0.000000 -1.000000 -0.000000
0.000000 -1.000000 -0.000000
0.000000 -1.000000 -0.000000
0.000000 -1.000000 -0.000000
-0.000001 -1.000000 -0.000002
-0.000001 -1.000000 -0.000002
-0.000001 -1.000000 -0.000002
0.000000 -1.000000 -0.000000
0.000000 -1.000000 -0.000000
0.000000 -1.000000 -0.000000
0.000000 -1.000000 0.000000
0.000000 -1.000000 0.000000
0.000000 -1.000000 0.000000
-0.000002 -1.000000 0.000001
-0.000002 -1.000000 0.000001
-0.000002 -1.000000 0.000001
0.000000 -1.000000 0.000000
0.000000 -1.000000 0.000000
0.000000 -1.000000 0.000000
0.000000 -1.000000 -0.000000
0.000000 -1.000000 -0.000000
0.000000 -1.000000 -0.000000
0.000000 -1.000000 -0.000000
0.000000 -1.000000 -0.000000
0.000000 -1.000000 -0.000000
-0.000000 -1.000000 -0.000001
-0.000000 -1.000000 -0.000001
-0.000000 -1.000000 -0.000001
-0.000002 -1.000000 -0.000002
-0.000002 -1.000000 -0.000002
-0.000002 -1.000000 -0.000002
-0.000001 1.000000 0.000001
-0.000001 1.000000 0.000001
-0.000001 1.000000 0.000001
0.000000 1.000000 0.000000
0.000000 1.000000 0.000000
0.000000 1.000000 0.000000
0.000001 1.000000 0.000001
0.000001 1.000000 0.000001
0.000001 1.000000 0.000001
-0.000000 1.000000 -0.000000
-0.000000 1.000000 -0.000000
-0.000000 1.000000 -0.000000
0.000002 1.000000 0.000000
0.000002 1.000000 0.000000
0.000002 1.000000 0.000000
0.000001 1.000000 -0.000001
0.000001 1.000000 -0.000001
0.000001 1.000000 -0.000001
-0.000000 1.000000 0.000000
-0.000000 1.000000 0.000000
-0.000000 1.000000 0.000000
-0.000000 1.000000 0.000001
-0.000000 1.000000 0.000001
-0.000000 1.000000 0.000001
0.000000 1.000000 0.000000
0.000000 1.000000 0.000000
0.000000 1.000000 0.000000
-0.000000 1.000000 -0.000000
-0.000000 1.000000 -0.000000
-0.000000 1.000000 -0.000000
0.000000 1.000000 0.000000
0.000000 1.000000 0.000000
0.000000 1.000000 0.000000
0.000000 1.000000 0.000000
0.000000 1.000000 0.000000
0.000000 1.000000 0.000000
-0.000001 1.000000 0.000000
-0.000001 1.000000 0.000000
-0.000001 1.000000 0.000000
-0.000002 1.000000 0.000000
-0.000002 1.000000 0.000000
-0.000002 1.000000 0.000000
</float_array>
          <technique_common>
            <accessor source="#Box343-Normal0-array" count="540" stride="3">
              <param name="X" type="float"/>
              <param name="Y" type="float"/>
              <param name="Z" type="float"/>
            </accessor>
          </technique_common>
        </source>
        <source id="Box343-UV0">
          <float_array id="Box343-UV0-array" count="576">
0.085872 0.008566
0.085872 0.212921
0.010280 0.212921
0.085954 0.988417
0.085955 0.783405
0.010031 0.783405
0.988216 0.783073
0.085970 0.783326
0.009913 0.783326
0.912105 0.783282
0.085786 0.008555
0.085770 0.008356
0.085770 0.213046
0.010211 0.213046
0.010280 0.008566
0.988226 0.988371
0.912138 0.988371
0.988192 0.212968
0.085733 0.212858
0.010031 0.988417
0.988215 0.008092
0.912266 0.008092
0.009989 0.008555
0.988335 0.008002
0.912266 0.008002
0.085968 0.783322
0.010067 0.783322
0.010211 0.008356
0.085968 0.988418
0.009911 0.988418
0.010201 0.212858
0.912244 0.212968
0.085825 0.008426
0.010028 0.008426
0.688277 0.954542
0.847891 0.847892
0.954542 0.688278
0.991993 0.500000
0.954542 0.311722
0.847891 0.152108
0.688277 0.045458
0.500000 0.008007
0.311722 0.045458
0.152108 0.152108
0.045458 0.311722
0.008007 0.500000
0.045458 0.688277
0.152108 0.847891
0.311722 0.954542
0.500000 0.991993
0.500000 0.991993
0.311722 0.954542
0.152108 0.847891
0.045458 0.688277
0.008007 0.500000
0.045458 0.311722
0.152108 0.152108
0.311722 0.045458
0.500000 0.008007
0.688277 0.045458
0.847891 0.152108
0.954542 0.311722
0.991993 0.500000
0.954542 0.688278
0.847891 0.847892
0.688277 0.954542
0.988239 0.988359
0.912093 0.988359
0.085974 0.988410
0.988226 0.783281
0.912138 0.783281
0.988215 0.212990
0.912266 0.212990
0.085970 0.988406
0.085786 0.213065
0.009989 0.213065
0.009913 0.988406
0.988335 0.212887
0.085968 0.783339
0.009911 0.783339
0.009913 0.988410
0.085733 0.008351
0.085974 0.783373
0.085825 0.212936
0.010028 0.212936
0.912266 0.212887
0.085968 0.988419
0.010067 0.988419
0.988239 0.783284
0.912093 0.783284
0.009913 0.783373
0.010201 0.008351
0.988216 0.988379
0.912105 0.988379
0.988192 0.008092
0.912244 0.008092
0.085872 0.008566
0.085872 0.212921
0.010280 0.212921
0.085954 0.988417
0.085955 0.783405
0.010031 0.783405
0.988216 0.783073
0.085970 0.783326
0.009913 0.783326
0.912105 0.783282
0.085786 0.008555
0.085770 0.008356
0.085770 0.213046
0.010211 0.213046
0.010280 0.008566
0.988226 0.988371
0.912138 0.988371
0.988192 0.212968
0.085733 0.212858
0.010031 0.988417
0.988215 0.008092
0.912266 0.008092
0.009989 0.008555
0.988335 0.008002
0.912266 0.008002
0.085968 0.783322
0.010067 0.783322
0.010211 0.008356
0.085968 0.988418
0.009911 0.988418
0.010201 0.212858
0.912244 0.212968
0.085825 0.008426
0.010028 0.008426
0.688277 0.954542
0.847891 0.847892
0.954542 0.688278
0.991993 0.500000
0.954542 0.311722
0.847891 0.152108
0.688277 0.045458
0.500000 0.008007
0.311722 0.045458
0.152108 0.152108
0.045458 0.311722
0.008007 0.500000
0.045458 0.688277
0.152108 0.847891
0.311722 0.954542
0.500000 0.991993
0.500000 0.991993
0.311722 0.954542
0.152108 0.847891
0.045458 0.688277
0.008007 0.500000
0.045458 0.311722
0.152108 0.152108
0.311722 0.045458
0.500000 0.008007
0.688277 0.045458
0.847891 0.152108
0.954542 0.311722
0.991993 0.500000
0.954542 0.688278
0.847891 0.847892
0.688277 0.954542
0.988239 0.988359
0.912093 0.988359
0.085974 0.988410
0.988226 0.783281
0.912138 0.783281
0.988215 0.212990
0.912266 0.212990
0.085970 0.988406
0.085786 0.213065
0.009989 0.213065
0.009913 0.988406
0.988335 0.212887
0.085968 0.783339
0.009911 0.783339
0.009913 0.988410
0.085733 0.008351
0.085974 0.783373
0.085825 0.212936
0.010028 0.212936
0.912266 0.212887
0.085968 0.988419
0.010067 0.988419
0.988239 0.783284
0.912093 0.783284
0.009913 0.783373
0.010201 0.008351
0.988216 0.988379
0.912105 0.988379
0.988192 0.008092
0.912244 0.008092
0.085872 0.008566
0.085872 0.212921
0.010280 0.212921
0.085954 0.988417
0.085955 0.783405
0.010031 0.783405
0.988216 0.783073
0.085970 0.783326
0.009913 0.783326
0.912105 0.783282
0.085786 0.008555
0.085770 0.008356
0.085770 0.213046
0.010211 0.213046
0.010280 0.008566
0.988226 0.988371
0.912138 0.988371
0.988192 0.212968
0.085733 0.212858
0.010031 0.988417
0.988215 0.008092
0.912266 0.008092
0.009989 0.008555
0.988335 0.008002
0.912266 0.008002
0.085968 0.783322
0.010067 0.783322
0.010211 0.008356
0.085968 0.988418
0.009911 0.988418
0.010201 0.212858
0.912244 0.212968
0.085825 0.008426
0.010028 0.008426
0.688277 0.954542
0.847891 0.847892
0.954542 0.688278
0.991993 0.500000
0.954542 0.311722
0.847891 0.152108
0.688277 0.045458
0.500000 0.008007
0.311722 0.045458
0.152108 0.152108
0.045458 0.311722
0.008007 0.500000
0.045458 0.688277
0.152108 0.847891
0.311722 0.954542
0.500000 0.991993
0.500000 0.991993
0.311722 0.954542
0.152108 0.847891
0.045458 0.688277
0.008007 0.500000
0.045458 0.311722
0.152108 0.152108
0.311722 0.045458
0.500000 0.008007
0.688277 0.045458
0.847891 0.152108
0.954542 0.311722
0.991993 0.500000
0.954542 0.688278
0.847891 0.847892
0.688277 0.954542
0.988239 0.988359
0.912093 0.988359
0.085974 0.988410
0.988226 0.783281
0.912138 0.783281
0.988215 0.212990
0.912266 0.212990
0.085970 0.988406
0.085786 0.213065
0.009989 0.213065
0.009913 0.988406
0.988335 0.212887
0.085968 0.783339
0.009911 0.783339
0.009913 0.988410
0.085733 0.008351
0.085974 0.783373
0.085825 0.212936
0.010028 0.212936
0.912266 0.212887
0.085968 0.988419
0.010067 0.988419
0.988239 0.783284
0.912093 0.783284
0.009913 0.783373
0.010201 0.008351
0.988216 0.988379
0.912105 0.988379
0.988192 0.008092
0.912244 0.008092
</float_array>
          <technique_common>
            <accessor source="#Box343-UV0-array" count="288" stride="2">
              <param name="S" type="float"/>
              <param name="T" type="float"/>
            </accessor>
          </technique_common>
        </source>
        <vertices id="Box343-VERTEX">
          <input semantic="POSITION" source="#Box343-POSITION"/>
        </vertices>
        <triangles count="180" material="flanges">
          <input semantic="VERTEX" offset="0" source="#Box343-VERTEX"/>
          <input semantic="NORMAL" offset="1" source="#Box343-Normal0"/>
          <input semantic="TEXCOORD" offset="2" set="0" source="#Box343-UV0"/>
          <p> 0 0 0 1 1 1 17 2 2 17 3 2 16 4 14 0 5 0 1 6 69 2 7 15 18 8 16 18 9 16 17 10 70 1 11 69 2 12 3 3 13 4 19 14 5 19 15 5 18 16 19 2 17 3 3 18 71 4 19 20 20 20 21 20 21 21 19 22 72 3 23 71 4 24 83 5 25 32 21 26 33 21 27 33 20 28 84 4 29 83 5 30 92 6 31 6 22 32 9 22 33 9 21 34 93 5 35 92 6 36 73 7 37 7 23 38 8 23 39 8 22 40 76 6 41 73 7 42 74 8 43 10 24 44 22 24 45 22 23 46 75 7 47 74 8 48 77 9 49 23 25 50 24 25 51 24 24 52 85 8 53 77 9 54 86 10 55 25 26 56 26 26 57 26 25 58 87 9 59 86 10 60 11 11 61 12 27 62 13 27 63 13 26 64 27 10 65 11 11 66 78 12 67 28 28 68 29 28 69 29 27 70 79 11 71 78 12 72 88 13 73 66 29 74 67 29 75 67 28 76 89 12 77 88 13 78 94 14 79 17 30 80 31 30 81 31 29 82 95 13 83 94 14 84 81 15 85 18 31 86 30 31 87 30 30 88 91 14 89 81 15 90 82 0 91 68 16 92 80 16 93 80 31 94 90 15 95 82 14 96 35 13 97 36 12 98 37 12 99 37 11 100 38 10 101 39 10 102 39 9 103 40 8 104 41 12 105 37 10 106 39 8 107 41 8 108 41 7 109 42 6 110 43 6 111 43 5 112 44 4 113 45 8 114 41 6 115 43 4 116 45 4 117 45 3 118 46 2 119 47 2 120 47 1 121 48 0 122 49 4 123 45 2 124 47 0 125 49 8 126 41 4 127 45 0 128 49 12 129 37 8 130 41 0 131 49 14 132 35 12 133 37 0 134 49 15 135 34 14 136 35 0 137 49 17 138 51 18 139 52 19 140 53 19 141 53 20 142 54 21 143 55 21 144 55 22 145 56 23 146 57 19 147 53 21 148 55 23 149 57 23 150 57 24 151 58 25 152 59 25 153 59 26 154 60 27 155 61 23 156 57 25 157 59 27 158 61 27 159 61 28 160 62 29 161 63 29 162 63 30 163 64 31 164 65 27 165 61 29 166 63 31 167 65 23 168 57 27 169 61 31 170 65 19 171 53 23 172 57 31 173 65 17 174 51 19 175 53 31 176 65 16 177 50 17 178 51 31 179 65 32 180 96 33 181 97 49 182 98 49 183 98 48 184 110 32 185 96 33 186 165 34 187 111 50 188 112 50 189 112 49 190 166 33 191 165 34 192 99 35 193 100 51 194 101 51 195 101 50 196 115 34 197 99 35 198 167 36 199 116 52 200 117 52 201 117 51 202 168 35 203 167 36 204 179 37 205 128 53 206 129 53 207 129 52 208 180 36 209 179 37 210 188 38 211 102 54 212 105 54 213 105 53 214 189 37 215 188 38 216 169 39 217 103 55 218 104 55 219 104 54 220 172 38 221 169 39 222 170 40 223 106 56 224 118 56 225 118 55 226 171 39 227 170 40 228 173 41 229 119 57 230 120 57 231 120 56 232 181 40 233 173 41 234 182 42 235 121 58 236 122 58 237 122 57 238 183 41 239 182 42 240 107 43 241 108 59 242 109 59 243 109 58 244 123 42 245 107 43 246 174 44 247 124 60 248 125 60 249 125 59 250 175 43 251 174 44 252 184 45 253 162 61 254 163 61 255 163 60 256 185 44 257 184 45 258 190 46 259 113 62 260 127 62 261 127 61 262 191 45 263 190 46 264 177 47 265 114 63 266 126 63 267 126 62 268 187 46 269 177 47 270 178 32 271 164 48 272 176 48 273 176 63 274 186 47 275 178 46 276 131 45 277 132 44 278 133 44 279 133 43 280 134 42 281 135 42 282 135 41 283 136 40 284 137 44 285 133 42 286 135 40 287 137 40 288 137 39 289 138 38 290 139 38 291 139 37 292 140 36 293 141 40 294 137 38 295 139 36 296 141 36 297 141 35 298 142 34 299 143 34 300 143 33 301 144 32 302 145 36 303 141 34 304 143 32 305 145 40 306 137 36 307 141 32 308 145 44 309 133 40 310 137 32 311 145 46 312 131 44 313 133 32 314 145 47 315 130 46 316 131 32 317 145 49 318 147 50 319 148 51 320 149 51 321 149 52 322 150 53 323 151 53 324 151 54 325 152 55 326 153 51 327 149 53 328 151 55 329 153 55 330 153 56 331 154 57 332 155 57 333 155 58 334 156 59 335 157 55 336 153 57 337 155 59 338 157 59 339 157 60 340 158 61 341 159 61 342 159 62 343 160 63 344 161 59 345 157 61 346 159 63 347 161 55 348 153 59 349 157 63 350 161 51 351 149 55 352 153 63 353 161 49 354 147 51 355 149 63 356 161 48 357 146 49 358 147 63 359 161 64 360 192 65 361 193 81 362 194 81 363 194 80 364 206 64 365 192 65 366 261 66 367 207 82 368 208 82 369 208 81 370 262 65 371 261 66 372 195 67 373 196 83 374 197 83 375 197 82 376 211 66 377 195 67 378 263 68 379 212 84 380 213 84 381 213 83 382 264 67 383 263 68 384 275 69 385 224 85 386 225 85 387 225 84 388 276 68 389 275 69 390 284 70 391 198 86 392 201 86 393 201 85 394 285 69 395 284 70 396 265 71 397 199 87 398 200 87 399 200 86 400 268 70 401 265 71 402 266 72 403 202 88 404 214 88 405 214 87 406 267 71 407 266 72 408 269 73 409 215 89 410 216 89 411 216 88 412 277 72 413 269 73 414 278 74 415 217 90 416 218 90 417 218 89 418 279 73 419 278 74 420 203 75 421 204 91 422 205 91 423 205 90 424 219 74 425 203 75 426 270 76 427 220 92 428 221 92 429 221 91 430 271 75 431 270 76 432 280 77 433 258 93 434 259 93 435 259 92 436 281 76 437 280 77 438 286 78 439 209 94 440 223 94 441 223 93 442 287 77 443 286 78 444 273 79 445 210 95 446 222 95 447 222 94 448 283 78 449 273 79 450 274 64 451 260 80 452 272 80 453 272 95 454 282 79 455 274 78 456 227 77 457 228 76 458 229 76 459 229 75 460 230 74 461 231 74 462 231 73 463 232 72 464 233 76 465 229 74 466 231 72 467 233 72 468 233 71 469 234 70 470 235 70 471 235 69 472 236 68 473 237 72 474 233 70 475 235 68 476 237 68 477 237 67 478 238 66 479 239 66 480 239 65 481 240 64 482 241 68 483 237 66 484 239 64 485 241 72 486 233 68 487 237 64 488 241 76 489 229 72 490 233 64 491 241 78 492 227 76 493 229 64 494 241 79 495 226 78 496 227 64 497 241 81 498 243 82 499 244 83 500 245 83 501 245 84 502 246 85 503 247 85 504 247 86 505 248 87 506 249 83 507 245 85 508 247 87 509 249 87 510 249 88 511 250 89 512 251 89 513 251 90 514 252 91 515 253 87 516 249 89 517 251 91 518 253 91 519 253 92 520 254 93 521 255 93 522 255 94 523 256 95 524 257 91 525 253 93 526 255 95 527 257 87 528 249 91 529 253 95 530 257 83 531 245 87 532 249 95 533 257 81 534 243 83 535 245 95 536 257 80 537 242 81 538 243 95 539 257</p>
        </triangles>
      </mesh>
    </geometry>
    <geometry id="Box344-lib" name="Box344Mesh">
      <mesh>
        <source id="Box344-POSITION">
          <float_array id="Box344-POSITION-array" count="120">
0.000014 -0.454321 -0.248078
-0.145802 -0.454321 -0.200699
-0.235922 -0.454321 -0.076660
-0.235922 -0.454321 0.076660
-0.145802 -0.454321 0.200699
0.000014 -0.454321 0.248078
0.145830 -0.454321 0.200699
0.235950 -0.454321 0.076660
0.235950 -0.454321 -0.076660
0.145830 -0.454321 -0.200699
0.000014 0.455025 -0.248078
-0.145802 0.455025 -0.200699
-0.235922 0.455025 -0.076660
-0.235922 0.455025 0.076660
-0.145802 0.455025 0.200699
0.000015 0.455025 0.248078
0.145831 0.455025 0.200699
0.235950 0.455025 0.076660
0.235950 0.455025 -0.076660
0.145831 0.455025 -0.200699
0.000014 -0.000085 -0.248078
0.000014 -0.145902 -0.200699
0.000014 -0.236021 -0.076660
0.000014 -0.236021 0.076660
0.000014 -0.145902 0.200699
0.000014 -0.000085 0.248078
0.000014 0.145731 0.200699
0.000014 0.235851 0.076660
0.000014 0.235851 -0.076660
0.000014 0.145731 -0.200699
-0.460818 -0.000085 -0.248077
-0.460818 -0.145901 -0.200699
-0.460818 -0.236021 -0.076660
-0.460818 -0.236021 0.076660
-0.460818 -0.145901 0.200700
-0.460818 -0.000085 0.248078
-0.460818 0.145732 0.200699
-0.460818 0.235851 0.076660
-0.460818 0.235851 -0.076660
-0.460818 0.145731 -0.200699
</float_array>
          <technique_common>
            <accessor source="#Box344-POSITION-array" count="40" stride="3">
              <param name="X" type="float"/>
              <param name="Y" type="float"/>
              <param name="Z" type="float"/>
            </accessor>
          </technique_common>
        </source>
        <source id="Box344-Normal0">
          <float_array id="Box344-Normal0-array" count="360">
-0.587785 0.000000 -0.809017
-0.000000 -0.000000 -1.000000
-0.587785 0.000000 -0.809017
-0.000000 -0.000000 -1.000000
-0.587785 0.000000 -0.809017
-0.000000 -0.000000 -1.000000
-0.951057 0.000000 -0.309017
-0.587785 0.000000 -0.809017
-0.587785 0.000000 -0.809017
-0.587785 0.000000 -0.809017
-0.951057 0.000000 -0.309017
-0.951057 0.000000 -0.309017
-0.951056 0.000000 0.309017
-0.951057 0.000000 -0.309017
-0.951057 0.000000 0.309017
-0.951057 0.000000 -0.309017
-0.951056 0.000000 0.309017
-0.951057 0.000000 -0.309017
-0.587785 0.000000 0.809017
-0.951056 0.000000 0.309017
-0.951057 0.000000 0.309017
-0.951056 0.000000 0.309017
-0.587785 0.000000 0.809017
-0.587785 0.000000 0.809017
-0.587785 0.000000 0.809017
0.000000 -0.000000 1.000000
0.000000 -0.000000 1.000000
0.000000 -0.000000 1.000000
-0.587785 0.000000 0.809017
-0.587785 0.000000 0.809017
0.000000 -0.000000 1.000000
0.000000 -0.000000 1.000000
0.587785 -0.000000 0.809017
0.587785 -0.000000 0.809017
0.000000 -0.000000 1.000000
0.587785 -0.000000 0.809017
0.951057 -0.000000 0.309017
0.951056 -0.000000 0.309017
0.587785 -0.000000 0.809017
0.587785 -0.000000 0.809017
0.587785 -0.000000 0.809017
0.951056 -0.000000 0.309017
0.951057 -0.000000 -0.309017
0.951057 -0.000000 -0.309017
0.951057 -0.000000 0.309017
0.951056 -0.000000 0.309017
0.951057 -0.000000 0.309017
0.951057 -0.000000 -0.309017
0.587785 -0.000000 -0.809017
0.951057 -0.000000 -0.309017
0.951057 -0.000000 -0.309017
0.951057 -0.000000 -0.309017
0.587785 -0.000000 -0.809017
0.587785 -0.000000 -0.809017
-0.000000 -0.000000 -1.000000
0.587785 -0.000000 -0.809017
0.587785 -0.000000 -0.809017
0.587785 -0.000000 -0.809017
-0.000000 -0.000000 -1.000000
-0.000000 -0.000000 -1.000000
-0.000001 -0.587785 -0.809017
-0.000000 -0.000000 -1.000000
-0.000001 -0.587785 -0.809017
-0.000000 -0.000000 -1.000000
-0.000001 -0.587785 -0.809017
-0.000000 -0.000000 -1.000000
-0.000001 -0.951057 -0.309017
-0.000001 -0.587785 -0.809017
-0.000001 -0.587785 -0.809017
-0.000001 -0.587785 -0.809017
-0.000001 -0.951057 -0.309017
-0.000001 -0.951057 -0.309016
-0.000000 -0.951056 0.309017
-0.000001 -0.951057 -0.309016
-0.000001 -0.951057 -0.309017
-0.000001 -0.951057 -0.309016
-0.000000 -0.951056 0.309017
-0.000000 -0.951057 0.309017
-0.000000 -0.587785 0.809017
-0.000000 -0.951056 0.309017
-0.000000 -0.587785 0.809017
-0.000000 -0.951056 0.309017
-0.000000 -0.587785 0.809017
-0.000000 -0.951057 0.309017
0.000000 0.000001 1.000000
-0.000000 -0.587785 0.809017
0.000000 0.000001 1.000000
-0.000000 -0.587785 0.809017
0.000000 0.000001 1.000000
-0.000000 -0.587785 0.809017
0.000000 0.587785 0.809017
0.000000 0.000001 1.000000
0.000000 0.587785 0.809017
0.000000 0.000001 1.000000
0.000000 0.587785 0.809017
0.000000 0.000001 1.000000
0.000000 0.951057 0.309017
0.000000 0.587785 0.809017
0.000000 0.587785 0.809017
0.000000 0.587785 0.809017
0.000000 0.951057 0.309017
0.000000 0.951057 0.309017
0.000000 0.951056 -0.309017
0.000000 0.951057 -0.309017
0.000000 0.951057 0.309017
0.000000 0.951057 0.309017
0.000000 0.951057 0.309017
0.000000 0.951057 -0.309017
-0.000000 0.587785 -0.809017
-0.000000 0.587785 -0.809017
0.000000 0.951056 -0.309017
0.000000 0.951057 -0.309017
0.000000 0.951056 -0.309017
-0.000000 0.587785 -0.809017
-0.000000 -0.000000 -1.000000
-0.000000 0.587785 -0.809017
-0.000000 0.587785 -0.809017
-0.000000 0.587785 -0.809017
-0.000000 -0.000000 -1.000000
-0.000000 -0.000000 -1.000000
</float_array>
          <technique_common>
            <accessor source="#Box344-Normal0-array" count="120" stride="3">
              <param name="X" type="float"/>
              <param name="Y" type="float"/>
              <param name="Z" type="float"/>
            </accessor>
          </technique_common>
        </source>
        <source id="Box344-UV0">
          <float_array id="Box344-UV0-array" count="88">
0.059258 0.492891
0.059258 0.387464
0.059258 1.299924
0.059258 0.297783
0.059258 1.099389
0.059258 0.993962
0.281946 0.993962
0.059258 0.888535
0.059258 0.798853
0.281946 0.387464
0.281946 0.492891
0.059258 0.598319
0.281946 0.297783
0.281946 1.299924
0.281946 1.099390
0.261080 0.697127
0.281946 0.888535
0.281946 0.798853
0.380928 0.697127
0.281946 0.598319
0.059258 1.189071
0.281946 1.189072
0.261080 0.501915
0.261080 0.396432
0.261080 0.306703
0.261080 0.106063
0.261080 0.000580
0.380928 0.000580
0.261080 -0.104903
0.261080 -0.194632
0.380928 0.396432
0.380928 0.501915
0.261080 0.607397
0.380928 0.306703
0.380928 0.106063
0.380928 -0.104903
0.380928 -0.194632
0.380928 0.607397
0.261080 0.195792
0.380928 0.195792
0.261080 -0.305544
0.380928 -0.305544
0.059258 0.688001
0.281946 0.688001
</float_array>
          <technique_common>
            <accessor source="#Box344-UV0-array" count="44" stride="2">
              <param name="S" type="float"/>
              <param name="T" type="float"/>
            </accessor>
          </technique_common>
        </source>
        <vertices id="Box344-VERTEX">
          <input semantic="POSITION" source="#Box344-POSITION"/>
        </vertices>
        <triangles count="40" material="pipes1">
          <input semantic="VERTEX" offset="0" source="#Box344-VERTEX"/>
          <input semantic="NORMAL" offset="1" source="#Box344-Normal0"/>
          <input semantic="TEXCOORD" offset="2" set="0" source="#Box344-UV0"/>
          <p> 11 0 9 0 1 0 1 2 1 0 3 0 11 4 9 10 5 10 2 6 3 11 7 9 1 8 1 11 9 9 2 10 3 12 11 12 13 12 21 2 13 2 3 14 20 2 15 2 13 16 21 12 17 13 4 18 4 13 19 21 3 20 20 13 21 21 4 22 4 14 23 14 14 24 14 5 25 5 15 26 6 5 27 5 14 28 14 4 29 4 15 30 6 5 31 5 16 32 16 16 33 16 5 34 5 6 35 7 7 36 8 17 37 17 6 38 7 16 39 16 6 40 7 17 41 17 8 42 42 18 43 43 7 44 8 17 45 17 7 46 8 18 47 43 9 48 11 18 49 43 8 50 42 18 51 43 9 52 11 19 53 19 0 54 0 19 55 19 9 56 11 19 57 19 0 58 0 10 59 10 31 60 30 20 61 22 21 62 23 20 63 22 31 64 30 30 65 31 22 66 24 31 67 30 21 68 23 31 69 30 22 70 24 32 71 33 23 72 38 32 73 33 22 74 24 32 75 33 23 76 38 33 77 39 34 78 34 23 79 38 24 80 25 23 81 38 34 82 34 33 83 39 35 84 27 24 85 25 25 86 26 24 87 25 35 88 27 34 89 34 36 90 35 25 91 26 26 92 28 25 93 26 36 94 35 35 95 27 27 96 29 36 97 35 26 98 28 36 99 35 27 100 29 37 101 36 28 102 40 38 103 41 27 104 29 37 105 36 27 106 29 38 107 41 29 108 32 39 109 37 28 110 15 38 111 18 28 112 15 39 113 37 20 114 22 39 115 37 29 116 32 39 117 37 20 118 22 30 119 31</p>
        </triangles>
      </mesh>
    </geometry>
  </library_geometries>
  <library_visual_scenes>
    <visual_scene id="" name="">
      <node name="Box343" id="Box343" layer="pipe_tjoint" sid="Box343">
        <matrix sid="matrix">1.000000 0.000000 0.000000 0.000000 0.000000 0.000000 1.000000 0.000000 0.000000 -1.000000 0.000000 0.000000 0.000000 0.000000 0.000000 1.000000</matrix>
        <instance_geometry url="#Box343-lib">
          <bind_material>
            <technique_common>
              <instance_material symbol="flanges" target="#flanges"/>
            </technique_common>
          </bind_material>
        </instance_geometry>
        <extra>
          <technique profile="FCOLLADA">
            <visibility>1.000000</visibility>
          </technique>
        </extra>
      </node>
      <node name="Box344" id="Box344" layer="pipe_tjoint" sid="Box344">
        <matrix sid="matrix">1.000000 0.000000 0.000000 0.000000 0.000000 0.000000 1.000000 0.000000 0.000000 -1.000000 0.000000 0.000000 0.000000 0.000000 0.000000 1.000000</matrix>
        <instance_geometry url="#Box344-lib">
          <bind_material>
            <technique_common>
              <instance_material symbol="pipes1" target="#pipes1"/>
            </technique_common>
          </bind_material>
        </instance_geometry>
        <extra>
          <technique profile="FCOLLADA">
            <visibility>1.000000</visibility>
          </technique>
        </extra>
      </node>
      <extra>
        <technique profile="MAX3D">
          <frame_rate>30.000000</frame_rate>
        </technique>
        <technique profile="FCOLLADA">
          <start_time>0.000000</start_time>
          <end_time>0.166667</end_time>
        </technique>
      </extra>
    </visual_scene>
  </library_visual_scenes>
  <scene>
    <instance_visual_scene url="#"></instance_visual_scene>
  </scene>
</COLLADA>

