<?xml version="1.0" encoding="utf-8"?>
<COLLADA xmlns="http://www.collada.org/2005/11/COLLADASchema" version="1.4.1">
  <asset>
    <contributor>
      <author></author>
      <authoring_tool>FBX COLLADA exporter</authoring_tool>
      <comments></comments>
    </contributor>
    <created>2012-05-02T14:44:12Z</created>
    <keywords></keywords>
    <modified>2012-05-02T14:44:12Z</modified>
    <revision></revision>
    <subject></subject>
    <title></title>
    <unit meter="1.000000" name="centimeter"></unit>
    <up_axis>Y_UP</up_axis>
  </asset>
  <library_images>
    <image id="Map #2-image" name="Map #2">
      <init_from>file://C:\Users\WesleyTack\Desktop\amnesia_raw\StaticObjects\sewers\ceiling01.psd</init_from>
    </image>
  </library_images>
  <library_materials>
    <material id="Material #2" name="Material #2">
      <instance_effect url="#Material #2-fx"/>
    </material>
  </library_materials>
  <library_effects>
    <effect id="Material #2-fx" name="Material #2">
      <profile_COMMON>
        <technique sid="standard">
          <phong>
            <emission>
              <color sid="emission">0.000000  0.000000 0.000000 1.000000</color>
            </emission>
            <ambient>
              <color sid="ambient">0.588000  0.588000 0.588000 1.000000</color>
            </ambient>
            <diffuse>
              <texture texture="Map #2-image" texcoord="CHANNEL0">
                <extra>
                  <technique profile="MAYA">
                    <wrapU sid="wrapU0">TRUE</wrapU>
                    <wrapV sid="wrapV0">TRUE</wrapV>
                    <blend_mode>ADD</blend_mode>
                  </technique>
                </extra>
              </texture>
            </diffuse>
            <specular>
              <color sid="specular">0.000000  0.000000 0.000000 1.000000</color>
            </specular>
            <shininess>
              <float sid="shininess">2.000000</float>
            </shininess>
            <reflective>
              <color sid="reflective">0.000000  0.000000 0.000000 1.000000</color>
            </reflective>
            <reflectivity>
              <float sid="reflectivity">1.000000</float>
            </reflectivity>
            <transparent opaque="RGB_ZERO">
              <color sid="transparent">1.000000  1.000000 1.000000 1.000000</color>
            </transparent>
            <transparency>
              <float sid="transparency">0.000000</float>
            </transparency>
          </phong>
        </technique>
      </profile_COMMON>
    </effect>
  </library_effects>
  <library_geometries>
    <geometry id="stone_arch003-lib" name="stone_arch003Mesh">
      <mesh>
        <source id="stone_arch003-POSITION">
          <float_array id="stone_arch003-POSITION-array" count="282">
-0.304198 2.099999 4.034822
-0.256782 2.100000 3.651915
-0.635601 2.099999 4.621470
-0.431322 2.099999 4.371545
-1.134455 2.099999 4.754453
-0.876519 2.099999 4.754453
-1.577998 2.100000 4.371545
-1.377216 2.100000 4.621470
-1.708810 2.100000 4.034822
-0.255601 2.100000 2.000000
-1.751486 2.100000 3.651915
-0.255601 -2.000000 1.644152
-0.300743 -2.000000 2.027059
-0.430725 -2.000000 2.363783
-0.629867 -2.000000 2.613708
-0.874153 -2.000000 2.746690
-1.134115 -2.000000 2.746690
-1.378400 -2.000000 2.613708
-1.577543 -2.000000 2.363783
-1.707524 -2.000000 2.027059
-1.752667 -2.000000 1.644152
-0.255601 -2.000000 -0.000000
-2.439158 -2.100000 5.853731
-2.439158 -2.100000 2.004302
-2.439157 2.100000 3.826344
-1.752667 -1.999999 -2.500000
-2.439157 2.100001 -2.500000
-2.439158 0.240852 2.458465
-2.439158 0.693507 2.293713
-2.439158 -0.240852 2.458465
-2.439158 -0.693506 2.293712
-2.439158 -1.062514 1.984078
-2.439158 -1.303366 1.566910
-2.439158 -1.387013 1.092523
-2.439158 1.303367 1.566909
-2.439157 1.387014 1.092523
-2.439157 1.062515 1.984078
-2.439158 -1.387013 -2.500000
-2.439157 1.387014 -2.500000
0.553635 2.100000 2.000000
0.525806 2.100000 2.545617
0.350351 2.099999 3.316705
0.047808 2.100000 4.057884
-0.463523 2.099999 4.739548
-1.107667 2.099999 5.275663
-1.783141 2.100000 5.658033
-2.439157 2.100000 5.834789
-1.752666 2.100000 -2.500000
-0.255601 -2.100000 1.644152
-0.300743 -2.100000 2.027059
-0.430725 -2.100000 2.363783
-0.629867 -2.100000 2.613708
-0.874153 -2.100000 2.746690
-1.134115 -2.100000 2.746690
-1.378400 -2.100000 2.613708
-1.577543 -2.100000 2.363783
-1.707525 -2.100000 2.027059
-1.752667 -2.100000 1.644152
-1.752667 -2.099999 -2.500000
-2.439158 -2.099999 -2.500000
-1.478028 -2.100000 5.522216
-0.562555 -2.100000 4.773609
0.060027 -2.100000 4.018768
0.404632 -2.100000 3.167036
0.573512 -2.100000 2.243246
0.562093 -2.100000 1.308576
0.351464 -2.100000 -0.000000
-0.255601 -2.100000 -0.000000
-2.048881 0.240852 2.458465
-2.048881 0.693507 2.293713
-2.048881 -0.240852 2.458465
-2.048881 -0.693507 2.293712
-2.048881 -1.062514 1.984078
-2.048881 -1.303366 1.566910
-2.048881 -1.387013 1.092523
-2.048881 1.303367 1.566909
-2.048880 1.387014 1.092523
-2.048880 1.062515 1.984078
-2.048881 -1.387013 -2.500000
-2.048880 1.387014 -2.500000
-2.048880 0.000001 -2.500000
0.553635 1.947546 2.000000
0.525806 1.947546 2.545617
0.350351 1.947546 3.316705
0.047808 1.947546 4.057884
-0.463523 1.947546 4.739548
-1.107667 1.947546 5.275663
-1.783141 1.947546 5.658033
-2.439157 1.947546 5.834789
-0.255601 2.100000 0.000000
0.553635 2.100000 0.000000
0.553635 1.947546 0.000000
-2.439157 2.100000 0.000396
-1.752680 2.100000 0.000396
</float_array>
          <technique_common>
            <accessor source="#stone_arch003-POSITION-array" count="94" stride="3">
              <param name="X" type="float"/>
              <param name="Y" type="float"/>
              <param name="Z" type="float"/>
            </accessor>
          </technique_common>
        </source>
        <source id="stone_arch003-Normal0">
          <float_array id="stone_arch003-Normal0-array" count="1404">
-0.973539 0.050209 -0.222937
-0.954028 0.131488 -0.269335
-0.996114 0.038227 -0.079345
-0.996114 0.038227 -0.079345
-0.998688 0.010159 -0.050196
-0.973539 0.050209 -0.222937
-0.647028 0.176840 -0.741676
-0.573792 0.359718 -0.735776
-0.819134 0.251714 -0.515421
-0.819134 0.251714 -0.515421
-0.871553 0.112246 -0.477281
-0.647028 0.176840 -0.741676
0.210120 0.429993 -0.878041
-0.211318 0.429767 -0.877864
-0.249176 0.226358 -0.941633
-0.249176 0.226358 -0.941633
0.249089 0.226491 -0.941624
0.210120 0.429993 -0.878041
0.819829 0.251758 -0.514294
0.575059 0.359746 -0.734772
0.647046 0.176986 -0.741625
0.647046 0.176986 -0.741625
0.871453 0.112654 -0.477367
0.819829 0.251758 -0.514294
0.996805 0.035193 -0.071696
0.953497 0.132703 -0.270615
0.973565 0.050348 -0.222793
0.973565 0.050348 -0.222793
0.998688 0.010139 -0.050197
0.996805 0.035193 -0.071696
-0.998688 0.010159 -0.050196
-0.996114 0.038227 -0.079345
-1.000000 0.000051 -0.000585
-1.000000 0.000051 -0.000585
-1.000000 0.000000 0.000000
-0.998688 0.010159 -0.050196
-0.871553 0.112246 -0.477281
-0.819134 0.251714 -0.515421
-0.954028 0.131488 -0.269335
-0.954028 0.131488 -0.269335
-0.973539 0.050209 -0.222937
-0.871553 0.112246 -0.477281
-0.249176 0.226358 -0.941633
-0.211318 0.429767 -0.877864
-0.573792 0.359718 -0.735776
-0.573792 0.359718 -0.735776
-0.647028 0.176840 -0.741676
-0.249176 0.226358 -0.941633
0.249089 0.226491 -0.941624
0.647046 0.176986 -0.741625
0.575059 0.359746 -0.734772
0.575059 0.359746 -0.734772
0.210120 0.429993 -0.878041
0.249089 0.226491 -0.941624
0.871453 0.112654 -0.477367
0.973565 0.050348 -0.222793
0.953497 0.132703 -0.270615
0.953497 0.132703 -0.270615
0.819829 0.251758 -0.514294
0.871453 0.112654 -0.477367
0.000000 -1.000000 -0.000000
0.000000 -1.000000 -0.000000
0.000000 -1.000000 -0.000000
0.000000 -1.000000 -0.000000
0.000000 -1.000000 -0.000000
0.000000 -1.000000 -0.000000
-0.000000 -1.000000 0.000000
0.000000 -1.000000 -0.000000
0.000000 -1.000000 -0.000000
0.000000 -1.000000 -0.000000
-0.000000 -1.000000 -0.000000
-0.000000 -1.000000 0.000000
-0.000001 -1.000000 -0.000000
-0.000000 -1.000000 0.000000
-0.000000 -1.000000 -0.000000
-0.000000 -1.000000 -0.000000
-0.000000 -1.000000 -0.000000
-0.000001 -1.000000 -0.000000
0.000000 -1.000000 0.000000
-0.000001 -1.000000 -0.000000
-0.000000 -1.000000 -0.000000
-0.000000 -1.000000 -0.000000
0.000000 -1.000000 -0.000000
0.000000 -1.000000 0.000000
0.000000 -1.000000 0.000000
0.000000 -1.000000 0.000000
0.000000 -1.000000 -0.000000
0.000000 -1.000000 -0.000000
0.000000 -1.000000 -0.000000
0.000000 -1.000000 0.000000
-0.000000 1.000000 -0.000000
0.000000 1.000000 0.000000
-0.000000 1.000000 -0.000000
-0.000000 1.000000 -0.000000
-0.000001 1.000000 -0.000000
-0.000000 1.000000 -0.000000
0.000000 1.000000 0.000000
0.000000 1.000000 -0.000000
0.000000 1.000000 0.000000
0.000000 1.000000 0.000000
-0.000000 1.000000 -0.000000
0.000000 1.000000 0.000000
0.000000 1.000000 -0.000000
0.000000 1.000000 0.000000
-0.000000 1.000000 -0.000000
-0.000000 1.000000 -0.000000
0.000000 1.000000 0.000000
0.000000 1.000000 -0.000000
0.000000 1.000000 0.000000
0.000000 1.000000 0.000000
0.000000 1.000000 0.000000
0.000000 1.000000 0.000000
-0.000000 1.000000 -0.000000
0.000000 1.000000 0.000000
0.000000 1.000000 0.000000
0.000000 1.000000 -0.000000
-0.000000 1.000000 0.000000
-0.000000 1.000000 0.000000
0.000000 1.000000 0.000000
0.000000 1.000000 0.000000
0.000000 1.000000 -0.000000
-0.000000 1.000000 0.000001
-0.000000 1.000000 0.000000
-0.000000 1.000000 0.000001
-0.000000 1.000000 0.000000
-0.000000 1.000000 0.000000
0.000000 -1.000000 -0.000001
0.000000 -1.000000 0.000000
0.000000 -1.000000 -0.000000
0.000000 -1.000000 -0.000001
0.000000 -1.000000 -0.000001
0.000000 -1.000000 -0.000000
0.000001 1.000000 0.000001
-0.000000 1.000000 -0.000000
0.000001 1.000000 0.000000
0.000001 1.000000 0.000000
0.000000 1.000000 0.000000
0.000001 1.000000 0.000001
-0.000000 1.000000 -0.000000
-0.000000 1.000000 -0.000000
-0.000001 1.000000 -0.000000
-0.000001 1.000000 -0.000000
0.000001 1.000000 0.000000
-0.000000 1.000000 -0.000000
0.000000 1.000000 0.000000
0.000001 1.000000 0.000001
0.000000 1.000000 0.000000
0.000000 1.000000 0.000000
0.000000 1.000000 0.000000
0.000000 1.000000 0.000000
0.000000 -1.000000 0.000000
0.000000 -1.000000 -0.000000
0.000000 -1.000000 -0.000000
0.000000 -1.000000 -0.000000
-0.000000 -1.000000 0.000000
0.000000 -1.000000 0.000000
0.000000 -1.000000 -0.000000
0.000000 -1.000000 0.000000
-0.000000 -1.000000 0.000000
-0.000000 -1.000000 0.000000
0.000000 -1.000000 -0.000000
0.000000 -1.000000 -0.000000
0.000000 -1.000000 -0.000000
-0.000000 -1.000000 -0.000000
0.000000 -1.000000 -0.000000
0.000000 -1.000000 -0.000000
0.000000 -1.000000 -0.000000
0.000000 -1.000000 -0.000000
-1.000000 0.000000 -0.000000
-1.000000 0.000000 -0.000000
-1.000000 0.000000 0.000000
-1.000000 0.000000 0.000000
-1.000000 0.000000 0.000000
-1.000000 0.000000 -0.000000
0.996805 0.035193 -0.071696
0.998688 0.010139 -0.050197
1.000000 -0.000047 -0.000122
-0.000000 1.000000 0.000000
-0.000000 1.000000 0.000000
-0.000000 1.000000 0.000000
-0.000000 1.000000 0.000000
0.000000 1.000000 0.000000
-0.000000 1.000000 0.000000
0.000000 -1.000000 -0.000001
0.000000 -1.000000 -0.000000
-0.000000 -1.000000 -0.000000
-0.000000 -1.000000 -0.000000
-0.000000 -1.000000 -0.000000
0.000000 -1.000000 -0.000001
-1.000000 -0.000000 0.000000
-1.000000 0.000000 -0.000000
-1.000000 0.000000 0.000000
-1.000000 0.000000 0.000000
-1.000000 0.000000 -0.000000
-1.000000 0.000000 -0.000000
-1.000000 -0.000000 0.000000
-1.000000 0.000000 -0.000000
-1.000000 0.000001 -0.000000
-1.000000 0.000000 0.000000
-1.000000 0.000000 0.000000
-1.000000 0.000000 -0.000000
-1.000000 0.000000 -0.000000
-1.000000 0.000000 0.000000
-1.000000 0.000000 0.000000
-1.000000 0.000000 -0.000000
-1.000000 0.000000 -0.000000
-1.000000 0.000000 0.000000
-1.000000 0.000000 -0.000000
-1.000000 0.000000 0.000000
-1.000000 0.000000 0.000000
-1.000000 0.000000 -0.000000
-1.000000 0.000000 0.000000
-1.000000 0.000000 0.000000
-1.000000 0.000000 -0.000000
-1.000000 0.000001 -0.000000
-1.000000 0.000000 -0.000000
-1.000000 -0.000000 0.000000
-1.000000 0.000000 -0.000000
-1.000000 0.000000 -0.000000
-1.000000 0.000000 -0.000000
-1.000000 0.000000 0.000000
-1.000000 0.000000 -0.000000
-1.000000 0.000000 -0.000000
-1.000000 0.000000 -0.000000
-1.000000 0.000000 -0.000000
-1.000000 0.000000 -0.000000
-1.000000 -0.000000 0.000000
-1.000000 0.000000 -0.000000
-1.000000 0.000000 -0.000000
-1.000000 0.000000 -0.000000
-1.000000 0.000000 -0.000000
-1.000000 0.000000 0.000000
-1.000000 0.000000 0.000000
-1.000000 0.000000 -0.000000
-0.998688 0.010159 -0.050196
-0.998279 0.000000 -0.058642
-0.970651 -0.000001 -0.240492
-0.970651 -0.000001 -0.240492
-0.973539 0.050209 -0.222937
-0.998688 0.010159 -0.050196
-0.973539 0.050209 -0.222937
-0.970651 -0.000001 -0.240492
-0.867524 -0.000000 -0.497395
-0.867524 -0.000000 -0.497395
-0.871553 0.112246 -0.477281
-0.973539 0.050209 -0.222937
-0.871553 0.112246 -0.477281
-0.867524 -0.000000 -0.497395
-0.642884 0.000000 -0.765963
-0.642884 0.000000 -0.765963
-0.647028 0.176840 -0.741676
-0.871553 0.112246 -0.477281
-0.647028 0.176840 -0.741676
-0.642884 0.000000 -0.765963
-0.246684 0.000000 -0.969096
-0.246684 0.000000 -0.969096
-0.249176 0.226358 -0.941633
-0.647028 0.176840 -0.741676
-0.249176 0.226358 -0.941633
-0.246684 0.000000 -0.969096
0.246684 -0.000000 -0.969096
0.246684 -0.000000 -0.969096
0.249089 0.226491 -0.941624
-0.249176 0.226358 -0.941633
0.249089 0.226491 -0.941624
0.246684 -0.000000 -0.969096
0.642885 -0.000001 -0.765963
0.642885 -0.000001 -0.765963
0.647046 0.176986 -0.741625
0.249089 0.226491 -0.941624
0.647046 0.176986 -0.741625
0.642885 -0.000001 -0.765963
0.867524 -0.000001 -0.497395
0.867524 -0.000001 -0.497395
0.871453 0.112654 -0.477367
0.647046 0.176986 -0.741625
0.871453 0.112654 -0.477367
0.867524 -0.000001 -0.497395
0.970651 -0.000001 -0.240493
0.970651 -0.000001 -0.240493
0.973565 0.050348 -0.222793
0.871453 0.112654 -0.477367
0.973565 0.050348 -0.222793
0.970651 -0.000001 -0.240493
0.998279 -0.000001 -0.058642
0.998279 -0.000001 -0.058642
0.998688 0.010139 -0.050197
0.973565 0.050348 -0.222793
0.998688 0.010139 -0.050197
0.998279 -0.000001 -0.058642
1.000000 -0.000001 -0.000000
1.000000 -0.000001 -0.000000
1.000000 0.000000 0.000001
0.998688 0.010139 -0.050197
-1.000000 0.000000 0.000000
-1.000000 0.000000 0.000000
-0.998279 0.000000 -0.058642
-0.998279 0.000000 -0.058642
-0.998688 0.010159 -0.050196
-1.000000 0.000000 0.000000
-0.000000 -0.500000 -0.866025
-0.000000 -0.500000 -0.866025
-0.000000 -0.173648 -0.984808
-0.000000 -0.173648 -0.984808
-0.000000 -0.173648 -0.984808
-0.000000 -0.500000 -0.866025
-0.000000 -0.173648 -0.984808
-0.000000 -0.173648 -0.984808
0.000000 0.173648 -0.984808
0.000000 0.173648 -0.984808
0.000000 0.173648 -0.984808
-0.000000 -0.173648 -0.984808
0.000000 0.173648 -0.984808
0.000000 0.173648 -0.984808
0.000000 0.500000 -0.866025
0.000000 0.500000 -0.866025
0.000000 0.500000 -0.866025
0.000000 0.173648 -0.984808
0.000000 0.500000 -0.866025
0.000000 0.500000 -0.866025
0.000000 0.766045 -0.642787
0.000000 0.766045 -0.642787
0.000000 0.766045 -0.642788
0.000000 0.500000 -0.866025
0.000000 0.766045 -0.642788
0.000000 0.766045 -0.642787
0.000000 0.939693 -0.342020
0.000000 0.939693 -0.342020
0.000000 0.939693 -0.342020
0.000000 0.766045 -0.642788
0.000000 0.939693 -0.342020
0.000000 0.939693 -0.342020
0.000000 0.996195 -0.087156
0.000000 0.996195 -0.087156
0.000000 0.996195 -0.087156
0.000000 0.939693 -0.342020
0.000000 -0.996195 -0.087155
0.000000 -0.996195 -0.087155
0.000000 -0.939693 -0.342020
0.000000 -0.939693 -0.342020
0.000000 -0.939693 -0.342020
0.000000 -0.996195 -0.087155
-0.000000 -0.766045 -0.642787
0.000000 -0.766045 -0.642787
-0.000000 -0.500000 -0.866025
-0.000000 -0.500000 -0.866025
-0.000000 -0.500000 -0.866025
-0.000000 -0.766045 -0.642787
0.000000 -0.939693 -0.342020
0.000000 -0.939693 -0.342020
0.000000 -0.766045 -0.642787
0.000000 -0.766045 -0.642787
-0.000000 -0.766045 -0.642787
0.000000 -0.939693 -0.342020
0.000000 0.996195 -0.087156
0.000000 0.996195 -0.087156
0.000000 1.000000 0.000000
0.000000 1.000000 0.000000
0.000000 1.000000 0.000000
0.000000 0.996195 -0.087156
0.000000 -1.000000 -0.000000
0.000000 -1.000000 -0.000000
0.000000 -0.996195 -0.087155
0.000000 -0.996195 -0.087155
0.000000 -0.996195 -0.087155
0.000000 -1.000000 -0.000000
-1.000000 0.000000 -0.000000
-1.000000 0.000000 -0.000000
-1.000000 -0.000000 -0.000000
-1.000000 -0.000000 -0.000000
-1.000000 0.000000 -0.000000
-1.000000 0.000000 -0.000000
-1.000000 0.000000 -0.000000
-1.000000 0.000000 -0.000000
-1.000000 0.000000 -0.000000
-1.000000 0.000000 -0.000000
-1.000000 0.000000 -0.000000
-1.000000 0.000000 -0.000000
-1.000000 0.000000 -0.000000
-1.000000 0.000000 -0.000000
-1.000000 0.000000 0.000000
-1.000000 0.000000 0.000000
-1.000000 0.000000 -0.000000
-1.000000 0.000001 0.000000
-1.000000 0.000001 -0.000000
-1.000000 0.000000 -0.000000
-1.000000 -0.000000 0.000000
-1.000000 0.000000 -0.000000
-1.000000 0.000000 -0.000000
-1.000000 0.000000 -0.000000
-1.000000 -0.000000 0.000000
-1.000000 0.000000 -0.000000
-1.000000 0.000000 -0.000000
-1.000000 0.000001 0.000000
-1.000000 0.000000 -0.000000
-1.000000 0.000000 0.000000
-1.000000 0.000000 0.000000
-1.000000 0.000000 -0.000000
-1.000000 0.000001 -0.000000
0.998702 -0.000000 0.050939
0.998702 -0.000000 0.050939
0.998702 -0.000000 0.050939
0.998702 -0.000000 0.050939
0.998702 -0.000000 0.050939
0.998702 -0.000000 0.050939
0.975076 0.000000 0.221871
0.975076 0.000000 0.221871
0.975076 0.000000 0.221871
0.975076 -0.000000 0.221871
0.975076 -0.000000 0.221871
0.975076 -0.000000 0.221871
0.925838 -0.000000 0.377920
0.925838 -0.000000 0.377920
0.925838 -0.000000 0.377920
0.925838 0.000000 0.377920
0.925838 0.000000 0.377920
0.925838 0.000000 0.377920
0.799954 0.000000 0.600062
0.799954 0.000000 0.600062
0.799954 0.000000 0.600062
0.799954 -0.000000 0.600062
0.799954 -0.000000 0.600062
0.799953 -0.000000 0.600062
0.639711 -0.000001 0.768615
0.639711 -0.000001 0.768615
0.639711 -0.000001 0.768615
0.639711 0.000000 0.768615
0.639711 0.000000 0.768615
0.639711 0.000000 0.768615
0.492624 -0.000000 0.870242
0.492624 -0.000000 0.870242
0.492624 -0.000000 0.870242
0.492624 -0.000000 0.870242
0.492624 -0.000000 0.870242
0.492624 -0.000000 0.870242
0.260161 0.000000 0.965565
0.260161 0.000000 0.965565
0.260161 0.000000 0.965565
0.260161 -0.000000 0.965565
0.260161 -0.000000 0.965565
0.260161 -0.000000 0.965565
-1.000000 0.000000 0.000000
-1.000000 0.000000 0.000000
-1.000000 0.000000 0.000000
0.000000 1.000000 0.000000
0.000000 1.000000 0.000000
0.000000 1.000000 0.000000
0.000000 1.000000 0.000000
0.000000 1.000000 0.000000
0.000000 1.000000 0.000000
1.000000 -0.000000 -0.000000
1.000000 -0.000000 -0.000000
1.000000 -0.000000 -0.000000
1.000000 -0.000000 -0.000000
1.000000 -0.000000 -0.000000
1.000000 -0.000000 -0.000000
0.000000 1.000000 0.000000
-0.000000 1.000000 0.000000
0.000000 1.000000 0.000000
0.000000 1.000000 0.000000
0.000000 1.000000 0.000000
0.000000 1.000000 0.000000
1.000000 -0.000047 -0.000122
0.998688 0.010139 -0.050197
1.000000 0.000000 0.000001
1.000000 -0.000047 -0.000122
1.000000 0.000000 0.000001
1.000000 -0.000000 0.000006
</float_array>
          <technique_common>
            <accessor source="#stone_arch003-Normal0-array" count="468" stride="3">
              <param name="X" type="float"/>
              <param name="Y" type="float"/>
              <param name="Z" type="float"/>
            </accessor>
          </technique_common>
        </source>
        <source id="stone_arch003-UV0">
          <float_array id="stone_arch003-UV0-array" count="352">
0.887642 -0.648072
0.888369 -0.720919
0.074049 -0.325392
-0.232523 0.322812
1.132166 -0.648894
0.884451 -0.547357
0.885748 -0.590057
1.106196 -0.647849
-0.186151 0.561819
-0.186151 0.492408
1.072834 -0.648944
0.636701 0.492883
0.885786 -0.590400
1.163372 -0.646785
0.636701 0.561887
0.884332 -0.546546
-0.205951 0.670024
-0.186151 0.614860
0.888374 -0.720837
0.887787 -0.647921
-0.262791 0.260786
0.560062 0.261929
-0.744449 2.128448
-0.896702 2.438530
-0.972752 2.250562
-0.788398 2.073292
-0.690538 2.157795
-0.759304 2.605115
-0.633167 2.157795
-0.557269 2.770325
-0.579256 2.128448
-0.345150 2.843487
-0.345165 1.993957
1.129186 2.445341
1.017483 2.596747
0.875650 2.715587
0.726661 2.800233
0.581836 2.839324
0.581691 2.396054
-0.535307 2.073292
1.231178 2.110332
1.194226 2.281004
1.233467 1.990008
-0.506622 1.998981
-0.496659 1.914477
-0.817084 1.998981
-1.010022 2.046690
-1.007503 1.840419
-0.827046 1.914477
0.636701 0.614622
0.074245 -0.325595
0.581690 0.999893
-0.961019 1.551630
-0.345165 0.999906
0.065102 2.094181
0.171400 2.094179
-0.169357 1.897429
-0.116206 1.989494
0.352729 1.989486
0.405882 1.897421
-0.187817 0.999905
-0.187817 1.792737
0.424342 1.792728
0.424342 0.999895
0.271294 2.057819
-0.034779 2.057825
0.069331 0.029298
0.069388 0.133152
0.069264 -0.074550
0.069203 -0.178392
0.069163 -0.282227
0.069162 -0.386067
0.069161 -0.489914
0.069423 0.340865
0.069424 0.444712
0.069422 0.237011
0.069160 -1.264401
0.069424 1.219199
1.254157 -0.187836
1.266335 1.990015
1.266090 2.110497
1.227120 2.288071
1.160483 2.457691
1.044586 2.616683
0.897292 2.741347
0.743306 2.829472
0.590637 2.871797
0.888528 -1.046560
1.232649 1.548900
1.266580 1.548722
1.105976 -0.619014
0.075154 -0.649792
1.073824 -0.619014
1.131691 -0.619014
1.163844 -0.619014
0.075153 -1.542520
0.888528 -1.542520
0.908366 -0.590793
0.908366 -0.648069
0.908366 -0.720735
0.908366 -0.590792
0.908366 -0.547787
1.024988 2.516358
1.130714 2.447146
1.017883 2.597562
0.979912 2.571507
0.875746 2.715861
0.926751 2.600851
0.726696 2.800236
0.869835 2.600851
0.581939 2.839238
0.816267 2.571507
0.771963 2.516358
0.743097 2.442057
-0.014873 -0.074500
-0.014806 0.029346
-0.014975 -0.386067
-0.014974 -0.282212
-0.014715 0.237024
-0.014714 0.340865
-0.014977 -1.264401
-0.014977 -0.489914
-0.014713 0.444712
-0.014713 1.219199
-0.014749 0.133188
-0.014934 -0.178353
1.306492 0.889597
1.404850 0.853798
1.201822 0.889597
1.103464 0.853798
1.023282 0.786517
0.970947 0.695870
0.952771 0.592790
1.537368 0.695870
1.555544 0.592790
1.485033 0.786517
0.952771 -0.187836
1.555544 -0.187836
0.908366 -0.648069
0.908366 -0.720735
0.908366 -1.542520
0.908366 -0.547787
0.908366 -1.046560
0.075154 -1.046560
1.264049 2.117503
1.225497 2.293416
1.156232 2.465354
1.039057 2.622565
0.892244 2.744855
0.735395 2.832725
0.582186 1.551818
0.733681 2.357564
0.075203 -1.046812
1.063502 2.357564
1.236189 2.113448
1.197473 2.283597
1.053040 2.442057
1.063763 1.993052
1.242330 1.993052
0.733417 1.551818
1.063763 1.551731
1.242330 1.551731
0.581938 1.000080
0.733420 1.000080
-0.827046 1.551630
-0.496659 0.999906
0.616901 0.669787
-0.262963 0.792439
-0.232628 0.730169
0.590224 0.729932
0.559889 0.792202
0.590329 0.323955
-0.186151 0.440857
-0.205907 0.387162
0.616946 0.388305
0.636701 0.442008
</float_array>
          <technique_common>
            <accessor source="#stone_arch003-UV0-array" count="176" stride="2">
              <param name="S" type="float"/>
              <param name="T" type="float"/>
            </accessor>
          </technique_common>
        </source>
        <vertices id="stone_arch003-VERTEX">
          <input semantic="POSITION" source="#stone_arch003-POSITION"/>
        </vertices>
        <triangles count="156" material="Material #2">
          <input semantic="VERTEX" offset="0" source="#stone_arch003-VERTEX"/>
          <input semantic="NORMAL" offset="1" source="#stone_arch003-Normal0"/>
          <input semantic="TEXCOORD" offset="2" set="0" source="#stone_arch003-UV0"/>
          <p> 12 0 3 0 1 171 1 2 21 1 3 21 11 4 20 12 5 3 14 6 172 2 7 175 3 8 174 3 9 174 13 10 173 14 11 172 4 12 14 5 13 11 15 14 9 15 15 9 16 16 8 4 17 14 6 18 166 7 19 49 17 20 17 17 21 17 18 22 16 6 23 166 10 24 170 8 25 169 19 26 168 19 27 168 20 28 167 10 29 170 11 30 1 1 31 2 9 32 91 9 33 91 21 34 87 11 35 1 13 36 173 3 37 174 0 38 171 0 39 171 12 40 3 13 41 173 15 42 9 5 43 11 2 44 175 2 45 175 14 46 172 15 47 9 16 48 8 17 49 17 7 50 49 7 51 49 4 52 14 16 53 8 18 54 16 19 55 168 8 56 169 8 57 169 6 58 166 18 59 16 51 60 22 50 61 25 63 62 24 63 63 24 62 64 23 51 65 22 52 66 26 51 67 22 62 68 23 62 69 23 61 70 27 52 71 26 53 72 28 52 73 26 61 74 27 61 75 27 60 76 29 53 77 28 54 78 30 53 79 28 60 80 29 60 81 29 22 82 31 54 83 30 55 84 39 54 85 30 22 86 31 22 87 31 23 88 32 55 89 39 3 90 102 2 91 105 43 92 104 43 93 104 42 94 103 3 95 102 2 96 105 5 97 107 44 98 106 44 99 106 43 100 104 2 101 105 5 102 107 4 103 109 45 104 108 45 105 108 44 106 106 5 107 107 4 108 109 7 109 111 46 110 110 46 111 110 45 112 108 4 113 109 7 114 111 6 115 112 24 116 38 24 117 38 46 118 110 7 119 111 6 120 112 8 121 113 24 122 38 8 123 113 10 124 151 24 125 38 56 126 43 55 127 39 23 128 32 57 129 44 56 130 43 23 131 32 1 132 153 0 133 156 41 134 155 41 135 155 40 136 154 1 137 153 0 138 156 3 139 102 42 140 103 42 141 103 41 142 155 0 143 156 9 144 157 1 145 153 40 146 154 40 147 154 39 148 158 9 149 157 49 150 45 48 151 48 65 152 47 65 153 47 64 154 46 49 155 45 50 156 25 49 157 45 64 158 46 64 159 46 63 160 24 50 161 25 48 162 48 67 163 164 66 164 52 66 165 52 65 166 47 48 167 48 24 168 38 23 169 32 22 170 31 22 171 31 46 172 37 24 173 38 10 174 50 20 175 18 93 176 152 92 177 150 24 178 38 10 179 151 10 180 151 93 181 159 92 182 150 57 183 44 23 184 32 59 185 53 59 186 53 58 187 165 57 188 44 29 189 54 24 190 38 27 191 55 32 192 56 23 193 32 31 194 57 36 195 58 24 196 38 34 197 59 37 198 60 59 199 53 23 200 32 23 201 32 33 202 61 37 203 60 35 204 62 24 205 38 92 206 150 35 207 62 92 208 150 26 209 51 35 210 62 26 211 51 38 212 63 35 213 62 34 214 59 24 215 38 36 216 58 28 217 64 24 218 38 28 219 64 27 220 55 24 221 38 30 222 65 23 223 32 24 224 38 24 225 38 29 226 54 30 227 65 30 228 65 31 229 57 23 230 32 32 231 56 33 232 61 23 233 32 11 234 1 48 235 99 49 236 98 49 237 98 12 238 0 11 239 1 12 240 0 49 241 98 50 242 100 50 243 100 13 244 6 12 245 0 13 246 6 50 247 100 51 248 141 51 249 141 14 250 5 13 251 6 14 252 10 51 253 92 52 254 90 52 255 90 15 256 7 14 257 10 15 258 7 52 259 90 53 260 93 53 261 93 16 262 4 15 263 7 16 264 4 53 265 93 54 266 94 54 267 94 17 268 13 16 269 4 17 270 15 54 271 101 55 272 97 55 273 97 18 274 12 17 275 15 18 276 12 55 277 97 56 278 138 56 279 138 19 280 19 18 281 12 19 282 19 56 283 138 57 284 139 57 285 139 20 286 18 19 287 19 20 288 18 57 289 139 58 290 140 58 291 140 25 292 96 20 293 18 21 294 87 67 295 142 48 296 99 48 297 99 11 298 1 21 299 87 28 300 124 69 301 67 68 302 66 68 303 66 27 304 115 28 305 124 27 306 115 68 307 66 70 308 68 70 309 68 29 310 114 27 311 115 29 312 114 70 313 68 71 314 69 71 315 69 30 316 125 29 317 114 30 318 125 71 319 69 72 320 70 72 321 70 31 322 117 30 323 125 31 324 117 72 325 70 73 326 71 73 327 71 32 328 116 31 329 117 32 330 116 73 331 71 74 332 72 74 333 72 33 334 121 32 335 116 35 336 122 76 337 74 75 338 73 75 339 73 34 340 119 35 341 122 36 342 118 77 343 75 69 344 67 69 345 67 28 346 124 36 347 118 34 348 119 75 349 73 77 350 75 77 351 75 36 352 118 34 353 119 33 354 121 74 355 72 78 356 76 78 357 76 37 358 120 33 359 121 38 360 123 79 361 77 76 362 74 76 363 74 35 364 122 38 365 123 69 366 127 80 367 78 68 368 126 68 369 126 80 370 78 70 371 128 70 372 128 80 373 78 71 374 129 71 375 129 80 376 78 72 377 130 72 378 130 80 379 78 73 380 131 73 381 131 80 382 78 74 383 132 76 384 134 80 385 78 75 386 133 77 387 135 80 388 78 69 389 127 75 390 133 80 391 78 77 392 135 74 393 132 80 394 78 78 395 136 79 396 137 80 397 78 76 398 134 40 399 40 82 400 80 81 401 79 81 402 79 39 403 42 40 404 40 41 405 41 83 406 81 82 407 144 82 408 144 40 409 40 41 410 41 42 411 33 84 412 82 83 413 145 83 414 145 41 415 41 42 416 33 43 417 34 85 418 83 84 419 146 84 420 146 42 421 33 43 422 34 44 423 35 86 424 84 85 425 147 85 426 147 43 427 34 44 428 35 45 429 36 87 430 85 86 431 148 86 432 148 44 433 35 45 434 36 46 435 37 88 436 86 87 437 149 87 438 149 45 439 36 46 440 37 9 441 91 89 442 143 21 443 87 39 444 158 90 445 161 89 446 160 89 447 160 9 448 157 39 449 158 81 450 79 91 451 89 90 452 88 90 453 88 39 454 42 81 455 79 26 456 162 92 457 150 93 458 159 93 459 159 47 460 163 26 461 162 93 462 152 20 463 18 25 464 96 93 465 152 25 466 96 47 467 95</p>
        </triangles>
      </mesh>
    </geometry>
  </library_geometries>
  <library_visual_scenes>
    <visual_scene id="" name="">
      <node name="stone_arch003" id="stone_arch003" layer="stone_arch02" sid="stone_arch003">
        <matrix sid="matrix">-1.000000 -0.000000 0.000000 0.000000 0.000000 -0.000000 1.000000 0.000000 -0.000000 1.000000 0.000000 0.000000 0.000000 0.000000 0.000000 1.000000</matrix>
        <instance_geometry url="#stone_arch003-lib">
          <bind_material>
            <technique_common>
              <instance_material symbol="Material #2" target="#Material #2"/>
            </technique_common>
          </bind_material>
        </instance_geometry>
        <extra>
          <technique profile="FCOLLADA">
            <visibility>1.000000</visibility>
          </technique>
        </extra>
      </node>
      <extra>
        <technique profile="MAX3D">
          <frame_rate>30.000000</frame_rate>
        </technique>
        <technique profile="FCOLLADA">
          <start_time>0.000000</start_time>
          <end_time>2.000000</end_time>
        </technique>
      </extra>
    </visual_scene>
  </library_visual_scenes>
  <scene>
    <instance_visual_scene url="#"></instance_visual_scene>
  </scene>
</COLLADA>

