<?xml version="1.0" encoding="utf-8"?>
<COLLADA xmlns="http://www.collada.org/2005/11/COLLADASchema" version="1.4.1">
  <asset>
    <contributor>
      <author></author>
      <authoring_tool>FBX COLLADA exporter</authoring_tool>
      <comments></comments>
    </contributor>
    <created>2012-02-26T23:53:32Z</created>
    <keywords></keywords>
    <modified>2012-02-26T23:53:32Z</modified>
    <revision></revision>
    <subject></subject>
    <title></title>
    <unit meter="1.000000" name="centimeter"></unit>
    <up_axis>Y_UP</up_axis>
  </asset>
  <library_images>
    <image id="Map #11-image" name="Map #11">
      <init_from>file://D:\amnesia_raw\StaticObjects\sewers\stone.psd</init_from>
    </image>
  </library_images>
  <library_materials>
    <material id="Material #11" name="Material #11">
      <instance_effect url="#Material #11-fx"/>
    </material>
  </library_materials>
  <library_effects>
    <effect id="Material #11-fx" name="Material #11">
      <profile_COMMON>
        <technique sid="standard">
          <phong>
            <emission>
              <color sid="emission">0.000000  0.000000 0.000000 1.000000</color>
            </emission>
            <ambient>
              <color sid="ambient">0.588000  0.588000 0.588000 1.000000</color>
            </ambient>
            <diffuse>
              <texture texture="Map #11-image" texcoord="CHANNEL0">
                <extra>
                  <technique profile="MAYA">
                    <wrapU sid="wrapU0">TRUE</wrapU>
                    <wrapV sid="wrapV0">TRUE</wrapV>
                    <blend_mode>ADD</blend_mode>
                  </technique>
                </extra>
              </texture>
            </diffuse>
            <specular>
              <color sid="specular">0.000000  0.000000 0.000000 1.000000</color>
            </specular>
            <shininess>
              <float sid="shininess">2.000000</float>
            </shininess>
            <reflective>
              <color sid="reflective">0.000000  0.000000 0.000000 1.000000</color>
            </reflective>
            <reflectivity>
              <float sid="reflectivity">1.000000</float>
            </reflectivity>
            <transparent opaque="RGB_ZERO">
              <color sid="transparent">1.000000  1.000000 1.000000 1.000000</color>
            </transparent>
            <transparency>
              <float sid="transparency">0.000000</float>
            </transparency>
          </phong>
        </technique>
      </profile_COMMON>
    </effect>
  </library_effects>
  <library_geometries>
    <geometry id="stone-lib" name="stoneMesh">
      <mesh>
        <source id="stone-POSITION">
          <float_array id="stone-POSITION-array" count="507">
0.000000 -2.000000 0.000000
0.000000 2.009820 0.000000
0.000000 -2.000000 2.000000
-1.778386 -2.000000 2.000000
0.000000 -1.725294 2.005123
0.000000 -1.361630 1.822232
0.000000 -0.997994 1.640414
0.000000 -0.634358 1.458596
0.000000 -0.270721 1.276778
0.000000 0.092915 1.094959
0.000000 0.456552 0.913141
0.000000 0.820188 0.731323
0.000000 1.183824 0.549505
0.000000 1.645308 0.177346
-1.778386 1.645308 0.177346
-1.778386 1.281672 0.359164
-1.778386 0.918035 0.540982
-1.778386 0.554399 0.722801
-1.778386 0.190762 0.904619
-1.778386 -0.172874 1.086437
-1.778386 -0.536510 1.268255
-1.778386 -0.900147 1.450073
-1.778386 -1.263783 1.631891
-1.778386 -1.725294 2.005123
0.000000 -1.627419 1.813710
0.000000 -1.263783 1.631891
0.000000 -0.900147 1.450073
0.000000 -0.536510 1.268255
0.000000 -0.172874 1.086437
0.000000 0.190763 0.904619
0.000000 0.554399 0.722800
0.000000 0.918035 0.540982
0.000000 1.281672 0.359164
0.000000 1.634807 0.290592
-1.778386 1.634806 0.290592
-1.778386 1.271170 0.472411
-1.778386 0.907534 0.654229
-1.778386 0.543897 0.836047
-1.778386 0.180261 1.017865
-1.778386 -0.183376 1.199683
-1.778386 -0.547012 1.381501
-1.778386 -0.910648 1.563320
-1.778386 -1.274285 1.745138
-1.778386 -1.627420 1.813710
0.000000 1.999767 0.091774
-1.778386 1.930887 0.172621
-1.778386 -2.000000 0.000000
-0.368656 2.010696 0.122142
-0.810045 2.010782 0.119188
-1.333789 1.930887 0.148626
-1.333790 -2.000000 2.000000
-0.889193 -2.000000 2.000000
-0.444596 -2.000000 2.000000
-0.444596 1.634807 0.266597
-0.889193 1.634806 0.250128
-1.333789 1.547461 0.320360
-0.444596 1.271170 0.448415
-0.889193 1.271170 0.431946
-1.333789 1.183824 0.507278
-0.444596 0.907534 0.630233
-0.889193 0.907534 0.613764
-1.333789 0.820188 0.689096
-0.444596 0.543897 0.812051
-0.889193 0.543897 0.795582
-1.333789 0.456551 0.870914
-0.444596 0.180261 0.993869
-0.889193 0.180261 0.977400
-1.333789 0.092915 1.070964
-1.333790 -1.627420 1.789714
-0.889193 -1.627419 1.773245
-0.444596 -1.627419 1.789714
-1.333790 -1.263783 1.607896
-0.889193 -1.263783 1.591427
-0.444596 -1.263783 1.607896
-1.333790 -0.900147 1.426078
-0.889193 -0.900147 1.409609
-0.444596 -0.900147 1.426078
-1.333790 -0.536510 1.244260
-0.889193 -0.536510 1.227791
-0.444596 -0.536510 1.244259
-1.333790 -0.172874 1.062441
-0.889193 -0.172874 1.045972
-0.444596 -0.172874 1.062441
-0.444596 1.645308 0.153350
-0.889193 1.645308 0.136881
-1.333789 1.645308 0.153350
-0.444596 1.281672 0.335169
-0.889193 1.281672 0.318700
-1.333789 1.281672 0.335169
-0.444596 0.918035 0.516987
-0.889193 0.918035 0.500518
-1.333789 0.918035 0.516987
-0.444596 0.554399 0.698805
-0.889193 0.554399 0.682336
-1.333789 0.554399 0.698805
-0.444596 0.190762 0.880623
-0.889193 0.190762 0.864154
-1.333789 0.190762 0.880623
-1.333790 -1.724748 1.967264
-0.889193 -1.724236 1.954399
-0.444596 -1.636843 1.878265
-1.333790 -1.361630 1.779345
-0.889193 -1.361630 1.781767
-0.444596 -1.274285 1.721142
-1.333790 -0.997994 1.616418
-0.889193 -0.997994 1.581058
-0.444596 -0.910648 1.520432
-1.333790 -0.634358 1.434600
-0.889193 -0.634358 1.399240
-0.444596 -0.547012 1.357506
-1.333790 -0.270721 1.252782
-0.889193 -0.270721 1.217421
-0.444596 -0.183375 1.175687
-1.778386 2.009820 0.000000
0.000000 -1.637921 1.926956
0.000000 -1.274285 1.745138
0.000000 -0.910648 1.563320
0.000000 -0.547012 1.381501
0.000000 -0.183375 1.199683
0.000000 0.180261 1.017865
0.000000 0.543897 0.836047
0.000000 0.907534 0.654229
0.000000 1.271170 0.472411
-1.778386 -1.637921 1.926956
0.000000 1.547461 0.367687
-1.778386 1.547460 0.367687
-1.778386 1.183824 0.549505
-1.778386 0.820188 0.731323
-1.778386 0.456551 0.913141
-1.778386 0.092915 1.094959
-1.778386 -0.270721 1.276778
-1.778386 -0.634358 1.458596
-1.778386 -0.997994 1.640414
-1.778386 -1.361630 1.822232
0.000000 1.911068 0.172697
-1.778386 2.010383 0.091299
-0.444596 1.930887 0.148626
-0.889193 1.930887 0.132157
-1.409730 2.010696 0.122142
-0.444596 1.547461 0.343691
-0.889193 1.547461 0.303891
-1.333789 1.634806 0.266597
-0.444596 1.183824 0.507278
-0.889193 1.183824 0.509040
-1.333789 1.271170 0.448415
-0.444596 0.820188 0.707327
-0.889193 0.820188 0.690858
-1.333789 0.907534 0.630233
-0.444596 0.456551 0.870914
-0.889193 0.456551 0.859210
-1.333789 0.543897 0.812051
-0.444596 0.092915 1.070964
-0.889193 0.092915 1.054495
-1.333789 0.180261 0.993869
-1.333790 -1.636843 1.878265
-0.889193 -1.636843 1.861796
-0.444596 -1.724748 1.945917
-1.333790 -1.274285 1.721142
-0.889193 -1.274285 1.704673
-0.444596 -1.361630 1.776890
-1.333790 -0.910648 1.539324
-0.889193 -0.910648 1.503963
-0.444596 -0.997994 1.597527
-1.333790 -0.547012 1.357506
-0.889193 -0.547012 1.322145
-0.444596 -0.634358 1.434600
-1.333790 -0.183376 1.175688
-0.889193 -0.183375 1.140327
-0.444596 -0.270721 1.252782
</float_array>
          <technique_common>
            <accessor source="#stone-POSITION-array" count="169" stride="3">
              <param name="X" type="float"/>
              <param name="Y" type="float"/>
              <param name="Z" type="float"/>
            </accessor>
          </technique_common>
        </source>
        <source id="stone-Normal0">
          <float_array id="stone-Normal0-array" count="3006">
0.579344 0.600368 -0.551288
0.577349 -0.577351 -0.577351
-0.577350 -0.577350 -0.577350
-0.577350 -0.577350 -0.577350
-0.577745 0.575311 -0.578988
0.579344 0.600368 -0.551288
0.000000 0.341508 0.939879
-0.001290 0.647561 0.762012
-0.034134 0.659894 0.750583
-0.034134 0.659894 0.750583
-0.042833 0.339111 0.939771
0.000000 0.341508 0.939879
0.577349 -0.577351 -0.577351
0.007039 -0.649949 0.759945
0.020353 -0.673132 0.739242
0.020353 -0.673132 0.739242
-0.577350 -0.577350 -0.577350
0.577349 -0.577351 -0.577351
0.577349 -0.577351 -0.577351
0.886490 0.316549 0.337540
0.559451 -0.569698 0.602045
-0.002058 0.096523 0.995329
-0.000000 0.672010 0.740542
-0.033404 0.677935 0.734363
-0.033404 0.677935 0.734363
-0.031034 0.172056 0.984598
-0.002058 0.096523 0.995329
-0.016456 0.294661 0.955460
0.000000 0.686370 0.727252
-0.045655 0.665548 0.744957
-0.045655 0.665548 0.744957
-0.058681 0.331464 0.941641
-0.016456 0.294661 0.955460
-0.000217 0.339426 0.940633
-0.009290 0.658215 0.752772
-0.024262 0.680993 0.731888
-0.024262 0.680993 0.731888
-0.044053 0.311217 0.949317
-0.000217 0.339426 0.940633
-0.012314 0.335414 0.941990
-0.009290 0.658215 0.752772
-0.034134 0.659894 0.750583
-0.034134 0.659894 0.750583
-0.042833 0.339111 0.939771
-0.012314 0.335414 0.941990
0.000134 0.320141 0.947370
-0.002385 0.673890 0.738827
-0.030801 0.684124 0.728715
-0.030801 0.684124 0.728715
-0.052904 0.306618 0.950361
0.000134 0.320141 0.947370
0.007039 -0.649949 0.759945
0.019375 0.471849 0.881467
0.049652 0.442616 0.895336
0.049652 0.442616 0.895336
0.020353 -0.673132 0.739242
0.007039 -0.649949 0.759945
-0.009565 0.653380 0.756969
0.001381 0.339886 0.940465
0.042557 0.310285 0.949691
0.042557 0.310285 0.949691
0.042718 0.676792 0.734933
-0.009565 0.653380 0.756969
0.009429 0.675913 0.736922
0.019815 0.376208 0.926323
0.054948 0.342979 0.937734
0.054948 0.342979 0.937734
0.034134 0.659894 0.750583
0.009429 0.675913 0.736922
0.009353 0.669269 0.742962
0.007250 0.372191 0.928128
0.054948 0.342980 0.937734
0.054948 0.342980 0.937734
0.035344 0.659398 0.750963
0.009353 0.669269 0.742962
0.008103 0.669813 0.742486
0.007250 0.372191 0.928128
0.054948 0.342980 0.937734
0.054948 0.342980 0.937734
0.035343 0.659398 0.750963
0.008103 0.669813 0.742486
-0.000000 0.672010 0.740542
-0.010060 0.857832 0.513832
-0.020478 0.892203 0.451169
-0.020478 0.892203 0.451169
-0.033404 0.677935 0.734363
-0.000000 0.672010 0.740542
0.000000 0.686370 0.727252
0.006791 0.892877 0.450250
-0.030491 0.863628 0.503207
-0.030491 0.863628 0.503207
-0.045655 0.665548 0.744957
0.000000 0.686370 0.727252
-0.009290 0.658215 0.752772
0.000000 0.895042 0.445983
-0.020478 0.892203 0.451170
-0.020478 0.892203 0.451170
-0.024262 0.680993 0.731888
-0.009290 0.658215 0.752772
-0.009290 0.658215 0.752772
0.001951 0.872885 0.487921
-0.030491 0.863628 0.503207
-0.030491 0.863628 0.503207
-0.034134 0.659894 0.750583
-0.009290 0.658215 0.752772
-0.002385 0.673890 0.738827
-0.000000 0.895042 0.445982
-0.020478 0.892203 0.451170
-0.020478 0.892203 0.451170
-0.030801 0.684124 0.728715
-0.002385 0.673890 0.738827
0.008435 0.908740 0.417277
-0.009565 0.653380 0.756969
0.042718 0.676792 0.734933
0.042718 0.676792 0.734933
0.027041 0.907012 0.420235
0.008435 0.908740 0.417277
0.007981 0.892501 0.450975
0.009429 0.675913 0.736922
0.034134 0.659894 0.750583
0.034134 0.659894 0.750583
0.014684 0.862649 0.505589
0.007981 0.892501 0.450975
0.008220 0.893099 0.449784
0.009353 0.669269 0.742962
0.035344 0.659398 0.750963
0.035344 0.659398 0.750963
0.030480 0.890032 0.454878
0.008220 0.893099 0.449784
-0.001174 0.895088 0.445888
0.008103 0.669813 0.742486
0.035343 0.659398 0.750963
0.035343 0.659398 0.750963
0.030480 0.890032 0.454878
-0.001174 0.895088 0.445888
-0.001174 0.895088 0.445888
-0.001290 0.647561 0.762012
0.035343 0.659398 0.750963
0.035343 0.659398 0.750963
0.030480 0.890032 0.454878
-0.001174 0.895088 0.445888
-0.578337 -0.582209 0.571453
-0.613979 0.287379 0.735149
-0.617889 0.695981 0.365819
-0.617889 0.695981 0.365819
-0.890427 0.306298 0.336633
-0.578337 -0.582209 0.571453
-0.890427 0.306298 0.336633
-0.603848 0.273384 0.748752
-0.617686 0.693483 0.370870
-0.617686 0.693483 0.370870
-0.890732 0.306186 0.335927
-0.890427 0.306298 0.336633
-0.890732 0.306186 0.335927
-0.613609 0.264315 0.744057
-0.623365 0.693117 0.361946
-0.623365 0.693117 0.361946
-0.890732 0.306186 0.335927
-0.890732 0.306186 0.335927
-0.890732 0.306186 0.335927
-0.613609 0.264315 0.744057
-0.623365 0.693117 0.361946
-0.623365 0.693117 0.361946
-0.890732 0.306186 0.335927
-0.890732 0.306186 0.335927
-0.890732 0.306186 0.335927
-0.613609 0.264315 0.744057
-0.623365 0.693117 0.361946
-0.623365 0.693117 0.361946
-0.890732 0.306186 0.335927
-0.890732 0.306186 0.335927
-0.890732 0.306186 0.335927
-0.613609 0.264315 0.744057
-0.623365 0.693117 0.361946
-0.623365 0.693117 0.361946
-0.890732 0.306186 0.335927
-0.890732 0.306186 0.335927
-0.890732 0.306186 0.335927
-0.604186 0.273067 0.748595
-0.617889 0.693470 0.370557
-0.617889 0.693470 0.370557
-0.890732 0.306186 0.335927
-0.890732 0.306186 0.335927
-0.890732 0.306186 0.335927
-0.604186 0.273067 0.748595
-0.617889 0.693470 0.370557
-0.617889 0.693470 0.370557
-0.890732 0.306186 0.335927
-0.890732 0.306186 0.335927
-0.890732 0.306186 0.335927
-0.604186 0.273067 0.748595
-0.617889 0.693470 0.370557
-0.617889 0.693470 0.370557
-0.890732 0.306186 0.335927
-0.890732 0.306186 0.335927
-0.890732 0.306186 0.335927
-0.601585 0.275506 0.749795
-0.616315 0.693574 0.372976
-0.616315 0.693574 0.372976
-0.884674 0.322329 0.336832
-0.890732 0.306186 0.335927
-0.884674 0.322329 0.336832
-0.577745 0.575311 -0.578988
-0.577350 -0.577350 -0.577350
-0.890732 0.306186 0.335927
-0.884674 0.322329 0.336832
-0.577350 -0.577350 -0.577350
-0.890732 0.306186 0.335927
-0.890732 0.306186 0.335927
-0.577350 -0.577350 -0.577350
-0.577350 -0.577350 -0.577350
-0.890732 0.306186 0.335927
-0.890732 0.306186 0.335927
-0.890732 0.306186 0.335927
-0.890732 0.306186 0.335927
-0.577350 -0.577350 -0.577350
-0.577350 -0.577350 -0.577350
-0.890732 0.306186 0.335927
-0.890732 0.306186 0.335927
-0.890732 0.306186 0.335927
-0.890732 0.306186 0.335927
-0.577350 -0.577350 -0.577350
-0.577350 -0.577350 -0.577350
-0.890732 0.306186 0.335927
-0.890732 0.306186 0.335927
-0.890427 0.306298 0.336633
-0.890732 0.306186 0.335927
-0.577350 -0.577350 -0.577350
-0.578337 -0.582209 0.571453
-0.890427 0.306298 0.336633
-0.577350 -0.577350 -0.577350
-0.890732 0.306186 0.335927
-0.577350 -0.577350 -0.577350
-0.890732 0.306186 0.335927
0.577349 -0.577351 -0.577351
0.886979 0.315353 0.337374
0.886490 0.316549 0.337540
0.577349 -0.577351 -0.577351
0.890732 0.306186 0.335927
0.886979 0.315353 0.337374
0.886979 0.315353 0.337374
0.623365 0.693117 0.361946
0.602180 0.256331 0.756091
0.602180 0.256331 0.756091
0.886490 0.316549 0.337540
0.886979 0.315353 0.337374
0.577349 -0.577351 -0.577351
0.890732 0.306186 0.335928
0.890732 0.306186 0.335927
0.890732 0.306186 0.335927
0.616223 0.694503 0.371397
0.598417 0.265777 0.755817
0.598417 0.265777 0.755817
0.886979 0.315353 0.337374
0.890732 0.306186 0.335927
0.577349 -0.577351 -0.577351
0.890732 0.306186 0.335928
0.890732 0.306186 0.335928
0.890732 0.306186 0.335928
0.623365 0.693117 0.361946
0.613609 0.264315 0.744057
0.613609 0.264315 0.744057
0.890732 0.306186 0.335927
0.890732 0.306186 0.335928
0.577349 -0.577351 -0.577351
0.887110 0.315031 0.337328
0.890732 0.306186 0.335928
0.890732 0.306186 0.335928
0.623365 0.693117 0.361946
0.613609 0.264315 0.744057
0.613609 0.264315 0.744057
0.890732 0.306186 0.335928
0.890732 0.306186 0.335928
0.577349 -0.577351 -0.577351
0.890732 0.306186 0.335928
0.887110 0.315031 0.337328
0.887110 0.315031 0.337328
0.623365 0.693117 0.361946
0.613609 0.264315 0.744057
0.613609 0.264315 0.744057
0.890732 0.306186 0.335928
0.887110 0.315031 0.337328
0.577349 -0.577351 -0.577351
0.887111 0.315031 0.337328
0.890732 0.306186 0.335928
0.890732 0.306186 0.335928
0.623365 0.693117 0.361946
0.603847 0.257504 0.754361
0.603847 0.257504 0.754361
0.887110 0.315031 0.337328
0.890732 0.306186 0.335928
0.577349 -0.577351 -0.577351
0.890732 0.306186 0.335927
0.887111 0.315031 0.337328
0.887111 0.315031 0.337328
0.623365 0.693117 0.361946
0.613609 0.264315 0.744057
0.613609 0.264315 0.744057
0.890732 0.306186 0.335928
0.887111 0.315031 0.337328
0.577349 -0.577351 -0.577351
0.884609 0.322514 0.336826
0.890732 0.306186 0.335927
0.890732 0.306186 0.335927
0.623365 0.693117 0.361946
0.603847 0.257504 0.754361
0.603847 0.257504 0.754361
0.887111 0.315031 0.337328
0.890732 0.306186 0.335927
0.577349 -0.577351 -0.577351
0.579344 0.600368 -0.551288
0.884609 0.322514 0.336826
0.884609 0.322514 0.336826
0.623365 0.693117 0.361946
0.613609 0.264315 0.744057
0.613609 0.264315 0.744057
0.890732 0.306186 0.335927
0.884609 0.322514 0.336826
0.886490 0.316549 0.337540
0.615101 0.695643 0.371121
0.588976 0.269221 0.761989
0.588976 0.269221 0.761989
0.559451 -0.569698 0.602045
0.886490 0.316549 0.337540
0.579344 0.600368 -0.551288
-0.015374 0.776464 0.629974
-0.008009 0.822456 0.568772
0.579344 0.600368 -0.551288
0.658948 0.675192 0.331518
0.636331 0.254936 0.728073
0.636331 0.254936 0.728073
0.884609 0.322514 0.336826
0.579344 0.600368 -0.551288
-0.884674 0.322329 0.336832
-0.611967 0.309131 0.727965
-0.626740 0.719117 0.300113
-0.626740 0.719117 0.300113
-0.577745 0.575311 -0.578988
-0.884674 0.322329 0.336832
-0.613609 0.264315 0.744057
-0.890732 0.306186 0.335927
0.035343 0.659398 0.750963
0.035343 0.659398 0.750963
0.042833 0.339111 0.939771
-0.613609 0.264315 0.744057
0.042833 0.339111 0.939771
0.035343 0.659398 0.750963
-0.001290 0.647561 0.762012
-0.001290 0.647561 0.762012
0.000000 0.341508 0.939879
0.042833 0.339111 0.939771
0.890732 0.306186 0.335928
0.613609 0.264315 0.744057
-0.042833 0.339111 0.939771
-0.042833 0.339111 0.939771
-0.034134 0.659894 0.750583
0.890732 0.306186 0.335928
0.577349 -0.577351 -0.577351
0.559451 -0.569698 0.602045
0.004775 -0.637380 0.770535
0.577349 -0.577351 -0.577351
0.004775 -0.637380 0.770535
0.007039 -0.649949 0.759945
0.020353 -0.673132 0.739242
-0.578337 -0.582209 0.571453
-0.577350 -0.577350 -0.577350
-0.611967 0.309131 0.727965
-0.884674 0.322329 0.336832
0.033404 0.677935 0.734363
0.033404 0.677935 0.734363
0.029193 0.189919 0.981366
-0.611967 0.309131 0.727965
0.029193 0.189919 0.981366
0.033404 0.677935 0.734363
-0.000000 0.672010 0.740542
-0.000000 0.672010 0.740542
-0.002058 0.096523 0.995329
0.029193 0.189919 0.981366
0.884609 0.322514 0.336826
0.636331 0.254936 0.728073
-0.031034 0.172056 0.984598
-0.031034 0.172056 0.984598
-0.033404 0.677935 0.734363
0.884609 0.322514 0.336826
-0.601585 0.275506 0.749795
-0.890732 0.306186 0.335927
0.044474 0.686786 0.725498
0.044474 0.686786 0.725498
0.058268 0.306996 0.949926
-0.601585 0.275506 0.749795
0.058268 0.306996 0.949926
0.044474 0.686786 0.725498
0.000000 0.686370 0.727252
0.000000 0.686370 0.727252
-0.016456 0.294661 0.955460
0.058268 0.306996 0.949926
0.890732 0.306186 0.335927
0.613609 0.264315 0.744057
-0.058681 0.331464 0.941641
-0.058681 0.331464 0.941641
-0.045655 0.665548 0.744957
0.890732 0.306186 0.335927
-0.604186 0.273067 0.748595
-0.890732 0.306186 0.335927
0.042282 0.680988 0.731073
0.042282 0.680988 0.731073
0.042602 0.311549 0.949275
-0.604186 0.273067 0.748595
0.042602 0.311549 0.949275
0.042282 0.680988 0.731073
-0.009290 0.658215 0.752772
-0.009290 0.658215 0.752772
-0.000217 0.339426 0.940633
0.042602 0.311549 0.949275
0.887111 0.315031 0.337328
0.603847 0.257504 0.754361
-0.044053 0.311217 0.949317
-0.044053 0.311217 0.949317
-0.024262 0.680993 0.731888
0.887111 0.315031 0.337328
-0.604186 0.273067 0.748595
-0.890732 0.306186 0.335927
0.042282 0.680989 0.731072
0.042282 0.680989 0.731072
0.042602 0.311549 0.949275
-0.604186 0.273067 0.748595
0.042602 0.311549 0.949275
0.042282 0.680989 0.731072
-0.009290 0.658215 0.752772
-0.009290 0.658215 0.752772
-0.012314 0.335414 0.941990
0.042602 0.311549 0.949275
0.890732 0.306186 0.335928
0.613609 0.264315 0.744057
-0.042833 0.339111 0.939771
-0.042833 0.339111 0.939771
-0.034134 0.659894 0.750583
0.890732 0.306186 0.335928
-0.604186 0.273067 0.748595
-0.890732 0.306186 0.335927
0.042282 0.680989 0.731072
0.042282 0.680989 0.731072
0.051789 0.314749 0.947761
-0.604186 0.273067 0.748595
0.051789 0.314749 0.947761
0.042282 0.680989 0.731072
-0.002385 0.673890 0.738827
-0.002385 0.673890 0.738827
0.000134 0.320141 0.947370
0.051789 0.314749 0.947761
0.887110 0.315031 0.337328
0.603847 0.257504 0.754361
-0.052904 0.306618 0.950361
-0.052904 0.306618 0.950361
-0.030801 0.684124 0.728715
0.887110 0.315031 0.337328
0.559451 -0.569698 0.602045
0.588976 0.269221 0.761989
-0.040676 0.405620 0.913136
-0.040676 0.405620 0.913136
0.004775 -0.637380 0.770535
0.559451 -0.569698 0.602045
0.004775 -0.637380 0.770535
-0.040676 0.405620 0.913136
0.019375 0.471849 0.881467
0.019375 0.471849 0.881467
0.007039 -0.649949 0.759945
0.004775 -0.637380 0.770535
-0.613979 0.287379 0.735149
-0.578337 -0.582209 0.571453
0.020353 -0.673132 0.739242
0.020353 -0.673132 0.739242
0.049652 0.442616 0.895336
-0.613979 0.287379 0.735149
0.886490 0.316549 0.337540
0.602180 0.256331 0.756091
-0.044455 0.305048 0.951299
-0.044455 0.305048 0.951299
-0.023794 0.679988 0.732837
0.886490 0.316549 0.337540
-0.023794 0.679988 0.732837
-0.044455 0.305048 0.951299
0.001381 0.339886 0.940465
0.001381 0.339886 0.940465
-0.009565 0.653380 0.756969
-0.023794 0.679988 0.732837
-0.603848 0.273384 0.748752
-0.890427 0.306298 0.336633
0.042718 0.676792 0.734933
0.042718 0.676792 0.734933
0.042557 0.310285 0.949691
-0.603848 0.273384 0.748752
0.886979 0.315353 0.337374
0.598417 0.265777 0.755817
-0.054891 0.367924 0.928234
-0.054891 0.367924 0.928234
-0.033060 0.686136 0.726721
0.886979 0.315353 0.337374
-0.033060 0.686136 0.726721
-0.054891 0.367924 0.928234
0.019815 0.376208 0.926323
0.019815 0.376208 0.926323
0.009429 0.675913 0.736922
-0.033060 0.686136 0.726721
-0.613609 0.264315 0.744057
-0.890732 0.306186 0.335927
0.034134 0.659894 0.750583
0.034134 0.659894 0.750583
0.054948 0.342979 0.937734
-0.613609 0.264315 0.744057
0.890732 0.306186 0.335927
0.613609 0.264315 0.744057
-0.062540 0.337282 0.939324
-0.062540 0.337282 0.939324
-0.044936 0.658108 0.751582
0.890732 0.306186 0.335927
-0.044936 0.658108 0.751582
-0.062540 0.337282 0.939324
0.007250 0.372191 0.928128
0.007250 0.372191 0.928128
0.009353 0.669269 0.742962
-0.044936 0.658108 0.751582
-0.613609 0.264315 0.744057
-0.890732 0.306186 0.335927
0.035344 0.659398 0.750963
0.035344 0.659398 0.750963
0.054948 0.342980 0.937734
-0.613609 0.264315 0.744057
0.890732 0.306186 0.335928
0.613609 0.264315 0.744057
-0.062540 0.337282 0.939324
-0.062540 0.337282 0.939324
-0.043479 0.664470 0.746049
0.890732 0.306186 0.335928
-0.043479 0.664470 0.746049
-0.062540 0.337282 0.939324
0.007250 0.372191 0.928128
0.007250 0.372191 0.928128
0.008103 0.669813 0.742486
-0.043479 0.664470 0.746049
-0.613609 0.264315 0.744057
-0.890732 0.306186 0.335927
0.035343 0.659398 0.750963
0.035343 0.659398 0.750963
0.054948 0.342980 0.937734
-0.613609 0.264315 0.744057
-0.884674 0.322329 0.336832
-0.616315 0.693574 0.372976
0.023866 0.850435 0.525539
0.023866 0.850435 0.525539
0.033404 0.677935 0.734363
-0.884674 0.322329 0.336832
0.033404 0.677935 0.734363
0.023866 0.850435 0.525539
-0.010060 0.857832 0.513832
-0.010060 0.857832 0.513832
-0.000000 0.672010 0.740542
0.033404 0.677935 0.734363
0.623365 0.693117 0.361946
0.884609 0.322514 0.336826
-0.033404 0.677935 0.734363
-0.033404 0.677935 0.734363
-0.020478 0.892203 0.451169
0.623365 0.693117 0.361946
-0.890732 0.306186 0.335927
-0.617889 0.693470 0.370557
0.014916 0.863851 0.503526
0.014916 0.863851 0.503526
0.044474 0.686786 0.725498
-0.890732 0.306186 0.335927
0.044474 0.686786 0.725498
0.014916 0.863851 0.503526
0.006791 0.892877 0.450250
0.006791 0.892877 0.450250
0.000000 0.686370 0.727252
0.044474 0.686786 0.725498
0.623365 0.693117 0.361946
0.890732 0.306186 0.335927
-0.045655 0.665548 0.744957
-0.045655 0.665548 0.744957
-0.030491 0.863628 0.503207
0.623365 0.693117 0.361946
-0.890732 0.306186 0.335927
-0.617889 0.693470 0.370557
0.014916 0.863852 0.503526
0.014916 0.863852 0.503526
0.042282 0.680988 0.731073
-0.890732 0.306186 0.335927
0.042282 0.680988 0.731073
0.014916 0.863852 0.503526
0.000000 0.895042 0.445983
0.000000 0.895042 0.445983
-0.009290 0.658215 0.752772
0.042282 0.680988 0.731073
0.623365 0.693117 0.361946
0.887111 0.315031 0.337328
-0.024262 0.680993 0.731888
-0.024262 0.680993 0.731888
-0.020478 0.892203 0.451170
0.623365 0.693117 0.361946
-0.890732 0.306186 0.335927
-0.617889 0.693470 0.370557
0.020907 0.861799 0.506818
0.020907 0.861799 0.506818
0.042282 0.680989 0.731072
-0.890732 0.306186 0.335927
0.042282 0.680989 0.731072
0.020907 0.861799 0.506818
0.001951 0.872885 0.487921
0.001951 0.872885 0.487921
-0.009290 0.658215 0.752772
0.042282 0.680989 0.731072
0.623365 0.693117 0.361946
0.890732 0.306186 0.335928
-0.034134 0.659894 0.750583
-0.034134 0.659894 0.750583
-0.030491 0.863628 0.503207
0.623365 0.693117 0.361946
-0.890732 0.306186 0.335927
-0.623365 0.693117 0.361946
0.020477 0.892203 0.451170
0.020477 0.892203 0.451170
0.042282 0.680989 0.731072
-0.890732 0.306186 0.335927
0.042282 0.680989 0.731072
0.020477 0.892203 0.451170
-0.000000 0.895042 0.445982
-0.000000 0.895042 0.445982
-0.002385 0.673890 0.738827
0.042282 0.680989 0.731072
0.623365 0.693117 0.361946
0.887110 0.315031 0.337328
-0.030801 0.684124 0.728715
-0.030801 0.684124 0.728715
-0.020478 0.892203 0.451170
0.623365 0.693117 0.361946
0.615101 0.695643 0.371121
0.886490 0.316549 0.337540
-0.023794 0.679988 0.732837
-0.023794 0.679988 0.732837
-0.037676 0.877451 0.478185
0.615101 0.695643 0.371121
-0.037676 0.877451 0.478185
-0.023794 0.679988 0.732837
-0.009565 0.653380 0.756969
-0.009565 0.653380 0.756969
0.008435 0.908740 0.417277
-0.037676 0.877451 0.478185
-0.890427 0.306298 0.336633
-0.617889 0.695981 0.365819
0.027041 0.907012 0.420235
0.027041 0.907012 0.420235
0.042718 0.676792 0.734933
-0.890427 0.306298 0.336633
0.623365 0.693117 0.361946
0.886979 0.315353 0.337374
-0.033060 0.686136 0.726721
-0.033060 0.686136 0.726721
-0.032449 0.857797 0.512964
0.623365 0.693117 0.361946
-0.032449 0.857797 0.512964
-0.033060 0.686136 0.726721
0.009429 0.675913 0.736922
0.009429 0.675913 0.736922
0.007981 0.892501 0.450975
-0.032449 0.857797 0.512964
-0.890732 0.306186 0.335927
-0.617686 0.693483 0.370870
0.014684 0.862649 0.505589
0.014684 0.862649 0.505589
0.034134 0.659894 0.750583
-0.890732 0.306186 0.335927
0.616223 0.694503 0.371397
0.890732 0.306186 0.335927
-0.044936 0.658108 0.751582
-0.044936 0.658108 0.751582
-0.030123 0.889810 0.455336
0.616223 0.694503 0.371397
-0.030123 0.889810 0.455336
-0.044936 0.658108 0.751582
0.009353 0.669269 0.742962
0.009353 0.669269 0.742962
0.008220 0.893099 0.449784
-0.030123 0.889810 0.455336
-0.890732 0.306186 0.335927
-0.623365 0.693117 0.361946
0.030480 0.890032 0.454878
0.030480 0.890032 0.454878
0.035344 0.659398 0.750963
-0.890732 0.306186 0.335927
0.623365 0.693117 0.361946
0.890732 0.306186 0.335928
-0.043479 0.664470 0.746049
-0.043479 0.664470 0.746049
-0.029659 0.889781 0.455423
0.623365 0.693117 0.361946
-0.029659 0.889781 0.455423
-0.043479 0.664470 0.746049
0.008103 0.669813 0.742486
0.008103 0.669813 0.742486
-0.001174 0.895088 0.445888
-0.029659 0.889781 0.455423
-0.890732 0.306186 0.335927
-0.623365 0.693117 0.361946
0.030480 0.890032 0.454878
0.030480 0.890032 0.454878
0.035343 0.659398 0.750963
-0.890732 0.306186 0.335927
0.623365 0.693117 0.361946
0.890732 0.306186 0.335928
-0.034134 0.659894 0.750583
-0.034134 0.659894 0.750583
-0.029659 0.889781 0.455423
0.623365 0.693117 0.361946
-0.029659 0.889781 0.455423
-0.034134 0.659894 0.750583
-0.001290 0.647561 0.762012
-0.001290 0.647561 0.762012
-0.001174 0.895088 0.445888
-0.029659 0.889781 0.455423
-0.890732 0.306186 0.335927
-0.623365 0.693117 0.361946
0.030480 0.890032 0.454878
0.030480 0.890032 0.454878
0.035343 0.659398 0.750963
-0.890732 0.306186 0.335927
-0.577745 0.575311 -0.578988
-0.626740 0.719117 0.300113
-0.033448 0.788149 0.614576
-0.577745 0.575311 -0.578988
-0.033448 0.788149 0.614576
-0.015374 0.776464 0.629974
-0.015374 0.776464 0.629974
0.579344 0.600368 -0.551288
-0.577745 0.575311 -0.578988
-0.008009 0.822456 0.568772
0.658948 0.675192 0.331518
0.579344 0.600368 -0.551288
0.636331 0.254936 0.728073
0.658948 0.675192 0.331518
-0.008009 0.822456 0.568772
-0.008009 0.822456 0.568772
-0.031034 0.172056 0.984598
0.636331 0.254936 0.728073
0.613609 0.264315 0.744057
0.623365 0.693117 0.361946
-0.020478 0.892203 0.451169
-0.020478 0.892203 0.451169
-0.058681 0.331464 0.941641
0.613609 0.264315 0.744057
0.603847 0.257504 0.754361
0.623365 0.693117 0.361946
-0.030491 0.863628 0.503207
-0.030491 0.863628 0.503207
-0.044053 0.311217 0.949317
0.603847 0.257504 0.754361
0.613609 0.264315 0.744057
0.623365 0.693117 0.361946
-0.020478 0.892203 0.451170
-0.020478 0.892203 0.451170
-0.042833 0.339111 0.939771
0.613609 0.264315 0.744057
0.603847 0.257504 0.754361
0.623365 0.693117 0.361946
-0.030491 0.863628 0.503207
-0.030491 0.863628 0.503207
-0.052904 0.306618 0.950361
0.603847 0.257504 0.754361
0.613609 0.264315 0.744057
0.623365 0.693117 0.361946
-0.020478 0.892203 0.451170
-0.020478 0.892203 0.451170
-0.042833 0.339111 0.939771
0.613609 0.264315 0.744057
-0.617889 0.695981 0.365819
-0.613979 0.287379 0.735149
0.049652 0.442616 0.895336
0.049652 0.442616 0.895336
0.027041 0.907012 0.420235
-0.617889 0.695981 0.365819
-0.617686 0.693483 0.370870
-0.603848 0.273384 0.748752
0.042557 0.310285 0.949691
0.042557 0.310285 0.949691
0.014684 0.862649 0.505589
-0.617686 0.693483 0.370870
-0.623365 0.693117 0.361946
-0.613609 0.264315 0.744057
0.054948 0.342979 0.937734
0.054948 0.342979 0.937734
0.030480 0.890032 0.454878
-0.623365 0.693117 0.361946
-0.623365 0.693117 0.361946
-0.613609 0.264315 0.744057
0.054948 0.342980 0.937734
0.054948 0.342980 0.937734
0.030480 0.890032 0.454878
-0.623365 0.693117 0.361946
-0.623365 0.693117 0.361946
-0.613609 0.264315 0.744057
0.054948 0.342980 0.937734
0.054948 0.342980 0.937734
0.030480 0.890032 0.454878
-0.623365 0.693117 0.361946
-0.031034 0.172056 0.984598
-0.008009 0.822456 0.568772
-0.015374 0.776464 0.629974
-0.015374 0.776464 0.629974
-0.002058 0.096523 0.995329
-0.031034 0.172056 0.984598
-0.002058 0.096523 0.995329
-0.015374 0.776464 0.629974
-0.033448 0.788149 0.614576
-0.033448 0.788149 0.614576
0.029193 0.189919 0.981366
-0.002058 0.096523 0.995329
0.029193 0.189919 0.981366
-0.033448 0.788149 0.614576
-0.626740 0.719117 0.300113
-0.626740 0.719117 0.300113
-0.611967 0.309131 0.727965
0.029193 0.189919 0.981366
-0.058681 0.331464 0.941641
-0.020478 0.892203 0.451169
-0.010060 0.857832 0.513832
-0.010060 0.857832 0.513832
-0.016456 0.294661 0.955460
-0.058681 0.331464 0.941641
-0.016456 0.294661 0.955460
-0.010060 0.857832 0.513832
0.023866 0.850435 0.525539
0.023866 0.850435 0.525539
0.058268 0.306996 0.949926
-0.016456 0.294661 0.955460
0.058268 0.306996 0.949926
0.023866 0.850435 0.525539
-0.616315 0.693574 0.372976
-0.616315 0.693574 0.372976
-0.601585 0.275506 0.749795
0.058268 0.306996 0.949926
-0.044053 0.311217 0.949317
-0.030491 0.863628 0.503207
0.006791 0.892877 0.450250
0.006791 0.892877 0.450250
-0.000217 0.339426 0.940633
-0.044053 0.311217 0.949317
-0.000217 0.339426 0.940633
0.006791 0.892877 0.450250
0.014916 0.863851 0.503526
0.014916 0.863851 0.503526
0.042602 0.311549 0.949275
-0.000217 0.339426 0.940633
0.042602 0.311549 0.949275
0.014916 0.863851 0.503526
-0.617889 0.693470 0.370557
-0.617889 0.693470 0.370557
-0.604186 0.273067 0.748595
0.042602 0.311549 0.949275
-0.042833 0.339111 0.939771
-0.020478 0.892203 0.451170
0.000000 0.895042 0.445983
0.000000 0.895042 0.445983
-0.012314 0.335414 0.941990
-0.042833 0.339111 0.939771
-0.012314 0.335414 0.941990
0.000000 0.895042 0.445983
0.014916 0.863852 0.503526
0.014916 0.863852 0.503526
0.042602 0.311549 0.949275
-0.012314 0.335414 0.941990
0.042602 0.311549 0.949275
0.014916 0.863852 0.503526
-0.617889 0.693470 0.370557
-0.617889 0.693470 0.370557
-0.604186 0.273067 0.748595
0.042602 0.311549 0.949275
-0.052904 0.306618 0.950361
-0.030491 0.863628 0.503207
0.001951 0.872885 0.487921
0.001951 0.872885 0.487921
0.000134 0.320141 0.947370
-0.052904 0.306618 0.950361
0.000134 0.320141 0.947370
0.001951 0.872885 0.487921
0.020907 0.861799 0.506818
0.020907 0.861799 0.506818
0.051789 0.314749 0.947761
0.000134 0.320141 0.947370
0.051789 0.314749 0.947761
0.020907 0.861799 0.506818
-0.617889 0.693470 0.370557
-0.617889 0.693470 0.370557
-0.604186 0.273067 0.748595
0.051789 0.314749 0.947761
-0.042833 0.339111 0.939771
-0.020478 0.892203 0.451170
-0.000000 0.895042 0.445982
-0.000000 0.895042 0.445982
0.000000 0.341508 0.939879
-0.042833 0.339111 0.939771
0.000000 0.341508 0.939879
-0.000000 0.895042 0.445982
0.020477 0.892203 0.451170
0.020477 0.892203 0.451170
0.042833 0.339111 0.939771
0.000000 0.341508 0.939879
0.042833 0.339111 0.939771
0.020477 0.892203 0.451170
-0.623365 0.693117 0.361946
-0.623365 0.693117 0.361946
-0.613609 0.264315 0.744057
0.042833 0.339111 0.939771
0.027041 0.907012 0.420235
0.049652 0.442616 0.895336
0.019375 0.471849 0.881467
0.019375 0.471849 0.881467
0.008435 0.908740 0.417277
0.027041 0.907012 0.420235
0.008435 0.908740 0.417277
0.019375 0.471849 0.881467
-0.040676 0.405620 0.913136
-0.040676 0.405620 0.913136
-0.037676 0.877451 0.478185
0.008435 0.908740 0.417277
-0.037676 0.877451 0.478185
-0.040676 0.405620 0.913136
0.588976 0.269221 0.761989
0.588976 0.269221 0.761989
0.615101 0.695643 0.371121
-0.037676 0.877451 0.478185
0.014684 0.862649 0.505589
0.042557 0.310285 0.949691
0.001381 0.339886 0.940465
0.001381 0.339886 0.940465
0.007981 0.892501 0.450975
0.014684 0.862649 0.505589
0.007981 0.892501 0.450975
0.001381 0.339886 0.940465
-0.044455 0.305048 0.951299
-0.044455 0.305048 0.951299
-0.032449 0.857797 0.512964
0.007981 0.892501 0.450975
-0.032449 0.857797 0.512964
-0.044455 0.305048 0.951299
0.602180 0.256331 0.756091
0.602180 0.256331 0.756091
0.623365 0.693117 0.361946
-0.032449 0.857797 0.512964
0.030480 0.890032 0.454878
0.054948 0.342979 0.937734
0.019815 0.376208 0.926323
0.019815 0.376208 0.926323
0.008220 0.893099 0.449784
0.030480 0.890032 0.454878
0.008220 0.893099 0.449784
0.019815 0.376208 0.926323
-0.054891 0.367924 0.928234
-0.054891 0.367924 0.928234
-0.030123 0.889810 0.455336
0.008220 0.893099 0.449784
-0.030123 0.889810 0.455336
-0.054891 0.367924 0.928234
0.598417 0.265777 0.755817
0.598417 0.265777 0.755817
0.616223 0.694503 0.371397
-0.030123 0.889810 0.455336
0.030480 0.890032 0.454878
0.054948 0.342980 0.937734
0.007250 0.372191 0.928128
0.007250 0.372191 0.928128
-0.001174 0.895088 0.445888
0.030480 0.890032 0.454878
-0.001174 0.895088 0.445888
0.007250 0.372191 0.928128
-0.062540 0.337282 0.939324
-0.062540 0.337282 0.939324
-0.029659 0.889781 0.455423
-0.001174 0.895088 0.445888
-0.029659 0.889781 0.455423
-0.062540 0.337282 0.939324
0.613609 0.264315 0.744057
0.613609 0.264315 0.744057
0.623365 0.693117 0.361946
-0.029659 0.889781 0.455423
0.030480 0.890032 0.454878
0.054948 0.342980 0.937734
0.007250 0.372191 0.928128
0.007250 0.372191 0.928128
-0.001174 0.895088 0.445888
0.030480 0.890032 0.454878
-0.001174 0.895088 0.445888
0.007250 0.372191 0.928128
-0.062540 0.337282 0.939324
-0.062540 0.337282 0.939324
-0.029659 0.889781 0.455423
-0.001174 0.895088 0.445888
-0.029659 0.889781 0.455423
-0.062540 0.337282 0.939324
0.613609 0.264315 0.744057
0.613609 0.264315 0.744057
0.623365 0.693117 0.361946
-0.029659 0.889781 0.455423
</float_array>
          <technique_common>
            <accessor source="#stone-Normal0-array" count="1002" stride="3">
              <param name="X" type="float"/>
              <param name="Y" type="float"/>
              <param name="Z" type="float"/>
            </accessor>
          </technique_common>
        </source>
        <source id="stone-UV0">
          <float_array id="stone-UV0-array" count="496">
0.316225 0.011824
0.628796 0.011824
0.078375 0.474785
0.153897 0.474492
0.634997 0.008025
0.862559 0.008254
1.000000 1.000000
0.565397 0.906948
0.520758 1.000001
0.520758 1.000001
0.519530 0.931393
0.153898 0.546727
0.748521 0.264059
0.565397 0.906949
0.581828 0.818753
0.078760 0.547013
0.063158 0.029032
0.138376 0.027306
0.153096 0.088098
0.078549 0.090843
0.078367 0.109850
0.153431 0.107773
0.153664 0.180589
0.078695 0.181526
0.078351 0.200668
0.608964 0.816130
0.625396 0.727935
0.652532 0.725312
0.668963 0.637117
0.696099 0.634494
0.712531 0.546299
0.739667 0.543676
0.756098 0.455480
0.783234 0.452857
0.799665 0.364662
0.153768 0.199902
0.153827 0.272180
0.078724 0.272653
0.078357 0.291885
0.153860 0.291461
0.153878 0.363697
0.078746 0.364039
0.078369 0.383302
0.153888 0.382977
0.153894 0.455212
0.826802 0.362039
0.843233 0.273844
0.870369 0.271221
0.886800 0.183025
0.913937 0.180403
0.930368 0.092207
0.957504 0.089584
1.000000 0.003497
1.000000 1.000001
0.608964 0.816130
0.078757 0.455513
0.652532 0.725312
0.228923 1.002779
0.563355 0.840568
0.153526 1.002973
0.696099 0.634494
0.153615 0.955456
0.606922 0.749749
0.229709 0.955740
0.739667 0.543675
0.229115 0.913294
0.650490 0.658931
0.153812 0.913052
0.783234 0.452857
0.153843 0.867821
0.694057 0.568113
0.229573 0.868082
0.826802 0.362039
0.229034 0.821609
0.737625 0.477295
0.153888 0.821314
0.870369 0.271221
0.153888 0.776187
0.781192 0.386476
0.229535 0.776482
0.913937 0.180402
0.229035 0.730056
0.824760 0.295658
0.153897 0.729762
0.957504 0.089584
0.153896 0.684656
0.868327 0.204840
0.229538 0.684942
1.000000 0.003497
0.229037 0.638528
0.930368 0.092207
0.153899 0.638243
0.519530 0.931393
0.153899 0.593139
0.978009 0.003356
0.958636 0.022128
0.229540 0.593417
0.229036 0.547004
0.000354 0.010521
0.229540 0.501891
0.304953 0.475077
0.628796 0.713111
0.304492 0.547332
0.003304 0.547346
0.691631 0.264002
0.002698 0.502242
0.227682 0.041453
0.303176 0.041685
0.303155 0.087926
0.227783 0.087910
0.003331 0.093877
0.000511 0.024857
0.229018 0.134962
0.304007 0.107524
0.862302 0.264173
0.805412 0.264116
0.634740 0.263945
0.304074 0.180490
0.228667 0.180376
0.003321 0.182196
0.003011 0.111957
0.229410 0.227050
0.304680 0.199933
0.304382 0.272514
0.228937 0.272273
0.003285 0.273069
0.002707 0.228147
0.229509 0.318770
0.304886 0.291852
0.304465 0.364216
0.229011 0.363916
0.003294 0.364397
0.002690 0.319343
0.229534 0.410353
0.304940 0.383513
0.304487 0.455795
0.229031 0.455473
0.003302 0.455852
0.002695 0.410760
0.077467 1.003061
0.001866 1.003092
0.001593 0.957238
0.078053 0.928487
0.305606 0.959119
0.303819 1.005357
0.078611 0.913156
0.003201 0.912434
0.002599 0.867875
0.078316 0.840760
0.304986 0.841194
0.304632 0.913204
0.078742 0.821503
0.003280 0.821757
0.002679 0.776703
0.078366 0.749293
0.304953 0.749672
0.304496 0.821920
0.078757 0.730022
0.003300 0.730340
0.002694 0.685242
0.078374 0.657795
0.304955 0.658138
0.304490 0.730390
0.078760 0.638520
0.003304 0.638849
0.002698 0.593743
0.078376 0.566289
0.304956 0.566611
0.304492 0.638860
0.301687 -0.000712
0.316225 0.713111
0.002211 0.930899
0.538261 0.909571
0.002773 0.840961
0.581828 0.818753
0.002829 0.749601
0.625396 0.727935
0.002839 0.658119
0.668963 0.637116
0.002841 0.566618
0.712531 0.546298
0.002840 0.475120
0.756098 0.455480
0.002835 0.383651
0.799665 0.364662
0.002829 0.292278
0.843233 0.273843
0.002858 0.201239
0.886800 0.183025
0.305510 0.932256
0.538261 0.909572
0.002909 0.137977
0.911895 0.114021
0.304483 0.134996
0.911894 0.114022
0.304938 0.227231
0.868327 0.204840
0.305061 0.319044
0.824760 0.295658
0.305091 0.410663
0.781192 0.386477
0.305099 0.502214
0.737625 0.477295
0.305100 0.593744
0.694057 0.568113
0.305098 0.685272
0.650490 0.658931
0.305098 0.776807
0.606922 0.749750
0.305170 0.868270
0.563355 0.840568
0.001268 0.050373
0.958618 0.023210
0.302484 0.014982
0.978123 0.003357
0.076632 0.045535
0.152132 0.041889
0.240299 0.023461
0.078344 0.136704
0.153666 0.135252
0.228570 0.107512
0.078251 0.227666
0.153838 0.227061
0.229187 0.199790
0.078249 0.318971
0.153882 0.318593
0.229361 0.291596
0.078255 0.410418
0.153895 0.410108
0.229407 0.383208
0.078257 0.501911
0.153899 0.501623
0.229419 0.474756
0.229547 0.928502
0.153721 0.928225
0.077533 0.955877
0.229432 0.840907
0.153868 0.840629
0.078154 0.867915
0.229417 0.749341
0.153891 0.749046
0.078241 0.776412
0.229420 0.657808
0.153897 0.657524
0.078254 0.684921
0.229421 0.566284
0.153899 0.566008
0.078257 0.593416
</float_array>
          <technique_common>
            <accessor source="#stone-UV0-array" count="248" stride="2">
              <param name="S" type="float"/>
              <param name="T" type="float"/>
            </accessor>
          </technique_common>
        </source>
        <vertices id="stone-VERTEX">
          <input semantic="POSITION" source="#stone-POSITION"/>
        </vertices>
        <triangles count="334" material="Material #11">
          <input semantic="VERTEX" offset="0" source="#stone-VERTEX"/>
          <input semantic="NORMAL" offset="1" source="#stone-Normal0"/>
          <input semantic="TEXCOORD" offset="2" set="0" source="#stone-UV0"/>
          <p> 1 0 1 0 1 101 46 2 170 46 3 170 113 4 0 1 5 1 152 6 231 81 7 11 82 8 15 82 9 15 151 10 230 152 11 231 0 12 5 51 13 12 50 14 104 50 15 104 46 16 4 0 17 5 0 18 6 24 19 7 2 20 8 137 21 216 84 22 18 83 23 19 83 24 19 136 25 215 137 26 216 140 27 219 87 28 22 86 29 23 86 30 23 139 31 218 140 32 219 143 33 222 90 34 36 89 35 37 89 36 37 142 37 221 143 38 222 146 39 225 93 40 40 92 41 41 92 42 41 145 43 224 146 44 225 149 45 228 96 46 44 95 47 55 95 48 55 148 49 227 149 50 228 51 51 59 99 52 61 98 53 63 98 54 63 50 55 57 51 56 59 69 57 67 102 58 69 101 59 71 101 60 71 68 61 65 69 62 67 72 63 75 105 64 77 104 65 79 104 66 79 71 67 73 72 68 75 75 69 83 108 70 85 107 71 87 107 72 87 74 73 81 75 74 83 78 75 91 111 76 93 110 77 96 110 78 96 77 79 89 78 80 91 84 81 18 54 82 21 53 83 20 53 84 20 83 85 19 84 86 18 87 87 22 57 88 35 56 89 24 56 90 24 86 91 23 87 92 22 90 93 36 60 94 39 59 95 38 59 96 38 89 97 37 90 98 36 93 99 40 63 100 43 62 101 42 62 102 42 92 103 41 93 104 40 96 105 44 66 106 3 65 107 2 65 108 2 95 109 55 96 110 44 155 111 234 69 112 67 68 113 65 68 114 65 154 115 233 155 116 234 158 117 237 72 118 75 71 119 73 71 120 73 157 121 236 158 122 237 161 123 240 75 124 83 74 125 81 74 126 81 160 127 239 161 128 240 164 129 243 78 130 91 77 131 89 77 132 89 163 133 242 164 134 243 167 135 246 81 136 11 80 137 97 80 138 97 166 139 245 167 140 246 3 141 9 23 142 10 123 143 190 123 144 190 43 145 13 3 146 9 43 147 13 133 148 210 42 149 14 42 150 14 22 151 25 43 152 13 22 153 25 132 154 208 41 155 26 41 156 26 21 157 27 22 158 25 21 159 27 131 160 206 40 161 28 40 162 28 20 163 29 21 164 27 20 165 29 130 166 204 39 167 30 39 168 30 19 169 31 20 170 29 19 171 31 129 172 202 38 173 32 38 174 32 18 175 33 19 176 31 18 177 33 128 178 200 37 179 34 37 180 34 17 181 45 18 182 33 17 183 45 127 184 198 36 185 46 36 186 46 16 187 47 17 188 45 16 189 47 126 190 196 35 191 48 35 192 48 15 193 49 16 194 47 15 195 49 125 196 194 34 197 50 34 198 50 14 199 51 15 200 49 14 201 51 113 202 52 46 203 53 15 204 49 14 205 51 46 206 53 17 207 45 16 208 47 46 209 53 46 210 53 18 211 33 17 212 45 19 213 31 18 214 33 46 215 53 46 216 53 20 217 29 19 218 31 21 219 27 20 220 29 46 221 53 46 222 53 22 223 25 21 224 27 43 225 13 22 226 25 46 227 53 3 228 9 43 229 13 46 230 53 15 231 49 46 232 53 16 233 47 0 234 6 25 235 54 24 236 7 0 237 6 26 238 56 25 239 54 25 240 54 115 241 174 5 242 58 5 243 58 24 244 7 25 245 54 0 246 6 27 247 60 26 248 56 26 249 56 116 250 176 6 251 62 6 252 62 25 253 54 26 254 56 0 255 6 28 256 64 27 257 60 27 258 60 117 259 178 7 260 66 7 261 66 26 262 56 27 263 60 0 264 6 29 265 68 28 266 64 28 267 64 118 268 180 8 269 70 8 270 70 27 271 60 28 272 64 0 273 6 30 274 72 29 275 68 29 276 68 119 277 182 9 278 74 9 279 74 28 280 64 29 281 68 0 282 6 31 283 76 30 284 72 30 285 72 120 286 184 10 287 78 10 288 78 29 289 68 30 290 72 0 291 6 32 292 80 31 293 76 31 294 76 121 295 186 11 296 82 11 297 82 30 298 72 31 299 76 0 300 6 13 301 84 32 302 80 32 303 80 122 304 188 12 305 86 12 306 86 31 307 76 32 308 80 0 309 6 1 310 88 13 311 84 13 312 84 33 313 90 124 314 192 124 315 192 32 316 80 13 317 84 24 318 7 114 319 172 4 320 92 4 321 92 2 322 8 24 323 7 1 324 98 48 325 17 47 326 16 1 327 88 44 328 94 134 329 212 134 330 212 13 331 84 1 332 88 14 333 51 45 334 95 135 335 214 135 336 214 113 337 52 14 338 51 129 339 201 19 340 102 80 341 97 80 342 97 67 343 99 129 344 201 67 345 99 80 346 97 81 347 11 81 348 11 152 349 231 67 350 99 28 351 103 9 352 105 151 353 230 151 354 230 82 355 15 28 356 103 0 357 5 2 358 114 52 359 115 0 360 5 52 361 115 51 362 12 50 363 104 3 364 116 46 365 4 45 366 107 14 367 108 85 368 109 85 369 109 49 370 106 45 371 107 49 372 106 85 373 109 84 374 18 84 375 18 137 376 216 49 377 106 13 378 110 134 379 211 136 380 215 136 381 215 83 382 19 13 383 110 125 384 193 15 385 117 88 386 118 88 387 118 55 388 112 125 389 193 55 390 112 88 391 118 87 392 22 87 393 22 140 394 219 55 395 112 32 396 119 124 397 191 139 398 218 139 399 218 86 400 23 32 401 119 126 402 195 16 403 123 91 404 124 91 405 124 58 406 121 126 407 195 58 408 121 91 409 124 90 410 36 90 411 36 143 412 222 58 413 121 31 414 125 12 415 126 142 416 221 142 417 221 89 418 37 31 419 125 127 420 197 17 421 129 94 422 130 94 423 130 61 424 127 127 425 197 61 426 127 94 427 130 93 428 40 93 429 40 146 430 225 61 431 127 30 432 131 11 433 132 145 434 224 145 435 224 92 436 41 30 437 131 128 438 199 18 439 135 97 440 136 97 441 136 64 442 133 128 443 199 64 444 133 97 445 136 96 446 44 96 447 44 149 448 228 64 449 133 29 450 137 10 451 138 148 452 227 148 453 227 95 454 55 29 455 137 2 456 140 4 457 141 156 458 235 156 459 235 52 460 139 2 461 140 52 462 139 156 463 235 99 464 61 99 465 61 51 466 59 52 467 139 23 468 143 3 469 144 50 470 57 50 471 57 98 472 63 23 473 143 24 474 146 5 475 147 159 476 238 159 477 238 70 478 145 24 479 146 70 480 145 159 481 238 102 482 69 102 483 69 69 484 67 70 485 145 133 486 209 43 487 150 68 488 65 68 489 65 101 490 71 133 491 209 25 492 152 6 493 153 162 494 241 162 495 241 73 496 151 25 497 152 73 498 151 162 499 241 105 500 77 105 501 77 72 502 75 73 503 151 132 504 207 22 505 156 71 506 73 71 507 73 104 508 79 132 509 207 26 510 158 7 511 159 165 512 244 165 513 244 76 514 157 26 515 158 76 516 157 165 517 244 108 518 85 108 519 85 75 520 83 76 521 157 131 522 205 21 523 162 74 524 81 74 525 81 107 526 87 131 527 205 27 528 164 8 529 165 168 530 247 168 531 247 79 532 163 27 533 164 79 534 163 168 535 247 111 536 93 111 537 93 78 538 91 79 539 163 130 540 203 20 541 168 77 542 89 77 543 89 110 544 96 130 545 203 14 546 108 34 547 113 141 548 220 141 549 220 85 550 109 14 551 108 85 552 109 141 553 220 54 554 21 54 555 21 84 556 18 85 557 109 33 558 120 13 559 110 83 560 19 83 561 19 53 562 20 33 563 120 15 564 117 35 565 122 144 566 223 144 567 223 88 568 118 15 569 117 88 570 118 144 571 223 57 572 35 57 573 35 87 574 22 88 575 118 122 576 187 32 577 119 86 578 23 86 579 23 56 580 24 122 581 187 16 582 123 36 583 128 147 584 226 147 585 226 91 586 124 16 587 123 91 588 124 147 589 226 60 590 39 60 591 39 90 592 36 91 593 124 121 594 185 31 595 125 89 596 37 89 597 37 59 598 38 121 599 185 17 600 129 37 601 134 150 602 229 150 603 229 94 604 130 17 605 129 94 606 130 150 607 229 63 608 43 63 609 43 93 610 40 94 611 130 120 612 183 30 613 131 92 614 41 92 615 41 62 616 42 120 617 183 18 618 135 38 619 100 153 620 232 153 621 232 97 622 136 18 623 135 97 624 136 153 625 232 66 626 3 66 627 3 96 628 44 97 629 136 119 630 181 29 631 137 95 632 55 95 633 55 65 634 2 119 635 181 114 636 171 24 637 146 70 638 145 70 639 145 100 640 142 114 641 171 100 642 142 70 643 145 69 644 67 69 645 67 155 646 234 100 647 142 43 648 150 123 649 189 154 650 233 154 651 233 68 652 65 43 653 150 115 654 173 25 655 152 73 656 151 73 657 151 103 658 148 115 659 173 103 660 148 73 661 151 72 662 75 72 663 75 158 664 237 103 665 148 22 666 156 42 667 149 157 668 236 157 669 236 71 670 73 22 671 156 116 672 175 26 673 158 76 674 157 76 675 157 106 676 154 116 677 175 106 678 154 76 679 157 75 680 83 75 681 83 161 682 240 106 683 154 21 684 162 41 685 155 160 686 239 160 687 239 74 688 81 21 689 162 117 690 177 27 691 164 79 692 163 79 693 163 109 694 160 117 695 177 109 696 160 79 697 163 78 698 91 78 699 91 164 700 243 109 701 160 20 702 168 40 703 161 163 704 242 163 705 242 77 706 89 20 707 168 118 708 179 28 709 103 82 710 15 82 711 15 112 712 166 118 713 179 112 714 166 82 715 15 81 716 11 81 717 11 167 718 246 112 719 166 19 720 102 39 721 167 166 722 245 166 723 245 80 724 97 19 725 102 113 726 169 135 727 213 138 728 217 113 729 169 138 730 217 48 731 17 48 732 17 1 733 98 113 734 169 47 735 16 44 736 111 1 737 98 134 738 211 44 739 111 47 740 16 47 741 16 136 742 215 134 743 211 124 744 191 33 745 120 53 746 20 53 747 20 139 748 218 124 749 191 12 750 126 122 751 187 56 752 24 56 753 24 142 754 221 12 755 126 11 756 132 121 757 185 59 758 38 59 759 38 145 760 224 11 761 132 10 762 138 120 763 183 62 764 42 62 765 42 148 766 227 10 767 138 9 768 105 119 769 181 65 770 2 65 771 2 151 772 230 9 773 105 123 774 189 23 775 143 98 776 63 98 777 63 154 778 233 123 779 189 42 780 149 133 781 209 101 782 71 101 783 71 157 784 236 42 785 149 41 786 155 132 787 207 104 788 79 104 789 79 160 790 239 41 791 155 40 792 161 131 793 205 107 794 87 107 795 87 163 796 242 40 797 161 39 798 167 130 799 203 110 800 96 110 801 96 166 802 245 39 803 167 136 804 215 47 805 16 48 806 17 48 807 17 137 808 216 136 809 215 137 810 216 48 811 17 138 812 217 138 813 217 49 814 106 137 815 216 49 816 106 138 817 217 135 818 213 135 819 213 45 820 107 49 821 106 139 822 218 53 823 20 54 824 21 54 825 21 140 826 219 139 827 218 140 828 219 54 829 21 141 830 220 141 831 220 55 832 112 140 833 219 55 834 112 141 835 220 34 836 113 34 837 113 125 838 193 55 839 112 142 840 221 56 841 24 57 842 35 57 843 35 143 844 222 142 845 221 143 846 222 57 847 35 144 848 223 144 849 223 58 850 121 143 851 222 58 852 121 144 853 223 35 854 122 35 855 122 126 856 195 58 857 121 145 858 224 59 859 38 60 860 39 60 861 39 146 862 225 145 863 224 146 864 225 60 865 39 147 866 226 147 867 226 61 868 127 146 869 225 61 870 127 147 871 226 36 872 128 36 873 128 127 874 197 61 875 127 148 876 227 62 877 42 63 878 43 63 879 43 149 880 228 148 881 227 149 882 228 63 883 43 150 884 229 150 885 229 64 886 133 149 887 228 64 888 133 150 889 229 37 890 134 37 891 134 128 892 199 64 893 133 151 894 230 65 895 2 66 896 3 66 897 3 152 898 231 151 899 230 152 900 231 66 901 3 153 902 232 153 903 232 67 904 99 152 905 231 67 906 99 153 907 232 38 908 100 38 909 100 129 910 201 67 911 99 154 912 233 98 913 63 99 914 61 99 915 61 155 916 234 154 917 233 155 918 234 99 919 61 156 920 235 156 921 235 100 922 142 155 923 234 100 924 142 156 925 235 4 926 141 4 927 141 114 928 171 100 929 142 157 930 236 101 931 71 102 932 69 102 933 69 158 934 237 157 935 236 158 936 237 102 937 69 159 938 238 159 939 238 103 940 148 158 941 237 103 942 148 159 943 238 5 944 147 5 945 147 115 946 173 103 947 148 160 948 239 104 949 79 105 950 77 105 951 77 161 952 240 160 953 239 161 954 240 105 955 77 162 956 241 162 957 241 106 958 154 161 959 240 106 960 154 162 961 241 6 962 153 6 963 153 116 964 175 106 965 154 163 966 242 107 967 87 108 968 85 108 969 85 164 970 243 163 971 242 164 972 243 108 973 85 165 974 244 165 975 244 109 976 160 164 977 243 109 978 160 165 979 244 7 980 159 7 981 159 117 982 177 109 983 160 166 984 245 110 985 96 111 986 93 111 987 93 167 988 246 166 989 245 167 990 246 111 991 93 168 992 247 168 993 247 112 994 166 167 995 246 112 996 166 168 997 247 8 998 165 8 999 165 118 1000 179 112 1001 166</p>
        </triangles>
      </mesh>
    </geometry>
  </library_geometries>
  <library_visual_scenes>
    <visual_scene id="" name="">
      <node name="stone" id="stone" layer="stairs" sid="stone">
        <matrix sid="matrix">1.000000 0.000000 0.000000 0.000000 0.000000 0.000000 1.000000 0.000000 0.000000 -1.000000 0.000000 0.000000 0.000000 0.000000 0.000000 1.000000</matrix>
        <instance_geometry url="#stone-lib">
          <bind_material>
            <technique_common>
              <instance_material symbol="Material #11" target="#Material #11"/>
            </technique_common>
          </bind_material>
        </instance_geometry>
        <extra>
          <technique profile="FCOLLADA">
            <visibility>1.000000</visibility>
          </technique>
        </extra>
      </node>
      <extra>
        <technique profile="MAX3D">
          <frame_rate>30.000000</frame_rate>
        </technique>
        <technique profile="FCOLLADA">
          <start_time>0.000000</start_time>
          <end_time>3.333333</end_time>
        </technique>
      </extra>
    </visual_scene>
  </library_visual_scenes>
  <scene>
    <instance_visual_scene url="#"></instance_visual_scene>
  </scene>
</COLLADA>

