<?xml version="1.0" encoding="utf-8"?>
<COLLADA xmlns="http://www.collada.org/2005/11/COLLADASchema" version="1.4.1">
  <asset>
    <contributor>
      <author></author>
      <authoring_tool>FBX COLLADA exporter</authoring_tool>
      <comments></comments>
    </contributor>
    <created>2012-12-17T04:51:24Z</created>
    <keywords></keywords>
    <modified>2012-12-17T04:51:24Z</modified>
    <revision></revision>
    <subject></subject>
    <title></title>
    <unit meter="1.000000" name="centimeter"></unit>
    <up_axis>Z_UP</up_axis>
  </asset>
  <library_images>
    <image id="Map #0-image" name="Map #0">
      <init_from>file://C:\AMFP_Raw_data\StaticObjects\temple\temple_wall_1.psd</init_from>
    </image>
  </library_images>
  <library_materials>
    <material id="Material #0" name="Material #0">
      <instance_effect url="#Material #0-fx"/>
    </material>
  </library_materials>
  <library_effects>
    <effect id="Material #0-fx" name="Material #0">
      <profile_COMMON>
        <technique sid="standard">
          <phong>
            <emission>
              <color sid="emission">0.000000  0.000000 0.000000 1.000000</color>
            </emission>
            <ambient>
              <color sid="ambient">0.588000  0.588000 0.588000 1.000000</color>
            </ambient>
            <diffuse>
              <texture texture="Map #0-image" texcoord="CHANNEL0">
                <extra>
                  <technique profile="MAYA">
                    <wrapU sid="wrapU0">TRUE</wrapU>
                    <wrapV sid="wrapV0">TRUE</wrapV>
                    <blend_mode>ADD</blend_mode>
                  </technique>
                </extra>
              </texture>
            </diffuse>
            <specular>
              <color sid="specular">0.000000  0.000000 0.000000 1.000000</color>
            </specular>
            <shininess>
              <float sid="shininess">2.000000</float>
            </shininess>
            <reflective>
              <color sid="reflective">0.000000  0.000000 0.000000 1.000000</color>
            </reflective>
            <reflectivity>
              <float sid="reflectivity">1.000000</float>
            </reflectivity>
            <transparent opaque="RGB_ZERO">
              <color sid="transparent">1.000000  1.000000 1.000000 1.000000</color>
            </transparent>
            <transparency>
              <float sid="transparency">0.000000</float>
            </transparency>
          </phong>
        </technique>
      </profile_COMMON>
    </effect>
  </library_effects>
  <library_geometries>
    <geometry id="angled_wall-lib" name="angled_wallMesh">
      <mesh>
        <source id="angled_wall-POSITION">
          <float_array id="angled_wall-POSITION-array" count="132">
-2.678206 0.000000 0.000000
-2.675344 0.000000 0.671888
-2.450580 0.000000 1.272992
-2.288755 0.000000 1.316579
-0.341944 0.000000 6.090519
-0.404199 0.000000 6.109927
-0.523298 0.000000 6.652760
-0.520674 0.000000 6.851957
-0.449023 0.000000 6.884995
-0.429353 0.000000 7.443262
-0.495522 0.000000 7.476115
-0.515155 0.000000 7.971666
0.000000 0.000000 8.000000
8.000000 -10.668046 0.710542
8.000000 -10.678205 0.000000
8.000000 -10.423463 1.293607
8.000000 -10.288754 1.316579
8.000000 -8.363549 6.090519
8.000000 -8.427700 6.131660
8.000000 -8.526212 6.692420
8.000000 -8.500308 6.875563
8.000000 -8.429352 6.908612
8.000000 -8.448985 7.467075
8.000000 -8.515154 7.499928
8.000000 -8.495156 7.991994
8.000000 -8.000000 8.000000
-2.668047 0.000000 0.710542
-2.423464 0.000000 1.293607
-0.427702 0.000000 6.131660
-0.511167 0.000000 6.692525
-0.500309 0.000000 6.875563
-0.429353 0.000000 6.908612
-0.448986 0.000000 7.467075
-0.515155 0.000000 7.499928
-0.495158 0.000000 7.991994
8.000000 -10.675344 0.671888
8.000000 -10.450578 1.272992
8.000000 -8.404198 6.109927
8.000000 -8.523297 6.652760
8.000000 -8.520673 6.851957
8.000000 -8.449022 6.884995
8.000000 -8.429352 7.443262
8.000000 -8.495521 7.476115
8.000000 -8.515154 7.971666
</float_array>
          <technique_common>
            <accessor source="#angled_wall-POSITION-array" count="44" stride="3">
              <param name="X" type="float"/>
              <param name="Y" type="float"/>
              <param name="Z" type="float"/>
            </accessor>
          </technique_common>
        </source>
        <source id="angled_wall-Normal0">
          <float_array id="angled_wall-Normal0-array" count="378">
-0.707104 -0.707104 0.003011
-0.705615 -0.705615 0.064915
-0.705615 -0.705615 0.064915
-0.705615 -0.705615 0.064915
-0.707104 -0.707104 0.003011
-0.707104 -0.707104 0.003011
-0.694232 -0.694232 0.189957
-0.641834 -0.641834 0.419642
-0.641832 -0.641833 0.419645
-0.641832 -0.641833 0.419645
-0.694232 -0.694232 0.189956
-0.694232 -0.694232 0.189957
-0.437510 -0.437511 0.785601
-0.437519 -0.437519 0.785591
-0.165779 -0.165779 0.972129
-0.165779 -0.165779 0.972129
-0.165779 -0.165779 0.972129
-0.437510 -0.437511 0.785601
-0.704157 -0.704151 0.091290
-0.707668 -0.706419 -0.013332
-0.687962 -0.687201 0.233374
-0.687962 -0.687201 0.233374
-0.692723 -0.692723 0.200674
-0.704157 -0.704151 0.091290
-0.465954 -0.465954 0.752179
-0.465951 -0.465951 0.752183
-0.016165 -0.016165 0.999739
-0.016165 -0.016165 0.999739
-0.016165 -0.016165 0.999739
-0.465954 -0.465954 0.752179
-0.680525 -0.679253 0.274776
-0.680945 -0.679186 0.273898
-0.679722 -0.679378 0.276448
-0.679722 -0.679378 0.276448
-0.679424 -0.679424 0.277069
-0.680525 -0.679253 0.274776
-0.518751 -0.518448 -0.679786
-0.496440 -0.496440 -0.712106
-0.285395 -0.285393 -0.914932
-0.285395 -0.285393 -0.914932
-0.396553 -0.395529 -0.828434
-0.518751 -0.518448 -0.679786
-0.670160 -0.670160 -0.319015
-0.704708 -0.704048 -0.087771
-0.706627 -0.706628 0.036815
-0.706627 -0.706628 0.036815
-0.670159 -0.670159 -0.319020
-0.670160 -0.670160 -0.319015
-0.514100 -0.514100 0.686588
-0.514099 -0.514099 0.686589
-0.338231 -0.338231 0.878180
-0.338231 -0.338231 0.878180
-0.338238 -0.338238 0.878175
-0.514100 -0.514100 0.686588
-0.675769 -0.675769 -0.294400
-0.675770 -0.675770 -0.294398
-0.675200 -0.675200 0.297002
-0.675200 -0.675200 0.297002
-0.675198 -0.675198 0.297010
-0.675769 -0.675769 -0.294400
-0.522246 -0.522246 -0.674179
-0.522246 -0.522246 -0.674179
-0.345384 -0.345384 -0.872594
-0.345384 -0.345384 -0.872594
-0.345384 -0.345384 -0.872593
-0.522246 -0.522246 -0.674179
-0.686513 -0.686514 0.239579
-0.686514 -0.686514 0.239576
-0.690552 -0.690552 -0.215115
-0.690552 -0.690552 -0.215115
-0.690552 -0.690552 -0.215117
-0.686513 -0.686514 0.239579
-0.705615 -0.705615 0.064915
-0.705615 -0.705615 0.064915
-0.694232 -0.694232 0.189957
-0.694232 -0.694232 0.189957
-0.694232 -0.694232 0.189956
-0.705615 -0.705615 0.064915
-0.518751 -0.518448 -0.679786
-0.670160 -0.670160 -0.319015
-0.670159 -0.670159 -0.319020
-0.670159 -0.670159 -0.319020
-0.496440 -0.496440 -0.712106
-0.518751 -0.518448 -0.679786
-0.692723 -0.692723 0.200674
-0.687962 -0.687201 0.233374
-0.514099 -0.514099 0.686589
-0.514099 -0.514099 0.686589
-0.514100 -0.514100 0.686588
-0.692723 -0.692723 0.200674
-0.641834 -0.641834 0.419642
-0.437519 -0.437519 0.785591
-0.437510 -0.437511 0.785601
-0.437510 -0.437511 0.785601
-0.641832 -0.641833 0.419645
-0.641834 -0.641834 0.419642
-0.704708 -0.704048 -0.087771
-0.707668 -0.706419 -0.013332
-0.704157 -0.704151 0.091290
-0.704157 -0.704151 0.091290
-0.706627 -0.706628 0.036815
-0.704708 -0.704048 -0.087771
-0.338238 -0.338238 0.878175
-0.338231 -0.338231 0.878180
-0.675198 -0.675198 0.297010
-0.675198 -0.675198 0.297010
-0.675200 -0.675200 0.297002
-0.338238 -0.338238 0.878175
-0.345384 -0.345384 -0.872594
-0.675770 -0.675770 -0.294398
-0.675769 -0.675769 -0.294400
-0.675769 -0.675769 -0.294400
-0.345384 -0.345384 -0.872593
-0.345384 -0.345384 -0.872594
-0.522246 -0.522246 -0.674179
-0.690552 -0.690552 -0.215117
-0.690552 -0.690552 -0.215115
-0.690552 -0.690552 -0.215115
-0.522246 -0.522246 -0.674179
-0.522246 -0.522246 -0.674179
-0.686513 -0.686514 0.239579
-0.465951 -0.465951 0.752183
-0.465954 -0.465954 0.752179
-0.465954 -0.465954 0.752179
-0.686514 -0.686514 0.239576
-0.686513 -0.686514 0.239579
</float_array>
          <technique_common>
            <accessor source="#angled_wall-Normal0-array" count="126" stride="3">
              <param name="X" type="float"/>
              <param name="Y" type="float"/>
              <param name="Z" type="float"/>
            </accessor>
          </technique_common>
        </source>
        <source id="angled_wall-UV0">
          <float_array id="angled_wall-UV0-array" count="96">
1.000000 0.945348
-0.587130 0.945348
-0.587130 0.000000
-0.587130 0.074919
-0.587130 0.146987
-0.587130 0.165794
-0.732548 0.165686
-0.587130 0.706701
-0.587130 0.706701
-0.587130 0.711831
-0.587130 0.775617
-0.587130 0.798038
-0.587130 0.808421
-0.587130 0.873489
-0.587130 0.883345
-0.587130 0.940951
-0.553143 0.992511
1.000000 0.079388
1.000000 0.000000
1.000000 0.151247
1.148313 0.166192
1.000000 0.706701
1.000000 0.165794
1.000000 0.716407
1.000000 0.706701
1.000000 0.780223
1.000000 0.802898
1.000000 0.813258
1.000000 0.878375
1.000000 0.888231
0.970400 0.992510
-0.587130 0.079388
-0.587130 0.151247
-0.587130 0.716407
-0.587130 0.780223
-0.587130 0.802898
-0.587130 0.813258
-0.587130 0.878375
-0.587130 0.888231
1.000000 0.074919
1.000000 0.146987
1.000000 0.711831
1.000000 0.775617
1.000000 0.798038
1.000000 0.808421
1.000000 0.873489
1.000000 0.883345
1.000000 0.940951
</float_array>
          <technique_common>
            <accessor source="#angled_wall-UV0-array" count="48" stride="2">
              <param name="S" type="float"/>
              <param name="T" type="float"/>
            </accessor>
          </technique_common>
        </source>
        <vertices id="angled_wall-VERTEX">
          <input semantic="POSITION" source="#angled_wall-POSITION"/>
        </vertices>
        <polylist count="42" material="Material #0">
          <input semantic="VERTEX" offset="0" source="#angled_wall-VERTEX"/>
          <input semantic="NORMAL" offset="1" source="#angled_wall-Normal0"/>
          <input semantic="TEXCOORD" offset="2" set="0" source="#angled_wall-UV0"/>
          <vcount>3 3 3 3 3 3 3 3 3 3 3 3 3 3 3 3 3 3 3 3 3 3 3 3 3 3 3 3 3 3 3 3 3 3 3 3 3 3 3 3 3 3 </vcount>
          <p> 14 0 18 35 1 39 1 2 3 1 3 3 0 4 2 14 5 18 13 6 17 36 7 40 2 8 4 2 9 4 26 10 31 13 11 17 27 12 32 15 13 19 16 14 22 16 15 22 3 16 5 27 17 32 29 18 34 19 19 25 39 20 43 39 21 43 7 22 11 29 23 34 34 24 1 24 25 0 25 26 30 25 27 30 12 28 16 34 29 1 16 30 20 17 31 21 4 32 8 4 33 8 3 34 6 16 35 20 37 36 41 5 37 9 4 38 7 4 39 7 17 40 24 37 41 41 18 42 23 38 43 42 6 44 10 6 45 10 28 46 33 18 47 23 30 48 35 20 49 26 40 50 44 40 51 44 8 52 12 30 53 35 41 54 45 9 55 13 31 56 36 31 57 36 21 58 27 41 59 45 42 60 46 10 61 14 32 62 37 32 63 37 22 64 28 42 65 46 43 66 47 11 67 15 33 68 38 33 69 38 23 70 29 43 71 47 1 72 3 35 73 39 13 74 17 13 75 17 26 76 31 1 77 3 37 78 41 18 79 23 28 80 33 28 81 33 5 82 9 37 83 41 7 84 11 39 85 43 20 86 26 20 87 26 30 88 35 7 89 11 36 90 40 15 91 19 27 92 32 27 93 32 2 94 4 36 95 40 38 96 42 19 97 25 29 98 34 29 99 34 6 100 10 38 101 42 8 102 12 40 103 44 21 104 27 21 105 27 31 106 36 8 107 12 32 108 37 9 109 13 41 110 45 41 111 45 22 112 28 32 113 37 42 114 46 23 115 29 33 116 38 33 117 38 10 118 14 42 119 46 43 120 47 24 121 0 34 122 1 34 123 1 11 124 15 43 125 47</p>
        </polylist>
      </mesh>
    </geometry>
  </library_geometries>
  <library_visual_scenes>
    <visual_scene id="" name="">
      <node name="angled_wall" id="angled_wall" sid="angled_wall">
        <matrix sid="matrix">1.000000 0.000000 0.000000 0.000000 0.000000 1.000000 0.000000 0.000000 0.000000 0.000000 1.000000 0.000000 0.000000 0.000000 0.000000 1.000000</matrix>
        <instance_geometry url="#angled_wall-lib">
          <bind_material>
            <technique_common>
              <instance_material symbol="Material #0" target="#Material #0"/>
            </technique_common>
          </bind_material>
        </instance_geometry>
        <extra>
          <technique profile="FCOLLADA">
            <visibility>1.000000</visibility>
          </technique>
        </extra>
      </node>
      <extra>
        <technique profile="MAX3D">
          <frame_rate>30.000000</frame_rate>
        </technique>
        <technique profile="FCOLLADA">
          <start_time>0.000000</start_time>
          <end_time>23.340000</end_time>
        </technique>
      </extra>
    </visual_scene>
  </library_visual_scenes>
  <scene>
    <instance_visual_scene url="#"></instance_visual_scene>
  </scene>
</COLLADA>

