﻿<?xml version="1.0" encoding="utf-8"?>
<COLLADA xmlns="http://www.collada.org/2005/11/COLLADASchema" version="1.4.1">
  <asset>
    <contributor>
      <author>marc</author>
      <authoring_tool>Maya7.0 | ColladaMaya v3.05B</authoring_tool>
      <comments>ColladaMaya export options: bakeTransforms=0;exportPolygonMeshes=1;bakeLighting=0;isSampling=0;
curveConstrainSampling=0;removeStaticCurves=1;exportCameraAsLookat=0;
exportLights=1;exportCameras=1;exportJointsAndSkin=1;
exportAnimations=1;exportTriangles=1;exportInvisibleNodes=0;
exportNormals=1;exportTexCoords=1;
exportVertexColors=1;exportVertexColorsAnimation=0;exportTangents=0;
exportTexTangents=0;exportConstraints=1;exportPhysics=1;exportXRefs=1;
dereferenceXRefs=0;cameraXFov=0;cameraYFov=1</comments>
      <source_data>file:///E:/lux/work_static_objects/18/platform_bridge_broken.mb</source_data>
    </contributor>
    <created>2010-01-29T18:08:45Z</created>
    <modified>2010-01-29T18:08:45Z</modified>
    <up_axis>Y_UP</up_axis>
    <hpl2scaling />
  </asset>
  <library_physics_scenes>
    <physics_scene id="MayaNativePhysicsScene">
      <technique_common>
        <gravity>0 -980 0</gravity>
        <time_step>0.083</time_step>
      </technique_common>
    </physics_scene>
  </library_physics_scenes>
  <library_images>
    <image id="file1" name="file1">
      <init_from>file:///E:/lux/redist/static_objects/cisternbase/cisternbase.dds</init_from>
      <extra>
        <technique profile="MAYA">
          <dgnode_type>kFile</dgnode_type>
          <image_sequence>0</image_sequence>
        </technique>
      </extra>
    </image>
  </library_images>
  <library_materials>
    <material id="lambert2" name="lambert2">
      <instance_effect url="#lambert2-fx" />
    </material>
  </library_materials>
  <library_effects>
    <effect id="lambert2-fx">
      <profile_COMMON>
        <newparam sid="file1-surface">
          <surface type="2D">
            <init_from>file1</init_from>
            <format>A8R8G8B8</format>
          </surface>
        </newparam>
        <newparam sid="file1-sampler">
          <sampler2D>
            <source>file1-surface</source>
            <wrap_s>WRAP</wrap_s>
            <wrap_t>WRAP</wrap_t>
            <minfilter>NONE</minfilter>
            <magfilter>NONE</magfilter>
            <mipfilter>NONE</mipfilter>
          </sampler2D>
        </newparam>
        <technique sid="common">
          <lambert>
            <emission>
              <color>0 0 0 1</color>
            </emission>
            <ambient>
              <color>0 0 0 1</color>
            </ambient>
            <diffuse>
              <texture texture="file1-sampler" texcoord="TEX0">
                <extra>
                  <technique profile="MAYA">
                    <wrapU>1</wrapU>
                    <wrapV>1</wrapV>
                    <mirrorU>0</mirrorU>
                    <mirrorV>0</mirrorV>
                    <coverageU>1</coverageU>
                    <coverageV>1</coverageV>
                    <translateFrameU>0</translateFrameU>
                    <translateFrameV>0</translateFrameV>
                    <rotateFrame>0</rotateFrame>
                    <stagger>0</stagger>
                    <fast>0</fast>
                    <repeatU>1</repeatU>
                    <repeatV>1</repeatV>
                    <offsetU>0</offsetU>
                    <offsetV>0</offsetV>
                    <rotateUV>0</rotateUV>
                    <noiseU>0</noiseU>
                    <noiseV>0</noiseV>
                    <blend_mode>NONE</blend_mode>
                  </technique>
                </extra>
              </texture>
            </diffuse>
            <transparent opaque="RGB_ZERO">
              <color>0 0 0 1</color>
            </transparent>
            <transparency>
              <float>1</float>
            </transparency>
          </lambert>
          <extra>
            <technique profile="FCOLLADA" />
          </extra>
        </technique>
      </profile_COMMON>
    </effect>
  </library_effects>
  <library_geometries>
    <geometry id="polySurfaceShape5" name="polySurfaceShape5">
      <mesh>
        <source id="polySurfaceShape5-positions" name="position">
          <float_array id="polySurfaceShape5-positions-array" count="261">-4.75 2.5 -4.15084 -3.25 2.5 -4.15084 -4.75 0.5 -4.15084 -3.25 0.5 -4.15084 -4.75 0.5 -3.65084 -3.25 0.5 -3.65084 -3.36988 2.5 -4.15084 -4.63012 2.5 -4.15084 -3.25 2.58098 -4.15084 -3.36988 2.58098 -4.15084 -4.63012 2.58098 -4.15084 -4.75 2.58098 -4.15084 -4.75 1.0461 -3.40084 -3.25 1.0461 -3.40084 -3.25 2.23253 -4.15084 -3.25 2.23253 -4.04082 -4.75 2.23253 -4.15084 -4.75 2.23253 -4.04082 -4.75 2.5 -4.04082 -4.75 2.579 -4.04082 -4.63012 2.579 -4.04082 -3.36988 2.579 -4.04082 -3.25 2.579 -4.04082 -3.25 2.5 -4.04082 -4.87169 2.23253 -4.04082 -4.87169 2.5 -4.04082 -4.87169 2.579 -4.04082 -3.12831 2.5 -4.04082 -3.12831 2.579 -4.04082 -3.12831 2.23253 -4.04082 -3.50317 1.0461 -3.40084 -3.50317 0.5 -3.65084 -4.49267 1.0461 -3.40084 -4.49267 0.5 -3.65084 -4.49267 1.17912 -3.60798 -3.50317 1.17912 -3.60798 -4.49267 0.5 -3.87694 -3.50317 0.5 -3.87694 -4.75 1.18036 -3.28487 -4.49267 1.18036 -3.28487 -4.49267 1.32894 -3.47429 -3.50317 1.32894 -3.47429 -3.50317 1.18036 -3.28487 -3.25 1.18036 -3.28487 -4.75 2.06409 -3.72476 -4.75 2.32242 -3.63422 -4.87169 2.30894 -3.64373 -4.87169 2.59389 -3.51881 -4.87169 2.6605 -3.59483 -4.79388 2.67005 -3.54257 -4.63012 2.65639 -3.52607 -4.63012 2.59856 -3.5595 -3.36988 2.625 -3.40084 -3.36988 2.68133 -3.39665 -3.18916 2.70526 -3.34993 -3.12831 2.70526 -3.34993 -3.12831 2.625 -3.34583 -3.12831 2.34335 -3.35089 -3.25 2.36626 -3.46946 -3.25 1.92876 -3.47083 -4.56139 2.11437 -3.73508 -3.43652 2.12759 -3.39345 -3.25 1.55783 -3.49215 -4.75 1.68754 -3.36439 -4.52703 1.64635 -3.60468 -3.46985 1.65296 -3.56502 -4 2.61178 -3.34828 -3.99896 2.12098 -3.69541 -3.99844 1.64965 -3.45671 -3.99792 1.32894 -3.47429 -3.99792 1.17912 -3.60798 -4.31506 2.60517 -3.57319 -4.28018 2.11767 -3.5343 -4.26273 1.648 -3.46662 -4.24529 1.27786 -3.56922 -3.75054 1.27786 -3.56922 -3.73414 1.65131 -3.57493 -3.71774 2.12428 -3.41328 -3.68494 2.61839 -3.47869 -4.49267 0 -3.87694 -3.50317 0 -3.87694 -4.75 0 -4.15084 -3.25 0 -4.15084 -3.50317 0 -3.65084 -3.25 0 -3.65084 -4.49267 0 -3.65084 -4.75 0 -3.65084</float_array>
          <technique_common>
            <accessor source="#polySurfaceShape5-positions-array" count="87" stride="3">
              <param name="X" type="float" />
              <param name="Y" type="float" />
              <param name="Z" type="float" />
            </accessor>
          </technique_common>
        </source>
        <source id="polySurfaceShape5-normals" name="normal">
          <float_array id="polySurfaceShape5-normals-array" count="639">0.000000 0 -1 0 0 -1 0.000000 0 -1 -0.707106 0.706993 0.012711 0.000001 0.999838 0.017977 0.000001 0.999838 0.017977 -0.707106 0.706993 0.012711 1 -0.000000 0 1 -0.000000 0 1 -0.000000 0 -0.027831 0.986012 -0.164335 -0.015683 0.993374 -0.113851 -0.012958 0.985319 -0.170229 0 0.999838 0.017978 0.707109 0.706991 0.012712 0.707109 0.706991 0.012712 0 0.999838 0.017978 1 0.000000 0 1 0.000000 0 1 0.000000 0 1 0.000000 0 0.000000 0 -1 0.000000 0 -1 0.000000 0 -1 0.000000 0 -1 -1 0.000001 0 1 -0.000005 0 0.000000 0 -1 0.000000 0 -1 -1 0.000001 0 -1 0.000001 0 -1 0.000002 0 -1 0.000002 0 1 -0.000000 0 1 0 0 1 0 0 -1 0.000000 0 -1 0 0 -1 0 0 -1 0.000000 0 -1 0.000001 0 -1 0.000001 0 -1 0.000001 0 1 -0.000000 0 1 0 0 -0.000000 -0.540353 0.841438 0 -0.213013 0.977049 0 -0.213013 0.977049 -0.000000 -0.540353 0.841438 1 0.000000 0 1 0.000000 0 1 0.000000 0 1 0.000000 0 -1 0.000000 0 -1 0 0 -1 0.000000 0 -1 0.000000 0 -1 0.000000 0 -1 0.000000 0 -1 -0.000000 0 -0.690551 -0.708279 0.14656 -0.690551 -0.708279 0.14656 -1 -0.000000 0 -0.707108 0.695587 -0.127113 -0.707108 0.695587 -0.127113 1 0.000000 0 1 0.000000 0 0.726928 0.677685 -0.11099 0.726928 0.677685 -0.11099 -1 -0.000000 0 -1 -0.000000 0 -0.725442 0.678683 -0.114552 -0.725442 0.678683 -0.114552 0.000000 0.98371 -0.179764 0.000000 0.98371 -0.179764 0.707107 0.695588 -0.127113 0.707107 0.695588 -0.127113 1 0.000000 0 1 0.000000 0 0.6395 -0.754735 0.146338 0.6395 -0.754735 0.146338 0.000000 0.000001 -1 0.000000 -0.000001 -1 0.000000 -0.000001 -1 0.000000 0.000001 -1 0.046277 -0.978206 0.202415 0.046277 -0.978206 0.202415 0.000000 0.000003 -1 0.000000 0.000003 -1 0.056848 0.985256 -0.161363 0.056848 0.985256 -0.161363 -0.000000 -0.000000 -1 -0.000000 0 -1 -0.000000 0 -1 -0.000000 -0.000000 -1 -0.182079 -0.965306 0.187166 -0.182079 -0.965306 0.187166 -0.000000 -0.000001 -1 -0.000000 -0.000001 -1 -0.052532 0.984691 -0.166202 -0.052532 0.984691 -0.166202 -0.000001 0.98371 -0.179765 -0.000001 0.98371 -0.179765 0 -0.501282 0.865284 -0.000000 -0.249397 0.968401 -0.03682 -0.445113 0.894717 -0.000000 -0.540353 0.841439 0 -0.213013 0.977049 0 -0.213013 0.977049 -0.000000 -0.540353 0.841439 1 -0.000000 0 1 0.000000 0 1 0.000000 0 1 -0.000000 0 -1 0 0 -1 0.000000 0 -1 0.000000 0 -1 0 0 0 0 -1 0 0 -1 0 0 -1 0 0 -1 0 0 -1 0 0 -1 0 0 -1 0 -1 0 0 -1 0 0 -1 0 0 -1 0 0 -1 0 0 -1 0 0 -1 0 0 -1 0 0 -1 0 0 -1 0 0 -1 0 0 -1 0 -0.000000 -0.653649 0.756798 -0.000000 -0.653649 0.756798 1 -0.000001 0 1 -0.000001 0 0.037325 -0.594474 0.803248 0.000000 -0.665816 0.746116 -1 0.000000 0 -1 0.000000 0 -0.000000 -0.65365 0.756797 -0.000000 -0.65365 0.756797 -0.117204 -0.245678 0.96224 -0.425503 -0.224056 0.876782 -0.425503 -0.224056 0.876782 -0.13593 -0.122575 0.983106 -0.107913 0.006208 0.994141 -0.107913 0.006208 0.994141 -0.000004 0.050975 0.9987 0.084415 -0.30886 0.947354 0.105435 -0.325502 0.939645 -0.027977 -0.27731 0.960373 0.084415 -0.30886 0.947354 -0.227318 0.230998 0.946027 -0.227318 0.230998 0.946027 -0.471669 0.66318 0.581137 -0.096835 -0.046579 0.99421 -0.18737 -0.107022 0.976442 -0.201523 -0.08739 0.975578 -0.165661 -0.282098 0.944975 0.000000 0.786814 0.61719 0.334517 0.36407 0.869225 0.299021 0.510172 0.806419 -0.197306 0.437811 0.87715 -0.000000 0.786814 0.61719 -0.181258 0.641462 0.745434 0.134626 -0.124073 0.983098 0.012173 -0.124584 0.992134 0.331818 0.077263 0.940174 -0.062034 0.035612 0.997438 0.582005 0.313248 0.750431 0.167625 0.286071 0.943433 0.044072 0.050085 0.997772 -0.043951 -0.032226 0.998514 -0.154164 -0.029056 0.987618 -0.239081 0.181532 0.953879 1 -0.000000 0 0.105532 -0.103339 0.989032 0.089022 0.065325 0.993885 -0.178042 -0.003688 0.984016 -0.196059 -0.234745 0.95208 -0.141009 0.083072 0.986517 -0.131495 -0.069938 0.988847 -0.037324 -0.594474 0.803248 -0.000000 -0.249397 0.968401 0.03682 -0.445113 0.894717 0.073328 -0.518234 0.852089 -0.073328 -0.518235 0.852089 0.000287 0.993496 -0.113868 -0.020978 0.99978 0.000002 0.010919 0.985343 -0.170233 0.019921 0.986198 -0.164366 -0.000000 0 1 -0.000000 0 1 0 0 -1 0 0 -1 -1 0 0 -1 0 0 1 0 0 1 0 0 0.000000 0 1 0.000000 0 1 1 0 0 1 0 0 0.000000 0 1 0.000000 0 1 -1 0 0 -1 0 0</float_array>
          <technique_common>
            <accessor source="#polySurfaceShape5-normals-array" count="213" stride="3">
              <param name="X" type="float" />
              <param name="Y" type="float" />
              <param name="Z" type="float" />
            </accessor>
          </technique_common>
        </source>
        <source id="polySurfaceShape5-map1" name="map1">
          <float_array id="polySurfaceShape5-map1-array" count="366">0.502262 0.631657 0.510091 0.61419 0.510091 0.631657 0.419962 0.631657 0.412133 0.61419 0.412133 0.501047 0.510091 0.501047 0.510091 0.636946 0.502262 0.636946 0.412133 0.631657 0.419962 0.636946 0.412133 0.636946 0.401724 0.052302 0.401665 0.044601 0.409133 0.0446 0.409151 0.05239 0.375821 0.05234 0.375778 0.044654 0.375398 0.036339 0.401832 0.036341 0.123771 0.721806 0.123698 0.756193 0.078873 0.732362 0.12205 0.785349 0.129268 0.825563 0.138372 0.815001 0.070361 0.868543 0.070227 0.73237 0.109661 0.868505 0.409457 0.031189 0.409215 0.031095 0.409407 0.036686 0.402011 0.036415 0.41424 0.448278 0.440081 0.449401 0.465922 0.430955 0.491762 0.44165 0.517603 0.435265 0.517603 0.49678 0.41424 0.49678 0.021802 0.045195 0.021741 0.053047 0.014169 0.053137 0.014187 0.045195 0.007287 0.995188 0.057571 0.053086 0.021631 0.036773 0.001579 0.995649 0.001847 0.989862 0.409083 0.056268 0.131248 0.876343 0.409151 0.05239 0.376644 0.05618 0.120237 0.996642 0.131101 0.971576 0.140357 0.972447 0.014238 0.057091 0.05364 0.057002 0.067892 0.098328 0.006442 0.03152 0.014104 0.031424 0.014034 0.036849 0.006493 0.037125 0.060583 0.732366 0.006271 0.013006 0.069365 0.86853 0.010373 0.825666 0.030066 0.868569 0.00746 0.775253 0.035754 0.745629 0.001249 0.815121 0.028618 0.725331 0.047729 0.081916 0.008895 0.081681 0.009047 0.063518 0.047998 0.063161 0.060517 0.063325 0.060906 0.081525 0.110986 0.888235 0.131248 0.906554 0.113653 0.914168 0.131248 0.936243 0.11632 0.952156 0.092499 0.914036 0.091186 0.87955 0.121801 0.99165 0.093811 0.951892 0.071387 0.888235 0.071345 0.913904 0.096437 0.991438 0.071304 0.951627 0.05476 0.12664 0.061454 0.140704 0.050192 0.913771 0.07122 0.990909 0.048796 0.951362 0.031788 0.888235 0.029038 0.913639 0.046004 0.99038 0.026288 0.951098 0.055182 0.154769 0.011193 0.916936 0.020788 0.989851 0.011193 0.947074 0.009114 0.154769 0.011193 0.876343 0.011193 0.96775 0.009114 0.098511 0.001453 0.966671 0.020788 0.994479 0.057616 0.042157 0.052801 0.036772 0.02175 0.031393 0.021652 0.013177 0.045099 0.01344 0.057277 0.031289 0.133519 0.99879 0.375283 0.030962 0.401716 0.031064 0.061454 0.112575 0.13834 0.999478 0.375507 0.013456 0.401811 0.013199 0.409625 0.013031 0.013866 0.013056 0.139248 0.993119 0.060251 0.190076 0.06923 0.732357 0.060426 0.171302 0.021705 0.005918 0.045048 0.00585 0.009022 0.189644 0.047974 0.189956 0.031789 0.876343 0.047729 0.171347 0.409448 0.013081 0.008895 0.171627 0.375557 0.006012 0.40176 0.006079 0.069576 0.154553 0.110986 0.876343 0.055182 0.098511 0.067682 0.12664 0.051588 0.87955 0.401943 0.031095 0.402177 0.013081 0.409283 0.036415 0.319963 0.220512 0.229941 0.220512 0.206909 0.195594 0.343374 0.195594 0.319963 0.241082 0.343374 0.241082 0.229941 0.241082 0.206909 0.241082 0.960097 0.526087 0.877889 0.526087 0.877889 0.5 0.960097 0.5 0.98661 0.525741 0.959951 0.525741 0.959951 0.5 0.98661 0.5 0.877954 0.526066 0.851295 0.526066 0.851295 0.5 0.877954 0.5 0.381828 0.157648 0.381828 0.145079 0.409622 0.145079 0.409622 0.157648 0.381828 0.17172 0.510018 0.555121 0.412035 0.555121 0.409622 0.17172 0.381828 0.17172 0.381828 0.157648 0.409622 0.157648 0.409622 0.17172 0.412035 0.590107 0.381828 0.145079 0.409622 0.145079 0.510018 0.590107</float_array>
          <technique_common>
            <accessor source="#polySurfaceShape5-map1-array" count="183" stride="2">
              <param name="S" type="float" />
              <param name="T" type="float" />
            </accessor>
          </technique_common>
        </source>
        <vertices id="polySurfaceShape5-vertices">
          <input semantic="POSITION" source="#polySurfaceShape5-positions" />
        </vertices>
        <triangles material="lambert2SG" count="170">
          <input semantic="VERTEX" source="#polySurfaceShape5-vertices" offset="0" />
          <input semantic="NORMAL" source="#polySurfaceShape5-normals" offset="1" />
          <input semantic="TEXCOORD" source="#polySurfaceShape5-map1" offset="2" set="0" />
          <p>7 0 0 16 1 1 0 2 2 21 3 12 22 4 13 9 6 15 22 4 13 8 5 14 9 6 15 58 7 20 59 8 21 15 9 22 51 10 33 71 11 34 7 12 39 19 13 40 20 14 41 11 16 43 20 14 41 10 15 42 11 16 43 23 17 144 1 18 29 22 20 32 1 18 29 8 19 31 22 20 32 1 21 9 6 22 3 8 24 11 6 22 3 9 23 10 8 24 11 6 25 49 21 3 12 9 6 51 20 14 41 7 26 56 10 15 42 7 0 0 0 2 2 10 28 8 0 2 2 11 27 7 10 28 8 0 29 59 18 30 60 11 32 62 18 30 60 19 31 61 11 32 62 14 35 27 15 9 22 3 34 26 15 9 22 13 33 24 3 34 26 0 29 59 17 36 124 18 30 60 2 37 65 4 38 67 12 39 66 16 40 64 17 41 124 0 42 59 13 33 24 15 9 22 62 43 23 15 9 22 59 8 21 62 43 23 3 34 26 13 33 24 5 44 28 30 45 72 31 46 73 13 48 75 31 46 73 5 47 74 13 48 75 1 49 29 15 50 145 14 51 123 23 17 144 15 52 145 1 18 29 16 54 127 2 37 65 17 53 63 2 37 65 12 39 66 17 53 63 63 55 68 12 39 66 38 56 70 45 57 71 17 53 63 44 58 69 47 62 115 25 59 112 46 61 114 25 59 112 24 60 113 46 61 114 47 62 115 48 64 111 25 59 112 26 63 46 25 59 112 48 64 111 7 66 56 20 67 41 51 65 57 51 65 57 20 67 41 50 68 45 6 69 49 52 70 52 21 72 12 52 70 52 53 71 16 21 72 12 22 73 13 54 74 17 28 76 19 54 74 17 55 75 18 28 76 19 27 78 118 28 76 19 56 77 117 56 77 117 28 76 19 55 75 18 56 77 117 57 79 121 27 78 118 57 79 121 29 80 122 27 78 118 18 81 60 17 82 124 25 84 112 17 82 124 24 83 113 25 84 112 45 86 130 46 61 114 17 85 129 17 85 129 46 61 114 24 60 113 19 87 61 18 81 60 26 88 46 18 81 60 25 84 112 26 88 46 50 68 45 20 67 41 49 90 110 19 89 40 49 90 110 20 67 41 23 91 30 22 92 146 27 94 118 22 92 146 28 93 19 27 94 118 57 79 121 58 95 137 29 80 122 58 95 137 15 96 138 29 80 122 15 97 135 23 91 30 29 98 122 23 91 30 27 94 118 29 98 122 54 100 17 22 99 13 53 71 16 22 99 13 21 72 12 53 71 16 49 102 110 19 101 40 48 64 111 19 101 40 26 63 46 48 64 111 70 103 91 37 104 107 35 105 141 12 106 132 4 107 131 32 109 134 4 107 131 33 108 136 32 109 134 36 112 104 34 113 100 33 111 136 32 110 134 33 111 136 34 113 100 37 117 107 31 114 73 35 116 141 31 114 73 30 115 72 35 116 141 3 121 5 2 122 6 14 120 4 7 118 0 6 119 3 16 123 1 6 119 3 14 120 4 16 123 1 14 120 4 2 122 6 16 123 1 14 124 4 6 22 3 1 21 9 81 127 149 82 128 150 79 126 148 80 125 147 79 126 148 82 128 150 82 131 150 84 132 152 80 130 147 83 129 151 80 130 147 84 132 152 81 136 149 79 133 148 86 135 154 79 133 148 85 134 153 86 135 154 38 137 126 12 106 132 39 138 128 12 106 132 32 109 134 39 138 128 34 113 100 40 139 139 32 110 134 40 139 139 39 140 128 32 110 134 75 141 119 69 142 142 70 103 91 35 116 141 30 115 72 41 144 58 30 115 72 42 143 77 41 144 58 43 145 76 42 146 77 13 48 75 42 146 77 30 45 72 13 48 75 53 149 53 52 150 85 57 148 55 58 147 54 57 148 55 52 150 85 54 152 116 53 149 53 56 151 125 57 148 55 56 151 125 53 149 53 55 153 120 54 152 116 56 151 125 50 157 109 46 154 108 51 156 102 46 154 108 45 155 106 51 156 102 50 157 109 49 159 44 46 154 108 47 158 48 46 154 108 49 159 44 47 158 48 49 159 44 48 160 47 66 164 94 67 161 90 78 163 89 67 161 90 77 162 86 78 163 89 39 165 133 40 166 96 38 167 105 41 168 78 42 169 140 43 170 50 52 150 85 61 172 82 58 147 54 59 171 81 58 147 54 61 172 82 51 156 102 45 155 106 60 174 99 45 155 106 44 173 103 60 174 99 63 175 101 38 167 105 40 166 96 63 175 101 64 176 97 44 173 103 64 176 97 60 174 99 44 173 103 77 162 86 67 161 90 76 178 83 68 177 88 76 178 83 67 161 90 61 172 82 65 179 80 59 171 81 59 171 81 65 179 80 62 180 79 62 180 79 41 168 78 43 170 50 13 33 24 62 43 23 43 181 25 17 53 63 12 39 66 44 58 69 12 39 66 63 55 68 44 58 69 40 166 96 64 176 97 63 175 101 75 183 84 76 178 83 69 182 87 69 182 87 76 178 83 68 177 88 62 180 79 65 179 80 41 168 78 66 164 94 71 185 98 67 161 90 72 184 95 67 161 90 71 185 98 68 177 88 67 161 90 73 186 93 73 186 93 67 161 90 72 184 95 73 186 93 74 187 143 68 177 88 74 187 143 69 182 87 68 177 88 70 103 91 69 142 142 74 188 92 70 103 91 36 189 104 37 104 107 34 190 100 36 189 104 70 103 91 51 156 102 60 174 99 71 185 98 60 174 99 72 184 95 71 185 98 72 184 95 60 174 99 73 186 93 64 176 97 73 186 93 60 174 99 73 186 93 64 176 97 74 187 143 40 166 96 74 187 143 64 176 97 70 103 91 74 188 92 34 190 100 74 188 92 40 191 139 34 190 100 70 103 91 35 105 141 75 141 119 41 192 58 75 141 119 35 105 141 76 178 83 75 183 84 65 179 80 75 183 84 41 168 78 65 179 80 61 172 82 77 162 86 65 179 80 77 162 86 76 178 83 65 179 80 78 163 89 77 162 86 52 150 85 77 162 86 61 172 82 52 150 85 78 193 36 71 11 34 66 194 35 6 195 38 78 193 36 52 196 37 7 12 39 71 11 34 6 195 38 71 11 34 78 193 36 6 195 38 37 104 155 36 189 156 80 198 158 36 189 156 79 197 157 80 198 158 2 122 182 3 121 179 81 200 172 3 121 179 82 199 173 81 200 172 31 114 167 37 117 168 83 202 170 37 117 168 80 201 169 83 202 170 3 34 159 5 44 160 82 204 162 5 44 160 84 203 161 82 204 162 5 47 171 31 46 167 84 206 174 31 46 167 83 205 170 84 206 174 36 112 175 33 111 176 79 208 178 33 111 176 85 207 177 79 208 178 33 108 176 4 107 180 85 210 177 4 107 180 86 209 181 85 210 177 4 38 163 2 37 164 86 212 166 2 37 164 81 211 165 86 212 166</p>
        </triangles>
      </mesh>
      <extra>
        <technique profile="MAYA">
          <double_sided>1</double_sided>
        </technique>
      </extra>
    </geometry>
    <geometry id="_collider_box_Shape1" name="_collider_box_Shape1">
      <mesh>
        <source id="_collider_box_Shape1-positions" name="position">
          <float_array id="_collider_box_Shape1-positions-array" count="24">-0.871688 -1.18551 0.5 0.871688 -1.18551 0.5 -0.871688 1.42627 0.5 0.871688 1.42627 0.5 -0.871688 1.42627 -0.5 0.871688 1.42627 -0.5 -0.871688 -1.18551 -0.5 0.871688 -1.18551 -0.5</float_array>
          <technique_common>
            <accessor source="#_collider_box_Shape1-positions-array" count="8" stride="3">
              <param name="X" type="float" />
              <param name="Y" type="float" />
              <param name="Z" type="float" />
            </accessor>
          </technique_common>
        </source>
        <source id="_collider_box_Shape1-normals" name="normal">
          <float_array id="_collider_box_Shape1-normals-array" count="72">0 0 1 0 0 1 0 0 1 0 0 1 0 1 0 0 1 0 0 1 0 0 1 0 0 0 -1 0 0 -1 0 0 -1 0 0 -1 0 -1 0 0 -1 0 0 -1 0 0 -1 0 1 0 0 1 0 0 1 0 0 1 0 0 -1 0 0 -1 0 0 -1 0 0 -1 0 0</float_array>
          <technique_common>
            <accessor source="#_collider_box_Shape1-normals-array" count="24" stride="3">
              <param name="X" type="float" />
              <param name="Y" type="float" />
              <param name="Z" type="float" />
            </accessor>
          </technique_common>
        </source>
        <source id="_collider_box_Shape1-map1" name="map1">
          <float_array id="_collider_box_Shape1-map1-array" count="28">0 0 1 0 0 1 1 1 0 2 1 2 0 3 1 3 0 4 1 4 2 0 2 1 -1 0 -1 1</float_array>
          <technique_common>
            <accessor source="#_collider_box_Shape1-map1-array" count="14" stride="2">
              <param name="S" type="float" />
              <param name="T" type="float" />
            </accessor>
          </technique_common>
        </source>
        <vertices id="_collider_box_Shape1-vertices">
          <input semantic="POSITION" source="#_collider_box_Shape1-positions" />
        </vertices>
        <triangles material="lambert2SG" count="12">
          <input semantic="VERTEX" source="#_collider_box_Shape1-vertices" offset="0" />
          <input semantic="NORMAL" source="#_collider_box_Shape1-normals" offset="1" />
          <input semantic="TEXCOORD" source="#_collider_box_Shape1-map1" offset="2" set="0" />
          <p>0 0 0 1 1 1 2 3 2 1 1 1 3 2 3 2 3 2 2 4 2 3 5 3 4 7 4 3 5 3 5 6 5 4 7 4 4 8 4 5 9 5 6 11 6 5 9 5 7 10 7 6 11 6 6 12 6 7 13 7 0 15 8 7 13 7 1 14 9 0 15 8 1 16 1 7 17 10 3 19 3 7 17 10 5 18 11 3 19 3 6 20 12 0 21 0 4 23 13 0 21 0 2 22 2 4 23 13</p>
        </triangles>
      </mesh>
      <extra>
        <technique profile="MAYA">
          <double_sided>1</double_sided>
        </technique>
      </extra>
    </geometry>
  </library_geometries>
  <library_visual_scenes>
    <visual_scene id="VisualSceneNode" name="platform_bridge_broken">
      <node id="pCube11" name="pCube11" type="NODE">
        <translate sid="translate">4 0 4.15084</translate>
        <rotate sid="rotateZ">0 0 1 0</rotate>
        <rotate sid="rotateY">0 1 0 0</rotate>
        <rotate sid="rotateX">1 0 0 0</rotate>
        <node id="polySurface2" name="polySurface2" type="NODE">
          <translate sid="rotatePivot">-4 0 -4.15084</translate>
          <rotate sid="rotateZ">0 0 1 0</rotate>
          <rotate sid="rotateY">0 1 0 0</rotate>
          <rotate sid="rotateX">1 0 0 0</rotate>
          <translate sid="rotatePivotInverse">4 0 4.15084</translate>
          <translate sid="scalePivot">-4 0 -4.15084</translate>
          <translate sid="scalePivotInverse">4 0 4.15084</translate>
          <instance_geometry url="#polySurfaceShape5">
            <bind_material>
              <technique_common>
                <instance_material symbol="lambert2SG" target="#lambert2">
                  <bind_vertex_input semantic="TEX0" input_semantic="TEXCOORD" input_set="0" />
                </instance_material>
              </technique_common>
            </bind_material>
          </instance_geometry>
        </node>
      </node>
      <node id="_collider_box_1" name="_collider_box_1" type="NODE">
        <translate sid="translate">0 1.18551 0.323817</translate>
        <rotate sid="rotateZ">0 0 1 0</rotate>
        <rotate sid="rotateY">0 1 0 0</rotate>
        <rotate sid="rotateX">1 0 0 0</rotate>
        <instance_geometry url="#_collider_box_Shape1">
          <bind_material>
            <technique_common>
              <instance_material symbol="lambert2SG" target="#lambert2">
                <bind_vertex_input semantic="TEX0" input_semantic="TEXCOORD" input_set="0" />
              </instance_material>
            </technique_common>
          </bind_material>
        </instance_geometry>
      </node>
      <extra>
        <technique profile="FCOLLADA">
          <start_time>0.041666</start_time>
          <end_time>2</end_time>
        </technique>
      </extra>
    </visual_scene>
  </library_visual_scenes>
  <scene>
    <instance_physics_scene url="#MayaNativePhysicsScene" />
    <instance_visual_scene url="#VisualSceneNode" />
  </scene>
</COLLADA>