<?xml version="1.0" encoding="utf-8"?>
<COLLADA xmlns="http://www.collada.org/2005/11/COLLADASchema" version="1.4.1">
  <asset>
    <contributor>
      <author></author>
      <authoring_tool>FBX COLLADA exporter</authoring_tool>
      <comments></comments>
    </contributor>
    <created>2012-09-04T09:02:59Z</created>
    <keywords></keywords>
    <modified>2012-09-04T09:02:59Z</modified>
    <revision></revision>
    <subject></subject>
    <title></title>
    <unit meter="1.000000" name="centimeter"></unit>
    <up_axis>Z_UP</up_axis>
  </asset>
  <library_images>
    <image id="Map #6-image" name="Map #6">
      <init_from>file://C:\AMFP_Raw_data\StaticObjects\engineroom\machinery\engineroom_atlas_01.jpg</init_from>
    </image>
  </library_images>
  <library_materials>
    <material id="Material #30" name="Material #30">
      <instance_effect url="#Material #30-fx"/>
    </material>
  </library_materials>
  <library_effects>
    <effect id="Material #30-fx" name="Material #30">
      <profile_COMMON>
        <technique sid="standard">
          <phong>
            <emission>
              <color sid="emission">0.000000  0.000000 0.000000 1.000000</color>
            </emission>
            <ambient>
              <color sid="ambient">0.588000  0.588000 0.588000 1.000000</color>
            </ambient>
            <diffuse>
              <texture texture="Map #6-image" texcoord="CHANNEL0">
                <extra>
                  <technique profile="MAYA">
                    <wrapU sid="wrapU0">TRUE</wrapU>
                    <wrapV sid="wrapV0">TRUE</wrapV>
                    <blend_mode>ADD</blend_mode>
                  </technique>
                </extra>
              </texture>
            </diffuse>
            <specular>
              <color sid="specular">0.000000  0.000000 0.000000 1.000000</color>
            </specular>
            <shininess>
              <float sid="shininess">2.000000</float>
            </shininess>
            <reflective>
              <color sid="reflective">0.000000  0.000000 0.000000 1.000000</color>
            </reflective>
            <reflectivity>
              <float sid="reflectivity">1.000000</float>
            </reflectivity>
            <transparent opaque="RGB_ZERO">
              <color sid="transparent">1.000000  1.000000 1.000000 1.000000</color>
            </transparent>
            <transparency>
              <float sid="transparency">0.000000</float>
            </transparency>
          </phong>
        </technique>
      </profile_COMMON>
    </effect>
  </library_effects>
  <library_geometries>
    <geometry id="axels-lib" name="axelsMesh">
      <mesh>
        <source id="axels-POSITION">
          <float_array id="axels-POSITION-array" count="777">
0.890360 -0.000000 1.047838
0.890360 0.027168 1.043048
1.109045 0.027168 1.043048
1.109045 -0.000000 1.047838
0.890360 0.051060 1.029254
1.109045 0.051060 1.029254
0.890360 0.068792 1.008121
1.109045 0.068792 1.008121
0.890360 0.078228 0.982197
1.109045 0.078228 0.982197
0.890360 0.078228 0.954610
1.109045 0.078228 0.954610
0.890360 0.068792 0.928686
1.109045 0.068792 0.928686
0.890360 0.051060 0.907553
1.109045 0.051060 0.907553
0.890360 0.027168 0.893759
1.109045 0.027168 0.893759
0.890360 -0.000000 0.888969
1.109045 -0.000000 0.888969
0.890360 -0.027168 0.893759
1.109045 -0.027168 0.893759
0.890360 -0.051060 0.907553
1.109045 -0.051060 0.907553
0.890360 -0.068793 0.928686
1.109045 -0.068793 0.928686
0.890360 -0.078228 0.954610
1.109045 -0.078228 0.954610
0.890360 -0.078228 0.982197
1.109045 -0.078228 0.982197
0.890360 -0.068793 1.008121
1.109045 -0.068793 1.008121
0.890360 -0.051060 1.029254
1.109045 -0.051060 1.029254
0.890360 -0.027168 1.043048
1.109045 -0.027168 1.043048
0.778504 -0.586991 1.177475
0.772258 -0.586991 1.194634
0.772258 -0.450293 1.194634
0.778504 -0.450293 1.177474
0.760521 -0.586991 1.208622
0.760521 -0.450293 1.208622
0.744707 -0.586991 1.217752
0.744707 -0.450293 1.217752
0.726724 -0.586991 1.220923
0.726724 -0.450293 1.220923
0.708741 -0.586991 1.217752
0.708741 -0.450293 1.217752
0.692928 -0.586991 1.208622
0.692928 -0.450293 1.208622
0.681190 -0.586991 1.194634
0.681190 -0.450293 1.194634
0.674945 -0.586991 1.177475
0.674945 -0.450293 1.177474
0.674945 -0.586991 1.159214
0.674945 -0.450293 1.159214
0.681190 -0.586991 1.142056
0.681190 -0.450293 1.142055
0.692928 -0.586991 1.128067
0.692928 -0.450293 1.128067
0.708741 -0.586991 1.118937
0.708741 -0.450293 1.118937
0.726724 -0.586991 1.115766
0.726724 -0.450293 1.115766
0.744707 -0.586991 1.118937
0.744707 -0.450293 1.118937
0.760521 -0.586991 1.128067
0.760521 -0.450293 1.128067
0.772258 -0.586991 1.142056
0.772258 -0.450293 1.142055
0.778504 -0.586991 1.159214
0.778504 -0.450293 1.159214
0.323505 -0.586991 1.483563
0.307963 -0.586991 1.492536
0.307963 -0.273222 1.492536
0.323505 -0.273222 1.483563
0.290289 -0.586991 1.495653
0.290289 -0.273222 1.495653
0.272615 -0.586991 1.492536
0.272615 -0.273222 1.492536
0.257073 -0.586991 1.483563
0.257073 -0.273222 1.483563
0.245537 -0.586991 1.469815
0.245537 -0.273222 1.469815
0.239399 -0.586991 1.452951
0.239399 -0.273222 1.452951
0.239399 -0.586991 1.435005
0.239399 -0.273222 1.435005
0.245537 -0.586991 1.418141
0.245537 -0.273222 1.418141
0.257073 -0.586991 1.404393
0.257073 -0.273222 1.404393
0.272615 -0.586991 1.395420
0.272615 -0.273222 1.395420
0.290289 -0.586991 1.392303
0.290289 -0.273222 1.392303
0.307963 -0.586991 1.395420
0.307963 -0.273222 1.395420
0.323505 -0.586991 1.404393
0.323505 -0.273222 1.404393
0.335040 -0.586991 1.418141
0.335040 -0.273222 1.418141
0.341178 -0.586991 1.435005
0.341178 -0.273222 1.435005
0.341178 -0.586991 1.452951
0.341178 -0.273222 1.452951
0.335040 -0.586991 1.469815
0.335040 -0.273222 1.469815
-0.089334 -0.345451 0.984809
-0.111466 -0.345451 0.988712
-0.111466 -0.586991 0.988712
-0.089334 -0.586991 0.984809
-0.130928 -0.345451 0.999948
-0.130928 -0.586991 0.999948
-0.145374 -0.345451 1.017164
-0.145374 -0.586991 1.017164
-0.153060 -0.345451 1.038282
-0.153060 -0.586991 1.038282
-0.153060 -0.345451 1.060755
-0.153060 -0.586991 1.060755
-0.145374 -0.345451 1.081873
-0.145374 -0.586991 1.081873
-0.130928 -0.345451 1.099089
-0.130928 -0.586991 1.099089
-0.111466 -0.345451 1.110326
-0.111466 -0.586991 1.110326
-0.089334 -0.345451 1.114228
-0.089334 -0.586991 1.114228
-0.067202 -0.345451 1.110326
-0.067202 -0.586991 1.110326
-0.047739 -0.345451 1.099089
-0.047739 -0.586991 1.099089
-0.033294 -0.345451 1.081874
-0.033294 -0.586991 1.081874
-0.025607 -0.345451 1.060755
-0.025607 -0.586991 1.060755
-0.025607 -0.345451 1.038282
-0.025607 -0.586991 1.038282
-0.033294 -0.345451 1.017164
-0.033294 -0.586991 1.017164
-0.047739 -0.345451 0.999948
-0.047739 -0.586991 0.999948
-0.067202 -0.345451 0.988712
-0.067202 -0.586991 0.988712
-0.272400 -0.000000 0.963450
-0.272400 0.029437 0.968640
-0.553913 0.029437 0.968640
-0.553913 -0.000000 0.963450
-0.272400 0.055324 0.983586
-0.553913 0.055324 0.983586
-0.272400 0.074538 1.006484
-0.553913 0.074538 1.006484
-0.272400 0.084761 1.034573
-0.553913 0.084761 1.034573
-0.272400 0.084761 1.064464
-0.553913 0.084761 1.064464
-0.272400 0.074538 1.092553
-0.553913 0.074538 1.092553
-0.272400 0.055324 1.115451
-0.553913 0.055324 1.115451
-0.272400 0.029437 1.130397
-0.553913 0.029437 1.130397
-0.272400 -0.000000 1.135587
-0.553913 -0.000000 1.135587
-0.272400 -0.029437 1.130397
-0.553913 -0.029437 1.130397
-0.272400 -0.055324 1.115451
-0.553913 -0.055324 1.115451
-0.272400 -0.074538 1.092553
-0.553913 -0.074538 1.092553
-0.272400 -0.084761 1.064464
-0.553913 -0.084761 1.064464
-0.272400 -0.084761 1.034573
-0.553913 -0.084761 1.034573
-0.272400 -0.074538 1.006484
-0.553913 -0.074538 1.006484
-0.272400 -0.055324 0.983586
-0.553913 -0.055324 0.983586
-0.272400 -0.029437 0.968640
-0.553913 -0.029437 0.968640
0.890360 -0.000000 0.968404
0.726724 -0.450293 1.168344
0.290289 -0.273222 1.443978
-0.089334 -0.345451 1.049519
-0.272400 -0.000000 1.049518
0.812987 -0.593401 1.183555
0.812987 -0.541549 1.183555
0.802583 -0.541549 1.212141
0.802583 -0.593401 1.212141
0.783028 -0.541549 1.235445
0.783028 -0.593401 1.235445
0.756683 -0.541549 1.250655
0.756683 -0.593401 1.250655
0.726725 -0.541549 1.255937
0.726725 -0.593401 1.255937
0.696766 -0.541549 1.250655
0.696766 -0.593401 1.250655
0.670421 -0.541549 1.235445
0.670421 -0.593401 1.235445
0.650867 -0.541549 1.212141
0.650867 -0.593401 1.212141
0.640462 -0.541549 1.183555
0.640462 -0.593401 1.183555
0.640462 -0.541549 1.153134
0.640462 -0.593401 1.153134
0.650867 -0.541549 1.124548
0.650867 -0.593401 1.124548
0.670421 -0.541549 1.101244
0.670421 -0.593401 1.101244
0.696766 -0.541549 1.086034
0.696766 -0.593401 1.086034
0.726725 -0.541549 1.080751
0.726725 -0.593401 1.080751
0.756683 -0.541549 1.086034
0.756683 -0.593401 1.086034
0.783028 -0.541549 1.101244
0.783028 -0.593401 1.101244
0.802583 -0.541549 1.124548
0.802583 -0.593401 1.124548
0.812987 -0.541549 1.153134
0.812987 -0.593401 1.153134
0.726725 -0.541549 1.168344
0.419301 -0.593401 1.464696
0.419301 -0.541549 1.464695
0.403883 -0.541549 1.507057
0.403883 -0.593401 1.507058
0.374906 -0.541549 1.541591
0.374906 -0.593401 1.541591
0.335865 -0.541549 1.564131
0.335865 -0.593401 1.564131
0.291470 -0.541549 1.571959
0.291470 -0.593401 1.571959
0.247075 -0.541549 1.564131
0.247075 -0.593401 1.564131
0.208034 -0.541549 1.541591
0.208034 -0.593401 1.541591
0.179057 -0.541549 1.507057
0.179057 -0.593401 1.507058
0.163638 -0.541549 1.464695
0.163638 -0.593401 1.464696
0.163638 -0.541549 1.419616
0.163638 -0.593401 1.419616
0.179057 -0.541549 1.377254
0.179057 -0.593401 1.377254
0.208034 -0.541549 1.342720
0.208034 -0.593401 1.342720
0.247075 -0.541549 1.320180
0.247075 -0.593401 1.320181
0.291470 -0.541549 1.312352
0.291470 -0.593401 1.312352
0.335865 -0.541549 1.320180
0.335865 -0.593401 1.320181
0.374906 -0.541549 1.342720
0.374906 -0.593401 1.342720
0.403883 -0.541549 1.377254
0.403883 -0.593401 1.377254
0.419301 -0.541549 1.419616
0.419301 -0.593401 1.419616
0.291470 -0.541549 1.442155
</float_array>
          <technique_common>
            <accessor source="#axels-POSITION-array" count="259" stride="3">
              <param name="X" type="float"/>
              <param name="Y" type="float"/>
              <param name="Z" type="float"/>
            </accessor>
          </technique_common>
        </source>
        <source id="axels-Normal0">
          <float_array id="axels-Normal0-array" count="3402">
0.000000 0.342021 0.939692
0.000000 0.342021 0.939692
-0.000000 0.000000 1.000000
0.000000 0.342021 0.939692
-0.000000 0.000000 1.000000
-0.000000 0.000000 1.000000
0.000000 0.642788 0.766044
0.000000 0.642788 0.766044
0.000000 0.342021 0.939692
0.000000 0.642788 0.766044
0.000000 0.342021 0.939692
0.000000 0.342021 0.939692
0.000000 0.866026 0.500000
0.000000 0.642788 0.766044
0.000000 0.642788 0.766044
0.000000 0.642788 0.766044
0.000000 0.866026 0.500000
0.000000 0.866026 0.500000
0.000000 0.984808 0.173649
0.000000 0.866026 0.500000
0.000000 0.866026 0.500000
0.000000 0.866026 0.500000
0.000000 0.984808 0.173649
0.000000 0.984808 0.173649
0.000000 0.984808 -0.173648
0.000000 0.984808 0.173649
0.000000 0.984808 0.173649
0.000000 0.984808 0.173649
0.000000 0.984808 -0.173648
0.000000 0.984808 -0.173648
0.000000 0.866025 -0.500000
0.000000 0.984808 -0.173648
0.000000 0.984808 -0.173648
0.000000 0.984808 -0.173648
0.000000 0.866025 -0.500000
0.000000 0.866025 -0.500000
0.000000 0.642788 -0.766044
0.000000 0.866025 -0.500000
0.000000 0.866025 -0.500000
0.000000 0.866025 -0.500000
0.000000 0.642788 -0.766044
0.000000 0.642788 -0.766044
0.000000 0.342021 -0.939692
0.000000 0.642788 -0.766044
0.000000 0.342021 -0.939692
0.000000 0.642788 -0.766044
0.000000 0.342021 -0.939692
0.000000 0.642788 -0.766044
-0.000000 0.000000 -1.000000
0.000000 0.342021 -0.939692
-0.000000 0.000000 -1.000000
0.000000 0.342021 -0.939692
-0.000000 0.000000 -1.000000
0.000000 0.342021 -0.939692
-0.000000 -0.342021 -0.939692
-0.000000 0.000000 -1.000000
-0.000000 -0.342021 -0.939692
-0.000000 0.000000 -1.000000
-0.000000 -0.342021 -0.939692
-0.000000 0.000000 -1.000000
-0.000000 -0.642788 -0.766044
-0.000000 -0.342021 -0.939692
-0.000000 -0.642788 -0.766044
-0.000000 -0.342021 -0.939692
-0.000000 -0.642788 -0.766044
-0.000000 -0.342021 -0.939692
0.000000 -0.866025 -0.500000
0.000000 -0.866025 -0.500000
-0.000000 -0.642788 -0.766044
0.000000 -0.866025 -0.500000
-0.000000 -0.642788 -0.766044
-0.000000 -0.642788 -0.766044
0.000000 -0.984808 -0.173648
0.000000 -0.984808 -0.173648
0.000000 -0.866025 -0.500000
0.000000 -0.984808 -0.173648
0.000000 -0.866025 -0.500000
0.000000 -0.866025 -0.500000
0.000000 -0.984808 0.173649
0.000000 -0.984808 0.173649
0.000000 -0.984808 -0.173648
0.000000 -0.984808 0.173649
0.000000 -0.984808 -0.173648
0.000000 -0.984808 -0.173648
0.000000 -0.866025 0.500000
0.000000 -0.866025 0.500000
0.000000 -0.984808 0.173649
0.000000 -0.866025 0.500000
0.000000 -0.984808 0.173649
0.000000 -0.984808 0.173649
-0.000000 -0.642788 0.766044
-0.000000 -0.642788 0.766044
0.000000 -0.866025 0.500000
-0.000000 -0.642788 0.766044
0.000000 -0.866025 0.500000
0.000000 -0.866025 0.500000
-0.000000 -0.342021 0.939692
-0.000000 -0.342021 0.939692
-0.000000 -0.642788 0.766044
-0.000000 -0.342021 0.939692
-0.000000 -0.642788 0.766044
-0.000000 -0.642788 0.766044
-0.000000 0.000000 1.000000
-0.000000 0.000000 1.000000
-0.000000 -0.342021 0.939692
-0.000000 0.000000 1.000000
-0.000000 -0.342021 0.939692
-0.000000 -0.342021 0.939692
0.866025 0.000000 0.500001
0.866025 0.000000 0.500001
0.984808 0.000000 0.173648
0.866025 0.000000 0.500001
0.984808 0.000000 0.173648
0.984808 0.000000 0.173647
0.642785 0.000000 0.766046
0.642785 0.000000 0.766046
0.866025 0.000000 0.500001
0.642785 0.000000 0.766046
0.866025 0.000000 0.500001
0.866025 0.000000 0.500001
0.342020 0.000000 0.939692
0.642785 0.000000 0.766046
0.642785 0.000000 0.766046
0.642785 0.000000 0.766046
0.342020 0.000000 0.939692
0.342020 0.000000 0.939693
0.000000 0.000000 1.000000
0.342020 0.000000 0.939693
0.342020 0.000000 0.939692
0.342020 0.000000 0.939693
0.000000 0.000000 1.000000
0.000000 0.000000 1.000000
-0.342020 0.000000 0.939692
0.000000 0.000000 1.000000
0.000000 0.000000 1.000000
0.000000 0.000000 1.000000
-0.342020 0.000000 0.939692
-0.342020 0.000000 0.939693
-0.642785 0.000000 0.766046
-0.342020 0.000000 0.939693
-0.342020 0.000000 0.939692
-0.342020 0.000000 0.939693
-0.642785 0.000000 0.766046
-0.642785 0.000000 0.766046
-0.642785 0.000000 0.766046
-0.866025 0.000000 0.500001
-0.642785 0.000000 0.766046
-0.866025 0.000000 0.500001
-0.642785 0.000000 0.766046
-0.866025 0.000000 0.500001
-0.866025 0.000000 0.500001
-0.984808 0.000000 0.173648
-0.866025 0.000000 0.500001
-0.984808 0.000000 0.173648
-0.866025 0.000000 0.500001
-0.984808 0.000000 0.173647
-0.984808 0.000000 0.173647
-0.984808 -0.000000 -0.173648
-0.984808 0.000000 0.173648
-0.984808 -0.000000 -0.173648
-0.984808 0.000000 0.173647
-0.984808 -0.000000 -0.173649
-0.984808 -0.000000 -0.173649
-0.866026 -0.000000 -0.500000
-0.984808 -0.000000 -0.173648
-0.866026 -0.000000 -0.500000
-0.984808 -0.000000 -0.173649
-0.866025 -0.000000 -0.500000
-0.866025 -0.000000 -0.500000
-0.642787 -0.000000 -0.766045
-0.866026 -0.000000 -0.500000
-0.642787 -0.000000 -0.766045
-0.866025 -0.000000 -0.500000
-0.642787 -0.000000 -0.766045
-0.342020 -0.000000 -0.939693
-0.342020 -0.000000 -0.939692
-0.642787 -0.000000 -0.766045
-0.642787 -0.000000 -0.766045
-0.642787 -0.000000 -0.766045
-0.342020 -0.000000 -0.939693
-0.000000 -0.000000 -1.000000
-0.000000 -0.000000 -1.000000
-0.342020 -0.000000 -0.939692
-0.342020 -0.000000 -0.939692
-0.342020 -0.000000 -0.939693
-0.000000 -0.000000 -1.000000
0.342021 -0.000000 -0.939692
0.342021 -0.000000 -0.939692
-0.000000 -0.000000 -1.000000
-0.000000 -0.000000 -1.000000
-0.000000 -0.000000 -1.000000
0.342021 -0.000000 -0.939692
0.642788 -0.000000 -0.766044
0.642788 -0.000000 -0.766044
0.342021 -0.000000 -0.939692
0.342021 -0.000000 -0.939692
0.342021 -0.000000 -0.939692
0.642788 -0.000000 -0.766044
0.866025 -0.000000 -0.500000
0.866026 -0.000000 -0.500000
0.642788 -0.000000 -0.766044
0.866025 -0.000000 -0.500000
0.642788 -0.000000 -0.766044
0.642788 -0.000000 -0.766044
0.984808 -0.000000 -0.173649
0.984808 -0.000000 -0.173648
0.866026 -0.000000 -0.500000
0.984808 -0.000000 -0.173649
0.866026 -0.000000 -0.500000
0.866025 -0.000000 -0.500000
0.984808 0.000000 0.173647
0.984808 0.000000 0.173648
0.984808 -0.000000 -0.173648
0.984808 0.000000 0.173647
0.984808 -0.000000 -0.173648
0.984808 -0.000000 -0.173649
0.642788 0.000000 0.766044
0.342018 0.000000 0.939693
0.642788 0.000000 0.766044
0.342018 0.000000 0.939693
0.642788 0.000000 0.766044
0.342018 0.000000 0.939693
0.342018 0.000000 0.939693
0.000000 0.000000 1.000000
0.342018 0.000000 0.939693
0.000000 0.000000 1.000000
0.342018 0.000000 0.939693
0.000000 0.000000 1.000000
0.000000 0.000000 1.000000
-0.342022 -0.000000 0.939692
0.000000 0.000000 1.000000
-0.342022 -0.000000 0.939692
0.000000 0.000000 1.000000
-0.342022 -0.000000 0.939692
-0.342022 -0.000000 0.939692
-0.642788 -0.000000 0.766044
-0.342022 -0.000000 0.939692
-0.642788 -0.000000 0.766044
-0.342022 -0.000000 0.939692
-0.642788 -0.000000 0.766044
-0.642788 -0.000000 0.766044
-0.642788 -0.000000 0.766044
-0.866025 -0.000000 0.500001
-0.642788 -0.000000 0.766044
-0.866025 -0.000000 0.500001
-0.866025 -0.000000 0.500001
-0.866025 -0.000000 0.500001
-0.866025 -0.000000 0.500001
-0.984808 -0.000000 0.173649
-0.866025 -0.000000 0.500001
-0.984808 -0.000000 0.173649
-0.984808 -0.000000 0.173649
-0.984808 -0.000000 -0.173648
-0.984808 -0.000000 0.173649
-0.984808 -0.000000 0.173649
-0.984808 -0.000000 0.173649
-0.984808 -0.000000 -0.173648
-0.984808 -0.000000 -0.173648
-0.984808 -0.000000 -0.173648
-0.984808 -0.000000 -0.173648
-0.866025 -0.000000 -0.500000
-0.984808 -0.000000 -0.173648
-0.866025 -0.000000 -0.500000
-0.866025 -0.000000 -0.500000
-0.866025 -0.000000 -0.500000
-0.866025 -0.000000 -0.500000
-0.642786 -0.000000 -0.766046
-0.866025 -0.000000 -0.500000
-0.642786 -0.000000 -0.766046
-0.642786 -0.000000 -0.766046
-0.342019 -0.000000 -0.939693
-0.342019 -0.000000 -0.939693
-0.642786 -0.000000 -0.766046
-0.642786 -0.000000 -0.766046
-0.642786 -0.000000 -0.766046
-0.342019 -0.000000 -0.939693
-0.000000 -0.000000 -1.000000
-0.000000 -0.000000 -1.000000
-0.342019 -0.000000 -0.939693
-0.342019 -0.000000 -0.939693
-0.342019 -0.000000 -0.939693
-0.000000 -0.000000 -1.000000
0.342019 0.000000 -0.939693
0.342019 0.000000 -0.939693
-0.000000 -0.000000 -1.000000
-0.000000 -0.000000 -1.000000
-0.000000 -0.000000 -1.000000
0.342019 0.000000 -0.939693
0.642786 0.000000 -0.766046
0.642786 0.000000 -0.766046
0.342019 0.000000 -0.939693
0.342019 0.000000 -0.939693
0.342019 0.000000 -0.939693
0.642786 0.000000 -0.766046
0.866026 0.000000 -0.500000
0.866026 0.000000 -0.500000
0.642786 0.000000 -0.766046
0.866026 0.000000 -0.500000
0.642786 0.000000 -0.766046
0.642786 0.000000 -0.766046
0.984808 0.000000 -0.173646
0.984808 0.000000 -0.173646
0.866026 0.000000 -0.500000
0.984808 0.000000 -0.173646
0.866026 0.000000 -0.500000
0.866026 0.000000 -0.500000
0.984807 0.000000 0.173650
0.984807 0.000000 0.173650
0.984808 0.000000 -0.173646
0.984807 0.000000 0.173650
0.984808 0.000000 -0.173646
0.984808 0.000000 -0.173646
0.866026 0.000000 0.499998
0.866026 0.000000 0.499998
0.984807 0.000000 0.173650
0.866026 0.000000 0.499998
0.984807 0.000000 0.173650
0.984807 0.000000 0.173650
0.642788 0.000000 0.766044
0.642788 0.000000 0.766044
0.866026 0.000000 0.499998
0.642788 0.000000 0.766044
0.866026 0.000000 0.499998
0.866026 0.000000 0.499998
-0.342020 0.000000 -0.939693
-0.000000 0.000000 -1.000000
-0.000000 0.000000 -1.000000
-0.000000 0.000000 -1.000000
-0.342020 0.000000 -0.939693
-0.342020 0.000000 -0.939693
-0.642789 0.000000 -0.766043
-0.342020 0.000000 -0.939693
-0.342020 0.000000 -0.939693
-0.342020 0.000000 -0.939693
-0.642789 0.000000 -0.766043
-0.642789 0.000000 -0.766043
-0.866026 0.000000 -0.500000
-0.866026 0.000000 -0.500000
-0.642789 0.000000 -0.766043
-0.866026 0.000000 -0.500000
-0.642789 0.000000 -0.766043
-0.642789 0.000000 -0.766043
-0.984808 0.000000 -0.173649
-0.984808 0.000000 -0.173649
-0.866026 0.000000 -0.500000
-0.984808 0.000000 -0.173649
-0.866026 0.000000 -0.500000
-0.866026 0.000000 -0.500000
-0.984808 0.000000 0.173649
-0.984808 0.000000 0.173649
-0.984808 0.000000 -0.173649
-0.984808 0.000000 0.173649
-0.984808 0.000000 -0.173649
-0.984808 0.000000 -0.173649
-0.866026 0.000000 0.499999
-0.866026 0.000000 0.499999
-0.984808 0.000000 0.173649
-0.866026 0.000000 0.499999
-0.984808 0.000000 0.173649
-0.984808 0.000000 0.173649
-0.642789 0.000000 0.766043
-0.642789 0.000000 0.766043
-0.866026 0.000000 0.499999
-0.642789 0.000000 0.766043
-0.866026 0.000000 0.499999
-0.866026 0.000000 0.499999
-0.342019 0.000000 0.939693
-0.342019 0.000000 0.939693
-0.642789 0.000000 0.766043
-0.642789 0.000000 0.766043
-0.642789 0.000000 0.766043
-0.342019 0.000000 0.939693
0.000000 0.000000 1.000000
-0.000000 0.000000 1.000000
-0.342019 0.000000 0.939693
-0.342019 0.000000 0.939693
-0.342019 0.000000 0.939693
0.000000 0.000000 1.000000
0.342019 0.000000 0.939693
0.000000 0.000000 1.000000
0.342019 0.000000 0.939693
0.000000 0.000000 1.000000
0.342019 0.000000 0.939693
-0.000000 0.000000 1.000000
0.642787 0.000000 0.766045
0.642787 0.000000 0.766045
0.342019 0.000000 0.939693
0.342019 0.000000 0.939693
0.342019 0.000000 0.939693
0.642787 0.000000 0.766045
0.866025 0.000000 0.500000
0.642787 0.000000 0.766045
0.642787 0.000000 0.766045
0.642787 0.000000 0.766045
0.866025 0.000000 0.500000
0.866025 0.000000 0.500000
0.984808 0.000000 0.173649
0.866025 0.000000 0.500000
0.866025 0.000000 0.500000
0.866025 0.000000 0.500000
0.984808 0.000000 0.173649
0.984808 0.000000 0.173649
0.984808 0.000000 0.173649
0.984808 0.000000 0.173649
0.984808 0.000000 -0.173648
0.984808 0.000000 0.173649
0.984808 0.000000 -0.173648
0.984808 0.000000 -0.173648
0.866025 0.000000 -0.500000
0.984808 0.000000 -0.173648
0.984808 0.000000 -0.173648
0.984808 0.000000 -0.173648
0.866025 0.000000 -0.500000
0.866025 0.000000 -0.500000
0.642789 0.000000 -0.766043
0.866025 0.000000 -0.500000
0.866025 0.000000 -0.500000
0.866025 0.000000 -0.500000
0.642789 0.000000 -0.766043
0.642789 0.000000 -0.766043
0.342021 0.000000 -0.939692
0.642789 0.000000 -0.766043
0.642789 0.000000 -0.766043
0.642789 0.000000 -0.766043
0.342021 0.000000 -0.939692
0.342021 0.000000 -0.939692
-0.000000 0.000000 -1.000000
0.342021 0.000000 -0.939692
0.342021 0.000000 -0.939692
0.342021 0.000000 -0.939692
-0.000000 0.000000 -1.000000
-0.000000 0.000000 -1.000000
0.000000 0.342020 -0.939693
0.000000 0.000000 -1.000000
0.000000 0.000000 -1.000000
0.000000 0.000000 -1.000000
0.000000 0.342020 -0.939693
0.000000 0.342020 -0.939693
0.000000 0.342020 -0.939693
0.000000 0.342020 -0.939693
0.000000 0.642787 -0.766045
0.000000 0.342020 -0.939693
0.000000 0.642787 -0.766045
0.000000 0.642787 -0.766045
0.000000 0.866026 -0.500000
0.000000 0.866026 -0.500000
0.000000 0.642787 -0.766045
0.000000 0.866026 -0.500000
0.000000 0.642787 -0.766045
0.000000 0.642787 -0.766045
0.000000 0.984808 -0.173647
0.000000 0.984808 -0.173647
0.000000 0.866026 -0.500000
0.000000 0.984808 -0.173647
0.000000 0.866026 -0.500000
0.000000 0.866026 -0.500000
0.000000 0.984808 0.173648
0.000000 0.984808 0.173648
0.000000 0.984808 -0.173647
0.000000 0.984808 0.173648
0.000000 0.984808 -0.173647
0.000000 0.984808 -0.173647
0.000000 0.866025 0.500000
0.000000 0.866025 0.500000
0.000000 0.984808 0.173648
0.000000 0.866025 0.500000
0.000000 0.984808 0.173648
0.000000 0.984808 0.173648
0.000000 0.642787 0.766045
0.000000 0.642787 0.766045
0.000000 0.866025 0.500000
0.000000 0.642787 0.766045
0.000000 0.866025 0.500000
0.000000 0.866025 0.500000
0.000000 0.642787 0.766045
0.000000 0.642787 0.766045
0.000000 0.342020 0.939693
0.000000 0.642787 0.766045
0.000000 0.342020 0.939693
0.000000 0.342020 0.939693
0.000000 0.342020 0.939693
0.000000 0.342020 0.939693
0.000000 0.000000 1.000000
0.000000 0.342020 0.939693
0.000000 0.000000 1.000000
0.000000 0.000000 1.000000
0.000000 0.000000 1.000000
0.000000 -0.342020 0.939693
0.000000 0.000000 1.000000
0.000000 -0.342020 0.939693
0.000000 0.000000 1.000000
0.000000 -0.342020 0.939693
0.000000 -0.342020 0.939693
0.000000 -0.342020 0.939693
0.000000 -0.642787 0.766045
0.000000 -0.342020 0.939693
0.000000 -0.642787 0.766045
0.000000 -0.642787 0.766045
0.000000 -0.642787 0.766045
0.000000 -0.642787 0.766045
0.000000 -0.866025 0.500001
0.000000 -0.642787 0.766045
0.000000 -0.866025 0.500001
0.000000 -0.866025 0.500001
0.000000 -0.984808 0.173649
0.000000 -0.866025 0.500001
0.000000 -0.866025 0.500001
0.000000 -0.866025 0.500001
0.000000 -0.984808 0.173649
0.000000 -0.984808 0.173649
0.000000 -0.984808 -0.173648
0.000000 -0.984808 0.173649
0.000000 -0.984808 0.173649
0.000000 -0.984808 0.173649
0.000000 -0.984808 -0.173648
0.000000 -0.984808 -0.173648
0.000000 -0.866026 -0.499999
0.000000 -0.984808 -0.173648
0.000000 -0.984808 -0.173648
0.000000 -0.984808 -0.173648
0.000000 -0.866026 -0.499999
0.000000 -0.866026 -0.499999
0.000000 -0.866026 -0.499999
0.000000 -0.866026 -0.499999
0.000000 -0.642788 -0.766044
0.000000 -0.866026 -0.499999
0.000000 -0.642788 -0.766044
0.000000 -0.642788 -0.766044
0.000000 -0.642788 -0.766044
0.000000 -0.642788 -0.766044
0.000000 -0.342021 -0.939692
0.000000 -0.642788 -0.766044
0.000000 -0.342021 -0.939692
0.000000 -0.342021 -0.939692
0.000000 -0.342021 -0.939692
0.000000 -0.342021 -0.939692
0.000000 0.000000 -1.000000
0.000000 -0.342021 -0.939692
0.000000 0.000000 -1.000000
0.000000 0.000000 -1.000000
-1.000000 -0.000001 -0.000001
-1.000000 -0.000000 0.000000
-1.000000 -0.000000 -0.000002
-1.000000 -0.000001 -0.000001
-1.000000 -0.000000 0.000000
-1.000000 -0.000001 -0.000001
-1.000000 -0.000001 -0.000001
-1.000000 -0.000000 0.000000
-1.000000 -0.000001 -0.000001
-1.000000 -0.000001 -0.000000
-1.000000 -0.000000 0.000000
-1.000000 -0.000001 -0.000001
-1.000000 -0.000001 0.000000
-1.000000 -0.000000 0.000000
-1.000000 -0.000001 -0.000000
-1.000000 -0.000001 0.000001
-1.000000 -0.000000 0.000000
-1.000000 -0.000001 0.000000
-1.000000 -0.000001 0.000001
-1.000000 -0.000000 0.000000
-1.000000 -0.000001 0.000001
-1.000000 -0.000001 0.000001
-1.000000 -0.000000 0.000000
-1.000000 -0.000001 0.000001
-1.000000 -0.000000 0.000002
-1.000000 -0.000000 0.000000
-1.000000 -0.000001 0.000001
-1.000000 0.000001 0.000001
-1.000000 -0.000000 0.000000
-1.000000 -0.000000 0.000002
-1.000000 0.000001 0.000001
-1.000000 -0.000000 0.000000
-1.000000 0.000001 0.000001
-1.000000 0.000001 0.000001
-1.000000 -0.000000 0.000000
-1.000000 0.000001 0.000001
-1.000000 0.000001 0.000000
-1.000000 -0.000000 0.000000
-1.000000 0.000001 0.000001
-1.000000 0.000001 -0.000000
-1.000000 -0.000000 0.000000
-1.000000 0.000001 0.000000
-1.000000 0.000001 -0.000001
-1.000000 -0.000000 0.000000
-1.000000 0.000001 -0.000000
-1.000000 0.000001 -0.000001
-1.000000 -0.000000 0.000000
-1.000000 0.000001 -0.000001
-1.000000 0.000001 -0.000001
-1.000000 -0.000000 0.000000
-1.000000 0.000001 -0.000001
-1.000000 -0.000000 -0.000002
-1.000000 -0.000000 0.000000
-1.000000 0.000001 -0.000001
-0.000003 1.000000 -0.000000
0.000000 1.000000 0.000000
-0.000002 1.000000 -0.000001
-0.000002 1.000000 -0.000001
0.000000 1.000000 0.000000
-0.000002 1.000000 -0.000002
-0.000002 1.000000 -0.000002
0.000000 1.000000 0.000000
-0.000001 1.000000 -0.000003
-0.000001 1.000000 -0.000003
0.000000 1.000000 0.000000
0.000000 1.000000 -0.000003
0.000000 1.000000 -0.000003
0.000000 1.000000 0.000000
0.000001 1.000000 -0.000003
0.000001 1.000000 -0.000003
0.000000 1.000000 0.000000
0.000002 1.000000 -0.000002
0.000002 1.000000 -0.000002
0.000000 1.000000 0.000000
0.000002 1.000000 -0.000001
0.000002 1.000000 -0.000001
0.000000 1.000000 0.000000
0.000003 1.000000 -0.000000
0.000003 1.000000 -0.000000
0.000000 1.000000 0.000000
0.000003 1.000000 0.000000
0.000003 1.000000 0.000000
0.000000 1.000000 0.000000
0.000002 1.000000 0.000001
0.000002 1.000000 0.000001
0.000000 1.000000 0.000000
0.000002 1.000000 0.000002
0.000002 1.000000 0.000002
0.000000 1.000000 0.000000
0.000001 1.000000 0.000003
0.000001 1.000000 0.000003
0.000000 1.000000 0.000000
0.000000 1.000000 0.000003
0.000000 1.000000 0.000003
0.000000 1.000000 0.000000
-0.000001 1.000000 0.000003
-0.000001 1.000000 0.000003
0.000000 1.000000 0.000000
-0.000002 1.000000 0.000002
-0.000002 1.000000 0.000002
0.000000 1.000000 0.000000
-0.000002 1.000000 0.000001
-0.000002 1.000000 0.000001
0.000000 1.000000 0.000000
-0.000003 1.000000 0.000000
-0.000003 1.000000 0.000000
0.000000 1.000000 0.000000
-0.000003 1.000000 -0.000000
0.000000 1.000000 0.000000
-0.000000 1.000000 -0.000000
0.000000 1.000000 0.000001
0.000000 1.000000 0.000001
-0.000000 1.000000 -0.000000
0.000000 1.000000 0.000001
0.000000 1.000000 0.000001
-0.000000 1.000000 -0.000000
-0.000000 1.000000 0.000001
-0.000000 1.000000 0.000001
-0.000000 1.000000 -0.000000
-0.000000 1.000000 0.000000
-0.000000 1.000000 0.000000
-0.000000 1.000000 -0.000000
-0.000000 1.000000 0.000000
-0.000000 1.000000 0.000000
-0.000000 1.000000 -0.000000
-0.000001 1.000000 0.000000
-0.000001 1.000000 0.000000
-0.000000 1.000000 -0.000000
-0.000001 1.000000 -0.000000
-0.000001 1.000000 -0.000000
-0.000000 1.000000 -0.000000
-0.000000 1.000000 -0.000000
-0.000000 1.000000 -0.000000
-0.000000 1.000000 -0.000000
-0.000000 1.000000 -0.000000
-0.000000 1.000000 -0.000000
-0.000000 1.000000 -0.000000
-0.000000 1.000000 -0.000001
-0.000000 1.000000 -0.000001
-0.000000 1.000000 -0.000000
-0.000000 1.000000 -0.000001
-0.000000 1.000000 -0.000001
-0.000000 1.000000 -0.000000
0.000000 1.000000 -0.000001
0.000000 1.000000 -0.000001
-0.000000 1.000000 -0.000000
0.000000 1.000000 -0.000000
0.000000 1.000000 -0.000000
-0.000000 1.000000 -0.000000
0.000000 1.000000 -0.000000
0.000000 1.000000 -0.000000
-0.000000 1.000000 -0.000000
0.000001 1.000000 -0.000000
0.000001 1.000000 -0.000000
-0.000000 1.000000 -0.000000
0.000001 1.000000 0.000000
0.000001 1.000000 0.000000
-0.000000 1.000000 -0.000000
0.000000 1.000000 0.000000
0.000000 1.000000 0.000000
-0.000000 1.000000 -0.000000
0.000000 1.000000 0.000000
0.000001 1.000000 0.000002
0.000000 1.000000 0.000000
0.000000 1.000000 0.000002
0.000001 1.000000 0.000001
0.000000 1.000000 0.000000
0.000001 1.000000 0.000002
0.000002 1.000000 0.000001
0.000000 1.000000 0.000000
0.000001 1.000000 0.000001
0.000002 1.000000 0.000000
0.000000 1.000000 0.000000
0.000002 1.000000 0.000001
0.000002 1.000000 -0.000000
0.000000 1.000000 0.000000
0.000002 1.000000 0.000000
0.000002 1.000000 -0.000001
0.000000 1.000000 0.000000
0.000002 1.000000 -0.000000
0.000001 1.000000 -0.000001
0.000000 1.000000 0.000000
0.000002 1.000000 -0.000001
0.000001 1.000000 -0.000002
0.000000 1.000000 0.000000
0.000001 1.000000 -0.000001
0.000001 1.000000 -0.000002
0.000000 1.000000 0.000000
0.000001 1.000000 -0.000002
-0.000000 1.000000 -0.000001
0.000000 1.000000 0.000000
0.000001 1.000000 -0.000002
-0.000002 1.000000 -0.000001
0.000000 1.000000 0.000000
-0.000000 1.000000 -0.000001
-0.000002 1.000000 -0.000001
0.000000 1.000000 0.000000
-0.000002 1.000000 -0.000001
-0.000002 1.000000 -0.000000
0.000000 1.000000 0.000000
-0.000002 1.000000 -0.000001
-0.000002 1.000000 0.000000
0.000000 1.000000 0.000000
-0.000002 1.000000 -0.000000
-0.000002 1.000000 0.000001
0.000000 1.000000 0.000000
-0.000002 1.000000 0.000000
-0.000001 1.000000 0.000001
0.000000 1.000000 0.000000
-0.000002 1.000000 0.000001
-0.000001 1.000000 0.000002
0.000000 1.000000 0.000000
-0.000001 1.000000 0.000001
0.000000 1.000000 0.000002
0.000000 1.000000 0.000000
-0.000001 1.000000 0.000002
1.000000 0.000000 -0.000000
1.000000 -0.000000 -0.000000
1.000000 0.000000 -0.000000
1.000000 0.000000 -0.000000
1.000000 -0.000000 -0.000000
1.000000 0.000000 -0.000000
1.000000 0.000000 -0.000000
1.000000 -0.000000 -0.000000
1.000000 0.000000 -0.000000
1.000000 0.000000 -0.000000
1.000000 -0.000000 -0.000000
1.000000 0.000000 -0.000000
1.000000 0.000000 0.000000
1.000000 -0.000000 -0.000000
1.000000 0.000000 -0.000000
1.000000 0.000000 0.000000
1.000000 -0.000000 -0.000000
1.000000 0.000000 0.000000
1.000000 0.000000 0.000000
1.000000 -0.000000 -0.000000
1.000000 0.000000 0.000000
1.000000 0.000002 -0.000000
1.000000 -0.000000 -0.000000
1.000000 0.000000 0.000000
1.000000 0.000000 -0.000001
1.000000 -0.000000 -0.000000
1.000000 0.000002 -0.000000
1.000000 -0.000002 -0.000000
1.000000 -0.000000 -0.000000
1.000000 0.000000 -0.000001
1.000000 -0.000000 0.000000
1.000000 -0.000000 -0.000000
1.000000 -0.000002 -0.000000
1.000000 -0.000000 0.000000
1.000000 -0.000000 -0.000000
1.000000 -0.000000 0.000000
1.000000 -0.000000 0.000000
1.000000 -0.000000 -0.000000
1.000000 -0.000000 0.000000
1.000000 -0.000000 -0.000000
1.000000 -0.000000 -0.000000
1.000000 -0.000000 0.000000
1.000000 -0.000000 -0.000000
1.000000 -0.000000 -0.000000
1.000000 -0.000000 -0.000000
1.000000 -0.000000 -0.000000
1.000000 -0.000000 -0.000000
1.000000 -0.000000 -0.000000
1.000000 -0.000000 -0.000000
1.000000 -0.000000 -0.000000
1.000000 -0.000000 -0.000000
1.000000 0.000000 -0.000000
1.000000 -0.000000 -0.000000
1.000000 -0.000000 -0.000000
0.866026 0.000001 0.499999
0.866026 0.000001 0.500000
0.984808 0.000001 0.173647
0.866026 0.000001 0.499999
0.984808 0.000001 0.173647
0.984808 0.000001 0.173646
0.642786 0.000002 0.766046
0.642786 0.000002 0.766046
0.866026 0.000001 0.500000
0.642786 0.000002 0.766046
0.866026 0.000001 0.500000
0.866026 0.000001 0.499999
0.342019 0.000002 0.939693
0.642786 0.000002 0.766046
0.642786 0.000002 0.766046
0.642786 0.000002 0.766046
0.342019 0.000002 0.939693
0.342019 0.000002 0.939693
-0.000000 0.000002 1.000000
0.342019 0.000002 0.939693
0.342019 0.000002 0.939693
0.342019 0.000002 0.939693
-0.000000 0.000002 1.000000
-0.000000 0.000002 1.000000
-0.342019 0.000002 0.939693
-0.000000 0.000002 1.000000
-0.000000 0.000002 1.000000
-0.000000 0.000002 1.000000
-0.342019 0.000002 0.939693
-0.342018 0.000002 0.939693
-0.642785 0.000002 0.766047
-0.342018 0.000002 0.939693
-0.342019 0.000002 0.939693
-0.342018 0.000002 0.939693
-0.642785 0.000002 0.766047
-0.642785 0.000002 0.766047
-0.642785 0.000002 0.766047
-0.866026 0.000001 0.500000
-0.642785 0.000002 0.766047
-0.866026 0.000001 0.500000
-0.642785 0.000002 0.766047
-0.866026 0.000001 0.499999
-0.866026 0.000001 0.499999
-0.984808 0.000001 0.173647
-0.866026 0.000001 0.500000
-0.984808 0.000001 0.173647
-0.866026 0.000001 0.499999
-0.984808 0.000001 0.173646
-0.984808 0.000001 0.173646
-0.984808 -0.000001 -0.173647
-0.984808 0.000001 0.173647
-0.984808 -0.000001 -0.173647
-0.984808 0.000001 0.173646
-0.984808 -0.000001 -0.173648
-0.984808 -0.000001 -0.173648
-0.866026 -0.000002 -0.499999
-0.984808 -0.000001 -0.173647
-0.866026 -0.000002 -0.499999
-0.984808 -0.000001 -0.173648
-0.866026 -0.000002 -0.500000
-0.866026 -0.000002 -0.500000
-0.642786 -0.000002 -0.766046
-0.866026 -0.000002 -0.499999
-0.642786 -0.000002 -0.766046
-0.866026 -0.000002 -0.500000
-0.642786 -0.000002 -0.766046
-0.342020 -0.000002 -0.939693
-0.342020 -0.000002 -0.939693
-0.642786 -0.000002 -0.766046
-0.642786 -0.000002 -0.766046
-0.642786 -0.000002 -0.766046
-0.342020 -0.000002 -0.939693
-0.000000 -0.000002 -1.000000
-0.342020 -0.000002 -0.939693
-0.000000 -0.000002 -1.000000
-0.342020 -0.000002 -0.939693
-0.342020 -0.000002 -0.939693
-0.000000 -0.000002 -1.000000
0.342021 -0.000002 -0.939692
-0.000000 -0.000002 -1.000000
0.342021 -0.000002 -0.939692
-0.000000 -0.000002 -1.000000
-0.000000 -0.000002 -1.000000
0.342021 -0.000002 -0.939692
0.642787 -0.000002 -0.766045
0.642787 -0.000002 -0.766045
0.342021 -0.000002 -0.939692
0.342021 -0.000002 -0.939692
0.342021 -0.000002 -0.939692
0.642787 -0.000002 -0.766045
0.866026 -0.000002 -0.500000
0.866026 -0.000002 -0.499999
0.642787 -0.000002 -0.766045
0.866026 -0.000002 -0.500000
0.642787 -0.000002 -0.766045
0.642787 -0.000002 -0.766045
0.984808 -0.000001 -0.173648
0.984808 -0.000001 -0.173647
0.866026 -0.000002 -0.499999
0.984808 -0.000001 -0.173648
0.866026 -0.000002 -0.499999
0.866026 -0.000002 -0.500000
0.984808 0.000001 0.173646
0.984808 0.000001 0.173647
0.984808 -0.000001 -0.173647
0.984808 0.000001 0.173646
0.984808 -0.000001 -0.173647
0.984808 -0.000001 -0.173648
0.000000 1.000000 0.000000
0.000000 1.000000 0.000000
0.000000 1.000000 0.000000
0.000000 1.000000 0.000000
0.000000 1.000000 0.000000
0.000000 1.000000 0.000000
0.000000 1.000000 0.000000
0.000000 1.000000 0.000000
0.000000 1.000000 0.000000
0.000000 1.000000 0.000000
0.000000 1.000000 0.000000
0.000000 1.000000 0.000000
0.000000 1.000000 0.000000
0.000000 1.000000 0.000000
0.000000 1.000000 0.000000
0.000000 1.000000 0.000000
0.000000 1.000000 0.000000
0.000000 1.000000 0.000000
0.000000 1.000000 0.000000
0.000000 1.000000 0.000000
0.000000 1.000000 0.000000
0.000000 1.000000 0.000000
0.000000 1.000000 0.000000
0.000000 1.000000 0.000000
0.000000 1.000000 0.000000
0.000000 1.000000 0.000000
0.000000 1.000000 0.000000
0.000000 1.000000 0.000000
0.000000 1.000000 0.000000
0.000000 1.000000 0.000000
0.000000 1.000000 0.000000
0.000000 1.000000 0.000000
0.000000 1.000000 0.000000
0.000000 1.000000 0.000000
0.000000 1.000000 0.000000
0.000000 1.000000 0.000000
0.000000 1.000000 0.000000
0.000000 1.000000 0.000000
0.000000 1.000000 0.000000
0.000000 1.000000 0.000000
0.000000 1.000000 0.000000
0.000000 1.000000 0.000000
0.000000 1.000000 0.000000
0.000000 1.000000 0.000000
0.000000 1.000000 0.000000
0.000000 1.000000 0.000000
0.000000 1.000000 0.000000
0.000000 1.000000 0.000000
0.000000 1.000000 0.000000
0.000000 1.000000 0.000000
0.000000 1.000000 0.000000
0.000000 1.000000 0.000000
0.000000 1.000000 0.000000
0.000000 1.000000 0.000000
0.866026 0.000003 0.499999
0.866025 0.000003 0.500000
0.984808 0.000001 0.173647
0.866026 0.000003 0.499999
0.984808 0.000001 0.173647
0.984808 0.000001 0.173646
0.642786 0.000003 0.766046
0.642786 0.000003 0.766046
0.866025 0.000003 0.500000
0.642786 0.000003 0.766046
0.866025 0.000003 0.500000
0.866026 0.000003 0.499999
0.342019 0.000002 0.939693
0.642786 0.000003 0.766046
0.642786 0.000003 0.766046
0.642786 0.000003 0.766046
0.342019 0.000002 0.939693
0.342019 0.000002 0.939693
-0.000000 0.000002 1.000000
0.342019 0.000002 0.939693
0.342019 0.000002 0.939693
0.342019 0.000002 0.939693
-0.000000 0.000002 1.000000
-0.000000 0.000002 1.000000
-0.342018 0.000002 0.939693
-0.000000 0.000002 1.000000
-0.000000 0.000002 1.000000
-0.000000 0.000002 1.000000
-0.342018 0.000002 0.939693
-0.342018 0.000002 0.939693
-0.642785 0.000003 0.766046
-0.342018 0.000002 0.939693
-0.342018 0.000002 0.939693
-0.342018 0.000002 0.939693
-0.642785 0.000003 0.766046
-0.642785 0.000003 0.766046
-0.642785 0.000003 0.766046
-0.866026 0.000003 0.500000
-0.642785 0.000003 0.766046
-0.866026 0.000003 0.500000
-0.642785 0.000003 0.766046
-0.866026 0.000003 0.499998
-0.866026 0.000003 0.499998
-0.984808 0.000001 0.173647
-0.866026 0.000003 0.500000
-0.984808 0.000001 0.173647
-0.866026 0.000003 0.499998
-0.984808 0.000001 0.173646
-0.984808 0.000001 0.173646
-0.984808 -0.000001 -0.173647
-0.984808 0.000001 0.173647
-0.984808 -0.000001 -0.173647
-0.984808 0.000001 0.173646
-0.984808 -0.000001 -0.173648
-0.984808 -0.000001 -0.173648
-0.866027 -0.000003 -0.499998
-0.984808 -0.000001 -0.173647
-0.866027 -0.000003 -0.499998
-0.984808 -0.000001 -0.173648
-0.866026 -0.000003 -0.499999
-0.866026 -0.000003 -0.499999
-0.642786 -0.000004 -0.766046
-0.866027 -0.000003 -0.499998
-0.642786 -0.000004 -0.766046
-0.866026 -0.000003 -0.499999
-0.642786 -0.000004 -0.766046
-0.342019 -0.000004 -0.939693
-0.642786 -0.000004 -0.766046
-0.342018 -0.000004 -0.939693
-0.642786 -0.000004 -0.766046
-0.642786 -0.000004 -0.766046
-0.342018 -0.000004 -0.939693
-0.000000 -0.000005 -1.000000
-0.342019 -0.000004 -0.939693
-0.000000 -0.000005 -1.000000
-0.342019 -0.000004 -0.939693
-0.342018 -0.000004 -0.939693
-0.000000 -0.000005 -1.000000
0.342019 -0.000004 -0.939693
-0.000000 -0.000005 -1.000000
0.342019 -0.000004 -0.939693
-0.000000 -0.000005 -1.000000
-0.000000 -0.000005 -1.000000
0.342019 -0.000004 -0.939693
0.642786 -0.000004 -0.766046
0.342019 -0.000004 -0.939693
0.642786 -0.000004 -0.766046
0.342019 -0.000004 -0.939693
0.342019 -0.000004 -0.939693
0.642786 -0.000004 -0.766046
0.866026 -0.000003 -0.499999
0.866027 -0.000003 -0.499998
0.642786 -0.000004 -0.766046
0.866026 -0.000003 -0.499999
0.642786 -0.000004 -0.766046
0.642786 -0.000004 -0.766046
0.984808 -0.000001 -0.173648
0.984808 -0.000001 -0.173647
0.866027 -0.000003 -0.499998
0.984808 -0.000001 -0.173648
0.866027 -0.000003 -0.499998
0.866026 -0.000003 -0.499999
0.984808 0.000001 0.173646
0.984808 0.000001 0.173647
0.984808 -0.000001 -0.173647
0.984808 0.000001 0.173646
0.984808 -0.000001 -0.173647
0.984808 -0.000001 -0.173648
0.000000 1.000000 0.000000
0.000000 1.000000 0.000000
0.000000 1.000000 0.000000
0.000000 1.000000 0.000000
0.000000 1.000000 0.000000
0.000000 1.000000 0.000000
0.000000 1.000000 0.000000
0.000000 1.000000 0.000000
0.000000 1.000000 0.000000
0.000000 1.000000 0.000000
0.000000 1.000000 0.000000
0.000000 1.000000 0.000000
0.000000 1.000000 0.000000
0.000000 1.000000 0.000000
0.000000 1.000000 0.000000
0.000000 1.000000 0.000000
0.000000 1.000000 0.000000
0.000000 1.000000 0.000000
0.000000 1.000000 0.000000
0.000000 1.000000 0.000000
0.000000 1.000000 0.000000
0.000000 1.000000 0.000000
0.000000 1.000000 0.000000
0.000000 1.000000 0.000000
0.000000 1.000000 0.000000
0.000000 1.000000 0.000000
0.000000 1.000000 0.000000
0.000000 1.000000 0.000000
0.000000 1.000000 0.000000
0.000000 1.000000 0.000000
0.000000 1.000000 0.000000
0.000000 1.000000 0.000000
0.000000 1.000000 0.000000
0.000000 1.000000 0.000000
0.000000 1.000000 0.000000
0.000000 1.000000 0.000000
0.000000 1.000000 0.000000
0.000000 1.000000 0.000000
0.000000 1.000000 0.000000
0.000000 1.000000 0.000000
0.000000 1.000000 0.000000
0.000000 1.000000 0.000000
0.000000 1.000000 0.000000
0.000000 1.000000 0.000000
0.000000 1.000000 0.000000
0.000000 1.000000 0.000000
0.000000 1.000000 0.000000
0.000000 1.000000 0.000000
0.000000 1.000000 0.000000
0.000000 1.000000 0.000000
0.000000 1.000000 0.000000
0.000000 1.000000 0.000000
0.000000 1.000000 0.000000
0.000000 1.000000 0.000000
</float_array>
          <technique_common>
            <accessor source="#axels-Normal0-array" count="1134" stride="3">
              <param name="X" type="float"/>
              <param name="Y" type="float"/>
              <param name="Z" type="float"/>
            </accessor>
          </technique_common>
        </source>
        <source id="axels-UV0">
          <float_array id="axels-UV0-array" count="798">
0.889743 0.498193
0.108161 0.060723
0.108161 0.164033
0.902256 0.464337
0.095128 0.164033
0.902256 0.500366
0.095128 0.060723
0.878739 0.491937
0.082096 0.164033
0.870572 0.482352
0.082096 0.060723
0.866227 0.470594
0.069064 0.164033
0.866227 0.458081
0.069064 0.060723
0.870572 0.446323
0.056031 0.164033
0.878739 0.436738
0.056031 0.060723
0.889743 0.430481
0.042998 0.164033
0.902256 0.428308
0.042998 0.060723
0.914768 0.430481
0.029966 0.164033
0.925772 0.436738
0.029966 0.060723
0.933939 0.446323
0.016934 0.164033
0.938284 0.458081
0.016934 0.060723
0.938284 0.470594
0.003902 0.164033
0.933939 0.482352
0.003902 0.060723
0.925772 0.491937
0.708468 0.096508
0.708468 0.164092
0.699440 0.164092
0.699440 0.096508
0.690412 0.164092
0.690412 0.096508
0.681384 0.164092
0.681384 0.096508
0.672356 0.164092
0.672356 0.096508
0.663328 0.164092
0.663328 0.096508
0.654300 0.164092
0.654300 0.096508
0.645272 0.164092
0.645272 0.096508
0.636244 0.164092
0.636244 0.096508
0.627216 0.164092
0.627216 0.096508
0.618189 0.164092
0.618189 0.096508
0.609161 0.164092
0.609161 0.096508
0.600134 0.164092
0.600134 0.096508
0.591106 0.164092
0.591106 0.096508
0.582078 0.164092
0.582078 0.096508
0.573050 0.164092
0.573050 0.096508
0.564022 0.164092
0.564022 0.096508
0.554994 0.164092
0.554994 0.096508
0.544707 0.165854
0.878739 0.491937
0.902256 0.464337
0.544707 0.298215
0.889743 0.498193
0.537137 0.298215
0.902256 0.500366
0.537137 0.165854
0.914768 0.498193
0.529566 0.298215
0.925772 0.491937
0.529566 0.165854
0.933939 0.482352
0.521996 0.298215
0.938284 0.470594
0.521996 0.165854
0.938284 0.458081
0.514425 0.298215
0.933939 0.446323
0.514425 0.165854
0.925772 0.436738
0.506855 0.298215
0.914768 0.430481
0.506855 0.165854
0.902256 0.428308
0.499284 0.298215
0.889743 0.430481
0.499284 0.165854
0.878739 0.436738
0.627977 0.298215
0.870572 0.446323
0.627977 0.165854
0.866227 0.458081
0.620407 0.298215
0.866227 0.470594
0.620407 0.165854
0.047177 0.166335
0.047177 0.297090
0.035012 0.297090
0.035012 0.166335
0.022847 0.297090
0.022847 0.166335
0.010682 0.297090
0.010682 0.166335
-0.001483 0.297090
-0.001483 0.166335
0.205326 0.297090
0.205326 0.166335
0.193161 0.297090
0.193161 0.166335
0.180996 0.297090
0.180996 0.166335
0.168830 0.297090
0.168830 0.166335
0.156664 0.297090
0.156664 0.166335
0.144499 0.297090
0.144499 0.166335
0.132333 0.297090
0.132333 0.166335
0.120167 0.297090
0.120167 0.166335
0.108001 0.297090
0.108001 0.166335
0.095836 0.297090
0.095836 0.166335
0.083671 0.297090
0.083671 0.166335
0.071506 0.297090
0.071506 0.166335
0.059341 0.297090
0.059341 0.166335
0.914768 0.430481
0.404777 0.060877
0.404777 0.163917
0.902256 0.464337
0.393839 0.163917
0.902256 0.428308
0.393839 0.060877
0.925772 0.436738
0.382901 0.163917
0.933939 0.446323
0.382901 0.060877
0.938284 0.458081
0.371963 0.163917
0.938284 0.470594
0.371963 0.060877
0.933939 0.482352
0.361024 0.163917
0.925772 0.491937
0.361024 0.060877
0.914768 0.498193
0.350086 0.163917
0.902256 0.500366
0.350086 0.060877
0.889743 0.498193
0.339147 0.163917
0.878739 0.491937
0.339147 0.060877
0.870572 0.482352
0.328207 0.163917
0.866227 0.470594
0.328207 0.060877
0.866227 0.458081
0.317268 0.163917
0.870572 0.446323
0.317268 0.060877
0.878739 0.436738
0.914768 0.498193
0.866227 0.470594
0.870572 0.482352
0.914768 0.430481
0.889743 0.430481
0.306328 0.163917
0.306328 0.060877
0.295388 0.163917
0.295388 0.060877
0.284447 0.163917
0.284447 0.060877
0.273507 0.163917
0.273507 0.060877
0.262566 0.163917
0.262566 0.060877
0.448535 0.163917
0.448535 0.060877
0.437594 0.163917
0.437594 0.060877
0.426655 0.163917
0.426655 0.060877
0.415716 0.163917
0.415716 0.060877
-0.009130 0.164033
-0.009130 0.060723
-0.022161 0.164033
-0.022161 0.060723
-0.035193 0.164033
-0.035193 0.060723
-0.048225 0.164033
-0.048225 0.060723
-0.061257 0.164033
-0.061257 0.060723
0.160290 0.164033
0.160290 0.060723
0.147258 0.164033
0.147258 0.060723
0.134226 0.164033
0.134226 0.060723
0.121193 0.164033
0.121193 0.060723
0.612836 0.298215
0.612836 0.165854
0.605266 0.298215
0.605266 0.165854
0.597696 0.298215
0.597696 0.165854
0.590127 0.298215
0.590127 0.165854
0.582557 0.298215
0.582557 0.165854
0.574987 0.298215
0.574987 0.165854
0.567418 0.298215
0.567418 0.165854
0.559848 0.298215
0.559848 0.165854
0.552277 0.298215
0.552277 0.165854
0.902256 0.464337
0.870572 0.482352
0.878739 0.491937
0.889743 0.498193
0.902256 0.500366
0.914768 0.498193
0.925772 0.491937
0.933939 0.482352
0.938284 0.470594
0.938284 0.458081
0.933939 0.446323
0.925772 0.436738
0.914768 0.430481
0.902256 0.428308
0.889743 0.430481
0.878739 0.436738
0.870572 0.446323
0.866227 0.458081
0.902256 0.464337
0.902256 0.428308
0.925772 0.436738
0.933939 0.446323
0.938284 0.458081
0.938284 0.470594
0.933939 0.482352
0.925772 0.491937
0.914768 0.498193
0.902256 0.500366
0.889743 0.498193
0.878739 0.491937
0.870572 0.482352
0.866227 0.470594
0.866227 0.458081
0.870572 0.446323
0.878739 0.436738
0.889743 0.430481
0.717496 0.164092
0.717496 0.096508
0.173323 0.164033
0.173323 0.060723
0.217491 0.297090
0.217491 0.166335
0.459475 0.060877
0.459475 0.163917
0.635547 0.165854
0.635547 0.298215
0.708468 0.096508
0.708468 0.164092
0.699440 0.164092
0.699440 0.096508
0.690412 0.164092
0.690412 0.096508
0.681384 0.164092
0.681384 0.096508
0.672356 0.164092
0.672356 0.096508
0.663328 0.164092
0.663328 0.096508
0.654300 0.164092
0.654300 0.096508
0.645272 0.164092
0.645272 0.096508
0.636244 0.164092
0.636244 0.096508
0.627216 0.164092
0.627216 0.096508
0.618189 0.164092
0.618189 0.096508
0.609161 0.164092
0.609161 0.096508
0.600134 0.164092
0.600134 0.096508
0.591106 0.164092
0.591106 0.096508
0.582078 0.164092
0.582078 0.096508
0.573050 0.164092
0.573050 0.096508
0.564022 0.164092
0.564022 0.096508
0.554994 0.164092
0.554994 0.096508
0.717496 0.096508
0.717496 0.164092
0.866227 0.470594
0.902256 0.464337
0.870572 0.482352
0.878739 0.491937
0.889743 0.498193
0.902256 0.500366
0.914768 0.498193
0.925772 0.491937
0.933939 0.482352
0.938284 0.470594
0.938284 0.458081
0.933939 0.446323
0.925772 0.436738
0.914768 0.430481
0.902256 0.428308
0.889743 0.430481
0.878739 0.436738
0.870572 0.446323
0.866227 0.458081
0.708468 0.096508
0.708468 0.164092
0.699440 0.164092
0.699440 0.096508
0.690412 0.164092
0.690412 0.096508
0.681384 0.164092
0.681384 0.096508
0.672356 0.164092
0.672356 0.096508
0.663328 0.164092
0.663328 0.096508
0.654300 0.164092
0.654300 0.096508
0.645272 0.164092
0.645272 0.096508
0.636244 0.164092
0.636244 0.096508
0.627216 0.164092
0.627216 0.096508
0.618189 0.164092
0.618189 0.096508
0.609161 0.164092
0.609161 0.096508
0.600134 0.164092
0.600134 0.096508
0.591106 0.164092
0.591106 0.096508
0.582078 0.164092
0.582078 0.096508
0.573050 0.164092
0.573050 0.096508
0.564022 0.164092
0.564022 0.096508
0.554994 0.164092
0.554994 0.096508
0.717496 0.096508
0.717496 0.164092
0.866227 0.470594
0.902256 0.464337
0.870572 0.482352
0.878739 0.491937
0.889743 0.498193
0.902256 0.500366
0.914768 0.498193
0.925772 0.491937
0.933939 0.482352
0.938284 0.470594
0.938284 0.458081
0.933939 0.446323
0.925772 0.436738
0.914768 0.430481
0.902256 0.428308
0.889743 0.430481
0.878739 0.436738
0.870572 0.446323
0.866227 0.458081
</float_array>
          <technique_common>
            <accessor source="#axels-UV0-array" count="399" stride="2">
              <param name="S" type="float"/>
              <param name="T" type="float"/>
            </accessor>
          </technique_common>
        </source>
        <vertices id="axels-VERTEX">
          <input semantic="POSITION" source="#axels-POSITION"/>
        </vertices>
        <triangles count="378" material="Material #30">
          <input semantic="VERTEX" offset="0" source="#axels-VERTEX"/>
          <input semantic="NORMAL" offset="1" source="#axels-Normal0"/>
          <input semantic="TEXCOORD" offset="2" set="0" source="#axels-UV0"/>
          <p> 2 0 4 1 1 6 0 2 1 2 3 4 0 4 1 3 5 2 5 6 8 4 7 10 1 8 6 5 9 8 1 10 6 2 11 4 7 12 12 4 13 10 5 14 8 4 15 10 7 16 12 6 17 14 9 18 16 6 19 14 7 20 12 6 21 14 9 22 16 8 23 18 11 24 20 8 25 18 9 26 16 8 27 18 11 28 20 10 29 22 13 30 24 10 31 22 11 32 20 10 33 22 13 34 24 12 35 26 15 36 28 12 37 26 13 38 24 12 39 26 15 40 28 14 41 30 16 42 34 15 43 28 17 44 32 15 45 28 16 46 34 14 47 30 18 48 204 17 49 32 19 50 203 17 51 32 18 52 204 16 53 34 20 54 206 19 55 203 21 56 205 19 57 203 20 58 206 18 59 204 22 60 208 21 61 205 23 62 207 21 63 205 22 64 208 20 65 206 25 66 209 24 67 210 22 68 208 25 69 209 22 70 208 23 71 207 27 72 211 26 73 212 24 74 210 27 75 211 24 76 210 25 77 209 29 78 213 28 79 214 26 80 278 29 81 213 26 82 278 27 83 277 31 84 215 30 85 216 28 86 214 31 87 215 28 88 214 29 89 213 33 90 217 32 91 218 30 92 216 33 93 217 30 94 216 31 95 215 35 96 219 34 97 220 32 98 218 35 99 219 32 100 218 33 101 217 3 102 2 0 103 1 34 104 220 3 105 2 34 106 220 35 107 219 38 108 38 37 109 39 36 110 36 38 111 38 36 112 36 39 113 37 41 114 40 40 115 41 37 116 39 41 117 40 37 118 39 38 119 38 43 120 42 40 121 41 41 122 40 40 123 41 43 124 42 42 125 43 45 126 44 42 127 43 43 128 42 42 129 43 45 130 44 44 131 45 47 132 46 44 133 45 45 134 44 44 135 45 47 136 46 46 137 47 49 138 48 46 139 47 47 140 46 46 141 47 49 142 48 48 143 49 49 144 48 50 145 51 48 146 49 50 147 51 49 148 48 51 149 50 51 150 50 52 151 53 50 152 51 52 153 53 51 154 50 53 155 52 53 156 52 54 157 55 52 158 53 54 159 55 53 160 52 55 161 54 55 162 54 56 163 57 54 164 55 56 165 57 55 166 54 57 167 56 57 168 56 58 169 59 56 170 57 58 171 59 57 172 56 59 173 58 61 174 60 60 175 61 58 176 59 58 177 59 59 178 58 61 179 60 63 180 62 62 181 63 60 182 61 60 183 61 61 184 60 63 185 62 65 186 64 64 187 65 62 188 63 62 189 63 63 190 62 65 191 64 67 192 66 66 193 67 64 194 65 64 195 65 65 196 64 67 197 66 69 198 68 68 199 69 66 200 67 69 201 68 66 202 67 67 203 66 71 204 70 70 205 71 68 206 69 71 207 70 68 208 69 69 209 68 39 210 37 36 211 36 70 212 276 39 213 37 70 214 276 71 215 275 75 216 75 73 217 79 72 218 72 73 219 79 75 220 75 74 221 77 74 222 77 76 223 83 73 224 79 76 225 83 74 226 77 77 227 81 77 228 81 78 229 87 76 230 83 78 231 87 77 232 81 79 233 85 79 234 85 80 235 91 78 236 87 80 237 91 79 238 85 81 239 89 80 240 91 81 241 89 83 242 93 80 243 91 83 244 93 82 245 95 82 246 95 83 247 93 85 248 97 82 249 95 85 250 97 84 251 99 87 252 101 84 253 283 85 254 284 84 255 283 87 256 101 86 257 103 86 258 103 87 259 101 89 260 105 86 261 103 89 262 105 88 263 107 88 264 107 89 265 105 91 266 221 88 267 107 91 268 221 90 269 222 93 270 223 92 271 224 90 272 222 90 273 222 91 274 221 93 275 223 95 276 225 94 277 226 92 278 224 92 279 224 93 280 223 95 281 225 97 282 227 96 283 228 94 284 226 94 285 226 95 286 225 97 287 227 99 288 229 98 289 230 96 290 228 96 291 228 97 292 227 99 293 229 101 294 231 100 295 232 98 296 230 101 297 231 98 298 230 99 299 229 103 300 233 102 301 234 100 302 232 103 303 233 100 304 232 101 305 231 105 306 235 104 307 236 102 308 234 105 309 235 102 310 234 103 311 233 107 312 237 106 313 238 104 314 236 107 315 237 104 316 236 105 317 235 75 318 75 72 319 72 106 320 238 75 321 75 106 322 238 107 323 237 110 324 110 108 325 108 111 326 109 108 327 108 110 328 110 109 329 111 113 330 112 109 331 111 110 332 110 109 333 111 113 334 112 112 335 113 115 336 114 114 337 115 112 338 113 115 339 114 112 340 113 113 341 112 117 342 116 116 343 117 114 344 115 117 345 116 114 346 115 115 347 114 119 348 118 118 349 119 116 350 280 119 351 118 116 352 280 117 353 279 121 354 120 120 355 121 118 356 119 121 357 120 118 358 119 119 359 118 123 360 122 122 361 123 120 362 121 123 363 122 120 364 121 121 365 120 125 366 124 124 367 125 122 368 123 122 369 123 123 370 122 125 371 124 127 372 126 126 373 127 124 374 125 124 375 125 125 376 124 127 377 126 128 378 129 127 379 126 129 380 128 127 381 126 128 382 129 126 383 127 131 384 130 130 385 131 128 386 129 128 387 129 129 388 128 131 389 130 133 390 132 130 391 131 131 392 130 130 393 131 133 394 132 132 395 133 135 396 134 132 397 133 133 398 132 132 399 133 135 400 134 134 401 135 134 402 135 135 403 134 137 404 136 134 405 135 137 406 136 136 407 137 139 408 138 136 409 137 137 410 136 136 411 137 139 412 138 138 413 139 141 414 140 138 415 139 139 416 138 138 417 139 141 418 140 140 419 141 143 420 142 140 421 141 141 422 140 140 423 141 143 424 142 142 425 143 111 426 109 142 427 143 143 428 142 142 429 143 111 430 109 108 431 108 146 432 148 144 433 145 147 434 146 144 435 145 146 436 148 145 437 150 145 438 150 146 439 148 149 440 152 145 441 150 149 442 152 148 443 154 151 444 156 150 445 158 148 446 154 151 447 156 148 448 154 149 449 152 153 450 160 152 451 162 150 452 158 153 453 160 150 454 158 151 455 156 155 456 164 154 457 166 152 458 162 155 459 164 152 460 162 153 461 160 157 462 168 156 463 170 154 464 166 157 465 168 154 466 166 155 467 164 159 468 172 158 469 174 156 470 170 159 471 172 156 472 170 157 473 168 158 474 174 159 475 172 161 476 176 158 477 174 161 478 176 160 479 178 160 480 178 161 481 176 163 482 185 160 483 178 163 484 185 162 485 186 163 486 185 164 487 188 162 488 186 164 489 188 163 490 185 165 491 187 164 492 188 165 493 187 167 494 189 164 495 188 167 496 189 166 497 190 166 498 190 167 499 189 169 500 191 166 501 190 169 502 191 168 503 192 171 504 193 168 505 192 169 506 191 168 507 192 171 508 193 170 509 194 173 510 195 170 511 281 171 512 282 170 513 281 173 514 195 172 515 196 175 516 197 172 517 196 173 518 195 172 519 196 175 520 197 174 521 198 174 522 198 175 523 197 177 524 199 174 525 198 177 526 199 176 527 200 176 528 200 177 529 199 179 530 201 176 531 200 179 532 201 178 533 202 178 534 202 179 535 201 147 536 146 178 537 202 147 538 146 144 539 145 1 540 0 180 541 3 0 542 5 4 543 7 180 544 3 1 545 0 6 546 9 180 547 3 4 548 7 8 549 11 180 550 3 6 551 9 10 552 13 180 553 3 8 554 11 12 555 15 180 556 3 10 557 13 14 558 17 180 559 3 12 560 15 16 561 19 180 562 3 14 563 17 18 564 21 180 565 3 16 566 19 20 567 23 180 568 3 18 569 21 22 570 25 180 571 3 20 572 23 24 573 27 180 574 3 22 575 25 26 576 29 180 577 3 24 578 27 28 579 31 180 580 3 26 581 29 30 582 33 180 583 3 28 584 31 32 585 35 180 586 3 30 587 33 34 588 180 180 589 3 32 590 35 0 591 5 180 592 3 34 593 180 39 594 181 181 595 239 38 596 240 38 597 240 181 598 239 41 599 241 41 600 241 181 601 239 43 602 242 43 603 242 181 604 239 45 605 243 45 606 243 181 607 239 47 608 244 47 609 244 181 610 239 49 611 245 49 612 245 181 613 239 51 614 246 51 615 246 181 616 239 53 617 247 53 618 247 181 619 239 55 620 248 55 621 248 181 622 239 57 623 249 57 624 249 181 625 239 59 626 250 59 627 250 181 628 239 61 629 251 61 630 251 181 631 239 63 632 252 63 633 252 181 634 239 65 635 253 65 636 253 181 637 239 67 638 254 67 639 254 181 640 239 69 641 255 69 642 255 181 643 239 71 644 256 71 645 256 181 646 239 39 647 181 75 648 73 182 649 74 74 650 76 74 651 76 182 652 74 77 653 78 77 654 78 182 655 74 79 656 80 79 657 80 182 658 74 81 659 82 81 660 82 182 661 74 83 662 84 83 663 84 182 664 74 85 665 86 85 666 86 182 667 74 87 668 88 87 669 88 182 670 74 89 671 90 89 672 90 182 673 74 91 674 92 91 675 92 182 676 74 93 677 94 93 678 94 182 679 74 95 680 96 95 681 96 182 682 74 97 683 98 97 684 98 182 685 74 99 686 100 99 687 100 182 688 74 101 689 102 101 690 102 182 691 74 103 692 104 103 693 104 182 694 74 105 695 106 105 696 106 182 697 74 107 698 182 107 699 182 182 700 74 75 701 73 109 702 183 183 703 257 108 704 258 112 705 259 183 706 257 109 707 183 114 708 260 183 709 257 112 710 259 116 711 261 183 712 257 114 713 260 118 714 262 183 715 257 116 716 261 120 717 263 183 718 257 118 719 262 122 720 264 183 721 257 120 722 263 124 723 265 183 724 257 122 725 264 126 726 266 183 727 257 124 728 265 128 729 267 183 730 257 126 731 266 130 732 268 183 733 257 128 734 267 132 735 269 183 736 257 130 737 268 134 738 270 183 739 257 132 740 269 136 741 271 183 742 257 134 743 270 138 744 272 183 745 257 136 746 271 140 747 273 183 748 257 138 749 272 142 750 274 183 751 257 140 752 273 108 753 258 183 754 257 142 755 274 145 756 144 184 757 147 144 758 149 148 759 151 184 760 147 145 761 144 150 762 153 184 763 147 148 764 151 152 765 155 184 766 147 150 767 153 154 768 157 184 769 147 152 770 155 156 771 159 184 772 147 154 773 157 158 774 161 184 775 147 156 776 159 160 777 163 184 778 147 158 779 161 162 780 165 184 781 147 160 782 163 164 783 167 184 784 147 162 785 165 166 786 169 184 787 147 164 788 167 168 789 171 184 790 147 166 791 169 170 792 173 184 793 147 168 794 171 172 795 175 184 796 147 170 797 173 174 798 177 184 799 147 172 800 175 176 801 179 184 802 147 174 803 177 178 804 184 184 805 147 176 806 179 144 807 149 184 808 147 178 809 184 187 810 287 188 811 288 185 812 285 187 813 287 185 814 285 186 815 286 189 816 289 190 817 290 188 818 288 189 819 289 188 820 288 187 821 287 191 822 291 190 823 290 189 824 289 190 825 290 191 826 291 192 827 292 193 828 293 192 829 292 191 830 291 192 831 292 193 832 293 194 833 294 195 834 295 194 835 294 193 836 293 194 837 294 195 838 295 196 839 296 197 840 297 196 841 296 195 842 295 196 843 296 197 844 297 198 845 298 197 846 297 200 847 300 198 848 298 200 849 300 197 850 297 199 851 299 199 852 299 202 853 302 200 854 300 202 855 302 199 856 299 201 857 301 201 858 301 204 859 304 202 860 302 204 861 304 201 862 301 203 863 303 203 864 303 206 865 306 204 866 304 206 867 306 203 868 303 205 869 305 205 870 305 208 871 308 206 872 306 208 873 308 205 874 305 207 875 307 209 876 309 210 877 310 208 878 308 208 879 308 207 880 307 209 881 309 212 882 312 210 883 310 211 884 311 210 885 310 209 886 309 211 887 311 214 888 314 212 889 312 213 890 313 212 891 312 211 892 311 213 893 313 215 894 315 216 895 316 214 896 314 214 897 314 213 898 313 215 899 315 217 900 317 218 901 318 216 902 316 217 903 317 216 904 316 215 905 315 219 906 319 220 907 320 218 908 318 219 909 319 218 910 318 217 911 317 186 912 286 185 913 285 220 914 321 186 915 286 220 916 321 219 917 322 186 918 323 221 919 324 187 920 325 187 921 325 221 922 324 189 923 326 189 924 326 221 925 324 191 926 327 191 927 327 221 928 324 193 929 328 193 930 328 221 931 324 195 932 329 195 933 329 221 934 324 197 935 330 197 936 330 221 937 324 199 938 331 199 939 331 221 940 324 201 941 332 201 942 332 221 943 324 203 944 333 203 945 333 221 946 324 205 947 334 205 948 334 221 949 324 207 950 335 207 951 335 221 952 324 209 953 336 209 954 336 221 955 324 211 956 337 211 957 337 221 958 324 213 959 338 213 960 338 221 961 324 215 962 339 215 963 339 221 964 324 217 965 340 217 966 340 221 967 324 219 968 341 219 969 341 221 970 324 186 971 323 224 972 344 225 973 345 222 974 342 224 975 344 222 976 342 223 977 343 226 978 346 227 979 347 225 980 345 226 981 346 225 982 345 224 983 344 228 984 348 227 985 347 226 986 346 227 987 347 228 988 348 229 989 349 230 990 350 229 991 349 228 992 348 229 993 349 230 994 350 231 995 351 232 996 352 231 997 351 230 998 350 231 999 351 232 1000 352 233 1001 353 234 1002 354 233 1003 353 232 1004 352 233 1005 353 234 1006 354 235 1007 355 234 1008 354 237 1009 357 235 1010 355 237 1011 357 234 1012 354 236 1013 356 236 1014 356 239 1015 359 237 1016 357 239 1017 359 236 1018 356 238 1019 358 238 1020 358 241 1021 361 239 1022 359 241 1023 361 238 1024 358 240 1025 360 240 1026 360 243 1027 363 241 1028 361 243 1029 363 240 1030 360 242 1031 362 242 1032 362 245 1033 365 243 1034 363 245 1035 365 242 1036 362 244 1037 364 247 1038 367 245 1039 365 246 1040 366 245 1041 365 244 1042 364 246 1043 366 249 1044 369 247 1045 367 248 1046 368 247 1047 367 246 1048 366 248 1049 368 251 1050 371 249 1051 369 250 1052 370 249 1053 369 248 1054 368 250 1055 370 253 1056 373 251 1057 371 252 1058 372 251 1059 371 250 1060 370 252 1061 372 254 1062 374 255 1063 375 253 1064 373 254 1065 374 253 1066 373 252 1067 372 256 1068 376 257 1069 377 255 1070 375 256 1071 376 255 1072 375 254 1073 374 223 1074 343 222 1075 342 257 1076 378 223 1077 343 257 1078 378 256 1079 379 223 1080 380 258 1081 381 224 1082 382 224 1083 382 258 1084 381 226 1085 383 226 1086 383 258 1087 381 228 1088 384 228 1089 384 258 1090 381 230 1091 385 230 1092 385 258 1093 381 232 1094 386 232 1095 386 258 1096 381 234 1097 387 234 1098 387 258 1099 381 236 1100 388 236 1101 388 258 1102 381 238 1103 389 238 1104 389 258 1105 381 240 1106 390 240 1107 390 258 1108 381 242 1109 391 242 1110 391 258 1111 381 244 1112 392 244 1113 392 258 1114 381 246 1115 393 246 1116 393 258 1117 381 248 1118 394 248 1119 394 258 1120 381 250 1121 395 250 1122 395 258 1123 381 252 1124 396 252 1125 396 258 1126 381 254 1127 397 254 1128 397 258 1129 381 256 1130 398 256 1131 398 258 1132 381 223 1133 380</p>
        </triangles>
      </mesh>
    </geometry>
  </library_geometries>
  <library_visual_scenes>
    <visual_scene id="" name="">
      <node name="axels" id="axels" layer="cog_puzzle_housing" sid="axels">
        <matrix sid="matrix">1.000000 0.000000 0.000000 0.000000 0.000000 1.000000 0.000000 0.000000 0.000000 0.000000 1.000000 0.000000 0.000000 0.000000 0.000000 1.000000</matrix>
        <instance_geometry url="#axels-lib">
          <bind_material>
            <technique_common>
              <instance_material symbol="Material #30" target="#Material #30"/>
            </technique_common>
          </bind_material>
        </instance_geometry>
        <extra>
          <technique profile="FCOLLADA">
            <visibility>1.000000</visibility>
          </technique>
        </extra>
      </node>
      <extra>
        <technique profile="MAX3D">
          <frame_rate>30.000000</frame_rate>
        </technique>
        <technique profile="FCOLLADA">
          <start_time>-0.033333</start_time>
          <end_time>0.000000</end_time>
        </technique>
      </extra>
    </visual_scene>
  </library_visual_scenes>
  <scene>
    <instance_visual_scene url="#"></instance_visual_scene>
  </scene>
</COLLADA>

