﻿<?xml version="1.0" encoding="utf-8"?>
<COLLADA xmlns="http://www.collada.org/2005/11/COLLADASchema" version="1.4.1">
  <asset>
    <contributor>
      <author>Bulgur</author>
      <authoring_tool>COLLADAMax</authoring_tool>
      <source_data>file://</source_data>
    </contributor>
    <created>2010-04-28T09:35:55Z</created>
    <modified>2010-04-28T09:35:55Z</modified>
    <up_axis>Z_UP</up_axis>
    <hpl2scaling />
  </asset>
  <library_effects>
    <effect id="ColorEffectR0G0B0">
      <profile_COMMON>
        <technique sid="common">
          <phong>
            <ambient>
              <color>0 0 0 1</color>
            </ambient>
            <diffuse>
              <color>0 0 0 1</color>
            </diffuse>
            <specular>
              <color>1 1 1 1</color>
            </specular>
            <shininess>
              <float>10</float>
            </shininess>
            <reflective>
              <color>0 0 0 1</color>
            </reflective>
            <transparent>
              <color>1 1 1 1</color>
            </transparent>
            <transparency>
              <float>1</float>
            </transparency>
          </phong>
        </technique>
      </profile_COMMON>
    </effect>
    <effect id="_1_-_Default">
      <profile_COMMON>
        <newparam sid="dirt_floor03_dds-surface">
          <surface type="2D">
            <init_from>dirt_floor03_dds</init_from>
          </surface>
        </newparam>
        <newparam sid="dirt_floor03_dds-sampler">
          <sampler2D>
            <source>dirt_floor03_dds-surface</source>
          </sampler2D>
        </newparam>
        <technique sid="common">
          <blinn>
            <emission>
              <color>0 0 0 1</color>
            </emission>
            <ambient>
              <color>0.588235 0.588235 0.588235 1</color>
            </ambient>
            <diffuse>
              <texture texture="dirt_floor03_dds-sampler" texcoord="CHANNEL1" />
            </diffuse>
            <specular>
              <color>0.9 0.9 0.9 1</color>
            </specular>
            <shininess>
              <float>10</float>
            </shininess>
            <reflective>
              <color>0 0 0 1</color>
            </reflective>
            <transparent opaque="A_ONE">
              <color>1 1 1 1</color>
            </transparent>
            <transparency>
              <float>1</float>
            </transparency>
          </blinn>
        </technique>
      </profile_COMMON>
      <extra>
        <technique profile="3dsMAX">
          <extended_shader>
            <apply_reflection_dimming>0</apply_reflection_dimming>
            <dim_level>0</dim_level>
            <falloff_type>0</falloff_type>
            <index_of_refraction>1.5</index_of_refraction>
            <opacity_type>0</opacity_type>
            <reflection_level>3</reflection_level>
            <wire_size>1</wire_size>
            <wire_units>0</wire_units>
          </extended_shader>
          <shader>
            <ambient_diffuse_lexture_lock>1</ambient_diffuse_lexture_lock>
            <ambient_diffuse_lock>1</ambient_diffuse_lock>
            <diffuse_specular_lock>0</diffuse_specular_lock>
            <soften>0.1</soften>
            <use_self_illum_color>0</use_self_illum_color>
          </shader>
        </technique>
      </extra>
    </effect>
  </library_effects>
  <library_materials>
    <material id="ColorEffectR0G0B0-material" name="ColorEffectR0G0B0-material">
      <instance_effect url="#ColorEffectR0G0B0" />
    </material>
    <material id="_1_-_Default-material" name="_1_-_Default-material">
      <instance_effect url="#_1_-_Default" />
    </material>
  </library_materials>
  <library_geometries>
    <geometry id="geom-pPlane1" name="pPlane1">
      <mesh>
        <source id="geom-pPlane1-positions">
          <float_array id="geom-pPlane1-positions-array" count="12">-0.5 -0.5 0 0.5 -0.5 0 -0.5 0.5 0 0.5 0.5 0</float_array>
          <technique_common>
            <accessor source="#geom-pPlane1-positions-array" count="4" stride="3">
              <param name="X" type="float" />
              <param name="Y" type="float" />
              <param name="Z" type="float" />
            </accessor>
          </technique_common>
        </source>
        <source id="geom-pPlane1-normals">
          <float_array id="geom-pPlane1-normals-array" count="12">0 0 1 0 0 1 0 0 1 0 0 1</float_array>
          <technique_common>
            <accessor source="#geom-pPlane1-normals-array" count="4" stride="3">
              <param name="X" type="float" />
              <param name="Y" type="float" />
              <param name="Z" type="float" />
            </accessor>
          </technique_common>
        </source>
        <source id="geom-pPlane1-map-channel1">
          <float_array id="geom-pPlane1-map-channel1-array" count="12">0.010898 0.931275 0 1.0109 0.931275 0 0.010898 0.068725 0 1.0109 0.068725 0</float_array>
          <technique_common>
            <accessor source="#geom-pPlane1-map-channel1-array" count="4" stride="3">
              <param name="S" type="float" />
              <param name="T" type="float" />
              <param name="P" type="float" />
            </accessor>
          </technique_common>
        </source>
        <vertices id="geom-pPlane1-vertices">
          <input semantic="POSITION" source="#geom-pPlane1-positions" />
        </vertices>
        <triangles material="_1_-_Default_1" count="2">
          <input semantic="VERTEX" source="#geom-pPlane1-vertices" offset="0" />
          <input semantic="NORMAL" source="#geom-pPlane1-normals" offset="1" />
          <input semantic="TEXCOORD" source="#geom-pPlane1-map-channel1" offset="2" set="1" />
          <p>0 0 0 1 1 1 2 2 2 1 1 1 3 3 3 2 2 2</p>
        </triangles>
      </mesh>
    </geometry>
  </library_geometries>
  <library_images>
    <image id="dirt_floor03_dds">
      <init_from>file:///F:\Amnesia\redist\static_objects\decals\dirt_floor03.dds</init_from>
    </image>
  </library_images>
  <library_visual_scenes>
    <visual_scene id="MaxScene">
      <node id="node-Scene_Root" name="Scene_Root">
        <node id="node-pPlane1" name="pPlane1">
          <instance_geometry url="#geom-pPlane1">
            <bind_material>
              <technique_common>
                <instance_material symbol="_1_-_Default_1" target="#_1_-_Default-material" />
              </technique_common>
            </bind_material>
          </instance_geometry>
        </node>
      </node>
    </visual_scene>
  </library_visual_scenes>
  <scene>
    <instance_visual_scene url="#MaxScene" />
  </scene>
</COLLADA>