﻿<?xml version="1.0" encoding="utf-8"?>
<COLLADA xmlns="http://www.collada.org/2005/11/COLLADASchema" version="1.4.1">
  <asset>
    <contributor>
      <author>marc</author>
      <authoring_tool>Maya7.0 | ColladaMaya v3.05B</authoring_tool>
      <comments>ColladaMaya export options: bakeTransforms=0;exportPolygonMeshes=1;bakeLighting=0;isSampling=0;
curveConstrainSampling=0;removeStaticCurves=1;exportCameraAsLookat=0;
exportLights=1;exportCameras=1;exportJointsAndSkin=1;
exportAnimations=1;exportTriangles=1;exportInvisibleNodes=0;
exportNormals=1;exportTexCoords=1;
exportVertexColors=1;exportVertexColorsAnimation=0;exportTangents=0;
exportTexTangents=0;exportConstraints=1;exportPhysics=1;exportXRefs=1;
dereferenceXRefs=0;cameraXFov=0;cameraYFov=1</comments>
      <source_data>file:///E:/lux/untitled</source_data>
    </contributor>
    <created>2009-01-23T20:14:56Z</created>
    <modified>2009-03-20T15:56:35Z</modified>
    <up_axis>Y_UP</up_axis>
    <hpl2scaling />
  </asset>
  <library_physics_scenes>
    <physics_scene id="MayaNativePhysicsScene">
      <technique_common>
        <gravity>0 -980 0</gravity>
        <time_step>0.083</time_step>
      </technique_common>
    </physics_scene>
  </library_physics_scenes>
  <library_images>
    <image id="file1" name="file1">
      <init_from>file:///C:/penumbra/lux/redist/static_objects/decals/moist_wall02.dds</init_from>
      <extra>
        <technique profile="MAYA">
          <dgnode_type>kFile</dgnode_type>
          <image_sequence>0</image_sequence>
        </technique>
      </extra>
    </image>
  </library_images>
  <library_materials>
    <material id="lambert1" name="lambert2">
      <instance_effect url="#lambert1-fx" />
    </material>
  </library_materials>
  <library_effects>
    <effect id="lambert1-fx">
      <profile_COMMON>
        <newparam sid="file1-surface">
          <surface type="2D">
            <init_from>file1</init_from>
            <format>A8R8G8B8</format>
          </surface>
        </newparam>
        <newparam sid="file1-sampler">
          <sampler2D>
            <source>file1-surface</source>
            <wrap_s>WRAP</wrap_s>
            <wrap_t>WRAP</wrap_t>
            <minfilter>NONE</minfilter>
            <magfilter>NONE</magfilter>
            <mipfilter>NONE</mipfilter>
          </sampler2D>
        </newparam>
        <technique sid="common">
          <lambert>
            <emission>
              <color>0 0 0 1</color>
            </emission>
            <ambient>
              <color>0 0 0 1</color>
            </ambient>
            <diffuse>
              <texture texture="file1-sampler" texcoord="TEX0">
                <extra>
                  <technique profile="MAYA">
                    <wrapU>1</wrapU>
                    <wrapV>1</wrapV>
                    <mirrorU>0</mirrorU>
                    <mirrorV>0</mirrorV>
                    <coverageU>1</coverageU>
                    <coverageV>1</coverageV>
                    <translateFrameU>0</translateFrameU>
                    <translateFrameV>0</translateFrameV>
                    <rotateFrame>0</rotateFrame>
                    <stagger>0</stagger>
                    <fast>0</fast>
                    <repeatU>1</repeatU>
                    <repeatV>1</repeatV>
                    <offsetU>0</offsetU>
                    <offsetV>0</offsetV>
                    <rotateUV>0</rotateUV>
                    <noiseU>0</noiseU>
                    <noiseV>0</noiseV>
                    <blend_mode>NONE</blend_mode>
                  </technique>
                </extra>
              </texture>
            </diffuse>
            <transparent opaque="RGB_ZERO">
              <color>0 0 0 1</color>
            </transparent>
            <transparency>
              <float>1</float>
            </transparency>
          </lambert>
          <extra>
            <technique profile="FCOLLADA" />
          </extra>
        </technique>
      </profile_COMMON>
    </effect>
  </library_effects>
  <library_geometries>
    <geometry id="pPlaneShape1" name="pPlaneShape1">
      <mesh>
        <source id="pPlaneShape1-positions" name="position">
          <float_array id="pPlaneShape1-positions-array" count="12">-0.5 0 0.5 0.5 0 0.5 -0.5 0 -0.5 0.5 0 -0.5</float_array>
          <technique_common>
            <accessor source="#pPlaneShape1-positions-array" count="4" stride="3">
              <param name="X" type="float" />
              <param name="Y" type="float" />
              <param name="Z" type="float" />
            </accessor>
          </technique_common>
        </source>
        <source id="pPlaneShape1-normals" name="normal">
          <float_array id="pPlaneShape1-normals-array" count="12">0 1 0 0 1 0 0 1 0 0 1 0</float_array>
          <technique_common>
            <accessor source="#pPlaneShape1-normals-array" count="4" stride="3">
              <param name="X" type="float" />
              <param name="Y" type="float" />
              <param name="Z" type="float" />
            </accessor>
          </technique_common>
        </source>
        <source id="pPlaneShape1-map1" name="map1">
          <float_array id="pPlaneShape1-map1-array" count="8">0.010898 0.931275 1.0109 0.931275 0.010898 0.068725 1.0109 0.068725</float_array>
          <technique_common>
            <accessor source="#pPlaneShape1-map1-array" count="4" stride="2">
              <param name="S" type="float" />
              <param name="T" type="float" />
            </accessor>
          </technique_common>
        </source>
        <vertices id="pPlaneShape1-vertices">
          <input semantic="POSITION" source="#pPlaneShape1-positions" />
          <input semantic="NORMAL" source="#pPlaneShape1-normals" />
        </vertices>
        <triangles material="lambert2SG" count="2">
          <input semantic="VERTEX" source="#pPlaneShape1-vertices" offset="0" />
          <input semantic="TEXCOORD" source="#pPlaneShape1-map1" offset="1" set="0" />
          <p>0 0 1 1 2 2 1 1 3 3 2 2</p>
        </triangles>
      </mesh>
      <extra>
        <technique profile="MAYA">
          <double_sided>1</double_sided>
        </technique>
      </extra>
    </geometry>
  </library_geometries>
  <library_visual_scenes>
    <visual_scene id="VisualSceneNode" name="untitled">
      <node id="pPlane1" name="pPlane1" type="NODE">
        <rotate sid="rotateZ">0 0 1 0</rotate>
        <rotate sid="rotateY">0 1 0 0</rotate>
        <rotate sid="rotateX">1 0 0 -90</rotate>
        <instance_geometry url="#pPlaneShape1">
          <bind_material>
            <technique_common>
              <instance_material symbol="lambert2SG" target="#lambert1">
                <bind_vertex_input semantic="TEX0" input_semantic="TEXCOORD" input_set="0" />
              </instance_material>
            </technique_common>
          </bind_material>
        </instance_geometry>
      </node>
      <extra>
        <technique profile="FCOLLADA">
          <start_time>0.041666</start_time>
          <end_time>2</end_time>
        </technique>
      </extra>
    </visual_scene>
  </library_visual_scenes>
  <scene>
    <instance_physics_scene url="#MayaNativePhysicsScene" />
    <instance_visual_scene url="#VisualSceneNode" />
  </scene>
</COLLADA>