﻿<?xml version="1.0" encoding="utf-8"?>
<COLLADA xmlns="http://www.collada.org/2005/11/COLLADASchema" version="1.4.1">
  <asset>
    <contributor>
      <author>Marcus Johansson</author>
      <authoring_tool>Maya8.5 | ColladaMaya v3.05B</authoring_tool>
      <comments>ColladaMaya export options: bakeTransforms=0;exportPolygonMeshes=1;bakeLighting=0;isSampling=0;
curveConstrainSampling=0;removeStaticCurves=0;exportCameraAsLookat=0;
exportLights=1;exportCameras=1;exportJointsAndSkin=1;
exportAnimations=1;exportTriangles=1;exportInvisibleNodes=0;
exportNormals=1;exportTexCoords=1;
exportVertexColors=1;exportVertexColorsAnimation=0;exportTangents=0;
exportTexTangents=0;exportConstraints=1;exportPhysics=1;exportXRefs=1;
dereferenceXRefs=0;cameraXFov=0;cameraYFov=1</comments>
      <source_data>file:///E:/Projects/3d/work/amnesia%20game/arbetsmapp///</source_data>
    </contributor>
    <contributor>
      <author>marc</author>
      <authoring_tool>Maya7.0 | ColladaMaya v3.05B</authoring_tool>
      <comments>ColladaMaya export options: bakeTransforms=0;exportPolygonMeshes=1;bakeLighting=0;isSampling=1;
curveConstrainSampling=0;removeStaticCurves=1;exportCameraAsLookat=0;
exportLights=1;exportCameras=1;exportJointsAndSkin=1;
exportAnimations=1;exportTriangles=1;exportInvisibleNodes=0;
exportNormals=1;exportTexCoords=1;
exportVertexColors=1;exportVertexColorsAnimation=0;exportTangents=0;
exportTexTangents=0;exportConstraints=1;exportPhysics=1;exportXRefs=0;
dereferenceXRefs=0;cameraXFov=0;cameraYFov=1</comments>
      <source_data>file:///E:/lux/redist/static_objects/decals/pool_pee.dae</source_data>
    </contributor>
    <contributor>
      <author>marc</author>
      <authoring_tool>Maya7.0 | ColladaMaya v3.05B</authoring_tool>
      <comments>ColladaMaya export options: bakeTransforms=0;exportPolygonMeshes=1;bakeLighting=0;isSampling=1;
curveConstrainSampling=0;removeStaticCurves=1;exportCameraAsLookat=0;
exportLights=1;exportCameras=1;exportJointsAndSkin=1;
exportAnimations=1;exportTriangles=1;exportInvisibleNodes=0;
exportNormals=1;exportTexCoords=1;
exportVertexColors=1;exportVertexColorsAnimation=0;exportTangents=0;
exportTexTangents=0;exportConstraints=1;exportPhysics=1;exportXRefs=0;
dereferenceXRefs=0;cameraXFov=0;cameraYFov=1</comments>
      <source_data>file:///E:/lux/redist/static_objects/decals/pool_oil.dae</source_data>
    </contributor>
    <created>2010-03-23T16:14:05Z</created>
    <modified>2010-06-28T15:29:40Z</modified>
    <up_axis>Y_UP</up_axis>
    <hpl2scaling />
  </asset>
  <library_physics_scenes>
    <physics_scene id="MayaNativePhysicsScene">
      <technique_common>
        <gravity>0 -980 0</gravity>
        <time_step>0.083</time_step>
      </technique_common>
    </physics_scene>
  </library_physics_scenes>
  <library_images>
    <image id="file1" name="file1">
      <init_from>file:///E:/lux/redist/static_objects/decals/pool_water.dds</init_from>
      <extra>
        <technique profile="MAYA">
          <dgnode_type>kFile</dgnode_type>
          <image_sequence>0</image_sequence>
        </technique>
      </extra>
    </image>
  </library_images>
  <library_materials>
    <material id="blinn1" name="blinn1">
      <instance_effect url="#blinn1-fx" />
    </material>
  </library_materials>
  <library_effects>
    <effect id="blinn1-fx">
      <profile_COMMON>
        <newparam sid="file1-surface">
          <surface type="2D">
            <init_from>file1</init_from>
            <format>A8R8G8B8</format>
          </surface>
        </newparam>
        <newparam sid="file1-sampler">
          <sampler2D>
            <source>file1-surface</source>
            <wrap_s>WRAP</wrap_s>
            <wrap_t>WRAP</wrap_t>
            <minfilter>NONE</minfilter>
            <magfilter>NONE</magfilter>
            <mipfilter>NONE</mipfilter>
          </sampler2D>
        </newparam>
        <technique sid="common">
          <blinn>
            <emission>
              <color>0 0 0 1</color>
            </emission>
            <ambient>
              <color>0 0 0 1</color>
            </ambient>
            <diffuse>
              <texture texture="file1-sampler" texcoord="TEX0">
                <extra>
                  <technique profile="MAYA">
                    <wrapU>1</wrapU>
                    <wrapV>1</wrapV>
                    <mirrorU>0</mirrorU>
                    <mirrorV>0</mirrorV>
                    <coverageU>1</coverageU>
                    <coverageV>1</coverageV>
                    <translateFrameU>0</translateFrameU>
                    <translateFrameV>0</translateFrameV>
                    <rotateFrame>0</rotateFrame>
                    <stagger>0</stagger>
                    <fast>0</fast>
                    <repeatU>1</repeatU>
                    <repeatV>1</repeatV>
                    <offsetU>0</offsetU>
                    <offsetV>0</offsetV>
                    <rotateUV>0</rotateUV>
                    <noiseU>0</noiseU>
                    <noiseV>0</noiseV>
                    <blend_mode>NONE</blend_mode>
                  </technique>
                </extra>
              </texture>
            </diffuse>
            <specular>
              <color>0.5 0.5 0.5 1</color>
            </specular>
            <shininess>
              <float>0.3</float>
            </shininess>
            <reflective>
              <color>0 0 0 1</color>
            </reflective>
            <reflectivity>
              <float>0.5</float>
            </reflectivity>
            <transparent opaque="RGB_ZERO">
              <color>0 0 0 1</color>
            </transparent>
            <transparency>
              <float>1</float>
            </transparency>
          </blinn>
          <extra>
            <technique profile="FCOLLADA" />
          </extra>
        </technique>
      </profile_COMMON>
    </effect>
  </library_effects>
  <library_geometries>
    <geometry id="pee_poolShape" name="pee_poolShape">
      <mesh>
        <source id="pee_poolShape-positions" name="position">
          <float_array id="pee_poolShape-positions-array" count="222">0.365772 0 0.721576 0.281879 0 0.750749 0.174847 0 0.723529 -0.043624 0 0.870805 -0.221477 0 0.877517 -0.379195 0 0.810403 -0.463087 0 0.682886 -0.536913 0 0.598993 -0.741611 0 0.548658 -0.85906 0 0.541946 -0.959732 0 0.491611 -0.989933 0 0.407718 -0.983221 0 0.340604 -0.939597 0 0.283557 -0.838926 0 0.223154 -0.72323 0 0.06208 -0.647651 0 -0.15604 -0.496644 0 -0.278448 -0.244966 0 -0.313758 -0.083892 0 -0.32047 0.046979 0 -0.397651 0.241611 0 -0.575503 0.436242 0 -0.672819 0.661074 0 -0.65604 0.805369 0 -0.555369 0.885906 0 -0.354027 0.912752 0 -0.028523 0.869128 0 0.15604 0.785235 0 0.223154 0.755034 0 0.323825 0.761745 0 0.431208 0.699214 0 0.529775 0.442953 0 0.649329 -0.633402 0.006841 -0.146048 -0.489713 0.00681 -0.262512 -0.24348 0.005786 -0.297383 -0.078995 0.006703 -0.303893 0.056907 0.006055 -0.384223 0.251154 0.00622 -0.561614 0.4396 0.006803 -0.655775 0.655253 0.006795 -0.63968 0.791704 0.006893 -0.544519 0.869458 0.00627 -0.350151 0.895866 0.006307 -0.02979 0.854262 0.007062 0.146636 0.770739 0.006941 0.213369 0.73813 0.006398 0.321881 0.744767 0.006989 0.426846 0.68771 0.006868 0.516685 0.433468 0.006311 0.635298 0.356906 0.006542 0.706903 0.281132 0.006898 0.733312 0.172059 0.007348 0.705922 -0.049053 0.006847 0.854265 -0.218361 0.006591 0.860614 -0.368007 0.006904 0.797001 -0.449935 0.00589 0.672851 -0.527841 0.006948 0.584033 -0.739138 0.005998 0.532196 -0.854653 0.006517 0.525402 -0.946463 0.007253 0.479823 -0.972865 0.006602 0.405609 -0.96704 0.006834 0.346997 -0.928229 0.006452 0.296282 -0.827328 0.006519 0.235751 -0.708244 0.006249 0.069848 -0.466008 0.006424 -0.154666 0.061909 0.006382 -0.251386 0.338979 0.006512 -0.559318 0.78393 0.006659 -0.361125 0.63661 0.006753 0.383741 0.255754 0.006789 0.612492 -0.155605 0.006558 0.662584 -0.717538 0.006566 0.377836</float_array>
          <technique_common>
            <accessor source="#pee_poolShape-positions-array" count="74" stride="3">
              <param name="X" type="float" />
              <param name="Y" type="float" />
              <param name="Z" type="float" />
            </accessor>
          </technique_common>
        </source>
        <source id="pee_poolShape-normals" name="normal">
          <float_array id="pee_poolShape-normals-array" count="225">0.001036 0.999999 0.000242 -0.000641 1 -0.000493 -0.000879 0.999999 0.000924 0.001632 0.999998 -0.001203 -0.299525 0.930678 -0.210053 -0.19698 0.97055 -0.138681 -0.1767 0.930317 -0.321382 -0.066218 0.977216 -0.201654 -0.036314 0.937915 -0.344958 -0.013162 0.985003 -0.172034 -0.052689 0.983702 -0.171915 -0.098581 0.938595 -0.330638 -0.100573 0.983802 -0.148385 -0.213781 0.939229 -0.268603 -0.128304 0.977505 -0.167399 -0.187598 0.934624 -0.302134 -0.04652 0.970426 -0.236872 -0.070507 0.931144 -0.357769 0.122776 0.930699 -0.344565 0.048939 0.989179 -0.138312 0.189594 0.970213 -0.150804 0.287743 0.930057 -0.228467 0.344092 0.933645 -0.099533 0.210787 0.976811 -0.037533 0.357093 0.93367 0.027296 0.180214 0.98356 0.01153 0.206641 0.969601 0.131049 0.314843 0.928008 0.199187 0.299445 0.931376 0.207054 0.124049 0.988545 0.085968 0.218091 0.975155 0.038841 0.362153 0.931965 0.016904 0.235809 0.969934 0.060177 0.358705 0.928892 0.092148 0.27032 0.928885 0.253178 0.127187 0.975903 0.177303 0.200214 0.933558 0.297295 0.079914 0.98979 0.11802 0.126393 0.976394 0.175156 0.166053 0.931701 0.323048 0.011473 0.968447 0.248954 0.015731 0.929997 0.367229 0.063423 0.930568 0.360583 0.027387 0.988347 0.149732 0.078698 0.968035 0.238147 0.11351 0.930605 0.34798 -0.066269 0.930921 0.359159 -0.032752 0.98335 0.178744 -0.151934 0.971483 0.182036 -0.235673 0.929925 0.282308 -0.285395 0.93643 0.204078 -0.167161 0.976568 0.135545 -0.178713 0.937935 0.29722 -0.077946 0.988317 0.130974 -0.039266 0.976225 0.213173 -0.039254 0.938048 0.344274 -0.036859 0.976801 0.210954 -0.118747 0.929071 0.350322 -0.179864 0.970699 0.159351 -0.282803 0.925691 0.251233 -0.367552 0.928891 0.045469 -0.18084 0.983312 0.019845 -0.223994 0.97052 -0.088978 -0.340033 0.930769 -0.134341 -0.255946 0.932777 -0.25381 -0.132527 0.976106 -0.172204 -0.238053 0.935962 -0.259433 -0.122172 0.983527 -0.133221 -0.15398 0.984019 -0.089428 -0.325185 0.934131 -0.147152 -0.001813 0.999998 -0.000281 0.001253 0.999999 -0.000032 0.000409 1 0.000513 0.000589 1 -0.000338 -0.000166 1 -0.000433</float_array>
          <technique_common>
            <accessor source="#pee_poolShape-normals-array" count="75" stride="3">
              <param name="X" type="float" />
              <param name="Y" type="float" />
              <param name="Z" type="float" />
            </accessor>
          </technique_common>
        </source>
        <source id="pee_poolShape-map1" name="map1">
          <float_array id="pee_poolShape-map1-array" count="148">0.275361 0.63508 0.4385 0.205555 0.654699 0.231882 0.55282 0.685913 0.179894 0.635802 0.187383 0.63055 0.262902 0.691761 0.259259 0.700136 0.392315 0.710088 0.391534 0.718695 0.478764 0.71351 0.47619 0.722222 0.550191 0.755729 0.544973 0.762786 0.652282 0.848961 0.647266 0.856261 0.751324 0.89845 0.749559 0.907407 0.864665 0.88999 0.867725 0.898589 0.936381 0.839976 0.943562 0.845679 0.977246 0.737822 0.98589 0.739859 0.991125 0.569449 1 0.568783 0.969259 0.476724 0.977072 0.471781 0.925362 0.441651 0.93298 0.436508 0.908223 0.38462 0.917107 0.383598 0.911711 0.329453 0.920635 0.32716 0.881724 0.282236 0.88777 0.275356 0.748101 0.219896 0.753086 0.212522 0.707862 0.182262 0.712522 0.174551 0.668038 0.168383 0.66843 0.159218 0.610712 0.182778 0.612177 0.173524 0.494501 0.104813 0.497354 0.096119 0.405518 0.101476 0.40388 0.092592 0.326868 0.13491 0.320988 0.127866 0.283808 0.200159 0.276896 0.194885 0.242863 0.246839 0.238095 0.238977 0.131811 0.274084 0.130511 0.265432 0.071099 0.277655 0.068782 0.268959 0.022846 0.30161 0.015873 0.295414 0.00897 0.340614 0 0.339506 0.012031 0.371419 0.003527 0.374779 0.032429 0.398074 0.026454 0.404762 0.08546 0.429887 0.079365 0.436508 0.148048 0.517081 0.140172 0.521164 0.698441 0.847754 0.932295 0.74359 0.854867 0.352108 0.143164 0.355211</float_array>
          <technique_common>
            <accessor source="#pee_poolShape-map1-array" count="74" stride="2">
              <param name="S" type="float" />
              <param name="T" type="float" />
            </accessor>
          </technique_common>
        </source>
        <vertices id="pee_poolShape-vertices">
          <input semantic="POSITION" source="#pee_poolShape-positions" />
        </vertices>
        <triangles material="blinn1SG" count="113">
          <input semantic="VERTEX" source="#pee_poolShape-vertices" offset="0" />
          <input semantic="NORMAL" source="#pee_poolShape-normals" offset="1" />
          <input semantic="TEXCOORD" source="#pee_poolShape-map1" offset="2" set="0" />
          <p>66 0 0 72 1 1 67 2 3 67 2 3 72 1 1 71 3 2 16 4 4 33 5 5 17 6 7 17 6 7 33 5 5 34 7 6 17 6 7 34 7 6 18 8 9 18 8 9 34 7 6 35 9 8 36 10 10 19 11 11 35 9 8 35 9 8 19 11 11 18 8 9 36 10 10 37 12 12 19 11 11 19 11 11 37 12 12 20 13 13 37 12 12 38 14 14 20 13 13 20 13 13 38 14 14 21 15 15 38 14 14 39 16 16 21 15 15 21 15 15 39 16 16 22 17 17 22 17 17 39 16 16 23 18 19 23 18 19 39 16 16 40 19 18 40 19 18 41 20 20 23 18 19 23 18 19 41 20 20 24 21 21 24 21 21 41 20 20 25 22 23 25 22 23 41 20 20 42 23 22 25 22 23 42 23 22 26 24 25 26 24 25 42 23 22 43 25 24 43 25 24 44 26 26 26 24 25 26 24 25 44 26 26 27 27 27 27 27 27 44 26 26 28 28 29 28 28 29 44 26 26 45 29 28 45 29 28 46 30 30 28 28 29 28 28 29 46 30 30 29 31 31 46 30 30 47 32 32 29 31 31 29 31 31 47 32 32 30 33 33 30 33 33 47 32 32 31 34 35 31 34 35 47 32 32 48 35 34 31 34 35 48 35 34 32 36 37 32 36 37 48 35 34 49 37 36 49 37 36 50 38 38 32 36 37 32 36 37 50 38 38 0 39 39 50 38 38 51 40 40 0 39 39 0 39 39 51 40 40 1 41 41 1 41 41 51 40 40 2 42 43 2 42 43 51 40 40 52 43 42 52 43 42 53 44 44 2 42 43 2 42 43 53 44 44 3 45 45 3 45 45 53 44 44 4 46 47 4 46 47 53 44 44 54 47 46 54 47 46 55 48 48 4 46 47 4 46 47 55 48 48 5 49 49 5 49 49 55 48 48 6 50 51 6 50 51 55 48 48 56 51 50 6 50 51 56 51 50 7 52 53 7 52 53 56 51 50 57 53 52 57 53 52 58 54 54 7 52 53 7 52 53 58 54 54 8 55 55 58 54 54 59 56 56 8 55 55 8 55 55 59 56 56 9 57 57 59 56 56 60 58 58 9 57 57 9 57 57 60 58 58 10 59 59 10 59 59 60 58 58 11 60 61 11 60 61 60 58 58 61 61 60 61 61 60 62 62 62 11 60 61 11 60 61 62 62 62 12 63 63 12 63 63 62 62 62 13 64 65 13 64 65 62 62 62 63 65 64 13 64 65 63 65 64 14 66 67 14 66 67 63 65 64 64 67 66 64 67 66 65 68 68 14 66 67 14 66 67 65 68 68 15 69 69 65 68 68 33 5 5 15 69 69 15 69 69 33 5 5 16 4 4 33 5 5 66 0 0 34 7 6 34 7 6 66 0 0 35 9 8 66 0 0 67 2 3 35 9 8 35 9 8 67 2 3 36 10 10 36 10 10 67 2 3 37 12 12 67 2 3 68 70 70 37 12 12 37 12 12 68 70 70 38 14 14 38 14 14 68 70 70 39 16 16 39 16 16 68 70 70 40 19 18 40 19 18 68 70 70 69 71 71 40 19 18 69 71 71 41 20 20 41 20 20 69 71 71 42 23 22 42 23 22 69 71 71 43 25 24 43 25 24 69 71 71 44 26 26 44 26 26 69 71 71 45 29 28 45 29 28 70 72 72 46 30 30 46 30 30 70 72 72 47 32 32 47 32 32 70 72 72 48 35 34 48 35 34 70 72 72 49 37 36 49 37 36 70 72 72 71 3 2 49 37 36 71 3 2 50 38 38 50 38 38 71 3 2 51 40 40 51 40 40 71 3 2 52 43 42 71 3 2 72 1 1 52 43 42 52 43 42 72 1 1 53 44 44 53 44 44 72 1 1 54 47 46 54 47 46 72 1 1 55 48 48 55 48 48 72 1 1 56 51 50 56 51 50 72 1 1 57 53 52 57 53 52 72 1 1 73 73 73 57 53 52 73 73 73 58 54 54 58 54 54 73 73 73 59 56 56 59 56 56 73 73 73 60 58 58 60 58 58 73 73 73 61 61 60 61 61 60 73 73 73 62 62 62 62 62 62 73 73 73 63 65 64 63 65 64 73 73 73 64 67 66 64 67 66 73 73 73 65 68 68 65 68 68 73 73 73 66 0 0 65 68 68 66 0 0 33 5 5 69 71 71 70 72 72 45 29 28 70 72 72 69 71 71 67 2 3 67 2 3 69 71 71 68 70 70 66 0 0 73 73 73 72 1 1 71 3 2 70 72 72 67 74 3</p>
        </triangles>
      </mesh>
      <extra>
        <technique profile="MAYA">
          <double_sided>1</double_sided>
        </technique>
      </extra>
    </geometry>
  </library_geometries>
  <library_visual_scenes>
    <visual_scene id="VisualSceneNode" name="pool_oil">
      <node id="pee_pool" name="pee_pool" type="NODE">
        <rotate sid="rotateZ">0 0 1 0</rotate>
        <rotate sid="rotateY">0 1 0 0</rotate>
        <rotate sid="rotateX">1 0 0 0</rotate>
        <instance_geometry url="#pee_poolShape">
          <bind_material>
            <technique_common>
              <instance_material symbol="blinn1SG" target="#blinn1">
                <bind_vertex_input semantic="TEX0" input_semantic="TEXCOORD" input_set="0" />
              </instance_material>
            </technique_common>
          </bind_material>
        </instance_geometry>
      </node>
      <extra>
        <technique profile="FCOLLADA">
          <start_time>0.041666</start_time>
          <end_time>2</end_time>
        </technique>
      </extra>
    </visual_scene>
  </library_visual_scenes>
  <scene>
    <instance_physics_scene url="#MayaNativePhysicsScene" />
    <instance_visual_scene url="#VisualSceneNode" />
  </scene>
</COLLADA>