<?xml version="1.0" encoding="utf-8"?>
<COLLADA xmlns="http://www.collada.org/2005/11/COLLADASchema" version="1.4.1">
  <asset>
    <contributor>
      <author></author>
      <authoring_tool>FBX COLLADA exporter</authoring_tool>
      <comments></comments>
    </contributor>
    <created>2012-02-23T22:07:43Z</created>
    <keywords></keywords>
    <modified>2012-02-23T22:07:43Z</modified>
    <revision></revision>
    <subject></subject>
    <title></title>
    <unit meter="1.000000" name="centimeter"></unit>
    <up_axis>Y_UP</up_axis>
  </asset>
  <library_images>
    <image id="Map #9-image" name="Map #9">
      <init_from>file://C:\Users\WesleyTack\Desktop\amnesia_raw\StaticObjects\factorybase\rainpipes01.psd</init_from>
    </image>
    <image id="Map #8-image" name="Map #8">
      <init_from>file://C:\Users\WesleyTack\Desktop\amnesia_raw\StaticObjects\factorybase\rainpipes.psd</init_from>
    </image>
    <image id="Map #15-image" name="Map #15">
      <init_from>file://C:\Users\WesleyTack\Desktop\amnesia_raw\StaticObjects\cellarbase\roof01.psd</init_from>
    </image>
    <image id="Map #1-image" name="Map #1">
      <init_from>file://C:\Users\WesleyTack\Desktop\amnesia_raw\StaticObjects\factorybase\factory_facade.psd</init_from>
    </image>
  </library_images>
  <library_materials>
    <material id="rainpipes01" name="rainpipes01">
      <instance_effect url="#rainpipes01-fx"/>
    </material>
    <material id="rainpipes" name="rainpipes">
      <instance_effect url="#rainpipes-fx"/>
    </material>
    <material id="roof" name="roof">
      <instance_effect url="#roof-fx"/>
    </material>
    <material id="factory_facade" name="factory_facade">
      <instance_effect url="#factory_facade-fx"/>
    </material>
  </library_materials>
  <library_effects>
    <effect id="rainpipes01-fx" name="rainpipes01">
      <profile_COMMON>
        <technique sid="standard">
          <phong>
            <emission>
              <color sid="emission">0.000000  0.000000 0.000000 1.000000</color>
            </emission>
            <ambient>
              <color sid="ambient">0.588235  0.588235 0.588235 1.000000</color>
            </ambient>
            <diffuse>
              <texture texture="Map #9-image" texcoord="CHANNEL0">
                <extra>
                  <technique profile="MAYA">
                    <wrapU sid="wrapU0">TRUE</wrapU>
                    <wrapV sid="wrapV0">TRUE</wrapV>
                    <blend_mode>ADD</blend_mode>
                  </technique>
                </extra>
              </texture>
              <texture texture="Map #9-image" texcoord="CHANNEL0">
                <extra>
                  <technique profile="MAYA">
                    <wrapU sid="wrapU0">TRUE</wrapU>
                    <wrapV sid="wrapV0">TRUE</wrapV>
                    <blend_mode>ADD</blend_mode>
                  </technique>
                </extra>
              </texture>
              <texture texture="Map #9-image" texcoord="CHANNEL0">
                <extra>
                  <technique profile="MAYA">
                    <wrapU sid="wrapU0">TRUE</wrapU>
                    <wrapV sid="wrapV0">TRUE</wrapV>
                    <blend_mode>ADD</blend_mode>
                  </technique>
                </extra>
              </texture>
            </diffuse>
            <specular>
              <color sid="specular">0.000000  0.000000 0.000000 1.000000</color>
            </specular>
            <shininess>
              <float sid="shininess">2.000000</float>
            </shininess>
            <reflective>
              <color sid="reflective">0.000000  0.000000 0.000000 1.000000</color>
            </reflective>
            <reflectivity>
              <float sid="reflectivity">1.000000</float>
            </reflectivity>
            <transparent opaque="RGB_ZERO">
              <color sid="transparent">1.000000  1.000000 1.000000 1.000000</color>
            </transparent>
            <transparency>
              <float sid="transparency">0.000000</float>
            </transparency>
          </phong>
        </technique>
      </profile_COMMON>
    </effect>
    <effect id="rainpipes-fx" name="rainpipes">
      <profile_COMMON>
        <technique sid="standard">
          <phong>
            <emission>
              <color sid="emission">0.000000  0.000000 0.000000 1.000000</color>
            </emission>
            <ambient>
              <color sid="ambient">0.588235  0.588235 0.588235 1.000000</color>
            </ambient>
            <diffuse>
              <texture texture="Map #8-image" texcoord="CHANNEL0">
                <extra>
                  <technique profile="MAYA">
                    <wrapU sid="wrapU0">TRUE</wrapU>
                    <wrapV sid="wrapV0">TRUE</wrapV>
                    <blend_mode>ADD</blend_mode>
                  </technique>
                </extra>
              </texture>
            </diffuse>
            <specular>
              <color sid="specular">0.000000  0.000000 0.000000 1.000000</color>
            </specular>
            <shininess>
              <float sid="shininess">2.000000</float>
            </shininess>
            <reflective>
              <color sid="reflective">0.000000  0.000000 0.000000 1.000000</color>
            </reflective>
            <reflectivity>
              <float sid="reflectivity">1.000000</float>
            </reflectivity>
            <transparent opaque="RGB_ZERO">
              <color sid="transparent">1.000000  1.000000 1.000000 1.000000</color>
            </transparent>
            <transparency>
              <float sid="transparency">0.000000</float>
            </transparency>
          </phong>
        </technique>
      </profile_COMMON>
    </effect>
    <effect id="roof-fx" name="roof">
      <profile_COMMON>
        <technique sid="standard">
          <phong>
            <emission>
              <color sid="emission">0.000000  0.000000 0.000000 1.000000</color>
            </emission>
            <ambient>
              <color sid="ambient">0.588235  0.588235 0.588235 1.000000</color>
            </ambient>
            <diffuse>
              <texture texture="Map #15-image" texcoord="CHANNEL0">
                <extra>
                  <technique profile="MAYA">
                    <wrapU sid="wrapU0">TRUE</wrapU>
                    <wrapV sid="wrapV0">TRUE</wrapV>
                    <blend_mode>ADD</blend_mode>
                  </technique>
                </extra>
              </texture>
            </diffuse>
            <specular>
              <color sid="specular">0.000000  0.000000 0.000000 1.000000</color>
            </specular>
            <shininess>
              <float sid="shininess">2.000000</float>
            </shininess>
            <reflective>
              <color sid="reflective">0.000000  0.000000 0.000000 1.000000</color>
            </reflective>
            <reflectivity>
              <float sid="reflectivity">1.000000</float>
            </reflectivity>
            <transparent opaque="RGB_ZERO">
              <color sid="transparent">1.000000  1.000000 1.000000 1.000000</color>
            </transparent>
            <transparency>
              <float sid="transparency">0.000000</float>
            </transparency>
          </phong>
        </technique>
      </profile_COMMON>
    </effect>
    <effect id="factory_facade-fx" name="factory_facade">
      <profile_COMMON>
        <technique sid="standard">
          <phong>
            <emission>
              <color sid="emission">0.000000  0.000000 0.000000 1.000000</color>
            </emission>
            <ambient>
              <color sid="ambient">0.588235  0.588235 0.588235 1.000000</color>
            </ambient>
            <diffuse>
              <texture texture="Map #1-image" texcoord="CHANNEL0">
                <extra>
                  <technique profile="MAYA">
                    <wrapU sid="wrapU0">TRUE</wrapU>
                    <wrapV sid="wrapV0">TRUE</wrapV>
                    <blend_mode>ADD</blend_mode>
                  </technique>
                </extra>
              </texture>
            </diffuse>
            <specular>
              <color sid="specular">0.000000  0.000000 0.000000 1.000000</color>
            </specular>
            <shininess>
              <float sid="shininess">2.000000</float>
            </shininess>
            <reflective>
              <color sid="reflective">0.000000  0.000000 0.000000 1.000000</color>
            </reflective>
            <reflectivity>
              <float sid="reflectivity">1.000000</float>
            </reflectivity>
            <transparent opaque="RGB_ZERO">
              <color sid="transparent">1.000000  1.000000 1.000000 1.000000</color>
            </transparent>
            <transparency>
              <float sid="transparency">0.000000</float>
            </transparency>
          </phong>
        </technique>
      </profile_COMMON>
    </effect>
  </library_effects>
  <library_geometries>
    <geometry id="Box055-lib" name="Box055Mesh">
      <mesh>
        <source id="Box055-POSITION">
          <float_array id="Box055-POSITION-array" count="12">
-2.000000 4.000000 2.000000
2.000000 4.000000 2.000000
-2.000000 3.645005 1.825478
2.000000 3.645005 1.825478
</float_array>
          <technique_common>
            <accessor source="#Box055-POSITION-array" count="4" stride="3">
              <param name="X" type="float"/>
              <param name="Y" type="float"/>
              <param name="Z" type="float"/>
            </accessor>
          </technique_common>
        </source>
        <source id="Box055-Normal0">
          <float_array id="Box055-Normal0-array" count="18">
0.000000 -0.441186 0.897415
0.000000 -0.441186 0.897415
0.000000 -0.441186 0.897415
0.000000 -0.441186 0.897415
0.000000 -0.441186 0.897415
0.000000 -0.441186 0.897415
</float_array>
          <technique_common>
            <accessor source="#Box055-Normal0-array" count="6" stride="3">
              <param name="X" type="float"/>
              <param name="Y" type="float"/>
              <param name="Z" type="float"/>
            </accessor>
          </technique_common>
        </source>
        <source id="Box055-UV0">
          <float_array id="Box055-UV0-array" count="8">
0.963364 0.622708
0.963364 0.650046
0.008163 0.652583
0.008163 0.625245
</float_array>
          <technique_common>
            <accessor source="#Box055-UV0-array" count="4" stride="2">
              <param name="S" type="float"/>
              <param name="T" type="float"/>
            </accessor>
          </technique_common>
        </source>
        <vertices id="Box055-VERTEX">
          <input semantic="POSITION" source="#Box055-POSITION"/>
        </vertices>
        <triangles count="2" material="rainpipes01">
          <input semantic="VERTEX" offset="0" source="#Box055-VERTEX"/>
          <input semantic="NORMAL" offset="1" source="#Box055-Normal0"/>
          <input semantic="TEXCOORD" offset="2" set="0" source="#Box055-UV0"/>
          <p> 1 0 1 0 1 2 2 2 3 2 3 3 3 4 0 1 5 1</p>
        </triangles>
      </mesh>
    </geometry>
    <geometry id="Object043-lib" name="Object043Mesh">
      <mesh>
        <source id="Object043-POSITION">
          <float_array id="Object043-POSITION-array" count="84">
-1.999799 -0.171091 -0.140467
-1.999799 -0.083108 -0.104023
-1.999799 -0.046664 -0.016039
-1.999799 -0.294964 -0.017726
-1.999799 -0.259075 -0.104023
1.999799 -0.171092 -0.140466
1.999799 -0.083108 -0.104022
1.999799 -0.046664 -0.016038
1.999799 -0.294964 -0.017725
1.999799 -0.259075 -0.104022
-1.999799 -0.060719 -0.015911
-1.999799 -0.286136 -0.006028
1.999799 -0.060719 -0.015910
1.999799 -0.286136 -0.006027
1.999799 -0.336814 -0.005453
1.999799 -0.333436 0.007938
-1.999799 -0.333436 0.007938
-1.999799 -0.336814 -0.005453
-1.983167 -0.093104 -0.092346
1.983167 -0.093105 -0.092346
-1.983167 -0.171091 -0.126553
1.983167 -0.171092 -0.126553
-1.983167 -0.249079 -0.092346
1.983167 -0.249079 -0.092346
-1.983167 -0.060719 -0.015911
1.983167 -0.060719 -0.015910
1.983167 -0.286136 -0.006027
-1.983167 -0.286136 -0.006028
</float_array>
          <technique_common>
            <accessor source="#Object043-POSITION-array" count="28" stride="3">
              <param name="X" type="float"/>
              <param name="Y" type="float"/>
              <param name="Z" type="float"/>
            </accessor>
          </technique_common>
        </source>
        <source id="Object043-Normal0">
          <float_array id="Object043-Normal0-array" count="468">
0.000000 -0.000000 -1.000000
0.000000 0.707107 -0.707107
0.000000 0.707107 -0.707107
0.000000 0.707107 -0.707107
0.000000 0.000000 -1.000000
0.000000 -0.000000 -1.000000
0.000000 0.707107 -0.707107
0.000000 0.923880 -0.382683
0.000000 0.923880 -0.382683
0.000000 0.923880 -0.382683
0.000000 0.707107 -0.707107
0.000000 0.707107 -0.707107
-0.000000 0.009126 0.999958
-0.000000 0.009126 0.999958
-0.000000 0.009126 0.999958
-0.000000 0.009127 0.999958
-0.000000 0.009127 0.999958
-0.000000 0.009127 0.999958
-0.000000 0.000000 1.000000
-0.000000 -0.711543 0.702642
-0.000000 -0.711543 0.702642
-0.000000 -0.711543 0.702642
-0.000000 0.000000 1.000000
-0.000000 0.000000 1.000000
-0.000000 0.709872 0.704331
-0.000000 0.000000 1.000000
-0.000000 0.000000 1.000000
-0.000000 0.000000 1.000000
-0.000000 0.709872 0.704331
-0.000000 0.709872 0.704331
-0.000000 0.918899 0.394494
-0.000000 0.709872 0.704331
-0.000000 0.709872 0.704331
-0.000000 0.709872 0.704331
-0.000000 0.918899 0.394494
-0.000000 0.918899 0.394494
0.000000 -0.923336 -0.383993
0.000000 -0.706606 -0.707608
0.000000 -0.706606 -0.707608
0.000000 -0.706606 -0.707608
0.000000 -0.923336 -0.383993
0.000000 -0.923336 -0.383993
0.000000 -0.706606 -0.707608
0.000000 -0.000000 -1.000000
0.000000 0.000000 -1.000000
0.000000 0.000000 -1.000000
0.000000 -0.706606 -0.707608
0.000000 -0.706606 -0.707608
-0.000000 -0.711543 0.702642
-0.000000 -0.920763 0.390123
-0.000000 -0.920762 0.390124
-0.000000 -0.920762 0.390124
-0.000000 -0.711543 0.702642
-0.000000 -0.711543 0.702642
-0.000000 -0.969624 0.244598
-0.000000 -0.969624 0.244598
-0.000000 -0.969624 0.244598
-0.000000 -0.969624 0.244598
-0.000000 -0.969624 0.244598
-0.000000 -0.969624 0.244598
-0.000000 0.283175 0.959068
-0.000000 0.283175 0.959068
-0.000000 0.283175 0.959068
0.000000 -0.281405 -0.959589
0.000000 -0.281405 -0.959589
0.000000 -0.281405 -0.959589
0.000000 -0.281406 -0.959589
0.000000 -0.281406 -0.959589
0.000000 -0.281406 -0.959589
-0.000000 0.009127 0.999958
-0.000000 0.009127 0.999958
-0.000000 0.009127 0.999958
-0.000000 0.283175 0.959068
-0.000000 0.283175 0.959068
-0.000000 0.283175 0.959068
-0.000000 0.043800 0.999040
-0.000000 0.043800 0.999040
-0.000000 0.043800 0.999040
-0.000000 0.043800 0.999040
-0.000000 0.043800 0.999040
-0.000000 0.043800 0.999040
-0.000000 0.009126 0.999958
-0.000000 0.009126 0.999958
-0.000000 0.009126 0.999958
-0.000000 0.283175 0.959068
-0.000000 0.283175 0.959068
-0.000000 0.283175 0.959068
-0.000000 0.283175 0.959068
-0.000000 0.283175 0.959068
-0.000000 0.283175 0.959068
-1.000000 0.000000 0.000000
-1.000000 0.000000 0.000000
-1.000000 0.000000 0.000000
1.000000 0.000000 0.000000
1.000000 0.000000 0.000000
1.000000 0.000000 0.000000
1.000000 0.000000 0.000000
1.000000 0.000000 0.000000
1.000000 0.000000 0.000000
-0.000000 0.043800 0.999040
-0.000000 0.043800 0.999040
-0.000000 0.043800 0.999040
-0.000000 0.043800 0.999040
-0.000000 0.043800 0.999040
-0.000000 0.043800 0.999040
-1.000000 0.000000 0.000000
-1.000000 0.000000 0.000000
-1.000000 0.000000 0.000000
-1.000000 0.000000 0.000000
-1.000000 0.000000 0.000000
-1.000000 0.000000 0.000000
1.000000 0.000000 0.000000
1.000000 0.000000 0.000000
1.000000 0.000000 0.000000
1.000000 0.000000 0.000000
1.000000 0.000000 0.000000
1.000000 0.000000 0.000000
1.000000 0.000000 0.000000
1.000000 0.000000 0.000000
1.000000 0.000000 0.000000
1.000000 0.000000 0.000000
1.000000 0.000000 0.000000
1.000000 0.000000 0.000000
1.000000 0.000000 0.000000
1.000000 0.000000 0.000000
1.000000 0.000000 0.000000
1.000000 0.000000 0.000000
1.000000 0.000000 0.000000
1.000000 0.000000 0.000000
1.000000 0.000000 0.000000
1.000000 0.000000 0.000000
1.000000 0.000000 0.000000
1.000000 0.000000 0.000000
1.000000 0.000000 0.000000
1.000000 0.000000 0.000000
-1.000000 0.000000 0.000000
-1.000000 0.000000 0.000000
-1.000000 0.000000 0.000000
-1.000000 0.000000 0.000000
-1.000000 0.000000 0.000000
-1.000000 0.000000 0.000000
-1.000000 0.000000 0.000000
-1.000000 0.000000 0.000000
-1.000000 0.000000 0.000000
-1.000000 0.000000 0.000000
-1.000000 0.000000 0.000000
-1.000000 0.000000 0.000000
-1.000000 0.000000 0.000000
-1.000000 0.000000 0.000000
-1.000000 0.000000 0.000000
-1.000000 0.000000 0.000000
-1.000000 0.000000 0.000000
-1.000000 0.000000 0.000000
-1.000000 0.000000 0.000000
-1.000000 0.000000 0.000000
-1.000000 0.000000 0.000000
</float_array>
          <technique_common>
            <accessor source="#Object043-Normal0-array" count="156" stride="3">
              <param name="X" type="float"/>
              <param name="Y" type="float"/>
              <param name="Z" type="float"/>
            </accessor>
          </technique_common>
        </source>
        <source id="Object043-UV0">
          <float_array id="Object043-UV0-array" count="136">
0.242579 0.000110
0.255588 0.006973
0.525952 0.000110
0.652412 0.000110
0.767947 0.000110
0.650702 0.591095
0.416852 0.651605
0.496125 0.607267
0.652412 1.650573
0.767947 1.650573
0.525952 1.650573
0.399492 0.000110
0.399492 1.650573
0.255588 1.643710
0.827241 1.532173
0.722924 0.118590
0.242580 1.650573
0.792325 1.532173
0.271263 0.000110
0.271263 1.650573
0.177250 1.650573
0.160156 1.650573
0.160156 0.000110
0.177250 0.000110
0.390759 0.006973
0.390759 1.643710
0.517219 0.006973
0.517219 1.643710
0.643679 0.006973
0.643679 1.643710
0.778850 1.650573
0.778850 1.643710
0.778849 0.006973
0.799595 0.610713
0.856255 0.651415
0.498695 0.583090
0.296324 0.651344
0.331167 0.604642
0.751750 0.643745
0.834360 0.642553
0.829113 0.649650
0.735736 0.650112
0.673422 0.599647
0.268974 0.651676
0.722924 0.008845
0.757757 0.008845
0.757757 0.118590
0.692370 0.603634
0.731273 0.650288
0.522592 0.582695
0.758719 0.650514
0.290665 0.650765
0.197563 0.650679
0.191698 0.643589
0.274069 0.644449
0.348839 0.599962
0.624254 0.590216
0.421325 0.651317
0.476028 0.610345
0.861735 0.650130
0.780011 0.605940
0.822628 1.650573
0.792325 1.642175
0.827241 1.642175
0.255587 0.000110
0.778849 0.000110
0.822626 0.000110
0.255589 1.650573
</float_array>
          <technique_common>
            <accessor source="#Object043-UV0-array" count="68" stride="2">
              <param name="S" type="float"/>
              <param name="T" type="float"/>
            </accessor>
          </technique_common>
        </source>
        <vertices id="Object043-VERTEX">
          <input semantic="POSITION" source="#Object043-POSITION"/>
        </vertices>
        <triangles count="52" material="rainpipes01">
          <input semantic="VERTEX" offset="0" source="#Object043-VERTEX"/>
          <input semantic="NORMAL" offset="1" source="#Object043-Normal0"/>
          <input semantic="TEXCOORD" offset="2" set="0" source="#Object043-UV0"/>
          <p> 0 0 2 1 1 3 6 2 8 6 3 8 5 4 10 0 5 2 1 6 3 2 7 4 7 8 9 7 9 9 6 10 8 1 11 3 24 12 1 25 13 13 7 14 16 7 15 16 2 16 0 24 17 1 21 18 27 19 19 25 18 20 24 18 21 24 20 22 26 21 23 27 23 24 29 21 25 27 20 26 26 20 27 26 22 28 28 23 29 29 26 30 31 23 31 29 22 32 28 22 33 28 27 34 32 26 35 31 3 36 18 4 37 11 9 38 12 9 39 12 8 40 19 3 41 18 4 42 11 0 43 2 5 44 10 5 45 10 9 46 12 4 47 11 19 48 25 25 49 13 24 50 1 24 51 1 18 52 24 19 53 25 17 54 23 14 55 20 15 56 21 15 57 21 16 58 22 17 59 23 13 60 30 26 61 31 15 62 61 3 63 18 8 64 19 14 65 20 14 66 20 17 67 23 3 68 18 2 69 0 10 70 64 24 71 1 27 72 32 11 73 65 16 74 66 11 75 44 27 76 45 24 77 46 24 78 46 10 79 15 11 80 44 25 81 13 12 82 67 7 83 16 27 84 32 16 85 66 15 86 61 15 87 61 26 88 31 27 89 32 21 90 56 25 91 57 19 92 58 6 93 47 12 94 48 5 95 49 6 96 47 7 97 50 12 98 48 13 99 14 12 100 63 25 101 62 25 102 62 26 103 17 13 104 14 21 105 56 26 106 59 25 107 57 21 108 56 23 109 60 26 110 59 13 111 51 15 112 52 14 113 53 14 114 53 8 115 54 13 116 51 13 117 51 8 118 54 9 119 55 13 120 51 9 121 55 5 122 49 12 123 48 13 124 51 5 125 49 20 126 5 27 127 6 22 128 7 20 129 5 18 130 33 24 131 34 20 132 5 24 133 34 27 134 6 0 135 35 10 136 36 1 137 37 3 138 38 17 139 39 16 140 40 16 141 40 11 142 41 3 143 38 4 144 42 3 145 38 11 146 41 10 147 36 2 148 43 1 149 37 0 150 35 4 151 42 11 152 41 0 153 35 11 154 41 10 155 36</p>
        </triangles>
      </mesh>
    </geometry>
    <geometry id="Object044-lib" name="Object044Mesh">
      <mesh>
        <source id="Object044-POSITION">
          <float_array id="Object044-POSITION-array" count="168">
-1.095310 -0.169002 -0.153892
-1.095310 -0.074229 -0.114636
-1.095310 -0.034973 -0.019863
-1.095310 -0.303031 -0.019863
-1.095310 -0.263774 -0.114636
-1.018920 -0.169002 -0.153892
-1.018920 -0.074229 -0.114636
-1.018920 -0.034973 -0.019863
-1.018920 -0.303031 -0.019863
-1.018920 -0.263774 -0.114636
-1.075678 0.118649 -0.170170
-1.075678 -0.068611 -0.083854
-1.040213 0.118649 -0.170170
-1.040213 -0.068611 -0.083854
-1.075678 0.130912 -0.136478
-1.075678 -0.056348 -0.050162
-1.040213 0.130912 -0.136478
-1.040213 -0.056348 -0.050162
-1.095310 -0.284910 -0.019863
-1.095310 -0.250755 -0.098576
-1.095310 -0.169002 -0.132618
-1.095310 -0.089351 -0.098575
-1.095310 -0.056736 -0.019863
-1.018920 -0.056736 -0.019863
-1.018920 -0.089351 -0.098575
-1.018920 -0.169002 -0.132618
-1.018921 -0.250755 -0.098576
-1.018920 -0.284910 -0.019863
0.976479 -0.169002 -0.153892
0.976479 -0.074229 -0.114636
0.976479 -0.034973 -0.019863
0.976479 -0.303031 -0.019863
0.976479 -0.263774 -0.114636
1.052869 -0.169002 -0.153892
1.052869 -0.074229 -0.114636
1.052869 -0.034973 -0.019863
1.052869 -0.303031 -0.019863
1.052869 -0.263774 -0.114636
0.996110 0.118649 -0.170170
0.996111 -0.068611 -0.083853
1.031575 0.118649 -0.170170
1.031576 -0.068611 -0.083853
0.996111 0.130912 -0.136478
0.996111 -0.056348 -0.050162
1.031576 0.130912 -0.136478
1.031576 -0.056348 -0.050162
0.976478 -0.284910 -0.019863
0.976478 -0.250755 -0.098575
0.976478 -0.169002 -0.132618
0.976478 -0.089351 -0.098575
0.976479 -0.056736 -0.019863
1.052869 -0.056736 -0.019863
1.052868 -0.089351 -0.098575
1.052868 -0.169002 -0.132618
1.052868 -0.250755 -0.098575
1.052868 -0.284910 -0.019863
</float_array>
          <technique_common>
            <accessor source="#Object044-POSITION-array" count="56" stride="3">
              <param name="X" type="float"/>
              <param name="Y" type="float"/>
              <param name="Z" type="float"/>
            </accessor>
          </technique_common>
        </source>
        <source id="Object044-Normal0">
          <float_array id="Object044-Normal0-array" count="792">
0.000000 -0.000000 -1.000000
0.000000 0.707107 -0.707107
0.000000 0.707107 -0.707107
0.000000 0.707107 -0.707107
0.000000 -0.000000 -1.000000
0.000000 -0.000000 -1.000000
0.000000 0.707107 -0.707107
0.000000 0.923880 -0.382683
0.000000 0.923880 -0.382683
0.000000 0.923880 -0.382683
0.000000 0.707107 -0.707107
0.000000 0.707107 -0.707107
0.000000 -0.923880 -0.382683
0.000000 -0.707107 -0.707107
0.000000 -0.707107 -0.707107
0.000000 -0.707107 -0.707107
0.000000 -0.923880 -0.382683
0.000000 -0.923880 -0.382683
0.000000 -0.707107 -0.707107
0.000000 -0.000000 -1.000000
0.000000 -0.000000 -1.000000
0.000000 -0.000000 -1.000000
0.000000 -0.707107 -0.707107
0.000000 -0.707107 -0.707107
-1.000000 -0.000020 -0.000008
-1.000000 -0.000020 -0.000008
-1.000000 -0.000020 -0.000008
-1.000000 -0.000025 -0.000009
-1.000000 -0.000025 -0.000009
-1.000000 -0.000025 -0.000009
-1.000000 0.000000 0.000005
-1.000000 0.000000 0.000005
-1.000000 0.000000 0.000005
-1.000000 0.000016 -0.000007
-1.000000 0.000016 -0.000007
-1.000000 0.000016 -0.000007
-1.000000 0.000007 -0.000016
-1.000000 0.000007 -0.000016
-1.000000 0.000007 -0.000016
-1.000000 0.000007 -0.000017
-1.000000 0.000007 -0.000017
-1.000000 0.000007 -0.000017
-1.000000 -0.000006 -0.000017
-1.000000 -0.000006 -0.000017
-1.000000 -0.000006 -0.000017
-1.000000 -0.000009 -0.000022
-1.000000 -0.000009 -0.000022
-1.000000 -0.000009 -0.000022
1.000000 -0.000005 0.000002
1.000000 -0.000005 0.000002
1.000000 -0.000005 0.000002
1.000000 -0.000019 0.000005
1.000000 -0.000019 0.000005
1.000000 -0.000019 0.000005
1.000000 -0.000007 0.000016
1.000000 -0.000007 0.000016
1.000000 -0.000007 0.000016
1.000000 -0.000007 0.000017
1.000000 -0.000007 0.000017
1.000000 -0.000007 0.000017
1.000000 0.000020 0.000007
1.000000 0.000020 0.000007
1.000000 0.000020 0.000007
1.000000 0.000024 0.000010
1.000000 0.000024 0.000010
1.000000 0.000024 0.000010
1.000000 0.000008 0.000023
1.000000 0.000008 0.000023
1.000000 0.000008 0.000023
1.000000 0.000007 0.000017
1.000000 0.000007 0.000017
1.000000 0.000007 0.000017
0.000002 -0.418612 -0.908165
0.000002 -0.418612 -0.908165
0.000002 -0.418612 -0.908165
0.000001 -0.418612 -0.908165
0.000001 -0.418612 -0.908165
0.000001 -0.418612 -0.908165
-0.000000 0.418612 0.908165
-0.000000 0.418612 0.908165
-0.000000 0.418612 0.908165
0.000000 0.418612 0.908165
0.000000 0.418612 0.908165
0.000000 0.418612 0.908165
-1.000000 -0.000003 0.000001
-1.000000 -0.000003 0.000001
-1.000000 -0.000003 0.000001
-1.000000 0.000003 0.000009
-1.000000 0.000003 0.000009
-1.000000 0.000003 0.000009
1.000000 -0.000002 -0.000010
1.000000 -0.000002 -0.000010
1.000000 -0.000002 -0.000010
1.000000 0.000001 -0.000000
1.000000 0.000001 -0.000000
1.000000 0.000001 -0.000000
-0.000000 -0.004665 0.999989
-0.000000 -0.004665 0.999989
0.000000 -0.711014 0.703177
0.000000 -0.711014 0.703177
0.000000 -0.711014 0.703178
-0.000000 -0.004665 0.999989
-0.000000 -0.000000 1.000000
-0.000000 -0.000000 1.000000
-0.000000 -0.000000 1.000000
-0.000000 0.000000 1.000000
-0.000000 0.000000 1.000000
-0.000000 0.000000 1.000000
-0.000000 0.917359 0.398061
-0.000000 0.917359 0.398061
-0.000000 0.701844 0.712331
-0.000000 0.701844 0.712331
-0.000000 0.701844 0.712331
-0.000000 0.917359 0.398061
-0.000000 0.701844 0.712331
-0.000000 0.701844 0.712331
-0.000000 -0.004665 0.999989
-0.000000 -0.004665 0.999989
-0.000000 -0.004665 0.999989
-0.000000 0.701844 0.712331
-0.000000 0.000000 1.000000
-0.000000 0.000000 1.000000
-0.000000 0.000000 1.000000
-0.000000 0.000000 1.000000
-0.000000 0.000000 1.000000
-0.000000 0.000000 1.000000
0.000000 -0.923833 0.382795
-0.000000 -0.923833 0.382795
0.000000 -0.711014 0.703178
0.000000 -0.711014 0.703178
0.000000 -0.711014 0.703177
0.000000 -0.923833 0.382795
0.000000 -0.000000 -1.000000
0.000000 0.707107 -0.707107
0.000000 0.707107 -0.707107
0.000000 0.707107 -0.707107
0.000000 -0.000000 -1.000000
0.000000 -0.000000 -1.000000
0.000000 0.707107 -0.707107
0.000000 0.923880 -0.382683
0.000000 0.923880 -0.382683
0.000000 0.923880 -0.382683
0.000000 0.707107 -0.707107
0.000000 0.707107 -0.707107
0.000000 -0.923880 -0.382683
0.000000 -0.707107 -0.707107
0.000000 -0.707107 -0.707107
0.000000 -0.707107 -0.707107
0.000000 -0.923880 -0.382683
0.000000 -0.923880 -0.382683
0.000000 -0.707107 -0.707107
0.000000 -0.000000 -1.000000
0.000000 -0.000000 -1.000000
0.000000 -0.000000 -1.000000
0.000000 -0.707107 -0.707107
0.000000 -0.707107 -0.707107
-1.000000 -0.000020 -0.000008
-1.000000 -0.000020 -0.000008
-1.000000 -0.000020 -0.000008
-1.000000 -0.000025 -0.000009
-1.000000 -0.000025 -0.000009
-1.000000 -0.000025 -0.000009
-1.000000 0.000000 0.000005
-1.000000 0.000000 0.000005
-1.000000 0.000000 0.000005
-1.000000 0.000016 -0.000007
-1.000000 0.000016 -0.000007
-1.000000 0.000016 -0.000007
-1.000000 0.000007 -0.000016
-1.000000 0.000007 -0.000016
-1.000000 0.000007 -0.000016
-1.000000 0.000007 -0.000017
-1.000000 0.000007 -0.000017
-1.000000 0.000007 -0.000017
-1.000000 -0.000006 -0.000017
-1.000000 -0.000006 -0.000017
-1.000000 -0.000006 -0.000017
-1.000000 -0.000009 -0.000022
-1.000000 -0.000009 -0.000022
-1.000000 -0.000009 -0.000022
1.000000 -0.000005 0.000002
1.000000 -0.000005 0.000002
1.000000 -0.000005 0.000002
1.000000 -0.000019 0.000005
1.000000 -0.000019 0.000005
1.000000 -0.000019 0.000005
1.000000 -0.000007 0.000016
1.000000 -0.000007 0.000016
1.000000 -0.000007 0.000016
1.000000 -0.000007 0.000017
1.000000 -0.000007 0.000017
1.000000 -0.000007 0.000017
1.000000 0.000020 0.000007
1.000000 0.000020 0.000007
1.000000 0.000020 0.000007
1.000000 0.000024 0.000010
1.000000 0.000024 0.000010
1.000000 0.000024 0.000010
1.000000 0.000008 0.000023
1.000000 0.000008 0.000023
1.000000 0.000008 0.000023
1.000000 0.000007 0.000017
1.000000 0.000007 0.000017
1.000000 0.000007 0.000017
0.000001 -0.418612 -0.908165
0.000001 -0.418612 -0.908165
0.000001 -0.418612 -0.908165
0.000001 -0.418612 -0.908165
0.000001 -0.418612 -0.908165
0.000001 -0.418612 -0.908165
0.000000 0.418612 0.908165
0.000000 0.418612 0.908165
0.000000 0.418612 0.908165
0.000000 0.418612 0.908165
0.000000 0.418612 0.908165
0.000000 0.418612 0.908165
-1.000000 -0.000003 0.000001
-1.000000 -0.000003 0.000001
-1.000000 -0.000003 0.000001
-1.000000 0.000003 0.000009
-1.000000 0.000003 0.000009
-1.000000 0.000003 0.000009
1.000000 -0.000002 -0.000010
1.000000 -0.000002 -0.000010
1.000000 -0.000002 -0.000010
1.000000 0.000001 -0.000000
1.000000 0.000001 -0.000000
1.000000 0.000001 -0.000000
0.000000 -0.004665 0.999989
-0.000000 -0.004665 0.999989
0.000000 -0.711015 0.703177
0.000000 -0.711015 0.703177
0.000000 -0.711014 0.703178
0.000000 -0.004665 0.999989
-0.000000 -0.000000 1.000000
-0.000000 -0.000000 1.000000
-0.000000 -0.000000 1.000000
-0.000000 0.000000 1.000000
-0.000000 0.000000 1.000000
-0.000000 0.000000 1.000000
-0.000000 0.917359 0.398062
-0.000000 0.917359 0.398062
-0.000000 0.701844 0.712331
-0.000000 0.701844 0.712331
-0.000000 0.701844 0.712331
-0.000000 0.917359 0.398062
-0.000000 0.701844 0.712331
-0.000000 0.701844 0.712331
-0.000000 -0.004665 0.999989
-0.000000 -0.004665 0.999989
0.000000 -0.004665 0.999989
-0.000000 0.701844 0.712331
-0.000000 0.000000 1.000000
-0.000000 0.000000 1.000000
-0.000000 0.000000 1.000000
-0.000000 0.000000 1.000000
-0.000000 0.000000 1.000000
-0.000000 0.000000 1.000000
0.000000 -0.923833 0.382795
-0.000000 -0.923833 0.382795
0.000000 -0.711014 0.703178
0.000000 -0.711014 0.703178
0.000000 -0.711015 0.703177
0.000000 -0.923833 0.382795
</float_array>
          <technique_common>
            <accessor source="#Object044-Normal0-array" count="264" stride="3">
              <param name="X" type="float"/>
              <param name="Y" type="float"/>
              <param name="Z" type="float"/>
            </accessor>
          </technique_common>
        </source>
        <source id="Object044-UV0">
          <float_array id="Object044-UV0-array" count="232">
0.460711 1.001094
0.413594 1.001094
0.413594 0.918842
0.460711 0.918842
0.507827 1.001094
0.366478 1.001094
0.554944 1.001094
0.507827 0.918842
0.366478 0.918842
0.589525 0.433465
0.608517 0.517957
0.599750 0.517957
0.583226 0.447783
0.543673 0.417434
0.543673 0.527516
0.589525 0.562514
0.608517 0.647005
0.597988 0.647005
0.582209 0.576832
0.507510 0.172528
0.507510 0.166728
0.539926 0.164039
0.539926 0.175217
0.507510 0.141560
0.539926 0.141560
0.539926 0.152738
0.507510 0.155427
0.539926 0.186518
0.507510 0.181141
0.554944 0.918842
0.505138 0.447783
0.489359 0.517957
0.478830 0.517957
0.497822 0.433465
0.543673 0.398468
0.543626 0.805925
0.412759 1.000803
0.506817 1.000803
0.506817 0.918771
0.587844 0.761027
0.543673 0.546482
0.504121 0.576832
0.487597 0.647005
0.478830 0.647005
0.497822 0.562514
0.587844 0.784242
0.552687 0.918771
0.460401 1.000803
0.366890 1.000803
0.543626 0.786597
0.460401 0.918771
0.412759 0.918771
0.366890 0.918771
0.552687 1.000802
0.587845 0.786597
0.587844 0.805925
0.543626 0.784242
0.543626 0.761027
0.460711 1.001094
0.413594 1.001094
0.413594 0.918842
0.460711 0.918842
0.507827 1.001094
0.366478 1.001094
0.554944 1.001094
0.507827 0.918842
0.366478 0.918842
0.589525 0.433465
0.608517 0.517957
0.599750 0.517957
0.583226 0.447783
0.543673 0.417434
0.543673 0.527516
0.589525 0.562514
0.608517 0.647005
0.597988 0.647005
0.582209 0.576832
0.507510 0.172528
0.507510 0.166728
0.539926 0.164039
0.539926 0.175217
0.507510 0.141560
0.539926 0.141560
0.539926 0.152738
0.507510 0.155427
0.539926 0.186518
0.507510 0.181141
0.554944 0.918842
0.505138 0.447783
0.489359 0.517957
0.478830 0.517957
0.497822 0.433465
0.543673 0.398468
0.543626 0.805925
0.412759 1.000803
0.506817 1.000803
0.506817 0.918771
0.587844 0.761027
0.543673 0.546482
0.504121 0.576832
0.487597 0.647005
0.478830 0.647005
0.497822 0.562514
0.587844 0.784242
0.552687 0.918771
0.460401 1.000803
0.366890 1.000803
0.543626 0.786597
0.460401 0.918771
0.412759 0.918771
0.366890 0.918771
0.552687 1.000802
0.587845 0.786597
0.587844 0.805925
0.543626 0.784242
0.543626 0.761027
</float_array>
          <technique_common>
            <accessor source="#Object044-UV0-array" count="116" stride="2">
              <param name="S" type="float"/>
              <param name="T" type="float"/>
            </accessor>
          </technique_common>
        </source>
        <vertices id="Object044-VERTEX">
          <input semantic="POSITION" source="#Object044-POSITION"/>
        </vertices>
        <triangles count="88" material="rainpipes">
          <input semantic="VERTEX" offset="0" source="#Object044-VERTEX"/>
          <input semantic="NORMAL" offset="1" source="#Object044-Normal0"/>
          <input semantic="TEXCOORD" offset="2" set="0" source="#Object044-UV0"/>
          <p> 0 0 0 1 1 1 6 2 2 6 3 2 5 4 3 0 5 0 1 6 1 2 7 5 7 8 8 7 9 8 6 10 2 1 11 1 3 12 6 4 13 4 9 14 7 9 15 7 8 16 29 3 17 6 4 18 4 0 19 0 5 20 3 5 21 3 9 22 7 4 23 4 4 24 9 3 25 10 18 26 11 4 27 9 18 28 11 19 29 12 21 30 30 22 31 31 2 32 32 21 33 30 2 34 32 1 35 33 20 36 13 21 37 30 1 38 33 20 39 13 1 40 33 0 41 34 19 42 12 20 43 13 0 44 34 4 45 9 19 46 12 0 47 34 6 48 15 7 49 16 23 50 17 6 51 15 23 52 17 24 53 18 5 54 14 6 55 15 24 56 18 5 57 14 24 58 18 25 59 40 26 60 41 27 61 42 8 62 43 26 63 41 8 64 43 9 65 44 25 66 40 26 67 41 9 68 44 5 69 14 25 70 40 9 71 44 10 72 19 12 73 20 13 74 21 13 75 21 11 76 22 10 77 19 14 78 23 15 79 24 17 80 25 17 81 25 16 82 26 14 83 23 10 84 19 11 85 22 15 86 27 15 87 27 14 88 28 10 89 19 13 90 21 12 91 20 16 92 26 16 93 26 17 94 25 13 95 21 20 96 47 25 97 50 24 98 38 24 99 38 21 100 37 20 101 47 3 102 49 8 103 54 27 104 55 27 105 55 18 106 35 3 107 49 18 108 48 27 109 52 26 110 51 26 111 51 19 112 36 18 113 48 19 114 36 26 115 51 25 116 50 25 117 50 20 118 47 19 119 36 7 120 45 2 121 56 22 122 57 22 123 57 23 124 39 7 125 45 23 126 46 22 127 53 21 128 37 21 129 37 24 130 38 23 131 46 28 132 58 29 133 59 34 134 60 34 135 60 33 136 61 28 137 58 29 138 59 30 139 63 35 140 66 35 141 66 34 142 60 29 143 59 31 144 64 32 145 62 37 146 65 37 147 65 36 148 87 31 149 64 32 150 62 28 151 58 33 152 61 33 153 61 37 154 65 32 155 62 32 156 67 31 157 68 46 158 69 32 159 67 46 160 69 47 161 70 49 162 88 50 163 89 30 164 90 49 165 88 30 166 90 29 167 91 48 168 71 49 169 88 29 170 91 48 171 71 29 172 91 28 173 92 47 174 70 48 175 71 28 176 92 32 177 67 47 178 70 28 179 92 34 180 73 35 181 74 51 182 75 34 183 73 51 184 75 52 185 76 33 186 72 34 187 73 52 188 76 33 189 72 52 190 76 53 191 98 54 192 99 55 193 100 36 194 101 54 195 99 36 196 101 37 197 102 53 198 98 54 199 99 37 200 102 33 201 72 53 202 98 37 203 102 38 204 77 40 205 78 41 206 79 41 207 79 39 208 80 38 209 77 42 210 81 43 211 82 45 212 83 45 213 83 44 214 84 42 215 81 38 216 77 39 217 80 43 218 85 43 219 85 42 220 86 38 221 77 41 222 79 40 223 78 44 224 84 44 225 84 45 226 83 41 227 79 48 228 105 53 229 108 52 230 96 52 231 96 49 232 95 48 233 105 31 234 107 36 235 112 55 236 113 55 237 113 46 238 93 31 239 107 46 240 106 55 241 110 54 242 109 54 243 109 47 244 94 46 245 106 47 246 94 54 247 109 53 248 108 53 249 108 48 250 105 47 251 94 35 252 103 30 253 114 50 254 115 50 255 115 51 256 97 35 257 103 51 258 104 50 259 111 49 260 95 49 261 95 52 262 96 51 263 104</p>
        </triangles>
      </mesh>
    </geometry>
    <geometry id="Box056-lib" name="Box056Mesh">
      <mesh>
        <source id="Box056-POSITION">
          <float_array id="Box056-POSITION-array" count="18">
-2.000000 -0.067902 0.000000
2.000000 -0.067902 0.000000
-2.000000 3.644992 1.825477
2.000000 3.644992 1.825477
-2.000000 0.138672 0.000000
2.000000 0.138672 0.000000
</float_array>
          <technique_common>
            <accessor source="#Box056-POSITION-array" count="6" stride="3">
              <param name="X" type="float"/>
              <param name="Y" type="float"/>
              <param name="Z" type="float"/>
            </accessor>
          </technique_common>
        </source>
        <source id="Box056-Normal0">
          <float_array id="Box056-Normal0-array" count="36">
0.000000 -0.441215 0.897401
0.000000 -0.441215 0.897401
0.000000 -0.441215 0.897401
0.000000 -0.441215 0.897401
0.000000 -0.441215 0.897401
0.000000 -0.441215 0.897401
0.000000 0.000000 -1.000000
0.000000 0.000000 -1.000000
0.000000 0.000000 -1.000000
0.000000 0.000000 -1.000000
0.000000 0.000000 -1.000000
0.000000 0.000000 -1.000000
</float_array>
          <technique_common>
            <accessor source="#Box056-Normal0-array" count="12" stride="3">
              <param name="X" type="float"/>
              <param name="Y" type="float"/>
              <param name="Z" type="float"/>
            </accessor>
          </technique_common>
        </source>
        <source id="Box056-UV0">
          <float_array id="Box056-UV0-array" count="16">
1.000000 0.000000
1.000000 0.925000
0.000000 0.925000
0.000000 0.000000
0.010000 0.010000
0.990000 0.010000
0.990000 0.060611
0.010000 0.060611
</float_array>
          <technique_common>
            <accessor source="#Box056-UV0-array" count="8" stride="2">
              <param name="S" type="float"/>
              <param name="T" type="float"/>
            </accessor>
          </technique_common>
        </source>
        <vertices id="Box056-VERTEX">
          <input semantic="POSITION" source="#Box056-POSITION"/>
        </vertices>
        <triangles count="4" material="roof">
          <input semantic="VERTEX" offset="0" source="#Box056-VERTEX"/>
          <input semantic="NORMAL" offset="1" source="#Box056-Normal0"/>
          <input semantic="TEXCOORD" offset="2" set="0" source="#Box056-UV0"/>
          <p> 3 0 1 2 1 2 0 2 3 0 3 3 1 4 0 3 5 1 1 6 4 0 7 5 4 8 6 4 9 6 5 10 7 1 11 4</p>
        </triangles>
      </mesh>
    </geometry>
    <geometry id="Box057-lib" name="Box057Mesh">
      <mesh>
        <source id="Box057-POSITION">
          <float_array id="Box057-POSITION-array" count="36">
-4.000001 -0.000000 -1.999999
-0.610080 -0.000000 -1.999999
-3.322017 1.666667 -1.999999
-2.644032 1.333333 -1.999999
-1.966048 1.000000 -1.999999
-1.288064 0.666667 -1.999999
-0.610080 0.333333 -1.999999
-1.288064 0.329714 -1.999999
-1.966048 0.663173 -1.999999
-2.644032 1.000888 -1.999999
-3.322017 1.325831 -1.999999
-4.000001 1.666540 -1.999999
</float_array>
          <technique_common>
            <accessor source="#Box057-POSITION-array" count="12" stride="3">
              <param name="X" type="float"/>
              <param name="Y" type="float"/>
              <param name="Z" type="float"/>
            </accessor>
          </technique_common>
        </source>
        <source id="Box057-Normal0">
          <float_array id="Box057-Normal0-array" count="90">
0.000000 0.000000 -1.000000
0.000000 0.000000 -1.000000
0.000000 0.000000 -1.000000
0.000000 0.000000 -1.000000
0.000000 0.000000 -1.000000
0.000000 0.000000 -1.000000
0.000000 0.000000 -1.000000
0.000000 0.000000 -1.000000
0.000000 0.000000 -1.000000
0.000000 0.000000 -1.000000
0.000000 0.000000 -1.000000
0.000000 0.000000 -1.000000
0.000000 0.000000 -1.000000
0.000000 0.000000 -1.000000
0.000000 0.000000 -1.000000
0.000000 0.000000 -1.000000
0.000000 0.000000 -1.000000
0.000000 0.000000 -1.000000
0.000000 0.000000 -1.000000
0.000000 0.000000 -1.000000
0.000000 0.000000 -1.000000
0.000000 0.000000 -1.000000
0.000000 0.000000 -1.000000
0.000000 0.000000 -1.000000
0.000000 0.000000 -1.000000
0.000000 0.000000 -1.000000
0.000000 0.000000 -1.000000
0.000000 0.000000 -1.000000
0.000000 0.000000 -1.000000
0.000000 0.000000 -1.000000
</float_array>
          <technique_common>
            <accessor source="#Box057-Normal0-array" count="30" stride="3">
              <param name="X" type="float"/>
              <param name="Y" type="float"/>
              <param name="Z" type="float"/>
            </accessor>
          </technique_common>
        </source>
        <source id="Box057-UV0">
          <float_array id="Box057-UV0-array" count="24">
1.000000 0.000000
0.152460 0.000000
0.830492 0.416667
0.660984 0.333333
0.491476 0.250000
0.321968 0.166667
0.152460 0.083333
0.321968 0.082429
0.491476 0.165793
0.660984 0.250222
0.830492 0.331458
1.000000 0.416635
</float_array>
          <technique_common>
            <accessor source="#Box057-UV0-array" count="12" stride="2">
              <param name="S" type="float"/>
              <param name="T" type="float"/>
            </accessor>
          </technique_common>
        </source>
        <vertices id="Box057-VERTEX">
          <input semantic="POSITION" source="#Box057-POSITION"/>
        </vertices>
        <triangles count="10" material="factory_facade">
          <input semantic="VERTEX" offset="0" source="#Box057-VERTEX"/>
          <input semantic="NORMAL" offset="1" source="#Box057-Normal0"/>
          <input semantic="TEXCOORD" offset="2" set="0" source="#Box057-UV0"/>
          <p> 2 0 2 10 1 10 11 2 11 0 3 0 7 4 7 1 5 1 0 6 0 10 7 10 9 8 9 0 9 0 9 10 9 8 11 8 0 12 0 8 13 8 7 14 7 7 15 7 6 16 6 1 17 1 10 18 10 0 19 0 11 20 11 9 21 9 4 22 4 8 23 8 8 24 8 5 25 5 7 26 7 10 27 10 3 28 3 9 29 9</p>
        </triangles>
      </mesh>
    </geometry>
    <geometry id="Object045-lib" name="Object045Mesh">
      <mesh>
        <source id="Object045-POSITION">
          <float_array id="Object045-POSITION-array" count="39">
0.067904 -0.000000 -1.999999
-4.000001 2.000000 -1.999999
-0.610080 -0.000000 -1.999999
-3.322017 1.666667 -1.999999
-2.644032 1.333333 -1.999999
-1.966048 1.000000 -1.999999
-1.288064 0.666667 -1.999999
-0.610080 0.333333 -1.999999
-1.288064 0.329714 -1.999999
-1.966048 0.663173 -1.999999
-2.644032 1.000888 -1.999999
-3.322017 1.325831 -1.999999
-4.000001 1.666540 -1.999999
</float_array>
          <technique_common>
            <accessor source="#Object045-POSITION-array" count="13" stride="3">
              <param name="X" type="float"/>
              <param name="Y" type="float"/>
              <param name="Z" type="float"/>
            </accessor>
          </technique_common>
        </source>
        <source id="Object045-Normal0">
          <float_array id="Object045-Normal0-array" count="54">
0.000000 0.000000 -1.000000
0.000000 0.000000 -1.000000
0.000000 0.000000 -1.000000
0.000000 0.000000 -1.000000
0.000000 0.000000 -1.000000
0.000000 0.000000 -1.000000
0.000000 0.000000 -1.000000
0.000000 0.000000 -1.000000
0.000000 0.000000 -1.000000
0.000000 0.000000 -1.000000
0.000000 0.000000 -1.000000
0.000000 0.000000 -1.000000
0.000000 0.000000 -1.000000
0.000000 0.000000 -1.000000
0.000000 0.000000 -1.000000
0.000000 0.000000 -1.000000
0.000000 0.000000 -1.000000
0.000000 0.000000 -1.000000
</float_array>
          <technique_common>
            <accessor source="#Object045-Normal0-array" count="18" stride="3">
              <param name="X" type="float"/>
              <param name="Y" type="float"/>
              <param name="Z" type="float"/>
            </accessor>
          </technique_common>
        </source>
        <source id="Object045-UV0">
          <float_array id="Object045-UV0-array" count="36">
0.680913 0.650734
1.000447 0.679935
1.003486 0.650734
0.677874 0.644702
0.999629 0.679745
0.677056 0.644580
1.004923 0.263542
1.003486 0.614246
1.004922 0.299956
1.004087 0.650860
0.999629 0.644580
1.001802 0.293197
1.000447 0.644702
1.001802 0.328890
0.679229 0.293197
1.004087 0.615071
0.681514 0.650860
0.682349 0.299956
</float_array>
          <technique_common>
            <accessor source="#Object045-UV0-array" count="18" stride="2">
              <param name="S" type="float"/>
              <param name="T" type="float"/>
            </accessor>
          </technique_common>
        </source>
        <vertices id="Object045-VERTEX">
          <input semantic="POSITION" source="#Object045-POSITION"/>
        </vertices>
        <triangles count="6" material="rainpipes01">
          <input semantic="VERTEX" offset="0" source="#Object045-VERTEX"/>
          <input semantic="NORMAL" offset="1" source="#Object045-Normal0"/>
          <input semantic="TEXCOORD" offset="2" set="0" source="#Object045-UV0"/>
          <p> 4 0 4 5 1 5 10 2 10 7 3 7 0 4 0 2 5 2 6 6 6 7 7 17 8 8 8 5 9 15 6 10 16 9 11 9 12 12 12 1 13 1 3 14 3 11 15 11 3 16 13 4 17 14</p>
        </triangles>
      </mesh>
    </geometry>
  </library_geometries>
  <library_visual_scenes>
    <visual_scene id="" name="">
      <node name="Box055" id="Box055" layer="factory_roof_01_right" sid="Box055">
        <matrix sid="matrix">1.000000 0.000000 0.000000 0.000000 0.000000 0.000000 1.000000 0.000000 0.000000 -1.000000 0.000000 0.000000 0.000000 0.000000 0.000000 1.000000</matrix>
        <instance_geometry url="#Box055-lib">
          <bind_material>
            <technique_common>
              <instance_material symbol="rainpipes01" target="#rainpipes01"/>
            </technique_common>
          </bind_material>
        </instance_geometry>
        <extra>
          <technique profile="FCOLLADA">
            <visibility>1.000000</visibility>
          </technique>
        </extra>
      </node>
      <node name="Object043" id="Object043" layer="factory_roof_01_right" sid="Object043">
        <matrix sid="matrix">1.000000 0.000000 0.000000 0.000000 0.000000 0.000000 1.000000 0.000000 0.000000 -1.000000 0.000000 0.000000 0.000000 0.000000 0.000000 1.000000</matrix>
        <instance_geometry url="#Object043-lib">
          <bind_material>
            <technique_common>
              <instance_material symbol="rainpipes01" target="#rainpipes01"/>
            </technique_common>
          </bind_material>
        </instance_geometry>
        <extra>
          <technique profile="FCOLLADA">
            <visibility>1.000000</visibility>
          </technique>
        </extra>
      </node>
      <node name="Object044" id="Object044" layer="factory_roof_01_right" sid="Object044">
        <matrix sid="matrix">1.000000 0.000000 0.000000 0.000000 0.000000 0.000000 1.000000 0.000000 0.000000 -1.000000 0.000000 0.000000 0.000000 0.000000 0.000000 1.000000</matrix>
        <instance_geometry url="#Object044-lib">
          <bind_material>
            <technique_common>
              <instance_material symbol="rainpipes" target="#rainpipes"/>
            </technique_common>
          </bind_material>
        </instance_geometry>
        <extra>
          <technique profile="FCOLLADA">
            <visibility>1.000000</visibility>
          </technique>
        </extra>
      </node>
      <node name="Box056" id="Box056" layer="factory_roof_01_right" sid="Box056">
        <matrix sid="matrix">1.000000 0.000000 0.000000 0.000000 0.000000 0.000000 1.000000 0.000000 0.000000 -1.000000 0.000000 0.000000 0.000000 0.000000 0.000000 1.000000</matrix>
        <instance_geometry url="#Box056-lib">
          <bind_material>
            <technique_common>
              <instance_material symbol="roof" target="#roof"/>
            </technique_common>
          </bind_material>
        </instance_geometry>
        <extra>
          <technique profile="FCOLLADA">
            <visibility>1.000000</visibility>
          </technique>
        </extra>
      </node>
      <node name="Box057" id="Box057" layer="factory_roof_01_right" sid="Box057">
        <matrix sid="matrix">0.000000 -0.000000 -1.000000 0.000000 0.000000 1.000000 -0.000000 0.000000 1.000000 0.000000 0.000000 0.000000 0.000000 0.000000 0.000000 1.000000</matrix>
        <instance_geometry url="#Box057-lib">
          <bind_material>
            <technique_common>
              <instance_material symbol="factory_facade" target="#factory_facade"/>
            </technique_common>
          </bind_material>
        </instance_geometry>
        <extra>
          <technique profile="FCOLLADA">
            <visibility>1.000000</visibility>
          </technique>
        </extra>
      </node>
      <node name="Object045" id="Object045" layer="factory_roof_01_right" sid="Object045">
        <matrix sid="matrix">0.000000 -0.000000 -1.000000 0.000000 0.000000 1.000000 -0.000000 0.000000 1.000000 0.000000 0.000000 0.000000 0.000000 0.000000 0.000000 1.000000</matrix>
        <instance_geometry url="#Object045-lib">
          <bind_material>
            <technique_common>
              <instance_material symbol="rainpipes01" target="#rainpipes01"/>
            </technique_common>
          </bind_material>
        </instance_geometry>
        <extra>
          <technique profile="FCOLLADA">
            <visibility>1.000000</visibility>
          </technique>
        </extra>
      </node>
      <extra>
        <technique profile="MAX3D">
          <frame_rate>30.000000</frame_rate>
        </technique>
        <technique profile="FCOLLADA">
          <start_time>0.000000</start_time>
          <end_time>3.333333</end_time>
        </technique>
      </extra>
    </visual_scene>
  </library_visual_scenes>
  <scene>
    <instance_visual_scene url="#"></instance_visual_scene>
  </scene>
</COLLADA>

