﻿<?xml version="1.0" encoding="utf-8"?>
<COLLADA xmlns="http://www.collada.org/2005/11/COLLADASchema" version="1.4.1">
  <asset>
    <contributor>
      <author>marc</author>
      <authoring_tool>Maya7.0 | ColladaMaya v3.05B</authoring_tool>
      <comments>ColladaMaya export options: bakeTransforms=0;exportPolygonMeshes=1;bakeLighting=0;isSampling=0;
curveConstrainSampling=0;removeStaticCurves=1;exportCameraAsLookat=0;
exportLights=1;exportCameras=1;exportJointsAndSkin=1;
exportAnimations=1;exportTriangles=1;exportInvisibleNodes=0;
exportNormals=1;exportTexCoords=1;
exportVertexColors=1;exportVertexColorsAnimation=0;exportTangents=0;
exportTexTangents=0;exportConstraints=1;exportPhysics=1;exportXRefs=1;
dereferenceXRefs=0;cameraXFov=0;cameraYFov=1</comments>
      <source_data>file:///E:/lux/work_static_objects/castlebase/pillars/arched_roof.mb</source_data>
    </contributor>
    <created>2010-01-26T16:23:50Z</created>
    <modified>2010-01-26T16:23:50Z</modified>
    <up_axis>Y_UP</up_axis>
    <hpl2scaling />
  </asset>
  <library_physics_scenes>
    <physics_scene id="MayaNativePhysicsScene">
      <technique_common>
        <gravity>0 -980 0</gravity>
        <time_step>0.083</time_step>
      </technique_common>
    </physics_scene>
  </library_physics_scenes>
  <library_images>
    <image id="file5" name="file5">
      <init_from>file:///E:/lux/redist/static_objects/cisternbase/ceiling/stone_arched.dds</init_from>
      <extra>
        <technique profile="MAYA">
          <dgnode_type>kFile</dgnode_type>
          <image_sequence>0</image_sequence>
        </technique>
      </extra>
    </image>
  </library_images>
  <library_materials>
    <material id="lambert7" name="lambert7">
      <instance_effect url="#lambert7-fx" />
    </material>
  </library_materials>
  <library_effects>
    <effect id="lambert7-fx">
      <profile_COMMON>
        <newparam sid="file5-surface">
          <surface type="2D">
            <init_from>file5</init_from>
            <format>A8R8G8B8</format>
          </surface>
        </newparam>
        <newparam sid="file5-sampler">
          <sampler2D>
            <source>file5-surface</source>
            <wrap_s>WRAP</wrap_s>
            <wrap_t>WRAP</wrap_t>
            <minfilter>NONE</minfilter>
            <magfilter>NONE</magfilter>
            <mipfilter>NONE</mipfilter>
          </sampler2D>
        </newparam>
        <technique sid="common">
          <lambert>
            <emission>
              <color>0 0 0 1</color>
            </emission>
            <ambient>
              <color>0 0 0 1</color>
            </ambient>
            <diffuse>
              <texture texture="file5-sampler" texcoord="TEX0">
                <extra>
                  <technique profile="MAYA">
                    <wrapU>1</wrapU>
                    <wrapV>1</wrapV>
                    <mirrorU>0</mirrorU>
                    <mirrorV>0</mirrorV>
                    <coverageU>1</coverageU>
                    <coverageV>1</coverageV>
                    <translateFrameU>0</translateFrameU>
                    <translateFrameV>0</translateFrameV>
                    <rotateFrame>0</rotateFrame>
                    <stagger>0</stagger>
                    <fast>0</fast>
                    <repeatU>1</repeatU>
                    <repeatV>1</repeatV>
                    <offsetU>0</offsetU>
                    <offsetV>0</offsetV>
                    <rotateUV>0</rotateUV>
                    <noiseU>0</noiseU>
                    <noiseV>0</noiseV>
                    <blend_mode>NONE</blend_mode>
                  </technique>
                </extra>
              </texture>
            </diffuse>
            <transparent opaque="RGB_ZERO">
              <color>0 0 0 1</color>
            </transparent>
            <transparency>
              <float>1</float>
            </transparency>
          </lambert>
          <extra>
            <technique profile="FCOLLADA" />
          </extra>
        </technique>
      </profile_COMMON>
    </effect>
  </library_effects>
  <library_geometries>
    <geometry id="pCubeShape2" name="pCubeShape2">
      <mesh>
        <source id="pCubeShape2-positions" name="position">
          <float_array id="pCubeShape2-positions-array" count="648">-1.13464 -1.5 -0.75 -1.13464 -1.5 0.75 -0.75 -1.5 1.12905 0.75 -1.5 1.12905 1.13464 -1.5 0.75 1.13464 -1.5 -0.75 0.75 -1.5 -1.13464 -0.75 -1.5 -1.13464 -3 0 -2.5 -2.5 0 -3 2.5 0 -3 3 0 -2.5 3 0 2.5 2.5 0 3 -3 0 2.5 -2.5 0 3 1.59534 -0.293 1.97807 -1.59534 -0.293 1.97807 -1.97978 -0.293 1.59519 -1.97978 -0.293 -1.5955 -1.59534 -0.293 -1.97994 1.59534 -0.293 -1.97994 1.97978 -0.293 -1.5955 1.97978 -0.293 1.59519 1.0836 -0.893643 1.4236 -1.0836 -0.893643 1.4236 -1.42696 -0.893643 1.08325 -1.42696 -0.893643 -1.08395 -1.0836 -0.893643 -1.42731 1.0836 -0.893643 -1.42731 1.42696 -0.893643 -1.08395 1.42696 -0.893643 1.08325 -0.6375 -2 -0.964787 0.6375 -2 -0.964787 0.964442 -2 -0.637845 0.964442 -2 0.637155 0.6375 -2 0.959351 -0.6375 -2 0.959351 -0.964441 -2 0.637155 -0.964441 -2 -0.637845 -0.75 -2.19555 -1.13464 0.75 -2.19555 -1.13464 0.6375 -2.19555 -0.964787 -0.6375 -2.19555 -0.964787 1.13464 -2.19555 -0.75 0.964442 -2.19555 -0.637845 1.13464 -2.19555 0.75 0.964442 -2.19555 0.637154 0.75 -2.19555 1.12905 0.6375 -2.19555 0.959351 -0.75 -2.19555 1.12906 -0.6375 -2.19555 0.959351 -1.13464 -2.19555 0.75 -0.964441 -2.19555 0.637155 -1.13464 -2.19555 -0.75 -0.964441 -2.19555 -0.637845 -3 0 3 3 0 3 3 0 -3 -3 0 -3 -0.5 -1.5 1.12905 -0.5 -1.5 -1.13464 -0.5 0 -3 -0.5 0 3 -0.5 -0.25 1.97807 -0.5 -0.25 -1.97994 -0.5 -0.893644 1.4236 -0.5 -0.893643 -1.42731 -0.5 -2.19555 -1.13464 -0.5 -2.19555 1.12905 0.5 -1.5 -1.13464 0.5 -0.25 1.97807 0.5 -0.893644 1.4236 0.5 -1.5 1.12905 0.5 0 -3 0.5 0 3 0.5 -0.25 -1.97994 0.5 -0.893643 -1.42731 0.5 -2.19555 -1.13464 0.5 -2.19555 1.12905 -1.13464 -1.5 -0.5 1.13464 -1.5 -0.5 3 0 -0.5 -3 0 -0.5 -1.97978 -0.293 -0.5 1.97978 -0.293 -0.5 -1.42696 -0.893643 -0.5 1.42696 -0.893643 -0.5 1.13464 -2.19555 -0.5 -1.13464 -2.19555 -0.5 1.13464 -1.5 0.5 3 0 0.5 -3 0 0.5 -1.97978 -0.293 0.5 -1.42696 -0.893643 0.5 -1.13464 -1.5 0.5 1.97978 -0.293 0.5 1.42696 -0.893643 0.5 1.13464 -2.19555 0.5 -1.13464 -2.19555 0.5 -0.5 -1.01545 -1.60661 -0.5 -1.54763 -1.34287 0.5 -1.01545 -1.60661 0.5 -1.54763 -1.34287 -0.5 -0.472487 -2.09081 0.5 -0.472487 -2.09081 -0.5 -2.30511 -1.2442 -0.5 -2.41467 -0.964787 0.5 -2.30511 -1.2442 0.5 -2.41467 -0.964786 0.5 -0.25 -3 -0.5 -0.25 -3 -0.5 -1.54787 1.33717 -0.5 -1.01583 1.60265 0.5 -1.54787 1.33717 0.5 -1.01583 1.60265 -0.5 -0.472636 2.08877 -0.5 -0.25 3 0.5 -0.472636 2.08877 0.5 -0.25 3 0.5 -2.30511 1.23862 -0.5 -2.30511 1.23862 0.5 -2.41467 0.959351 -0.5 -2.41467 0.959351 -1.34289 -1.54758 -0.5 -1.60627 -1.01542 -0.5 -1.34289 -1.54758 0.5 -1.60627 -1.01542 0.5 -2.09064 -0.472503 -0.5 -3 -0.25 -0.5 -2.09064 -0.472503 0.5 -3 -0.25 0.5 -1.2442 -2.30511 0.5 -1.2442 -2.30511 -0.5 -0.964443 -2.41467 0.5 -0.964443 -2.41467 -0.5 1.2442 -2.30511 -0.5 0.964443 -2.41467 -0.5 1.2442 -2.30511 0.5 0.964443 -2.41467 0.5 1.34289 -1.54758 0.5 1.60627 -1.01542 0.5 1.34289 -1.54758 -0.5 1.60627 -1.01542 -0.5 2.09064 -0.472502 0.5 3 -0.25 0.5 2.09064 -0.472502 -0.5 3 -0.25 -0.5 2.88125 0.002981 2.38678 2.88125 0.002981 0.523851 2.75 -0.25 0.5 2.75 -0.25 -0.5 2.88125 0.002981 -0.523849 2.87994 0.002981 -2.38588 2.39064 0.002981 -2.88118 0.52392 0.002981 -2.87985 0.5 -0.25 -2.74873 -0.5 -0.25 -2.75 -0.52378 0.002981 -2.88118 -2.38817 0.002981 -2.88262 -2.88233 0.002981 -2.38812 -2.88419 0.002981 -0.523849 -2.75294 -0.25 -0.5 -2.74589 -0.25 0.5 -2.8768 0.002981 0.523851 -2.8811 0.002981 2.38695 -2.38855 0.002981 2.88258 -0.52378 0.002981 2.88118 -0.5 -0.25 2.75 0.5 -0.25 2.75 0.52392 0.002981 2.88118 2.39257 0.002981 2.88118 2.88125 0.002981 2.88118 2.88125 0.002981 -2.88118 -2.88111 0.002981 -2.88118 -2.88111 0.002981 2.88118 -2.38855 -0.127981 2.88258 -0.52378 -0.127981 2.88118 -0.5 -0.125 3 -2.5 -0.125 3 -2.8811 -0.127981 2.38695 -3 -0.125 2.5 -2.88111 -0.127981 2.88118 -3 -0.125 3 -2.8768 -0.127981 0.523852 -3 -0.125 0.5 -3 -0.125 -2.5 -2.88233 -0.127981 -2.38812 -2.88419 -0.127981 -0.523849 -3 -0.125 -0.5 -3 -0.125 -3 -2.5 -0.125 -3 -2.38817 -0.127981 -2.88262 -2.88111 -0.127981 -2.88118 -0.52378 -0.127981 -2.88118 -0.5 -0.125 -3 2.5 -0.125 -3 2.39064 -0.127981 -2.88118 0.52392 -0.127981 -2.87985 0.5 -0.125 -3 2.87994 -0.127981 -2.38588 3 -0.125 -2.5 2.88125 -0.127981 -2.88118 3 -0.125 -3 2.88125 -0.127981 -0.523849 3 -0.125 -0.5 2.88125 -0.127981 2.38678 2.88125 -0.127981 0.523851 3 -0.125 0.5 3 -0.125 2.5 2.39257 -0.127981 2.88118 2.5 -0.125 3 2.88125 -0.127981 2.88118 3 -0.125 3 0.523921 -0.127981 2.88118 0.5 -0.125 3</float_array>
          <technique_common>
            <accessor source="#pCubeShape2-positions-array" count="216" stride="3">
              <param name="X" type="float" />
              <param name="Y" type="float" />
              <param name="Z" type="float" />
            </accessor>
          </technique_common>
        </source>
        <source id="pCubeShape2-normals" name="normal">
          <float_array id="pCubeShape2-normals-array" count="1524">-0.702776 -0.65878 -0.268542 -0.888957 -0.286368 -0.357419 -0.974881 -0.222728 0.000000 -0.827255 -0.561826 0.000000 -0.88767 -0.286844 0.360226 -0.974881 -0.222728 0 -1 0 0.000000 -0.922475 0 0.386057 0.354568 -0.286891 0.88993 0.000000 -0.224173 0.974549 0 -0.000000 1 0.379304 -0.000000 0.925272 -0.2644 -0.655206 -0.70767 0.008531 -0.552497 -0.833471 0 -0.222956 -0.974828 -0.357426 -0.286491 -0.888915 0.701771 -0.659324 0.269833 0.88767 -0.286844 0.360227 0.974881 -0.222728 0 0.827255 -0.561826 0 -0.262798 -0.655818 0.7077 -0.354568 -0.286891 0.88993 0 -0.224173 0.974549 0.008547 -0.554226 0.832322 -0.000013 -0.999682 0.025215 0.000009 -0.999682 0.025234 0.000009 -0.999682 0.025234 -0.000013 -0.999682 0.025215 -0.025345 -0.999679 -0.000021 -0.025345 -0.999679 -0.000021 -0.025524 -0.999674 -0.000012 -0.025524 -0.999674 -0.000012 -0.000004 -0.999687 -0.025013 -0.000004 -0.999687 -0.025013 -0.000008 -0.999689 -0.024945 -0.000008 -0.999689 -0.024945 0.025097 -0.999685 0 0.025097 -0.999685 0 0.025097 -0.999685 0 0.025097 -0.999685 0 -0.113534 -0.907364 0.404724 0.016072 -0.839372 0.54332 -0.403613 -0.907011 -0.120114 -0.541035 -0.841 -0.0001 -0.113994 -0.90718 -0.405006 0.016061 -0.838765 -0.544257 0.403563 -0.907023 0.120191 0.541348 -0.840799 0 0 -1 -0.000001 0 -1 -0.000001 0 -1 -0.000001 0.000003 -1 0.000000 0.000003 -1 0.000000 0.000003 -1 0.000000 0 -1 0.000000 0 -1 0.000000 0 -1 0.000000 -0.000003 -1 -0.000000 -0.000003 -1 -0.000000 -0.000003 -1 -0.000000 0.357426 -0.286491 -0.888915 0.382684 0 -0.92388 0.000000 -0.000000 -1 0.000000 -0.222956 -0.974828 -0.252725 0.000001 0.967538 -0.382683 0.000000 0.92388 0.382684 0 0.923879 0.252725 0.000001 0.967538 0.922475 0 0.386058 1 0 0 -0.966966 -0.000001 -0.254904 -0.922475 0.000000 -0.386058 -0.92388 0.000000 0.382683 -0.967538 -0.000001 0.252725 -0.250541 0.000000 -0.968106 0.250541 0 -0.968106 0.379304 -0.000000 -0.925272 -0.379304 0.000000 -0.925272 0.966967 -0.000001 -0.254903 0.967538 -0.000001 0.252724 0.92388 0 0.382683 0.922475 0 -0.386057 -0.000001 -1 0.000000 -0.000001 -1 0.000000 -0.000001 -1 0.000000 -0.000001 -1 0.000000 -0.379304 0 0.925272 -0.701771 -0.659324 0.269833 -0.40376 -0.906948 0.120095 -0.024849 -0.999691 -0.000013 -0.024849 -0.999691 -0.000013 -0.025066 -0.999686 -0.000000 -0.025066 -0.999686 -0.000000 -0.000001 -1 -0.000000 -0.000001 -1 -0.000000 -0.000001 -1 -0.000000 -0.000001 -1 -0.000000 -0.382684 0 -0.923879 -0.92388 0 -0.382683 -0.025166 -0.999683 -0.000031 -0.025166 -0.999683 -0.000031 0.000001 -1 -0.000001 0.000001 -1 -0.000001 0.000001 -1 -0.000001 0.000001 -1 -0.000001 0.888957 -0.286368 -0.35742 0.92388 0 -0.382684 0.702776 -0.65878 -0.268542 0.2644 -0.655206 -0.70767 0.113804 -0.907057 -0.405334 0.404201 -0.906795 -0.119764 0.024974 -0.999688 0.000012 0.024974 -0.999688 0.000012 0.024991 -0.999688 0.000032 0.024991 -0.999688 0.000032 0.000001 -1 0.000000 0.000001 -1 0.000000 0.000001 -1 0.000000 0.000001 -1 0.000000 0.262797 -0.655818 0.7077 0.113379 -0.907264 0.404991 0 -0.999685 0.025082 0 -0.999685 0.025082 0 -0.999685 0.025082 0 -0.999685 0.025082 0.000000 0 1 0 -0.290569 -0.956854 0 -0.559831 -0.828607 0 -0.559831 -0.828607 0 -0.290569 -0.956854 0 -0.561686 0.827351 0 -0.291821 0.956473 0 -0.291821 0.956473 0 -0.561686 0.827351 0 -1 0 0 -0.986844 0.161676 0 -0.986844 0.161676 0 -1 0 0.000009 -0.999681 -0.025239 0.000009 -0.999681 -0.025239 -0.000013 -0.999682 -0.025219 -0.000013 -0.999682 -0.025219 0 -0.834933 0.550352 0 -0.834933 0.550352 0.000105 -0.834168 -0.55151 0.000105 -0.834168 -0.55151 0.000000 -0.930987 -0.365052 0.000000 -0.615736 -0.787953 0.000000 -0.615736 -0.787953 0.000000 -0.930987 -0.365052 0 -1 -0.000000 0 -1 -0.000000 0 -1 -0.000000 0 0 -1 -0.000000 -0.615619 0.788044 -0.000000 -0.615619 0.788044 0 -1 0 0.000102 -0.986761 -0.162182 0.000102 -0.986761 -0.162182 0 -1 0 -0.000000 -0.930921 0.365221 -0.000000 -0.930921 0.365221 -0.008531 -0.552497 -0.833471 -0.008547 -0.554226 0.832322 0 -0.999685 0.025082 0 -0.999685 0.025082 -0.015989 -0.839324 0.543396 -0.016047 -0.838643 -0.544445 0.000002 -1 0.000001 0.000002 -1 0.000001 0.000002 -1 0.000001 -0.828697 -0.559698 0 -0.956929 -0.290321 0 -0.956929 -0.290321 0 -0.828697 -0.559698 0 -1 0 0 0.827255 -0.561826 0 0.974881 -0.222728 0 0 -1 0 -0.162142 -0.986767 0.000571 -0.162142 -0.986767 0.000571 0 -1 0 0.024956 -0.999689 -0.000008 0.024956 -0.999689 -0.000008 -0.551386 -0.83425 0.000583 -0.551386 -0.83425 0.000583 0.541413 -0.840756 -0.000071 0.364667 -0.931138 -0.000000 0.787819 -0.615906 -0.000000 0.787819 -0.615906 -0.000000 0.364667 -0.931138 -0.000000 -0.000005 -1 0.000001 -0.000005 -1 0.000001 -0.000005 -1 0.000001 1 0 0 -0.787819 -0.615906 0.000000 -0.787819 -0.615906 0.000000 0.828697 -0.559698 0 0.956929 -0.290321 0 0.956929 -0.290321 0 0.828697 -0.559698 0 0 -1 0 0.162009 -0.986789 0 0.162009 -0.986789 0 0 -1 0 0.551274 -0.834324 0 0.551274 -0.834324 0 -0.364667 -0.931138 0.000000 -0.364667 -0.931138 0.000000 -0.827255 -0.561826 -0.000000 0 -1 0 0 -1 0 0 -1 0 0 -1 0 0 -1 0 0 -1 0 0 -1 0 0 -1 0 -0.024631 -0.999697 -0.000027 -0.024631 -0.999697 -0.000027 -0.541748 -0.840541 -0.000234 0.000005 -1 -0.000001 0.000005 -1 -0.000001 0.000005 -1 -0.000001 -1 0 0 -1 0 0 -1 0 0 -1 0 0 1 0 0 1 0 0 1 0 0 1 0 0 -0.999688 -0.024983 0 -0.999688 -0.024983 0 0.999684 -0.02513 0 0.999684 -0.02513 0 -0.698583 -0.438361 -0.565528 -0.92157 -0.237834 -0.306828 -0.92157 -0.237834 -0.306828 0.92157 -0.237833 -0.306828 0.92157 -0.237833 -0.306828 1 0.000000 0 -0.000000 0.000004 1 -0.000000 0.000004 1 0.995923 -0.063949 -0.063626 0.997859 -0.057128 -0.03183 0.997859 -0.057128 -0.03183 0.995923 -0.063949 -0.063626 -0.997874 -0.056855 -0.031866 -0.995934 -0.063698 -0.063698 -0.995934 -0.063698 -0.063698 -0.997874 -0.056855 -0.031866 0 0 -1 0 0 -1 0 0 -1 0 0 -1 1 0 0 1 0 0 -1 0 0 -1 0 0 -1 0 0 -1 0 0 -1 0 0 -1 0 0 1 -0.000000 0 1 0 0 1 0 0 1 -0.000000 0 -0.995934 -0.063699 0.063699 -0.997874 -0.056848 0.031866 -0.997874 -0.056848 0.031866 -0.995934 -0.063699 0.063699 0.997849 -0.057181 0.032053 0.995886 -0.064071 0.064071 0.995886 -0.064071 0.064071 0.997849 -0.057181 0.032053 0 0 1 0 0 1 0 0 1 0 0 1 -0.999688 -0.024975 0 -0.999688 -0.024975 0 0.999684 -0.025123 0 0.999684 -0.025123 0 1 -0.000000 0.000000 1 -0.000000 0.000000 -1 0 -0.000000 -1 0 -0.000000 0.69839 -0.438238 0.565861 0.921518 -0.237781 0.307027 0.921518 -0.237781 0.307027 -0.921518 -0.23778 0.307027 -0.921518 -0.23778 0.307027 -1 0.000000 -0.000000 -0.000000 0 -1 -0.000000 0 -1 -0.000000 0 -1 0 0 -1 0 0 -1 -0.000000 0 -1 0 0 1 0.000000 0 1 0.000000 0 1 0 0 1 -0.064921 -0.064158 -0.995826 -0.034012 -0.059711 -0.997636 -0.034012 -0.059711 -0.997636 -0.064921 -0.064158 -0.995826 -0.032795 -0.059375 0.997697 -0.062462 -0.063488 0.996026 -0.062462 -0.063488 0.996026 -0.032795 -0.059375 0.997697 -1 0 0 -1 0 0 -1 0 0 -1 0 0 -0.001535 -0.027613 -0.999618 -0.001535 -0.027613 -0.999618 -0.001549 -0.027615 0.999617 -0.001549 -0.027615 0.999617 0 0 1 0 0 1 0 0 -1 0 0 -1 -0.564055 -0.438101 0.699935 -0.305908 -0.237598 0.921937 -0.305908 -0.237598 0.921937 -0.306823 -0.238308 -0.921449 -0.306823 -0.238308 -0.921449 -0.000000 -0.000000 -1 1 -0.000005 0 1 -0.000005 0 0.565441 -0.439177 -0.69814 0.306821 -0.238308 -0.92145 0.306821 -0.238308 -0.92145 0.305908 -0.237598 0.921937 0.305908 -0.237598 0.921937 0.000000 -0.000000 1 -1 -0.000005 0 -1 -0.000005 0 0 0 1 0 0 1 0 0 1 0 0 1 0 0 -1 0.000000 0 -1 0.000000 0 -1 0 0 -1 0.063899 -0.063899 0.995908 0.033506 -0.059583 0.997661 0.033506 -0.059583 0.997661 0.063899 -0.063899 0.995908 0.033504 -0.059578 -0.997661 0.063894 -0.063894 -0.995909 0.063894 -0.063894 -0.995909 0.033504 -0.059578 -0.997661 1 0.000000 0 1 0.000000 0 1 0.000000 0 1 0.000000 0 0.001541 -0.027615 0.999617 0.001541 -0.027615 0.999617 0.001541 -0.027613 -0.999617 0.001541 -0.027613 -0.999617 0 0 1 0 0 1 -0.000000 0 -1 -0.000000 0 -1 -0.565443 -0.439177 -0.698139 -1 -0.000000 0 0.698584 -0.438361 -0.565527 -0.000000 0.000000 -1 0.564056 -0.438101 0.699935 1 -0.000000 0.000000 -0.698391 -0.438237 0.565861 0.000000 0.000000 1 0.311948 -0.950099 0 0.311948 -0.950099 0 0.312554 -0.9499 0.000343 0.312096 -0.95005 -0.000137 0.132915 -0.982175 -0.132915 -0.013992 -0.954671 -0.297333 -0.006996 -0.952425 -0.304693 0.006552 -0.952684 -0.303892 0.014016 -0.954804 -0.296906 -0.000912 -0.950461 -0.310844 -0.311242 -0.950331 -0.000195 -0.31112 -0.95037 -0.000483 -0.312427 -0.949942 -0.000229 -0.312853 -0.949801 -0.000454 -0.13259 -0.98219 0.133129 0.014012 -0.954976 0.296353 0.006565 -0.952858 0.303344 -0.006927 -0.952647 0.303998 -0.013853 -0.954924 0.296527 0 -0.950267 0.311436 0.001045 0 -0.999999 -0.00075 0 -1 -0.00075 0 -1 0.001045 0 -0.999999 0 0 1 0 0 1 0 0 1 0 0 1 0.999999 0 0.001161 1 0.000000 0.000017 1 0.000000 0.000017 0.999999 0 0.001161 0.002841 0 -0.999996 0.002841 0 -0.999996 0 0 1 0 0 1 -1 0.000000 0 -1 0 0 -1 0 0 -1 0.000000 0 0.999997 -0.000000 0.002305 0.999997 -0.000000 0.002305 -1 -0.000000 0 -1 -0.000000 0 0.999998 -0.000000 0.001738 1 0 0.000995 1 0 0.000995 0.999998 -0.000000 0.001738 -1 -0.000000 0 -1 -0.000000 0 -1 -0.000000 0 -1 -0.000000 0 -1 0 0 -1 0 0 0 0 -1 0 0 -1 0 0 -1 0 0 -1 0.001079 0 0.999999 0.002936 0 0.999996 0.002936 0 0.999996 0.001079 0 0.999999 0.999997 -0.000000 0.00248 0.999997 -0.000000 0.00248 -0.000776 0 1 -0.000776 0 1 0 0 -1 0 0 -1 0.000356 0 1 0.000712 0 1 0.000712 0 1 0.000356 0 1 0 0 -1 0 0 -1 0 0 -1 0 0 -1 -1 0.000001 -0.000968 -0.999996 0.000001 -0.002638 -0.999996 0.000001 -0.002638 -1 0.000001 -0.000968 0 0 1 0 0 1 0 0 -1 0 0 -1 1 0.000000 0 1 0 0 1 0 0 1 0.000000 0 -1 0.000001 0.000701 -1 0.000001 0.000701 1 -0.000000 0 1 -0.000000 0 -1 0 0 -1 0.000000 0 -1 0.000000 0 -1 0 0 1 -0.000000 0 1 -0.000000 0 1 -0.000000 0 1 -0.000000 0 0 0 -1 0 0 -1 0 0 -1 0 0 -1 -1 -0.000000 0 -1 -0.000000 0 1 0 0 1 0 0 0 0 1 0 0 1 0 0 1 0 0 1 0 0 -1 0 0 -1 0 0 1 0 0 1 -0.000035 -0.999683 0.025196 -0.000035 -0.999683 0.025196 -0.000036 -0.999682 -0.025199 -0.000036 -0.999682 -0.025199 0 -0.999685 -0.025082 0 -0.999685 -0.025082 0.025097 -0.999685 0 0.025097 -0.999685 0 0.311949 -0.950099 0 0.132582 -0.982192 0.133121 -0.000881 -0.950638 0.310302 -0.311999 -0.950082 -0.000005 -0.310998 -0.95041 -0.000771 -0.132924 -0.982172 -0.132923 0 -0.950076 -0.312019 0.313012 -0.949749 0.000825</float_array>
          <technique_common>
            <accessor source="#pCubeShape2-normals-array" count="508" stride="3">
              <param name="X" type="float" />
              <param name="Y" type="float" />
              <param name="Z" type="float" />
            </accessor>
          </technique_common>
        </source>
        <source id="pCubeShape2-map1" name="map1">
          <float_array id="pCubeShape2-map1-array" count="808">0.311803 0.686594 0.451539 0.878014 0.421002 0.573206 0.421002 0.686594 0.540305 0.750557 0.538362 0.878014 0.421002 0.450861 0.458987 0.976736 0.216145 0.798914 0.421002 0.798914 0.530914 0.976736 0.616281 0.577185 0.569531 0.577185 0.569531 0.447118 0.616281 0.447118 0.569531 0.690573 0.540305 0.750557 0.458987 0.976736 0.451539 0.878014 0.449503 0.750557 0.569531 0.79395 0.774388 0.79395 0.616281 0.577185 0.569531 0.577185 0.569531 0.447118 0.616281 0.447118 0.569531 0.690573 0.540305 0.750558 0.458987 0.976736 0.451539 0.878014 0.449503 0.750557 0.569531 0.79395 0.774388 0.79395 0.67873 0.690573 0.569531 0.690573 0.569531 0.577185 0.616281 0.577185 0.774388 0.79395 0.569531 0.79395 0.569531 0.447118 0.616281 0.447118 0.311803 0.686594 0.374252 0.573206 0.421002 0.573206 0.421002 0.686594 0.374252 0.450861 0.421002 0.450861 0.216145 0.798914 0.421002 0.798914 0.311803 0.686594 0.374252 0.573206 0.421002 0.573206 0.421002 0.686594 0.421002 0.450861 0.374252 0.450861 0.216145 0.798914 0.421002 0.798914 0.444097 0.604317 0.67873 0.690573 0.545762 0.604317 0.530914 0.976736 0.444097 0.604317 0.538362 0.878014 0.545763 0.604317 0.444096 0.604317 0.449503 0.750557 0.216145 0.798914 0.421002 0.798914 0.545763 0.604317 0.421002 0.686594 0.449503 0.750557 0.569531 0.79395 0.540305 0.750557 0.569531 0.690573 0.538362 0.878014 0.451539 0.878014 0.444096 0.604317 0.545763 0.604317 0.374252 0.450861 0.774388 0.79395 0.374252 0.573206 0.458987 0.976736 0.421002 0.450861 0.421002 0.573206 0.374252 0.450861 0.530913 0.976736 0.311803 0.686594 0.569531 0.577185 0.616281 0.577185 0.67873 0.690573 0.569531 0.447118 0.616281 0.447118 0.538362 0.878014 0.530913 0.976736 0.67873 0.690573 0.374252 0.573206 0.261048 0.20795 0.261048 0.329266 0.06783 0.329266 0.06783 0.20795 0.261048 0.478658 0.067831 0.478658 0.067831 0.061639 0.261048 0.061638 0.06783 0.329266 0.06783 0.20795 0.261048 0.20795 0.261048 0.329266 0.261048 0.061638 0.067831 0.061638 0.067831 0.478658 0.261048 0.478658 0.06783 0.666392 0.06783 0.707091 0.261048 0.707091 0.261048 0.666392 0.261048 0.007679 0.261048 0.666392 0.298926 0.665738 0.067831 0.007679 0.06783 0.666392 0.313649 0.008614 0.261048 0.007679 0.261048 0.666392 0.261048 0.007679 0.298185 0.061141 0.06783 0.666392 0.067831 0.007679 0.067831 0.329266 0.067831 0.207951 0.261048 0.20795 0.261048 0.329266 0.261048 0.061638 0.067831 0.061638 0.067831 0.478658 0.261048 0.478658 0.06783 0.666392 0.261048 0.478658 0.298356 0.47893 0.261048 0.666392 0.298356 0.47893 0.261048 0.061638 0.06783 0.061638 0.067831 0.007679 0.06783 0.329266 0.06783 0.20795 0.261048 0.20795 0.261048 0.329266 0.067831 0.478658 0.028162 0.478421 0.29818 0.329821 0.297482 0.207638 0.013982 0.007056 0.025039 0.666664 0.027952 0.328413 0.298185 0.061141 0.261048 0.007679 0.028162 0.478421 0.028113 0.208448 0.067831 0.007679 0.297482 0.207638 0.29818 0.329821 0.029136 0.061965 0.028113 0.208448 0.298356 0.478931 0.027952 0.328413 0.298185 0.061141 0.06783 0.707091 0.298926 0.665738 0.261048 0.707091 0.02504 0.666665 0.313649 0.008614 0.027952 0.328413 0.028113 0.208448 0.313649 0.008614 0.298926 0.665738 0.029137 0.061965 0.298926 0.665738 0.028162 0.478421 0.298185 0.061141 0.261048 0.707091 0.06783 0.707091 0.313649 0.008614 0.013982 0.007056 0.298356 0.47893 0.261048 0.707091 0.29818 0.329821 0.297482 0.207638 0.027952 0.328413 0.028113 0.208448 0.013982 0.007056 0.067831 0.707091 0.029137 0.061965 0.29818 0.329821 0.028162 0.478421 0.029136 0.061965 0.025039 0.666664 0.025039 0.666664 0.297482 0.207638 0.013982 0.007056 0.487152 0.103668 0.938648 0.048553 0.846502 0.048554 0.846501 0.103668 0.846501 0.103668 0.846501 0.048553 0.938648 0.048554 0.938648 0.103668 0.807748 0.165427 0.525905 0.165426 0.487152 0.103668 0.938648 0.048554 0.938648 0.103668 0.487152 0.048553 0.846501 0.103668 0.846501 0.048553 0.807748 0.165426 0.525905 0.165426 0.525905 0.165426 0.487152 0.103668 0.938648 0.048553 0.807748 0.165426 0.807748 0.165427 0.525905 0.165426 0.846501 0.103668 0.846501 0.048553 0.487152 0.048553 0.487152 0.103668 0.487152 0.048553 0.938648 0.103668 0.487151 0.048554 0.938648 0.103668 0.690865 0.282803 0.931366 0.282803 0.992142 0.344474 0.992142 0.584976 0.931366 0.646646 0.690865 0.646646 0.629194 0.584976 0.629194 0.344474 0.896029 0.191918 0.966002 0.261892 0.880018 0.270905 0.698328 0.269577 0.682276 0.190356 0.612303 0.260329 0.896029 0.191919 0.966002 0.261892 0.880018 0.270906 0.698328 0.269577 0.682276 0.190356 0.612303 0.260329 0.896029 0.191919 0.966002 0.261892 0.880018 0.270906 0.698328 0.269577 0.682276 0.190356 0.612302 0.260329 0.896028 0.191919 0.966002 0.261892 0.880017 0.270906 0.698328 0.269577 0.682276 0.190356 0.612303 0.260329 0.432578 0.382575 0.088481 0.94291 0.421002 0.941968 0.025821 0.619573 0.06783 0.613702 0.261048 0.615157 0.298787 0.620296 0.569531 0.938322 0.901875 0.937747 0.560864 0.387003 0.087813 0.943663 0.432519 0.38157 0.421002 0.9427 0.025809 0.620295 0.06783 0.614509 0.261048 0.615964 0.29879 0.621013 0.569531 0.939054 0.560902 0.386357 0.902305 0.938232 0.088257 0.943163 0.432559 0.382237 0.421002 0.943494 0.025796 0.621079 0.06783 0.615388 0.261048 0.613933 0.298784 0.619209 0.569531 0.937212 0.902081 0.937979 0.560882 0.386694 0.43255 0.382092 0.08816 0.943272 0.421002 0.944149 0.025785 0.621725 0.06783 0.61613 0.261048 0.614678 0.298786 0.619853 0.569531 0.93787 0.903064 0.939088 0.560971 0.385215 0.495585 0.323831 0.495502 0.324222 0.495541 0.324233 0.495527 0.324328 0.452978 0.102645 0.453001 0.337788 0.420359 0.337827 0.420045 0.073531 0.375371 0.007695 0.453019 0.040455 0.375505 0.073769 0.342502 0.103136 0.376037 0.338064 0.342468 0.338132 0.420045 0.073531 0.452978 0.102645 0.453001 0.337788 0.420359 0.337827 0.375371 0.007695 0.453019 0.040455 0.375505 0.073769 0.342502 0.103136 0.376037 0.338064 0.342468 0.338132 0.420046 0.073531 0.452978 0.102645 0.453001 0.337788 0.420359 0.337827 0.375371 0.007695 0.453019 0.040455 0.375505 0.073769 0.342502 0.103136 0.376037 0.338064 0.342468 0.338132 0.452978 0.102645 0.453001 0.337788 0.420359 0.337827 0.420045 0.073531 0.375372 0.007695 0.453019 0.040455 0.375505 0.073769 0.342502 0.103136 0.376037 0.338064 0.342468 0.338132 0.469512 0.102645 0.469512 0.337788 0.325959 0.040798 0.325959 0.103136 0.469512 0.040455 0.419967 0.007457 0.40384 0.337846 0.403527 0.07355 0.392023 0.073735 0.39189 0.007662 0.403449 0.007476 0.419967 0.007457 0.325959 0.103137 0.325959 0.040799 0.342439 0.040799 0.403449 0.007476 0.325959 0.338131 0.403527 0.07355 0.39189 0.007662 0.392023 0.073736 0.392556 0.338031 0.469512 0.102645 0.392556 0.338031 0.469512 0.337788 0.469512 0.102645 0.469512 0.337788 0.419967 0.007457 0.419967 0.007457 0.469512 0.040455 0.342439 0.040798 0.40384 0.337846 0.403527 0.07355 0.325959 0.338131 0.39189 0.007662 0.403449 0.007476 0.392023 0.073735 0.39189 0.007662 0.392023 0.073735 0.469512 0.040455 0.40384 0.337846 0.392556 0.338031 0.392556 0.338031 0.325959 0.103136 0.325959 0.040798 0.342439 0.040798 0.325959 0.040798 0.325959 0.338131 0.325959 0.103136 0.469512 0.102645 0.469513 0.337788 0.325959 0.338131 0.403449 0.007476 0.469513 0.040455 0.342439 0.040798 0.40384 0.337846 0.403527 0.07355</float_array>
          <technique_common>
            <accessor source="#pCubeShape2-map1-array" count="404" stride="2">
              <param name="S" type="float" />
              <param name="T" type="float" />
            </accessor>
          </technique_common>
        </source>
        <vertices id="pCubeShape2-vertices">
          <input semantic="POSITION" source="#pCubeShape2-positions" />
        </vertices>
        <triangles material="lambert7SG" count="394">
          <input semantic="VERTEX" source="#pCubeShape2-vertices" offset="0" />
          <input semantic="NORMAL" source="#pCubeShape2-normals" offset="1" />
          <input semantic="TEXCOORD" source="#pCubeShape2-map1" offset="2" set="0" />
          <p>27 0 0 0 1 95 86 3 3 0 1 95 80 2 2 86 3 3 1 4 11 95 5 12 52 7 14 95 5 12 99 6 13 52 7 14 3 8 22 73 9 23 48 11 25 73 9 23 79 10 24 48 11 25 28 12 33 67 13 34 7 15 36 67 13 34 61 14 35 7 15 36 31 16 41 4 17 42 97 19 44 4 17 42 90 18 43 97 19 44 25 20 49 2 21 50 66 23 52 2 21 50 60 22 51 66 23 52 179 27 311 176 24 308 178 26 310 176 24 308 177 25 309 178 26 310 186 28 318 187 29 319 189 31 321 187 29 319 188 30 320 189 31 321 196 32 328 197 33 329 199 35 331 197 33 329 198 34 330 199 35 331 209 39 341 206 36 338 208 38 340 206 36 338 207 37 339 208 38 340 17 40 55 25 20 49 64 41 56 25 20 49 66 23 52 64 41 56 19 42 8 27 0 0 84 43 9 27 0 0 86 3 3 84 43 9 20 44 37 65 45 38 28 12 33 65 45 38 67 13 34 28 12 33 23 46 47 31 16 41 96 47 48 31 16 41 97 19 44 96 47 48 40 48 240 68 49 241 43 50 242 44 51 246 88 52 247 45 53 248 48 54 252 79 55 253 49 56 254 52 57 258 99 58 259 53 59 260 6 60 80 41 61 84 70 63 83 41 61 84 78 62 82 70 63 83 42 64 200 33 65 213 43 67 203 33 65 213 32 66 202 43 67 203 4 17 42 46 68 45 90 18 43 46 68 45 98 69 46 90 18 43 47 70 210 35 71 230 45 73 204 35 71 230 34 72 205 45 73 204 49 74 214 51 75 219 36 77 215 51 75 219 37 76 228 36 77 215 53 78 224 55 79 227 38 81 225 55 79 227 39 80 226 38 81 225 53 78 224 38 81 225 51 75 229 38 81 225 37 76 220 51 75 229 50 83 262 52 84 258 51 82 261 51 82 261 52 84 258 53 85 260 1 4 62 52 7 60 2 21 18 52 7 60 50 86 17 2 21 18 2 21 18 25 20 19 1 4 62 25 20 19 26 87 16 1 4 62 18 88 59 26 87 16 17 40 57 25 20 19 17 40 57 26 87 16 180 90 315 182 91 362 181 89 314 181 89 314 182 91 362 183 92 312 43 67 203 32 66 202 55 79 207 32 66 202 39 80 206 55 79 207 54 94 244 40 95 240 55 93 243 55 93 243 40 95 240 43 96 242 7 15 5 40 97 10 0 1 1 40 97 10 54 98 7 0 1 1 0 1 1 27 0 65 7 15 5 27 0 65 28 12 4 7 15 5 20 44 63 28 12 4 19 42 61 28 12 4 27 0 65 19 42 61 190 99 374 193 100 323 186 28 318 187 29 319 186 28 318 193 100 323 45 73 204 34 72 205 42 64 212 34 72 205 33 65 201 42 64 212 44 101 246 45 102 248 41 104 250 45 102 248 42 103 249 41 104 250 41 61 81 6 60 75 44 106 85 6 60 75 5 105 74 44 106 85 5 105 74 6 60 75 30 107 72 30 107 72 6 60 75 29 108 70 21 109 64 22 110 68 29 108 70 29 108 70 22 110 68 30 107 72 200 112 335 202 113 377 201 111 334 201 111 334 202 113 377 203 114 332 35 71 211 47 70 231 36 77 215 47 70 231 49 74 214 36 77 215 48 115 252 49 116 254 46 118 256 49 116 254 47 117 255 46 118 256 46 68 28 4 17 29 48 11 93 4 17 29 3 8 92 48 11 93 3 8 92 4 17 29 24 119 27 24 119 27 4 17 29 31 16 30 23 46 76 16 120 77 31 16 30 31 16 30 16 120 77 24 119 27 213 124 342 211 121 344 212 123 401 211 121 344 210 122 345 212 123 401 69 125 53 60 22 51 50 86 54 60 22 51 2 21 50 50 86 54 101 126 96 100 127 97 103 129 99 100 127 97 102 128 98 103 129 99 113 130 104 112 131 105 115 133 107 112 131 105 114 132 106 115 133 107 117 134 112 168 135 298 119 137 115 168 135 298 169 136 299 119 137 115 191 141 324 195 138 326 192 140 325 195 138 326 194 139 327 192 140 325 116 142 110 113 130 104 118 143 111 113 130 104 115 133 107 118 143 111 100 127 97 104 144 100 102 128 98 104 144 100 105 145 101 102 128 98 107 146 116 106 147 103 109 149 119 106 147 103 108 148 102 109 149 119 51 150 261 69 151 263 50 152 262 68 153 39 40 97 40 61 14 35 61 14 35 40 97 40 7 15 36 120 154 108 114 132 106 121 155 109 114 132 106 112 131 105 121 155 109 110 156 120 156 157 278 111 159 123 156 157 278 157 158 279 111 159 123 122 160 124 120 154 108 123 161 127 120 154 108 121 155 109 123 161 127 103 129 99 108 148 102 101 126 96 108 148 102 106 147 103 101 126 96 29 108 86 6 60 80 77 162 69 70 63 83 77 162 69 6 60 80 24 119 94 72 163 26 3 8 22 72 163 26 73 9 23 3 8 22 211 121 344 215 164 346 210 122 345 215 164 346 214 165 347 210 122 345 16 120 32 71 166 31 24 119 94 71 166 31 72 163 26 24 119 94 21 109 66 29 108 86 76 167 67 77 162 69 76 167 67 29 108 86 42 168 249 78 169 251 41 170 250 125 171 128 124 172 129 127 174 131 124 172 129 126 173 130 127 174 131 89 175 6 80 2 2 54 98 78 80 2 2 0 1 95 54 98 78 30 107 89 87 176 73 5 105 88 87 176 73 81 177 87 5 105 88 129 178 136 162 179 288 131 181 139 162 179 288 163 180 289 131 181 139 201 111 334 205 182 336 200 112 335 205 182 336 204 183 337 200 112 335 128 184 134 125 171 128 130 185 135 125 171 128 127 174 131 130 185 135 22 110 79 85 186 71 30 107 89 85 186 71 87 176 73 30 107 89 137 187 122 136 188 141 139 190 143 136 188 141 138 189 142 139 190 143 55 191 243 89 192 245 54 193 244 88 194 90 44 106 91 81 177 87 81 177 87 44 106 91 5 105 88 132 195 132 126 173 130 133 196 133 126 173 130 124 172 129 133 196 133 141 197 144 140 198 145 143 200 147 140 198 145 142 199 146 143 200 147 145 201 126 150 202 268 147 204 117 150 202 268 151 203 269 147 204 117 144 205 148 141 197 144 146 206 137 141 197 144 143 200 147 146 206 137 134 207 156 132 195 132 135 208 159 132 195 132 133 196 133 135 208 159 140 198 145 138 189 142 142 199 146 138 189 142 136 188 141 142 199 146 26 87 58 94 209 15 1 4 11 94 209 15 95 5 12 1 4 11 34 210 232 35 211 233 33 217 239 33 217 239 35 211 233 32 216 238 35 211 233 36 212 234 32 216 238 36 212 234 37 213 235 32 216 238 37 213 235 38 214 236 32 216 238 38 214 236 39 215 237 32 216 238 181 89 314 185 218 316 180 90 315 185 218 316 184 219 317 180 90 315 18 88 21 93 220 20 26 87 58 93 220 20 94 209 15 26 87 58 47 221 255 98 222 257 46 223 256 61 224 160 67 225 161 101 227 96 67 225 161 100 226 97 101 227 96 70 229 173 103 230 99 77 228 172 77 228 172 103 230 99 102 231 98 65 232 164 104 233 100 67 225 161 67 225 161 104 233 100 100 226 97 76 234 178 77 228 172 105 235 101 77 228 172 102 231 98 105 235 101 43 236 171 68 237 166 107 238 116 78 239 176 109 240 119 108 241 102 42 64 200 43 67 203 109 243 209 43 67 203 107 242 208 109 243 209 156 246 278 110 247 120 155 245 277 74 244 170 155 245 277 110 247 120 157 251 279 158 248 280 111 250 123 158 248 280 62 249 168 111 250 123 62 252 180 74 253 181 111 255 123 74 253 181 110 254 120 111 255 123 108 257 102 103 230 99 78 256 176 70 229 173 78 256 176 103 230 99 106 259 103 68 258 166 101 227 96 68 258 166 61 224 160 101 227 96 60 261 189 112 262 105 66 260 188 66 260 188 112 262 105 113 263 104 73 264 198 72 265 193 114 267 106 72 265 193 115 266 107 114 267 106 168 270 298 117 271 112 167 269 297 63 268 197 167 269 297 117 271 112 169 275 299 170 272 300 119 274 115 170 272 300 75 273 177 119 274 115 75 276 169 63 277 167 119 279 115 63 277 167 117 278 112 119 279 115 64 280 194 66 260 188 116 281 110 66 260 188 113 263 104 116 281 110 71 282 184 118 283 111 72 265 193 72 265 193 118 283 111 115 266 107 120 285 108 79 284 179 114 267 106 79 284 179 73 264 198 114 267 106 121 287 109 112 262 105 69 286 192 60 261 189 69 286 192 112 262 105 49 288 174 79 289 179 122 290 124 69 291 192 123 292 127 121 293 109 51 75 219 49 74 214 123 295 223 49 74 214 122 294 222 123 295 223 80 297 163 124 298 129 86 296 165 86 296 165 124 298 129 125 299 128 95 300 151 94 301 150 126 303 130 94 301 150 127 302 131 126 303 130 162 306 288 129 307 136 161 305 287 83 304 153 161 305 287 129 307 136 163 311 289 164 308 290 131 310 139 164 308 290 92 309 175 131 310 139 92 312 185 83 313 191 131 315 139 83 313 191 129 314 136 131 315 139 84 316 157 86 296 165 128 317 134 86 296 165 125 299 128 128 317 134 93 318 140 130 319 135 94 301 150 94 301 150 130 319 135 127 302 131 132 321 132 99 320 125 126 303 130 99 320 125 95 300 151 126 303 130 133 323 133 124 298 129 89 322 162 80 297 163 89 322 162 124 298 129 53 324 182 99 325 125 134 326 156 89 327 162 135 328 159 133 329 133 55 79 227 53 78 224 135 331 218 53 78 224 134 330 221 135 331 218 45 332 121 88 333 155 137 334 122 98 335 195 139 336 143 138 337 142 45 73 204 137 338 216 47 70 210 47 70 210 137 338 216 139 339 217 90 341 158 140 342 145 97 340 154 97 340 154 140 342 145 141 343 144 81 344 187 87 345 186 142 347 146 87 345 186 143 346 147 142 347 146 150 350 268 145 351 126 149 349 267 91 348 196 149 349 267 145 351 126 151 355 269 152 352 270 147 354 117 152 352 270 82 353 118 147 354 117 82 356 114 91 357 113 147 359 117 91 357 113 145 358 126 147 359 117 96 360 149 97 340 154 144 361 148 97 340 154 141 343 144 144 361 148 85 362 138 146 363 137 87 345 186 87 345 186 146 363 137 143 346 147 138 365 142 140 342 145 98 364 195 90 341 158 98 364 195 140 342 145 136 367 141 88 366 155 142 347 146 88 366 155 81 344 187 142 347 146 89 327 162 55 368 152 135 328 159 107 238 116 68 237 166 106 369 103 78 239 176 42 370 183 109 240 119 137 334 122 88 333 155 136 371 141 98 335 195 47 372 190 139 336 143 122 290 124 79 289 179 120 373 108 69 291 192 51 374 199 123 292 127 134 326 156 99 325 125 132 375 132 148 377 265 23 46 47 149 376 266 23 46 47 96 47 48 149 376 266 149 349 267 96 360 149 150 350 268 150 350 268 96 360 149 144 361 148 151 203 269 150 202 268 146 206 137 150 202 268 144 205 148 146 206 137 152 352 270 151 355 269 85 362 138 85 362 138 151 355 269 146 363 137 153 378 272 152 379 271 22 110 79 152 379 271 85 186 71 22 110 79 21 109 64 173 380 305 22 110 68 154 382 274 21 109 66 155 381 276 155 381 276 21 109 66 76 167 67 155 245 277 76 234 178 156 246 278 156 246 278 76 234 178 105 235 101 157 158 279 156 157 278 104 144 100 156 157 278 105 145 101 104 144 100 158 248 280 157 251 279 65 232 164 65 232 164 157 251 279 104 233 100 159 383 283 158 384 281 20 44 37 158 384 281 65 45 38 20 44 37 20 44 63 174 385 306 159 383 282 160 387 284 19 42 8 161 386 286 161 386 286 19 42 8 84 43 9 161 305 287 84 316 157 162 306 288 162 306 288 84 316 157 128 317 134 162 179 288 128 184 134 163 180 289 163 180 289 128 184 134 130 185 135 164 308 290 163 311 289 93 318 140 93 318 140 163 311 289 130 319 135 165 388 292 164 389 291 18 88 21 164 389 291 93 220 20 18 88 21 17 40 57 175 390 307 18 88 59 166 392 295 17 40 55 167 391 296 17 40 55 64 41 56 167 391 296 167 269 297 64 280 194 168 270 298 168 270 298 64 280 194 116 281 110 169 136 299 168 135 298 118 143 111 168 135 298 116 142 110 118 143 111 170 272 300 169 275 299 71 282 184 71 282 184 169 275 299 118 283 111 171 393 302 170 394 301 16 120 32 170 394 301 71 166 31 16 120 32 16 120 77 172 395 304 171 393 303 166 396 348 167 397 349 176 399 308 167 397 349 177 398 309 176 399 308 63 400 354 15 401 355 178 403 310 15 401 355 179 402 311 178 403 310 165 404 360 175 405 361 180 407 315 175 405 361 182 406 362 180 407 315 175 408 352 166 396 348 182 409 313 166 396 348 176 399 308 182 409 313 15 401 355 56 410 358 179 402 311 56 410 358 183 411 359 179 402 311 56 412 366 14 413 367 183 415 312 14 413 367 181 414 314 183 415 312 164 416 364 165 404 360 184 417 317 165 404 360 180 407 315 184 417 317 14 413 367 92 418 370 181 414 314 92 418 370 185 419 316 181 414 314 160 420 372 161 421 373 187 423 319 161 421 373 188 422 320 187 423 319 83 424 378 8 425 379 189 427 321 8 425 379 186 426 318 189 427 321 8 425 379 59 428 382 186 426 318 59 428 382 190 429 374 186 426 318 59 430 384 9 431 385 190 433 322 9 431 385 191 432 324 190 433 322 159 434 390 174 435 391 192 437 325 174 435 391 193 436 392 192 437 325 174 438 376 160 420 372 193 439 323 160 420 372 187 423 319 193 439 323 158 440 394 159 434 390 194 441 327 159 434 390 192 437 325 194 441 327 9 431 385 62 442 388 191 432 324 62 442 388 195 443 326 191 432 324 154 444 396 155 445 397 197 447 329 155 445 397 198 446 330 197 447 329 74 448 402 10 449 403 199 451 331 10 449 403 196 450 328 199 451 331 153 452 395 173 453 393 200 455 335 173 453 393 202 454 377 200 455 335 173 456 400 154 444 396 202 457 333 154 444 396 197 447 329 202 457 333 10 449 403 58 458 399 196 450 328 58 458 399 203 459 375 196 450 328 58 460 357 11 461 356 203 463 332 11 461 356 201 462 334 203 463 332 152 464 380 153 452 395 204 465 337 153 452 395 200 455 335 204 465 337 11 461 356 82 466 368 201 462 334 82 466 368 205 467 336 201 462 334 148 468 369 149 469 371 206 471 338 149 469 371 207 470 339 206 471 338 91 472 387 12 473 365 208 475 340 12 473 365 209 474 341 208 475 340 171 476 351 172 477 350 210 479 345 172 477 350 212 478 401 210 479 345 172 480 386 148 468 369 212 481 343 148 468 369 206 471 338 212 481 343 12 473 365 57 482 363 209 474 341 57 482 363 213 483 353 209 474 341 57 484 381 13 485 383 213 487 342 13 485 383 211 486 344 213 487 342 170 488 398 171 476 351 214 489 347 171 476 351 210 479 345 214 489 347 13 485 383 75 490 389 211 486 344 75 490 389 215 491 346 211 486 344 183 492 359 182 493 313 179 27 311 182 493 313 176 24 308 179 27 311 190 495 322 191 141 324 193 494 392 193 494 392 191 141 324 192 140 325 203 496 375 202 497 333 196 32 328 202 497 333 197 33 329 196 32 328 213 498 353 212 499 343 209 39 341 212 499 343 206 36 338 209 39 341 148 377 264 172 500 304 23 46 76 23 46 76 172 501 304 16 120 77 166 392 294 175 502 307 17 40 57 18 88 59 175 503 307 165 388 293 19 42 61 160 387 285 174 504 306 19 42 61 174 505 306 20 44 63 154 382 275 173 506 305 21 109 64 22 110 68 173 507 305 153 378 273</p>
        </triangles>
      </mesh>
      <extra>
        <technique profile="MAYA">
          <double_sided>1</double_sided>
        </technique>
      </extra>
    </geometry>
  </library_geometries>
  <library_visual_scenes>
    <visual_scene id="VisualSceneNode" name="arched_roof">
      <node id="pCube2" name="pCube2" type="NODE">
        <rotate sid="rotateZ">0 0 1 0</rotate>
        <rotate sid="rotateY">0 1 0 0</rotate>
        <rotate sid="rotateX">1 0 0 0</rotate>
        <instance_geometry url="#pCubeShape2">
          <bind_material>
            <technique_common>
              <instance_material symbol="lambert7SG" target="#lambert7">
                <bind_vertex_input semantic="TEX0" input_semantic="TEXCOORD" input_set="0" />
              </instance_material>
            </technique_common>
          </bind_material>
        </instance_geometry>
      </node>
      <extra>
        <technique profile="FCOLLADA">
          <start_time>0.041666</start_time>
          <end_time>2</end_time>
        </technique>
      </extra>
    </visual_scene>
  </library_visual_scenes>
  <scene>
    <instance_physics_scene url="#MayaNativePhysicsScene" />
    <instance_visual_scene url="#VisualSceneNode" />
  </scene>
</COLLADA>