<?xml version="1.0" encoding="utf-8"?>
<COLLADA xmlns="http://www.collada.org/2005/11/COLLADASchema" version="1.4.1">
  <asset>
    <contributor>
      <author></author>
      <authoring_tool>FBX COLLADA exporter</authoring_tool>
      <comments></comments>
    </contributor>
    <created>2012-10-29T17:22:56Z</created>
    <keywords></keywords>
    <modified>2012-10-29T17:22:56Z</modified>
    <revision></revision>
    <subject></subject>
    <title></title>
    <unit meter="0.010000" name="centimeter"></unit>
    <up_axis>Y_UP</up_axis>
  </asset>
  <library_images>
    <image id="file6-image" name="file6">
      <init_from>file://C:/Users/sindre/Desktop/Sindre/Freelance/Amnesia SVN/Amnesia - Source/entities/elevator/elevator_metalbars_01_alpha.tga</init_from>
    </image>
    <image id="rails_blinn4SG1F-image" name="rails_blinn4SG1F">
      <init_from>file://C:/Users/sindre/Desktop/wip/tesla_dressing_wires_01.jpg</init_from>
    </image>
  </library_images>
  <library_materials>
    <material id="tesla_modules_core_01_tesla_structure_pillar_core_02_tesla_structure_interior_01_lambert2SG6" name="tesla_modules_core_01_tesla_structure_pillar_core_02_tesla_structure_interior_01_lambert2SG6">
      <instance_effect url="#tesla_modules_core_01_tesla_structure_pillar_core_02_tesla_structure_interior_01_lambert2SG6-fx"/>
    </material>
    <material id="rails_blinn4SG1" name="rails_blinn4SG1">
      <instance_effect url="#rails_blinn4SG1-fx"/>
    </material>
  </library_materials>
  <library_effects>
    <effect id="tesla_modules_core_01_tesla_structure_pillar_core_02_tesla_structure_interior_01_lambert2SG6-fx" name="tesla_modules_core_01_tesla_structure_pillar_core_02_tesla_structure_interior_01_lambert2SG6">
      <profile_COMMON>
        <technique sid="standard">
          <phong>
            <emission>
              <color sid="emission">0.000000  0.000000 0.000000 1.000000</color>
            </emission>
            <ambient>
              <color sid="ambient">0.000000  0.000000 0.000000 1.000000</color>
            </ambient>
            <diffuse>
              <texture texture="file6-image" texcoord="CHANNEL0">
                <extra>
                  <technique profile="MAYA">
                    <wrapU sid="wrapU0">TRUE</wrapU>
                    <wrapV sid="wrapV0">TRUE</wrapV>
                    <blend_mode>NONE</blend_mode>
                  </technique>
                </extra>
              </texture>
            </diffuse>
            <specular>
              <color sid="specular">0.000000  0.000000 0.000000 1.000000</color>
            </specular>
            <shininess>
              <float sid="shininess">32.000000</float>
            </shininess>
            <reflective>
              <color sid="reflective">0.000000  0.000000 0.000000 1.000000</color>
            </reflective>
            <reflectivity>
              <float sid="reflectivity">0.500000</float>
            </reflectivity>
            <transparent opaque="RGB_ZERO">
              <texture texture="file6-image" texcoord="CHANNEL0">
                <extra>
                  <technique profile="MAYA">
                    <wrapU sid="wrapU0">TRUE</wrapU>
                    <wrapV sid="wrapV0">TRUE</wrapV>
                    <blend_mode>NONE</blend_mode>
                  </technique>
                </extra>
              </texture>
            </transparent>
            <transparency>
              <float sid="transparency">1.000000</float>
            </transparency>
          </phong>
        </technique>
      </profile_COMMON>
    </effect>
    <effect id="rails_blinn4SG1-fx" name="rails_blinn4SG1">
      <profile_COMMON>
        <technique sid="standard">
          <phong>
            <emission>
              <color sid="emission">0.000000  0.000000 0.000000 1.000000</color>
            </emission>
            <ambient>
              <color sid="ambient">0.000000  0.000000 0.000000 1.000000</color>
            </ambient>
            <diffuse>
              <texture texture="rails_blinn4SG1F-image" texcoord="CHANNEL0">
                <extra>
                  <technique profile="MAYA">
                    <wrapU sid="wrapU0">TRUE</wrapU>
                    <wrapV sid="wrapV0">TRUE</wrapV>
                    <blend_mode>NONE</blend_mode>
                  </technique>
                </extra>
              </texture>
            </diffuse>
            <specular>
              <color sid="specular">0.500000  0.500000 0.500000 1.000000</color>
            </specular>
            <shininess>
              <float sid="shininess">2.060000</float>
            </shininess>
            <reflective>
              <color sid="reflective">0.000000  0.000000 0.000000 1.000000</color>
            </reflective>
            <reflectivity>
              <float sid="reflectivity">0.500000</float>
            </reflectivity>
            <transparent opaque="RGB_ZERO">
              <color sid="transparent">0.000000  0.000000 0.000000 1.000000</color>
            </transparent>
            <transparency>
              <float sid="transparency">1.000000</float>
            </transparency>
          </phong>
        </technique>
      </profile_COMMON>
    </effect>
  </library_effects>
  <library_geometries>
    <geometry id="polySurface73-lib" name="polySurface73Mesh">
      <mesh>
        <source id="polySurface73-POSITION">
          <float_array id="polySurface73-POSITION-array" count="132">
-708.844788 541.082031 1206.026123
-701.464966 541.082031 1299.969482
-701.464966 241.082077 1299.969482
-708.844788 241.082077 1206.026123
-730.803223 541.082031 1114.562500
-730.803223 241.082077 1114.562500
-766.799561 541.082031 1027.659790
-766.799561 241.082077 1027.659790
-815.947083 541.082031 947.458130
-815.947083 241.082077 947.458130
-877.035889 541.082031 875.932129
-877.035889 241.082077 875.932129
-948.561890 541.082031 814.843384
-948.561890 241.082077 814.843384
-1028.763428 541.082031 765.695679
-1028.763428 241.082077 765.695679
-1115.666016 541.082031 729.699585
-1115.666016 241.082077 729.699585
-1207.129639 541.082031 707.741089
-1207.129639 241.082077 707.741089
-1300.000000 541.082031 700.361328
-1300.000000 241.082077 700.361328
-702.774292 541.082031 1300.072266
-702.774292 241.082077 1300.072266
-710.138000 241.082077 1206.230835
-710.138000 541.082031 1206.230835
-732.048462 241.082077 1114.967163
-732.048462 541.082031 1114.967163
-767.966187 241.082077 1028.254272
-767.966187 541.082031 1028.254272
-817.006348 241.082077 948.227722
-817.006348 541.082031 948.227722
-877.961670 241.082077 876.857910
-877.961670 541.082031 876.857910
-949.331482 241.082077 815.902649
-949.331482 541.082031 815.902649
-1029.357910 241.082077 766.862305
-1029.357910 541.082031 766.862305
-1116.070679 241.082077 730.944824
-1116.070679 541.082031 730.944824
-1207.334961 241.082077 709.034241
-1207.334961 541.082031 709.034241
-1300.104004 241.082077 701.670532
-1300.104004 541.082031 701.670532
</float_array>
          <technique_common>
            <accessor source="#polySurface73-POSITION-array" count="44" stride="3">
              <param name="X" type="float"/>
              <param name="Y" type="float"/>
              <param name="Z" type="float"/>
            </accessor>
          </technique_common>
        </source>
        <source id="polySurface73-Normal0">
          <float_array id="polySurface73-Normal0-array" count="132">
-0.987700 0.000000 0.156363
-0.996929 0.000000 0.078315
-0.996929 0.000000 0.078315
-0.987700 0.000000 0.156363
-0.951057 0.000000 0.309017
-0.951057 0.000000 0.309017
-0.891007 0.000000 0.453990
-0.891007 0.000000 0.453990
-0.809018 0.000000 0.587784
-0.809018 0.000000 0.587784
-0.707107 0.000000 0.707107
-0.707107 0.000000 0.707107
-0.587785 0.000000 0.809017
-0.587785 0.000000 0.809017
-0.453991 0.000000 0.891007
-0.453991 0.000000 0.891007
-0.309016 0.000000 0.951057
-0.309016 0.000000 0.951057
-0.156808 0.000000 0.987629
-0.156808 0.000000 0.987629
-0.079213 0.000000 0.996858
-0.079213 0.000000 0.996858
0.996935 0.000000 -0.078229
0.996935 0.000000 -0.078229
0.987706 0.000000 -0.156321
0.987706 0.000000 -0.156321
0.951056 0.000000 -0.309017
0.951056 0.000000 -0.309017
0.891007 0.000000 -0.453990
0.891007 0.000000 -0.453990
0.809018 0.000000 -0.587784
0.809018 0.000000 -0.587784
0.707106 0.000000 -0.707107
0.707106 0.000000 -0.707107
0.587784 0.000000 -0.809018
0.587784 0.000000 -0.809018
0.453990 0.000000 -0.891007
0.453990 0.000000 -0.891007
0.309016 0.000000 -0.951057
0.309016 0.000000 -0.951057
0.156766 0.000000 -0.987636
0.156766 0.000000 -0.987636
0.079128 0.000000 -0.996864
0.079128 0.000000 -0.996864
</float_array>
          <technique_common>
            <accessor source="#polySurface73-Normal0-array" count="44" stride="3">
              <param name="X" type="float"/>
              <param name="Y" type="float"/>
              <param name="Z" type="float"/>
            </accessor>
          </technique_common>
        </source>
        <source id="polySurface73-UV0">
          <float_array id="polySurface73-UV0-array" count="88">
-1.651763 0.927716
-1.651761 0.551758
-1.320630 0.551758
-1.320630 0.927717
-0.989497 0.551758
-0.989497 0.927717
-0.658364 0.551758
-0.658364 0.927717
-0.327231 0.551758
-0.327231 0.927717
0.003903 0.551758
0.003903 0.927717
0.335036 0.551758
0.335036 0.927717
0.666169 0.551758
0.666169 0.927717
0.997302 0.551758
0.997302 0.927717
1.328435 0.551758
1.328435 0.927717
1.659582 0.551759
1.659569 0.927718
-1.651763 0.927716
-1.651765 0.551756
-1.320630 0.551758
-1.320630 0.927717
-0.989497 0.551758
-0.989497 0.927717
-0.658364 0.551758
-0.658364 0.927717
-0.327231 0.551758
-0.327231 0.927717
0.003903 0.551758
0.003903 0.927717
0.335036 0.551758
0.335036 0.927717
0.666169 0.551758
0.666169 0.927717
0.997302 0.551758
0.997302 0.927717
1.328435 0.551758
1.328435 0.927717
1.659565 0.551758
1.659569 0.927718
</float_array>
          <technique_common>
            <accessor source="#polySurface73-UV0-array" count="44" stride="2">
              <param name="S" type="float"/>
              <param name="T" type="float"/>
            </accessor>
          </technique_common>
        </source>
        <vertices id="polySurface73-VERTEX">
          <input semantic="POSITION" source="#polySurface73-POSITION"/>
          <input semantic="NORMAL" source="#polySurface73-Normal0"/>
        </vertices>
        <triangles count="40" material="tesla_modules_core_01_tesla_structure_pillar_core_02_tesla_structure_interior_01_lambert2SG6">
          <input semantic="VERTEX" offset="0" source="#polySurface73-VERTEX"/>
          <input semantic="TEXCOORD" offset="1" set="0" source="#polySurface73-UV0"/>
          <p> 22 22 23 23 24 24 22 22 24 24 25 25 26 26 25 25 24 24 25 25 26 26 27 27 27 27 26 26 28 28 27 27 28 28 29 29 29 29 28 28 30 30 29 29 30 30 31 31 31 31 30 30 32 32 31 31 32 32 33 33 34 34 33 33 32 32 33 33 34 34 35 35 36 36 35 35 34 34 35 35 36 36 37 37 38 38 37 37 36 36 37 37 38 38 39 39 40 40 39 39 38 38 39 39 40 40 41 41 42 42 41 41 40 40 41 41 42 42 43 43 0 3 3 2 1 0 2 1 1 0 3 2 4 5 5 4 0 3 3 2 0 3 5 4 6 7 7 6 4 5 5 4 4 5 7 6 8 9 9 8 6 7 7 6 6 7 9 8 10 11 11 10 8 9 9 8 8 9 11 10 12 13 13 12 10 11 10 11 13 12 11 10 14 15 15 14 12 13 12 13 15 14 13 12 16 17 17 16 14 15 14 15 17 16 15 14 19 18 16 17 18 19 16 17 19 18 17 16 20 21 21 20 18 19 18 19 21 20 19 18</p>
        </triangles>
      </mesh>
    </geometry>
    <geometry id="polySurface80-lib" name="polySurface80Mesh">
      <mesh>
        <source id="polySurface80-POSITION">
          <float_array id="polySurface80-POSITION-array" count="120">
-945.838562 241.082077 814.911499
-949.441284 241.082077 812.147034
-949.441284 541.082031 812.147034
-945.838562 541.082031 814.911499
-952.073059 241.082077 815.576782
-948.470337 241.082077 818.341309
-948.470337 541.082031 818.341309
-952.073059 541.082031 815.576782
-813.380981 241.082077 948.366089
-815.985718 241.082077 944.646179
-815.985718 541.082031 944.646179
-813.380981 541.082031 948.366089
-819.526978 241.082077 947.125854
-816.922241 241.082077 950.845703
-816.922241 541.082031 950.845703
-819.526978 541.082031 947.125854
-728.756348 241.082077 1116.402466
-730.121887 241.082077 1112.071411
-730.121887 541.082031 1112.071411
-728.756348 541.082031 1116.402466
-734.244873 241.082077 1113.371460
-732.879333 241.082077 1117.702393
-732.879333 541.082031 1117.702393
-734.244873 541.082031 1113.371460
-1113.096802 241.082077 728.590515
-1117.427734 241.082077 727.224976
-1117.427734 541.082031 727.224976
-1113.096802 541.082031 728.590515
-1118.727783 241.082077 731.348022
-1114.396729 241.082077 732.713562
-1114.396729 541.082031 732.713562
-1118.727783 541.082031 731.348022
-1297.729370 241.082077 698.893677
-1302.270508 241.082077 698.893677
-1302.270508 541.082031 698.893677
-1297.729370 541.082031 698.893677
-1302.270508 241.082077 703.216736
-1297.729370 241.082077 703.216736
-1297.729370 541.082031 703.216736
-1302.270508 541.082031 703.216736
</float_array>
          <technique_common>
            <accessor source="#polySurface80-POSITION-array" count="40" stride="3">
              <param name="X" type="float"/>
              <param name="Y" type="float"/>
              <param name="Z" type="float"/>
            </accessor>
          </technique_common>
        </source>
        <source id="polySurface80-Normal0">
          <float_array id="polySurface80-Normal0-array" count="360">
0.608761 0.000000 -0.793353
0.608761 0.000000 -0.793353
0.608761 0.000000 -0.793353
0.608761 0.000000 -0.793353
0.608761 0.000000 -0.793353
0.608761 0.000000 -0.793353
-0.608761 0.000000 0.793353
-0.608761 0.000000 0.793353
-0.608761 0.000000 0.793353
-0.608761 0.000000 0.793353
-0.608761 0.000000 0.793353
-0.608761 0.000000 0.793353
0.793353 0.000000 0.608761
0.793353 0.000000 0.608761
0.793353 0.000000 0.608761
0.793353 0.000000 0.608761
0.793353 0.000000 0.608761
0.793353 0.000000 0.608761
-0.793353 0.000000 -0.608761
-0.793353 0.000000 -0.608761
-0.793353 0.000000 -0.608761
-0.793353 0.000000 -0.608761
-0.793353 0.000000 -0.608761
-0.793353 0.000000 -0.608761
0.819152 0.000000 -0.573576
0.819152 0.000000 -0.573576
0.819152 0.000000 -0.573576
0.819152 0.000000 -0.573576
0.819152 0.000000 -0.573576
0.819152 0.000000 -0.573576
-0.819152 0.000000 0.573576
-0.819152 0.000000 0.573576
-0.819152 0.000000 0.573576
-0.819152 0.000000 0.573576
-0.819152 0.000000 0.573576
-0.819152 0.000000 0.573576
0.573576 0.000000 0.819152
0.573576 0.000000 0.819152
0.573576 0.000000 0.819152
0.573576 0.000000 0.819152
0.573576 0.000000 0.819152
0.573576 0.000000 0.819152
-0.573576 0.000000 -0.819152
-0.573576 0.000000 -0.819152
-0.573576 0.000000 -0.819152
-0.573576 0.000000 -0.819152
-0.573576 0.000000 -0.819152
-0.573576 0.000000 -0.819152
0.953717 0.000000 -0.300706
0.953717 0.000000 -0.300706
0.953717 0.000000 -0.300706
0.953717 0.000000 -0.300706
0.953717 0.000000 -0.300706
0.953717 0.000000 -0.300706
-0.953717 0.000000 0.300706
-0.953717 0.000000 0.300706
-0.953717 0.000000 0.300706
-0.953717 0.000000 0.300706
-0.953717 0.000000 0.300706
-0.953717 0.000000 0.300706
0.300706 0.000000 0.953717
0.300706 0.000000 0.953717
0.300706 0.000000 0.953717
0.300706 0.000000 0.953717
0.300706 0.000000 0.953717
0.300706 0.000000 0.953717
-0.300706 0.000000 -0.953717
-0.300706 0.000000 -0.953717
-0.300706 0.000000 -0.953717
-0.300706 0.000000 -0.953717
-0.300706 0.000000 -0.953717
-0.300706 0.000000 -0.953717
0.300706 0.000000 -0.953717
0.300706 0.000000 -0.953717
0.300706 0.000000 -0.953717
0.300706 0.000000 -0.953717
0.300706 0.000000 -0.953717
0.300706 0.000000 -0.953717
-0.300706 0.000000 0.953717
-0.300706 0.000000 0.953717
-0.300706 0.000000 0.953717
-0.300706 0.000000 0.953717
-0.300706 0.000000 0.953717
-0.300706 0.000000 0.953717
0.953717 0.000000 0.300706
0.953717 0.000000 0.300706
0.953717 0.000000 0.300706
0.953717 0.000000 0.300706
0.953717 0.000000 0.300706
0.953717 0.000000 0.300706
-0.953717 0.000000 -0.300706
-0.953717 0.000000 -0.300706
-0.953717 0.000000 -0.300706
-0.953717 0.000000 -0.300706
-0.953717 0.000000 -0.300706
-0.953717 0.000000 -0.300706
0.000000 0.000000 -1.000000
0.000000 0.000000 -1.000000
0.000000 0.000000 -1.000000
0.000000 0.000000 -1.000000
0.000000 0.000000 -1.000000
0.000000 0.000000 -1.000000
0.000000 0.000000 1.000000
0.000000 0.000000 1.000000
0.000000 0.000000 1.000000
0.000000 0.000000 1.000000
0.000000 0.000000 1.000000
0.000000 0.000000 1.000000
1.000000 0.000000 0.000000
1.000000 0.000000 0.000000
1.000000 0.000000 0.000000
1.000000 0.000000 0.000000
1.000000 0.000000 0.000000
1.000000 0.000000 0.000000
-1.000000 0.000000 0.000000
-1.000000 0.000000 0.000000
-1.000000 0.000000 0.000000
-1.000000 0.000000 0.000000
-1.000000 0.000000 0.000000
-1.000000 0.000000 0.000000
</float_array>
          <technique_common>
            <accessor source="#polySurface80-Normal0-array" count="120" stride="3">
              <param name="X" type="float"/>
              <param name="Y" type="float"/>
              <param name="Z" type="float"/>
            </accessor>
          </technique_common>
        </source>
        <source id="polySurface80-UV0">
          <float_array id="polySurface80-UV0-array" count="160">
-0.657758 0.664238
-0.657757 0.615331
0.540894 0.615335
0.540894 0.664241
-0.657548 0.664240
-0.657548 0.615334
0.540698 0.615331
0.540698 0.664238
-0.657361 0.664245
-0.657361 0.615339
0.540880 0.615342
0.540880 0.664248
-0.657363 0.664244
-0.657363 0.615337
0.540881 0.615338
0.540881 0.664244
-0.657754 0.664247
-0.657754 0.615340
0.540894 0.615338
0.540894 0.664245
-0.657548 0.664235
-0.657548 0.615329
0.540698 0.615333
0.540698 0.664239
-0.657361 0.664239
-0.657361 0.615333
0.540881 0.615337
0.540881 0.664243
-0.657362 0.664247
-0.657362 0.615340
0.540881 0.615337
0.540881 0.664244
-0.657757 0.664246
-0.657757 0.615340
0.540894 0.615339
0.540894 0.664245
-0.657547 0.664243
-0.657547 0.615337
0.540698 0.615339
0.540698 0.664246
-0.657364 0.664259
-0.657364 0.615352
0.540880 0.615342
0.540880 0.664249
-0.657362 0.664245
-0.657362 0.615338
0.540881 0.615335
0.540881 0.664242
-0.657754 0.664250
-0.657754 0.615343
0.540894 0.615338
0.540894 0.664245
-0.657549 0.664242
-0.657549 0.615336
0.540698 0.615340
0.540698 0.664246
-0.657361 0.664248
-0.657361 0.615341
0.540880 0.615338
0.540880 0.664244
-0.657363 0.664235
-0.657363 0.615328
0.540880 0.615334
0.540880 0.664241
-0.657755 0.664249
-0.657755 0.615342
0.540894 0.615338
0.540894 0.664244
-0.657550 0.664248
-0.657550 0.615341
0.540697 0.615337
0.540697 0.664243
-0.657367 0.664248
-0.657367 0.615341
0.540880 0.615342
0.540880 0.664248
-0.657360 0.664259
-0.657360 0.615353
0.540881 0.615340
0.540881 0.664246
</float_array>
          <technique_common>
            <accessor source="#polySurface80-UV0-array" count="80" stride="2">
              <param name="S" type="float"/>
              <param name="T" type="float"/>
            </accessor>
          </technique_common>
        </source>
        <vertices id="polySurface80-VERTEX">
          <input semantic="POSITION" source="#polySurface80-POSITION"/>
        </vertices>
        <triangles count="40" material="rails_blinn4SG1">
          <input semantic="VERTEX" offset="0" source="#polySurface80-VERTEX"/>
          <input semantic="NORMAL" offset="1" source="#polySurface80-Normal0"/>
          <input semantic="TEXCOORD" offset="2" set="0" source="#polySurface80-UV0"/>
          <p> 1 0 1 2 1 2 0 2 0 0 3 0 2 4 2 3 5 3 7 6 7 4 7 4 6 8 6 6 9 6 4 10 4 5 11 5 0 12 9 3 13 10 5 14 8 6 15 11 5 16 8 3 17 10 7 18 14 1 19 12 4 20 13 1 21 12 7 22 14 2 23 15 9 24 17 10 25 18 8 26 16 11 27 19 8 28 16 10 29 18 14 30 22 12 31 20 13 32 21 12 33 20 14 34 22 15 35 23 14 36 27 13 37 24 11 38 26 11 39 26 13 40 24 8 41 25 12 42 29 15 43 30 9 44 28 9 45 28 15 46 30 10 47 31 17 48 33 18 49 34 16 50 32 19 51 35 16 52 32 18 53 34 22 54 38 20 55 36 21 56 37 20 57 36 22 58 38 23 59 39 22 60 43 21 61 40 19 62 42 19 63 42 21 64 40 16 65 41 20 66 45 23 67 46 17 68 44 17 69 44 23 70 46 18 71 47 25 72 49 26 73 50 24 74 48 24 75 48 26 76 50 27 77 51 31 78 55 28 79 52 30 80 54 30 81 54 28 82 52 29 83 53 24 84 57 27 85 58 29 86 56 30 87 59 29 88 56 27 89 58 31 90 62 25 91 60 28 92 61 25 93 60 31 94 62 26 95 63 33 96 65 34 97 66 32 98 64 32 99 64 34 100 66 35 101 67 39 102 71 36 103 68 38 104 70 38 105 70 36 106 68 37 107 69 32 108 73 35 109 74 37 110 72 38 111 75 37 112 72 35 113 74 39 114 78 33 115 76 36 116 77 33 117 76 39 118 78 34 119 79</p>
        </triangles>
      </mesh>
    </geometry>
  </library_geometries>
  <library_visual_scenes>
    <visual_scene id="" name="">
      <node name="polySurface73" id="polySurface73" sid="polySurface73">
        <matrix sid="matrix">1.000000 0.000000 0.000000 0.000000 0.000000 1.000000 0.000000 0.000000 0.000000 0.000000 1.000000 0.000000 0.000000 0.000000 0.000000 1.000000</matrix>
        <instance_geometry url="#polySurface73-lib">
          <bind_material>
            <technique_common>
              <instance_material symbol="tesla_modules_core_01_tesla_structure_pillar_core_02_tesla_structure_interior_01_lambert2SG6" target="#tesla_modules_core_01_tesla_structure_pillar_core_02_tesla_structure_interior_01_lambert2SG6"/>
            </technique_common>
          </bind_material>
        </instance_geometry>
        <extra>
          <technique profile="FCOLLADA">
            <visibility>1.000000</visibility>
          </technique>
        </extra>
      </node>
      <node name="polySurface80" id="polySurface80" sid="polySurface80">
        <matrix sid="matrix">1.000000 0.000000 0.000000 0.000000 0.000000 1.000000 0.000000 0.000000 0.000000 0.000000 1.000000 0.000000 0.000000 0.000000 0.000000 1.000000</matrix>
        <instance_geometry url="#polySurface80-lib">
          <bind_material>
            <technique_common>
              <instance_material symbol="rails_blinn4SG1" target="#rails_blinn4SG1"/>
            </technique_common>
          </bind_material>
        </instance_geometry>
        <extra>
          <technique profile="FCOLLADA">
            <visibility>1.000000</visibility>
          </technique>
        </extra>
      </node>
      <extra>
        <technique profile="MAX3D">
          <frame_rate>24.000000</frame_rate>
        </technique>
        <technique profile="FCOLLADA">
          <start_time>0.041667</start_time>
          <end_time>2.000000</end_time>
        </technique>
      </extra>
    </visual_scene>
  </library_visual_scenes>
  <scene>
    <instance_visual_scene url="#"></instance_visual_scene>
  </scene>
</COLLADA>

