<?xml version="1.0" encoding="utf-8"?>
<COLLADA xmlns="http://www.collada.org/2005/11/COLLADASchema" version="1.4.1">
  <asset>
    <contributor>
      <author>Skywolf</author>
      <authoring_tool>Maya2008 | ColladaMaya v3.05B</authoring_tool>
      <comments>ColladaMaya export options: bakeTransforms=0;exportPolygonMeshes=1;bakeLighting=0;isSampling=0;
curveConstrainSampling=0;removeStaticCurves=1;exportCameraAsLookat=0;
exportLights=0;exportCameras=0;exportJointsAndSkin=0;
exportAnimations=1;exportTriangles=1;exportInvisibleNodes=0;
exportNormals=1;exportTexCoords=1;
exportVertexColors=1;exportVertexColorsAnimation=0;exportTangents=1;
exportTexTangents=1;exportConstraints=1;exportPhysics=0;exportXRefs=1;
dereferenceXRefs=0;cameraXFov=0;cameraYFov=1</comments>
      <source_data>file:///C:/Users/Skywolf/Documents/maya/projects/frictional/scenes/rope_pile.mb</source_data>
    </contributor>
    <created>2009-09-24T11:31:34Z</created>
    <modified>2009-09-24T11:31:34Z</modified>
    <unit meter="1" name="meter"/>
    <up_axis>Y_UP</up_axis>
  </asset>
  <library_images>
    <image id="file1" name="file1">
      <init_from>file:///C:/Users/Skywolf/Desktop/FrictionalGames09-2008/frictionalSVN/lux/redist/entities/equipment/rope_pile/rope_pile.dds</init_from>
      <extra>
        <technique profile="MAYA">
          <dgnode_type>kFile</dgnode_type>
          <image_sequence>0</image_sequence>
        </technique>
      </extra>
    </image>
  </library_images>
  <library_materials>
    <material id="lambert1" name="lambert1">
      <instance_effect url="#lambert1-fx"/>
    </material>
  </library_materials>
  <library_effects>
    <effect id="lambert1-fx">
      <profile_COMMON>
        <newparam sid="file1-surface">
          <surface type="2D">
            <init_from>file1</init_from>
            <format>A8R8G8B8</format>
          </surface>
        </newparam>
        <newparam sid="file1-sampler">
          <sampler2D>
            <source>file1-surface</source>
            <wrap_s>WRAP</wrap_s>
            <wrap_t>WRAP</wrap_t>
            <minfilter>NONE</minfilter>
            <magfilter>NONE</magfilter>
            <mipfilter>NONE</mipfilter>
          </sampler2D>
        </newparam>
        <technique sid="common">
          <lambert>
            <emission>
              <color>0 0 0 1</color>
            </emission>
            <ambient>
              <color>0 0 0 1</color>
            </ambient>
            <diffuse>
              <texture texture="file1-sampler" texcoord="TEX0">
                <extra>
                  <technique profile="MAYA">
                    <wrapU>1</wrapU>
                    <wrapV>1</wrapV>
                    <mirrorU>0</mirrorU>
                    <mirrorV>0</mirrorV>
                    <coverageU>1</coverageU>
                    <coverageV>1</coverageV>
                    <translateFrameU>0</translateFrameU>
                    <translateFrameV>0</translateFrameV>
                    <rotateFrame>0</rotateFrame>
                    <stagger>0</stagger>
                    <fast>0</fast>
                    <repeatU>1</repeatU>
                    <repeatV>1</repeatV>
                    <offsetU>0</offsetU>
                    <offsetV>0</offsetV>
                    <rotateUV>0</rotateUV>
                    <noiseU>0</noiseU>
                    <noiseV>0</noiseV>
                    <blend_mode>NONE</blend_mode>
                  </technique>
                </extra>
              </texture>
            </diffuse>
            <transparent opaque="RGB_ZERO">
              <color>0 0 0 1</color>
            </transparent>
            <transparency>
              <float>1</float>
            </transparency>
          </lambert>
          <extra>
            <technique profile="FCOLLADA"/>
          </extra>
        </technique>
      </profile_COMMON>
    </effect>
  </library_effects>
  <library_geometries>
    <geometry id="polySurfaceShape2" name="polySurfaceShape2">
      <mesh>
        <source id="polySurfaceShape2-positions" name="position">
          <float_array id="polySurfaceShape2-positions-array" count="630">-0.135114 0.078389 -0.234405 -0.723355 0.033438 0.063776 0.054975 0.069387 0.152832 -0.116648 0.10895 0.06165 -0.103312 0.139546 0.013169 0.073427 0.143155 0.022733 -0.145772 0.0948 -0.269206 -0.023688 0.17616 -0.229389 -0.04346 0.142362 -0.196293 -0.140033 0.074892 -0.263989 -0.018784 0.144265 -0.242188 -0.156456 0.098086 -0.238816 -0.044578 0.177813 -0.199493 0.05131 0.147182 -0.114064 0.093123 0.188195 -0.135289 0.106983 0.151733 -0.134512 0.065143 0.193135 -0.119087 0.112313 0.192347 0.007943 0.120859 0.147068 0.004817 0.07464 0.197268 -0.004238 0.025425 0.140594 0.115252 0.052628 0.185599 0.140181 0.051813 0.142634 0.151697 0.029807 0.194594 0.107707 -0.048611 0.142871 0.112297 -0.07697 0.183726 0.135579 -0.059067 0.150332 0.147034 -0.05717 0.196367 0.096203 -0.169378 0.15867 0.010206 -0.155461 0.118043 0.011597 -0.123162 0.173975 0.007748 0.093617 0.112925 -0.123889 -0.087844 0.115728 -0.113618 -0.137429 0.148259 -0.151576 -0.126596 0.109731 -0.138658 -0.098677 0.167762 -0.126537 0.000286 0.102782 -0.183106 -0.0048 0.133329 -0.238176 -0.004569 0.095197 -0.230564 0.000055 0.145021 -0.201192 0.140297 0.138249 -0.158356 0.138157 0.105692 -0.145725 0.10088 0.158465 -0.13366 0.090731 0.107435 0.151347 0.104528 0.115684 0.002229 0.149812 0.137172 0.0107 0.154597 0.10722 0.007341 0.122715 0.167046 0.005588 0.082076 0.133261 0.179521 0.082806 0.106899 0.185888 0.051035 0.153989 0.14736 -0.047302 0.114325 0.165758 -0.066896 0.130178 0.205509 -0.062402 0.10289 0.208263 -0.059527 0.151553 0.14508 -0.165207 0.124737 0.082058 -0.156481 0.095272 0.071228 -0.143443 0.142114 0.059203 -0.01285 0.082527 0.102986 0.017678 0.088179 -0.108506 -0.096882 0.092227 -0.058959 -0.161276 0.123851 -0.073229 -0.138342 0.076141 -0.064744 -0.119817 0.139937 -0.067443 -0.057081 0.072088 -0.126561 -0.103076 0.099543 -0.187451 -0.086753 0.059384 -0.163088 -0.073403 0.10461 -0.150923 0.024135 0.115203 -0.180827 0.021279 0.06907 -0.111052 0.020534 0.134312 -0.136415 0.038226 0.088959 -0.0322 0.1055 0.115575 -0.069838 0.079568 0.069591 -0.055403 0.064158 0.134943 -0.046635 0.035499 0.088025 0.050218 0.074893 0.114314 0.100596 0.059877 0.068459 0.080952 0.050515 0.13388 0.069861 -0.025286 0.11447 0.161662 -0.021067 0.067509 0.152779 -0.028821 0.12978 0.124615 -0.077605 0.066334 -0.147933 -0.079806 0.082244 0.045822 -0.155677 0.103145 0.063914 -0.120822 0.061038 0.067605 -0.114662 0.124352 0.042131 -0.084794 0.04817 -0.085996 -0.157101 0.066951 -0.052269 -0.124963 0.024263 -0.063882 -0.116933 0.090859 -0.074383 -0.135367 0.080709 -0.173166 -0.11126 0.039969 -0.16091 -0.104402 0.107074 -0.14694 0.061838 0.070988 -0.086039 -0.015415 0.069493 -0.162778 -0.02047 0.080441 -0.23079 -0.018751 0.041226 -0.197751 -0.017134 0.108709 -0.195818 0.159911 0.080295 -0.136868 0.090034 0.041826 -0.11288 0.088372 0.109457 -0.110027 0.09825 0.069868 0.019383 0.1869 0.078468 0.020135 0.143936 0.040338 0.019217 0.141214 0.107998 0.020301 0.124178 0.077362 0.205988 0.090725 0.039535 0.179762 0.088428 0.107214 0.179058 -0.162032 0.038828 -0.122288 0.079073 0.057568 -0.177034 -0.138679 0.057005 -0.077459 -0.051179 0.068368 0.171638 -0.040738 0.075138 0.242486 -0.044898 0.037914 0.211671 -0.047018 0.105592 0.210201 -0.130135 0.063344 0.041836 -0.177875 0.06832 0.105428 -0.152657 0.032004 0.074548 -0.155353 0.09966 0.072716 -0.21458 0.060086 -0.054794 -0.175119 0.024734 -0.064832 -0.17814 0.092358 -0.067421 -0.12545 0.054247 -0.181167 -0.183421 0.05562 -0.200829 -0.155915 0.02114 -0.19352 -0.158328 0.088726 -0.197327 -0.039888 0.055882 -0.222923 -0.060372 0.056148 -0.287099 -0.049735 0.022237 -0.252665 -0.050526 0.089792 -0.257357 0.108431 0.05734 -0.243037 0.092953 0.023684 -0.20798 0.094551 0.091225 -0.212091 0.107512 0.056345 0.182304 0.135571 0.057905 -0.075671 0.209229 0.057637 -0.109317 0.170282 0.024 -0.091547 0.174518 0.091542 -0.093441 0.147245 0.057432 0.044502 0.23728 0.057112 0.053412 0.189637 0.023503 0.048528 0.194888 0.091041 0.049386 0.177925 0.055617 0.234808 0.140876 0.022228 0.206571 0.144561 0.089734 0.210541 -0.126264 0.049815 0.130437 -0.014549 0.053982 0.20928 0.007747 0.052104 0.293997 -0.003109 0.019341 0.266788 -0.010216 0.082885 0.257668 -0.176109 0.046257 0.190945 -0.147738 0.014417 0.159009 -0.154635 0.081655 0.162373 -0.176607 0.056132 0.021121 -0.251745 0.044084 0.039998 -0.206465 0.014538 0.028567 -0.221887 0.085679 0.032552 -0.236752 0.0321 -0.119612 -0.194441 0.002013 -0.119725 -0.204342 0.068915 -0.122174 0.202217 0.040338 0.110705 0.095811 0.040195 -0.239781 -0.118089 0.037647 -0.233265 -0.174343 0.029808 -0.269751 -0.142507 0.00034 -0.247988 -0.149925 0.067115 -0.255028 -0.038964 0.039178 -0.270457 -0.059164 0.030618 -0.326159 -0.047719 0.001554 -0.297104 -0.050409 0.068242 -0.307333 0.122704 0.032157 -0.2926 0.118759 0.003755 -0.262676 0.115615 0.070162 -0.274796 0.164091 0.041355 -0.146812 0.214144 0.032365 -0.192664 0.190495 0.003541 -0.166348 0.199487 0.070179 -0.173128 0.207351 0.041095 -0.034828 0.283748 0.032127 -0.046214 0.244332 0.00329 -0.039779 0.257133 0.069932 -0.041263 0.280001 0.031171 0.136713 0.238852 0.002451 0.121485 0.251339 0.069058 0.125932 -0.195314 0.031838 0.215476 0.10519 0.038576 0.238236 0.16316 0.028772 0.289642 0.130618 0.000426 0.264396 0.138378 0.066922 0.275243 -0.039811 0.034667 0.255112 -0.02343 0.024021 0.326159 -0.032081 -0.003834 0.288708 -0.03116 0.062523 0.302769 -0.209913 0.020576 0.277089 -0.200766 -0.001622 0.240928 -0.204461 0.054556 0.251637 -0.507374 0.033182 0.048357 -0.33309 0.028858 0.110614 -0.370144 0.02016 0.15888 -0.348694 0.001107 0.124379 -0.353591 0.051777 0.135857 -0.536955 0.02167 0.090513 -0.519225 0.002362 0.065875 -0.525105 0.052149 0.072995 -0.70833 0.033566 0.036582 -0.703336 0.021859 0.091243 -0.706253 0.006038 0.059037 -0.705412 0.048843 0.068789 -0.15092 0.082672 -0.25319</float_array>
          <technique_common>
            <accessor source="#polySurfaceShape2-positions-array" count="210" stride="3">
              <param name="X" type="float"/>
              <param name="Y" type="float"/>
              <param name="Z" type="float"/>
            </accessor>
          </technique_common>
        </source>
        <source id="polySurfaceShape2-normals" name="normal">
          <float_array id="polySurfaceShape2-normals-array" count="786">-0.991146 0.105051 0.081198 -0.388871 0.896403 0.212697 -0.516107 0.248629 -0.819645 -0.646554 -0.07845 -0.758823 -0.042707 0.998751 -0.025913 -0.113992 0.992642 0.04083 -0.996023 -0.083446 0.031207 0.876977 -0.441237 -0.19032 0.277432 0.953959 -0.113985 0.170924 0.872534 -0.457678 0.328158 -0.692751 -0.64219 0.83279 -0.542715 -0.109187 0.400449 0.895575 -0.193871 0.237483 0.814634 -0.529125 0.398751 -0.761022 -0.511706 -0.525296 0.721031 0.45186 -0.161575 -0.669414 0.725106 -0.623866 -0.696834 0.353854 -0.5136 0.822998 0.24267 -0.315203 -0.774436 0.54854 0.025986 -0.982437 0.184776 0.289864 -0.954613 0.068499 -0.387255 -0.114979 -0.914775 -0.676958 0.201399 -0.707931 0.08412 0.720829 -0.687989 0.382164 0.241811 -0.891896 0.067522 -0.997343 -0.027331 0.52482 0.786214 -0.326239 0.834913 0.301175 -0.460666 -0.957385 0.062909 0.281881 -0.605155 0.790958 -0.090401 -0.670632 -0.731266 -0.124508 0.072538 -0.997245 -0.015524 0.670371 0.733386 0.112905 0.966571 0.200051 0.160377 -0.296624 -0.839994 -0.45434 -0.340247 0.804216 -0.487307 0.009475 -0.996953 0.077432 0.32205 0.755099 0.571059 0.518103 0.238576 0.821371 0.082168 -0.993705 0.076154 -0.395748 0.655568 0.643129 -0.453467 0.032757 0.890671 -0.868941 0.475478 0.137343 -0.924307 -0.296835 0.239887 0.234258 -0.969035 0.078071 -0.685627 -0.572142 0.450078 -0.31328 0.932977 0.177225 0.044966 0.955056 0.292996 0.020342 -0.586917 0.809391 0.722743 -0.513097 0.463005 0.393407 0.911698 0.11848 0.128179 -0.977779 0.165885 -0.721346 0.453319 -0.523604 -0.804126 -0.325627 -0.497342 -0.0135 0.478399 -0.878039 -0.047916 -0.319194 -0.946477 -0.011245 -0.982588 0.185458 0.739523 0.495654 -0.455447 0.845029 -0.126084 -0.519643 -0.095316 -0.989144 0.11184 -0.374366 -0.799191 -0.47026 -0.320033 0.861153 -0.394962 -0.427245 0.904088 0.0093 -0.75144 -0.655649 -0.073908 -0.154146 -0.9879 -0.017129 0.856799 0.496565 0.138992 0.986088 0.072148 0.149749 0.492835 0.611669 0.618849 0.616989 0.166318 0.769196 -0.090648 -0.98933 -0.114052 -0.329695 0.573366 0.750035 -0.367529 -0.048955 0.928723 0.132394 -0.978685 -0.156996 0.323479 -0.946091 0.016487 -0.884869 0.385764 0.261139 -0.896814 -0.338756 0.284551 -0.017679 -0.465673 -0.884781 -0.06035 0.965118 -0.254763 -0.309028 0.942806 -0.124976 -0.826875 -0.372922 -0.420959 -0.631891 -0.209924 0.746087 -0.311069 0.923664 0.223786 0.088585 0.97945 0.181192 0.243578 -0.281166 0.928232 0.878395 -0.324406 0.350975 0.356429 0.934322 -0.00042 -0.883949 0.366775 -0.290017 -0.879763 -0.436939 -0.187354 0.26971 -0.930666 0.247217 0.014544 -0.854073 0.51995 -0.434594 0.376198 -0.818293 -0.344794 -0.716651 -0.606241 0.520923 0.253501 -0.815093 0.426598 -0.680548 -0.595708 -0.347682 -0.782502 0.516535 -0.942734 -0.285689 0.172143 -0.31997 0.946826 0.033746 0.939456 0.277105 -0.201581 0.804455 -0.563488 -0.187974 -0.515329 -0.847336 0.128287 -0.395824 -0.896459 -0.199208 0.784899 0.377281 0.49152 0.784845 -0.381055 0.488687 -0.053883 0.467842 0.882168 -0.008996 -0.365954 0.930589 -0.000513 -0.948368 -0.317172 0.747145 -0.220722 0.626942 0.103933 0.971862 0.211382 0.152597 0.987003 -0.050394 0.982388 -0.177671 0.057857 0.887436 -0.261556 -0.379534 0.152755 0.953473 -0.259912 0.432517 -0.900674 -0.0414 -0.865427 0.291426 0.407562 -0.710601 -0.486703 0.5081 -0.984087 0.160339 -0.076574 -0.80264 -0.596455 -0.003335 0.559815 -0.827253 0.047538 0.431506 -0.851931 0.296676 -0.789629 0.199696 -0.580179 -0.620487 -0.586418 -0.520681 -0.811161 -0.090572 0.577767 -0.160058 0.98278 0.092328 -0.072731 0.985663 0.152248 -0.150096 -0.155582 0.976353 0.003903 0.146809 -0.989157 0.006215 -0.690852 -0.722969 -0.106474 -0.78052 0.615997 0.773222 0.082178 -0.628789 0.456979 -0.805532 -0.377212 -0.50636 -0.781921 0.363593 -0.561506 -0.827382 0.012239 0.99538 0.073895 0.061304 0.603245 -0.797063 0.028045 0.640223 0.078129 0.764206 0.441973 -0.738259 0.509543 -0.347382 -0.83798 -0.420849 0.963112 0.146432 0.225772 -0.133466 0.986903 -0.090602 -0.130257 0.991359 -0.015501 0.972493 0.152673 -0.175923 -0.617655 0.033606 0.785731 -0.011768 0.999056 -0.041804 -0.056741 0.997694 -0.037251 0.079336 0.033819 0.996274 0.99995 0.005456 0.008372 -0.011697 0.999321 -0.034925 0.023309 0.999727 -0.001629 0.93065 -0.010021 -0.365774 0.406655 -0.049207 -0.912256 0.014376 0.999814 -0.012842 0.277558 -0.777813 -0.563887 -0.325006 0.052313 0.944264 -0.214806 -0.68736 0.693826 -0.889395 0.015723 0.456868 -0.639293 -0.677983 0.362826 0.685652 -0.688511 -0.236291 -0.999977 -0.006437 0.001935 -0.707415 -0.706158 0.030072 0.707105 -0.706301 0.033782 0.808095 0.021224 0.58867 -0.057126 0.997338 -0.045312 -0.818785 -0.027235 -0.573454 -0.59605 -0.693374 -0.404915 0.559393 -0.716083 0.417498 -0.163238 -0.037622 -0.985869 -0.112329 -0.704586 -0.700672 0.064942 -0.68235 0.728135 0.568471 -0.033738 -0.822012 0.38177 -0.746212 -0.545362 -0.4388 -0.699553 0.563986 -0.716976 0.022905 -0.696721 0.015695 0.999192 0.036992 0.027094 0.999624 0.004105 -0.996017 0.031759 -0.083316 -0.940031 0.031363 0.339645 0.016672 0.999441 -0.028982 0.92118 -0.031322 -0.387873 0.579772 -0.777286 -0.244317 -0.638691 -0.734715 0.228622 0.996777 -0.031918 0.073598 0.590304 -0.806231 0.039136 -0.639723 -0.766399 -0.058197 0.699784 -0.007687 0.714313 0.430638 -0.796394 0.424627 -0.412731 -0.817757 -0.401156 0.772677 0.098914 -0.627045 -0.07833 0.992817 0.090434 -0.022169 0.997174 0.071774 0.178736 0.036423 -0.983223 -0.131884 -0.001983 0.991263 -0.064855 -0.739968 0.669508 0.129742 -0.799519 -0.58646 -0.725866 -0.076223 0.6836 -0.463386 -0.761897 0.452533 0.571471 -0.688156 -0.447059 -0.970335 -0.153598 0.1867 -0.547232 -0.825581 0.137671 0.765884 -0.634408 -0.104636 -0.960421 -0.146342 -0.237014 -0.569846 -0.815157 -0.103893 0.761286 -0.610682 0.21797 -0.931854 0.145308 -0.332465 0.176502 0.981958 0.067868 0.200504 0.978615 -0.045941 -0.973744 0.13941 0.179964 -0.519486 0.134178 0.843878 0.088998 0.977239 -0.192571 -0.035407 0.982536 -0.182669 0.122945 0.146847 0.981489 0.722764 0.142612 0.676221 -0.101243 0.989442 -0.103701 -0.715088 -0.146759 -0.683455 -0.445352 -0.788305 -0.424543 0.575836 -0.615097 0.53858 -0.125094 -0.165338 -0.978271 -0.077743 -0.739687 -0.668445 0.106473 -0.592219 0.798711 0.494281 -0.16439 -0.853617 0.353971 -0.723452 -0.592723 -0.402297 -0.64063 0.654026 -0.860233 0.125576 0.494196 0.174223 0.975608 -0.133546 0.830826 -0.154464 -0.534668 0.562007 -0.745395 -0.358517 -0.649538 -0.666346 0.366174 0.965145 -0.164671 -0.203416 0.582803 -0.802783 -0.126018 -0.711074 -0.691564 0.126942 0.931336 -0.167356 0.323427 0.525903 -0.832264 0.175394 -0.66148 -0.709448 -0.243161 0.429824 0.178668 -0.885059 -0.094716 0.98243 0.16081 -0.029064 0.973046 0.228772 0.053186 0.172764 -0.983526 -0.491207 0.165103 -0.855252 0.093533 0.977959 0.186678 0.498599 -0.189071 0.845962 0.298395 -0.821493 0.485911 -0.345646 -0.691158 -0.634688 -0.041713 -0.19799 0.979316 -0.01086 -0.806645 0.590936 0.060735 -0.632913 -0.771837 -0.432769 -0.199051 0.879255 -0.224635 -0.85253 0.471944 0.356569 -0.607437 -0.709845 0.18817 0.203012 -0.960926 -0.026635 0.984025 0.176027 -0.07687 0.988727 0.12849 0.465815 0.184594 -0.865414 -0.480366 -0.201606 0.853583 -0.237665 -0.877148 0.417284 0.386979 -0.571181 -0.723878 -0.186504 -0.20624 0.960563 -0.097868 -0.8672 0.488248 0.152023 -0.562664 -0.812587 -0.513314 -0.122461 0.849419 -0.43521 -0.766688 0.471997 -0.428544 -0.556819 -0.711549 -0.828806 -0.554461 -0.075194</float_array>
          <technique_common>
            <accessor source="#polySurfaceShape2-normals-array" count="262" stride="3">
              <param name="X" type="float"/>
              <param name="Y" type="float"/>
              <param name="Z" type="float"/>
            </accessor>
          </technique_common>
        </source>
        <source id="polySurfaceShape2-geotangent" name="geotangent">
          <float_array id="polySurfaceShape2-geotangent-array" count="786">0.110494 0.991701 0.06572 0.053258 0.252355 -0.966168 -0.776991 -0.538604 0.32587 -0.090551 0.995558 -0.025771 0.61296 0.00571 -0.790093 -0.944442 -0.09552 -0.314491 0.036722 -0.065385 0.997184 0.377115 0.877423 -0.296503 0.041326 0.106683 0.993434 0.664442 -0.445071 -0.600357 -0.930011 -0.356047 -0.091155 0.493051 0.816832 -0.299477 0.056553 0.187017 0.980727 0.75005 -0.499915 -0.433024 -0.907546 -0.247309 -0.339408 -0.373996 -0.672621 0.63852 0.962822 0.054254 0.264632 -0.487471 0.700859 0.520738 -0.400268 0.020352 -0.916172 0.626449 -0.603973 -0.492725 0.986532 -0.004656 -0.163501 -0.184909 0.014365 0.982651 -0.508247 0.854443 0.107762 0.726615 0.029586 -0.686407 0.579036 -0.597263 -0.554973 -0.920544 0.01509 -0.390348 -0.64678 -0.064613 0.759934 0.537122 -0.603204 -0.589614 -0.424532 -0.180276 -0.887284 0.181543 -0.627993 0.756748 -0.401564 -0.401321 -0.823218 -0.741518 0.656333 0.139202 -0.992611 -0.073702 0.096391 0.29123 -0.120094 -0.949085 0.143749 0.095143 -0.98503 -0.780529 0.487366 -0.39147 0.670614 -0.155748 -0.725272 -0.903721 -0.041683 -0.426088 0.763017 -0.564099 0.31559 0.855308 -0.149219 -0.496168 0.036823 -0.073333 -0.996627 -0.015003 -0.704824 0.709224 0.761116 0.534212 0.367859 -0.37642 -0.815107 0.440351 0.217222 0.10764 0.970169 0.78994 0.142922 -0.596296 -0.375923 0.807738 0.454138 -0.631242 -0.065154 -0.772845 -0.5207 -0.227894 0.822761 0.9995 -0.007659 -0.030675 0.608456 0.790111 -0.074196 -0.506023 0.107133 0.855841 0.971361 0.157518 0.177891 -0.507953 -0.86021 -0.044956 -0.556711 0.119128 0.82212 -0.378068 -0.815373 -0.438443 -0.998777 0.003779 0.049289 0.606272 0.140791 0.782696 0.281437 -0.842306 -0.459689 -0.533052 -0.275346 -0.800025 -0.513417 0.145105 0.845782 -0.890662 0.45102 -0.057452 0.527708 0.50826 0.680585 -0.811378 -0.378854 -0.445124 -0.059589 -0.04412 0.997248 -0.982954 0.15157 0.104057 0.505258 -0.862301 -0.033927 0.139352 0.132306 -0.981364 0.627287 -0.742651 0.23448 0.786956 -0.124187 -0.604383 -0.920379 0.126967 -0.369841 0.126861 -0.760344 0.637011 0.909982 0.187207 0.369981 -0.154545 0.136071 -0.978571 0.78922 0.260149 -0.556286 -0.310355 -0.906234 0.287088 0.370068 -0.221956 0.902101 -0.514012 0.763259 -0.391443 0.923576 0.150806 0.352512 -0.535229 -0.281029 -0.796588 -0.333968 -0.276641 0.901075 -0.228132 0.970353 0.07981 -0.886984 -0.197589 -0.417395 -0.096826 -0.172578 0.980225 0.921995 0.364136 -0.131643 0.369425 0.926772 -0.067957 -0.200908 0.077082 0.976573 -0.382013 -0.924146 -0.004392 -0.235913 0.05909 0.969976 0.950758 0.298083 0.084891 0.871615 0.265646 0.411971 -0.540212 -0.835876 -0.097375 -0.852919 -0.030505 0.521151 0.130404 -0.96731 -0.217501 -0.904119 -0.338463 -0.260791 -0.384512 0.621443 0.682611 -0.278477 0.958227 0.065208 -0.359989 -0.088552 -0.928744 0.243701 -0.953847 -0.175458 -0.306842 -0.123233 -0.943749 -0.612168 0.468722 0.636828 -0.896856 0.423998 -0.125996 0.399014 -0.914646 0.064887 0.575445 0.155513 -0.802919 0.280913 -0.84067 0.462993 0.995794 0.081576 0.041706 -0.645495 0.242559 -0.724225 0.043042 0.957338 0.285747 -0.240794 -0.181623 0.953431 0.979979 -0.144518 0.136953 0.116697 0.341553 -0.93259 0.186527 0.956758 -0.223208 0.178961 0.231963 0.95612 0.602371 0.322824 -0.730023 -0.161576 -0.932312 0.323554 0.35806 0.371494 0.856613 -0.175966 -0.939235 0.294744 0.124068 -0.17242 0.977179 0.819671 0.54445 -0.178084 0.844331 0.497208 0.199724 -0.146481 -0.979568 -0.137804 -0.581576 -0.101313 0.807158 -0.072809 0.995888 0.053897 -0.643526 -0.032964 -0.764714 -0.621623 -0.164175 0.765919 0.964684 0.19317 0.179084 -0.075864 -0.986271 -0.14668 -0.99943 -0.028283 0.018435 0.298406 0.565878 0.768593 0.040826 -0.995962 -0.07996 -0.40915 0.186186 -0.89327 -0.490466 0.607951 0.624371 -0.780439 0.534448 0.324468 0.075517 -0.996841 -0.024579 0.031443 -0.011368 -0.999441 0.091638 -0.995478 0.025002 0.679008 -0.095854 -0.727846 -0.832233 0.482317 -0.273421 -0.118969 0.984238 -0.130853 0.074611 0.101166 0.992068 0.98654 0.131151 0.097659 -0.190468 0.086439 -0.977881 0.001778 0.999144 -0.041336 -0.904039 -0.028495 -0.4265 -0.297966 0.018688 0.954393 0.972078 0.218784 -0.084836 -0.005007 0.998598 -0.052704 0.277201 0.036799 0.960107 0.98696 -0.023271 -0.159276 -0.317062 0.476908 -0.819775 -0.02075 0.997793 -0.063071 0.995597 -0.015503 -0.092443 -0.200593 0.527091 -0.825795 0.027803 -0.997509 0.064832 0.974588 -0.197077 0.106488 0.005195 -0.998996 0.044496 0.633341 -0.19665 0.74847 0.545732 0.701017 -0.459077 0.006526 -0.998737 0.049825 0.151445 -0.109881 0.982339 0.702329 0.695979 -0.149487 -0.006302 0.999605 -0.027388 -0.426957 0.016621 0.904119 0.010296 -0.99941 0.032763 -0.427865 -0.152452 0.890893 0.756899 0.646605 0.094896 0.027788 -0.999052 0.033524 -0.970835 -0.072483 0.228529 0.341608 0.700791 0.626256 -0.003089 -0.999239 0.038875 -0.872789 -0.096906 -0.478381 -0.221961 0.692571 0.686352 0.018962 0.999731 0.013353 0.594326 0.020428 -0.803965 -0.95425 0.027087 -0.297781 -0.084138 -0.025498 0.996128 0.026757 0.999476 -0.018236 -0.400744 -0.019877 -0.915974 -0.025088 -0.999462 0.021127 -0.404685 -0.014456 -0.914342 -0.621012 0.667626 0.410633 -0.032176 -0.99948 0.002322 0.089803 0.017412 -0.995807 -0.767217 0.632186 0.108255 -0.001928 -0.999959 -0.008871 0.639919 -0.062346 -0.765909 -0.811374 0.530215 -0.246059 -0.079105 0.995089 0.059495 0.746771 -0.001663 0.665079 0.548896 0.072144 -0.832771 -0.908918 0.388741 -0.150828 0.020912 -0.999781 0.000782 0.968618 -0.208003 -0.136063 -0.33836 0.520257 -0.78412 0.058943 -0.997078 -0.048589 0.728562 -0.036853 0.683987 0.404897 0.710301 -0.575787 0.145091 -0.987688 -0.058487 0.244534 -0.000394 0.969641 0.59304 0.759864 -0.26629 0.129222 -0.987853 0.086308 -0.058424 -0.085919 0.994588 0.628228 0.777889 -0.014764 0.150425 0.988566 0.010446 0.288419 0.014328 -0.957397 -0.979422 0.199125 -0.032903 0.170751 -0.075548 0.982414 0.024863 0.989549 -0.142035 -0.862384 -0.021135 -0.505813 -0.191352 0.172737 0.966202 0.969948 0.19146 -0.150145 -0.135173 0.98875 -0.064046 -0.543498 0.032298 0.838789 0.134841 -0.98831 0.071139 -0.611256 -0.078782 0.787502 0.599839 0.765476 0.232895 0.083181 -0.984293 0.155719 -0.959558 -0.12644 0.251517 0.274308 0.7896 0.548896 -0.024071 -0.984169 0.175593 -0.929079 -0.199279 -0.31161 -0.143516 0.749682 0.64605 0.096819 0.991794 -0.083485 -0.594612 -0.00387 -0.804003 -0.11473 -0.987613 0.107039 -0.656518 -0.138345 -0.741515 -0.53611 0.742884 0.400886 -0.153162 -0.985633 0.071191 -0.178656 0.024701 -0.983601 -0.644481 0.713243 0.275552 -0.173923 -0.984721 -0.008712 0.337743 0.015084 -0.941117 -0.727609 0.685666 -0.021158 -0.060969 0.983732 0.168978 0.97602 0.059839 0.209293 0.265863 0.22815 -0.936624 -0.955175 0.29604 0.000348 0.132177 0.98463 0.114164 0.718283 0.063555 -0.692842 -0.150476 -0.979984 -0.130336 0.690529 -0.165639 -0.704084 -0.58307 0.688147 -0.431838 -0.013936 -0.979958 -0.198714 0.983211 -0.116267 -0.140638 -0.114928 0.763688 -0.635273 0.067695 -0.979741 -0.18848 0.951607 -0.087688 0.294543 0.176682 0.789918 -0.587207 -0.046359 0.979149 0.197783 0.773665 -0.091218 0.626994 0.340661 0.147162 -0.928598 -0.842688 -0.205858 -0.497492 0.122352 -0.97911 -0.162398 0.853251 0.016774 0.521231 0.367344 0.815552 -0.447139 0.071515 -0.977974 -0.196092 0.858907 0.174211 0.481591 0.189512 0.823483 -0.534753 -0.001756 -0.989615 -0.143735 0.894423 -0.428128 0.129284 0.038281 0.775632 -0.630023 0.493337 -0.660712 -0.565755</float_array>
          <technique_common>
            <accessor source="#polySurfaceShape2-geotangent-array" count="262" stride="3">
              <param name="X" type="float"/>
              <param name="Y" type="float"/>
              <param name="Z" type="float"/>
            </accessor>
          </technique_common>
        </source>
        <source id="polySurfaceShape2-geobinormal" name="geobinormal">
          <float_array id="polySurfaceShape2-geobinormal-array" count="786">-0.07362 0.07411 -0.994529 -0.919751 -0.364387 -0.145875 -0.360443 0.80504 0.47116 0.757475 0.052049 -0.650787 -0.788959 -0.049626 -0.612438 -0.308277 -0.074411 0.948382 -0.08117 0.994365 0.068189 0.297819 0.188254 0.935876 0.959856 -0.280321 -0.009826 -0.727531 -0.201485 -0.655822 -0.165501 0.627158 -0.761106 0.251718 0.195566 0.947835 0.914572 -0.403696 0.024242 -0.617274 -0.294035 -0.729738 0.131748 0.599736 -0.789278 0.764324 0.166418 0.622988 -0.216488 0.740906 0.63576 -0.61087 0.152378 -0.776929 -0.758947 -0.567679 0.318967 0.712887 0.188324 0.675519 0.161489 0.186537 0.969085 -0.939035 -0.297502 -0.172352 0.769233 0.506663 -0.389325 -0.117296 -0.979062 -0.166368 -0.810951 -0.351686 -0.467628 -0.080931 0.970206 0.228365 -0.759682 -0.033635 -0.649425 -0.660352 0.134212 -0.738866 -0.350275 0.936373 -0.022656 0.224626 0.775672 0.58981 -0.687411 -0.461873 0.560482 -0.020074 0.185679 -0.982406 -0.097269 0.008417 -0.995222 -0.682486 0.66912 -0.294092 -0.212315 0.975155 0.063205 0.550262 0.238506 -0.800204 -0.659173 -0.573567 -0.486326 0.428017 -0.06594 -0.901362 0.560436 0.334092 -0.757822 0.00419 0.959591 -0.281367 0.995938 0.084695 0.030565 0.918237 0.271025 0.288768 -0.463757 0.844716 -0.26718 0.321326 0.33094 0.887259 -0.313802 0.948843 -0.035013 0.566673 0.201358 0.79896 -0.623376 0.142174 -0.768888 -0.7095 -0.353989 0.609346 0.852555 -0.189559 0.48705 0.024203 0.809611 0.586468 -0.327756 0.335343 0.883245 0.767575 -0.396648 0.503487 -0.200068 0.138333 0.969967 -0.470789 0.233537 0.850775 -0.208457 0.937964 -0.277074 -0.92568 0.326039 0.191875 -0.012155 0.947682 -0.318985 -0.795178 0.12124 0.594132 -0.611472 0.211771 -0.7624 -0.042211 0.953041 -0.299885 -0.852829 0.023196 -0.521674 0.258012 0.397334 -0.880656 0.786831 0.009384 -0.617097 -0.398907 -0.197723 0.895421 -0.657105 0.753776 -0.005916 -0.100202 0.032877 -0.994424 0.103006 0.099295 -0.989712 -0.090616 0.98858 0.120412 0.603013 0.272636 -0.749697 -0.004995 0.978221 -0.207506 0.380376 0.071445 -0.922068 0.935525 0.30517 0.177944 -0.191976 0.9811 -0.024255 0.979075 0.153819 -0.133236 0.522008 0.192959 0.830828 0.347401 0.172989 0.921622 -0.242435 0.914319 0.324416 0.857601 0.447867 -0.252855 0.378636 -0.214019 -0.900461 -0.78615 -0.179277 0.591463 -0.452485 0.885663 0.104203 -0.740723 -0.119775 -0.661048 -0.341315 -0.328333 0.880739 0.991351 -0.104378 0.079548 -0.30099 0.887891 0.34793 -0.303228 0.189352 0.933916 0.912466 -0.347995 0.215187 -0.26963 0.106907 0.957011 -0.41275 0.897548 -0.155065 -0.152697 0.212148 0.965234 -0.489975 0.447204 0.748287 -0.720624 0.399733 0.566493 -0.391977 0.696765 -0.600727 -0.843584 0.007009 -0.536951 -0.024144 0.649844 -0.759684 -0.855142 0.038717 -0.516947 -0.183582 0.013536 -0.982911 -0.876372 -0.309319 0.369181 -0.240898 0.115709 -0.963628 0.508626 0.816881 -0.272037 -0.599738 0.249643 -0.760258 0.197414 0.128789 -0.971824 0.474048 0.145193 -0.868446 0.229959 0.911379 0.34133 0.958219 0.27276 -0.086124 -0.091176 0.927051 0.363681 0.763764 0.204361 -0.612291 -0.663266 -0.186509 0.724771 0.964995 -0.149992 0.215142 0.12789 -0.070284 -0.989295 0.145932 0.922916 0.356272 0.421504 0.12729 0.897849 0.971925 -0.192567 -0.135201 0.670878 0.290809 0.682167 0.474268 0.214161 0.853935 -0.605672 0.790641 -0.089715 -0.024662 0.303529 0.952503 -0.583418 0.783909 0.212392 0.121438 0.138659 0.982866 -0.317661 0.164311 0.93386 -0.595844 -0.023828 0.802747 -0.526084 0.803648 -0.278184 -0.580273 0.001652 -0.81442 -0.748502 -0.181815 0.637721 0.779933 -0.038934 0.624651 -0.216464 0.968752 0.121093 -0.997111 0.075614 0.007287 -0.033183 0.722443 -0.690634 -0.948482 0.265652 0.172661 -0.63282 0.036155 -0.773454 0.789789 0.562542 -0.2445 -0.709256 0.137826 -0.691347 -0.275 0.172638 -0.945818 0.059294 0.029095 -0.997817 0.796936 0.60379 0.018204 0.762704 0.054023 -0.644488 0.586181 0.667672 0.458918 0.432104 0.255263 -0.864943 -0.241374 0.099165 0.965352 0.988241 0.125648 -0.087136 0.098848 -0.002572 -0.995099 -0.13409 0.984489 0.113141 -0.786448 -0.024133 -0.617185 -0.427289 0.032773 0.903521 0.952889 0.065253 0.296219 -0.220838 0.975187 -0.015517 -0.008648 0.052659 0.998575 0.960741 0.001549 -0.277443 -0.159271 0.002104 -0.987233 0.182656 0.878896 0.440657 0.913346 0.044578 0.404736 -0.092625 -0.011457 -0.995635 0.939534 0.342318 -0.009725 0.945303 0.047324 0.322742 0.063541 0.699068 0.712226 0.457109 0.041949 0.888421 -0.436101 0.708285 0.555112 0.481724 0.185815 0.856396 0.001612 0.049837 0.998756 -0.690383 0.699476 0.184676 0.082071 0.129429 0.988186 -0.589019 0.018422 0.807909 0.902466 0.070995 0.424871 -0.574008 0.020922 0.818582 -0.679452 0.704266 -0.205802 -0.33791 0.262919 0.903709 -0.986195 -0.021923 0.164128 -0.211806 0.705907 -0.675894 -0.937596 0.208066 0.278607 -0.822698 -0.01956 -0.568142 0.304125 0.658618 -0.688281 -0.87074 0.175988 -0.459173 0.69684 -0.003637 -0.717218 -0.804071 0.034604 -0.593525 -0.29778 0.00415 0.954625 0.029512 0.99917 0.028069 -0.340038 -0.008054 -0.940377 -0.916038 0.026886 0.400189 -0.388326 -0.00973 -0.921471 0.707173 0.628981 -0.322937 -0.454332 0.120291 -0.882673 0.073486 -0.004683 -0.997285 0.80217 0.591344 0.08268 -0.046175 0.113903 -0.992418 0.714352 0.00483 -0.69977 0.636439 0.601556 0.482779 0.413916 0.223931 -0.882343 0.629851 0.003631 0.776708 0.660452 0.11963 -0.741277 -0.835596 0.020935 -0.548945 0.376726 0.920627 0.102588 0.991045 0.020832 0.131897 0.239942 0.639673 0.730237 0.93203 0.300169 -0.203026 0.685306 0.005024 0.728238 -0.504451 0.646649 0.572167 0.713778 0.148032 0.684549 0.193385 -0.029664 0.980674 -0.800462 0.564284 0.202099 0.248446 0.141893 0.958197 -0.246766 0.052265 0.967665 -0.819672 0.572832 0.001335 -0.16054 0.148175 0.975844 0.330182 -0.040276 -0.943058 -0.941096 0.188557 -0.280686 -0.023052 0.051593 0.998402 0.150555 0.987349 0.04976 -0.854117 -0.052803 -0.517393 -0.49837 0.211087 0.840874 0.980883 0.069165 0.181894 -0.209964 0.970453 -0.118895 -0.677747 -0.045116 0.73391 0.833283 0.141282 0.53449 -0.685906 -0.041287 0.726518 -0.654238 0.61022 -0.446771 -0.555523 0.188952 0.809748 -0.988652 -0.061894 0.136882 -0.270562 0.660966 -0.699943 -0.955729 0.160651 0.246521 -0.868969 -0.066244 -0.490413 0.107318 0.660988 -0.742683 -0.90419 0.166041 -0.393535 -0.500625 -0.023969 -0.865332 -0.784909 0.219484 0.579434 -0.544578 -0.027588 -0.838256 0.503123 0.65211 -0.567116 -0.539154 0.064081 -0.839766 -0.212217 -0.037554 -0.976501 0.792731 0.59576 -0.129026 -0.281102 0.114126 -0.952868 0.319944 -0.048136 -0.946213 0.780612 0.554174 0.289025 0.181738 0.162931 -0.969755 0.900852 -0.018669 0.433725 0.195993 0.176778 -0.96454 -0.963573 0.0336 -0.265328 0.291224 0.939422 0.180766 0.860956 -0.056966 -0.50548 -0.689435 0.198892 -0.696506 0.853672 -0.062311 -0.51707 0.658886 0.545631 0.517839 0.735227 0.220804 -0.640849 0.999032 -0.021937 0.038118 0.182151 0.579487 0.794365 0.991515 0.127289 -0.026356 0.89896 -0.022046 0.437476 -0.209723 0.515269 0.830972 0.917411 0.083962 0.388984 0.981042 0.007331 0.193658 0.633034 0.152886 -0.758876 -0.937038 -0.02761 -0.348133 -0.269987 0.961014 0.059663 0.868492 0.026426 0.494998 -0.464197 0.479927 0.744441 0.845758 -0.092878 0.525421 0.979848 0.032122 0.197146 -0.502694 0.466492 0.727794 0.970038 -0.0727 0.23182 0.858199 -0.075272 0.507768 0.102954 0.478431 0.872069 0.90271 -0.297231 -0.311077 0.264007 -0.505997 0.821138</float_array>
          <technique_common>
            <accessor source="#polySurfaceShape2-geobinormal-array" count="262" stride="3">
              <param name="X" type="float"/>
              <param name="Y" type="float"/>
              <param name="Z" type="float"/>
            </accessor>
          </technique_common>
        </source>
        <source id="polySurfaceShape2-map1" name="map1">
          <float_array id="polySurfaceShape2-map1-array" count="524">0.465908 12.966 0.93968 12.4928 1.39915 12.4772 1.39915 1.09349 0.93968 1.10912 0.93968 0.678794 1.39915 0.663159 1.39915 -4.00061 0.93968 -4.03771 0.93968 -4.5533 1.39915 -4.43956 1.39915 -6.95073 0.93968 -6.94598 0.93968 -7.32394 1.39915 -7.32869 0.93968 -9.14239 1.39915 -9.14714 1.39915 -8.68895 0.93968 -8.68421 -0.44064 -9.82197 0.033412 -9.80218 0.02074 -9.20753 -0.43873 -9.22924 0.477358 -9.77002 0.480211 -9.17737 0.02074 -8.74934 -0.43873 -8.77105 0.480211 -8.71919 0.93953 -9.73404 1.40342 -9.73783 0.93968 -8.23585 1.39915 -8.24059 -0.43873 -8.32269 0.02074 -8.30097 0.480211 -8.27082 1.39915 -7.78628 0.93968 -7.78153 -0.43873 -7.86837 0.02074 -7.84666 0.480211 -7.81651 -0.43873 -7.41077 0.02074 -7.38907 0.480211 -7.35892 0.480211 -6.98096 0.02074 -7.01111 -0.43873 -7.03282 1.39915 -5.79424 0.93968 -5.78949 0.93968 -6.18843 1.39915 -6.19318 1.39915 -6.5466 0.93968 -6.54185 -0.43873 -6.62868 0.02074 -6.60698 0.480211 -6.57682 0.480211 -6.2234 0.02074 -6.25356 -0.43873 -6.27527 0.480211 -5.82447 0.02074 -5.85462 -0.43873 -5.87633 1.39915 -4.96231 0.93968 -4.94735 0.93968 -5.41335 1.39915 -5.41335 -0.43873 -5.41335 0.02074 -5.41335 0.480211 -5.41335 0.480211 -4.96846 0.02074 -4.90541 -0.43873 -5.01201 0.480211 -4.57441 0.02074 -4.60179 -0.43873 -4.61795 -0.43873 -4.21547 0.02074 -4.17103 0.480211 -4.12951 1.39915 -1.41798 0.93968 -1.40235 0.93968 -1.81112 1.39915 -1.82675 1.39915 -2.61489 0.93968 -2.63246 0.93968 -3.12458 1.39915 -3.08748 1.39915 -3.54482 0.93968 -3.58192 0.480211 -3.67373 0.02074 -3.71524 -0.43873 -3.75969 -0.43873 -3.30234 0.02074 -3.2579 0.480211 -3.21639 0.480211 -2.72426 0.02074 -2.76578 -0.43873 -2.81022 1.39915 -2.23699 0.93968 -2.22135 0.480211 -2.24155 0.02074 -2.26875 -0.43873 -2.28455 -0.43873 -1.87431 0.02074 -1.85851 0.480211 -1.83132 0.480211 -1.42255 0.02074 -1.44974 -0.43873 -1.46554 1.39915 -0.332311 0.93968 -0.316678 0.93968 -0.672688 1.39915 -0.688322 1.39915 -1.0303 0.93968 -1.01467 -0.43873 -1.07786 0.02074 -1.06206 0.480211 -1.03487 0.480211 -0.692887 0.02074 -0.720084 -0.43873 -0.735882 -0.43873 -0.379875 0.02074 -0.364075 0.480211 -0.33688 1.39915 0.283443 0.93968 0.299078 0.93968 -0.011617 1.39915 -0.02725 0.480211 -0.031817 0.02074 -0.059013 -0.43873 -0.074812 0.480211 0.278879 0.02074 0.251681 -0.43873 0.235883 -0.43873 0.615598 0.02074 0.631396 0.480211 0.658594 0.480211 1.08893 0.02074 1.06173 -0.43873 1.04593 1.39915 6.92187 0.93968 6.9375 0.93968 6.55576 1.39915 6.54013 1.39915 3.81758 0.93968 3.83321 0.93968 3.31947 1.39915 3.30384 1.39915 2.38381 0.93968 2.39945 0.93968 1.95135 1.39915 1.93571 1.39915 1.49131 0.93968 1.50695 -0.43873 1.44375 0.02074 1.45955 0.480211 1.48675 0.480211 1.93115 0.02074 1.90395 -0.43873 1.88815 0.480211 2.37925 0.02074 2.35205 -0.43873 2.33625 1.39915 2.83834 0.93968 2.85397 0.480211 2.83377 0.02074 2.80658 -0.43873 2.79078 0.480211 3.29927 0.02074 3.27208 -0.43873 3.25628 0.480211 3.81301 0.02074 3.78582 -0.43873 3.77002 1.39915 5.24011 0.93968 5.25574 0.93968 4.82252 1.39915 4.80688 1.39915 4.31233 0.93968 4.32796 0.480211 4.30776 0.02074 4.28056 -0.43873 4.26476 0.480211 4.80232 0.02074 4.77512 -0.43873 4.75932 0.480211 5.23554 0.02074 5.20835 -0.43873 5.19255 1.39915 6.12112 0.93968 6.13675 0.93968 5.68879 1.39915 5.67315 0.480211 5.66859 0.02074 5.64139 -0.43873 5.62559 0.480211 6.11656 0.02074 6.08936 -0.43873 6.07356 0.480211 6.53556 0.02074 6.50837 -0.43873 6.49257 0.480211 6.9173 0.02074 6.8901 -0.43873 6.87431 1.39915 9.61966 0.93968 9.63529 0.93968 9.12871 1.39915 9.11308 1.39915 8.19681 0.93968 8.21244 0.93968 7.75657 1.39915 7.74094 1.39915 7.36239 0.93968 7.37802 0.480211 7.35783 0.02074 7.33063 -0.43873 7.31483 0.480211 7.73638 0.02074 7.70918 -0.43873 7.69338 0.480211 8.19224 0.02074 8.16504 -0.43873 8.14924 1.39915 8.6632 0.93968 8.67883 0.480211 8.65863 0.02074 8.63144 -0.43873 8.61564 0.480211 9.10851 0.02074 9.08132 -0.43873 9.06552 0.480211 9.61509 0.02074 9.5879 -0.43873 9.5721 1.39915 11.0096 0.93968 11.0253 0.93968 10.5167 1.39915 10.5011 1.39915 10.0576 0.93968 10.0732 0.480211 10.053 0.02074 10.0258 -0.43873 10.01 0.480211 10.4965 0.02074 10.4693 -0.43873 10.4535 0.480211 11.0051 0.02074 10.9779 -0.43873 10.9621 1.39915 12.0025 0.93968 12.0181 0.93968 11.5249 1.39915 11.5093 0.480211 11.5047 0.02074 11.4775 -0.43873 11.4617 0.480211 11.9979 0.02074 11.9708 -0.43873 11.955 0.480211 12.4726 0.02074 12.4454 -0.43873 12.4296 0.479819 -9.9412</float_array>
          <technique_common>
            <accessor source="#polySurfaceShape2-map1-array" count="262" stride="2">
              <param name="S" type="float"/>
              <param name="T" type="float"/>
            </accessor>
          </technique_common>
        </source>
        <source id="polySurfaceShape2-map1-tangents">
          <float_array id="polySurfaceShape2-map1-tangents-array" count="942">0.000654 0.007693 -0.001969 -0.093798 -0.237092 0.827724 -0.354603 0.795192 0.464495 0.602858 0.043911 0.698863 0.914519 0.098096 0.168329 0.141111 0.859874 -0.209132 -0.085582 0.926505 -0.254084 -0.858732 0.211286 -0.321809 -0.663513 0.220195 0.171992 0.142299 0.607597 -0.75295 -0.535486 0.41844 -0.725018 -0.822008 0.367656 0.000469 -0.720925 0.505057 0.454012 0.462585 0.79054 -0.401165 0.253624 0.619598 -0.723843 -0.472566 0.626174 0.472779 -0.655335 0.671071 0.166122 0.46413 0.679966 -0.545458 0.74814 0.555452 -0.30037 0.25054 0.18526 0.949773 -0.332442 -0.04241 0.815737 0.164385 0.492319 0.789521 -0.405546 0.714699 0.569437 0.381057 -0.918729 -0.045838 0.416696 -0.464921 -0.53073 0.469331 -0.85472 -0.03063 0.702636 -0.475706 -0.412502 -0.481412 0.652327 0.43585 -0.890569 -0.072596 0.44895 0.791909 -0.519168 0.022782 0.412854 -0.890492 0.166073 -0.913753 0.403755 0.044963 -0.141005 0.57501 -0.60724 0.683424 0.513888 -0.078687 -0.537158 0.591131 -0.578586 -0.519977 0.449143 0.1628 -0.890302 -0.071757 0.449478 0.578839 -0.600612 0.464492 0.15301 -0.939552 0.249805 -0.231188 0.524761 -0.819254 0.410753 0.476959 0.500343 -0.256936 0.459688 -0.682135 -0.739874 -0.034555 -0.354368 0.236144 -0.638806 0.711504 -0.140769 -0.923219 0.356952 -0.144274 0.498971 -0.854509 0.172692 -0.039781 -0.705415 0.155963 -0.964535 0.114879 -0.222172 -0.633956 0.509504 -0.470598 -0.78421 -0.262462 0.269327 -0.947668 -0.134898 0.318441 0.562338 -0.366296 0.943542 0.233083 0.061905 -0.567289 0.807379 0.162165 0.751959 0.311312 -0.309623 0.055357 0.803496 0.58125 0.015528 0.238163 -0.778704 -0.684911 0.366534 -0.546243 0.447974 0.824562 0.214492 0.591771 0.773322 -0.066756 0.69176 0.18843 0.576142 0.377448 -0.920502 -0.007591 -0.091722 -0.768785 -0.539226 0.25941 -0.918625 0.296669 0.35875 -0.810597 -0.447169 0.180285 0.548832 0.393446 0.25684 0.176352 0.949916 0.086746 -0.891025 0.357258 0.491685 -0.726156 0.008101 -0.562466 0.732029 0.073726 -0.476609 0.123312 0.684415 -0.793501 0.538318 -0.28316 -0.065147 0.174436 0.433119 -0.631944 0.740661 -0.145388 0.861432 0.404514 0.250152 -0.652031 0.755058 -0.068873 -0.926307 0.141359 0.183164 0.429549 -0.788505 0.169123 0.107364 -0.939392 -0.25439 0.551082 -0.788295 -0.271588 0.483766 -0.71574 0.322178 -0.484808 0.095097 -0.439588 -0.793012 0.387274 -0.026856 -0.044751 -0.749773 0.553494 0.066127 -0.900458 -0.021296 0.007006 0.549122 -0.588775 0.208123 0.182243 -0.960566 0.350428 0.838971 -0.330327 0.644209 0.208978 -0.647526 -0.359557 -0.738049 -0.128086 0.177065 -0.829089 -0.428973 -0.315838 0.174267 0.734994 0.459075 0.254696 0.786245 -0.117803 0.805728 -0.421712 -0.277995 0.853434 -0.20999 -0.231694 0.941866 0.068778 0.415393 0.327799 -0.775565 0.055297 0.9324 0.267918 -0.31923 0.180853 -0.821543 0.409947 0.831316 -0.257601 -0.768423 0.292902 -0.532209 0.426134 -0.885577 0.064298 -0.155765 -0.777743 -0.508825 0.461918 0.759872 -0.453707 0.886621 0.257154 0.000785 0.661269 0.636942 0.019408 0.724633 0.365764 0.580537 0.252247 -0.815314 -0.508796 0.361074 -0.67042 0.587161 -0.093947 -0.648481 0.673558 0.291986 -0.658037 -0.018047 0.040864 0.952119 0.302504 -0.120219 0.491623 0.663843 -0.324817 0.903633 -0.279176 0.744599 0.257597 -0.167428 0.24786 -0.804555 0.049149 -0.508885 -0.793343 0.200369 -0.164285 0.846095 0.504482 -0.713651 0.451872 0.117883 -0.280487 0.741579 -0.106004 -0.401023 0.346281 -0.761477 0.159109 -0.768652 0.335924 -0.312082 -0.924252 -0.219477 -0.165364 -0.904696 -0.35737 0.051223 -0.849296 0.453538 0.106996 0.741367 -0.39233 0.088805 0.315845 -0.944544 -0.630873 0.179376 -0.514518 -0.887045 0.144811 0.150194 -0.046357 0.802974 0.337941 0.134078 0.885821 0.443643 -0.954487 0.209886 0.208986 0.208367 0.914727 -0.143174 0.127677 0.930137 -0.342466 0.56261 0.300655 -0.663125 0.419278 -0.848637 -0.226518 -0.143365 -0.862599 0.312374 0.558875 -0.750094 -0.353177 -0.146627 -0.881859 0.037838 0.164163 0.784344 -0.378803 0.722977 0.459642 -0.515232 0.207845 0.865624 0.057057 0.833882 0.4318 0.027095 0.555933 -0.729841 0.159488 -0.088776 -0.861973 -0.175863 -0.216334 0.964237 -0.152568 0.59267 0.150518 -0.574733 -0.072298 0.91273 0.134329 -0.223419 0.108709 -0.810516 0.197719 -0.70786 0.678114 0.114788 -0.782051 -0.115618 0.057462 0.899102 0.152106 0.38195 0.491636 0.688963 0.154516 -0.807278 0.084503 -0.468603 -0.526566 0.556779 0.107123 0.948105 0.299023 -0.43944 0.546016 0.56224 -0.065439 0.898109 0.312896 -0.80204 0.543303 -0.067922 -0.771335 -0.575148 0.245131 0.062469 -0.957409 0.139754 0.022728 -0.897893 0.072755 -0.651685 -0.607905 -0.315506 -0.257957 0.831272 0.133851 -0.730995 0.523018 -0.438029 -0.17169 0.92532 0.132261 -0.915032 -0.127106 -0.036593 -0.123872 0.971097 0.158004 -0.880433 -0.111904 0.241627 -0.059555 0.923345 -0.086308 0.384138 -0.028948 -0.799958 -0.080259 0.939799 -0.02551 -0.249916 -0.045621 -0.841195 -0.006267 0.930825 0.141992 -0.884015 -0.001825 0.243853 0.141399 0.884647 0.335528 -0.556135 0.01412 0.707849 0.304544 0.880309 0.088272 0.082355 0.009979 0.869097 -0.346187 0.844067 -0.199849 -0.343237 0.444645 -0.782284 -0.103322 -0.807955 0.009199 -0.051215 -0.677177 -0.686723 0.422014 -0.688973 -0.543845 -0.060351 -0.831449 -0.088871 -0.161222 0.83582 -0.4331 0.257379 0.523693 -0.779105 0.675579 -0.686266 -0.222739 0.005361 -0.865643 -0.109079 -0.002999 0.908946 -0.234066 0.62193 0.600806 -0.456467 -0.026951 0.935205 0.003278 -0.8082 -0.061495 -0.334606 0.6112 -0.673909 0.254288 0.080989 -0.870679 -0.074285 0.031816 0.930829 -0.077236 0.746049 0.616353 0.057547 0.180944 -0.686252 0.661077 0.157508 -0.911514 0.008705 0.090935 0.941321 -0.039195 0.440097 0.647374 0.567414 -0.322991 -0.63785 0.646657 0.125364 -0.896537 0.123494 0.098714 0.930472 0.0378 -0.084402 0.641995 0.730644 0.718229 -0.0343 0.62175 0.945074 -0.025765 0.0365 0.121941 0.836796 -0.097975 0.039785 0.994359 -0.096569 0.030145 0.950795 -0.004366 0.793968 -0.027791 -0.501627 -0.645548 -0.621164 0.444303 0.036472 -0.901601 0.159428 0.030906 0.955474 -0.00269 -0.544878 0.630397 0.503684 -0.044608 -0.925758 0.202667 -0.781391 -0.562365 0.200882 0.021281 0.991885 0.123685 -0.740495 0.617215 0.01167 -0.175697 -0.945997 0.161943 -0.722087 -0.55677 -0.311922 -0.10161 0.842977 0.132277 -0.718026 0.563058 -0.409052 -0.027009 0.931292 0.113627 -0.560797 -0.105683 0.674476 0.168236 0.870027 0.062812 0.174454 -0.056703 0.841679 -0.085711 -0.788677 -0.012981 -0.165913 -0.60429 -0.683959 -0.313574 0.83141 -0.026204 -0.389397 0.483605 -0.745442 0.475582 -0.626301 -0.567469 -0.056193 -0.864944 -0.156112 -0.19172 0.933588 -0.088976 0.172358 0.606018 -0.712518 0.764377 -0.55852 -0.310971 0.099292 -0.898661 -0.223276 -0.176045 0.974397 -0.127546 0.542146 0.717294 -0.380708 0.799404 -0.555975 -0.022434 0.183191 -0.899748 -0.186784 -0.076486 0.919774 -0.270268 0.646299 0.738527 -0.188161 0.881503 -0.18347 0.362073 0.963099 -0.19888 -0.033104 0.172228 0.89764 -0.090405 0.087802 0.93046 -0.245707 0.074374 0.961179 -0.107045 0.345619 -0.19265 -0.817906 -0.059798 0.913582 -0.129197 -0.254982 -0.162038 -0.822138 -0.128338 0.932644 -0.059519 -0.740681 -0.128163 -0.499722 0.653569 -0.595836 0.420765 0.217707 -0.888404 -0.037014 -0.032623 0.947289 -0.16491 0.641344 0.72994 0.147935 0.344754 -0.64044 0.668601 0.221741 -0.880175 0.120404 0.251805 0.951879 -0.173959 0.197429 0.744855 0.525968 -0.078648 -0.637266 0.730851 0.179059 -0.874495 0.272093 0.100995 0.932245 -0.086056 -0.385816 0.766372 0.513356 -0.024213 0.958041 -0.285589 0.745899 -0.20532 -0.526853 -0.492319 -0.632497 0.543276 0.004335 -0.899734 0.266669 0.2194 0.966038 0.136431 -0.520031 0.731767 0.409176 -0.751987 -0.591572 0.290785 -0.112016 -0.908581 0.204038 0.170613 0.946416 0.189998 -0.68097 0.715205 0.081845 -0.236166 -0.953388 0.186734 -0.817156 -0.529498 -0.062359 0.068471 0.923274 0.211612 -0.70931 0.697081 -0.104244 0.147777 0.926537 0.258808 -0.237062 -0.166564 0.877951 0.242321 0.923934 0.175401 0.177673 -0.199923 0.872914 0.219193 0.914929 0.050732 0.649861 -0.181523 0.625345 -0.644181 -0.526001 -0.493683 -0.263229 -0.848541 -0.034503 -0.115689 0.922929 0.244613 -0.640156 0.655286 -0.364965 -0.244038 -0.561327 -0.770714 -0.210258 -0.851155 -0.181036 -0.296155 0.924946 0.146459 -0.350825 0.699261 -0.601006 0.08885 -0.496476 -0.854555 -0.156102 -0.875249 -0.274977 -0.266757 0.933279 0.058853 -0.061455 0.737251 -0.661759 -0.44067 -0.15606 0.805727 -0.481292 -0.144709 0.82559 -0.311622 0.939715 0.137508 -0.103343 0.982626 0.153971 0.265821 -0.471926 -0.840608 -0.183301 -0.916406 -0.319599 -0.028516 0.980571 0.193808 0.201313 0.810337 -0.531783 -0.211326 -0.890248 -0.232174 0.248435 -0.496294 -0.831693 0.103383 0.96442 0.223994 0.031417 0.809566 -0.554694 -0.131698 -0.760961 -0.189295 -0.075075 -0.476149 -0.842657 0.430907 0.896707 0.000675 -0.117368 0.813394 -0.56583 0.036561 -0.054935 0.002092</float_array>
          <technique_common>
            <accessor source="#polySurfaceShape2-map1-tangents-array" count="314" stride="3">
              <param name="X" type="float"/>
              <param name="Y" type="float"/>
              <param name="Z" type="float"/>
            </accessor>
          </technique_common>
        </source>
        <source id="polySurfaceShape2-map1-binormals">
          <float_array id="polySurfaceShape2-map1-binormals-array" count="942">-0.104362 -0.238322 -0.965563 0.914905 0.348604 0.203531 0.777503 0.537457 -0.326541 0.756633 0.015394 -0.653659 0.174415 0.060455 -0.982815 0.746439 -0.27038 -0.608049 -0.007995 -0.265153 -0.964173 -0.300623 0.198882 0.932776 0.348427 0.380972 0.856422 0.457972 0.647525 0.609075 0.775844 0.585479 -0.23512 0.079621 0.176767 0.981027 0.643251 0.276285 0.714069 0.304055 0.283596 0.909464 0.880245 0.161109 0.446332 -0.841249 -0.29071 -0.455837 -0.370807 -0.13464 -0.918898 -0.709359 -0.077772 -0.700543 -0.390185 0.027865 -0.920315 -0.96773 0.021621 0.25106 -0.879703 -0.29394 -0.373793 -0.932941 0.35882 -0.029501 -0.899637 -0.202105 -0.387048 -0.838788 -0.367924 0.401332 -0.532104 -0.798453 0.281672 -0.788996 -0.417073 -0.45115 -0.662044 -0.475587 -0.579236 -0.580733 0.110338 -0.806582 -0.449755 -0.005974 -0.893132 -0.159905 -0.285378 -0.944981 -0.361834 -0.330334 -0.871755 -0.256299 -0.487061 -0.834914 -0.236161 -0.732361 -0.638652 -0.018379 -0.127404 -0.991681 0.503614 -0.325607 -0.800221 -0.089401 0.246303 -0.965061 -0.449394 -0.018784 -0.893136 0.427824 -0.257689 -0.86635 0.203886 -0.220406 -0.953862 0.926588 -0.137973 -0.349854 0.789482 -0.037213 -0.612645 0.90726 -0.099333 -0.408672 0.433528 -0.065684 -0.898743 0.91586 -0.095731 -0.389918 0.84365 -0.300627 -0.444836 0.905639 0.414568 0.08917 0.967923 0.097773 0.231442 0.877061 0.194152 0.439397 0.879742 0.069682 0.470318 -0.01796 -0.307619 0.95134 0.268884 -0.060417 0.961276 0.350273 0.363847 0.86309 -0.080283 0.060748 0.994919 -0.45617 -0.144141 -0.878141 -0.395107 0.04165 -0.91769 -0.998238 0.033206 0.049167 -0.998807 0.048578 -0.00506 -0.570143 0.140839 0.809383 -0.510943 0.054427 0.85789 -0.331744 0.330147 0.883713 -0.646463 0.044471 0.761648 -0.457661 -0.194816 0.867521 -0.685718 -0.361356 0.631833 -0.964549 -0.231405 0.126871 -0.932337 -0.323349 -0.161842 -0.965947 0.197323 0.167363 -0.966368 0.058333 0.250459 -0.527093 -0.359969 -0.769802 -0.372533 -0.262176 -0.890215 -0.401307 -0.218771 -0.889434 -0.819347 0.014153 -0.573123 0.479541 0.267198 -0.83585 0.937275 0.348591 0.000586 0.152441 -0.063534 -0.986268 0.226011 0.116755 -0.967102 0.100962 -0.003563 -0.994884 -0.186985 0.04619 -0.981276 0.211859 -0.093247 -0.972842 0.124926 0.272618 -0.953977 0.561504 0.591794 -0.578354 0.694133 0.152489 -0.70351 0.67404 0.023355 -0.738325 0.230575 0.41098 -0.882004 0.942868 0.159611 0.292445 0.927125 0.059335 0.370025 0.944583 0.234386 0.229841 0.969083 0.094535 0.227904 0.31573 0.230519 0.920421 0.650133 0.23488 0.722606 0.172489 -0.249407 0.952913 0.401243 -0.351871 0.84569 0.920623 0.152455 0.359459 0.817748 0.196315 -0.541063 0.991557 0.105532 -0.075355 0.474688 -0.061413 -0.878009 -0.737522 -0.133079 -0.662081 -0.841124 -0.157948 -0.517264 -0.96821 -0.014335 0.249727 -0.930737 0.016599 0.365313 -0.216422 0.384766 0.897283 -0.507512 0.193986 0.839525 -0.196991 -0.023628 0.98012 -0.437393 -0.429347 0.790157 -0.119713 0.561605 0.8187 -0.069656 0.237203 0.96896 -0.649745 0.663244 0.3714 -0.687411 0.369087 0.625493 -0.864105 -0.430286 0.261107 -0.860297 -0.017105 0.509507 -0.898899 -0.246221 -0.362432 -0.75116 -0.317433 -0.578788 -0.773979 0.221671 -0.593143 -0.926486 0.202104 -0.317455 -0.075796 -0.319104 -0.944684 -0.207598 -0.035312 -0.977577 -0.176169 -0.114001 -0.977736 -0.271935 -0.068006 -0.95991 -0.290157 0.447901 -0.845691 -0.185089 -0.036117 -0.982058 0.439684 0.03803 -0.897347 0.810215 -0.238795 -0.535283 0.590936 -0.217217 -0.776924 0.535354 0.019746 -0.844397 0.985815 -0.159222 -0.053083 0.997133 0.072213 0.022608 0.991804 -0.120159 0.043423 0.996048 -0.028654 0.084066 -0.645335 -0.095824 0.757866 0.170688 0.023904 0.985035 -0.662534 -0.322728 0.675941 -0.130108 -0.428184 0.894276 0.25397 0.216292 0.942718 0.405279 0.050553 0.912794 0.442872 0.25562 0.859373 0.662624 0.286392 0.692033 0.5563 0.0535 0.829258 0.476653 0.228212 0.848953 0.208182 -0.285378 0.935532 -0.068689 0.054164 0.996167 0.024732 0.430558 0.902224 0.404492 0.322895 0.855643 -0.622485 0.098286 0.776436 -0.160935 0.250896 0.954543 -0.508519 -0.204575 0.836396 -0.605314 -0.098801 0.789831 -0.543332 -0.248769 -0.801813 -0.689637 -0.044412 -0.722792 -0.98558 -0.054491 -0.160198 -0.961901 -0.109662 0.25044 -0.980239 -0.14716 0.132196 -0.989615 -0.14157 -0.024917 -0.986669 0.08639 -0.137916 -0.905248 0.332375 0.264676 -0.605935 -0.196665 -0.770821 -0.720429 -0.086471 -0.688116 -0.574926 0.304479 -0.759442 -0.710222 0.139025 -0.690114 -0.056789 0.324776 -0.944085 0.051021 -0.049382 -0.997476 -0.180537 -0.170719 -0.968639 0.071187 -0.139525 -0.987656 0.767775 -0.032415 -0.639899 0.574019 -0.20374 -0.79309 0.704386 0.320557 -0.633312 0.587239 0.155493 -0.794338 -0.199444 -0.174822 0.964188 -0.051518 0.084387 0.9951 0.196606 -0.132978 0.971423 0.258533 0.049054 0.964756 -0.783834 -0.107721 -0.611556 -0.901487 -0.028689 -0.431854 -0.993212 -0.082597 0.081896 -0.957022 -0.043723 0.286699 -0.007454 -0.150845 0.988529 0.265665 0.036778 0.963364 0.33473 -0.380474 0.862088 0.78605 -0.01732 0.61792 0.853635 -0.335287 0.398609 0.995437 -0.015523 -0.094148 0.835004 0.42517 0.349284 0.892154 0.426427 -0.149065 0.937167 -0.1161 0.328995 0.975216 -0.189527 0.114162 0.635254 -0.199766 0.74602 0.451435 -0.127171 0.883195 0.324647 0.48377 0.812755 0.678209 0.486316 0.550935 0.180011 -0.13886 0.973814 0.002725 -0.125003 0.992153 -0.009468 0.249337 0.96837 0.30896 0.351579 0.883706 -0.588348 -0.019789 0.808366 -0.383747 0.019964 0.923223 -0.475508 -0.101534 0.873833 -0.566635 -0.12223 0.814853 -0.588068 0.086824 0.804138 -0.307949 0.288089 0.906737 -0.976001 -0.054154 0.210926 -0.971783 -0.166325 0.167252 -0.992207 0.099001 0.075651 -0.888017 0.293334 0.354092 -0.861392 -0.073366 -0.502614 -0.81118 -0.189629 -0.553197 -0.779353 0.107758 -0.61725 -0.894416 0.279638 -0.349031 0.654881 0.017683 -0.755525 0.038675 0.003055 -0.999247 0.682222 -0.182317 -0.708049 0.079793 -0.099516 -0.991831 -0.339614 0.006447 -0.940543 -0.53445 -0.015589 -0.845056 -0.497116 -0.099877 -0.861917 -0.387095 -0.175713 -0.905142 -0.339554 0.008334 -0.94055 -0.528103 0.202463 -0.824692 0.064998 -0.216391 -0.974141 -0.142303 -0.151673 -0.978134 0.086586 0.121444 -0.988814 0.027981 0.052444 -0.998232 0.691286 -0.244774 -0.679859 0.5031 -0.178784 -0.845533 0.686996 0.192749 -0.700631 0.560403 0.119217 -0.819595 0.634146 -0.075497 0.769518 0.768744 0.002395 0.639552 0.9655 -0.198837 0.168149 0.979028 0.036196 -0.200484 0.985361 -0.10924 0.13088 0.981735 -0.167566 -0.090099 0.918492 0.352091 0.180012 0.906676 0.335084 -0.256235 0.738088 -0.049228 0.672906 0.684871 -0.172281 0.708005 0.602373 0.197414 0.773417 0.800364 0.347092 0.48882 0.334811 -0.065172 0.940029 0.216983 -0.212732 0.952714 0.152196 0.155263 0.976079 0.324228 0.240524 0.91489 -0.040528 -0.098395 0.994322 -0.198416 -0.237788 0.950835 -0.25708 0.252707 0.932764 -0.046103 0.284328 0.957618 0.379191 -0.004204 -0.925309 -0.04221 -0.038221 -0.998377 0.310621 -0.154065 -0.937965 -0.208727 -0.231235 -0.950244 -0.851032 0.007376 -0.525062 -0.920534 0.006863 -0.390603 -0.990304 -0.046297 0.130976 -0.956033 0.019942 0.292579 -0.677571 -0.046396 0.733992 -0.562503 0.029043 0.826285 -0.596949 -0.091975 0.79699 -0.657338 -0.191451 0.728872 -0.690263 0.100958 0.716481 -0.492567 0.264766 0.829022 -0.933908 -0.180646 0.308518 -0.962135 -0.220462 0.160291 -0.959928 0.268566 0.080061 -0.971537 0.108994 0.210326 -0.931756 -0.218002 -0.290355 -0.847861 -0.30791 -0.431651 -0.847721 0.043034 -0.528694 -0.830217 -0.045818 -0.555554 -0.509326 -0.25764 -0.821102 -0.578443 -0.008356 -0.81568 -0.652406 -0.133039 -0.746101 -0.556514 -0.238562 -0.795852 -0.460285 0.225791 -0.858578 -0.54796 0.076378 -0.83301 -0.307986 -0.074706 -0.948453 -0.232876 -0.185666 -0.954619 -0.14673 0.220057 -0.964389 -0.14874 -0.028504 -0.988465 0.277157 -0.250346 -0.927637 0.148375 -0.113281 -0.982422 0.355597 0.183668 -0.916415 0.24347 0.103526 -0.964368 0.890055 -0.248676 0.38205 0.961915 0.04871 0.268975 0.966908 -0.255015 0.007492 0.98045 0.07231 -0.183 0.8394 -0.172519 -0.515407 0.701604 0.068289 -0.709287 0.683607 -0.171331 -0.709456 0.814706 -0.231107 -0.53183 0.862697 0.227806 -0.451506 0.677567 0.284099 -0.678374 0.96871 -0.155031 -0.193819 0.971133 -0.238441 -0.00684 0.951973 0.288629 0.10218 0.932658 0.311476 -0.182022 0.97032 -0.151196 0.188728 0.885762 -0.275361 0.373634 0.860233 0.216774 0.461528 0.932215 0.281673 0.227234 0.880626 -0.060233 0.469967 0.863787 0.001678 0.503854 0.93134 0.273696 0.240199 0.878827 0.017713 0.476813 0.934267 -0.08886 0.345325 0.857208 -0.313849 0.40828 0.884422 -0.065603 0.462053 0.899384 0.060673 0.432928 0.956609 -0.260908 0.129718 0.963684 0.039906 0.264048 0.97663 -0.142135 0.161217 0.987859 0.059882 0.143349 0.842066 -0.262892 0.470969 0.897001 -0.414271 0.154169 0.73894 -0.354661 -0.572872 0.895831 -0.159324 -0.414852 -0.080137 -0.015375 0.996665</float_array>
          <technique_common>
            <accessor source="#polySurfaceShape2-map1-binormals-array" count="314" stride="3">
              <param name="X" type="float"/>
              <param name="Y" type="float"/>
              <param name="Z" type="float"/>
            </accessor>
          </technique_common>
        </source>
        <vertices id="polySurfaceShape2-vertices">
          <input semantic="POSITION" source="#polySurfaceShape2-positions"/>
        </vertices>
        <triangles material="initialShadingGroup" count="416">
          <input semantic="VERTEX" source="#polySurfaceShape2-vertices" offset="0"/>
          <input semantic="NORMAL" source="#polySurfaceShape2-normals" offset="1"/>
          <input semantic="TANGENT" source="#polySurfaceShape2-geotangent" offset="1"/>
          <input semantic="BINORMAL" source="#polySurfaceShape2-geobinormal" offset="1"/>
          <input semantic="TEXCOORD" source="#polySurfaceShape2-map1" offset="2" set="0"/>
          <input semantic="TEXTANGENT" source="#polySurfaceShape2-map1-tangents" offset="3" set="0"/>
          <input semantic="TEXBINORMAL" source="#polySurfaceShape2-map1-binormals" offset="4" set="0"/>
          <p>1 0 0 0 0 208 1 1 1 1 205 2 2 2 2 108 4 4 3 3 105 5 5 4 4 2 3 3 5 5 2 3 3 5 5 105 5 5 4 4 102 6 6 6 6 57 8 8 7 7 54 9 9 8 8 3 7 7 9 9 3 7 7 9 9 54 9 9 8 8 51 10 10 10 10 30 12 12 11 11 27 13 13 12 12 4 11 11 13 13 4 11 11 13 13 27 13 13 12 12 24 14 14 14 14 8 16 16 15 15 13 17 17 16 16 12 15 15 17 17 12 15 15 17 17 13 17 17 16 16 16 18 18 18 18 9 20 20 19 19 10 21 21 20 20 0 19 19 21 21 0 19 19 21 21 10 21 21 20 20 8 16 22 22 22 9 22 20 23 23 6 23 23 24 24 10 25 21 25 25 10 25 21 25 25 6 23 23 24 24 7 24 24 26 26 8 16 22 22 22 10 21 21 20 20 13 17 26 27 27 13 17 26 27 27 10 21 21 20 20 15 26 25 28 28 7 24 24 26 26 14 27 27 29 29 10 25 21 25 25 10 25 21 25 25 14 27 27 29 29 15 28 25 30 30 0 19 29 31 31 8 16 16 15 15 11 29 28 32 32 11 29 28 32 32 8 16 16 15 15 12 15 15 17 17 11 29 28 32 32 12 15 15 17 17 6 23 23 24 24 6 23 23 24 24 12 15 15 17 17 7 24 24 26 26 12 15 15 17 17 16 18 18 18 18 7 24 24 26 26 7 24 24 26 26 16 18 18 18 18 14 27 27 29 29 16 18 18 18 18 13 17 17 16 16 19 30 30 33 33 19 30 30 33 33 13 17 17 16 16 5 31 31 34 34 5 31 32 35 35 13 17 26 27 27 18 32 33 36 36 18 32 33 36 36 13 17 26 27 27 15 26 25 28 28 16 18 18 18 18 19 30 30 33 33 14 27 27 29 29 14 27 27 29 29 19 30 30 33 33 17 33 34 37 37 18 34 33 38 38 15 28 25 30 30 17 33 34 37 37 17 33 34 37 37 15 28 25 30 30 14 27 27 29 29 20 35 35 39 39 23 36 36 40 40 5 31 31 34 34 5 31 31 34 34 23 36 36 40 40 19 30 30 33 33 20 35 37 41 41 5 31 32 35 35 22 37 38 42 42 22 37 38 42 42 5 31 32 35 35 18 32 33 36 36 17 33 34 37 37 21 38 39 43 43 18 34 33 38 38 18 34 33 38 38 21 38 39 43 43 22 39 38 44 44 19 30 30 33 33 23 36 36 40 40 17 33 34 37 37 17 33 34 37 37 23 36 36 40 40 21 38 39 43 43 27 13 13 12 12 23 36 36 40 40 24 14 14 14 14 24 14 14 14 14 23 36 36 40 40 20 35 35 39 39 24 14 40 45 45 20 35 37 41 41 26 40 41 46 46 26 40 41 46 46 20 35 37 41 41 22 37 38 42 42 22 39 38 44 44 21 38 39 43 43 26 42 41 47 47 26 42 41 47 47 21 38 39 43 43 25 41 42 48 48 21 38 39 43 43 23 36 36 40 40 25 41 42 48 48 25 41 42 48 48 23 36 36 40 40 27 13 13 12 12 28 43 43 49 49 29 44 44 50 50 25 41 42 48 48 25 41 42 48 48 29 44 44 50 50 26 42 41 47 47 24 14 40 45 45 26 40 41 46 46 4 11 45 51 51 4 11 45 51 51 26 40 41 46 46 29 45 44 52 52 28 43 43 49 49 25 41 42 48 48 30 12 12 11 11 30 12 12 11 11 25 41 42 48 48 27 13 13 12 12 31 46 46 53 53 42 47 47 54 54 36 49 49 55 55 36 49 49 55 55 42 47 47 54 54 39 48 48 56 56 35 51 51 57 57 30 12 12 11 11 32 50 50 58 58 32 50 50 58 58 30 12 12 11 11 4 11 11 13 13 4 11 45 51 51 29 45 44 52 52 32 50 52 59 59 32 50 52 59 59 29 45 44 52 52 34 52 53 60 60 29 44 44 50 50 28 43 43 49 49 34 54 53 61 61 34 54 53 61 61 28 43 43 49 49 33 53 54 62 62 30 12 12 11 11 35 51 51 57 57 28 43 43 49 49 28 43 43 49 49 35 51 51 57 57 33 53 54 62 62 36 49 49 55 55 39 48 48 56 56 32 50 50 58 58 32 50 50 58 58 39 48 48 56 56 35 51 51 57 57 38 56 56 63 63 34 54 53 61 61 37 55 55 64 64 37 55 55 64 64 34 54 53 61 61 33 53 54 62 62 32 50 52 59 59 34 52 53 60 60 36 49 57 65 65 36 49 57 65 65 34 52 53 60 60 38 57 56 66 66 37 55 55 64 64 33 53 54 62 62 39 48 48 56 56 39 48 48 56 56 33 53 54 62 62 35 51 51 57 57 41 59 59 67 67 38 56 56 63 63 40 58 58 68 68 40 58 58 68 68 38 56 56 63 63 37 55 55 64 64 31 46 60 69 69 36 49 57 65 65 41 60 59 70 70 41 60 59 70 70 36 49 57 65 65 38 57 56 66 66 37 55 55 64 64 39 48 48 56 56 40 58 58 68 68 40 58 58 68 68 39 48 48 56 56 42 47 47 54 54 43 61 61 71 71 50 62 62 72 72 44 64 64 73 73 44 64 64 73 73 50 62 62 72 72 47 63 63 74 74 47 63 63 74 74 42 47 47 54 54 44 64 64 73 73 44 64 64 73 73 42 47 47 54 54 31 46 46 53 53 44 64 65 75 75 31 46 60 69 69 46 65 66 76 76 46 65 66 76 76 31 46 60 69 69 41 60 59 70 70 40 58 58 68 68 45 66 67 77 77 41 59 59 67 67 41 59 59 67 67 45 66 67 77 77 46 67 66 78 78 40 58 58 68 68 42 47 47 54 54 45 66 67 77 77 45 66 67 77 77 42 47 47 54 54 47 63 63 74 74 49 69 69 79 79 46 67 66 78 78 48 68 68 80 80 48 68 68 80 80 46 67 66 78 78 45 66 67 77 77 49 70 69 81 81 43 61 70 82 82 46 65 66 76 76 43 61 70 82 82 44 64 65 75 75 46 65 66 76 76 48 68 68 80 80 45 66 67 77 77 50 62 62 72 72 50 62 62 72 72 45 66 67 77 77 47 63 63 74 74 54 9 9 8 8 50 62 62 72 72 51 10 10 10 10 51 10 10 10 10 50 62 62 72 72 43 61 61 71 71 52 71 71 83 83 53 72 72 84 84 48 68 68 80 80 48 68 68 80 80 53 72 72 84 84 49 69 69 79 79 43 61 70 82 82 49 70 69 81 81 51 10 73 85 85 51 10 73 85 85 49 70 69 81 81 53 73 72 86 86 48 68 68 80 80 50 62 62 72 72 52 71 71 83 83 52 71 71 83 83 50 62 62 72 72 54 9 9 8 8 3 7 74 87 87 51 10 73 85 85 56 74 75 88 88 56 74 75 88 88 51 10 73 85 85 53 73 72 86 86 52 71 71 83 83 55 75 76 89 89 53 72 72 84 84 53 72 72 84 84 55 75 76 89 89 56 76 75 90 90 52 71 71 83 83 54 9 9 8 8 55 75 76 89 89 55 75 76 89 89 54 9 9 8 8 57 8 8 7 7 81 78 78 91 91 78 79 79 92 92 58 77 77 93 93 58 77 77 93 93 78 79 79 92 92 75 80 80 94 94 59 81 81 95 95 70 82 82 96 96 64 84 84 97 97 64 84 84 97 97 70 82 82 96 96 67 83 83 98 98 60 85 85 99 99 63 86 86 100 100 3 7 7 9 9 3 7 7 9 9 63 86 86 100 100 57 8 8 7 7 62 88 88 101 101 56 76 75 90 90 61 87 87 102 102 61 87 87 102 102 56 76 75 90 90 55 75 76 89 89 60 85 89 103 103 3 7 74 87 87 62 89 88 104 104 62 89 88 104 104 3 7 74 87 87 56 74 75 88 88 55 75 76 89 89 57 8 8 7 7 61 87 87 102 102 61 87 87 102 102 57 8 8 7 7 63 86 86 100 100 64 84 84 97 97 67 83 83 98 98 60 85 85 99 99 60 85 85 99 99 67 83 83 98 98 63 86 86 100 100 60 85 89 103 103 62 89 88 104 104 64 84 90 105 105 64 84 90 105 105 62 89 88 104 104 66 90 91 106 106 61 87 87 102 102 65 91 92 107 107 62 88 88 101 101 62 88 88 101 101 65 91 92 107 107 66 92 91 108 108 65 91 92 107 107 61 87 87 102 102 67 83 83 98 98 67 83 83 98 98 61 87 87 102 102 63 86 86 100 100 69 94 94 109 109 66 92 91 108 108 68 93 93 110 110 68 93 93 110 110 66 92 91 108 108 65 91 92 107 107 59 81 95 111 111 64 84 90 105 105 69 95 94 112 112 69 95 94 112 112 64 84 90 105 105 66 90 91 106 106 65 91 92 107 107 67 83 83 98 98 68 93 93 110 110 68 93 93 110 110 67 83 83 98 98 70 82 82 96 96 71 96 96 113 113 74 97 97 114 114 59 81 81 95 95 59 81 81 95 95 74 97 97 114 114 70 82 82 96 96 68 93 93 110 110 72 98 98 115 115 69 94 94 109 109 69 94 94 109 109 72 98 98 115 115 73 99 99 116 116 59 81 95 111 111 69 95 94 112 112 71 96 100 117 117 71 96 100 117 117 69 95 94 112 112 73 100 99 118 118 68 93 93 110 110 70 82 82 96 96 72 98 98 115 115 72 98 98 115 115 70 82 82 96 96 74 97 97 114 114 78 79 79 92 92 74 97 97 114 114 75 80 80 94 94 75 80 80 94 94 74 97 97 114 114 71 96 96 113 113 71 96 100 117 117 73 100 99 118 118 75 80 101 119 119 75 80 101 119 119 73 100 99 118 118 77 101 102 120 120 72 98 98 115 115 76 102 103 121 121 73 99 99 116 116 73 99 99 116 116 76 102 103 121 121 77 103 102 122 122 72 98 98 115 115 74 97 97 114 114 76 102 103 121 121 76 102 103 121 121 74 97 97 114 114 78 79 79 92 92 77 103 102 122 122 76 102 103 121 121 80 105 105 123 123 80 105 105 123 123 76 102 103 121 121 79 104 104 124 124 75 80 101 119 119 77 101 102 120 120 58 77 106 125 125 58 77 106 125 125 77 101 102 120 120 80 106 105 126 126 79 104 104 124 124 76 102 103 121 121 81 78 78 91 91 81 78 78 91 91 76 102 103 121 121 78 79 79 92 92 93 108 108 127 127 90 109 109 128 128 82 107 107 129 129 82 107 107 129 129 90 109 109 128 128 87 110 110 130 130 86 112 112 131 131 81 78 78 91 91 83 111 111 132 132 83 111 111 132 132 81 78 78 91 91 58 77 77 93 93 83 111 113 133 133 58 77 106 125 125 85 113 114 134 134 85 113 114 134 134 58 77 106 125 125 80 106 105 126 126 80 105 105 123 123 79 104 104 124 124 85 115 114 135 135 85 115 114 135 135 79 104 104 124 124 84 114 115 136 136 79 104 104 124 124 81 78 78 91 91 84 114 115 136 136 84 114 115 136 136 81 78 78 91 91 86 112 112 131 131 87 110 110 130 130 90 109 109 128 128 83 111 111 132 132 83 111 111 132 132 90 109 109 128 128 86 112 112 131 131 89 117 117 137 137 85 115 114 135 135 88 116 116 138 138 88 116 116 138 138 85 115 114 135 135 84 114 115 136 136 87 110 118 139 139 83 111 113 133 133 89 118 117 140 140 89 118 117 140 140 83 111 113 133 133 85 113 114 134 134 84 114 115 136 136 86 112 112 131 131 88 116 116 138 138 88 116 116 138 138 86 112 112 131 131 90 109 109 128 128 82 107 119 141 141 87 110 118 139 139 92 119 120 142 142 92 119 120 142 142 87 110 118 139 139 89 118 117 140 140 89 117 117 137 137 88 116 116 138 138 92 121 120 143 143 92 121 120 143 143 88 116 116 138 138 91 120 121 144 144 88 116 116 138 138 90 109 109 128 128 91 120 121 144 144 91 120 121 144 144 90 109 109 128 128 93 108 108 127 127 94 122 122 145 145 101 123 123 146 146 95 125 125 147 147 95 125 125 147 147 101 123 123 146 146 98 124 124 148 148 95 125 125 147 147 98 124 124 148 148 82 107 107 129 129 82 107 107 129 129 98 124 124 148 148 93 108 108 127 127 97 127 127 149 149 92 121 120 143 143 96 126 126 150 150 96 126 126 150 150 92 121 120 143 143 91 120 121 144 144 95 125 128 151 151 82 107 119 141 141 97 128 127 152 152 97 128 127 152 152 82 107 119 141 141 92 119 120 142 142 91 120 121 144 144 93 108 108 127 127 96 126 126 150 150 96 126 126 150 150 93 108 108 127 127 98 124 124 148 148 99 129 129 153 153 100 130 130 154 154 96 126 126 150 150 96 126 126 150 150 100 130 130 154 154 97 127 127 149 149 94 122 131 155 155 95 125 128 151 151 100 131 130 156 156 100 131 130 156 156 95 125 128 151 151 97 128 127 152 152 98 124 124 148 148 101 123 123 146 146 96 126 126 150 150 96 126 126 150 150 101 123 123 146 146 99 129 129 153 153 105 5 5 4 4 101 123 123 146 146 102 6 6 6 6 102 6 6 6 6 101 123 123 146 146 94 122 122 145 145 94 122 131 155 155 100 131 130 156 156 102 6 132 157 157 102 6 132 157 157 100 131 130 156 156 104 132 133 158 158 100 130 130 154 154 99 129 129 153 153 104 134 133 159 159 104 134 133 159 159 99 129 129 153 153 103 133 134 160 160 103 133 134 160 160 99 129 129 153 153 105 5 5 4 4 105 5 5 4 4 99 129 129 153 153 101 123 123 146 146 106 135 135 161 161 107 136 136 162 162 103 133 134 160 160 103 133 134 160 160 107 136 136 162 162 104 134 133 159 159 102 6 132 157 157 104 132 133 158 158 2 3 137 163 163 2 3 137 163 163 104 132 133 158 158 107 137 136 164 164 103 133 134 160 160 105 5 5 4 4 106 135 135 161 161 106 135 135 161 161 105 5 5 4 4 108 4 4 3 3 109 138 138 165 165 160 139 139 166 166 154 141 141 167 167 154 141 141 167 167 160 139 139 166 166 157 140 140 168 168 110 142 142 169 169 133 143 143 170 170 127 145 145 171 171 127 145 145 171 171 133 143 143 170 170 130 144 144 172 172 111 146 146 173 173 122 147 147 174 174 116 149 149 175 175 116 149 149 175 175 122 147 147 174 174 119 148 148 176 176 112 150 150 177 177 115 151 151 178 178 2 3 3 5 5 2 3 3 5 5 115 151 151 178 178 108 4 4 3 3 112 150 152 179 179 2 3 137 163 163 114 152 153 180 180 114 152 153 180 180 2 3 137 163 163 107 137 136 164 164 106 135 135 161 161 113 153 154 181 181 107 136 136 162 162 107 136 136 162 162 113 153 154 181 181 114 154 153 182 182 106 135 135 161 161 108 4 4 3 3 113 153 154 181 181 113 153 154 181 181 108 4 4 3 3 115 151 151 178 178 116 149 149 175 175 119 148 148 176 176 112 150 150 177 177 112 150 150 177 177 119 148 148 176 176 115 151 151 178 178 118 156 156 183 183 114 154 153 182 182 117 155 155 184 184 117 155 155 184 184 114 154 153 182 182 113 153 154 181 181 116 149 157 185 185 112 150 152 179 179 118 157 156 186 186 118 157 156 186 186 112 150 152 179 179 114 152 153 180 180 113 153 154 181 181 115 151 151 178 178 117 155 155 184 184 117 155 155 184 184 115 151 151 178 178 119 148 148 176 176 121 159 159 187 187 118 156 156 183 183 120 158 158 188 188 120 158 158 188 188 118 156 156 183 183 117 155 155 184 184 111 146 160 189 189 116 149 157 185 185 121 160 159 190 190 121 160 159 190 190 116 149 157 185 185 118 157 156 186 186 117 155 155 184 184 119 148 148 176 176 120 158 158 188 188 120 158 158 188 188 119 148 148 176 176 122 147 147 174 174 123 161 161 191 191 126 162 162 192 192 111 146 146 173 173 111 146 146 173 173 126 162 162 192 192 122 147 147 174 174 125 164 164 193 193 121 159 159 187 187 124 163 163 194 194 124 163 163 194 194 121 159 159 187 187 120 158 158 188 188 123 161 165 195 195 111 146 160 189 189 125 165 164 196 196 125 165 164 196 196 111 146 160 189 189 121 160 159 190 190 120 158 158 188 188 122 147 147 174 174 124 163 163 194 194 124 163 163 194 194 122 147 147 174 174 126 162 162 192 192 127 145 145 171 171 130 144 144 172 172 123 161 161 191 191 123 161 161 191 191 130 144 144 172 172 126 162 162 192 192 129 167 167 197 197 125 164 164 193 193 128 166 166 198 198 128 166 166 198 198 125 164 164 193 193 124 163 163 194 194 127 145 168 199 199 123 161 165 195 195 129 168 167 200 200 129 168 167 200 200 123 161 165 195 195 125 165 164 196 196 124 163 163 194 194 126 162 162 192 192 128 166 166 198 198 128 166 166 198 198 126 162 162 192 192 130 144 144 172 172 132 170 170 201 201 129 167 167 197 197 131 169 169 202 202 131 169 169 202 202 129 167 167 197 197 128 166 166 198 198 110 142 171 203 203 127 145 168 199 199 132 171 170 204 204 132 171 170 204 204 127 145 168 199 199 129 168 167 200 200 128 166 166 198 198 130 144 144 172 172 131 169 169 202 202 131 169 169 202 202 130 144 144 172 172 133 143 143 170 170 145 173 173 205 205 142 174 174 206 206 134 172 172 207 207 134 172 172 207 207 142 174 174 206 206 139 175 175 208 208 135 176 176 209 209 138 177 177 210 210 110 142 142 169 169 110 142 142 169 169 138 177 177 210 210 133 143 143 170 170 137 179 179 211 211 132 170 170 201 201 136 178 178 212 212 136 178 178 212 212 132 170 170 201 201 131 169 169 202 202 135 176 180 213 213 110 142 171 203 203 137 180 179 214 214 137 180 179 214 214 110 142 171 203 203 132 171 170 204 204 131 169 169 202 202 133 143 143 170 170 136 178 178 212 212 136 178 178 212 212 133 143 143 170 170 138 177 177 210 210 139 175 175 208 208 142 174 174 206 206 135 176 176 209 209 135 176 176 209 209 142 174 174 206 206 138 177 177 210 210 140 181 181 215 215 141 182 182 216 216 136 178 178 212 212 136 178 178 212 212 141 182 182 216 216 137 179 179 211 211 139 175 183 217 217 135 176 180 213 213 141 183 182 218 218 141 183 182 218 218 135 176 180 213 213 137 180 179 214 214 138 177 177 210 210 142 174 174 206 206 136 178 178 212 212 136 178 178 212 212 142 174 174 206 206 140 181 181 215 215 143 184 184 219 219 144 185 185 220 220 140 181 181 215 215 140 181 181 215 215 144 185 185 220 220 141 182 182 216 216 139 175 183 217 217 141 183 182 218 218 134 172 186 221 221 134 172 186 221 221 141 183 182 218 218 144 186 185 222 222 143 184 184 219 219 140 181 181 215 215 145 173 173 205 205 145 173 173 205 205 140 181 181 215 215 142 174 174 206 206 146 187 187 223 223 153 188 188 224 224 147 190 190 225 225 147 190 190 225 225 153 188 188 224 224 150 189 189 226 226 147 190 190 225 225 150 189 189 226 226 134 172 172 207 207 134 172 172 207 207 150 189 189 226 226 145 173 173 205 205 143 184 184 219 219 148 191 191 227 227 144 185 185 220 220 144 185 185 220 220 148 191 191 227 227 149 192 192 228 228 147 190 193 229 229 134 172 186 221 221 149 193 192 230 230 149 193 192 230 230 134 172 186 221 221 144 186 185 222 222 143 184 184 219 219 145 173 173 205 205 148 191 191 227 227 148 191 191 227 227 145 173 173 205 205 150 189 189 226 226 152 195 195 231 231 149 192 192 228 228 151 194 194 232 232 151 194 194 232 232 149 192 192 228 228 148 191 191 227 227 146 187 196 233 233 147 190 193 229 229 152 196 195 234 234 152 196 195 234 234 147 190 193 229 229 149 193 192 230 230 148 191 191 227 227 150 189 189 226 226 151 194 194 232 232 151 194 194 232 232 150 189 189 226 226 153 188 188 224 224 154 141 141 167 167 157 140 140 168 168 146 187 187 223 223 146 187 187 223 223 157 140 140 168 168 153 188 188 224 224 156 198 198 235 235 152 195 195 231 231 155 197 197 236 236 155 197 197 236 236 152 195 195 231 231 151 194 194 232 232 154 141 199 237 237 146 187 196 233 233 156 199 198 238 238 156 199 198 238 238 146 187 196 233 233 152 196 195 234 234 151 194 194 232 232 153 188 188 224 224 155 197 197 236 236 155 197 197 236 236 153 188 188 224 224 157 140 140 168 168 159 201 201 239 239 156 198 198 235 235 158 200 200 240 240 158 200 200 240 240 156 198 198 235 235 155 197 197 236 236 109 138 202 241 241 154 141 199 237 237 159 202 201 242 242 159 202 201 242 242 154 141 199 237 237 156 199 198 238 238 155 197 197 236 236 157 140 140 168 168 158 200 200 240 240 158 200 200 240 240 157 140 140 168 168 160 139 139 166 166 184 204 204 243 243 181 205 205 244 244 161 203 203 245 245 161 203 203 245 245 181 205 205 244 244 178 206 206 246 246 162 207 207 247 247 173 208 208 248 248 167 210 210 249 249 167 210 210 249 249 173 208 208 248 248 170 209 209 250 250 163 211 211 251 251 166 212 212 252 252 109 138 138 165 165 109 138 138 165 165 166 212 212 252 252 160 139 139 166 166 165 214 214 253 253 159 201 201 239 239 164 213 213 254 254 164 213 213 254 254 159 201 201 239 239 158 200 200 240 240 163 211 215 255 255 109 138 202 241 241 165 215 214 256 256 165 215 214 256 256 109 138 202 241 241 159 202 201 242 242 158 200 200 240 240 160 139 139 166 166 164 213 213 254 254 164 213 213 254 254 160 139 139 166 166 166 212 212 252 252 167 210 210 249 249 170 209 209 250 250 163 211 211 251 251 163 211 211 251 251 170 209 209 250 250 166 212 212 252 252 169 217 217 257 257 165 214 214 253 253 168 216 216 258 258 168 216 216 258 258 165 214 214 253 253 164 213 213 254 254 167 210 218 259 259 163 211 215 255 255 169 218 217 260 260 169 218 217 260 260 163 211 215 255 255 165 215 214 256 256 164 213 213 254 254 166 212 212 252 252 168 216 216 258 258 168 216 216 258 258 166 212 212 252 252 170 209 209 250 250 172 220 220 261 261 169 217 217 257 257 171 219 219 262 262 171 219 219 262 262 169 217 217 257 257 168 216 216 258 258 167 210 218 259 259 169 218 217 260 260 162 207 221 263 263 162 207 221 263 263 169 218 217 260 260 172 221 220 264 264 168 216 216 258 258 170 209 209 250 250 171 219 219 262 262 171 219 219 262 262 170 209 209 250 250 173 208 208 248 248 174 222 222 265 265 177 223 223 266 266 162 207 207 247 247 162 207 207 247 247 177 223 223 266 266 173 208 208 248 248 176 225 225 267 267 172 220 220 261 261 175 224 224 268 268 175 224 224 268 268 172 220 220 261 261 171 219 219 262 262 174 222 226 269 269 162 207 221 263 263 176 226 225 270 270 176 226 225 270 270 162 207 221 263 263 172 221 220 264 264 171 219 219 262 262 173 208 208 248 248 175 224 224 268 268 175 224 224 268 268 173 208 208 248 248 177 223 223 266 266 181 205 205 244 244 177 223 223 266 266 178 206 206 246 246 178 206 206 246 246 177 223 223 266 266 174 222 222 265 265 180 228 228 271 271 176 225 225 267 267 179 227 227 272 272 179 227 227 272 272 176 225 225 267 267 175 224 224 268 268 174 222 226 269 269 176 226 225 270 270 178 206 229 273 273 178 206 229 273 273 176 226 225 270 270 180 229 228 274 274 175 224 224 268 268 177 223 223 266 266 179 227 227 272 272 179 227 227 272 272 177 223 223 266 266 181 205 205 244 244 182 230 230 275 275 183 231 231 276 276 179 227 227 272 272 179 227 227 272 272 183 231 231 276 276 180 228 228 271 271 178 206 229 273 273 180 229 228 274 274 161 203 232 277 277 161 203 232 277 277 180 229 228 274 274 183 232 231 278 278 182 230 230 275 275 179 227 227 272 272 184 204 204 243 243 184 204 204 243 243 179 227 227 272 272 181 205 205 244 244 185 233 233 279 279 196 234 234 280 280 190 236 236 281 281 190 236 236 281 281 196 234 234 280 280 193 235 235 282 282 186 237 237 283 283 189 238 238 284 284 161 203 203 245 245 161 203 203 245 245 189 238 238 284 284 184 204 204 243 243 188 240 240 285 285 183 231 231 276 276 187 239 239 286 286 187 239 239 286 286 183 231 231 276 276 182 230 230 275 275 186 237 241 287 287 161 203 232 277 277 188 241 240 288 288 188 241 240 288 288 161 203 232 277 277 183 232 231 278 278 182 230 230 275 275 184 204 204 243 243 187 239 239 286 286 187 239 239 286 286 184 204 204 243 243 189 238 238 284 284 190 236 236 281 281 193 235 235 282 282 186 237 237 283 283 186 237 237 283 283 193 235 235 282 282 189 238 238 284 284 192 243 243 289 289 188 240 240 285 285 191 242 242 290 290 191 242 242 290 290 188 240 240 285 285 187 239 239 286 286 190 236 244 291 291 186 237 241 287 287 192 244 243 292 292 192 244 243 292 292 186 237 241 287 287 188 241 240 288 288 187 239 239 286 286 189 238 238 284 284 191 242 242 290 290 191 242 242 290 290 189 238 238 284 284 193 235 235 282 282 195 246 246 293 293 192 243 243 289 289 194 245 245 294 294 194 245 245 294 294 192 243 243 289 289 191 242 242 290 290 185 233 247 295 295 190 236 244 291 291 195 247 246 296 296 195 247 246 296 296 190 236 244 291 291 192 244 243 292 292 191 242 242 290 290 193 235 235 282 282 194 245 245 294 294 194 245 245 294 294 193 235 235 282 282 196 234 234 280 280 204 249 249 297 297 201 250 250 298 298 197 248 248 299 299 197 248 248 299 299 201 250 250 298 298 198 251 251 300 300 198 251 251 300 300 201 250 250 298 298 185 233 233 279 279 185 233 233 279 279 201 250 250 298 298 196 234 234 280 280 200 253 253 301 301 195 246 246 293 293 199 252 252 302 302 199 252 252 302 302 195 246 246 293 293 194 245 245 294 294 198 251 254 303 303 185 233 247 295 295 200 254 253 304 304 200 254 253 304 304 185 233 247 295 295 195 247 246 296 296 194 245 245 294 294 196 234 234 280 280 199 252 252 302 302 199 252 252 302 302 196 234 234 280 280 201 250 250 298 298 202 255 255 305 305 203 256 256 306 306 199 252 252 302 302 199 252 252 302 302 203 256 256 306 306 200 253 253 301 301 198 251 254 303 303 200 254 253 304 304 197 248 257 307 307 197 248 257 307 307 200 254 253 304 304 203 257 256 308 308 202 255 255 305 305 199 252 252 302 302 204 249 249 297 297 204 249 249 297 297 199 252 252 302 302 201 250 250 298 298 208 1 1 1 1 204 249 249 297 297 205 2 2 2 2 205 2 2 2 2 204 249 249 297 297 197 248 248 299 299 206 258 258 309 309 207 259 259 310 310 202 255 255 305 305 202 255 255 305 305 207 259 259 310 310 203 256 256 306 306 197 248 257 307 307 203 257 256 308 308 205 2 260 311 311 205 2 260 311 311 203 257 256 308 308 207 260 259 312 312 206 258 258 309 309 202 255 255 305 305 208 1 1 1 1 208 1 1 1 1 202 255 255 305 305 204 249 249 297 297 1 0 0 0 0 207 259 259 310 310 206 258 258 309 309 1 0 0 0 0 205 2 260 311 311 207 260 259 312 312 1 0 0 0 0 206 258 258 309 309 208 1 1 1 1 9 20 20 19 19 0 19 19 21 21 209 261 261 313 313 6 23 23 24 24 9 22 20 23 23 209 261 261 313 313 0 19 29 31 31 11 29 28 32 32 209 261 261 313 313 11 29 28 32 32 6 23 23 24 24 209 261 261 313 313</p>
        </triangles>
      </mesh>
      <extra>
        <technique profile="MAYA">
          <double_sided>1</double_sided>
        </technique>
      </extra>
    </geometry>
  </library_geometries>
  <library_visual_scenes>
    <visual_scene id="VisualSceneNode" name="rope_pile">
      <node id="polySurface2" name="polySurface2" type="NODE">
        <rotate sid="rotateZ">0 0 1 0</rotate>
        <rotate sid="rotateY">0 1 0 0</rotate>
        <rotate sid="rotateX">1 0 0 0</rotate>
        <instance_geometry url="#polySurfaceShape2">
          <bind_material>
            <technique_common>
              <instance_material symbol="initialShadingGroup" target="#lambert1">
                <bind_vertex_input semantic="TEX0" input_semantic="TEXCOORD" input_set="0"/>
              </instance_material>
            </technique_common>
          </bind_material>
        </instance_geometry>
      </node>
      <extra>
        <technique profile="FCOLLADA">
          <start_time>0.041666</start_time>
          <end_time>2</end_time>
        </technique>
      </extra>
    </visual_scene>
  </library_visual_scenes>
  <scene>
    <instance_visual_scene url="#VisualSceneNode"/>
  </scene>
</COLLADA>
