<?xml version="1.0" encoding="utf-8"?>
<COLLADA xmlns="http://www.collada.org/2005/11/COLLADASchema" version="1.4.1">
  <asset>
    <contributor>
      <author></author>
      <authoring_tool>FBX COLLADA exporter</authoring_tool>
      <comments></comments>
    </contributor>
    <created>2012-03-04T17:14:13Z</created>
    <keywords></keywords>
    <modified>2012-03-04T17:14:13Z</modified>
    <revision></revision>
    <subject></subject>
    <title></title>
    <unit meter="1.000000" name="centimeter"></unit>
    <up_axis>Y_UP</up_axis>
  </asset>
  <library_images>
    <image id="Map #23-image" name="Map #23">
      <init_from>file://C:\Users\WesleyTack\Desktop\amnesia_raw\StaticObjects\factorybase\factory_facade_02.jpg</init_from>
    </image>
    <image id="Map #1-image" name="Map #1">
      <init_from>file://C:\Users\WesleyTack\Desktop\amnesia_raw\StaticObjects\factorybase\factory_facade.psd</init_from>
    </image>
    <image id="Map #16-image" name="Map #16">
      <init_from>file://C:\Users\WesleyTack\Desktop\amnesia_raw\StaticObjects\factorybase\hinges.psd</init_from>
    </image>
  </library_images>
  <library_materials>
    <material id="factory_facade_02" name="factory_facade_02">
      <instance_effect url="#factory_facade_02-fx"/>
    </material>
    <material id="factory_facade" name="factory_facade">
      <instance_effect url="#factory_facade-fx"/>
    </material>
    <material id="hinges" name="hinges">
      <instance_effect url="#hinges-fx"/>
    </material>
  </library_materials>
  <library_effects>
    <effect id="factory_facade_02-fx" name="factory_facade_02">
      <profile_COMMON>
        <technique sid="standard">
          <phong>
            <emission>
              <color sid="emission">0.000000  0.000000 0.000000 1.000000</color>
            </emission>
            <ambient>
              <color sid="ambient">0.588235  0.588235 0.588235 1.000000</color>
            </ambient>
            <diffuse>
              <texture texture="Map #23-image" texcoord="CHANNEL0">
                <extra>
                  <technique profile="MAYA">
                    <wrapU sid="wrapU0">TRUE</wrapU>
                    <wrapV sid="wrapV0">TRUE</wrapV>
                    <blend_mode>ADD</blend_mode>
                  </technique>
                </extra>
              </texture>
            </diffuse>
            <specular>
              <color sid="specular">0.000000  0.000000 0.000000 1.000000</color>
            </specular>
            <shininess>
              <float sid="shininess">2.000000</float>
            </shininess>
            <reflective>
              <color sid="reflective">0.000000  0.000000 0.000000 1.000000</color>
            </reflective>
            <reflectivity>
              <float sid="reflectivity">1.000000</float>
            </reflectivity>
            <transparent opaque="RGB_ZERO">
              <color sid="transparent">1.000000  1.000000 1.000000 1.000000</color>
            </transparent>
            <transparency>
              <float sid="transparency">0.000000</float>
            </transparency>
          </phong>
        </technique>
      </profile_COMMON>
    </effect>
    <effect id="factory_facade-fx" name="factory_facade">
      <profile_COMMON>
        <technique sid="standard">
          <phong>
            <emission>
              <color sid="emission">0.000000  0.000000 0.000000 1.000000</color>
            </emission>
            <ambient>
              <color sid="ambient">0.588235  0.588235 0.588235 1.000000</color>
            </ambient>
            <diffuse>
              <texture texture="Map #1-image" texcoord="CHANNEL0">
                <extra>
                  <technique profile="MAYA">
                    <wrapU sid="wrapU0">TRUE</wrapU>
                    <wrapV sid="wrapV0">TRUE</wrapV>
                    <blend_mode>ADD</blend_mode>
                  </technique>
                </extra>
              </texture>
            </diffuse>
            <specular>
              <color sid="specular">0.000000  0.000000 0.000000 1.000000</color>
            </specular>
            <shininess>
              <float sid="shininess">2.000000</float>
            </shininess>
            <reflective>
              <color sid="reflective">0.000000  0.000000 0.000000 1.000000</color>
            </reflective>
            <reflectivity>
              <float sid="reflectivity">1.000000</float>
            </reflectivity>
            <transparent opaque="RGB_ZERO">
              <color sid="transparent">1.000000  1.000000 1.000000 1.000000</color>
            </transparent>
            <transparency>
              <float sid="transparency">0.000000</float>
            </transparency>
          </phong>
        </technique>
      </profile_COMMON>
    </effect>
    <effect id="hinges-fx" name="hinges">
      <profile_COMMON>
        <technique sid="standard">
          <phong>
            <emission>
              <color sid="emission">0.000000  0.000000 0.000000 1.000000</color>
            </emission>
            <ambient>
              <color sid="ambient">0.588235  0.588235 0.588235 1.000000</color>
            </ambient>
            <diffuse>
              <texture texture="Map #16-image" texcoord="CHANNEL0">
                <extra>
                  <technique profile="MAYA">
                    <wrapU sid="wrapU0">TRUE</wrapU>
                    <wrapV sid="wrapV0">TRUE</wrapV>
                    <blend_mode>ADD</blend_mode>
                  </technique>
                </extra>
              </texture>
            </diffuse>
            <specular>
              <color sid="specular">0.000000  0.000000 0.000000 1.000000</color>
            </specular>
            <shininess>
              <float sid="shininess">2.000000</float>
            </shininess>
            <reflective>
              <color sid="reflective">0.000000  0.000000 0.000000 1.000000</color>
            </reflective>
            <reflectivity>
              <float sid="reflectivity">1.000000</float>
            </reflectivity>
            <transparent opaque="RGB_ZERO">
              <color sid="transparent">1.000000  1.000000 1.000000 1.000000</color>
            </transparent>
            <transparency>
              <float sid="transparency">0.000000</float>
            </transparency>
          </phong>
        </technique>
      </profile_COMMON>
    </effect>
  </library_effects>
  <library_geometries>
    <geometry id="Box011-lib" name="Box011Mesh">
      <mesh>
        <source id="Box011-POSITION">
          <float_array id="Box011-POSITION-array" count="129">
-2.000000 0.000000 -0.000000
2.000000 0.000000 -0.000000
1.116308 0.000000 -0.000000
-1.035940 0.000000 -0.000000
-2.000000 0.412398 -0.000000
2.000000 0.412398 -0.000000
0.861068 0.412398 0.200000
-0.780700 0.412398 0.200000
0.861068 2.500329 0.200000
0.861068 1.804352 0.200000
0.861068 1.108375 0.200000
-0.780700 1.108375 0.200000
-0.780700 1.804352 0.200000
-0.780700 2.500329 0.200000
-0.885998 0.412398 -0.000000
-0.822673 0.412398 0.048192
-0.785998 0.412398 -0.000000
0.855227 0.412398 -0.000000
0.894447 0.412398 0.048824
0.955227 0.412398 -0.000000
-1.035940 4.000000 -0.000000
1.116308 4.000000 -0.000000
-0.507072 3.288302 0.050000
-0.239129 3.418193 -0.000000
0.040184 3.442783 -0.000000
0.319498 3.439220 -0.000000
0.597578 3.379336 -0.000000
0.861068 3.196306 0.200000
-0.780700 3.196306 0.200000
-0.507072 3.272525 0.200000
-0.233444 3.321435 0.200000
0.040184 3.335285 0.200000
0.313812 3.321435 0.200000
0.587440 3.272525 0.200000
-0.814514 3.219987 0.050000
-0.887006 3.299585 -0.000000
0.926152 3.262994 -0.000000
0.868514 3.204851 0.050000
-0.517210 3.376498 -0.000000
-0.233444 3.350213 0.050000
0.040184 3.364094 0.050000
0.313812 3.363351 0.050000
0.587440 3.291080 0.050000
</float_array>
          <technique_common>
            <accessor source="#Box011-POSITION-array" count="43" stride="3">
              <param name="X" type="float"/>
              <param name="Y" type="float"/>
              <param name="Z" type="float"/>
            </accessor>
          </technique_common>
        </source>
        <source id="Box011-Normal0">
          <float_array id="Box011-Normal0-array" count="522">
-0.000000 -0.000000 -1.000000
-0.000000 -0.000000 -1.000000
-0.000000 -0.000000 -1.000000
-0.000000 0.000000 -1.000000
-0.000000 0.000000 -1.000000
-0.000000 0.000000 -1.000000
0.000000 0.000000 -1.000000
0.000000 0.000000 -1.000000
0.000000 0.000000 -1.000000
0.000000 0.000000 -1.000000
0.000000 0.000000 -1.000000
0.000000 0.000000 -1.000000
-0.000000 -0.000000 -1.000000
-0.000000 -0.000000 -1.000000
-0.000000 -0.000000 -1.000000
-0.000000 0.000000 -1.000000
-0.000000 0.000000 -1.000000
-0.000000 0.000000 -1.000000
-0.000000 1.000000 -0.000000
-0.000000 1.000000 -0.000000
-0.000000 1.000000 -0.000000
-0.000000 1.000000 0.000000
-0.000000 1.000000 0.000000
-0.000000 1.000000 0.000000
-0.000000 1.000000 0.000000
-0.000000 1.000000 0.000000
-0.000000 1.000000 0.000000
0.000000 1.000000 0.000000
0.000000 1.000000 0.000000
0.000000 1.000000 0.000000
-0.000000 0.000000 -1.000000
-0.000000 0.000000 -1.000000
-0.000000 0.000000 -1.000000
-0.000000 0.000000 -1.000000
-0.000000 0.000000 -1.000000
-0.000000 0.000000 -1.000000
-0.000000 0.000000 -1.000000
-0.000000 0.000000 -1.000000
-0.000000 0.000000 -1.000000
-0.000000 -0.000000 -1.000000
-0.000000 -0.000000 -1.000000
-0.000000 -0.000000 -1.000000
-0.000000 0.000001 -1.000000
-0.000000 0.000001 -1.000000
-0.000000 0.000001 -1.000000
0.000000 0.000000 -1.000000
0.000000 0.000000 -1.000000
0.000000 0.000000 -1.000000
0.000000 0.000000 -1.000000
0.000000 0.000000 -1.000000
0.000000 0.000000 -1.000000
0.000000 0.000000 -1.000000
0.000000 0.000000 -1.000000
0.000000 0.000000 -1.000000
-0.000000 -0.000000 -1.000000
-0.000000 -0.000000 -1.000000
-0.000000 -0.000000 -1.000000
-0.000000 0.000000 -1.000000
-0.000000 0.000000 -1.000000
-0.000000 0.000000 -1.000000
-0.000000 0.000000 -1.000000
-0.000000 0.000000 -1.000000
-0.000000 0.000000 -1.000000
0.000000 1.000000 0.000000
0.000000 1.000000 0.000000
0.000000 1.000000 0.000000
0.000000 0.000000 -1.000000
0.000000 0.000000 -1.000000
0.000000 0.000000 -1.000000
0.000000 -0.000000 -1.000000
0.000000 -0.000000 -1.000000
0.000000 -0.000000 -1.000000
-0.000000 -0.000000 -1.000000
-0.000000 -0.000000 -1.000000
-0.000000 -0.000000 -1.000000
0.000000 1.000000 0.000000
0.000000 1.000000 0.000000
0.000000 1.000000 0.000000
0.000000 0.000000 -1.000000
0.000000 0.000000 -1.000000
0.000000 0.000000 -1.000000
-0.000000 -0.000000 -1.000000
0.006167 -0.273865 -0.961748
-0.000000 0.000000 -1.000000
0.175678 -0.813269 -0.554735
0.119139 -0.829644 -0.545432
0.128289 -0.976382 -0.173841
0.128289 -0.976382 -0.173841
0.221919 -0.969715 -0.101998
0.175678 -0.813269 -0.554735
0.119139 -0.829644 -0.545432
0.010101 -0.821267 -0.570455
0.000037 -0.982058 -0.188579
0.000037 -0.982058 -0.188579
0.128289 -0.976382 -0.173841
0.119139 -0.829644 -0.545432
0.010101 -0.821267 -0.570455
-0.085014 -0.797398 -0.597435
-0.095516 -0.962169 -0.255162
-0.095516 -0.962169 -0.255162
0.000037 -0.982058 -0.188579
0.010101 -0.821267 -0.570455
-0.085014 -0.797398 -0.597435
-0.228490 -0.799787 -0.555097
-0.256544 -0.957188 -0.134075
-0.256544 -0.957188 -0.134075
-0.095516 -0.962169 -0.255162
-0.085014 -0.797398 -0.597435
0.158922 -0.731744 -0.662793
0.040764 -0.195990 -0.979758
0.044827 -0.244816 -0.968533
0.044827 -0.244816 -0.968533
0.175678 -0.813269 -0.554735
0.158922 -0.731744 -0.662793
-0.246288 -0.789604 -0.562021
-0.228490 -0.799787 -0.555097
-0.068726 -0.243386 -0.967492
-0.068726 -0.243386 -0.967492
-0.087246 -0.246401 -0.965233
-0.246288 -0.789604 -0.562021
0.175678 -0.813269 -0.554735
0.044827 -0.244816 -0.968533
0.043572 -0.296476 -0.954046
0.043572 -0.296476 -0.954046
0.119139 -0.829644 -0.545432
0.175678 -0.813269 -0.554735
0.119139 -0.829644 -0.545432
0.043572 -0.296476 -0.954046
0.006167 -0.273865 -0.961748
0.006167 -0.273865 -0.961748
0.010101 -0.821267 -0.570455
0.119139 -0.829644 -0.545432
0.010101 -0.821267 -0.570455
0.006167 -0.273865 -0.961748
-0.028679 -0.267533 -0.963122
-0.028679 -0.267533 -0.963122
-0.085014 -0.797398 -0.597435
0.010101 -0.821267 -0.570455
-0.085014 -0.797398 -0.597435
-0.028679 -0.267533 -0.963122
-0.068726 -0.243386 -0.967492
-0.068726 -0.243386 -0.967492
-0.228490 -0.799787 -0.555097
-0.085014 -0.797398 -0.597435
0.175678 -0.813269 -0.554735
0.221919 -0.969715 -0.101998
0.227902 -0.958365 -0.172040
0.227902 -0.958365 -0.172040
0.158922 -0.731744 -0.662793
0.175678 -0.813269 -0.554735
-0.246288 -0.789604 -0.562021
-0.267712 -0.961094 -0.068040
-0.256544 -0.957188 -0.134075
-0.256544 -0.957188 -0.134075
-0.228490 -0.799787 -0.555097
-0.246288 -0.789604 -0.562021
-0.000000 -0.000000 -1.000000
-0.087246 -0.246401 -0.965233
-0.068726 -0.243386 -0.967492
-0.000000 -0.000000 -1.000000
-0.068726 -0.243386 -0.967492
-0.028679 -0.267533 -0.963122
-0.000000 -0.000000 -1.000000
-0.028679 -0.267533 -0.963122
0.006167 -0.273865 -0.961748
0.043572 -0.296476 -0.954046
0.044827 -0.244816 -0.968533
-0.000000 0.000000 -1.000000
0.006167 -0.273865 -0.961748
0.043572 -0.296476 -0.954046
-0.000000 0.000000 -1.000000
0.044827 -0.244816 -0.968533
0.040764 -0.195990 -0.979758
-0.000000 0.000000 -1.000000
</float_array>
          <technique_common>
            <accessor source="#Box011-Normal0-array" count="174" stride="3">
              <param name="X" type="float"/>
              <param name="Y" type="float"/>
              <param name="Z" type="float"/>
            </accessor>
          </technique_common>
        </source>
        <source id="Box011-UV0">
          <float_array id="Box011-UV0-array" count="122">
0.000000 0.103100
0.000000 0.000000
0.220923 0.000000
0.261193 0.103100
0.758985 -0.000000
0.696500 0.103100
0.286193 0.103100
0.284728 0.799676
0.284728 0.103425
0.695666 0.103425
0.695666 0.799676
0.627177 0.818738
0.558687 0.830971
0.490197 0.834435
0.421708 0.830971
0.353218 0.818738
0.275982 0.080273
0.285807 0.074089
0.696940 0.074089
0.706128 0.080193
0.721500 0.103100
1.000000 0.103099
0.284728 0.625613
0.284728 0.451551
0.284728 0.277488
0.695613 0.099421
0.284344 0.099421
0.721991 0.074089
0.695666 0.277488
0.695666 0.451551
0.695666 0.625613
0.260756 0.074089
1.000000 0.000000
0.220923 1.000000
0.708793 0.813504
0.282386 0.801853
0.489954 0.860696
0.629835 0.827376
0.558516 0.837208
0.571534 0.899182
0.634178 0.885549
0.489931 0.840916
0.492235 0.902936
0.421294 0.840306
0.419861 0.897101
0.352976 0.822658
0.342463 0.881888
0.758985 1.000000
0.718392 0.868630
0.268462 0.815748
0.267796 0.856390
0.555036 0.899863
0.653891 0.882899
0.483231 0.897774
0.405351 0.898286
0.330543 0.874673
0.724309 0.829585
0.629729 0.845403
0.350606 0.844834
0.559783 0.854548
0.420126 0.859805
</float_array>
          <technique_common>
            <accessor source="#Box011-UV0-array" count="61" stride="2">
              <param name="S" type="float"/>
              <param name="T" type="float"/>
            </accessor>
          </technique_common>
        </source>
        <vertices id="Box011-VERTEX">
          <input semantic="POSITION" source="#Box011-POSITION"/>
        </vertices>
        <triangles count="58" material="factory_facade_02">
          <input semantic="VERTEX" offset="0" source="#Box011-VERTEX"/>
          <input semantic="NORMAL" offset="1" source="#Box011-Normal0"/>
          <input semantic="TEXCOORD" offset="2" set="0" source="#Box011-UV0"/>
          <p> 9 0 23 12 1 29 13 2 30 13 3 30 8 4 22 9 5 23 1 6 1 2 7 2 19 8 3 19 9 3 5 10 0 1 11 1 3 12 4 16 13 5 17 14 6 17 15 6 2 16 2 3 17 4 17 18 17 16 19 18 15 20 19 17 21 17 15 22 19 7 23 25 17 24 17 7 25 25 6 26 26 18 27 16 17 28 17 6 29 26 6 30 8 7 31 9 11 32 28 11 33 28 10 34 24 6 35 8 10 36 24 11 37 28 12 38 29 12 39 29 9 40 23 10 41 24 28 42 10 29 43 11 30 44 12 30 45 12 31 46 13 32 47 14 32 48 14 33 49 15 27 50 7 30 51 12 32 52 14 27 53 7 28 54 10 30 55 12 27 56 7 28 57 10 27 58 7 8 59 22 13 60 30 28 61 10 8 62 22 14 63 27 15 64 19 16 65 18 3 66 4 0 67 32 4 68 21 4 69 21 14 70 20 3 71 4 3 72 4 14 73 20 16 74 5 17 75 17 18 76 16 19 77 31 2 78 2 17 79 6 19 80 3 21 81 33 24 82 36 20 83 47 22 84 37 39 85 38 30 86 39 30 87 39 29 88 40 22 89 37 39 90 38 40 91 41 31 92 42 31 93 42 30 94 51 39 95 38 40 96 41 41 97 43 32 98 44 32 99 44 31 100 53 40 101 41 41 102 43 42 103 45 33 104 46 33 105 46 32 106 54 41 107 43 34 108 34 35 109 56 38 110 57 38 111 57 22 112 37 34 113 34 37 114 35 42 115 45 26 116 58 26 117 58 36 118 49 37 119 35 22 120 37 38 121 57 23 122 59 23 123 59 39 124 38 22 125 37 39 126 38 23 127 59 24 128 36 24 129 36 40 130 41 39 131 38 40 132 41 24 133 36 25 134 60 25 135 60 41 136 43 40 137 41 41 138 43 25 139 60 26 140 58 26 141 58 42 142 45 41 143 43 22 144 37 29 145 52 28 146 48 28 147 48 34 148 34 22 149 37 37 150 35 27 151 50 33 152 55 33 153 55 42 154 45 37 155 35 21 156 33 36 157 49 26 158 58 21 159 33 26 160 58 25 161 60 21 162 33 25 163 60 24 164 36 23 165 59 38 166 57 20 167 47 24 168 36 23 169 59 20 170 47 38 171 57 35 172 56 20 173 47</p>
        </triangles>
      </mesh>
    </geometry>
    <geometry id="Object004-lib" name="Object004Mesh">
      <mesh>
        <source id="Object004-POSITION">
          <float_array id="Object004-POSITION-array" count="138">
-2.000000 4.000000 -0.000000
2.000000 4.000000 -0.000000
-1.035940 4.000000 -0.000000
1.116308 4.000000 -0.000000
-2.000000 0.412398 -0.000000
-2.000000 3.196306 -0.000000
2.000000 3.196306 -0.000000
2.000000 0.412398 -0.000000
0.861068 3.196306 0.200000
0.861068 0.412398 0.200000
-0.780700 0.412398 0.200000
-0.780700 3.196306 0.200000
2.000000 2.500329 -0.000000
2.000000 1.804352 -0.000000
2.000000 1.108375 -0.000000
1.007138 2.500329 -0.000000
0.991268 1.804352 -0.000000
0.938942 1.108375 0.047463
-2.000000 1.108375 -0.000000
-2.000000 1.804352 -0.000000
-2.000000 2.500329 -0.000000
-0.882092 1.108375 -0.000000
-0.935192 1.804352 -0.000000
-0.816917 2.500329 0.048627
0.861068 2.500329 0.200000
0.861068 1.804352 0.200000
0.861068 1.108375 0.200000
-0.780700 1.108375 0.200000
-0.780700 1.804352 0.200000
-0.780700 2.500329 0.200000
-0.885998 0.412398 -0.000000
-0.822673 0.412398 0.048192
-0.814514 3.219987 0.050000
-0.887006 3.299585 -0.000000
-0.799332 1.108375 0.049621
-0.822484 1.804352 0.048207
-0.901379 2.500329 -0.000000
0.926152 3.262994 -0.000000
0.868514 3.204851 0.050000
0.894447 0.412398 0.048824
0.955227 0.412398 -0.000000
0.906304 2.500329 0.049506
0.894341 1.804352 0.049506
1.060452 1.108375 -0.000000
-0.869565 3.170243 -0.000000
0.946653 3.146775 -0.000000
</float_array>
          <technique_common>
            <accessor source="#Object004-POSITION-array" count="46" stride="3">
              <param name="X" type="float"/>
              <param name="Y" type="float"/>
              <param name="Z" type="float"/>
            </accessor>
          </technique_common>
        </source>
        <source id="Object004-Normal0">
          <float_array id="Object004-Normal0-array" count="504">
0.000000 -0.000000 -1.000000
-0.242037 -0.010194 -0.970213
-0.221033 -0.003644 -0.975259
-0.221033 -0.003644 -0.975259
0.000000 -0.000000 -1.000000
0.000000 -0.000000 -1.000000
0.000000 -0.000000 -1.000000
0.195922 -0.001381 -0.980618
0.275101 0.006807 -0.961391
0.275101 0.006807 -0.961391
0.000000 -0.000000 -1.000000
0.000000 -0.000000 -1.000000
0.000000 -0.000000 -1.000000
0.364762 0.014775 -0.930983
0.255114 -0.007337 -0.966883
0.255114 -0.007337 -0.966883
0.000000 -0.000000 -1.000000
0.000000 -0.000000 -1.000000
-0.764387 -0.001250 -0.644756
-0.959120 0.007091 -0.282911
-0.995317 -0.046350 -0.084823
-0.995317 -0.046350 -0.084823
-0.826374 -0.076177 -0.557945
-0.764387 -0.001250 -0.644756
0.836202 0.013612 -0.548253
0.991000 0.014080 -0.133122
0.968590 -0.027469 -0.247141
0.968590 -0.027469 -0.247141
0.822879 -0.018959 -0.567900
0.836202 0.013612 -0.548253
0.000000 -0.000000 -1.000000
-0.343211 0.023164 -0.938973
-0.173239 0.007182 -0.984854
-0.173239 0.007182 -0.984854
0.000000 0.000000 -1.000000
0.000000 -0.000000 -1.000000
0.000000 0.000000 -1.000000
-0.173239 0.007182 -0.984854
-0.242037 -0.010194 -0.970213
-0.242037 -0.010194 -0.970213
0.000000 -0.000000 -1.000000
0.000000 0.000000 -1.000000
0.000000 -0.000000 -1.000000
-0.172218 -0.030379 -0.984590
0.000000 -0.000000 -1.000000
0.000000 -0.000000 -1.000000
0.000000 -0.000000 -1.000000
0.000000 -0.000000 -1.000000
0.000000 -0.000000 -1.000000
0.255114 -0.007337 -0.966883
0.195922 -0.001381 -0.980618
0.195922 -0.001381 -0.980618
0.000000 -0.000000 -1.000000
0.000000 -0.000000 -1.000000
0.318530 -0.001788 -0.947911
0.000000 -0.000000 -1.000000
0.000000 -0.000000 -1.000000
0.000000 -0.000000 -1.000000
0.275101 0.006807 -0.961391
0.318530 -0.001788 -0.947911
0.811512 0.031323 -0.583496
0.975521 0.000000 -0.219905
0.972754 -0.001214 -0.231835
0.972754 -0.001214 -0.231835
0.802771 -0.008018 -0.596233
0.811512 0.031323 -0.583496
0.802771 -0.008018 -0.596233
0.972754 -0.001214 -0.231835
0.964759 -0.003247 -0.263115
0.964759 -0.003247 -0.263115
0.755685 -0.002618 -0.654930
0.802771 -0.008018 -0.596233
0.755685 -0.002618 -0.654930
0.964759 -0.003247 -0.263115
0.991000 0.014080 -0.133122
0.991000 0.014080 -0.133122
0.836202 0.013612 -0.548253
0.755685 -0.002618 -0.654930
0.822879 -0.018959 -0.567900
0.318530 -0.001788 -0.947911
0.275101 0.006807 -0.961391
0.275101 0.006807 -0.961391
0.836202 0.013612 -0.548253
0.822879 -0.018959 -0.567900
0.836202 0.013612 -0.548253
0.275101 0.006807 -0.961391
0.195922 -0.001381 -0.980618
0.195922 -0.001381 -0.980618
0.755685 -0.002618 -0.654930
0.836202 0.013612 -0.548253
0.755685 -0.002618 -0.654930
0.195922 -0.001381 -0.980618
0.255114 -0.007337 -0.966883
0.255114 -0.007337 -0.966883
0.802771 -0.008018 -0.596233
0.755685 -0.002618 -0.654930
0.802771 -0.008018 -0.596233
0.255114 -0.007337 -0.966883
0.364762 0.014775 -0.930983
0.364762 0.014775 -0.930983
0.811512 0.031323 -0.583496
0.802771 -0.008018 -0.596233
-0.791764 -0.025955 -0.610275
-0.971725 -0.026324 -0.234644
-0.959120 0.007091 -0.282911
-0.959120 0.007091 -0.282911
-0.764387 -0.001250 -0.644756
-0.791764 -0.025955 -0.610275
-0.672998 0.021506 -0.739332
-0.898231 0.024215 -0.438857
-0.971725 -0.026324 -0.234644
-0.971725 -0.026324 -0.234644
-0.791764 -0.025955 -0.610275
-0.672998 0.021506 -0.739332
-0.842946 0.024426 -0.537444
-0.976481 0.000000 -0.215602
-0.898231 0.024215 -0.438857
-0.898231 0.024215 -0.438857
-0.672998 0.021506 -0.739332
-0.842946 0.024426 -0.537444
-0.826374 -0.076177 -0.557945
-0.293398 -0.034514 -0.955367
-0.221033 -0.003644 -0.975259
-0.221033 -0.003644 -0.975259
-0.764387 -0.001250 -0.644756
-0.826374 -0.076177 -0.557945
-0.764387 -0.001250 -0.644756
-0.221033 -0.003644 -0.975259
-0.242037 -0.010194 -0.970213
-0.242037 -0.010194 -0.970213
-0.791764 -0.025955 -0.610275
-0.764387 -0.001250 -0.644756
-0.791764 -0.025955 -0.610275
-0.242037 -0.010194 -0.970213
-0.173239 0.007182 -0.984854
-0.173239 0.007182 -0.984854
-0.672998 0.021506 -0.739332
-0.791764 -0.025955 -0.610275
-0.672998 0.021506 -0.739332
-0.173239 0.007182 -0.984854
-0.343211 0.023164 -0.938973
-0.343211 0.023164 -0.938973
-0.842946 0.024426 -0.537444
-0.672998 0.021506 -0.739332
0.811512 0.031323 -0.583496
0.364762 0.014775 -0.930983
0.124823 0.016831 -0.992036
-0.172218 -0.030379 -0.984590
-0.293398 -0.034514 -0.955367
-0.826374 -0.076177 -0.557945
0.000000 -0.000000 -1.000000
-0.293398 -0.034514 -0.955367
-0.172218 -0.030379 -0.984590
0.000000 -0.000000 -1.000000
0.000000 -0.000000 -1.000000
-0.221033 -0.003644 -0.975259
-0.221033 -0.003644 -0.975259
-0.293398 -0.034514 -0.955367
0.000000 -0.000000 -1.000000
0.000000 -0.000000 -1.000000
0.124823 0.016831 -0.992036
0.364762 0.014775 -0.930983
0.000000 0.000000 -1.000000
0.000000 0.000000 -1.000000
0.124823 0.016831 -0.992036
0.124823 0.016831 -0.992036
0.000000 -0.000000 -1.000000
0.000000 0.000000 -1.000000
</float_array>
          <technique_common>
            <accessor source="#Object004-Normal0-array" count="168" stride="3">
              <param name="X" type="float"/>
              <param name="Y" type="float"/>
              <param name="Z" type="float"/>
            </accessor>
          </technique_common>
        </source>
        <source id="Object004-UV0">
          <float_array id="Object004-UV0-array" count="92">
0.701892 0.103104
0.699833 0.277097
0.662240 0.277549
0.660166 0.103560
0.704229 0.625079
0.000000 0.625082
0.000000 0.451088
0.252183 0.451088
0.248216 0.625082
1.000000 0.277094
1.000000 0.451088
0.733798 0.451088
0.720523 0.277094
0.000000 0.103100
0.261193 0.103100
0.220923 1.000000
0.702497 0.805503
0.668461 0.799515
0.666387 0.625526
0.703941 0.451087
0.282386 0.801853
0.273424 0.625070
0.311043 0.624232
0.314867 0.798208
0.664313 0.451537
0.758985 1.000000
1.000000 0.799076
0.717391 0.792561
0.725345 0.625082
0.273007 0.451085
0.307219 0.450256
0.265265 0.277106
1.000000 0.625082
0.000000 0.277094
0.234887 0.277094
0.000000 0.799076
0.268462 0.815748
0.000000 1.000000
0.303395 0.276280
0.269085 0.103117
0.299571 0.102304
0.721500 0.103100
1.000000 0.103099
0.263337 0.786694
0.721751 0.824896
1.000000 1.000000
</float_array>
          <technique_common>
            <accessor source="#Object004-UV0-array" count="46" stride="2">
              <param name="S" type="float"/>
              <param name="T" type="float"/>
            </accessor>
          </technique_common>
        </source>
        <vertices id="Object004-VERTEX">
          <input semantic="POSITION" source="#Object004-POSITION"/>
        </vertices>
        <triangles count="56" material="factory_facade">
          <input semantic="VERTEX" offset="0" source="#Object004-VERTEX"/>
          <input semantic="NORMAL" offset="1" source="#Object004-Normal0"/>
          <input semantic="TEXCOORD" offset="2" set="0" source="#Object004-UV0"/>
          <p> 13 0 6 16 1 7 15 2 8 15 3 8 12 4 5 13 5 6 19 6 10 22 7 11 21 8 12 21 9 12 18 10 9 19 11 10 5 12 26 44 13 27 36 14 28 36 15 28 20 16 32 5 17 26 41 18 21 24 19 22 8 20 23 8 21 23 38 22 20 41 23 21 34 24 1 27 25 2 10 26 3 10 27 3 31 28 0 34 29 1 7 30 13 40 31 14 43 32 34 43 33 34 14 34 33 7 35 13 14 36 33 43 37 34 16 38 7 16 39 7 13 40 6 14 41 33 6 42 35 37 43 36 3 44 15 3 45 15 1 46 37 6 47 35 20 48 32 36 49 28 22 50 11 22 51 11 19 52 10 20 53 32 30 54 41 4 55 42 18 56 9 18 57 9 21 58 12 30 59 41 32 60 16 11 61 17 29 62 18 29 63 18 23 64 4 32 65 16 23 66 4 29 67 18 28 68 24 28 69 24 35 70 19 23 71 4 35 72 19 28 73 24 27 74 2 27 75 2 34 76 1 35 77 19 31 78 0 30 79 41 21 80 12 21 81 12 34 82 1 31 83 0 34 84 1 21 85 12 22 86 11 22 87 11 35 88 19 34 89 1 35 90 19 22 91 11 36 92 28 36 93 28 23 94 4 35 95 19 23 96 4 36 97 28 44 98 27 44 99 27 32 100 16 23 101 4 42 102 29 25 103 30 24 104 22 24 105 22 41 106 21 42 107 29 17 108 31 26 109 38 25 110 30 25 111 30 42 112 29 17 113 31 39 114 39 9 115 40 26 116 38 26 117 38 17 118 31 39 119 39 38 120 20 45 121 43 15 122 8 15 123 8 41 124 21 38 125 20 41 126 21 15 127 8 16 128 7 16 129 7 42 130 29 41 131 21 42 132 29 16 133 7 43 134 34 43 135 34 17 136 31 42 137 29 17 138 31 43 139 34 40 140 14 40 141 14 39 142 39 17 143 31 32 144 16 44 145 27 33 146 44 37 147 36 45 148 43 38 149 20 6 150 35 45 151 43 37 152 36 6 153 35 12 154 5 15 155 8 15 156 8 45 157 43 6 158 35 5 159 26 33 160 44 44 161 27 0 162 45 2 163 25 33 164 44 33 165 44 5 166 26 0 167 45</p>
        </triangles>
      </mesh>
    </geometry>
    <geometry id="Object033-lib" name="Object033Mesh">
      <mesh>
        <source id="Object033-POSITION">
          <float_array id="Object033-POSITION-array" count="144">
0.902503 2.421291 -0.003103
0.927825 2.422509 0.040807
0.978469 2.424946 0.040807
1.003792 2.426164 -0.003103
0.978469 2.424946 -0.047013
0.927825 2.422509 -0.047013
0.893059 2.617587 -0.003103
0.918381 2.618805 0.040807
0.969025 2.621242 0.040807
0.994348 2.622460 -0.003103
0.969025 2.621242 -0.047013
0.918381 2.618805 -0.047013
-0.870589 2.425555 -0.047013
-0.895929 2.426320 -0.003103
-0.870589 2.425555 0.040807
-0.819909 2.424024 0.040807
-0.794569 2.423259 -0.003103
-0.819909 2.424024 -0.047013
-0.864656 2.621988 -0.047013
-0.889996 2.622754 -0.003103
-0.864656 2.621988 0.040807
-0.813976 2.620458 0.040807
-0.788636 2.619692 -0.003103
-0.813976 2.620458 -0.047013
-0.895914 0.909562 -0.003103
-0.870582 0.910538 0.040807
-0.819916 0.912490 0.040807
-0.794583 0.913467 -0.003103
-0.819916 0.912490 -0.047013
-0.870582 0.910538 -0.047013
-0.903482 1.105939 -0.003103
-0.878149 1.106916 0.040807
-0.827484 1.108868 0.040807
-0.802151 1.109844 -0.003103
-0.827484 1.108868 -0.047013
-0.878149 1.106916 -0.047013
0.927800 0.911593 -0.047013
0.902453 0.912081 -0.003103
0.927800 0.911593 0.040807
0.978494 0.910617 0.040807
1.003841 0.910129 -0.003103
0.978494 0.910617 -0.047013
0.931582 1.108080 -0.047013
0.906235 1.108567 -0.003103
0.931582 1.108080 0.040807
0.982275 1.107104 0.040807
1.007622 1.106616 -0.003103
0.982275 1.107104 -0.047013
</float_array>
          <technique_common>
            <accessor source="#Object033-POSITION-array" count="48" stride="3">
              <param name="X" type="float"/>
              <param name="Y" type="float"/>
              <param name="Z" type="float"/>
            </accessor>
          </technique_common>
        </source>
        <source id="Object033-Normal0">
          <float_array id="Object033-Normal0-array" count="720">
-0.998845 -0.048055 0.000000
-0.499422 -0.024028 0.866026
-0.499422 -0.024028 0.866026
-0.499422 -0.024028 0.866026
-0.998845 -0.048056 0.000000
-0.998845 -0.048055 0.000000
-0.499422 -0.024028 0.866026
0.499422 0.024028 0.866025
0.499423 0.024028 0.866025
0.499423 0.024028 0.866025
-0.499422 -0.024028 0.866026
-0.499422 -0.024028 0.866026
0.499422 0.024028 0.866025
0.998845 0.048056 -0.000000
0.998845 0.048056 -0.000000
0.998845 0.048056 -0.000000
0.499423 0.024028 0.866025
0.499422 0.024028 0.866025
0.998845 0.048056 -0.000000
0.499422 0.024028 -0.866026
0.499422 0.024028 -0.866025
0.499422 0.024028 -0.866025
0.998845 0.048056 -0.000000
0.998845 0.048056 -0.000000
0.499422 0.024028 -0.866026
-0.499422 -0.024028 -0.866026
-0.499423 -0.024028 -0.866025
-0.499423 -0.024028 -0.866025
0.499422 0.024028 -0.866025
0.499422 0.024028 -0.866026
-0.499422 -0.024028 -0.866026
-0.998845 -0.048055 0.000000
-0.998845 -0.048056 0.000000
-0.998845 -0.048056 0.000000
-0.499423 -0.024028 -0.866025
-0.499422 -0.024028 -0.866026
0.048055 -0.998845 0.000000
0.048055 -0.998845 0.000000
0.048055 -0.998845 0.000000
0.048056 -0.998845 -0.000001
0.048056 -0.998845 -0.000001
0.048056 -0.998845 -0.000001
0.048055 -0.998845 0.000000
0.048055 -0.998845 0.000000
0.048055 -0.998845 0.000000
0.048056 -0.998845 0.000001
0.048056 -0.998845 0.000001
0.048056 -0.998845 0.000001
-0.048056 0.998845 -0.000001
-0.048056 0.998845 -0.000001
-0.048056 0.998845 -0.000001
-0.048056 0.998845 0.000001
-0.048056 0.998845 0.000001
-0.048056 0.998845 0.000001
-0.048055 0.998845 0.000000
-0.048055 0.998845 0.000000
-0.048055 0.998845 0.000000
-0.048055 0.998845 0.000000
-0.048055 0.998845 0.000000
-0.048055 0.998845 0.000000
-0.499772 0.015096 -0.866026
-0.999544 0.030191 -0.000000
-0.999544 0.030191 -0.000000
-0.999544 0.030191 -0.000000
-0.499773 0.015095 -0.866025
-0.499772 0.015096 -0.866026
-0.999544 0.030191 -0.000000
-0.499772 0.015095 0.866026
-0.499773 0.015096 0.866025
-0.499773 0.015096 0.866025
-0.999544 0.030191 -0.000000
-0.999544 0.030191 -0.000000
-0.499772 0.015095 0.866026
0.499772 -0.015095 0.866026
0.499773 -0.015096 0.866025
0.499773 -0.015096 0.866025
-0.499773 0.015096 0.866025
-0.499772 0.015095 0.866026
0.499772 -0.015095 0.866026
0.999544 -0.030191 0.000000
0.999544 -0.030191 0.000000
0.999544 -0.030191 0.000000
0.499773 -0.015096 0.866025
0.499772 -0.015095 0.866026
0.999544 -0.030191 0.000000
0.499772 -0.015096 -0.866026
0.499772 -0.015095 -0.866025
0.499772 -0.015095 -0.866025
0.999544 -0.030191 0.000000
0.999544 -0.030191 0.000000
0.499772 -0.015096 -0.866026
-0.499772 0.015096 -0.866026
-0.499773 0.015095 -0.866025
-0.499773 0.015095 -0.866025
0.499772 -0.015095 -0.866025
0.499772 -0.015096 -0.866026
-0.030191 -0.999544 -0.000000
-0.030191 -0.999544 -0.000000
-0.030191 -0.999544 -0.000000
-0.030191 -0.999544 -0.000000
-0.030191 -0.999544 -0.000000
-0.030191 -0.999544 -0.000000
-0.030191 -0.999544 -0.000000
-0.030191 -0.999544 -0.000000
-0.030191 -0.999544 -0.000000
-0.030191 -0.999544 0.000000
-0.030191 -0.999544 0.000000
-0.030191 -0.999544 0.000000
0.030191 0.999544 0.000001
0.030191 0.999544 0.000001
0.030191 0.999544 0.000001
0.030191 0.999544 0.000000
0.030191 0.999544 0.000000
0.030191 0.999544 0.000000
0.030192 0.999544 0.000000
0.030192 0.999544 0.000000
0.030192 0.999544 0.000000
0.030191 0.999544 -0.000001
0.030191 0.999544 -0.000001
0.030191 0.999544 -0.000001
-0.999258 -0.038506 0.000000
-0.499629 -0.019253 0.866025
-0.499630 -0.019253 0.866025
-0.499630 -0.019253 0.866025
-0.999258 -0.038506 -0.000000
-0.999258 -0.038506 0.000000
-0.499629 -0.019253 0.866025
0.499630 0.019253 0.866025
0.499629 0.019254 0.866026
0.499629 0.019254 0.866026
-0.499630 -0.019253 0.866025
-0.499629 -0.019253 0.866025
0.499630 0.019253 0.866025
0.999258 0.038507 -0.000000
0.999258 0.038507 -0.000000
0.999258 0.038507 -0.000000
0.499629 0.019254 0.866026
0.499630 0.019253 0.866025
0.999258 0.038507 -0.000000
0.499630 0.019253 -0.866025
0.499629 0.019253 -0.866026
0.499629 0.019253 -0.866026
0.999258 0.038507 -0.000000
0.999258 0.038507 -0.000000
0.499630 0.019253 -0.866025
-0.499630 -0.019253 -0.866025
-0.499630 -0.019253 -0.866025
-0.499630 -0.019253 -0.866025
0.499629 0.019253 -0.866026
0.499630 0.019253 -0.866025
-0.499630 -0.019253 -0.866025
-0.999258 -0.038506 0.000000
-0.999258 -0.038506 -0.000000
-0.999258 -0.038506 -0.000000
-0.499630 -0.019253 -0.866025
-0.499630 -0.019253 -0.866025
0.038511 -0.999258 0.000000
0.038511 -0.999258 0.000000
0.038511 -0.999258 0.000000
0.038504 -0.999258 0.000001
0.038504 -0.999258 0.000001
0.038504 -0.999258 0.000001
0.038505 -0.999258 0.000000
0.038505 -0.999258 0.000000
0.038505 -0.999258 0.000000
0.038504 -0.999258 -0.000001
0.038504 -0.999258 -0.000001
0.038504 -0.999258 -0.000001
-0.038507 0.999258 -0.000000
-0.038507 0.999258 -0.000000
-0.038507 0.999258 -0.000000
-0.038507 0.999258 0.000000
-0.038507 0.999258 0.000000
-0.038507 0.999258 0.000000
-0.038507 0.999258 0.000000
-0.038507 0.999258 0.000000
-0.038507 0.999258 0.000000
-0.038507 0.999258 0.000000
-0.038507 0.999258 0.000000
-0.038507 0.999258 0.000000
-0.499908 0.009620 -0.866025
-0.999815 0.019241 0.000000
-0.999815 0.019241 0.000000
-0.999815 0.019241 0.000000
-0.499907 0.009621 -0.866026
-0.499908 0.009620 -0.866025
-0.999815 0.019241 0.000000
-0.499908 0.009621 0.866025
-0.499907 0.009620 0.866026
-0.499907 0.009620 0.866026
-0.999815 0.019241 0.000000
-0.999815 0.019241 0.000000
-0.499908 0.009621 0.866025
0.499908 -0.009621 0.866025
0.499907 -0.009620 0.866026
0.499907 -0.009620 0.866026
-0.499907 0.009620 0.866026
-0.499908 0.009621 0.866025
0.499908 -0.009621 0.866025
0.999815 -0.019241 -0.000000
0.999815 -0.019241 0.000000
0.999815 -0.019241 0.000000
0.499907 -0.009620 0.866026
0.499908 -0.009621 0.866025
0.999815 -0.019241 -0.000000
0.499908 -0.009621 -0.866025
0.499908 -0.009621 -0.866025
0.499908 -0.009621 -0.866025
0.999815 -0.019241 0.000000
0.999815 -0.019241 -0.000000
0.499908 -0.009621 -0.866025
-0.499908 0.009620 -0.866025
-0.499907 0.009621 -0.866026
-0.499907 0.009621 -0.866026
0.499908 -0.009621 -0.866025
0.499908 -0.009621 -0.866025
-0.019239 -0.999815 0.000004
-0.019239 -0.999815 0.000004
-0.019239 -0.999815 0.000004
-0.019242 -0.999815 0.000000
-0.019242 -0.999815 0.000000
-0.019242 -0.999815 0.000000
-0.019242 -0.999815 0.000000
-0.019242 -0.999815 0.000000
-0.019242 -0.999815 0.000000
-0.019239 -0.999815 -0.000004
-0.019239 -0.999815 -0.000004
-0.019239 -0.999815 -0.000004
0.019239 0.999815 0.000001
0.019239 0.999815 0.000001
0.019239 0.999815 0.000001
0.019246 0.999815 0.000000
0.019246 0.999815 0.000000
0.019246 0.999815 0.000000
0.019240 0.999815 0.000000
0.019240 0.999815 0.000000
0.019240 0.999815 0.000000
0.019239 0.999815 -0.000001
0.019239 0.999815 -0.000001
0.019239 0.999815 -0.000001
</float_array>
          <technique_common>
            <accessor source="#Object033-Normal0-array" count="240" stride="3">
              <param name="X" type="float"/>
              <param name="Y" type="float"/>
              <param name="Z" type="float"/>
            </accessor>
          </technique_common>
        </source>
        <source id="Object033-UV0">
          <float_array id="Object033-UV0-array" count="208">
0.313783 0.787022
0.551304 0.739539
0.499648 0.749035
0.454912 0.760115
0.410176 0.769611
0.358519 0.787022
0.269048 0.787022
0.454912 0.216238
0.499648 0.224152
0.358519 0.211490
0.410176 0.211490
0.551304 0.235232
0.197332 0.167983
0.197332 0.323955
0.163237 0.401941
0.129143 0.323955
0.129143 0.167983
0.163237 0.089997
0.162716 0.091433
0.196811 0.169418
0.196811 0.325391
0.162716 0.403376
0.128622 0.325391
0.128622 0.169418
0.269048 0.211490
0.313783 0.211490
0.313783 0.787022
0.551304 0.739539
0.499648 0.749035
0.454912 0.760115
0.410176 0.769611
0.358519 0.787022
0.269048 0.787022
0.454912 0.216238
0.499648 0.224152
0.358519 0.211490
0.410176 0.211490
0.551304 0.235232
0.197332 0.167983
0.197332 0.323955
0.163237 0.401941
0.129143 0.323955
0.129143 0.167983
0.163237 0.089997
0.162716 0.091433
0.196811 0.169418
0.196811 0.325391
0.162716 0.403376
0.128622 0.325391
0.128622 0.169418
0.269048 0.211490
0.313783 0.211490
0.313783 0.787022
0.551304 0.739539
0.499648 0.749035
0.454912 0.760115
0.410176 0.769611
0.358519 0.787022
0.269048 0.787022
0.454912 0.216238
0.499648 0.224152
0.358519 0.211490
0.410176 0.211490
0.551304 0.235232
0.197332 0.167983
0.197332 0.323955
0.163237 0.401941
0.129143 0.323955
0.129143 0.167983
0.163237 0.089997
0.162716 0.091433
0.196811 0.169418
0.196811 0.325391
0.162716 0.403376
0.128622 0.325391
0.128622 0.169418
0.269048 0.211490
0.313783 0.211490
0.313783 0.787022
0.551304 0.739539
0.499648 0.749035
0.454912 0.760115
0.410176 0.769611
0.358519 0.787022
0.269048 0.787022
0.454912 0.216238
0.499648 0.224152
0.358519 0.211490
0.410176 0.211490
0.551304 0.235232
0.197332 0.167983
0.197332 0.323955
0.163237 0.401941
0.129143 0.323955
0.129143 0.167983
0.163237 0.089997
0.162716 0.091433
0.196811 0.169418
0.196811 0.325391
0.162716 0.403376
0.128622 0.325391
0.128622 0.169418
0.269048 0.211490
0.313783 0.211490
</float_array>
          <technique_common>
            <accessor source="#Object033-UV0-array" count="104" stride="2">
              <param name="S" type="float"/>
              <param name="T" type="float"/>
            </accessor>
          </technique_common>
        </source>
        <vertices id="Object033-VERTEX">
          <input semantic="POSITION" source="#Object033-POSITION"/>
        </vertices>
        <triangles count="80" material="hinges">
          <input semantic="VERTEX" offset="0" source="#Object033-VERTEX"/>
          <input semantic="NORMAL" offset="1" source="#Object033-Normal0"/>
          <input semantic="TEXCOORD" offset="2" set="0" source="#Object033-UV0"/>
          <p> 0 0 0 1 1 6 7 2 24 7 3 24 6 4 25 0 5 0 1 6 1 2 7 2 8 8 8 8 9 8 7 10 11 1 11 1 2 12 2 3 13 3 9 14 7 9 15 7 8 16 8 2 17 2 3 18 3 4 19 4 10 20 10 10 21 10 9 22 7 3 23 3 4 24 4 5 25 5 11 26 9 11 27 9 10 28 10 4 29 4 5 30 5 0 31 0 6 32 25 6 33 25 11 34 9 5 35 5 4 36 13 3 37 14 2 38 15 2 39 15 1 40 16 0 41 17 4 42 13 2 43 15 0 44 17 5 45 12 4 46 13 0 47 17 7 48 19 8 49 20 9 50 21 9 51 21 10 52 22 11 53 23 7 54 19 9 55 21 11 56 23 6 57 18 7 58 19 11 59 23 12 60 26 13 61 32 19 62 50 19 63 50 18 64 51 12 65 26 13 66 27 14 67 28 20 68 34 20 69 34 19 70 37 13 71 27 14 72 28 15 73 29 21 74 33 21 75 33 20 76 34 14 77 28 15 78 29 16 79 30 22 80 36 22 81 36 21 82 33 15 83 29 16 84 30 17 85 31 23 86 35 23 87 35 22 88 36 16 89 30 17 90 31 12 91 26 18 92 51 18 93 51 23 94 35 17 95 31 16 96 39 15 97 40 14 98 41 14 99 41 13 100 42 12 101 43 16 102 39 14 103 41 12 104 43 17 105 38 16 106 39 12 107 43 19 108 45 20 109 46 21 110 47 21 111 47 22 112 48 23 113 49 19 114 45 21 115 47 23 116 49 18 117 44 19 118 45 23 119 49 24 120 52 25 121 58 31 122 76 31 123 76 30 124 77 24 125 52 25 126 53 26 127 54 32 128 60 32 129 60 31 130 63 25 131 53 26 132 54 27 133 55 33 134 59 33 135 59 32 136 60 26 137 54 27 138 55 28 139 56 34 140 62 34 141 62 33 142 59 27 143 55 28 144 56 29 145 57 35 146 61 35 147 61 34 148 62 28 149 56 29 150 57 24 151 52 30 152 77 30 153 77 35 154 61 29 155 57 28 156 65 27 157 66 26 158 67 26 159 67 25 160 68 24 161 69 28 162 65 26 163 67 24 164 69 29 165 64 28 166 65 24 167 69 31 168 71 32 169 72 33 170 73 33 171 73 34 172 74 35 173 75 31 174 71 33 175 73 35 176 75 30 177 70 31 178 71 35 179 75 36 180 78 37 181 84 43 182 102 43 183 102 42 184 103 36 185 78 37 186 79 38 187 80 44 188 86 44 189 86 43 190 89 37 191 79 38 192 80 39 193 81 45 194 85 45 195 85 44 196 86 38 197 80 39 198 81 40 199 82 46 200 88 46 201 88 45 202 85 39 203 81 40 204 82 41 205 83 47 206 87 47 207 87 46 208 88 40 209 82 41 210 83 36 211 78 42 212 103 42 213 103 47 214 87 41 215 83 40 216 91 39 217 92 38 218 93 38 219 93 37 220 94 36 221 95 40 222 91 38 223 93 36 224 95 41 225 90 40 226 91 36 227 95 43 228 97 44 229 98 45 230 99 45 231 99 46 232 100 47 233 101 43 234 97 45 235 99 47 236 101 42 237 96 43 238 97 47 239 101</p>
        </triangles>
      </mesh>
    </geometry>
  </library_geometries>
  <library_visual_scenes>
    <visual_scene id="" name="">
      <node name="Box011" id="Box011" layer="factory_facade_02" sid="Box011">
        <matrix sid="matrix">-1.000000 0.000000 0.000000 0.000000 0.000000 1.000000 -0.000000 0.000000 -0.000000 -0.000000 -1.000000 0.000000 0.000000 0.000000 0.000000 1.000000</matrix>
        <instance_geometry url="#Box011-lib">
          <bind_material>
            <technique_common>
              <instance_material symbol="factory_facade_02" target="#factory_facade_02"/>
            </technique_common>
          </bind_material>
        </instance_geometry>
        <extra>
          <technique profile="FCOLLADA">
            <visibility>1.000000</visibility>
          </technique>
        </extra>
      </node>
      <node name="Object004" id="Object004" layer="factory_facade_02" sid="Object004">
        <matrix sid="matrix">-1.000000 0.000000 0.000000 0.000000 0.000000 1.000000 -0.000000 0.000000 -0.000000 -0.000000 -1.000000 0.000000 0.000000 0.000000 0.000000 1.000000</matrix>
        <instance_geometry url="#Object004-lib">
          <bind_material>
            <technique_common>
              <instance_material symbol="factory_facade" target="#factory_facade"/>
            </technique_common>
          </bind_material>
        </instance_geometry>
        <extra>
          <technique profile="FCOLLADA">
            <visibility>1.000000</visibility>
          </technique>
        </extra>
      </node>
      <node name="Object033" id="Object033" layer="factory_facade_02" sid="Object033">
        <matrix sid="matrix">-1.000000 0.000000 0.000000 0.000000 0.000000 1.000000 -0.000000 0.000000 -0.000000 -0.000000 -1.000000 0.000000 0.000000 0.000000 0.000000 1.000000</matrix>
        <instance_geometry url="#Object033-lib">
          <bind_material>
            <technique_common>
              <instance_material symbol="hinges" target="#hinges"/>
            </technique_common>
          </bind_material>
        </instance_geometry>
        <extra>
          <technique profile="FCOLLADA">
            <visibility>1.000000</visibility>
          </technique>
        </extra>
      </node>
      <extra>
        <technique profile="MAX3D">
          <frame_rate>30.000000</frame_rate>
        </technique>
        <technique profile="FCOLLADA">
          <start_time>0.000000</start_time>
          <end_time>3.333333</end_time>
        </technique>
      </extra>
    </visual_scene>
  </library_visual_scenes>
  <scene>
    <instance_visual_scene url="#"></instance_visual_scene>
  </scene>
</COLLADA>

