<?xml version="1.0" encoding="utf-8"?>
<COLLADA xmlns="http://www.collada.org/2005/11/COLLADASchema" version="1.4.1">
  <asset>
    <contributor>
      <author></author>
      <authoring_tool>FBX COLLADA exporter</authoring_tool>
      <comments></comments>
    </contributor>
    <created>2012-03-11T17:05:33Z</created>
    <keywords></keywords>
    <modified>2012-03-11T17:05:33Z</modified>
    <revision></revision>
    <subject></subject>
    <title></title>
    <unit meter="1.000000" name="centimeter"></unit>
    <up_axis>Y_UP</up_axis>
  </asset>
  <library_images>
    <image id="Map #1-image" name="Map #1">
      <init_from>file://C:\Users\WesleyTack\Desktop\amnesia_raw\StaticObjects\factorybase\factory_facade.psd</init_from>
    </image>
    <image id="Map #6-image" name="Map #6">
      <init_from>file://C:\Users\WesleyTack\Desktop\amnesia_raw\StaticObjects\factorybase\factory_facade_03.jpg</init_from>
    </image>
  </library_images>
  <library_materials>
    <material id="factory_facade" name="factory_facade">
      <instance_effect url="#factory_facade-fx"/>
    </material>
    <material id="factory_facade_03" name="factory_facade_03">
      <instance_effect url="#factory_facade_03-fx"/>
    </material>
  </library_materials>
  <library_effects>
    <effect id="factory_facade-fx" name="factory_facade">
      <profile_COMMON>
        <technique sid="standard">
          <phong>
            <emission>
              <color sid="emission">0.000000  0.000000 0.000000 1.000000</color>
            </emission>
            <ambient>
              <color sid="ambient">0.588235  0.588235 0.588235 1.000000</color>
            </ambient>
            <diffuse>
              <texture texture="Map #1-image" texcoord="CHANNEL0">
                <extra>
                  <technique profile="MAYA">
                    <wrapU sid="wrapU0">TRUE</wrapU>
                    <wrapV sid="wrapV0">TRUE</wrapV>
                    <blend_mode>ADD</blend_mode>
                  </technique>
                </extra>
              </texture>
            </diffuse>
            <specular>
              <color sid="specular">0.000000  0.000000 0.000000 1.000000</color>
            </specular>
            <shininess>
              <float sid="shininess">2.000000</float>
            </shininess>
            <reflective>
              <color sid="reflective">0.000000  0.000000 0.000000 1.000000</color>
            </reflective>
            <reflectivity>
              <float sid="reflectivity">1.000000</float>
            </reflectivity>
            <transparent opaque="RGB_ZERO">
              <color sid="transparent">1.000000  1.000000 1.000000 1.000000</color>
            </transparent>
            <transparency>
              <float sid="transparency">0.000000</float>
            </transparency>
          </phong>
        </technique>
      </profile_COMMON>
    </effect>
    <effect id="factory_facade_03-fx" name="factory_facade_03">
      <profile_COMMON>
        <technique sid="standard">
          <phong>
            <emission>
              <color sid="emission">0.000000  0.000000 0.000000 1.000000</color>
            </emission>
            <ambient>
              <color sid="ambient">0.588235  0.588235 0.588235 1.000000</color>
            </ambient>
            <diffuse>
              <texture texture="Map #6-image" texcoord="CHANNEL0">
                <extra>
                  <technique profile="MAYA">
                    <wrapU sid="wrapU0">TRUE</wrapU>
                    <wrapV sid="wrapV0">TRUE</wrapV>
                    <blend_mode>ADD</blend_mode>
                  </technique>
                </extra>
              </texture>
            </diffuse>
            <specular>
              <color sid="specular">0.000000  0.000000 0.000000 1.000000</color>
            </specular>
            <shininess>
              <float sid="shininess">2.000000</float>
            </shininess>
            <reflective>
              <color sid="reflective">0.000000  0.000000 0.000000 1.000000</color>
            </reflective>
            <reflectivity>
              <float sid="reflectivity">1.000000</float>
            </reflectivity>
            <transparent opaque="RGB_ZERO">
              <color sid="transparent">1.000000  1.000000 1.000000 1.000000</color>
            </transparent>
            <transparency>
              <float sid="transparency">0.000000</float>
            </transparency>
          </phong>
        </technique>
      </profile_COMMON>
    </effect>
  </library_effects>
  <library_geometries>
    <geometry id="Box006-lib" name="Box006Mesh">
      <mesh>
        <source id="Box006-POSITION">
          <float_array id="Box006-POSITION-array" count="180">
-2.000000 0.000000 -0.000000
2.000000 0.000000 -0.000000
-2.000000 4.000000 -0.000000
2.000000 4.000000 -0.000000
-1.397544 4.000000 -0.000000
-0.955958 4.000000 -0.000000
0.922186 4.000000 -0.000000
1.353831 4.000000 -0.000000
1.353831 0.000000 -0.000000
0.922186 0.000000 -0.000000
-0.955958 0.000000 -0.000000
-1.397544 0.000000 -0.000000
-2.000000 0.543020 -0.000000
-2.000000 1.575802 -0.000000
-2.000000 2.693071 -0.000000
-2.000000 3.734187 -0.000000
2.000000 3.734187 -0.000000
2.000000 2.693071 -0.000000
2.000000 1.575802 -0.000000
2.000000 0.543020 -0.000000
1.385898 3.815574 -0.000000
1.493439 2.663545 -0.000000
1.353831 1.575802 -0.000000
1.353831 0.543020 -0.000000
0.879340 3.825935 -0.000000
0.898505 2.552800 -0.000000
0.922186 1.575802 -0.000000
0.922186 0.543020 -0.000000
-1.409720 0.468454 -0.000000
-1.516083 1.575802 -0.000000
-1.397544 2.693071 -0.000000
-1.397544 3.734187 -0.000000
-0.950587 0.450815 0.000000
-0.821043 1.579643 -0.000000
-0.955958 2.693071 -0.000000
-0.955958 3.734187 -0.000000
1.353831 3.734187 0.200000
1.353831 2.693071 0.200000
0.922186 2.693071 0.200000
0.922186 3.734187 0.200000
-1.397544 0.543020 0.200000
-1.397544 1.575802 0.200000
-0.955958 1.575802 0.200000
-0.955958 0.543020 0.200000
1.468551 3.753458 -0.000000
1.373538 3.748515 0.050000
1.400989 2.570332 -0.000000
1.400989 2.663545 0.050000
0.899603 3.741755 0.100781
0.817117 3.741755 -0.000000
0.800806 2.675981 -0.000000
0.898505 2.675981 0.105664
-1.502105 0.543020 -0.000000
-1.410728 0.538016 0.050000
-1.413321 1.703004 -0.000000
-1.404990 1.588863 0.050000
-0.924174 0.528982 0.050000
-0.829985 0.528982 0.000000
-0.919001 1.600395 0.050000
-0.894248 1.701890 -0.000000
</float_array>
          <technique_common>
            <accessor source="#Box006-POSITION-array" count="60" stride="3">
              <param name="X" type="float"/>
              <param name="Y" type="float"/>
              <param name="Z" type="float"/>
            </accessor>
          </technique_common>
        </source>
        <source id="Box006-Normal0">
          <float_array id="Box006-Normal0-array" count="846">
0.000000 -0.000000 -1.000000
-0.201549 -0.042090 -0.978574
-0.066361 -0.136647 -0.988394
0.000000 -0.000000 -1.000000
-0.066361 -0.136647 -0.988394
0.000000 -0.000000 -1.000000
0.082748 0.239211 -0.967435
0.000000 -0.000000 -1.000000
0.000000 -0.000000 -1.000000
0.317126 0.094117 -0.943702
0.082748 0.239211 -0.967435
0.000000 -0.000000 -1.000000
0.000000 -0.000000 -1.000000
-0.067003 0.185473 -0.980362
-0.183130 0.059692 -0.981275
0.000000 -0.000000 -1.000000
0.000000 -0.000000 -1.000000
-0.183130 0.059692 -0.981275
0.000000 -0.000000 -1.000000
0.000000 -0.000000 -1.000000
-0.183130 0.059692 -0.981275
0.000000 -0.000000 -1.000000
0.000000 -0.000000 -1.000000
0.082748 0.239211 -0.967435
0.082748 0.239211 -0.967435
-0.067003 0.185473 -0.980362
0.000000 -0.000000 -1.000000
0.000000 -0.000000 -1.000000
0.056505 -0.143187 -0.988081
0.170318 -0.047614 -0.984238
0.000000 -0.000000 -1.000000
0.000000 -0.000000 -1.000000
0.170318 -0.047614 -0.984238
0.000000 -0.000000 -1.000000
0.000000 -0.000000 -1.000000
0.170318 -0.047614 -0.984238
0.000000 -0.000000 -1.000000
0.000000 -0.000000 -1.000000
-0.066361 -0.136647 -0.988394
-0.066361 -0.136647 -0.988394
0.056505 -0.143187 -0.988081
0.000000 -0.000000 -1.000000
0.000000 0.000000 -1.000000
-0.046167 0.240290 -0.969603
-0.165521 0.070738 -0.983666
0.000000 0.000000 -1.000000
0.000000 0.000000 -1.000000
-0.165521 0.070738 -0.983666
0.000000 0.000000 -1.000000
0.000000 0.000000 -1.000000
-0.165521 0.070738 -0.983666
0.000000 0.000000 -1.000000
-0.165521 0.070738 -0.983666
-0.201549 -0.042090 -0.978574
-0.201549 -0.042090 -0.978574
0.000000 -0.000000 -1.000000
0.000000 0.000000 -1.000000
0.000000 0.000000 -1.000000
0.125830 -0.278748 -0.952085
0.346369 -0.102362 -0.932497
0.000000 0.000000 -1.000000
0.000000 0.000000 -1.000000
0.346369 -0.102362 -0.932497
0.000000 0.000000 -1.000000
0.000000 0.000000 -1.000000
0.346369 -0.102362 -0.932497
0.000000 0.000000 -1.000000
0.346369 -0.102362 -0.932497
0.317126 0.094117 -0.943702
0.317126 0.094117 -0.943702
0.000000 -0.000000 -1.000000
0.000000 0.000000 -1.000000
0.000000 0.000000 -1.000000
0.000000 0.000000 -1.000000
0.000000 0.000000 -1.000000
0.000000 0.000000 -1.000000
0.000000 0.000000 -1.000000
0.000000 0.000000 -1.000000
0.000000 0.000000 -1.000000
0.000000 0.000000 -1.000000
0.000000 -0.000000 -1.000000
0.000000 -0.000000 -1.000000
0.000000 -0.000000 -1.000000
0.000000 0.000000 -1.000000
0.000000 0.000000 -1.000000
0.000000 0.000000 -1.000000
0.000000 0.000000 -1.000000
-0.091852 -0.249664 -0.963966
0.000000 0.000000 -1.000000
0.000000 0.000000 -1.000000
-0.167822 -0.070536 -0.983291
-0.091852 -0.249664 -0.963966
0.000000 0.000000 -1.000000
-0.167822 -0.070536 -0.983291
0.000000 0.000000 -1.000000
0.000000 -0.000000 -1.000000
0.000000 -0.000000 -1.000000
-0.183130 0.059692 -0.981275
-0.167822 -0.070536 -0.983291
0.000000 0.000000 -1.000000
0.000000 0.000000 -1.000000
0.000000 0.000000 -1.000000
0.000000 0.000000 -1.000000
0.000000 0.000000 -1.000000
0.000000 0.000000 -1.000000
0.000000 0.000000 -1.000000
0.000000 0.000000 -1.000000
0.000000 -0.000000 -1.000000
0.000000 -0.000000 -1.000000
0.000000 -0.000000 -1.000000
0.000000 0.000000 -1.000000
0.000000 0.000000 -1.000000
0.000000 0.000000 -1.000000
-0.091852 -0.249664 -0.963966
-0.091852 -0.249664 -0.963966
0.125830 -0.278748 -0.952085
0.000000 0.000000 -1.000000
0.000000 0.000000 -1.000000
0.000000 0.000000 -1.000000
0.000000 0.000000 -1.000000
0.000000 0.000000 -1.000000
0.000000 0.000000 -1.000000
0.000000 0.000000 -1.000000
0.000000 0.000000 -1.000000
0.000000 0.000000 -1.000000
0.000000 -0.000000 -1.000000
0.000000 -0.000000 -1.000000
0.000000 -0.000000 -1.000000
0.000000 0.000000 -1.000000
0.000000 0.000000 -1.000000
0.000000 0.000000 -1.000000
0.000000 0.000000 -1.000000
0.075867 0.244209 -0.966750
0.000000 0.000000 -1.000000
0.000000 0.000000 -1.000000
0.182039 0.069134 -0.980858
0.075867 0.244209 -0.966750
0.000000 0.000000 -1.000000
0.182039 0.069134 -0.980858
0.000000 0.000000 -1.000000
0.000000 -0.000000 -1.000000
0.000000 -0.000000 -1.000000
0.170318 -0.047614 -0.984238
0.182039 0.069134 -0.980858
0.000000 0.000000 -1.000000
0.000000 0.000000 -1.000000
0.000000 0.000000 -1.000000
0.000000 0.000000 -1.000000
0.000000 0.000000 -1.000000
0.000000 0.000000 -1.000000
0.000000 0.000000 -1.000000
0.000000 0.000000 -1.000000
0.000000 -0.000000 -1.000000
0.000000 -0.000000 -1.000000
0.000000 -0.000000 -1.000000
0.000000 0.000000 -1.000000
0.000000 0.000000 -1.000000
0.000000 0.000000 -1.000000
0.075867 0.244209 -0.966750
0.075867 0.244209 -0.966750
-0.046167 0.240290 -0.969603
0.000000 0.000000 -1.000000
-0.481941 -0.516537 -0.707759
-0.462975 0.428788 -0.775755
-0.646145 0.688756 -0.328803
-0.646145 0.688756 -0.328803
-0.688171 -0.708501 -0.156356
-0.481941 -0.516537 -0.707759
-0.462975 0.428788 -0.775755
0.569662 0.532999 -0.625618
0.659642 0.692185 -0.292835
0.659642 0.692185 -0.292835
-0.646145 0.688756 -0.328803
-0.462975 0.428788 -0.775755
0.569662 0.532999 -0.625618
0.596530 -0.579179 -0.555611
0.652678 -0.729364 -0.205038
0.652678 -0.729364 -0.205038
0.659642 0.692185 -0.292835
0.569662 0.532999 -0.625618
0.596530 -0.579179 -0.555611
-0.481941 -0.516537 -0.707759
-0.688171 -0.708501 -0.156356
-0.688171 -0.708501 -0.156356
0.652678 -0.729364 -0.205038
0.596530 -0.579179 -0.555611
0.508257 0.548477 -0.663964
0.472846 -0.469026 -0.745943
0.710694 -0.696601 -0.098295
0.710694 -0.696601 -0.098295
0.696788 0.711235 -0.092904
0.508257 0.548477 -0.663964
0.472846 -0.469026 -0.745943
-0.450927 -0.432395 -0.780832
-0.651710 -0.709871 -0.267130
-0.651710 -0.709871 -0.267130
0.710694 -0.696601 -0.098295
0.472846 -0.469026 -0.745943
-0.450927 -0.432395 -0.780832
-0.480432 0.523607 -0.703577
-0.659630 0.721860 -0.209300
-0.659630 0.721860 -0.209300
-0.651710 -0.709871 -0.267130
-0.450927 -0.432395 -0.780832
-0.480432 0.523607 -0.703577
0.508257 0.548477 -0.663964
0.696788 0.711235 -0.092904
0.696788 0.711235 -0.092904
-0.659630 0.721860 -0.209300
-0.480432 0.523607 -0.703577
-0.091852 -0.249664 -0.963966
-0.167822 -0.070536 -0.983291
-0.481941 -0.516537 -0.707759
-0.183130 0.059692 -0.981275
-0.067003 0.185473 -0.980362
-0.462975 0.428788 -0.775755
0.125830 -0.278748 -0.952085
0.596530 -0.579179 -0.555611
0.346369 -0.102362 -0.932497
0.082748 0.239211 -0.967435
0.317126 0.094117 -0.943702
0.569662 0.532999 -0.625618
-0.481941 -0.516537 -0.707759
-0.167822 -0.070536 -0.983291
-0.183130 0.059692 -0.981275
-0.183130 0.059692 -0.981275
-0.462975 0.428788 -0.775755
-0.481941 -0.516537 -0.707759
0.569662 0.532999 -0.625618
0.317126 0.094117 -0.943702
0.346369 -0.102362 -0.932497
0.346369 -0.102362 -0.932497
0.596530 -0.579179 -0.555611
0.569662 0.532999 -0.625618
0.596530 -0.579179 -0.555611
0.125830 -0.278748 -0.952085
-0.091852 -0.249664 -0.963966
-0.091852 -0.249664 -0.963966
-0.481941 -0.516537 -0.707759
0.596530 -0.579179 -0.555611
-0.462975 0.428788 -0.775755
-0.067003 0.185473 -0.980362
0.082748 0.239211 -0.967435
0.082748 0.239211 -0.967435
0.569662 0.532999 -0.625618
-0.462975 0.428788 -0.775755
0.075867 0.244209 -0.966750
0.182039 0.069134 -0.980858
0.508257 0.548477 -0.663964
0.170318 -0.047614 -0.984238
0.056505 -0.143187 -0.988081
0.472846 -0.469026 -0.745943
-0.046167 0.240290 -0.969603
-0.480432 0.523607 -0.703577
-0.165521 0.070738 -0.983666
-0.201549 -0.042090 -0.978574
-0.450927 -0.432395 -0.780832
-0.066361 -0.136647 -0.988394
0.508257 0.548477 -0.663964
0.182039 0.069134 -0.980858
0.170318 -0.047614 -0.984238
0.170318 -0.047614 -0.984238
0.472846 -0.469026 -0.745943
0.508257 0.548477 -0.663964
-0.450927 -0.432395 -0.780832
-0.201549 -0.042090 -0.978574
-0.165521 0.070738 -0.983666
-0.165521 0.070738 -0.983666
-0.480432 0.523607 -0.703577
-0.450927 -0.432395 -0.780832
-0.480432 0.523607 -0.703577
-0.046167 0.240290 -0.969603
0.075867 0.244209 -0.966750
0.075867 0.244209 -0.966750
0.508257 0.548477 -0.663964
-0.480432 0.523607 -0.703577
0.472846 -0.469026 -0.745943
0.056505 -0.143187 -0.988081
-0.066361 -0.136647 -0.988394
-0.066361 -0.136647 -0.988394
-0.450927 -0.432395 -0.780832
0.472846 -0.469026 -0.745943
</float_array>
          <technique_common>
            <accessor source="#Box006-Normal0-array" count="282" stride="3">
              <param name="X" type="float"/>
              <param name="Y" type="float"/>
              <param name="Z" type="float"/>
            </accessor>
          </technique_common>
        </source>
        <source id="Box006-UV0">
          <float_array id="Box006-UV0-array" count="136">
0.299347 0.672840
0.275766 0.638694
0.269453 0.393950
0.705261 0.394911
0.723562 0.425473
0.738989 0.673268
0.000000 0.673268
0.000000 0.393950
0.161542 0.393950
0.149753 0.642583
0.126640 0.665886
1.000000 0.393951
1.000000 0.673268
0.849386 0.673268
0.853330 0.425751
0.879021 0.393951
0.269454 0.135755
0.269454 0.000000
0.738990 0.000000
0.737647 0.112704
0.274430 0.956366
0.707496 0.132246
0.738989 0.933547
0.738989 1.000000
0.262422 0.919704
0.269453 1.000000
0.295780 0.931100
0.000000 0.135755
0.000000 -0.000000
0.161542 -0.000000
0.161542 0.135755
0.132862 0.938365
0.159261 0.954011
0.161542 1.000000
0.236642 0.919577
0.246679 0.682441
0.156536 0.932778
0.151768 0.670285
0.187060 0.680904
0.191484 0.924438
0.273438 0.668947
0.267880 0.691293
0.167574 0.699899
0.169939 0.900187
0.258918 0.899140
0.850682 0.138692
0.849349 0.393039
0.814347 0.385308
0.817463 0.143668
0.731693 0.395761
0.741469 0.364712
0.844767 0.362261
0.733000 0.136572
0.766163 0.144026
0.766758 0.385630
0.845021 0.173682
0.741747 0.171822
0.000000 1.000000
0.000000 0.933547
1.000000 0.933547
1.000000 1.000000
0.849386 1.000000
0.849386 0.933547
0.875526 0.135755
0.852430 0.117114
0.849386 0.000000
1.000000 0.000000
1.000000 0.135755
</float_array>
          <technique_common>
            <accessor source="#Box006-UV0-array" count="68" stride="2">
              <param name="S" type="float"/>
              <param name="T" type="float"/>
            </accessor>
          </technique_common>
        </source>
        <vertices id="Box006-VERTEX">
          <input semantic="POSITION" source="#Box006-POSITION"/>
        </vertices>
        <triangles count="94" material="factory_facade">
          <input semantic="VERTEX" offset="0" source="#Box006-VERTEX"/>
          <input semantic="NORMAL" offset="1" source="#Box006-Normal0"/>
          <input semantic="TEXCOORD" offset="2" set="0" source="#Box006-UV0"/>
          <p> 26 0 2 33 1 3 59 2 4 26 3 2 59 4 4 34 5 5 25 6 1 26 7 2 34 8 5 50 9 0 25 10 1 34 11 5 22 12 8 46 13 9 21 14 10 18 15 7 22 16 8 21 17 10 17 18 6 18 19 7 21 20 10 22 21 8 26 22 2 25 23 1 25 24 1 46 25 9 22 26 8 30 27 13 54 28 14 29 29 15 14 30 12 30 31 13 29 32 15 13 33 11 14 34 12 29 35 15 30 36 13 34 37 5 59 38 4 59 39 4 54 40 14 30 41 13 10 42 18 32 43 19 57 44 21 9 45 17 10 46 18 57 47 21 27 48 16 9 49 17 57 50 21 27 51 16 57 52 21 33 53 3 33 54 3 26 55 2 27 56 16 6 57 25 24 58 20 49 59 26 5 60 23 6 61 25 49 62 26 35 63 22 5 64 23 49 65 26 35 66 22 49 67 26 50 68 0 50 69 0 34 70 5 35 71 22 1 72 28 8 73 29 23 74 30 23 75 30 19 76 27 1 77 28 19 78 27 23 79 30 22 80 8 22 81 8 18 82 7 19 83 27 7 84 33 3 85 57 16 86 58 20 87 32 7 88 33 16 89 58 44 90 31 20 91 32 16 92 58 44 93 31 16 94 58 17 95 6 17 96 6 21 97 10 44 98 31 8 99 29 9 100 17 27 101 16 27 102 16 23 103 30 8 104 29 23 105 30 27 106 16 26 107 2 26 108 2 22 109 8 23 110 30 6 111 25 7 112 33 20 113 32 20 114 32 24 115 20 6 116 25 2 117 60 4 118 61 31 119 62 31 120 62 15 121 59 2 122 60 15 123 59 31 124 62 30 125 13 30 126 13 14 127 12 15 128 59 11 129 65 0 130 66 12 131 67 28 132 64 11 133 65 12 134 67 52 135 63 28 136 64 12 137 67 52 138 63 12 139 67 13 140 11 13 141 11 29 142 15 52 143 63 4 144 61 5 145 23 35 146 22 35 147 22 31 148 62 4 149 61 31 150 62 35 151 22 34 152 5 34 153 5 30 154 13 31 155 62 10 156 18 11 157 65 28 158 64 28 159 64 32 160 19 10 161 18 45 162 36 47 163 37 37 164 38 37 165 38 36 166 39 45 167 36 47 168 37 51 169 40 38 170 41 38 171 41 37 172 42 47 173 37 51 174 40 48 175 24 39 176 34 39 177 34 38 178 35 51 179 40 48 180 24 45 181 36 36 182 43 36 183 43 39 184 44 48 185 24 53 186 45 55 187 46 41 188 47 41 189 47 40 190 48 53 191 45 55 192 46 58 193 49 42 194 50 42 195 50 41 196 51 55 197 46 58 198 49 56 199 52 43 200 53 43 201 53 42 202 54 58 203 49 56 204 52 53 205 45 40 206 55 40 207 55 43 208 56 56 209 52 20 210 32 44 211 31 45 212 36 21 213 10 46 214 9 47 215 37 24 216 20 48 217 24 49 218 26 25 219 1 50 220 0 51 221 40 45 222 36 44 223 31 21 224 10 21 225 10 47 226 37 45 227 36 51 228 40 50 229 0 49 230 26 49 231 26 48 232 24 51 233 40 48 234 24 24 235 20 20 236 32 20 237 32 45 238 36 48 239 24 47 240 37 46 241 9 25 242 1 25 243 1 51 244 40 47 245 37 28 246 64 52 247 63 53 248 45 29 249 15 54 250 14 55 251 46 32 252 19 56 253 52 57 254 21 33 255 3 58 256 49 59 257 4 53 258 45 52 259 63 29 260 15 29 261 15 55 262 46 53 263 45 58 264 49 33 265 3 57 266 21 57 267 21 56 268 52 58 269 49 56 270 52 32 271 19 28 272 64 28 273 64 53 274 45 56 275 52 55 276 46 54 277 14 59 278 4 59 279 4 58 280 49 55 281 46</p>
        </triangles>
      </mesh>
    </geometry>
    <geometry id="Object005-lib" name="Object005Mesh">
      <mesh>
        <source id="Object005-POSITION">
          <float_array id="Object005-POSITION-array" count="24">
1.353831 3.734187 0.200000
1.353831 2.693071 0.200000
0.922186 2.693071 0.200000
0.922186 3.734187 0.200000
-1.397544 0.543020 0.200000
-1.397544 1.575802 0.200000
-0.955958 1.575802 0.200000
-0.955958 0.543020 0.200000
</float_array>
          <technique_common>
            <accessor source="#Object005-POSITION-array" count="8" stride="3">
              <param name="X" type="float"/>
              <param name="Y" type="float"/>
              <param name="Z" type="float"/>
            </accessor>
          </technique_common>
        </source>
        <source id="Object005-Normal0">
          <float_array id="Object005-Normal0-array" count="36">
0.000000 -0.000000 -1.000000
0.000000 -0.000000 -1.000000
0.000000 -0.000000 -1.000000
0.000000 -0.000000 -1.000000
0.000000 -0.000000 -1.000000
0.000000 -0.000000 -1.000000
0.000000 -0.000000 -1.000000
0.000000 -0.000000 -1.000000
0.000000 -0.000000 -1.000000
0.000000 -0.000000 -1.000000
0.000000 -0.000000 -1.000000
0.000000 -0.000000 -1.000000
</float_array>
          <technique_common>
            <accessor source="#Object005-Normal0-array" count="12" stride="3">
              <param name="X" type="float"/>
              <param name="Y" type="float"/>
              <param name="Z" type="float"/>
            </accessor>
          </technique_common>
        </source>
        <source id="Object005-UV0">
          <float_array id="Object005-UV0-array" count="16">
0.161542 0.933547
0.161542 0.673268
0.269453 0.673268
0.269453 0.933547
0.849386 0.135755
0.849386 0.393950
0.738989 0.393950
0.738989 0.135755
</float_array>
          <technique_common>
            <accessor source="#Object005-UV0-array" count="8" stride="2">
              <param name="S" type="float"/>
              <param name="T" type="float"/>
            </accessor>
          </technique_common>
        </source>
        <vertices id="Object005-VERTEX">
          <input semantic="POSITION" source="#Object005-POSITION"/>
        </vertices>
        <triangles count="4" material="factory_facade_03">
          <input semantic="VERTEX" offset="0" source="#Object005-VERTEX"/>
          <input semantic="NORMAL" offset="1" source="#Object005-Normal0"/>
          <input semantic="TEXCOORD" offset="2" set="0" source="#Object005-UV0"/>
          <p> 3 0 3 0 1 0 1 2 1 1 3 1 2 4 2 3 5 3 7 6 7 4 7 4 5 8 5 5 9 5 6 10 6 7 11 7</p>
        </triangles>
      </mesh>
    </geometry>
  </library_geometries>
  <library_visual_scenes>
    <visual_scene id="" name="">
      <node name="Box006" id="Box006" layer="factory_facade_03" sid="Box006">
        <matrix sid="matrix">-1.000000 0.000000 0.000000 0.000000 0.000000 1.000000 -0.000000 0.000000 -0.000000 -0.000000 -1.000000 0.000000 0.000000 0.000000 0.000000 1.000000</matrix>
        <instance_geometry url="#Box006-lib">
          <bind_material>
            <technique_common>
              <instance_material symbol="factory_facade" target="#factory_facade"/>
            </technique_common>
          </bind_material>
        </instance_geometry>
        <extra>
          <technique profile="FCOLLADA">
            <visibility>1.000000</visibility>
          </technique>
        </extra>
      </node>
      <node name="Object005" id="Object005" layer="factory_facade_03" sid="Object005">
        <matrix sid="matrix">-1.000000 0.000000 0.000000 0.000000 0.000000 1.000000 -0.000000 0.000000 -0.000000 -0.000000 -1.000000 0.000000 0.000000 0.000000 0.000000 1.000000</matrix>
        <instance_geometry url="#Object005-lib">
          <bind_material>
            <technique_common>
              <instance_material symbol="factory_facade_03" target="#factory_facade_03"/>
            </technique_common>
          </bind_material>
        </instance_geometry>
        <extra>
          <technique profile="FCOLLADA">
            <visibility>1.000000</visibility>
          </technique>
        </extra>
      </node>
      <extra>
        <technique profile="MAX3D">
          <frame_rate>30.000000</frame_rate>
        </technique>
        <technique profile="FCOLLADA">
          <start_time>0.000000</start_time>
          <end_time>3.333333</end_time>
        </technique>
      </extra>
    </visual_scene>
  </library_visual_scenes>
  <scene>
    <instance_visual_scene url="#"></instance_visual_scene>
  </scene>
</COLLADA>

