<?xml version="1.0" encoding="utf-8"?>
<COLLADA xmlns="http://www.collada.org/2005/11/COLLADASchema" version="1.4.1">
  <asset>
    <contributor>
      <author></author>
      <authoring_tool>FBX COLLADA exporter</authoring_tool>
      <comments></comments>
    </contributor>
    <created>2012-02-29T10:53:17Z</created>
    <keywords></keywords>
    <modified>2012-02-29T10:53:17Z</modified>
    <revision></revision>
    <subject></subject>
    <title></title>
    <unit meter="1.000000" name="centimeter"></unit>
    <up_axis>Y_UP</up_axis>
  </asset>
  <library_images>
    <image id="Map #2-image" name="Map #2">
      <init_from>file://C:\Users\WesleyTack\Desktop\amnesia_raw\StaticObjects\factorybase\factory_facade_01.jpg</init_from>
    </image>
  </library_images>
  <library_materials>
    <material id="factory_facade_01" name="factory_facade_01">
      <instance_effect url="#factory_facade_01-fx"/>
    </material>
  </library_materials>
  <library_effects>
    <effect id="factory_facade_01-fx" name="factory_facade_01">
      <profile_COMMON>
        <technique sid="standard">
          <phong>
            <emission>
              <color sid="emission">0.000000  0.000000 0.000000 1.000000</color>
            </emission>
            <ambient>
              <color sid="ambient">0.588235  0.588235 0.588235 1.000000</color>
            </ambient>
            <diffuse>
              <texture texture="Map #2-image" texcoord="CHANNEL0">
                <extra>
                  <technique profile="MAYA">
                    <wrapU sid="wrapU0">TRUE</wrapU>
                    <wrapV sid="wrapV0">TRUE</wrapV>
                    <blend_mode>ADD</blend_mode>
                  </technique>
                </extra>
              </texture>
            </diffuse>
            <specular>
              <color sid="specular">0.000000  0.000000 0.000000 1.000000</color>
            </specular>
            <shininess>
              <float sid="shininess">2.000000</float>
            </shininess>
            <reflective>
              <color sid="reflective">0.000000  0.000000 0.000000 1.000000</color>
            </reflective>
            <reflectivity>
              <float sid="reflectivity">1.000000</float>
            </reflectivity>
            <transparent opaque="RGB_ZERO">
              <color sid="transparent">1.000000  1.000000 1.000000 1.000000</color>
            </transparent>
            <transparency>
              <float sid="transparency">0.000000</float>
            </transparency>
          </phong>
        </technique>
      </profile_COMMON>
    </effect>
  </library_effects>
  <library_geometries>
    <geometry id="Box083-lib" name="Box083Mesh">
      <mesh>
        <source id="Box083-POSITION">
          <float_array id="Box083-POSITION-array" count="96">
-0.774451 0.200000 0.412398
0.683093 0.200000 0.412398
0.683093 0.200000 2.188959
-0.774451 0.200000 2.188960
-0.774451 0.283705 0.412398
0.683093 0.283705 0.412398
0.683093 0.283705 2.188959
-0.774451 0.283706 2.188960
-0.786230 0.303349 1.869336
-0.797551 0.283732 1.869678
-0.786230 0.264115 1.869336
-0.763589 0.264115 1.868652
-0.752268 0.283732 1.868310
-0.763589 0.303349 1.868652
-0.783579 0.303349 2.041702
-0.794900 0.283732 2.042044
-0.783579 0.264115 2.041702
-0.760938 0.264115 2.041018
-0.749618 0.283732 2.040676
-0.760938 0.303349 2.041018
-0.786230 0.303349 0.568524
-0.797551 0.283732 0.568866
-0.786230 0.264115 0.568524
-0.763589 0.264115 0.567840
-0.752268 0.283732 0.567498
-0.763589 0.303349 0.567840
-0.783579 0.303349 0.740890
-0.794900 0.283732 0.741232
-0.783579 0.264115 0.740890
-0.760938 0.264115 0.740206
-0.749618 0.283732 0.739864
-0.760938 0.303349 0.740206
</float_array>
          <technique_common>
            <accessor source="#Box083-POSITION-array" count="32" stride="3">
              <param name="X" type="float"/>
              <param name="Y" type="float"/>
              <param name="Z" type="float"/>
            </accessor>
          </technique_common>
        </source>
        <source id="Box083-Normal0">
          <float_array id="Box083-Normal0-array" count="468">
-0.000000 -1.000000 0.000000
-0.000000 -1.000000 0.000000
-0.000000 -1.000000 0.000000
-0.000000 -1.000000 0.000000
-0.000000 -1.000000 0.000000
-0.000000 -1.000000 0.000000
-0.000000 0.000000 -1.000000
-0.000000 0.000000 -1.000000
-0.000000 0.000000 -1.000000
-0.000000 0.000000 -1.000000
-0.000000 0.000000 -1.000000
-0.000000 0.000000 -1.000000
0.000000 0.000000 1.000000
0.000000 0.000000 1.000000
0.000000 0.000000 1.000000
0.000000 0.000000 1.000000
0.000000 0.000000 1.000000
0.000000 0.000000 1.000000
1.000000 0.000000 -0.000000
1.000000 0.000000 -0.000000
1.000000 0.000000 -0.000000
1.000000 0.000000 -0.000000
1.000000 0.000000 -0.000000
1.000000 0.000000 -0.000000
-1.000000 0.000000 0.000000
-1.000000 0.000000 0.000000
-1.000000 0.000000 0.000000
-1.000000 0.000000 0.000000
-1.000000 0.000000 0.000000
-1.000000 0.000000 0.000000
0.000000 1.000000 -0.000000
0.000000 1.000000 -0.000000
0.000000 1.000000 -0.000000
0.000000 1.000000 -0.000000
0.000000 1.000000 -0.000000
0.000000 1.000000 -0.000000
-0.496427 0.868045 0.007634
-0.999882 -0.000000 0.015375
-0.999882 0.000000 0.015375
-0.999882 0.000000 0.015375
-0.503502 0.863959 0.007742
-0.496427 0.868045 0.007634
-0.999882 -0.000000 0.015375
-0.496427 -0.868045 0.007634
-0.503502 -0.863959 0.007742
-0.503502 -0.863959 0.007742
-0.999882 0.000000 0.015375
-0.999882 -0.000000 0.015375
-0.496427 -0.868045 0.007634
0.503500 -0.863960 -0.007742
0.496429 -0.868044 -0.007634
0.496429 -0.868044 -0.007634
-0.503502 -0.863959 0.007742
-0.496427 -0.868045 0.007634
0.503500 -0.863960 -0.007742
0.999882 -0.000000 -0.015376
0.999882 -0.000000 -0.015376
0.999882 -0.000000 -0.015376
0.496429 -0.868044 -0.007634
0.503500 -0.863960 -0.007742
0.999882 -0.000000 -0.015376
0.503500 0.863961 -0.007743
0.496429 0.868044 -0.007634
0.496429 0.868044 -0.007634
0.999882 -0.000000 -0.015376
0.999882 -0.000000 -0.015376
0.503500 0.863961 -0.007743
-0.496427 0.868045 0.007634
-0.503502 0.863959 0.007742
-0.503502 0.863959 0.007742
0.496429 0.868044 -0.007634
0.503500 0.863961 -0.007743
-0.030193 0.000003 -0.999544
-0.030193 0.000003 -0.999544
-0.030193 0.000003 -0.999544
-0.030198 0.000000 -0.999544
-0.030198 0.000000 -0.999544
-0.030198 0.000000 -0.999544
-0.030191 0.000000 -0.999544
-0.030191 0.000000 -0.999544
-0.030191 0.000000 -0.999544
-0.030193 -0.000003 -0.999544
-0.030193 -0.000003 -0.999544
-0.030193 -0.000003 -0.999544
0.030187 0.000000 0.999544
0.030187 0.000000 0.999544
0.030187 0.000000 0.999544
0.030187 0.000000 0.999544
0.030187 0.000000 0.999544
0.030187 0.000000 0.999544
0.030187 0.000000 0.999544
0.030187 0.000000 0.999544
0.030187 0.000000 0.999544
0.030187 0.000000 0.999544
0.030187 0.000000 0.999544
0.030187 0.000000 0.999544
-0.496428 0.868044 0.007634
-0.999882 -0.000000 0.015375
-0.999882 0.000000 0.015375
-0.999882 0.000000 0.015375
-0.503503 0.863959 0.007742
-0.496428 0.868044 0.007634
-0.999882 -0.000000 0.015375
-0.496428 -0.868044 0.007634
-0.503503 -0.863959 0.007742
-0.503503 -0.863959 0.007742
-0.999882 0.000000 0.015375
-0.999882 -0.000000 0.015375
-0.496428 -0.868044 0.007634
0.503500 -0.863960 -0.007742
0.496428 -0.868044 -0.007634
0.496428 -0.868044 -0.007634
-0.503503 -0.863959 0.007742
-0.496428 -0.868044 0.007634
0.503500 -0.863960 -0.007742
0.999882 -0.000000 -0.015376
0.999882 -0.000000 -0.015376
0.999882 -0.000000 -0.015376
0.496428 -0.868044 -0.007634
0.503500 -0.863960 -0.007742
0.999882 -0.000000 -0.015376
0.503500 0.863961 -0.007743
0.496428 0.868044 -0.007634
0.496428 0.868044 -0.007634
0.999882 -0.000000 -0.015376
0.999882 -0.000000 -0.015376
0.503500 0.863961 -0.007743
-0.496428 0.868044 0.007634
-0.503503 0.863959 0.007742
-0.503503 0.863959 0.007742
0.496428 0.868044 -0.007634
0.503500 0.863961 -0.007743
-0.030187 -0.000006 -0.999544
-0.030187 -0.000006 -0.999544
-0.030187 -0.000006 -0.999544
-0.030198 0.000000 -0.999544
-0.030198 0.000000 -0.999544
-0.030198 0.000000 -0.999544
-0.030191 0.000000 -0.999544
-0.030191 0.000000 -0.999544
-0.030191 0.000000 -0.999544
-0.030187 0.000006 -0.999544
-0.030187 0.000006 -0.999544
-0.030187 0.000006 -0.999544
0.030187 -0.000006 0.999544
0.030187 -0.000006 0.999544
0.030187 -0.000006 0.999544
0.030198 0.000000 0.999544
0.030198 0.000000 0.999544
0.030198 0.000000 0.999544
0.030191 0.000000 0.999544
0.030191 0.000000 0.999544
0.030191 0.000000 0.999544
0.030187 0.000006 0.999544
0.030187 0.000006 0.999544
0.030187 0.000006 0.999544
</float_array>
          <technique_common>
            <accessor source="#Box083-Normal0-array" count="156" stride="3">
              <param name="X" type="float"/>
              <param name="Y" type="float"/>
              <param name="Z" type="float"/>
            </accessor>
          </technique_common>
        </source>
        <source id="Box083-UV0">
          <float_array id="Box083-UV0-array" count="152">
0.306409 0.103425
0.671235 0.103425
0.672772 0.683085
0.672772 0.263312
0.692550 0.263312
0.692550 0.683085
0.671235 0.548468
0.306409 0.548468
0.306409 0.103425
0.671235 0.103425
0.671235 0.548468
0.306409 0.548468
0.672894 0.669446
0.672894 0.249673
0.692672 0.249673
0.692672 0.669446
0.673051 0.620143
0.673051 0.275748
0.692829 0.275748
0.692829 0.620143
0.672929 0.632178
0.672929 0.287783
0.692707 0.287783
0.692707 0.632178
0.649870 0.406321
0.649870 0.424674
0.649870 0.420683
0.649870 0.417226
0.649870 0.413770
0.649870 0.409778
0.649870 0.402865
0.693916 0.417226
0.693916 0.420683
0.693916 0.409778
0.693916 0.413770
0.693916 0.424674
0.608778 0.104121
0.619040 0.104121
0.624170 0.113008
0.619040 0.121894
0.608778 0.121894
0.603648 0.113008
0.603742 0.113144
0.608873 0.104257
0.619134 0.104257
0.624265 0.113144
0.619134 0.122030
0.608873 0.122030
0.693916 0.402865
0.693916 0.406321
0.649870 0.406321
0.649870 0.424674
0.649870 0.420683
0.649870 0.417226
0.649870 0.413770
0.649870 0.409778
0.649870 0.402865
0.693916 0.417226
0.693916 0.420683
0.693916 0.409778
0.693916 0.413770
0.693916 0.424674
0.608778 0.104121
0.619040 0.104121
0.624170 0.113008
0.619040 0.121894
0.608778 0.121894
0.603648 0.113008
0.603742 0.113144
0.608873 0.104257
0.619134 0.104257
0.624265 0.113144
0.619134 0.122030
0.608873 0.122030
0.693916 0.402865
0.693916 0.406321
</float_array>
          <technique_common>
            <accessor source="#Box083-UV0-array" count="76" stride="2">
              <param name="S" type="float"/>
              <param name="T" type="float"/>
            </accessor>
          </technique_common>
        </source>
        <vertices id="Box083-VERTEX">
          <input semantic="POSITION" source="#Box083-POSITION"/>
        </vertices>
        <triangles count="52" material="factory_facade_01">
          <input semantic="VERTEX" offset="0" source="#Box083-VERTEX"/>
          <input semantic="NORMAL" offset="1" source="#Box083-Normal0"/>
          <input semantic="TEXCOORD" offset="2" set="0" source="#Box083-UV0"/>
          <p> 0 0 0 1 1 1 2 2 6 2 3 6 3 4 7 0 5 0 1 6 20 0 7 21 4 8 22 4 9 22 5 10 23 1 11 20 3 12 16 2 13 17 6 14 18 6 15 18 7 16 19 3 17 16 2 18 12 1 19 13 5 20 14 5 21 14 6 22 15 2 23 12 0 24 2 3 25 3 7 26 4 7 27 4 4 28 5 0 29 2 7 30 11 6 31 10 5 32 9 5 33 9 4 34 8 7 35 11 8 36 24 9 37 30 15 38 48 15 39 48 14 40 49 8 41 24 9 42 25 10 43 26 16 44 32 16 45 32 15 46 35 9 47 25 10 48 26 11 49 27 17 50 31 17 51 31 16 52 32 10 53 26 11 54 27 12 55 28 18 56 34 18 57 34 17 58 31 11 59 27 12 60 28 13 61 29 19 62 33 19 63 33 18 64 34 12 65 28 13 66 29 8 67 24 14 68 49 14 69 49 19 70 33 13 71 29 12 72 37 11 73 38 10 74 39 10 75 39 9 76 40 8 77 41 12 78 37 10 79 39 8 80 41 13 81 36 12 82 37 8 83 41 15 84 43 16 85 44 17 86 45 17 87 45 18 88 46 19 89 47 15 90 43 17 91 45 19 92 47 14 93 42 15 94 43 19 95 47 20 96 50 21 97 56 27 98 74 27 99 74 26 100 75 20 101 50 21 102 51 22 103 52 28 104 58 28 105 58 27 106 61 21 107 51 22 108 52 23 109 53 29 110 57 29 111 57 28 112 58 22 113 52 23 114 53 24 115 54 30 116 60 30 117 60 29 118 57 23 119 53 24 120 54 25 121 55 31 122 59 31 123 59 30 124 60 24 125 54 25 126 55 20 127 50 26 128 75 26 129 75 31 130 59 25 131 55 24 132 63 23 133 64 22 134 65 22 135 65 21 136 66 20 137 67 24 138 63 22 139 65 20 140 67 25 141 62 24 142 63 20 143 67 27 144 69 28 145 70 29 146 71 29 147 71 30 148 72 31 149 73 27 150 69 29 151 71 31 152 73 26 153 68 27 154 69 31 155 73</p>
        </triangles>
      </mesh>
    </geometry>
  </library_geometries>
  <library_visual_scenes>
    <visual_scene id="" name="">
      <node name="Box083" id="Box083" layer="factory_facade_01_open_window_01" sid="Box083">
        <matrix sid="matrix">1.000000 0.000000 0.000000 0.000000 0.000000 0.000000 1.000000 0.000000 0.000000 -1.000000 0.000000 0.000000 0.000000 0.000000 0.000000 1.000000</matrix>
        <instance_geometry url="#Box083-lib">
          <bind_material>
            <technique_common>
              <instance_material symbol="factory_facade_01" target="#factory_facade_01"/>
            </technique_common>
          </bind_material>
        </instance_geometry>
        <extra>
          <technique profile="FCOLLADA">
            <visibility>1.000000</visibility>
          </technique>
        </extra>
      </node>
      <extra>
        <technique profile="MAX3D">
          <frame_rate>30.000000</frame_rate>
        </technique>
        <technique profile="FCOLLADA">
          <start_time>0.000000</start_time>
          <end_time>3.333333</end_time>
        </technique>
      </extra>
    </visual_scene>
  </library_visual_scenes>
  <scene>
    <instance_visual_scene url="#"></instance_visual_scene>
  </scene>
</COLLADA>

