﻿<?xml version="1.0" encoding="utf-8"?>
<COLLADA xmlns="http://www.collada.org/2005/11/COLLADASchema" version="1.4.1">
  <asset>
    <contributor>
      <author>
      </author>
      <authoring_tool>FBX COLLADA exporter</authoring_tool>
      <comments>
      </comments>
    </contributor>
    <created>2012-04-14T13:22:38Z</created>
    <keywords>
    </keywords>
    <modified>2012-04-14T13:22:38Z</modified>
    <revision>
    </revision>
    <subject>
    </subject>
    <title>
    </title>
    <unit meter="1.000000" name="centimeter">
    </unit>
    <up_axis>Y_UP</up_axis>
  </asset>
  <library_images>
    <image id="Map #1-image" name="Map #1">
      <init_from>file://C:\Users\WesleyTack\Desktop\amnesia_raw\StaticObjects\factorybase\factory_facade.psd</init_from>
    </image>
    <image id="Map #11-image" name="Map #11">
      <init_from>file://C:\Users\WesleyTack\Desktop\amnesia_raw\StaticObjects\factorybase\factory_corridor.jpg</init_from>
    </image>
  </library_images>
  <library_materials>
    <material id="factory_facade" name="factory_facade">
      <instance_effect url="#factory_facade-fx" />
    </material>
    <material id="factory_corridor" name="factory_corridor">
      <instance_effect url="#factory_corridor-fx" />
    </material>
  </library_materials>
  <library_effects>
    <effect id="factory_facade-fx" name="factory_facade">
      <profile_COMMON>
        <technique sid="standard">
          <phong>
            <emission>
              <color sid="emission">0.000000  0.000000 0.000000 1.000000</color>
            </emission>
            <ambient>
              <color sid="ambient">0.588235  0.588235 0.588235 1.000000</color>
            </ambient>
            <diffuse>
              <texture texture="Map #1-image" texcoord="CHANNEL0">
                <extra>
                  <technique profile="MAYA">
                    <wrapU sid="wrapU0">TRUE</wrapU>
                    <wrapV sid="wrapV0">TRUE</wrapV>
                    <blend_mode>ADD</blend_mode>
                  </technique>
                </extra>
              </texture>
              <texture texture="Map #1-image" texcoord="CHANNEL0">
                <extra>
                  <technique profile="MAYA">
                    <wrapU sid="wrapU0">TRUE</wrapU>
                    <wrapV sid="wrapV0">TRUE</wrapV>
                    <blend_mode>ADD</blend_mode>
                  </technique>
                </extra>
              </texture>
            </diffuse>
            <specular>
              <color sid="specular">0.000000  0.000000 0.000000 1.000000</color>
            </specular>
            <shininess>
              <float sid="shininess">2.000000</float>
            </shininess>
            <reflective>
              <color sid="reflective">0.000000  0.000000 0.000000 1.000000</color>
            </reflective>
            <reflectivity>
              <float sid="reflectivity">1.000000</float>
            </reflectivity>
            <transparent opaque="RGB_ZERO">
              <color sid="transparent">1.000000  1.000000 1.000000 1.000000</color>
            </transparent>
            <transparency>
              <float sid="transparency">0.000000</float>
            </transparency>
          </phong>
        </technique>
      </profile_COMMON>
    </effect>
    <effect id="factory_corridor-fx" name="factory_corridor">
      <profile_COMMON>
        <technique sid="standard">
          <phong>
            <emission>
              <color sid="emission">0.000000  0.000000 0.000000 1.000000</color>
            </emission>
            <ambient>
              <color sid="ambient">0.588235  0.588235 0.588235 1.000000</color>
            </ambient>
            <diffuse>
              <texture texture="Map #11-image" texcoord="CHANNEL0">
                <extra>
                  <technique profile="MAYA">
                    <wrapU sid="wrapU0">TRUE</wrapU>
                    <wrapV sid="wrapV0">TRUE</wrapV>
                    <blend_mode>ADD</blend_mode>
                  </technique>
                </extra>
              </texture>
            </diffuse>
            <specular>
              <color sid="specular">0.000000  0.000000 0.000000 1.000000</color>
            </specular>
            <shininess>
              <float sid="shininess">2.000000</float>
            </shininess>
            <reflective>
              <color sid="reflective">0.000000  0.000000 0.000000 1.000000</color>
            </reflective>
            <reflectivity>
              <float sid="reflectivity">1.000000</float>
            </reflectivity>
            <transparent opaque="RGB_ZERO">
              <color sid="transparent">1.000000  1.000000 1.000000 1.000000</color>
            </transparent>
            <transparency>
              <float sid="transparency">0.000000</float>
            </transparency>
          </phong>
        </technique>
      </profile_COMMON>
    </effect>
  </library_effects>
  <library_geometries>
    <geometry id="Object090-lib" name="Object090Mesh">
      <mesh>
        <source id="Object090-POSITION">
          <float_array id="Object090-POSITION-array" count="207">
2.000000 -0.000013 4.000000
-2.000024 -0.000011 4.000000
1.035940 -0.000012 4.000000
-1.116308 -0.000012 4.000000
2.000000 -0.000013 0.000000
2.000000 -0.000013 3.196306
-2.000024 -0.000011 3.196306
-2.000024 -0.000012 0.000000
-2.000024 -0.000011 2.500329
-2.000024 -0.000011 1.804352
-2.000024 -0.000011 1.108375
-0.966991 -0.000012 2.500329
-0.951122 -0.000012 1.804352
-0.898796 0.047452 1.108375
2.000000 -0.000013 1.108375
2.000000 -0.000013 1.804352
2.000000 -0.000013 2.500329
0.923520 -0.000012 1.108375
0.976621 -0.000012 1.804352
0.858345 0.048615 2.500329
0.927426 -0.000013 0.000000
0.864102 0.048179 0.000000
0.855942 0.049988 3.219987
0.928434 -0.000012 3.299584
0.840761 0.049608 1.108375
0.863912 0.048195 1.804352
0.942807 -0.000012 2.500329
-0.886006 -0.000012 3.262994
-0.828368 0.049988 3.204851
-0.854301 0.048812 0.000000
-0.915081 -0.000012 0.000000
-0.866158 0.049494 2.500329
-0.854195 0.049494 1.804352
-1.020306 -0.000012 1.108375
0.910993 -0.000012 3.170243
-0.906506 -0.000012 3.146775
-0.821639 0.250019 3.196306
-0.821639 0.250018 0.000000
0.821411 0.250018 0.000000
0.821411 0.250019 3.196306
-0.821639 0.250019 2.500329
-0.821639 0.250019 1.804352
-0.821639 0.250019 1.108375
0.821411 0.250018 1.108375
0.821411 0.250019 1.804352
0.821411 0.250019 2.500329
  1.035940 -0.000012 4.000000 -1.116308 -0.000012 4.000000 0.546764 0.049988 3.288302 0.278822 -0.000012 3.418193 -0.000492 -0.000012 3.442783 -0.279805 -0.000012 3.439219 -0.557885 -0.000012 3.379336 0.856006 0.049988 3.219987 0.928529 -0.000012 3.299584 -0.886094 -0.000012 3.262994 -0.828456 0.049988 3.204851 0.556902 -0.000012 3.376498 0.273136 0.049988 3.350213 -0.000492 0.049988 3.364094 -0.274120 0.049988 3.363351 -0.547748 0.049988 3.291079 -0.821727 0.250009 3.196306 0.821476 0.250009 3.196306 0.546047 0.250009 3.272525 0.272419 0.250009 3.321435 -0.001209 0.250009 3.335285 -0.274837 0.250009 3.321435 -0.548465 0.250009 3.272525 </float_array>
          <technique_common>
            <accessor source="#Object090-POSITION-array" count="69" stride="3">
              <param name="X" type="float" />
              <param name="Y" type="float" />
              <param name="Z" type="float" />
            </accessor>
          </technique_common>
        </source>
        <source id="Object090-Normal0">
          <float_array id="Object090-Normal0-array" count="783">
-0.000000 -1.000000 0.000000
0.242037 -0.970213 -0.010194
0.221033 -0.975260 -0.003644
0.221033 -0.975260 -0.003644
-0.000000 -1.000000 0.000000
-0.000000 -1.000000 0.000000
-0.000000 -1.000000 0.000000
-0.195923 -0.980618 -0.001381
-0.274223 -0.961631 0.008173
-0.274223 -0.961631 0.008173
-0.000000 -1.000000 0.000000
-0.000000 -1.000000 0.000000
-0.000000 -1.000000 0.000000
-0.364763 -0.930983 0.014775
-0.255114 -0.966883 -0.007337
-0.255114 -0.966883 -0.007337
-0.000000 -1.000000 0.000000
-0.000000 -1.000000 0.000000
0.787474 -0.616345 -0.001815
0.977321 -0.211653 0.006875
0.996701 -0.068109 -0.044131
0.996701 -0.068109 -0.044131
0.831129 -0.550799 -0.076454
0.787474 -0.616345 -0.001815
-0.843987 -0.536128 0.015910
-0.994251 -0.106228 0.013452
-0.980767 -0.194351 -0.018020
-0.980767 -0.194351 -0.018020
-0.841749 -0.539732 -0.012150
-0.843987 -0.536128 0.015910
-0.000000 -1.000000 0.000000
0.339113 -0.940643 0.013909
0.176427 -0.984310 0.002751
0.176427 -0.984310 0.002751
-0.000000 -1.000000 0.000000
-0.000000 -1.000000 0.000000
-0.000000 -1.000000 0.000000
0.176427 -0.984310 0.002751
0.242037 -0.970213 -0.010194
0.242037 -0.970213 -0.010194
-0.000000 -1.000000 0.000000
-0.000000 -1.000000 0.000000
-0.000000 -1.000000 0.000000
0.174612 -0.984155 -0.030801
-0.000000 -1.000000 0.000000
-0.000000 -1.000000 0.000000
-0.000000 -1.000000 0.000000
-0.000000 -1.000000 0.000000
-0.000000 -1.000000 0.000000
-0.255114 -0.966883 -0.007337
-0.195923 -0.980618 -0.001381
-0.195923 -0.980618 -0.001381
-0.000000 -1.000000 0.000000
-0.000000 -1.000000 0.000000
-0.318912 -0.947784 -0.001124
-0.000000 -1.000000 0.000000
-0.000000 -1.000000 0.000000
-0.000000 -1.000000 0.000000
-0.274223 -0.961631 0.008173
-0.318912 -0.947784 -0.001124
-0.824720 -0.564679 0.031225
-0.985425 -0.170111 0.000000
-0.983761 -0.179479 -0.001213
-0.983761 -0.179479 -0.001213
-0.818419 -0.574563 -0.008246
-0.824720 -0.564679 0.031225
-0.818419 -0.574563 -0.008246
-0.983761 -0.179479 -0.001213
-0.979022 -0.203731 -0.003150
-0.979022 -0.203731 -0.003150
-0.775273 -0.631622 -0.002300
-0.818419 -0.574563 -0.008246
-0.775273 -0.631622 -0.002300
-0.979022 -0.203731 -0.003150
-0.994251 -0.106228 0.013452
-0.994251 -0.106228 0.013452
-0.843987 -0.536128 0.015910
-0.775273 -0.631622 -0.002300
-0.841749 -0.539732 -0.012150
-0.318912 -0.947784 -0.001124
-0.274223 -0.961631 0.008173
-0.274223 -0.961631 0.008173
-0.843987 -0.536128 0.015910
-0.841749 -0.539732 -0.012150
-0.843987 -0.536128 0.015910
-0.274223 -0.961631 0.008173
-0.195923 -0.980618 -0.001381
-0.195923 -0.980618 -0.001381
-0.775273 -0.631622 -0.002300
-0.843987 -0.536128 0.015910
-0.775273 -0.631622 -0.002300
-0.195923 -0.980618 -0.001381
-0.255114 -0.966883 -0.007337
-0.255114 -0.966883 -0.007337
-0.818419 -0.574563 -0.008246
-0.775273 -0.631622 -0.002300
-0.818419 -0.574563 -0.008246
-0.255114 -0.966883 -0.007337
-0.364763 -0.930983 0.014775
-0.364763 -0.930983 0.014775
-0.824720 -0.564679 0.031225
-0.818419 -0.574563 -0.008246
0.808809 -0.587481 -0.026328
0.983465 -0.179302 -0.025442
0.977321 -0.211653 0.006875
0.977321 -0.211653 0.006875
0.787474 -0.616345 -0.001815
0.808809 -0.587481 -0.026328
0.711832 -0.702270 0.010602
0.938470 -0.344969 0.016427
0.983465 -0.179302 -0.025442
0.983465 -0.179302 -0.025442
0.808809 -0.587481 -0.026328
0.711832 -0.702270 0.010602
0.860154 -0.509809 0.015176
0.987080 -0.160232 0.000000
0.938470 -0.344969 0.016427
0.938470 -0.344969 0.016427
0.711832 -0.702270 0.010602
0.860154 -0.509809 0.015176
0.831129 -0.550799 -0.076454
0.293398 -0.955367 -0.034514
0.221033 -0.975260 -0.003644
0.221033 -0.975260 -0.003644
0.787474 -0.616345 -0.001815
0.831129 -0.550799 -0.076454
0.787474 -0.616345 -0.001815
0.221033 -0.975260 -0.003644
0.242037 -0.970213 -0.010194
0.242037 -0.970213 -0.010194
0.808809 -0.587481 -0.026328
0.787474 -0.616345 -0.001815
0.808809 -0.587481 -0.026328
0.242037 -0.970213 -0.010194
0.176427 -0.984310 0.002751
0.176427 -0.984310 0.002751
0.711832 -0.702270 0.010602
0.808809 -0.587481 -0.026328
0.711832 -0.702270 0.010602
0.176427 -0.984310 0.002751
0.339113 -0.940643 0.013909
0.339113 -0.940643 0.013909
0.860154 -0.509809 0.015176
0.711832 -0.702270 0.010602
-0.824720 -0.564679 0.031225
-0.364763 -0.930983 0.014775
-0.122917 -0.992279 0.016574
0.174612 -0.984155 -0.030801
0.293398 -0.955367 -0.034514
0.831129 -0.550799 -0.076454
-0.000000 -1.000000 0.000000
0.293398 -0.955367 -0.034514
0.174612 -0.984155 -0.030801
-0.000000 -1.000000 0.000000
-0.000000 -1.000000 0.000000
0.221033 -0.975260 -0.003644
0.221033 -0.975260 -0.003644
0.293398 -0.955367 -0.034514
-0.000000 -1.000000 0.000000
-0.000000 -1.000000 0.000000
-0.122917 -0.992279 0.016574
-0.364763 -0.930983 0.014775
-0.000000 -1.000000 0.000000
-0.000000 -1.000000 0.000000
-0.122917 -0.992279 0.016574
-0.122917 -0.992279 0.016574
-0.000000 -1.000000 0.000000
-0.000000 -1.000000 0.000000
  -0.000000 -1.000000 0.000000 -0.006167 -0.961748 -0.273865 -0.000000 -1.000000 0.000000 -0.176660 -0.543686 -0.820486 -0.121100 -0.526299 -0.841632 -0.126840 -0.129220 -0.983470 -0.126840 -0.129220 -0.983470 -0.221308 -0.077473 -0.972122 -0.176660 -0.543686 -0.820486 -0.121100 -0.526299 -0.841632 -0.011326 -0.550902 -0.834493 0.000081 -0.142526 -0.989791 0.000081 -0.142526 -0.989791 -0.126840 -0.129220 -0.983470 -0.121100 -0.526299 -0.841632 -0.011326 -0.550902 -0.834493 0.088582 -0.571592 -0.815742 0.098667 -0.191333 -0.976553 0.098667 -0.191333 -0.976553 0.000081 -0.142526 -0.989791 -0.011326 -0.550902 -0.834493 0.088582 -0.571592 -0.815742 0.230959 -0.542422 -0.807736 0.253494 -0.103125 -0.961824 0.253494 -0.103125 -0.961824 0.098667 -0.191333 -0.976553 0.088582 -0.571592 -0.815742 -0.161649 -0.643607 -0.748090 -0.041449 -0.978863 -0.200272 -0.044707 -0.968511 -0.244923 -0.044707 -0.968511 -0.244923 -0.176660 -0.543686 -0.820486 -0.161649 -0.643607 -0.748090 0.249064 -0.553951 -0.794421 0.230959 -0.542422 -0.807736 0.068760 -0.967498 -0.243352 0.068760 -0.967498 -0.243352 0.085723 -0.966525 -0.241829 0.249064 -0.553951 -0.794421 -0.176660 -0.543686 -0.820486 -0.044707 -0.968511 -0.244923 -0.043572 -0.954046 -0.296476 -0.043572 -0.954046 -0.296476 -0.121100 -0.526299 -0.841632 -0.176660 -0.543686 -0.820486 -0.121100 -0.526299 -0.841632 -0.043572 -0.954046 -0.296476 -0.006167 -0.961748 -0.273865 -0.006167 -0.961748 -0.273865 -0.011326 -0.550902 -0.834493 -0.121100 -0.526299 -0.841632 -0.011326 -0.550902 -0.834493 -0.006167 -0.961748 -0.273865 0.028678 -0.963122 -0.267533 0.028678 -0.963122 -0.267533 0.088582 -0.571592 -0.815742 -0.011326 -0.550902 -0.834493 0.088582 -0.571592 -0.815742 0.028678 -0.963122 -0.267533 0.068760 -0.967498 -0.243352 0.068760 -0.967498 -0.243352 0.230959 -0.542422 -0.807736 0.088582 -0.571592 -0.815742 -0.176660 -0.543686 -0.820486 -0.221308 -0.077473 -0.972122 -0.232187 -0.124779 -0.964634 -0.232187 -0.124779 -0.964634 -0.161649 -0.643607 -0.748090 -0.176660 -0.543686 -0.820486 0.249064 -0.553951 -0.794421 0.268330 -0.050125 -0.962022 0.253494 -0.103125 -0.961824 0.253494 -0.103125 -0.961824 0.230959 -0.542422 -0.807736 0.249064 -0.553951 -0.794421 -0.000000 -1.000000 0.000000 0.085723 -0.966525 -0.241829 0.068760 -0.967498 -0.243352 -0.000000 -1.000000 0.000000 0.068760 -0.967498 -0.243352 0.028678 -0.963122 -0.267533 -0.000000 -1.000000 0.000000 0.028678 -0.963122 -0.267533 -0.006167 -0.961748 -0.273865 -0.043572 -0.954046 -0.296476 -0.044707 -0.968511 -0.244923 -0.000000 -1.000000 0.000000 -0.006167 -0.961748 -0.273865 -0.043572 -0.954046 -0.296476 -0.000000 -1.000000 0.000000 -0.044707 -0.968511 -0.244923 -0.041449 -0.978863 -0.200272 -0.000000 -1.000000 0.000000 </float_array>
          <technique_common>
            <accessor source="#Object090-Normal0-array" count="261" stride="3">
              <param name="X" type="float" />
              <param name="Y" type="float" />
              <param name="Z" type="float" />
            </accessor>
          </technique_common>
        </source>
        <source id="Object090-UV0">
          <float_array id="Object090-UV0-array" count="148">
0.702894 -0.000237
0.699791 0.276988
0.704534 0.624985
-0.000006 0.625082
-0.000006 0.451088
0.259296 0.451220
0.256354 0.625058
1.000000 0.277094
1.000000 0.451088
0.741867 0.451071
0.727470 0.277193
-0.000102 0.000000
0.261980 0.001092
0.220923 1.000000
0.702715 0.805001
0.705169 0.451186
0.302521 0.802077
0.293297 0.625169
0.758985 1.000000
1.000000 0.799076
0.724548 0.792385
0.732397 0.624973
0.292424 0.451096
0.285857 0.277080
1.000000 0.625082
-0.000006 0.277094
0.242887 0.277071
-0.000006 0.799076
0.276141 0.816274
-0.000006 1.000000
0.282385 -0.000851
0.728842 -0.000119
1.000000 -0.000000
0.270352 0.787416
0.730332 0.825758
1.000000 1.000000
0.349197 0.798660
0.331335 -0.001662
0.666837 0.000145
0.675165 0.799393
0.345245 0.624246
0.342002 0.450276
0.338715 0.276138
0.669474 0.277408
0.671851 0.451463
0.673608 0.625369
  0.220923 1.000000 0.728256 0.808412 0.301560 0.805521 0.510218 0.860702 0.649387 0.824540 0.578902 0.835862 0.510336 0.840677 0.441198 0.842082 0.372380 0.825625 0.758985 1.000000 0.287561 0.817575 0.744722 0.829171 0.649959 0.845738 0.370684 0.845367 0.580045 0.854425 0.440328 0.860117 0.652274 0.883939 0.671479 0.877662 0.589269 0.894449 0.573492 0.900888 0.510782 0.901715 0.501748 0.899989 0.438610 0.897643 0.423375 0.902745 0.360116 0.887628 0.349024 0.882414 0.284775 0.862131 0.739085 0.858933 </float_array>
          <technique_common>
            <accessor source="#Object090-UV0-array" count="74" stride="2">
              <param name="S" type="float" />
              <param name="T" type="float" />
            </accessor>
          </technique_common>
        </source>
        <vertices id="Object090-VERTEX">
          <input semantic="POSITION" source="#Object090-POSITION" />
        </vertices>
        <triangles count="87" material="factory_facade">
          <input semantic="VERTEX" offset="0" source="#Object090-VERTEX" />
          <input semantic="NORMAL" offset="1" source="#Object090-Normal0" />
          <input semantic="TEXCOORD" offset="2" set="0" source="#Object090-UV0" />
          <p> 9 0 4 12 1 5 11 2 6 11 3 6 8 4 3 9 5 4 15 6 8 18 7 9 17 8 10 17 9 10 14 10 7 15 11 8 5 12 19 34 13 20 26 14 21 26 15 21 16 16 24 5 17 19 31 18 17 40 19 40 36 20 36 36 21 36 28 22 16 31 23 17 24 24 1 43 25 43 38 26 38 38 27 38 21 28 0 24 29 1 7 30 11 30 31 12 33 32 26 33 33 26 10 34 25 7 35 11 10 36 25 33 37 26 12 38 5 12 39 5 9 40 4 10 41 25 6 42 27 27 43 28 3 44 13 3 45 13 1 46 29 6 47 27 16 48 24 26 49 21 18 50 9 18 51 9 15 52 8 16 53 24 20 54 31 4 55 32 14 56 7 14 57 7 17 58 10 20 59 31 22 60 14 39 61 39 45 62 45 45 63 45 19 64 2 22 65 14 19 66 2 45 67 45 44 68 44 44 69 44 25 70 15 19 71 2 25 72 15 44 73 44 43 74 43 43 75 43 24 76 1 25 77 15 21 78 0 20 79 31 17 80 10 17 81 10 24 82 1 21 83 0 24 84 1 17 85 10 18 86 9 18 87 9 25 88 15 24 89 1 25 90 15 18 91 9 26 92 21 26 93 21 19 94 2 25 95 15 19 96 2 26 97 21 34 98 20 34 99 20 22 100 14 19 101 2 32 102 22 41 103 41 40 104 40 40 105 40 31 106 17 32 107 22 13 108 23 42 109 42 41 110 41 41 111 41 32 112 22 13 113 23 29 114 30 37 115 37 42 116 42 42 117 42 13 118 23 29 119 30 28 120 16 35 121 33 11 122 6 11 123 6 31 124 17 28 125 16 31 126 17 11 127 6 12 128 5 12 129 5 32 130 22 31 131 17 32 132 22 12 133 5 33 134 26 33 135 26 13 136 23 32 137 22 13 138 23 33 139 26 30 140 12 30 141 12 29 142 30 13 143 23 22 144 14 34 145 20 23 146 34 27 147 28 35 148 33 28 149 16 6 150 27 35 151 33 27 152 28 6 153 27 8 154 3 11 155 6 11 156 6 35 157 33 6 158 27 5 159 19 23 160 34 34 161 20 0 162 35 2 163 18 23 164 34 23 165 34 5 166 19 0 167 35 47 168 46 50 169 49 46 170 55 48 171 50 58 172 51 65 173 64 65 174 64 64 175 62 48 176 50 58 177 51 59 178 52 66 179 66 66 180 66 65 181 65 58 182 51 59 183 52 60 184 53 67 185 68 67 186 68 66 187 67 59 188 52 60 189 53 61 190 54 68 191 70 68 192 70 67 193 69 60 194 53 53 195 47 54 196 57 57 197 58 57 198 58 48 199 50 53 200 47 56 201 48 61 202 54 52 203 59 52 204 59 55 205 56 56 206 48 48 207 50 57 208 58 49 209 60 49 210 60 58 211 51 48 212 50 58 213 51 49 214 60 50 215 49 50 216 49 59 217 52 58 218 51 59 219 52 50 220 49 51 221 61 51 222 61 60 223 53 59 224 52 60 225 53 51 226 61 52 227 59 52 228 59 61 229 54 60 230 53 48 231 50 64 232 63 63 233 73 63 234 73 53 235 47 48 236 50 56 237 48 62 238 72 68 239 71 68 240 71 61 241 54 56 242 48 47 243 46 55 244 56 52 245 59 47 246 46 52 247 59 51 248 61 47 249 46 51 250 61 50 251 49 49 252 60 57 253 58 46 254 55 50 255 49 49 256 60 46 257 55 57 258 58 54 259 57 46 260 55</p>
        </triangles>
      </mesh>
    </geometry>
    <geometry id="Object092-lib" name="Object092Mesh">
      <mesh>
        <source id="Object092-POSITION">
          <float_array id="Object092-POSITION-array" count="12">
0.837100 0.250019 3.349740
0.837100 0.250019 0.000000
-0.835741 0.250019 3.349740
-0.835741 0.250019 0.000000
</float_array>
          <technique_common>
            <accessor source="#Object092-POSITION-array" count="4" stride="3">
              <param name="X" type="float" />
              <param name="Y" type="float" />
              <param name="Z" type="float" />
            </accessor>
          </technique_common>
        </source>
        <source id="Object092-Normal0">
          <float_array id="Object092-Normal0-array" count="18">
0.000000 -1.000000 0.000000
0.000000 -1.000000 0.000000
0.000000 -1.000000 0.000000
0.000000 -1.000000 0.000000
0.000000 -1.000000 0.000000
0.000000 -1.000000 0.000000
</float_array>
          <technique_common>
            <accessor source="#Object092-Normal0-array" count="6" stride="3">
              <param name="X" type="float" />
              <param name="Y" type="float" />
              <param name="Z" type="float" />
            </accessor>
          </technique_common>
        </source>
        <source id="Object092-UV0">
          <float_array id="Object092-UV0-array" count="8">
0.884754 0.948923
0.877665 0.948923
0.877665 0.948124
0.884754 0.948124
</float_array>
          <technique_common>
            <accessor source="#Object092-UV0-array" count="4" stride="2">
              <param name="S" type="float" />
              <param name="T" type="float" />
            </accessor>
          </technique_common>
        </source>
        <vertices id="Object092-VERTEX">
          <input semantic="POSITION" source="#Object092-POSITION" />
        </vertices>
        <triangles count="2" material="factory_corridor">
          <input semantic="VERTEX" offset="0" source="#Object092-VERTEX" />
          <input semantic="NORMAL" offset="1" source="#Object092-Normal0" />
          <input semantic="TEXCOORD" offset="2" set="0" source="#Object092-UV0" />
          <p> 1 0 2 0 1 3 2 2 0 2 3 0 3 4 1 1 5 2</p>
        </triangles>
      </mesh>
    </geometry>
  </library_geometries>
  <library_visual_scenes>
    <visual_scene id="" name="">
      <node name="Object090" id="Object090" layer="factory_facade_doorsealed" sid="Object090">
        <matrix sid="matrix">1.000000 0.000000 0.000000 0.000000 0.000000 0.000000 1.000000 0.000000 0.000000 -1.000000 0.000000 0.000000 0.000000 0.000000 0.000000 1.000000</matrix>
        <instance_geometry url="#Object090-lib">
          <bind_material>
            <technique_common>
              <instance_material symbol="factory_facade" target="#factory_facade" />
            </technique_common>
          </bind_material>
        </instance_geometry>
        <extra>
          <technique profile="FCOLLADA">
            <visibility>1.000000</visibility>
          </technique>
        </extra>
      </node>
      <node name="Object092" id="Object092" layer="factory_facade_doorsealed" sid="Object092">
        <matrix sid="matrix">1.000000 0.000000 0.000000 0.000000 0.000000 0.000000 1.000000 0.000000 0.000000 -1.000000 0.000000 0.000000 0.000000 0.000000 0.000000 1.000000</matrix>
        <instance_geometry url="#Object092-lib">
          <bind_material>
            <technique_common>
              <instance_material symbol="factory_corridor" target="#factory_corridor" />
            </technique_common>
          </bind_material>
        </instance_geometry>
        <extra>
          <technique profile="FCOLLADA">
            <visibility>1.000000</visibility>
          </technique>
        </extra>
      </node>
      <extra>
        <technique profile="MAX3D">
          <frame_rate>30.000000</frame_rate>
        </technique>
        <technique profile="FCOLLADA">
          <start_time>0.000000</start_time>
          <end_time>6.666667</end_time>
        </technique>
      </extra>
    </visual_scene>
  </library_visual_scenes>
  <scene>
    <instance_visual_scene url="#">
    </instance_visual_scene>
  </scene>
</COLLADA>