<?xml version="1.0" encoding="utf-8"?>
<COLLADA xmlns="http://www.collada.org/2005/11/COLLADASchema" version="1.4.1">
  <asset>
    <contributor>
      <author></author>
      <authoring_tool>FBX COLLADA exporter</authoring_tool>
      <comments></comments>
    </contributor>
    <created>2012-03-18T11:10:48Z</created>
    <keywords></keywords>
    <modified>2012-03-18T11:10:48Z</modified>
    <revision></revision>
    <subject></subject>
    <title></title>
    <unit meter="1.000000" name="centimeter"></unit>
    <up_axis>Y_UP</up_axis>
  </asset>
  <library_images>
    <image id="Map #1-image" name="Map #1">
      <init_from>file://C:\Users\WesleyTack\Desktop\amnesia_raw\StaticObjects\factorybase\bench.psd</init_from>
    </image>
  </library_images>
  <library_materials>
    <material id="bench" name="bench">
      <instance_effect url="#bench-fx"/>
    </material>
  </library_materials>
  <library_effects>
    <effect id="bench-fx" name="bench">
      <profile_COMMON>
        <technique sid="standard">
          <phong>
            <emission>
              <color sid="emission">0.000000  0.000000 0.000000 1.000000</color>
            </emission>
            <ambient>
              <color sid="ambient">0.588235  0.588235 0.588235 1.000000</color>
            </ambient>
            <diffuse>
              <texture texture="Map #1-image" texcoord="CHANNEL0">
                <extra>
                  <technique profile="MAYA">
                    <wrapU sid="wrapU0">TRUE</wrapU>
                    <wrapV sid="wrapV0">TRUE</wrapV>
                    <blend_mode>ADD</blend_mode>
                  </technique>
                </extra>
              </texture>
            </diffuse>
            <specular>
              <color sid="specular">0.000000  0.000000 0.000000 1.000000</color>
            </specular>
            <shininess>
              <float sid="shininess">2.000000</float>
            </shininess>
            <reflective>
              <color sid="reflective">0.000000  0.000000 0.000000 1.000000</color>
            </reflective>
            <reflectivity>
              <float sid="reflectivity">1.000000</float>
            </reflectivity>
            <transparent opaque="RGB_ZERO">
              <color sid="transparent">1.000000  1.000000 1.000000 1.000000</color>
            </transparent>
            <transparency>
              <float sid="transparency">0.000000</float>
            </transparency>
          </phong>
        </technique>
      </profile_COMMON>
    </effect>
  </library_effects>
  <library_geometries>
    <geometry id="Box003-lib" name="Box003Mesh">
      <mesh>
        <source id="Box003-POSITION">
          <float_array id="Box003-POSITION-array" count="468">
-0.942197 -0.107378 0.797329
0.948748 -0.097378 0.807301
-0.937688 -0.097378 0.939150
0.944440 -0.097378 0.939124
-0.942197 -0.134143 0.797329
0.949075 -0.134143 0.797306
-0.937371 -0.134143 0.949145
0.944114 -0.134143 0.949118
-0.941879 -0.097378 0.807324
0.949075 -0.107378 0.797306
-0.937371 -0.107378 0.949145
0.944114 -0.107378 0.949118
-0.941879 -0.144143 0.807324
0.948748 -0.144143 0.807301
-0.937688 -0.144143 0.939150
0.944440 -0.144143 0.939124
-0.317210 -0.078579 0.924263
0.317763 -0.078579 0.933937
0.317763 -0.078579 0.809490
-0.317210 -0.078579 0.796398
-0.317210 -0.125344 0.796398
0.317763 -0.125344 0.809490
0.317763 -0.125344 0.933937
-0.317210 -0.125344 0.924263
-0.317210 -0.088579 0.934263
0.317763 -0.088579 0.943937
0.317763 -0.088579 0.799490
-0.317210 -0.088579 0.786398
-0.317210 -0.115344 0.786398
0.317763 -0.115344 0.799490
0.317763 -0.115344 0.943937
-0.317210 -0.115344 0.934263
0.003077 -0.113377 0.341258
0.013077 -0.501262 0.340949
-0.023688 -0.113377 0.341258
-0.023688 -0.511262 0.340949
0.013077 -0.123377 0.341258
0.003077 -0.511262 0.340949
-0.033688 -0.123377 0.341258
-0.033688 -0.501262 0.340949
0.023659 -0.501262 -0.000049
0.023659 -0.123377 -0.000049
-0.023106 -0.123377 -0.000049
-0.023106 -0.501262 -0.000049
0.013659 -0.511262 -0.000049
0.013659 -0.113377 -0.000049
-0.013106 -0.113377 -0.000049
-0.013106 -0.511262 -0.000049
-0.027134 -0.097568 -0.000000
0.027036 -0.097568 -0.000000
-0.027134 -0.069400 -0.000000
0.027036 -0.069400 -0.000000
-0.027134 -0.078770 0.930736
0.027036 -0.078770 0.930736
-0.027134 -0.050601 0.930736
0.027036 -0.050602 0.930736
0.016454 -0.097568 0.385953
-0.037716 -0.097568 0.385953
0.016454 -0.069400 0.385953
-0.037716 -0.069400 0.385953
-1.015343 -0.573907 0.001348
-0.965368 -0.573907 -0.000241
-1.015343 -0.033070 0.001348
-0.965368 -0.033070 -0.000241
-0.983568 -0.122222 1.000843
-0.933593 -0.122222 0.999254
-0.983568 -0.090617 1.000843
-0.933593 -0.090617 0.999254
-0.942086 -0.531410 0.732103
-0.992061 -0.531410 0.733692
-0.942086 -0.090617 0.732103
-0.992061 -0.090617 0.733692
-0.950081 -0.573907 0.480633
-1.000056 -0.573907 0.482221
-0.983960 -0.155685 0.988511
-0.984821 -0.165489 0.961432
-0.985840 -0.161431 0.929383
-0.987847 -0.152491 0.866262
-0.991236 -0.514098 0.759643
-0.941261 -0.514098 0.758055
-0.937872 -0.152491 0.864673
-0.935865 -0.161431 0.927794
-0.934846 -0.165489 0.959844
-0.933985 -0.155685 0.986922
-0.990150 -0.160601 0.793803
-0.992848 -0.188500 0.708940
-0.992069 -0.443949 0.733445
-0.991250 -0.458171 0.759192
-0.990985 -0.484827 0.767540
-0.941010 -0.484827 0.765952
-0.941276 -0.458171 0.757603
-0.942094 -0.443949 0.731856
-0.942873 -0.188500 0.707351
-0.940175 -0.160601 0.792214
-0.994161 -0.252362 0.667648
-0.994574 -0.328600 0.654632
-0.993880 -0.401213 0.676465
-0.943906 -0.401213 0.674876
-0.944600 -0.328600 0.653044
-0.944186 -0.252362 0.666059
0.973142 -0.573907 -0.000236
1.023115 -0.573907 0.001397
0.973142 -0.033070 -0.000236
1.023115 -0.033070 0.001397
0.940479 -0.122222 0.999230
0.990452 -0.122222 1.000864
0.940479 -0.090617 0.999230
0.990452 -0.090617 1.000864
0.999182 -0.531410 0.733720
0.949209 -0.531410 0.732087
0.999182 -0.090617 0.733720
0.949209 -0.090617 0.732087
1.007400 -0.573907 0.482257
0.957427 -0.573907 0.480624
0.940882 -0.155685 0.986899
0.941767 -0.165489 0.959821
0.942814 -0.161431 0.927772
0.944877 -0.152491 0.864654
0.948361 -0.514098 0.758038
0.998334 -0.514098 0.759671
0.994850 -0.152491 0.866287
0.992787 -0.161431 0.929405
0.991740 -0.165489 0.961454
0.990855 -0.155685 0.988532
0.947245 -0.160601 0.792197
0.950018 -0.188500 0.707336
0.949217 -0.443949 0.731840
0.948376 -0.458171 0.757587
0.948103 -0.484827 0.765935
0.998076 -0.484827 0.767568
0.998349 -0.458171 0.759220
0.999190 -0.443949 0.733473
0.999991 -0.188500 0.708969
0.997218 -0.160601 0.793830
0.951367 -0.252362 0.666045
0.951793 -0.328600 0.653030
0.951079 -0.401213 0.674862
1.001052 -0.401213 0.676495
1.001766 -0.328600 0.654663
1.001341 -0.252362 0.667678
-0.960070 -0.528856 0.385953
0.971413 -0.528856 0.385953
0.971413 -0.098418 0.385953
-0.960070 -0.098418 0.385953
-0.960070 -0.098418 0.338893
0.971413 -0.098418 0.338893
0.971413 -0.528856 0.338893
-0.960070 -0.528856 0.338893
-0.960070 -0.538856 0.375677
0.971413 -0.538856 0.375677
0.971413 -0.088418 0.375986
-0.960070 -0.088418 0.375986
-0.960070 -0.088418 0.349221
0.971413 -0.088418 0.349221
0.971413 -0.538856 0.348912
-0.960070 -0.538856 0.348912
</float_array>
          <technique_common>
            <accessor source="#Box003-POSITION-array" count="156" stride="3">
              <param name="X" type="float"/>
              <param name="Y" type="float"/>
              <param name="Z" type="float"/>
            </accessor>
          </technique_common>
        </source>
        <source id="Box003-Normal0">
          <float_array id="Box003-Normal0-array" count="2322">
0.000000 1.000000 0.000000
0.000000 1.000000 0.000000
0.000000 1.000000 0.000000
0.000000 1.000000 0.000000
0.000000 1.000000 0.000000
0.000000 1.000000 0.000000
0.000000 -1.000000 0.000000
0.000000 -1.000000 0.000000
0.000000 -1.000000 0.000000
0.000000 -1.000000 0.000000
0.000000 -1.000000 0.000000
0.000000 -1.000000 0.000000
0.013735 0.386764 -0.922076
0.002314 -0.380616 -0.924730
0.007045 -0.377908 -0.925816
0.007045 -0.377908 -0.925816
-0.004329 0.384143 -0.923263
0.013735 0.386764 -0.922076
-0.001921 0.387533 0.921854
0.009859 -0.381175 0.924450
-0.016538 -0.379186 0.925173
-0.016538 -0.379186 0.925173
-0.004993 0.385500 0.922694
-0.001921 0.387533 0.921854
-0.004993 0.385500 0.922694
0.002141 0.707101 0.707109
-0.007643 0.707086 0.707087
-0.007643 0.707086 0.707087
-0.001921 0.387533 0.921854
-0.004993 0.385500 0.922694
-0.004329 0.384143 -0.923263
-0.009342 0.707078 -0.707074
0.016588 0.707009 -0.707010
0.016588 0.707009 -0.707010
0.013735 0.386764 -0.922076
-0.004329 0.384143 -0.923263
0.002314 -0.380616 -0.924730
-0.004660 -0.707094 -0.707104
0.011728 -0.707058 -0.707059
0.011728 -0.707058 -0.707059
0.007045 -0.377908 -0.925816
0.002314 -0.380616 -0.924730
0.009859 -0.381175 0.924450
0.013925 -0.707041 0.707035
-0.018926 -0.706980 0.706980
-0.018926 -0.706980 0.706980
-0.016538 -0.379186 0.925173
0.009859 -0.381175 0.924450
0.029783 0.999556 0.000973
0.029783 0.999556 0.000973
0.029783 0.999556 0.000973
0.029984 0.999550 0.000000
0.029984 0.999550 0.000000
0.029984 0.999550 0.000000
-0.030260 0.999542 0.000962
-0.030260 0.999542 0.000962
-0.030260 0.999542 0.000962
-0.030080 0.999547 -0.000000
-0.030080 0.999547 -0.000000
-0.030080 0.999547 -0.000000
-0.029976 -0.999550 -0.000980
-0.029976 -0.999550 -0.000980
-0.029976 -0.999550 -0.000980
-0.029780 -0.999556 0.000000
-0.029780 -0.999556 0.000000
-0.029780 -0.999556 0.000000
0.030064 -0.999547 -0.000956
0.030064 -0.999548 -0.000956
0.030064 -0.999547 -0.000956
0.030283 -0.999541 -0.000000
0.030283 -0.999541 -0.000000
0.030283 -0.999541 -0.000000
0.007909 0.373343 -0.927660
-0.014675 -0.385331 -0.922662
0.002314 -0.380616 -0.924730
0.002314 -0.380616 -0.924730
0.013735 0.386764 -0.922076
0.007909 0.373343 -0.927660
-0.004466 -0.387534 -0.921844
-0.027496 0.375189 -0.926541
-0.004329 0.384143 -0.923263
-0.004329 0.384143 -0.923263
0.007045 -0.377908 -0.925816
-0.004466 -0.387534 -0.921844
0.010799 0.376944 0.926173
0.033889 -0.389623 0.920351
0.009859 -0.381175 0.924450
0.009859 -0.381175 0.924450
-0.001921 0.387533 0.921854
0.010799 0.376944 0.926173
-0.019348 -0.391017 0.920180
0.003688 0.378275 0.925686
-0.004993 0.385500 0.922694
-0.004993 0.385500 0.922694
-0.016538 -0.379186 0.925173
-0.019348 -0.391017 0.920180
0.003688 0.378275 0.925686
0.015340 0.706582 0.707465
0.002141 0.707101 0.707109
0.002141 0.707101 0.707109
-0.004993 0.385500 0.922694
0.003688 0.378275 0.925686
-0.004452 0.706853 0.707346
0.010799 0.376944 0.926173
-0.001921 0.387533 0.921854
-0.001921 0.387533 0.921854
-0.007643 0.707086 0.707087
-0.004452 0.706853 0.707346
-0.027496 0.375189 -0.926541
-0.033632 0.707062 -0.706351
-0.009342 0.707078 -0.707074
-0.009342 0.707078 -0.707074
-0.004329 0.384143 -0.923263
-0.027496 0.375189 -0.926541
0.018611 0.707099 -0.706870
0.007909 0.373343 -0.927660
0.013735 0.386764 -0.922076
0.013735 0.386764 -0.922076
0.016588 0.707009 -0.707010
0.018611 0.707099 -0.706870
-0.014675 -0.385331 -0.922662
-0.023498 -0.706340 -0.707483
-0.004660 -0.707094 -0.707104
-0.004660 -0.707094 -0.707104
0.002314 -0.380616 -0.924730
-0.014675 -0.385331 -0.922662
0.008887 -0.706762 -0.707396
-0.004466 -0.387534 -0.921844
0.007045 -0.377908 -0.925816
0.007045 -0.377908 -0.925816
0.011728 -0.707058 -0.707059
0.008887 -0.706762 -0.707396
0.033889 -0.389623 0.920351
0.038364 -0.707017 0.706155
0.013925 -0.707041 0.707035
0.013925 -0.707041 0.707035
0.009859 -0.381175 0.924450
0.033889 -0.389623 0.920351
-0.027068 -0.707096 0.706599
-0.019348 -0.391017 0.920180
-0.016538 -0.379186 0.925173
-0.016538 -0.379186 0.925173
-0.018926 -0.706980 0.706980
-0.027068 -0.707096 0.706599
0.999519 -0.000025 0.031017
0.999519 -0.000025 0.031017
0.999519 -0.000025 0.031017
0.999520 0.000000 0.030989
0.999520 0.000000 0.030989
0.999520 0.000000 0.030989
-0.999520 0.000025 -0.030989
-0.999520 0.000025 -0.030989
-0.999520 0.000025 -0.030989
-0.999519 0.000000 -0.031017
-0.999519 0.000000 -0.031017
-0.999519 0.000000 -0.031017
-0.389063 0.921132 -0.012063
0.376177 0.926475 0.011663
0.389064 0.921132 0.012063
0.389064 0.921132 0.012063
-0.376176 0.926475 -0.011663
-0.389063 0.921132 -0.012063
0.376170 -0.926477 0.011673
-0.389069 -0.921130 -0.012074
-0.376171 -0.926477 -0.011673
-0.376171 -0.926477 -0.011673
0.389068 -0.921130 0.012074
0.376170 -0.926477 0.011673
0.706937 -0.706937 0.021938
0.376170 -0.926477 0.011673
0.389068 -0.921130 0.012074
0.389068 -0.921130 0.012074
0.706937 -0.706937 0.021938
0.706937 -0.706937 0.021938
0.376177 0.926475 0.011663
0.706937 0.706937 0.021918
0.706937 0.706937 0.021918
0.706937 0.706937 0.021918
0.389064 0.921132 0.012063
0.376177 0.926475 0.011663
-0.706937 0.706937 -0.021918
-0.389063 0.921132 -0.012063
-0.376176 0.926475 -0.011663
-0.376176 0.926475 -0.011663
-0.706938 0.706936 -0.021918
-0.706937 0.706937 -0.021918
-0.389069 -0.921130 -0.012074
-0.706937 -0.706937 -0.021938
-0.706937 -0.706937 -0.021938
-0.706937 -0.706937 -0.021938
-0.376171 -0.926477 -0.011673
-0.389069 -0.921130 -0.012074
0.000007 0.000007 -1.000000
0.000007 0.000007 -1.000000
0.000007 0.000007 -1.000000
-0.000000 0.000000 -1.000000
-0.000000 0.000000 -1.000000
-0.000000 0.000000 -1.000000
-0.000007 -0.000007 -1.000000
-0.000007 -0.000007 -1.000000
-0.000007 -0.000007 -1.000000
-0.000005 0.000000 -1.000000
-0.000005 0.000000 -1.000000
-0.000005 0.000000 -1.000000
0.000005 -0.000001 -1.000000
0.000005 -0.000001 -1.000000
0.000005 -0.000001 -1.000000
0.000001 -0.000001 -1.000000
0.000001 -0.000001 -1.000000
0.000001 -0.000001 -1.000000
0.000000 0.000000 -1.000000
0.000000 0.000000 -1.000000
0.000000 0.000000 -1.000000
0.000000 0.000000 -1.000000
0.000000 0.000000 -1.000000
0.000000 0.000000 -1.000000
0.000000 0.000000 1.000000
0.000000 0.000000 1.000000
0.000000 0.000000 1.000000
0.000000 0.000000 1.000000
0.000000 0.000000 1.000000
0.000000 0.000000 1.000000
-0.000000 -1.000000 -0.000000
-0.000000 -1.000000 -0.000000
-0.000000 -1.000000 -0.000000
0.000000 -1.000000 0.000000
0.000000 -1.000000 0.000000
0.000000 -1.000000 0.000000
0.999624 0.000000 0.027407
0.999624 0.000000 0.027407
0.999624 0.000000 0.027407
0.999624 0.000000 0.027407
0.999624 0.000000 0.027407
0.999624 0.000000 0.027407
0.000000 1.000000 0.000000
0.000000 1.000000 0.000000
0.000000 1.000000 0.000000
0.000000 1.000000 0.000000
0.000000 1.000000 0.000000
0.000000 1.000000 0.000000
-0.999624 0.000000 -0.027407
-0.999624 0.000000 -0.027407
-0.999624 0.000000 -0.027407
-0.999624 0.000000 -0.027407
-0.999624 0.000000 -0.027407
-0.999624 0.000000 -0.027407
0.000000 -0.999405 0.034486
0.000000 -0.999405 0.034486
0.000000 -0.999405 0.034486
-0.000000 -0.999405 0.034486
-0.000000 -0.999405 0.034486
-0.000000 -0.999405 0.034486
0.999811 0.000000 -0.019421
0.999811 0.000000 -0.019421
0.999811 0.000000 -0.019421
0.999811 0.000000 -0.019421
0.999811 0.000000 -0.019421
0.999811 0.000000 -0.019421
0.000000 0.999405 -0.034486
0.000000 0.999405 -0.034486
0.000000 0.999405 -0.034486
0.000000 0.999405 -0.034486
0.000000 0.999405 -0.034486
0.000000 0.999405 -0.034486
-0.999811 0.000000 0.019421
-0.999811 0.000000 0.019421
-0.999811 0.000000 0.019421
-0.999811 0.000000 0.019421
-0.999811 0.000000 0.019421
-0.999811 0.000000 0.019421
-0.031774 0.000000 -0.999495
-0.031774 0.000000 -0.999495
-0.031774 0.000000 -0.999495
-0.031774 0.000000 -0.999495
-0.031774 0.000000 -0.999495
-0.031774 0.000000 -0.999495
0.031280 -0.175703 0.983946
0.031280 -0.175704 0.983946
0.031774 0.000000 0.999495
0.031774 0.000000 0.999495
0.031774 0.000000 0.999495
0.031280 -0.175703 0.983946
0.000000 -1.000000 0.000000
0.002655 -0.996502 0.083525
0.002655 -0.996502 0.083525
0.002655 -0.996502 0.083525
0.000000 -1.000000 0.000000
0.000000 -1.000000 0.000000
0.999495 0.000000 -0.031775
0.999495 0.000000 -0.031775
0.999495 0.000000 -0.031775
0.002488 0.996930 0.078259
0.001245 0.999232 0.039159
0.001245 0.999232 0.039159
0.001245 0.999232 0.039159
0.002488 0.996930 0.078259
0.002488 0.996930 0.078259
-0.004221 -0.991135 -0.132789
-0.004221 -0.991135 -0.132789
-0.000464 -0.999893 -0.014604
-0.000464 -0.999893 -0.014604
-0.000464 -0.999893 -0.014603
-0.004221 -0.991135 -0.132789
0.000000 1.000000 -0.000000
-0.000000 1.000000 -0.000000
0.001245 0.999232 0.039159
0.001245 0.999232 0.039159
0.001245 0.999232 0.039159
0.000000 1.000000 -0.000000
0.011718 -0.929516 0.368596
0.011718 -0.929516 0.368595
0.002655 -0.996502 0.083525
0.002655 -0.996502 0.083525
0.002655 -0.996502 0.083525
0.011718 -0.929516 0.368596
-0.999495 0.000000 0.031775
-0.999495 0.000000 0.031775
-0.999495 0.000000 0.031775
0.999495 0.000000 -0.031774
0.999495 0.000000 -0.031774
0.999495 0.000000 -0.031774
0.999495 0.000000 -0.031775
0.999495 0.000000 -0.031775
0.999495 0.000000 -0.031775
-0.999495 -0.000000 0.031775
-0.999495 -0.000000 0.031775
-0.999495 -0.000000 0.031775
-0.999495 -0.000000 0.031775
-0.999495 -0.000000 0.031775
-0.999495 -0.000000 0.031775
0.031280 -0.175704 0.983946
0.031280 -0.175703 0.983946
0.022401 -0.709233 0.704618
0.022401 -0.709233 0.704618
0.022401 -0.709234 0.704618
0.031280 -0.175704 0.983946
0.022401 -0.709234 0.704618
0.022401 -0.709233 0.704618
0.003510 -0.993882 0.110388
0.003510 -0.993882 0.110388
0.003510 -0.993882 0.110388
0.022401 -0.709234 0.704618
0.003510 -0.993882 0.110388
0.003510 -0.993882 0.110388
-0.004221 -0.991135 -0.132789
-0.004221 -0.991135 -0.132789
-0.004221 -0.991135 -0.132789
0.003510 -0.993882 0.110388
0.011718 -0.929516 0.368595
0.011718 -0.929516 0.368596
0.025802 -0.583623 0.811615
0.025802 -0.583623 0.811615
0.025803 -0.583624 0.811614
0.011718 -0.929516 0.368595
0.031716 0.061479 0.997604
0.031716 0.061479 0.997604
0.029606 -0.363189 0.931245
0.029606 -0.363189 0.931245
0.029605 -0.363189 0.931245
0.031716 0.061479 0.997604
0.025803 -0.583624 0.811614
0.025802 -0.583623 0.811615
0.031769 0.020005 0.999295
0.031769 0.020005 0.999295
0.031769 0.020005 0.999295
0.025803 -0.583624 0.811614
0.031769 0.020005 0.999295
0.031769 0.020005 0.999295
0.024607 0.632681 0.774022
0.024607 0.632681 0.774022
0.024607 0.632680 0.774022
0.031769 0.020005 0.999295
0.024607 0.632680 0.774022
0.024607 0.632681 0.774022
0.017250 0.839816 0.542597
0.017250 0.839816 0.542597
0.017250 0.839816 0.542597
0.024607 0.632680 0.774022
-0.000464 -0.999893 -0.014603
-0.000464 -0.999893 -0.014604
0.006762 -0.977096 0.212690
0.006762 -0.977096 0.212690
0.006762 -0.977096 0.212690
-0.000464 -0.999893 -0.014603
0.006762 -0.977096 0.212690
0.006762 -0.977096 0.212690
0.019407 -0.791806 0.610464
0.019407 -0.791806 0.610464
0.019407 -0.791806 0.610464
0.006762 -0.977096 0.212690
0.999495 0.000000 -0.031775
0.999495 0.000000 -0.031775
0.999495 0.000000 -0.031775
-0.999495 -0.000000 0.031775
-0.999495 -0.000000 0.031775
-0.999495 -0.000000 0.031775
0.999495 -0.000000 -0.031775
0.999495 -0.000000 -0.031775
0.999495 -0.000000 -0.031775
-0.999495 -0.000001 0.031775
-0.999495 -0.000001 0.031775
-0.999495 -0.000001 0.031775
0.017250 0.839816 0.542597
0.017250 0.839816 0.542597
0.026047 0.572757 0.819311
0.026047 0.572757 0.819311
0.026047 0.572757 0.819311
0.017250 0.839816 0.542597
0.026047 0.572757 0.819311
0.026047 0.572757 0.819311
0.031716 0.061479 0.997604
0.031716 0.061479 0.997604
0.031716 0.061479 0.997604
0.026047 0.572757 0.819311
0.019407 -0.791806 0.610464
0.019407 -0.791806 0.610464
0.029605 -0.363189 0.931245
0.029605 -0.363189 0.931245
0.029606 -0.363189 0.931245
0.019407 -0.791806 0.610464
0.999495 0.000000 -0.031770
0.999495 0.000000 -0.031770
0.999495 0.000000 -0.031770
0.999495 0.000000 -0.031776
0.999495 0.000000 -0.031776
0.999495 0.000000 -0.031776
0.999495 0.000000 -0.031775
0.999495 0.000000 -0.031775
0.999495 0.000000 -0.031775
-0.999495 0.000001 0.031773
-0.999495 0.000001 0.031773
-0.999495 0.000001 0.031773
-0.999495 0.000002 0.031776
-0.999495 0.000002 0.031776
-0.999495 0.000002 0.031776
-0.999495 -0.000000 0.031774
-0.999495 -0.000000 0.031774
-0.999495 -0.000000 0.031774
0.999495 -0.000000 -0.031774
0.999495 -0.000000 -0.031774
0.999495 -0.000000 -0.031774
-0.999495 -0.000000 0.031775
-0.999495 -0.000000 0.031775
-0.999495 -0.000000 0.031775
0.999495 0.000000 -0.031775
0.999495 0.000000 -0.031775
0.999495 0.000000 -0.031775
-0.999495 0.000000 0.031774
-0.999495 0.000000 0.031774
-0.999495 0.000000 0.031774
0.999495 -0.000000 -0.031775
0.999495 -0.000000 -0.031775
0.999495 -0.000000 -0.031775
-0.999495 0.000000 0.031775
-0.999495 0.000000 0.031775
-0.999495 0.000000 0.031775
0.999495 -0.000000 -0.031775
0.999495 -0.000000 -0.031775
0.999495 -0.000000 -0.031775
-0.999495 0.000000 0.031775
-0.999495 0.000000 0.031775
-0.999495 0.000000 0.031775
0.999495 -0.000000 -0.031775
0.999495 -0.000000 -0.031775
0.999495 -0.000000 -0.031775
-0.999495 -0.000001 0.031774
-0.999495 -0.000001 0.031774
-0.999495 -0.000001 0.031774
0.999495 -0.000001 -0.031774
0.999495 -0.000001 -0.031774
0.999495 -0.000001 -0.031774
0.999495 0.000001 -0.031775
0.999495 0.000001 -0.031775
0.999495 0.000001 -0.031775
-0.999495 -0.000000 0.031775
-0.999495 -0.000000 0.031775
-0.999495 -0.000000 0.031775
-0.999495 -0.000000 0.031775
-0.999495 -0.000000 0.031775
-0.999495 -0.000000 0.031775
0.999495 -0.000000 -0.031773
0.999495 -0.000000 -0.031773
0.999495 -0.000000 -0.031773
0.999495 0.000002 -0.031776
0.999495 0.000002 -0.031776
0.999495 0.000002 -0.031776
0.999495 0.000000 -0.031775
0.999495 0.000000 -0.031775
0.999495 0.000000 -0.031775
-0.999495 0.000002 0.031775
-0.999495 0.000002 0.031775
-0.999495 0.000002 0.031775
-0.999495 0.000000 0.031774
-0.999495 0.000000 0.031774
-0.999495 0.000000 0.031774
-0.999495 -0.000000 0.031775
-0.999495 -0.000000 0.031775
-0.999495 -0.000000 0.031775
0.032662 0.000000 -0.999466
0.032662 0.000000 -0.999466
0.032662 0.000000 -0.999466
0.032662 0.000000 -0.999466
0.032662 0.000000 -0.999466
0.032662 0.000000 -0.999466
-0.032156 -0.175705 0.983918
-0.032156 -0.175705 0.983917
-0.032665 0.000000 0.999466
-0.032665 0.000000 0.999466
-0.032665 0.000000 0.999466
-0.032156 -0.175705 0.983918
0.000000 -1.000000 0.000000
-0.002730 -0.996502 0.083522
-0.002730 -0.996502 0.083522
-0.002730 -0.996502 0.083522
0.000000 -1.000000 0.000000
0.000000 -1.000000 0.000000
0.999466 0.000000 0.032663
0.999466 0.000000 0.032663
0.999466 0.000000 0.032663
-0.002557 0.996930 0.078256
-0.001279 0.999232 0.039158
-0.001279 0.999232 0.039158
-0.001279 0.999232 0.039158
-0.002557 0.996930 0.078256
-0.002557 0.996930 0.078256
0.004340 -0.991135 -0.132785
0.004340 -0.991135 -0.132785
0.000477 -0.999893 -0.014603
0.000477 -0.999893 -0.014603
0.000477 -0.999893 -0.014603
0.004340 -0.991135 -0.132785
0.000000 1.000000 -0.000000
0.000000 1.000000 -0.000000
-0.001279 0.999232 0.039158
-0.001279 0.999232 0.039158
-0.001279 0.999232 0.039158
0.000000 1.000000 -0.000000
-0.012046 -0.929516 0.368586
-0.012045 -0.929516 0.368585
-0.002730 -0.996502 0.083522
-0.002730 -0.996502 0.083522
-0.002730 -0.996502 0.083522
-0.012046 -0.929516 0.368586
-0.999466 0.000000 -0.032663
-0.999466 0.000000 -0.032663
-0.999466 0.000000 -0.032663
0.999466 -0.000000 0.032663
0.999466 -0.000000 0.032663
0.999466 -0.000000 0.032663
0.999466 -0.000000 0.032663
0.999466 -0.000000 0.032663
0.999466 -0.000000 0.032663
-0.999466 0.000000 -0.032663
-0.999466 0.000000 -0.032663
-0.999466 0.000000 -0.032663
-0.999466 0.000000 -0.032663
-0.999466 0.000000 -0.032663
-0.999466 0.000000 -0.032663
-0.032156 -0.175705 0.983917
-0.032156 -0.175705 0.983918
-0.023027 -0.709235 0.704596
-0.023027 -0.709235 0.704596
-0.023027 -0.709234 0.704597
-0.032156 -0.175705 0.983917
-0.023027 -0.709234 0.704597
-0.023027 -0.709235 0.704596
-0.003607 -0.993882 0.110385
-0.003607 -0.993882 0.110385
-0.003607 -0.993882 0.110386
-0.023027 -0.709234 0.704597
-0.003607 -0.993882 0.110386
-0.003607 -0.993882 0.110385
0.004340 -0.991135 -0.132785
0.004340 -0.991135 -0.132785
0.004340 -0.991135 -0.132785
-0.003607 -0.993882 0.110386
-0.012045 -0.929516 0.368585
-0.012046 -0.929516 0.368586
-0.026522 -0.583623 0.811591
-0.026522 -0.583623 0.811591
-0.026522 -0.583624 0.811591
-0.012045 -0.929516 0.368585
-0.032599 0.061480 0.997576
-0.032599 0.061479 0.997576
-0.030431 -0.363189 0.931219
-0.030431 -0.363189 0.931219
-0.030431 -0.363189 0.931218
-0.032599 0.061480 0.997576
-0.026522 -0.583624 0.811591
-0.026522 -0.583623 0.811591
-0.032656 0.020005 0.999266
-0.032656 0.020005 0.999266
-0.032655 0.020004 0.999266
-0.026522 -0.583624 0.811591
-0.032655 0.020004 0.999266
-0.032656 0.020005 0.999266
-0.025294 0.632681 0.773999
-0.025294 0.632681 0.773999
-0.025293 0.632680 0.774000
-0.032655 0.020004 0.999266
-0.025293 0.632680 0.774000
-0.025294 0.632681 0.773999
-0.017731 0.839816 0.542581
-0.017731 0.839816 0.542581
-0.017731 0.839816 0.542581
-0.025293 0.632680 0.774000
0.000477 -0.999893 -0.014603
0.000477 -0.999893 -0.014603
-0.006950 -0.977096 0.212684
-0.006950 -0.977096 0.212684
-0.006950 -0.977096 0.212684
0.000477 -0.999893 -0.014603
-0.006950 -0.977096 0.212684
-0.006950 -0.977096 0.212684
-0.019948 -0.791806 0.610446
-0.019948 -0.791806 0.610446
-0.019948 -0.791806 0.610447
-0.006950 -0.977096 0.212684
0.999466 0.000001 0.032662
0.999466 0.000001 0.032662
0.999466 0.000001 0.032662
-0.999466 -0.000001 -0.032662
-0.999466 -0.000001 -0.032662
-0.999466 -0.000001 -0.032662
0.999466 0.000001 0.032663
0.999466 0.000001 0.032663
0.999466 0.000001 0.032663
-0.999466 -0.000001 -0.032663
-0.999466 -0.000001 -0.032663
-0.999466 -0.000001 -0.032663
-0.017731 0.839816 0.542581
-0.017731 0.839816 0.542581
-0.026773 0.572757 0.819288
-0.026773 0.572757 0.819288
-0.026773 0.572758 0.819287
-0.017731 0.839816 0.542581
-0.026773 0.572758 0.819287
-0.026773 0.572757 0.819288
-0.032599 0.061479 0.997576
-0.032599 0.061479 0.997576
-0.032599 0.061480 0.997576
-0.026773 0.572758 0.819287
-0.019948 -0.791806 0.610447
-0.019948 -0.791806 0.610446
-0.030431 -0.363189 0.931218
-0.030431 -0.363189 0.931218
-0.030431 -0.363189 0.931219
-0.019948 -0.791806 0.610447
0.999467 -0.000001 0.032653
0.999467 -0.000001 0.032653
0.999467 -0.000001 0.032653
0.999466 -0.000001 0.032667
0.999466 -0.000001 0.032667
0.999466 -0.000001 0.032667
0.999466 0.000001 0.032662
0.999466 0.000001 0.032662
0.999466 0.000001 0.032662
-0.999466 0.000005 -0.032670
-0.999466 0.000005 -0.032670
-0.999466 0.000005 -0.032670
-0.999466 -0.000002 -0.032663
-0.999466 -0.000002 -0.032663
-0.999466 -0.000002 -0.032663
-0.999466 -0.000001 -0.032661
-0.999466 -0.000001 -0.032661
-0.999466 -0.000001 -0.032661
0.999466 0.000000 0.032663
0.999466 0.000000 0.032663
0.999466 0.000000 0.032663
-0.999466 -0.000000 -0.032663
-0.999466 -0.000000 -0.032663
-0.999466 -0.000000 -0.032663
0.999466 -0.000001 0.032664
0.999466 -0.000001 0.032664
0.999466 -0.000001 0.032664
-0.999466 0.000001 -0.032664
-0.999466 0.000001 -0.032664
-0.999466 0.000001 -0.032664
0.999466 -0.000000 0.032663
0.999466 -0.000000 0.032663
0.999466 -0.000000 0.032663
-0.999466 0.000000 -0.032663
-0.999466 0.000000 -0.032663
-0.999466 0.000000 -0.032663
0.999466 0.000000 0.032663
0.999466 0.000000 0.032663
0.999466 0.000000 0.032663
-0.999466 -0.000000 -0.032663
-0.999466 -0.000000 -0.032663
-0.999466 -0.000000 -0.032663
0.999466 -0.000001 0.032662
0.999466 -0.000001 0.032662
0.999467 -0.000001 0.032662
-0.999466 0.000001 -0.032662
-0.999466 0.000001 -0.032662
-0.999466 0.000001 -0.032662
0.999466 -0.000002 0.032664
0.999466 -0.000002 0.032664
0.999466 -0.000002 0.032664
0.999466 -0.000000 0.032663
0.999466 -0.000000 0.032663
0.999466 -0.000000 0.032663
-0.999466 0.000002 -0.032664
-0.999466 0.000002 -0.032664
-0.999466 0.000002 -0.032664
-0.999466 0.000000 -0.032663
-0.999466 0.000000 -0.032663
-0.999466 0.000000 -0.032663
0.999466 -0.000002 0.032663
0.999466 -0.000002 0.032663
0.999466 -0.000002 0.032663
0.999466 -0.000002 0.032663
0.999466 -0.000002 0.032663
0.999466 -0.000002 0.032663
0.999466 0.000000 0.032662
0.999466 0.000000 0.032662
0.999466 0.000000 0.032662
-0.999466 0.000002 -0.032663
-0.999466 0.000002 -0.032663
-0.999466 0.000002 -0.032663
-0.999467 0.000000 -0.032658
-0.999467 0.000000 -0.032658
-0.999467 0.000000 -0.032658
-0.999466 0.000001 -0.032663
-0.999466 0.000001 -0.032663
-0.999466 0.000001 -0.032663
-0.000000 0.000000 1.000000
-0.000000 0.000000 1.000000
-0.000000 0.000000 1.000000
-0.000000 0.000000 1.000000
-0.000000 0.000000 1.000000
-0.000000 0.000000 1.000000
0.000000 0.000000 -1.000000
0.000000 0.000000 -1.000000
0.000000 0.000000 -1.000000
0.000000 0.000000 -1.000000
0.000000 0.000000 -1.000000
0.000000 0.000000 -1.000000
0.000000 0.923568 0.383436
0.000000 0.926932 -0.375230
0.000000 0.926929 -0.375236
0.000000 0.926929 -0.375236
0.000000 0.923569 0.383433
0.000000 0.923568 0.383436
-0.000000 -0.926461 0.376390
-0.000000 -0.924062 -0.382243
-0.000000 -0.924061 -0.382246
-0.000000 -0.924061 -0.382246
-0.000000 -0.926463 0.376386
-0.000000 -0.926461 0.376390
-0.000000 -0.926463 0.376386
-0.000000 -0.716665 0.697418
-0.000000 -0.716665 0.697418
-0.000000 -0.716665 0.697418
-0.000000 -0.926461 0.376390
-0.000000 -0.926463 0.376386
0.000000 0.923569 0.383433
-0.000000 0.705955 0.708257
0.000000 0.705957 0.708255
0.000000 0.705957 0.708255
0.000000 0.923568 0.383436
0.000000 0.923569 0.383433
0.000000 0.926932 -0.375230
-0.000000 0.718401 -0.695629
0.000000 0.718399 -0.695631
0.000000 0.718399 -0.695631
0.000000 0.926929 -0.375236
0.000000 0.926932 -0.375230
-0.000000 -0.924062 -0.382243
-0.000000 -0.707776 -0.706437
-0.000000 -0.707778 -0.706435
-0.000000 -0.707778 -0.706435
-0.000000 -0.924061 -0.382246
-0.000000 -0.924062 -0.382243
</float_array>
          <technique_common>
            <accessor source="#Box003-Normal0-array" count="774" stride="3">
              <param name="X" type="float"/>
              <param name="Y" type="float"/>
              <param name="Z" type="float"/>
            </accessor>
          </technique_common>
        </source>
        <source id="Box003-UV0">
          <float_array id="Box003-UV0-array" count="564">
0.231577 0.539730
0.231577 0.584730
0.231577 0.539730
0.231577 0.584730
0.984566 0.019644
0.800851 0.019645
0.340301 0.073324
0.661424 0.073324
0.661424 0.224272
0.340301 0.224272
0.982546 0.073324
0.982546 0.224272
0.019178 0.224272
0.019178 0.073324
0.340301 0.031248
0.661424 0.031248
0.661424 0.061880
0.340301 0.061880
0.340301 0.019803
0.340301 0.073367
0.661424 0.073367
0.661424 0.224316
0.340301 0.224316
0.661424 0.019803
0.982546 0.031248
0.982546 0.061880
0.019178 0.061880
0.019178 0.031248
0.019178 0.019803
0.661424 0.061922
0.340301 0.061922
0.340301 0.031291
0.661424 0.031291
0.982546 0.019803
0.800851 0.074058
0.340301 0.019846
0.661424 0.019846
0.982546 0.073367
0.982546 0.224316
0.019178 0.061922
0.019178 0.031291
0.019178 0.224316
0.019178 0.073367
0.984566 0.074058
0.984566 0.584212
0.800852 0.584212
0.800851 0.062295
0.984566 0.062295
0.800588 0.530334
0.984302 0.530334
0.984302 0.020180
0.982546 0.031291
0.982546 0.061922
0.800588 0.020180
0.984566 0.030811
0.800851 0.030811
0.800588 0.542097
0.019178 0.019846
0.982546 0.019846
0.635657 0.108832
0.642079 0.123367
0.642079 0.162269
0.635657 0.176803
0.984302 0.542097
0.728336 0.855793
0.728336 0.823109
0.932757 0.823109
0.800588 0.584216
0.800588 0.573581
0.984302 0.584216
0.932757 0.855793
1.205545 0.823109
1.205545 0.855793
0.382511 0.176803
0.984302 0.573581
0.728432 0.855793
0.376089 0.162269
0.376089 0.123367
0.728432 0.823109
0.932853 0.823109
0.382511 0.108832
0.728336 0.918647
0.712498 0.925082
0.685044 0.925082
0.685044 0.831759
0.712498 0.831759
0.685042 0.925012
0.685042 0.831689
0.712496 0.831689
0.712496 0.925012
0.932757 0.918647
0.932853 0.855793
1.205641 0.823109
1.205641 0.855793
0.728432 0.918647
0.932853 0.918647
1.205545 0.918647
1.205641 0.918647
0.016490 0.539730
0.015865 0.539730
0.015865 0.584730
0.016490 0.584730
0.426127 0.539729
0.426127 0.584730
0.413557 0.584730
0.413557 0.539730
0.990519 0.539729
0.990519 0.584729
0.439435 0.584730
0.439435 0.539729
0.009547 0.999677
0.009547 0.601016
0.166258 0.999677
0.248209 0.643434
0.267798 0.695021
0.307260 0.539730
0.307260 0.584730
0.009625 0.598176
0.240143 0.715586
0.248128 0.903883
0.799183 0.584729
0.248209 0.968351
0.799183 0.539729
0.009625 0.996837
0.226686 0.762660
0.699124 0.584729
0.256519 0.914366
0.259240 0.934013
0.256666 0.955590
0.229559 0.872380
0.222444 0.818856
0.699124 0.539729
0.166336 0.996837
0.486447 0.584730
0.461331 0.584730
0.461331 0.539729
0.486447 0.539729
0.677158 0.539729
0.291412 0.689043
0.335270 0.643434
0.311982 0.695633
0.335270 0.666732
0.240221 0.712746
0.688798 0.539729
0.448579 0.584730
0.448578 0.539729
0.331251 0.691397
0.322426 0.698624
0.267876 0.692181
0.248287 0.640595
0.248287 0.965511
0.515278 0.584730
0.515278 0.539729
0.656312 0.539729
0.688798 0.584729
0.677158 0.584730
0.248206 0.901042
0.226764 0.759820
0.256744 0.952750
0.259318 0.931174
0.256597 0.911525
0.666557 0.539729
0.666556 0.584730
0.549045 0.584730
0.549045 0.539729
0.229637 0.869541
0.222522 0.816016
0.291490 0.686203
0.312060 0.692793
0.335348 0.640594
0.322505 0.695784
0.331329 0.688558
0.335348 0.663892
0.574443 0.539729
0.604762 0.539729
0.656312 0.584730
0.604762 0.584730
0.574443 0.584730
0.633640 0.539729
0.633640 0.584730
0.016490 0.539730
0.015865 0.539730
0.015865 0.584730
0.016490 0.584730
0.426127 0.539729
0.426127 0.584730
0.413557 0.584730
0.413557 0.539730
0.990519 0.539729
0.990519 0.584729
0.439435 0.584730
0.439435 0.539729
0.977232 0.598176
0.977232 0.996837
0.820522 0.598176
0.738571 0.954418
0.718981 0.902831
0.307260 0.539730
0.307260 0.584730
0.619289 0.996836
0.746637 0.882266
0.738651 0.693970
0.799183 0.584729
0.738571 0.629501
0.799183 0.539729
0.619289 0.598176
0.760094 0.835192
0.699124 0.584729
0.730260 0.683487
0.727540 0.663839
0.730114 0.642263
0.757220 0.725472
0.764335 0.778996
0.699124 0.539729
0.462579 0.598176
0.486447 0.584730
0.461331 0.584730
0.461331 0.539729
0.486447 0.539729
0.677158 0.539729
0.695368 0.908809
0.651510 0.954418
0.674798 0.902220
0.651510 0.931121
0.388694 0.882266
0.688798 0.539729
0.448579 0.584730
0.448578 0.539729
0.655528 0.906455
0.664353 0.899228
0.361039 0.902831
0.380628 0.954417
0.380628 0.629501
0.515278 0.584730
0.515278 0.539729
0.656312 0.539729
0.688798 0.584729
0.677158 0.584730
0.380708 0.693970
0.402151 0.835192
0.372171 0.642262
0.369597 0.663838
0.372318 0.683487
0.666557 0.539729
0.666556 0.584730
0.549045 0.584730
0.549045 0.539729
0.399277 0.725471
0.406392 0.778996
0.337425 0.908809
0.316855 0.902219
0.293567 0.954418
0.306410 0.899228
0.297586 0.906455
0.293567 0.931121
0.574443 0.539729
0.604762 0.539729
0.656312 0.584730
0.604762 0.584730
0.574443 0.584730
0.633640 0.539729
0.633640 0.584730
-0.002210 0.019502
0.998738 0.019502
0.998738 0.530743
-0.002210 0.530743
0.998642 0.584495
-0.002306 0.584495
-0.002306 0.073254
0.998642 0.073254
0.998738 0.542188
-0.002210 0.542188
-0.002306 0.031178
0.998642 0.031178
0.998642 0.061810
-0.002306 0.061810
-0.002306 0.019733
0.998642 0.019733
0.998738 0.572819
-0.002210 0.572819
0.998738 0.584264
-0.002210 0.584265
</float_array>
          <technique_common>
            <accessor source="#Box003-UV0-array" count="282" stride="2">
              <param name="S" type="float"/>
              <param name="T" type="float"/>
            </accessor>
          </technique_common>
        </source>
        <vertices id="Box003-VERTEX">
          <input semantic="POSITION" source="#Box003-POSITION"/>
        </vertices>
        <triangles count="258" material="bench">
          <input semantic="VERTEX" offset="0" source="#Box003-VERTEX"/>
          <input semantic="NORMAL" offset="1" source="#Box003-Normal0"/>
          <input semantic="TEXCOORD" offset="2" set="0" source="#Box003-UV0"/>
          <p> 17 0 20 18 1 21 19 2 22 19 3 22 16 4 19 17 5 20 21 6 7 22 7 8 23 8 9 23 9 9 20 10 6 21 11 7 26 12 15 29 13 16 28 14 17 28 15 17 27 16 14 26 17 15 24 18 30 31 19 31 30 20 32 30 21 32 25 22 29 24 23 30 25 24 29 17 25 20 16 26 19 16 27 19 24 28 30 25 29 29 27 30 14 19 31 18 18 32 23 18 33 23 26 34 15 27 35 14 29 36 16 21 37 7 20 38 6 20 39 6 28 40 17 29 41 16 31 42 31 23 43 35 22 44 36 22 45 36 30 46 32 31 47 31 3 48 37 1 49 38 18 50 21 18 51 21 17 52 20 3 53 37 8 54 41 2 55 42 16 56 19 16 57 19 19 58 22 8 59 41 13 60 10 15 61 11 22 62 8 22 63 8 21 64 7 13 65 10 14 66 12 12 67 13 20 68 6 20 69 6 23 70 9 14 71 12 9 72 24 5 73 25 29 74 16 29 75 16 26 76 15 9 77 24 4 78 26 0 79 27 27 80 14 27 81 14 28 82 17 4 83 26 10 84 39 6 85 40 31 86 31 31 87 31 24 88 30 10 89 39 7 90 51 11 91 52 25 92 29 25 93 29 30 94 32 7 95 51 11 96 52 3 97 37 17 98 20 17 99 20 25 100 29 11 101 52 2 102 42 10 103 39 24 104 30 24 105 30 16 106 19 2 107 42 0 108 27 8 109 28 19 110 18 19 111 18 27 112 14 0 113 27 1 114 33 9 115 24 26 116 15 26 117 15 18 118 23 1 119 33 5 120 25 13 121 10 21 122 7 21 123 7 29 124 16 5 125 25 12 126 13 4 127 26 28 128 17 28 129 17 20 130 6 12 131 13 6 132 40 14 133 57 23 134 35 23 135 35 31 136 31 6 137 40 15 138 58 7 139 51 30 140 32 30 141 32 22 142 36 15 143 58 36 144 43 33 145 44 40 146 45 40 147 45 41 148 34 36 149 43 39 150 49 38 151 50 42 152 53 42 153 53 43 154 48 39 155 49 34 156 54 32 157 47 45 158 46 45 159 46 46 160 55 34 161 54 37 162 74 35 163 63 47 164 56 47 165 56 44 166 68 37 167 74 33 168 69 37 169 74 44 170 68 44 171 68 40 172 67 33 173 69 32 174 47 36 175 43 41 176 34 41 177 34 45 178 46 32 179 47 38 180 4 34 181 54 46 182 55 46 183 55 42 184 5 38 185 4 35 186 63 39 187 49 43 188 48 43 189 48 47 190 56 35 191 63 44 192 60 47 193 61 43 194 62 43 195 62 42 196 73 46 197 76 46 198 76 45 199 77 41 200 80 43 201 62 46 202 76 41 203 80 44 204 60 43 205 62 41 206 80 40 207 59 44 208 60 41 209 80 48 210 82 50 211 83 51 212 84 51 213 84 49 214 85 48 215 82 52 216 86 53 217 87 55 218 88 55 219 88 54 220 89 52 221 86 49 222 64 56 223 70 57 224 90 57 225 90 48 226 81 49 227 64 51 228 65 58 229 66 56 230 70 56 231 70 49 232 64 51 233 65 50 234 75 59 235 91 58 236 95 58 237 95 51 238 94 50 239 75 48 240 78 57 241 79 59 242 91 59 243 91 50 244 75 48 245 78 53 246 72 52 247 96 57 248 90 57 249 90 56 250 70 53 251 72 55 252 71 53 253 72 56 254 70 56 255 70 58 256 66 55 257 71 54 258 93 55 259 97 58 260 95 58 261 95 59 262 91 54 263 93 52 264 92 54 265 93 59 266 91 59 267 91 57 268 79 52 269 92 60 270 98 62 271 0 63 272 1 63 273 1 61 274 101 60 275 98 64 276 102 65 277 103 67 278 104 67 279 104 66 280 105 64 281 102 61 282 107 72 283 120 73 284 122 73 285 122 60 286 106 61 287 107 61 288 110 63 289 111 72 290 112 62 291 99 71 292 115 70 293 116 70 294 116 63 295 100 62 296 99 81 297 134 76 298 135 77 299 136 77 300 136 80 301 133 81 302 134 66 303 105 67 304 104 70 305 116 70 306 116 71 307 115 66 308 105 68 309 125 69 310 131 73 311 122 73 312 122 72 313 120 68 314 125 62 315 117 60 316 123 73 317 132 70 318 113 93 319 114 92 320 118 92 321 118 63 322 111 70 323 113 85 324 142 84 325 148 71 326 149 71 327 149 62 328 117 85 329 142 65 330 103 64 331 102 74 332 109 74 333 109 83 334 108 65 335 103 83 336 108 74 337 109 75 338 145 75 339 145 82 340 144 83 341 108 82 342 144 75 343 145 76 344 135 76 345 135 81 346 134 82 347 144 69 348 131 68 349 125 79 350 154 79 351 154 78 352 143 69 353 131 95 354 174 98 355 176 99 356 177 99 357 177 94 358 173 95 359 174 78 360 143 79 361 154 89 362 155 89 363 155 88 364 137 78 365 143 88 366 137 89 367 155 90 368 162 90 369 162 87 370 161 88 371 137 87 372 161 90 373 162 91 374 175 91 375 175 86 376 153 87 377 161 80 378 133 77 379 136 84 380 152 84 381 152 93 382 151 80 383 133 93 384 151 84 385 152 85 386 164 85 387 164 92 388 163 93 389 151 91 390 119 68 391 121 72 392 112 73 393 132 69 394 150 86 395 156 92 396 118 99 397 124 63 398 111 62 399 117 94 400 157 85 401 142 86 402 153 91 403 175 97 404 179 97 405 179 96 406 178 86 407 153 96 408 178 97 409 179 98 410 176 98 411 176 95 412 174 96 413 178 92 414 163 85 415 164 94 416 173 94 417 173 99 418 177 92 419 163 90 420 126 89 421 127 79 422 128 90 423 126 79 424 128 68 425 121 91 426 119 90 427 126 68 428 121 69 429 150 78 430 158 88 431 159 88 432 159 87 433 160 86 434 156 69 435 150 88 436 159 86 437 156 97 438 129 91 439 119 72 440 112 73 441 132 86 442 156 96 443 165 98 444 130 97 445 129 72 446 112 73 447 132 96 448 165 95 449 166 98 450 130 72 451 112 63 452 111 62 453 117 73 454 132 95 455 166 99 456 124 98 457 130 63 458 111 62 459 117 95 460 166 94 461 157 70 462 113 80 463 138 93 464 114 84 465 148 77 466 167 71 467 149 67 468 139 81 469 140 80 470 138 80 471 138 70 472 113 67 473 139 77 474 167 76 475 168 66 476 169 66 477 169 71 478 149 77 479 167 65 480 141 83 481 146 82 482 147 65 483 141 82 484 147 81 485 140 67 486 139 65 487 141 81 488 140 76 489 168 75 490 170 74 491 171 74 492 171 64 493 172 66 494 169 76 495 168 74 496 171 66 497 169 100 498 180 102 499 2 103 500 3 103 501 3 101 502 183 100 503 180 104 504 184 105 505 185 107 506 186 107 507 186 106 508 187 104 509 184 101 510 189 112 511 202 113 512 204 113 513 204 100 514 188 101 515 189 101 516 192 103 517 193 112 518 194 102 519 181 111 520 197 110 521 198 110 522 198 103 523 182 102 524 181 121 525 216 116 526 217 117 527 218 117 528 218 120 529 215 121 530 216 106 531 187 107 532 186 110 533 198 110 534 198 111 535 197 106 536 187 108 537 207 109 538 213 113 539 204 113 540 204 112 541 202 108 542 207 102 543 199 100 544 205 113 545 214 110 546 195 133 547 196 132 548 200 132 549 200 103 550 193 110 551 195 125 552 224 124 553 230 111 554 231 111 555 231 102 556 199 125 557 224 105 558 185 104 559 184 114 560 191 114 561 191 123 562 190 105 563 185 123 564 190 114 565 191 115 566 227 115 567 227 122 568 226 123 569 190 122 570 226 115 571 227 116 572 217 116 573 217 121 574 216 122 575 226 109 576 213 108 577 207 119 578 236 119 579 236 118 580 225 109 581 213 135 582 256 138 583 258 139 584 259 139 585 259 134 586 255 135 587 256 118 588 225 119 589 236 129 590 237 129 591 237 128 592 219 118 593 225 128 594 219 129 595 237 130 596 244 130 597 244 127 598 243 128 599 219 127 600 243 130 601 244 131 602 257 131 603 257 126 604 235 127 605 243 120 606 215 117 607 218 124 608 234 124 609 234 133 610 233 120 611 215 133 612 233 124 613 234 125 614 246 125 615 246 132 616 245 133 617 233 131 618 201 108 619 203 112 620 194 113 621 214 109 622 232 126 623 238 132 624 200 139 625 206 103 626 193 102 627 199 134 628 239 125 629 224 126 630 235 131 631 257 137 632 261 137 633 261 136 634 260 126 635 235 136 636 260 137 637 261 138 638 258 138 639 258 135 640 256 136 641 260 132 642 245 125 643 246 134 644 255 134 645 255 139 646 259 132 647 245 130 648 208 129 649 209 119 650 210 130 651 208 119 652 210 108 653 203 131 654 201 130 655 208 108 656 203 109 657 232 118 658 240 128 659 241 128 660 241 127 661 242 126 662 238 109 663 232 128 664 241 126 665 238 137 666 211 131 667 201 112 668 194 113 669 214 126 670 238 136 671 247 138 672 212 137 673 211 112 674 194 113 675 214 136 676 247 135 677 248 138 678 212 112 679 194 103 680 193 102 681 199 113 682 214 135 683 248 139 684 206 138 685 212 103 686 193 102 687 199 135 688 248 134 689 239 110 690 195 120 691 220 133 692 196 124 693 230 117 694 249 111 695 231 107 696 221 121 697 222 120 698 220 120 699 220 110 700 195 107 701 221 117 702 249 116 703 250 106 704 251 106 705 251 111 706 231 117 707 249 105 708 223 123 709 228 122 710 229 105 711 223 122 712 229 121 713 222 107 714 221 105 715 223 121 716 222 116 717 250 115 718 252 114 719 253 114 720 253 104 721 254 106 722 251 116 723 250 114 724 253 106 725 251 141 726 263 142 727 264 143 728 265 143 729 265 140 730 262 141 731 263 145 732 267 146 733 268 147 734 269 147 735 269 144 736 266 145 737 267 150 738 270 153 739 278 152 740 279 152 741 279 151 742 271 150 743 270 148 744 273 155 745 274 154 746 275 154 747 275 149 748 272 148 749 273 149 750 272 141 751 276 140 752 277 140 753 277 148 754 273 149 755 272 151 756 271 143 757 265 142 758 264 142 759 264 150 760 270 151 761 271 153 762 278 145 763 280 144 764 281 144 765 281 152 766 279 153 767 278 155 768 274 147 769 269 146 770 268 146 771 268 154 772 275 155 773 274</p>
        </triangles>
      </mesh>
    </geometry>
  </library_geometries>
  <library_visual_scenes>
    <visual_scene id="" name="">
      <node name="Box003" id="Box003" sid="Box003">
        <matrix sid="matrix">1.500000 0.000000 0.000000 0.000000 0.000000 0.000000 1.500000 0.000000 0.000000 -1.500000 0.000000 0.000000 0.000000 0.000000 0.000000 1.000000</matrix>
        <instance_geometry url="#Box003-lib">
          <bind_material>
            <technique_common>
              <instance_material symbol="bench" target="#bench"/>
            </technique_common>
          </bind_material>
        </instance_geometry>
        <extra>
          <technique profile="FCOLLADA">
            <visibility>1.000000</visibility>
          </technique>
        </extra>
      </node>
      <extra>
        <technique profile="MAX3D">
          <frame_rate>30.000000</frame_rate>
        </technique>
        <technique profile="FCOLLADA">
          <start_time>0.000000</start_time>
          <end_time>3.333333</end_time>
        </technique>
      </extra>
    </visual_scene>
  </library_visual_scenes>
  <scene>
    <instance_visual_scene url="#"></instance_visual_scene>
  </scene>
</COLLADA>

