<?xml version="1.0" encoding="utf-8"?>
<COLLADA xmlns="http://www.collada.org/2005/11/COLLADASchema" version="1.4.1">
  <asset>
    <contributor>
      <author></author>
      <authoring_tool>FBX COLLADA exporter</authoring_tool>
      <comments></comments>
    </contributor>
    <created>2012-07-31T12:59:08Z</created>
    <keywords></keywords>
    <modified>2012-07-31T12:59:08Z</modified>
    <revision></revision>
    <subject></subject>
    <title></title>
    <unit meter="0.010000" name="centimeter"></unit>
    <up_axis>Y_UP</up_axis>
  </asset>
  <library_images>
    <image id="file1-image" name="file1">
      <init_from>file://C:/Users/sindre/Desktop/Sindre/Amnesia - Freelance/Amnesia - Source/StaticObjects/engineroom/machinery/engineroom_atlas_01.tga</init_from>
    </image>
  </library_images>
  <library_materials>
    <material id="phong1" name="phong1">
      <instance_effect url="#phong1-fx"/>
    </material>
  </library_materials>
  <library_effects>
    <effect id="phong1-fx" name="phong1">
      <profile_COMMON>
        <technique sid="standard">
          <phong>
            <emission>
              <color sid="emission">0.000000  0.000000 0.000000 1.000000</color>
            </emission>
            <ambient>
              <color sid="ambient">0.000000  0.000000 0.000000 1.000000</color>
            </ambient>
            <diffuse>
              <texture texture="file1-image" texcoord="CHANNEL0">
                <extra>
                  <technique profile="MAYA">
                    <wrapU sid="wrapU0">TRUE</wrapU>
                    <wrapV sid="wrapV0">TRUE</wrapV>
                    <blend_mode>NONE</blend_mode>
                  </technique>
                </extra>
              </texture>
            </diffuse>
            <specular>
              <color sid="specular">0.500000  0.500000 0.500000 1.000000</color>
            </specular>
            <shininess>
              <float sid="shininess">20.000000</float>
            </shininess>
            <reflective>
              <color sid="reflective">0.000000  0.000000 0.000000 1.000000</color>
            </reflective>
            <reflectivity>
              <float sid="reflectivity">0.500000</float>
            </reflectivity>
            <transparent opaque="RGB_ZERO">
              <color sid="transparent">0.000000  0.000000 0.000000 1.000000</color>
            </transparent>
            <transparency>
              <float sid="transparency">1.000000</float>
            </transparency>
          </phong>
        </technique>
      </profile_COMMON>
    </effect>
  </library_effects>
  <library_geometries>
    <geometry id="wall_01_buttress1-lib" name="wall_01_buttress1Mesh">
      <mesh>
        <source id="wall_01_buttress1-POSITION">
          <float_array id="wall_01_buttress1-POSITION-array" count="120">
800.000000 0.000000 23.003754
0.000000 0.000000 23.003754
0.000000 8.379883 23.003754
0.000000 8.353699 13.545715
0.000000 10.340363 6.261383
0.000000 64.679016 6.261414
0.000000 66.770844 13.280762
0.000000 67.641327 23.003754
0.000000 74.729858 23.003754
800.000000 8.379883 23.003754
800.000000 8.353699 13.545715
800.000000 10.340363 6.261383
800.000000 64.679016 6.261383
800.000000 66.770844 13.280731
800.000000 67.641327 23.003754
800.000000 74.729858 23.003754
800.000000 0.000000 0.059723
0.000000 0.000000 0.059723
800.000000 74.729858 0.059723
0.000000 74.729858 0.059723
800.000000 800.000000 45.947754
0.000000 800.000000 45.947754
0.000000 808.379883 45.947754
0.000000 808.353699 36.489746
0.000000 810.340332 29.205414
0.000000 864.679016 29.205414
0.000000 866.770874 36.224762
0.000000 867.641296 45.947754
0.000000 874.729858 45.947754
800.000000 808.379883 45.947754
800.000000 808.353699 36.489746
800.000000 810.340332 29.205414
800.000000 864.679016 29.205414
800.000000 866.770813 36.224731
800.000000 867.641296 45.947754
800.000000 874.729858 45.947754
0.000000 800.000000 0.059692
800.000000 800.000000 0.059692
0.000000 874.729858 0.059692
800.000000 874.729858 0.059692
</float_array>
          <technique_common>
            <accessor source="#wall_01_buttress1-POSITION-array" count="40" stride="3">
              <param name="X" type="float"/>
              <param name="Y" type="float"/>
              <param name="Z" type="float"/>
            </accessor>
          </technique_common>
        </source>
        <source id="wall_01_buttress1-Normal0">
          <float_array id="wall_01_buttress1-Normal0-array" count="324">
0.000000 0.000000 1.000000
0.000000 0.000000 1.000000
0.000000 0.000000 1.000000
0.000000 0.000000 1.000000
0.000000 0.000000 1.000000
0.000000 0.000000 1.000000
0.000000 0.991334 0.131363
0.000000 0.991334 0.131363
0.000000 0.999996 -0.002768
0.000000 0.999996 -0.002768
0.000000 0.999996 -0.002768
0.000000 0.991334 0.131363
0.000000 0.991334 0.131363
0.000000 0.991334 0.131363
0.000000 0.964763 0.263121
0.000000 0.991334 0.131363
0.000000 0.964763 0.263121
0.000000 0.964763 0.263121
0.000000 -0.000000 1.000000
0.000000 -0.000000 1.000000
0.000000 -0.000000 1.000000
0.000000 -0.000000 1.000000
0.000000 -0.000000 1.000000
0.000000 -0.000000 1.000000
0.000000 -0.982106 0.188328
0.000000 -0.958350 0.285597
0.000000 -0.958350 0.285597
0.000000 -0.958350 0.285597
0.000000 -0.982106 0.188328
0.000000 -0.982106 0.188328
0.000000 -0.982106 0.188328
0.000000 -0.996016 0.089172
0.000000 -0.996016 0.089172
0.000000 -0.996016 0.089172
0.000000 -0.982106 0.188328
0.000000 -0.982106 0.188328
0.000000 0.000000 1.000000
0.000000 0.000000 1.000000
0.000000 0.000000 1.000000
0.000000 0.000000 1.000000
0.000000 0.000000 1.000000
0.000000 0.000000 1.000000
0.000000 1.000000 0.000000
0.000000 1.000000 0.000000
0.000000 1.000000 0.000000
0.000000 1.000000 0.000000
0.000000 1.000000 0.000000
0.000000 1.000000 0.000000
0.000000 -1.000000 0.000000
0.000000 -1.000000 0.000000
0.000000 -1.000000 0.000000
0.000000 -1.000000 0.000000
0.000000 -1.000000 0.000000
0.000000 -1.000000 0.000000
0.000000 -1.000000 0.000000
0.000000 -1.000000 0.000000
0.000000 -1.000000 0.000000
0.000000 -1.000000 0.000000
0.000000 -1.000000 0.000000
0.000000 -1.000000 0.000000
0.000000 0.000000 1.000000
0.000000 0.000000 1.000000
0.000000 0.000000 1.000000
0.000000 0.000000 1.000000
0.000000 0.000000 1.000000
0.000000 0.000000 1.000000
0.000000 0.991334 0.131362
0.000000 0.991334 0.131362
0.000000 0.999996 -0.002767
0.000000 0.999996 -0.002767
0.000000 0.999996 -0.002767
0.000000 0.991334 0.131362
0.000000 0.991334 0.131362
0.000000 0.991334 0.131362
0.000000 0.964764 0.263118
0.000000 0.991334 0.131362
0.000000 0.964764 0.263118
0.000000 0.964764 0.263118
0.000000 0.000000 1.000000
0.000000 0.000000 1.000000
0.000000 0.000000 1.000000
0.000000 0.000000 1.000000
0.000000 0.000000 1.000000
0.000000 0.000000 1.000000
-0.000000 -0.982106 0.188331
-0.000000 -0.958348 0.285603
-0.000000 -0.958348 0.285603
-0.000000 -0.958348 0.285603
-0.000000 -0.982106 0.188331
-0.000000 -0.982106 0.188331
-0.000000 -0.982106 0.188331
-0.000000 -0.996017 0.089170
-0.000000 -0.996017 0.089170
-0.000000 -0.996017 0.089170
-0.000000 -0.982106 0.188331
-0.000000 -0.982106 0.188331
0.000000 0.000000 1.000000
0.000000 0.000000 1.000000
0.000000 0.000000 1.000000
0.000000 0.000000 1.000000
0.000000 0.000000 1.000000
0.000000 0.000000 1.000000
0.000000 1.000000 0.000000
0.000000 1.000000 0.000000
0.000000 1.000000 0.000000
0.000000 1.000000 0.000000
0.000000 1.000000 0.000000
0.000000 1.000000 0.000000
</float_array>
          <technique_common>
            <accessor source="#wall_01_buttress1-Normal0-array" count="108" stride="3">
              <param name="X" type="float"/>
              <param name="Y" type="float"/>
              <param name="Z" type="float"/>
            </accessor>
          </technique_common>
        </source>
        <source id="wall_01_buttress1-UV0">
          <float_array id="wall_01_buttress1-UV0-array" count="96">
0.999587 0.297997
0.003571 0.297997
1.000000 0.619941
0.000000 0.619941
0.000000 0.609148
1.000000 0.609148
1.000000 0.623217
0.000000 0.623217
1.000000 0.628216
0.000000 0.628216
1.000000 0.703974
0.000000 0.703974
1.000000 0.709099
0.000000 0.709099
0.000000 0.713530
1.000000 0.713530
0.000000 0.722659
1.000000 0.722660
0.003571 0.166523
0.999587 0.166523
0.999587 0.265128
0.003571 0.265128
0.999587 0.199391
0.003571 0.199391
0.999587 0.297997
0.003571 0.297997
0.003571 0.232260
0.999587 0.232260
1.000000 0.619941
0.000000 0.619941
0.000000 0.609148
1.000000 0.609148
1.000000 0.623217
0.000000 0.623217
1.000000 0.628216
0.000000 0.628216
1.000000 0.703974
0.000000 0.703974
1.000000 0.709099
0.000000 0.709099
0.000000 0.713530
1.000000 0.713530
0.000000 0.722659
1.000000 0.722660
0.999587 0.232260
0.003571 0.232260
0.003571 0.166523
0.999587 0.166523
</float_array>
          <technique_common>
            <accessor source="#wall_01_buttress1-UV0-array" count="48" stride="2">
              <param name="S" type="float"/>
              <param name="T" type="float"/>
            </accessor>
          </technique_common>
        </source>
        <vertices id="wall_01_buttress1-VERTEX">
          <input semantic="POSITION" source="#wall_01_buttress1-POSITION"/>
        </vertices>
        <triangles count="36" material="phong1">
          <input semantic="VERTEX" offset="0" source="#wall_01_buttress1-VERTEX"/>
          <input semantic="NORMAL" offset="1" source="#wall_01_buttress1-Normal0"/>
          <input semantic="TEXCOORD" offset="2" set="0" source="#wall_01_buttress1-UV0"/>
          <p> 1 0 4 9 1 2 2 2 3 9 3 2 1 4 4 0 5 5 10 6 6 3 7 7 9 8 2 2 9 3 9 10 2 3 11 7 3 12 7 10 13 6 11 14 8 3 15 7 11 16 8 4 17 9 4 18 9 12 19 10 5 20 11 12 21 10 4 22 9 11 23 8 13 24 12 5 25 11 12 26 10 5 27 11 13 28 12 6 29 13 6 30 13 14 31 15 7 32 14 14 33 15 6 34 13 13 35 12 7 36 14 14 37 15 8 38 16 15 39 17 8 40 16 14 41 15 8 42 18 15 43 19 18 44 22 8 45 18 18 46 22 19 47 23 0 48 0 1 49 1 17 50 21 0 51 0 17 52 21 16 53 20 20 54 24 21 55 25 36 56 26 20 57 24 36 58 26 37 59 27 21 60 30 29 61 28 22 62 29 29 63 28 21 64 30 20 65 31 30 66 32 23 67 33 29 68 28 22 69 29 29 70 28 23 71 33 23 72 33 30 73 32 31 74 34 23 75 33 31 76 34 24 77 35 32 78 36 25 79 37 24 80 35 32 81 36 24 82 35 31 83 34 33 84 38 25 85 37 32 86 36 25 87 37 33 88 38 26 89 39 26 90 39 34 91 41 27 92 40 34 93 41 26 94 39 33 95 38 27 96 40 34 97 41 28 98 42 35 99 43 28 100 42 34 101 41 28 102 46 35 103 47 39 104 44 28 105 46 39 106 44 38 107 45</p>
        </triangles>
      </mesh>
    </geometry>
  </library_geometries>
  <library_visual_scenes>
    <visual_scene id="" name="">
      <node name="wall_01_buttress1" id="wall_01_buttress1" sid="wall_01_buttress1">
        <matrix sid="matrix">1.000000 0.000000 0.000000 0.000000 0.000000 1.000000 0.000000 0.000000 0.000000 0.000000 1.000000 -0.059711 0.000000 0.000000 0.000000 1.000000</matrix>
        <instance_geometry url="#wall_01_buttress1-lib">
          <bind_material>
            <technique_common>
              <instance_material symbol="phong1" target="#phong1"/>
            </technique_common>
          </bind_material>
        </instance_geometry>
        <extra>
          <technique profile="FCOLLADA">
            <visibility>1.000000</visibility>
          </technique>
        </extra>
      </node>
      <extra>
        <technique profile="MAX3D">
          <frame_rate>24.000000</frame_rate>
        </technique>
        <technique profile="FCOLLADA">
          <start_time>0.041667</start_time>
          <end_time>2.000000</end_time>
        </technique>
      </extra>
    </visual_scene>
  </library_visual_scenes>
  <scene>
    <instance_visual_scene url="#"></instance_visual_scene>
  </scene>
</COLLADA>

