<?xml version="1.0" encoding="utf-8"?>
<COLLADA xmlns="http://www.collada.org/2005/11/COLLADASchema" version="1.4.1">
  <asset>
    <contributor>
      <author></author>
      <authoring_tool>FBX COLLADA exporter</authoring_tool>
      <comments></comments>
    </contributor>
    <created>2012-08-01T16:34:59Z</created>
    <keywords></keywords>
    <modified>2012-08-01T16:34:59Z</modified>
    <revision></revision>
    <subject></subject>
    <title></title>
    <unit meter="0.010000" name="centimeter"></unit>
    <up_axis>Y_UP</up_axis>
  </asset>
  <library_images>
    <image id="engineroom_floor_01_file1-image" name="engineroom_floor_01_file1">
      <init_from>file://C:/Users/sindre/Desktop/Sindre/Amnesia - Freelance/Amnesia - Source/StaticObjects/engineroom/structure/engineroom_walls_01.jpg</init_from>
    </image>
  </library_images>
  <library_materials>
    <material id="engineroom_floor_01_engineroom_floor_01" name="engineroom_floor_01_engineroom_floor_01">
      <instance_effect url="#engineroom_floor_01_engineroom_floor_01-fx"/>
    </material>
  </library_materials>
  <library_effects>
    <effect id="engineroom_floor_01_engineroom_floor_01-fx" name="engineroom_floor_01_engineroom_floor_01">
      <profile_COMMON>
        <technique sid="standard">
          <phong>
            <emission>
              <color sid="emission">0.000000  0.000000 0.000000 1.000000</color>
            </emission>
            <ambient>
              <color sid="ambient">0.000000  0.000000 0.000000 1.000000</color>
            </ambient>
            <diffuse>
              <texture texture="engineroom_floor_01_file1-image" texcoord="CHANNEL0">
                <extra>
                  <technique profile="MAYA">
                    <wrapU sid="wrapU0">TRUE</wrapU>
                    <wrapV sid="wrapV0">TRUE</wrapV>
                    <blend_mode>NONE</blend_mode>
                  </technique>
                </extra>
              </texture>
            </diffuse>
            <specular>
              <color sid="specular">0.500000  0.500000 0.500000 1.000000</color>
            </specular>
            <shininess>
              <float sid="shininess">1.245731</float>
            </shininess>
            <reflective>
              <color sid="reflective">0.000000  0.000000 0.000000 1.000000</color>
            </reflective>
            <reflectivity>
              <float sid="reflectivity">0.500000</float>
            </reflectivity>
            <transparent opaque="RGB_ZERO">
              <color sid="transparent">0.000000  0.000000 0.000000 1.000000</color>
            </transparent>
            <transparency>
              <float sid="transparency">1.000000</float>
            </transparency>
          </phong>
        </technique>
      </profile_COMMON>
    </effect>
  </library_effects>
  <library_geometries>
    <geometry id="polySurface8-lib" name="polySurface8Mesh">
      <mesh>
        <source id="polySurface8-POSITION">
          <float_array id="polySurface8-POSITION-array" count="183">
0.000000 700.000000 0.001300
-800.000000 700.000000 0.001100
-296.406006 700.000000 0.001200
-511.630798 700.000000 0.001200
0.000000 -0.000000 0.001300
0.000000 319.630585 0.001300
-800.000000 319.630585 0.001100
-800.000000 -0.000000 0.001200
-800.000000 250.032898 0.001100
-800.000000 180.435211 0.001100
-800.000000 110.837494 0.001100
-496.699097 250.032898 0.001200
-495.112183 180.435211 0.001200
-489.879578 110.837494 -4.745200
0.000000 110.837494 0.001300
0.000000 180.435211 0.001300
0.000000 250.032898 0.001300
-307.648010 110.837494 0.001200
-302.337891 180.435211 0.001200
-314.165527 250.032898 -4.861500
-307.257385 -0.000000 0.001300
-313.589783 0.000000 -4.817900
-314.402649 321.998688 -4.998800
-307.151855 329.958405 0.001200
-315.923889 110.837494 -4.960800
-313.608826 180.435211 -4.819500
-305.719299 250.032898 0.001200
-488.604980 326.299408 0.001200
-482.841187 320.485077 -4.998800
-485.430115 0.000000 -4.881200
-491.508118 -0.000000 0.001200
-486.615784 250.032898 -4.949400
-485.419495 180.435211 -4.949400
-502.030579 110.837494 0.001200
-308.900696 317.024292 0.001200
-490.650574 314.677490 0.001200
-482.168274 319.630585 -25.001400
-482.163879 0.000000 -25.001801
-317.858887 0.000000 -25.001801
-317.855652 319.630585 -25.001400
-482.163879 250.032898 -25.001902
-482.163879 180.435211 -25.001902
-482.163879 110.837494 -25.001902
-317.858887 110.837494 -25.001801
-317.858887 180.435211 -25.001902
-317.858887 250.032898 -25.001902
-345.323608 328.830200 -4.998800
-372.117798 341.819305 0.001200
-400.049194 344.278320 0.001200
-427.980530 343.921906 0.001200
-455.788513 337.933624 0.001200
-344.309814 337.649811 0.001200
-372.686401 335.021301 -4.998800
-400.049194 336.409393 -4.998800
-427.411987 336.335114 -4.998800
-454.774780 329.107910 -4.998800
-345.395325 327.252502 -25.000900
-372.758118 332.143494 -25.000900
-400.120911 333.528503 -25.000900
-427.483704 332.143494 -25.000900
-454.846497 327.252502 -25.000900
</float_array>
          <technique_common>
            <accessor source="#polySurface8-POSITION-array" count="61" stride="3">
              <param name="X" type="float"/>
              <param name="Y" type="float"/>
              <param name="Z" type="float"/>
            </accessor>
          </technique_common>
        </source>
        <source id="polySurface8-Normal0">
          <float_array id="polySurface8-Normal0-array" count="183">
0.000000 -0.000000 1.000000
0.000000 -0.000000 1.000000
0.000000 -0.000000 1.000000
0.000000 -0.000000 1.000000
0.000000 -0.000000 1.000000
0.000000 -0.000000 1.000000
0.000000 -0.000000 1.000000
0.000000 -0.000000 1.000000
0.000000 -0.000000 1.000000
0.000000 -0.000000 1.000000
0.000000 -0.000000 1.000000
0.221033 -0.003644 0.975259
0.242037 -0.010194 0.970213
0.711832 0.010602 0.702270
0.000000 -0.000000 1.000000
0.000000 -0.000000 1.000000
0.000000 -0.000000 1.000000
-0.274223 0.008173 0.961631
-0.195923 -0.001381 0.980618
-0.818419 -0.008246 0.574563
-0.318912 -0.001124 0.947784
-0.841749 -0.012150 0.539732
-0.824720 0.031225 0.564679
-0.122917 0.016574 0.992279
-0.843987 0.015910 0.536128
-0.775273 -0.002300 0.631622
-0.255114 -0.007337 0.966883
0.174612 -0.030801 0.984155
0.831129 -0.076454 0.550799
0.860154 0.015176 0.509809
0.339113 0.013909 0.940643
0.787474 -0.001815 0.616345
0.808809 -0.026328 0.587481
0.176427 0.002751 0.984310
-0.364763 0.014775 0.930983
0.293398 -0.034514 0.955367
0.996701 -0.044131 0.068109
0.987079 -0.000000 0.160232
-0.980767 -0.018020 0.194351
-0.985425 -0.000000 0.170111
0.977321 0.006875 0.211653
0.983465 -0.025442 0.179302
0.938470 0.016427 0.344969
-0.994251 0.013452 0.106228
-0.979022 -0.003150 0.203731
-0.983761 -0.001213 0.179479
-0.176660 -0.820486 0.543686
-0.043572 -0.296476 0.954046
-0.006167 -0.273865 0.961748
0.028678 -0.267533 0.963122
0.068760 -0.243352 0.967498
-0.044707 -0.244923 0.968511
-0.121100 -0.841632 0.526299
-0.011326 -0.834493 0.550902
0.088582 -0.815742 0.571592
0.230959 -0.807736 0.542422
-0.221308 -0.972122 0.077473
-0.126840 -0.983470 0.129220
0.000081 -0.989791 0.142526
0.098667 -0.976553 0.191333
0.253494 -0.961824 0.103125
</float_array>
          <technique_common>
            <accessor source="#polySurface8-Normal0-array" count="61" stride="3">
              <param name="X" type="float"/>
              <param name="Y" type="float"/>
              <param name="Z" type="float"/>
            </accessor>
          </technique_common>
        </source>
        <source id="polySurface8-UV0">
          <float_array id="polySurface8-UV0-array" count="254">
0.702894 0.001619
0.699791 0.139019
0.704534 0.311497
-0.495966 0.311452
-0.495345 0.225260
0.259296 0.225374
0.256354 0.311533
1.506096 0.139048
1.505155 0.225285
0.741867 0.225300
0.727470 0.139121
-0.491985 0.001439
0.261980 0.002277
0.214159 0.869507
0.702715 0.400718
0.705169 0.225357
0.302521 0.399269
0.293297 0.311588
0.766369 0.867340
1.504921 0.397541
0.724548 0.394465
0.732397 0.311491
0.292424 0.225312
0.285857 0.139065
1.505696 0.311620
-0.494431 0.138964
0.242887 0.139061
-0.496696 0.397534
0.276141 0.406305
-0.512329 0.870012
0.282385 0.001314
0.728842 0.001677
1.505621 0.001846
0.270352 0.392002
0.730332 0.411006
1.503416 0.867011
0.349197 0.397575
0.331335 0.000912
0.666837 0.001808
0.675165 0.397939
0.345245 0.311131
0.342002 0.224906
0.338715 0.138598
0.669474 0.139228
0.671851 0.225494
0.673608 0.311687
0.185252 0.868145
0.510218 0.428325
0.720035 0.867603
0.643614 0.548244
0.573129 0.548244
0.576442 0.518565
0.650317 0.518565
0.504563 0.548244
0.508215 0.518565
0.576442 0.518565
0.435425 0.548244
0.436838 0.518565
0.508215 0.518565
0.366607 0.548244
0.375503 0.518565
0.436838 0.518565
0.696942 0.548244
0.730332 0.411006
0.649959 0.420909
0.296748 0.548244
0.370684 0.420725
0.270368 0.564411
0.580045 0.425214
0.440328 0.428035
0.650317 0.518565
0.694839 0.518565
0.303368 0.518565
0.375503 0.518565
0.375503 0.518565
0.375503 0.518565
0.296748 0.548244
0.296748 0.548244
0.296748 0.548244
0.694839 0.518565
0.643614 0.548244
0.643614 0.548244
0.643614 0.548244
0.643614 0.548244
0.643614 0.548244
0.643614 0.548244
0.364911 0.564411
0.364911 0.564411
0.364911 0.564411
0.364911 0.564411
0.435425 0.548244
0.435425 0.548244
0.435425 0.548244
0.435425 0.548244
0.435425 0.548244
0.434555 0.564411
0.434555 0.564411
0.434555 0.564411
0.504563 0.548244
0.504563 0.548244
0.504563 0.548244
0.504563 0.548244
0.504563 0.548244
0.504445 0.564411
0.504445 0.564411
0.504445 0.564411
0.573129 0.548244
0.573129 0.548244
0.573129 0.548244
0.573129 0.548244
0.573129 0.548244
0.574272 0.564411
0.574272 0.564411
0.574272 0.564411
0.644186 0.564411
0.644186 0.564411
0.644186 0.564411
0.276141 0.406305
0.366607 0.548244
0.366607 0.548244
0.366607 0.548244
0.696942 0.548244
0.696942 0.548244
0.724559 0.564411
0.436838 0.518565
0.508215 0.518565
0.576442 0.518565
</float_array>
          <technique_common>
            <accessor source="#polySurface8-UV0-array" count="127" stride="2">
              <param name="S" type="float"/>
              <param name="T" type="float"/>
            </accessor>
          </technique_common>
        </source>
        <vertices id="polySurface8-VERTEX">
          <input semantic="POSITION" source="#polySurface8-POSITION"/>
          <input semantic="NORMAL" source="#polySurface8-Normal0"/>
        </vertices>
        <triangles count="87" material="engineroom_floor_01_engineroom_floor_01">
          <input semantic="VERTEX" offset="0" source="#polySurface8-VERTEX"/>
          <input semantic="TEXCOORD" offset="1" set="0" source="#polySurface8-UV0"/>
          <p> 9 4 12 5 11 6 11 6 8 3 9 4 15 8 18 9 17 10 17 10 14 7 15 8 5 19 34 20 26 21 26 21 16 24 5 19 31 17 40 40 36 36 36 36 28 16 31 17 24 1 43 43 38 38 38 38 21 0 24 1 7 11 30 12 33 26 33 26 10 25 7 11 10 25 33 26 12 5 12 5 9 4 10 25 6 27 27 28 3 13 3 13 1 29 6 27 16 24 26 21 18 9 18 9 15 8 16 24 20 31 4 32 14 7 14 7 17 10 20 31 22 14 39 39 45 45 45 45 19 2 22 14 19 2 45 45 44 44 44 44 25 15 19 2 25 15 44 44 43 43 43 43 24 1 25 15 21 0 20 31 17 10 17 10 24 1 21 0 24 1 17 10 18 9 18 9 25 15 24 1 25 15 18 9 26 21 26 21 19 2 25 15 19 2 26 21 34 20 34 20 22 14 19 2 32 22 41 41 40 40 40 40 31 17 32 22 13 23 42 42 41 41 41 41 32 22 13 23 29 30 37 37 42 42 42 42 13 23 29 30 28 16 35 33 11 6 11 6 31 17 28 16 31 17 11 6 12 5 12 5 32 22 31 17 32 22 12 5 33 26 33 26 13 23 32 22 13 23 33 26 30 12 30 12 29 30 13 23 22 14 34 20 23 34 27 28 35 33 28 16 6 27 35 33 27 28 6 27 8 3 11 6 11 6 35 33 6 27 5 19 23 34 34 20 0 35 2 18 23 34 23 34 5 19 0 35 3 46 48 47 2 48 46 81 52 107 57 51 57 126 56 52 46 80 52 109 53 99 58 54 58 125 57 55 52 108 53 101 54 91 59 57 59 124 58 58 53 100 54 93 55 118 60 60 60 75 59 61 54 92 22 121 23 123 51 114 51 115 46 84 22 62 28 77 55 120 50 88 50 89 27 67 28 76 46 83 51 116 47 111 47 112 52 106 46 82 52 50 47 113 48 103 48 104 53 98 52 110 53 53 48 105 49 95 49 96 54 90 53 102 54 56 49 97 50 86 50 87 55 59 54 94 46 49 56 70 39 71 39 79 22 122 46 85 28 65 36 72 60 73 60 74 55 119 28 78 3 46 27 117 50 66 3 46 50 66 49 69 3 46 49 69 48 47 47 68 51 64 2 48 48 47 47 68 2 48 51 64 23 63 2 48</p>
        </triangles>
      </mesh>
    </geometry>
  </library_geometries>
  <library_visual_scenes>
    <visual_scene id="" name="">
      <node name="polySurface8" id="polySurface8" sid="polySurface8">
        <matrix sid="matrix">1.000000 0.000000 0.000000 0.000000 0.000000 1.000000 0.000000 0.000000 0.000000 0.000000 1.000000 0.000000 0.000000 0.000000 0.000000 1.000000</matrix>
        <instance_geometry url="#polySurface8-lib">
          <bind_material>
            <technique_common>
              <instance_material symbol="engineroom_floor_01_engineroom_floor_01" target="#engineroom_floor_01_engineroom_floor_01"/>
            </technique_common>
          </bind_material>
        </instance_geometry>
        <extra>
          <technique profile="FCOLLADA">
            <visibility>1.000000</visibility>
          </technique>
        </extra>
      </node>
      <extra>
        <technique profile="MAX3D">
          <frame_rate>24.000000</frame_rate>
        </technique>
        <technique profile="FCOLLADA">
          <start_time>0.041667</start_time>
          <end_time>2.000000</end_time>
        </technique>
      </extra>
    </visual_scene>
  </library_visual_scenes>
  <scene>
    <instance_visual_scene url="#"></instance_visual_scene>
  </scene>
</COLLADA>

