﻿<?xml version="1.0" encoding="utf-8"?>
<COLLADA xmlns="http://www.collada.org/2005/11/COLLADASchema" version="1.4.1">
  <asset>
    <contributor>
      <author>
      </author>
      <authoring_tool>FBX COLLADA exporter</authoring_tool>
      <comments>
      </comments>
    </contributor>
    <created>2012-08-08T18:12:23Z</created>
    <keywords>
    </keywords>
    <modified>2012-08-08T18:12:23Z</modified>
    <revision>
    </revision>
    <subject>
    </subject>
    <title>
    </title>
    <unit meter="1.000000" name="centimeter">
    </unit>
    <up_axis>Y_UP</up_axis>
  </asset>
  <library_images>
    <image id="Map #27-image" name="Map #27">
      <init_from>file://C:\Users\WesleyTack\Desktop\amnesia_raw\StaticObjects\engineroom\structure\engineroom_atlas_01.jpg</init_from>
    </image>
  </library_images>
  <library_materials>
    <material id="engineroom_beams_01_engineroom_machinery_02_phong1SG" name="engineroom_beams_01_engineroom_machinery_02_phong1SG">
      <instance_effect url="#engineroom_beams_01_engineroom_machinery_02_phong1SG-fx" />
    </material>
  </library_materials>
  <library_effects>
    <effect id="engineroom_beams_01_engineroom_machinery_02_phong1SG-fx" name="engineroom_beams_01_engineroom_machinery_02_phong1SG">
      <profile_COMMON>
        <technique sid="standard">
          <phong>
            <emission>
              <color sid="emission">0.000000  0.000000 0.000000 1.000000</color>
            </emission>
            <ambient>
              <color sid="ambient">0.000000  0.000000 0.000000 1.000000</color>
            </ambient>
            <diffuse>
              <texture texture="Map #27-image" texcoord="CHANNEL0">
                <extra>
                  <technique profile="MAYA">
                    <wrapU sid="wrapU0">TRUE</wrapU>
                    <wrapV sid="wrapV0">TRUE</wrapV>
                    <blend_mode>ADD</blend_mode>
                  </technique>
                </extra>
              </texture>
              <texture texture="Map #27-image" texcoord="CHANNEL0">
                <extra>
                  <technique profile="MAYA">
                    <wrapU sid="wrapU0">TRUE</wrapU>
                    <wrapV sid="wrapV0">TRUE</wrapV>
                    <blend_mode>ADD</blend_mode>
                  </technique>
                </extra>
              </texture>
            </diffuse>
            <specular>
              <color sid="specular">0.500000  0.500000 0.500000 1.000000</color>
            </specular>
            <shininess>
              <float sid="shininess">3.482202</float>
            </shininess>
            <reflective>
              <color sid="reflective">0.000000  0.000000 0.000000 1.000000</color>
            </reflective>
            <reflectivity>
              <float sid="reflectivity">1.000000</float>
            </reflectivity>
            <transparent opaque="RGB_ZERO">
              <color sid="transparent">1.000000  1.000000 1.000000 1.000000</color>
            </transparent>
            <transparency>
              <float sid="transparency">0.000000</float>
            </transparency>
          </phong>
        </technique>
      </profile_COMMON>
    </effect>
  </library_effects>
  <library_geometries>
    <geometry id="wall_006-lib" name="wall_006Mesh">
      <mesh>
        <source id="wall_006-POSITION">
          <float_array id="wall_006-POSITION-array" count="570">
1.000000 -0.999999 -0.867546
1.203411 -1.271211 -0.867546
1.203413 -6.728782 -0.867546
1.000002 -6.999995 -1.845879
1.000000 -0.999995 -1.845879
1.203411 -1.271211 -1.845858
1.203413 -6.728782 -1.845858
6.796590 -6.728782 -0.867546
7.000000 -6.999995 -1.845879
6.796590 -6.728782 -1.845858
6.796589 -1.271211 -0.867546
7.000000 -0.999995 -1.845879
6.796589 -1.271211 -1.845858
0.000000 -8.000000 -0.977115
0.000001 -8.000000 -0.867546
0.218912 -7.781089 -0.841912
0.218912 -7.781089 -0.131418
0.000001 -8.000000 -0.092685
0.000001 -8.000000 0.000000
0.781090 -7.218911 -0.131418
1.000001 -7.000000 -0.092685
1.000001 -7.000000 0.000000
8.000000 -8.000000 -0.977115
8.000000 -8.000000 0.000000
7.218912 -7.218911 -0.841912
7.218912 -7.218911 -0.131418
7.000000 -7.000000 -0.092685
7.000000 -7.000000 0.000000
8.000000 -8.000000 -0.867546
7.781089 -7.781089 -0.841912
7.781089 -7.781089 -0.131418
8.000000 -8.000000 -0.092685
8.000000 0.000000 0.000000
7.218911 -0.781089 -0.841912
7.218911 -0.781089 -0.131418
7.000000 -1.000000 -0.092685
7.000000 -1.000000 0.000000
7.000001 -1.000000 -0.977115
8.000000 0.000000 -0.867546
7.781089 -0.218911 -0.841912
7.781089 -0.218911 -0.131418
8.000000 0.000000 -0.092685
0.000000 0.000000 0.000000
0.781089 -0.781089 -0.841912
0.781089 -0.781089 -0.131418
1.000000 -1.000000 -0.092685
1.000000 -1.000000 0.000000
1.000000 -1.000000 -0.977115
-0.000000 0.000000 -0.867546
0.218911 -0.218911 -0.841912
0.218911 -0.218911 -0.131418
-0.000000 0.000000 -0.092685
7.000001 -6.999999 -0.867546
7.000001 -0.999999 -0.867546
8.000000 0.000000 -0.977115
1.000001 -6.999999 -0.867546
1.000001 -7.000000 -0.977115
0.000000 0.000000 -0.977115
0.000000 -8.000000 -0.977115
0.781090 -7.218911 -0.841912
8.000000 -8.000000 -0.977115
7.000000 -7.000000 -0.977115
8.000000 0.000000 -0.977115
0.000000 0.000000 -0.977115
1.000000 -1.000000 -0.977115
1.000000 -0.999999 -0.867546
1.000001 -6.999999 -0.867546
7.000000 -6.999999 -0.867546
7.000000 -0.999999 -0.867546
7.000000 -7.000000 -0.977115
1.203411 -1.271211 -8.026892
1.203413 -6.728782 -8.026891
6.796590 -6.728782 -8.026891
6.796589 -1.271211 -8.026892
  1.462293 -6.741625 -7.662710 1.462297 -1.241548 -7.662710 1.359846 -6.741625 -7.662710 1.359837 -1.241548 -7.662710 1.432518 -1.241548 -8.004881 1.432514 -6.741625 -8.004881 1.131194 -6.741625 -8.004881 1.131202 -1.241548 -8.004881 1.740827 -6.741625 -7.662710 1.740832 -1.241548 -7.662710 1.638381 -6.741625 -7.662710 1.638371 -1.241548 -7.662710 1.733837 -1.241548 -8.004881 1.733833 -6.741625 -8.004881 2.297897 -6.741625 -7.662710 2.297901 -1.241548 -7.662710 2.195450 -6.741625 -7.662710 2.195440 -1.241548 -7.662710 2.336475 -1.241548 -8.004881 2.336472 -6.741625 -8.004881 2.035153 -6.741625 -8.004881 2.035156 -1.241548 -8.004881 2.019362 -6.741625 -7.662710 2.019367 -1.241548 -7.662710 1.916914 -6.741625 -7.662710 1.916906 -1.241548 -7.662710 2.576431 -6.741625 -7.662710 2.576435 -1.241548 -7.662710 2.473983 -6.741625 -7.662710 2.473974 -1.241548 -7.662710 2.637795 -1.241548 -8.004881 2.637791 -6.741625 -8.004881 3.133499 -6.741625 -7.662710 3.133505 -1.241548 -7.662710 3.031054 -6.741625 -7.662710 3.031044 -1.241548 -7.662710 3.240434 -1.241548 -8.004881 3.240430 -6.741625 -8.004881 2.939111 -6.741625 -8.004881 2.939114 -1.241548 -8.004881 2.854965 -6.741625 -7.662710 2.854970 -1.241548 -7.662710 2.752519 -6.741625 -7.662710 2.752510 -1.241548 -7.662710 3.412035 -6.741625 -7.662710 3.412040 -1.241548 -7.662710 3.309587 -6.741625 -7.662710 3.309578 -1.241548 -7.662710 3.541752 -1.241548 -8.004881 3.541749 -6.741625 -8.004881 3.690569 -6.741625 -7.662710 3.690574 -1.241548 -7.662710 3.588122 -6.741625 -7.662710 3.588113 -1.241548 -7.662710 3.843073 -1.241548 -8.004881 3.843069 -6.741625 -8.004881 3.969104 -6.741625 -7.662710 3.969109 -1.241548 -7.662710 3.866657 -6.741625 -7.662710 3.866647 -1.241548 -7.662710 4.144392 -1.241548 -8.004881 4.144388 -6.741625 -8.004881 4.247639 -6.741625 -7.662710 4.247642 -1.241548 -7.662710 4.145192 -6.741625 -7.662710 4.145182 -1.241548 -7.662710 4.445711 -1.241548 -8.004881 4.445707 -6.741625 -8.004881 4.526174 -6.741625 -7.662710 4.526177 -1.241548 -7.662710 4.423727 -6.741625 -7.662710 4.423717 -1.241548 -7.662710 4.747029 -1.241548 -8.004881 4.747027 -6.741625 -8.004881 4.804708 -6.741625 -7.662710 4.804713 -1.241548 -7.662710 4.702261 -6.741625 -7.662710 4.702252 -1.241548 -7.662710 5.048351 -1.241548 -8.004881 5.048346 -6.741625 -8.004881 5.083242 -6.741625 -7.662710 5.083247 -1.241548 -7.662710 4.980796 -6.741625 -7.662710 4.980786 -1.241548 -7.662710 5.349669 -1.241548 -8.004881 5.349666 -6.741625 -8.004881 5.640312 -6.741624 -7.662710 5.640316 -1.241548 -7.662710 5.537865 -6.741624 -7.662710 5.537856 -1.241548 -7.662710 5.952308 -1.241548 -8.004881 5.952304 -6.741624 -8.004881 5.650986 -6.741624 -8.004881 5.650990 -1.241548 -8.004881 5.361777 -6.741625 -7.662710 5.361783 -1.241548 -7.662710 5.259331 -6.741625 -7.662710 5.259322 -1.241548 -7.662710 5.918846 -6.741624 -7.662710 5.918851 -1.241548 -7.662710 5.816400 -6.741624 -7.662710 5.816390 -1.241548 -7.662710 6.253628 -1.241548 -8.004881 6.253624 -6.741624 -8.004881 6.197381 -6.741624 -7.662710 6.197385 -1.241548 -7.662710 6.094934 -6.741624 -7.662710 6.094924 -1.241548 -7.662710 6.554946 -1.241548 -8.004881 6.554944 -6.741624 -8.004881 6.475916 -6.741624 -7.662710 6.475920 -1.241548 -7.662710 6.373469 -6.741624 -7.662710 6.373458 -1.241548 -7.662710 6.856261 -1.241548 -8.004881 6.856263 -6.741624 -8.004881 </float_array>
          <technique_common>
            <accessor source="#wall_006-POSITION-array" count="190" stride="3">
              <param name="X" type="float" />
              <param name="Y" type="float" />
              <param name="Z" type="float" />
            </accessor>
          </technique_common>
        </source>
        <source id="wall_006-Normal0">
          <float_array id="wall_006-Normal0-array" count="2250">
0.000000 0.000000 1.000000
0.000000 0.000000 1.000000
0.000000 0.000000 1.000000
0.000000 0.000000 1.000000
0.000000 0.000000 1.000000
0.000000 0.000000 1.000000
-1.000000 0.000000 0.000000
-1.000000 0.000000 0.000000
-1.000000 0.000000 0.000000
-1.000000 0.000000 0.000000
-1.000000 0.000000 0.000000
-1.000000 0.000000 0.000000
1.000000 0.000000 0.000000
1.000000 0.000000 0.000000
1.000000 0.000000 0.000000
1.000000 0.000000 0.000000
1.000000 0.000000 0.000000
1.000000 0.000000 0.000000
0.000000 0.000000 1.000000
0.000000 0.000000 1.000000
0.000000 0.000000 1.000000
0.000000 0.000000 1.000000
0.000000 0.000000 1.000000
0.000000 0.000000 1.000000
0.000000 -1.000000 0.000000
0.000000 -1.000000 0.000000
0.000000 -1.000000 0.000000
0.000000 -1.000000 0.000000
0.000000 -1.000000 0.000000
0.000000 -1.000000 0.000000
0.000000 1.000000 0.000000
0.000000 1.000000 0.000000
0.000000 1.000000 0.000000
0.000000 1.000000 0.000000
0.000000 1.000000 0.000000
0.000000 1.000000 0.000000
0.000000 0.000000 1.000000
0.000000 0.000000 1.000000
0.000000 0.000000 1.000000
0.000000 0.000000 1.000000
0.000000 0.000000 1.000000
0.000000 0.000000 1.000000
1.000000 0.000000 0.000000
1.000000 0.000000 0.000000
1.000000 0.000000 0.000000
1.000000 0.000000 0.000000
1.000000 0.000000 0.000000
1.000000 0.000000 0.000000
-1.000000 0.000000 0.000000
-1.000000 0.000000 0.000000
-1.000000 0.000000 0.000000
-1.000000 0.000000 0.000000
-1.000000 0.000000 0.000000
-1.000000 0.000000 0.000000
0.000000 0.000000 1.000000
0.000000 0.000000 1.000000
0.000000 0.000000 1.000000
0.000000 0.000000 1.000000
0.000000 0.000000 1.000000
0.000000 0.000000 1.000000
0.000000 1.000000 0.000000
0.000000 1.000000 0.000000
0.000000 1.000000 0.000000
0.000000 1.000000 0.000000
0.000000 1.000000 0.000000
0.000000 1.000000 0.000000
0.000000 -1.000000 0.000000
0.000000 -1.000000 0.000000
0.000000 -1.000000 0.000000
0.000000 -1.000000 0.000000
0.000000 -1.000000 0.000000
0.000000 -1.000000 0.000000
0.000000 -1.000000 0.000000
0.000000 -1.000000 0.000000
0.000000 -1.000000 0.000000
0.000000 -1.000000 0.000000
0.000000 -1.000000 0.000000
0.000000 -1.000000 0.000000
0.000000 1.000000 -0.000009
0.000000 1.000000 -0.000009
0.000000 1.000000 -0.000009
0.000000 1.000000 -0.000009
0.000000 1.000000 -0.000009
0.000000 1.000000 0.000000
0.000000 0.116303 0.993214
0.000000 0.116303 0.993214
0.000000 0.119209 0.992869
0.000000 0.116303 0.993214
0.000000 0.116303 0.993214
0.000000 0.114441 0.993430
0.000000 1.000000 0.000000
0.000000 1.000000 0.000000
0.000000 1.000000 0.000000
0.000000 1.000000 0.000000
0.000000 1.000000 0.000000
0.000000 1.000000 0.000000
0.000000 0.176430 -0.984313
0.000000 0.176430 -0.984313
0.000000 0.176430 -0.984313
0.000000 0.176430 -0.984313
0.000000 0.176430 -0.984313
0.000000 0.176430 -0.984313
0.000000 0.000000 -1.000000
0.000000 0.000000 -1.000000
0.000000 0.000000 -1.000000
0.000000 0.000000 -1.000000
0.000000 0.000000 -1.000000
0.000000 0.000000 -1.000000
0.000000 -1.000000 0.000000
0.000000 -1.000000 0.000000
0.000000 -1.000000 0.000000
0.000000 -1.000000 0.000000
0.000000 -1.000000 0.000000
0.000000 -1.000000 0.000000
0.000000 -0.114489 0.993425
0.000000 -0.114441 0.993430
0.000000 -0.114441 0.993430
0.000000 -0.114441 0.993430
0.000000 -0.114489 0.993425
0.000000 -0.114489 0.993425
0.000000 -1.000000 0.000000
0.000000 -1.000000 0.000000
0.000000 -1.000000 0.000000
0.000000 -1.000000 0.000000
0.000000 -1.000000 0.000000
0.000000 -1.000000 0.000000
0.000000 -0.176430 -0.984313
0.000000 -0.176430 -0.984313
0.000000 -0.176430 -0.984313
0.000000 -0.176430 -0.984313
0.000000 -0.176430 -0.984313
0.000000 -0.176430 -0.984313
0.000000 1.000000 0.000000
0.000000 1.000000 0.000000
0.000000 1.000000 0.000000
0.000000 1.000000 0.000000
0.000000 1.000000 0.000000
0.000000 1.000000 0.000000
0.000000 0.000000 -1.000000
0.000000 0.000000 -1.000000
0.000000 0.000000 -1.000000
0.000000 0.000000 -1.000000
0.000000 0.000000 -1.000000
0.000000 0.000000 -1.000000
0.000000 0.000000 1.000000
0.000000 0.000000 1.000000
0.000000 0.000000 1.000000
0.000000 0.000000 1.000000
0.000000 0.000000 1.000000
0.000000 0.000000 1.000000
1.000000 0.000000 0.000000
1.000000 0.000000 0.000000
1.000000 0.000000 0.000000
1.000000 0.000000 0.000000
1.000000 0.000000 0.000000
1.000000 0.000000 0.000000
-1.000000 0.000000 0.000004
-1.000000 0.000000 0.000004
-1.000000 0.000000 0.000004
-1.000000 0.000000 0.000000
-1.000000 0.000000 -0.000000
-1.000000 0.000000 -0.000000
-0.116304 -0.000000 0.993214
-0.114489 0.000000 0.993425
-0.119209 0.000000 0.992869
-0.116304 0.000000 0.993214
-0.116304 0.000000 0.993214
-0.114441 0.000000 0.993430
-1.000000 0.000000 0.000000
-1.000000 0.000000 0.000000
-1.000000 0.000000 0.000000
-1.000000 0.000000 0.000000
-1.000000 0.000000 0.000000
-1.000000 0.000000 0.000000
-0.176430 0.000000 -0.984313
-0.176430 0.000000 -0.984313
-0.176430 0.000000 -0.984313
-0.176430 0.000000 -0.984313
-0.181055 0.000000 -0.983473
-0.176430 0.000000 -0.984313
0.000000 0.000000 -1.000000
0.000000 0.000000 -1.000000
0.000000 0.000000 -1.000000
0.000000 0.000000 -1.000000
0.000000 0.000000 -1.000000
0.000000 0.000000 -1.000000
1.000000 0.000000 0.000000
1.000000 0.000000 0.000000
1.000000 0.000000 0.000000
1.000000 0.000000 0.000000
1.000000 0.000000 0.000000
1.000000 0.000000 0.000000
0.114489 0.000000 0.993425
0.123787 0.000000 0.992309
0.114441 0.000000 0.993430
0.114441 0.000000 0.993430
0.114489 0.000000 0.993425
0.114489 0.000000 0.993425
1.000000 0.000000 0.000000
1.000000 0.000000 0.000000
1.000000 0.000000 0.000000
1.000000 0.000000 0.000000
1.000000 0.000000 0.000000
1.000000 0.000000 0.000000
0.176430 0.000000 -0.984313
0.171852 0.000000 -0.985123
0.181103 0.000000 -0.983464
0.181103 0.000000 -0.983464
0.176430 0.000000 -0.984313
0.176430 0.000000 -0.984313
-1.000000 0.000000 0.000000
-1.000000 0.000000 0.000000
-1.000000 0.000000 0.000000
-1.000000 0.000000 0.000000
-1.000000 0.000000 0.000000
-1.000000 0.000000 0.000000
0.000000 0.000000 -1.000000
0.000000 0.000000 -1.000000
0.000000 0.000000 -1.000000
0.000000 0.000000 -1.000000
0.000000 0.000000 -1.000000
0.000000 0.000000 -1.000000
0.000000 0.000000 1.000000
0.000000 0.000000 1.000000
0.000000 0.000000 1.000000
0.000000 0.000000 1.000000
0.000000 0.000000 1.000000
0.000000 0.000000 1.000000
0.000000 1.000000 0.000000
0.000000 1.000000 0.000000
0.000000 1.000000 0.000000
0.000000 1.000000 0.000000
0.000000 1.000000 0.000000
0.000000 1.000000 0.000000
0.000000 -1.000000 0.000000
0.000000 -1.000000 0.000011
0.000000 -1.000000 0.000011
0.000000 -1.000000 0.000011
0.000000 -1.000000 0.000000
0.000000 -1.000000 0.000000
0.000000 -0.116304 0.993214
0.000000 -0.116402 0.993202
0.000000 -0.116402 0.993202
0.000000 -0.116304 0.993214
0.000000 -0.116304 0.993214
0.000000 -0.116304 0.993214
0.000000 -1.000000 0.000000
0.000000 -1.000000 0.000000
0.000000 -1.000000 0.000000
0.000000 -1.000000 0.000000
0.000000 -1.000000 0.000000
0.000000 -1.000000 0.000000
0.000000 -0.174177 -0.984714
0.000000 -0.174236 -0.984704
0.000000 -0.174236 -0.984704
0.000000 -0.174236 -0.984704
0.000000 -0.174177 -0.984714
0.000000 -0.174177 -0.984714
0.000000 0.000000 -1.000000
0.000000 0.000000 -1.000000
0.000000 0.000000 -1.000000
0.000000 0.000000 -1.000000
0.000000 0.000000 -1.000000
0.000000 0.000000 -1.000000
0.000000 1.000000 0.000000
0.000000 1.000000 0.000000
0.000000 1.000000 0.000000
0.000000 1.000000 0.000000
0.000000 1.000000 0.000000
0.000000 1.000000 0.000000
0.000000 0.116253 0.993220
0.000000 0.115598 0.993296
0.000000 0.115598 0.993296
0.000000 0.115598 0.993296
0.000000 0.116253 0.993220
0.000000 0.116253 0.993220
0.000000 1.000000 0.000000
0.000000 1.000000 0.000000
0.000000 1.000000 0.000000
0.000000 1.000000 0.000000
0.000000 1.000000 0.000000
0.000000 1.000000 0.000000
0.000000 0.174034 -0.984740
0.000000 0.174034 -0.984740
0.000000 0.174034 -0.984740
0.000000 0.174034 -0.984740
0.000000 0.174034 -0.984740
0.000000 0.174034 -0.984740
0.000000 -1.000000 0.000000
0.000000 -1.000000 0.000000
0.000000 -1.000000 0.000000
0.000000 -1.000000 0.000000
0.000000 -1.000000 0.000000
0.000000 -1.000000 0.000000
0.000000 0.000000 -1.000000
0.000000 0.000000 -1.000000
0.000000 0.000000 -1.000000
0.000000 0.000000 -1.000000
0.000000 0.000000 -1.000000
0.000000 0.000000 -1.000000
0.000000 0.000000 1.000000
0.000000 0.000000 1.000000
0.000000 0.000000 1.000000
0.000000 0.000000 1.000000
0.000000 0.000000 1.000000
0.000000 0.000000 1.000000
-1.000000 0.000000 0.000000
-1.000000 0.000000 0.000000
-1.000000 0.000000 0.000000
-1.000000 0.000000 0.000000
-1.000000 0.000000 0.000000
-1.000000 0.000000 0.000000
1.000000 0.000000 0.000000
1.000000 0.000000 -0.000004
1.000000 0.000000 0.000000
1.000000 0.000000 0.000000
1.000000 0.000000 -0.000001
1.000000 0.000000 -0.000001
0.116303 0.000000 0.993214
0.116253 0.000000 0.993220
0.116303 0.000000 0.993214
0.116303 0.000000 0.993214
0.115663 0.000000 0.993289
0.116303 0.000000 0.993214
1.000000 0.000000 0.000000
1.000000 0.000000 -0.000000
1.000000 0.000000 0.000000
1.000000 0.000000 0.000000
1.000000 0.000000 0.000000
1.000000 0.000000 0.000000
0.174034 0.000000 -0.984740
0.174034 0.000000 -0.984740
0.174034 0.000000 -0.984740
0.174034 0.000000 -0.984740
0.174034 0.000000 -0.984740
0.174034 0.000000 -0.984740
0.000000 0.000000 -1.000000
0.000000 0.000000 -1.000000
0.000000 0.000000 -1.000000
0.000000 0.000000 -1.000000
0.000000 0.000000 -1.000000
0.000000 0.000000 -1.000000
-1.000000 0.000000 0.000000
-1.000000 0.000000 0.000000
-1.000000 0.000000 0.000000
-1.000000 0.000000 0.000000
-1.000000 0.000000 0.000000
-1.000000 0.000000 0.000000
-0.116400 0.000000 0.993202
-0.116242 0.000000 0.993221
-0.116242 0.000000 0.993221
-0.116242 0.000000 0.993221
-0.116400 0.000000 0.993202
-0.116400 0.000000 0.993202
-1.000000 0.000000 0.000000
-1.000000 0.000000 0.000000
-1.000000 0.000000 0.000000
-1.000000 0.000000 0.000000
-1.000000 0.000000 0.000000
-1.000000 0.000000 0.000000
-0.174177 0.000000 -0.984714
-0.174241 0.000000 -0.984703
-0.174241 0.000000 -0.984703
-0.174241 0.000000 -0.984703
-0.174177 0.000000 -0.984714
-0.174177 0.000000 -0.984714
1.000000 0.000000 0.000000
1.000000 0.000000 0.000001
1.000000 0.000000 0.000001
1.000000 0.000000 0.000001
1.000000 0.000000 0.000000
1.000000 0.000000 0.000000
0.000000 0.000000 -1.000000
0.000000 0.000000 -1.000000
0.000000 0.000000 -1.000000
0.000000 0.000000 -1.000000
0.000000 0.000000 -1.000000
0.000000 0.000000 -1.000000
0.000000 0.000000 1.000000
0.000000 0.000000 1.000000
0.000000 0.000000 1.000000
0.000000 0.000000 1.000000
0.000000 0.000000 1.000000
0.000000 0.000000 1.000000
1.000000 0.000000 0.000000
1.000000 0.000000 0.000000
1.000000 0.000000 0.000000
1.000000 0.000000 0.000000
1.000000 0.000000 0.000000
1.000000 0.000000 0.000000
0.000000 1.000000 0.000000
0.000000 1.000000 0.000000
0.000000 1.000000 0.000000
0.000000 1.000000 0.000000
0.000000 1.000000 0.000000
0.000000 1.000000 0.000000
-1.000000 0.000000 0.000000
-1.000000 0.000000 0.000000
-1.000000 -0.000000 0.000000
-1.000000 -0.000000 0.000000
-1.000000 -0.000000 0.000000
-1.000000 0.000000 0.000000
0.000000 -1.000000 0.000000
0.000000 -1.000000 0.000000
0.000000 -1.000000 0.000000
0.000000 -1.000000 0.000000
0.000000 -1.000000 0.000000
0.000000 -1.000000 0.000000
  0.000000 0.000000 1.000000 0.000000 0.000000 1.000000 0.000000 0.000000 1.000000 0.000000 0.000000 1.000000 0.000000 0.000000 1.000000 0.000000 0.000000 1.000000 0.996234 -0.000001 -0.086705 0.996234 -0.000001 -0.086705 0.996234 -0.000001 -0.086705 0.996234 -0.000001 -0.086702 0.996234 -0.000001 -0.086703 0.996234 -0.000001 -0.086702 -0.831447 0.000001 0.555604 -0.831447 0.000001 0.555604 -0.831447 0.000001 0.555604 -0.831466 -0.000001 0.555575 -0.831466 -0.000001 0.555575 -0.831466 -0.000001 0.555575 0.000000 0.000000 1.000000 0.000000 0.000000 1.000000 0.000000 0.000000 1.000000 0.000000 0.000000 1.000000 0.000000 0.000000 1.000000 0.000000 0.000000 1.000000 0.999791 -0.000001 -0.020439 0.999791 -0.000001 -0.020439 0.999791 -0.000001 -0.020439 0.999791 -0.000001 -0.020436 0.999791 -0.000001 -0.020436 0.999791 -0.000001 -0.020436 -0.856869 0.000001 0.515534 -0.856869 0.000001 0.515534 -0.856869 0.000001 0.515534 -0.856883 -0.000001 0.515511 -0.856883 -0.000001 0.515510 -0.856883 -0.000001 0.515510 0.000000 0.000000 1.000000 0.000000 0.000000 1.000000 0.000000 0.000000 1.000000 0.000000 0.000000 1.000000 0.000000 0.000000 1.000000 0.000000 0.000000 1.000000 0.993706 -0.000001 0.112024 0.993706 -0.000001 0.112024 0.993706 -0.000001 0.112024 0.993705 -0.000001 0.112025 0.993705 -0.000001 0.112025 0.993705 -0.000001 0.112025 -0.905556 0.000001 0.424226 -0.905556 0.000001 0.424226 -0.905556 0.000001 0.424226 -0.905569 -0.000002 0.424198 -0.905569 -0.000002 0.424199 -0.905569 -0.000002 0.424199 0.000000 0.000000 1.000000 0.000000 0.000000 1.000000 0.000000 0.000000 1.000000 0.000000 0.000000 1.000000 0.000000 0.000000 1.000000 0.000000 0.000000 1.000000 0.998937 -0.000001 0.046095 0.998937 -0.000001 0.046095 0.998937 -0.000001 0.046095 0.998937 -0.000001 0.046101 0.998937 -0.000001 0.046101 0.998937 -0.000001 0.046101 -0.881720 0.000001 0.471772 -0.881720 0.000001 0.471772 -0.881720 0.000001 0.471772 -0.881733 -0.000001 0.471748 -0.881734 -0.000001 0.471748 -0.881734 -0.000001 0.471748 0.000000 0.000000 1.000000 0.000000 0.000000 1.000000 0.000000 0.000000 1.000000 0.000000 0.000000 1.000000 0.000000 0.000000 1.000000 0.000000 0.000000 1.000000 0.984299 -0.000001 0.176509 0.984299 -0.000001 0.176509 0.984299 -0.000001 0.176509 0.984299 -0.000001 0.176510 0.984299 -0.000001 0.176510 0.984299 -0.000001 0.176510 -0.927874 0.000001 0.372894 -0.927874 0.000001 0.372894 -0.927874 0.000001 0.372894 -0.927885 -0.000002 0.372866 -0.927885 -0.000002 0.372866 -0.927885 -0.000002 0.372866 0.000000 0.000000 1.000000 0.000000 0.000000 1.000000 0.000000 0.000000 1.000000 0.000000 0.000000 1.000000 0.000000 0.000000 1.000000 0.000000 0.000000 1.000000 0.954479 -0.000001 0.298277 0.954479 -0.000001 0.298277 0.954479 -0.000001 0.298277 0.954478 -0.000001 0.298280 0.954478 -0.000001 0.298280 0.954478 -0.000001 0.298280 -0.965743 0.000001 0.259500 -0.965743 0.000001 0.259500 -0.965743 0.000001 0.259500 -0.965752 -0.000002 0.259466 -0.965752 -0.000002 0.259466 -0.965752 -0.000002 0.259466 0.000000 0.000000 1.000000 0.000000 0.000000 1.000000 0.000000 0.000000 1.000000 0.000000 0.000000 1.000000 0.000000 0.000000 1.000000 0.000000 0.000000 1.000000 0.971069 -0.000001 0.238798 0.971069 -0.000001 0.238798 0.971069 -0.000001 0.238798 0.971068 -0.000001 0.238802 0.971068 -0.000001 0.238802 0.971068 -0.000001 0.238802 -0.948124 0.000001 0.317900 -0.948124 0.000001 0.317900 -0.948124 0.000001 0.317900 -0.948135 -0.000002 0.317868 -0.948135 -0.000002 0.317868 -0.948135 -0.000002 0.317868 0.000000 0.000000 1.000000 0.000000 0.000000 1.000000 0.000000 0.000000 1.000000 0.000000 0.000000 1.000000 0.000000 0.000000 1.000000 0.000000 0.000000 1.000000 0.935066 -0.000001 0.354472 0.935066 -0.000001 0.354472 0.935066 -0.000001 0.354472 0.935065 -0.000001 0.354475 0.935065 -0.000001 0.354475 0.935065 -0.000001 0.354475 -0.980180 0.000001 0.198109 -0.980180 0.000001 0.198109 -0.980180 0.000001 0.198109 -0.980187 -0.000002 0.198072 -0.980187 -0.000002 0.198072 -0.980187 -0.000002 0.198072 0.000000 0.000000 1.000000 0.000000 0.000000 1.000000 0.000000 0.000000 1.000000 0.000000 0.000000 1.000000 0.000000 0.000000 1.000000 0.000000 0.000000 1.000000 0.913392 -0.000001 0.407081 0.913392 -0.000001 0.407081 0.913392 -0.000001 0.407081 0.913391 -0.000001 0.407083 0.913391 -0.000001 0.407083 0.913391 -0.000001 0.407083 -0.990941 0.000001 0.134299 -0.990941 0.000001 0.134299 -0.990941 0.000001 0.134299 -0.990946 -0.000002 0.134262 -0.990946 -0.000002 0.134262 -0.990946 -0.000002 0.134262 0.000000 0.000000 1.000000 0.000000 0.000000 1.000000 0.000000 0.000000 1.000000 0.000000 0.000000 1.000000 0.000000 0.000000 1.000000 0.000000 0.000000 1.000000 0.890017 -0.000001 0.455927 0.890017 -0.000001 0.455927 0.890017 -0.000001 0.455927 0.890016 -0.000001 0.455929 0.890016 -0.000001 0.455929 0.890016 -0.000001 0.455929 -0.997632 0.000001 0.068771 -0.997633 0.000001 0.068771 -0.997633 0.000001 0.068771 -0.997635 -0.000002 0.068733 -0.997635 -0.000002 0.068733 -0.997635 -0.000002 0.068733 0.000000 0.000000 1.000000 0.000000 0.000000 1.000000 0.000000 0.000000 1.000000 0.000000 0.000000 1.000000 0.000000 0.000000 1.000000 0.000000 0.000000 1.000000 0.865459 -0.000001 0.500980 0.865459 -0.000001 0.500980 0.865459 -0.000001 0.500980 0.865459 -0.000001 0.500979 0.865459 -0.000001 0.500979 0.865459 -0.000001 0.500979 -0.999997 0.000001 0.002350 -0.999997 0.000001 0.002350 -0.999997 0.000001 0.002350 -0.999997 -0.000002 0.002311 -0.999997 -0.000002 0.002311 -0.999997 -0.000002 0.002311 0.000000 0.000000 1.000000 0.000000 0.000000 1.000000 0.000000 0.000000 1.000000 0.000000 0.000000 1.000000 0.000000 0.000000 1.000000 0.000000 0.000000 1.000000 0.840189 -0.000000 0.542294 0.840189 -0.000000 0.542294 0.840189 -0.000000 0.542294 0.840186 -0.000001 0.542298 0.840186 -0.000001 0.542298 0.840186 -0.000001 0.542298 -0.997943 0.000001 -0.064106 -0.997943 0.000001 -0.064106 -0.997943 0.000001 -0.064106 -0.997940 -0.000002 -0.064147 -0.997940 -0.000002 -0.064147 -0.997940 -0.000002 -0.064147 0.000000 0.000000 1.000000 0.000000 0.000000 1.000000 0.000000 0.000000 1.000000 0.000000 0.000000 1.000000 0.000000 0.000000 1.000000 0.000000 0.000000 1.000000 0.814600 -0.000001 0.580024 0.814600 -0.000001 0.580024 0.814600 -0.000001 0.580024 0.814600 -0.000001 0.580024 0.814600 -0.000001 0.580024 0.814600 -0.000001 0.580024 -0.991550 0.000000 -0.129725 -0.991550 0.000000 -0.129725 -0.991550 0.000000 -0.129725 -0.991546 -0.000002 -0.129756 -0.991546 -0.000002 -0.129756 -0.991546 -0.000002 -0.129756 0.000000 0.000000 1.000000 0.000000 0.000000 1.000000 0.000000 0.000000 1.000000 0.000000 0.000000 1.000000 0.000000 0.000000 1.000000 0.000000 0.000000 1.000000 0.789030 -0.000000 0.614355 0.789030 -0.000000 0.614355 0.789030 -0.000000 0.614355 0.789028 -0.000001 0.614358 0.789027 -0.000001 0.614358 0.789027 -0.000001 0.614358 -0.981065 0.000001 -0.193677 -0.981065 0.000001 -0.193677 -0.981065 0.000001 -0.193677 -0.981057 -0.000002 -0.193719 -0.981057 -0.000002 -0.193719 -0.981057 -0.000002 -0.193719 0.000000 0.000000 1.000000 0.000000 0.000000 1.000000 0.000000 0.000000 1.000000 0.000000 0.000000 1.000000 0.000000 0.000000 1.000000 0.000000 0.000000 1.000000 0.738942 -0.000001 0.673769 0.738942 -0.000001 0.673769 0.738942 -0.000001 0.673769 0.738942 -0.000001 0.673769 0.738942 -0.000001 0.673769 0.738942 -0.000001 0.673769 -0.949459 0.000001 -0.313891 -0.949459 0.000001 -0.313891 -0.949459 0.000001 -0.313891 -0.949449 -0.000002 -0.313922 -0.949449 -0.000002 -0.313922 -0.949449 -0.000002 -0.313922 0.000000 0.000000 1.000000 0.000000 0.000000 1.000000 0.000000 0.000000 1.000000 0.000000 0.000000 1.000000 0.000000 0.000000 1.000000 0.000000 0.000000 1.000000 0.763741 -0.000000 0.645523 0.763741 -0.000000 0.645523 0.763741 -0.000000 0.645523 0.763739 -0.000001 0.645526 0.763739 -0.000001 0.645526 0.763739 -0.000001 0.645526 -0.966873 0.000001 -0.255260 -0.966873 0.000001 -0.255260 -0.966873 0.000001 -0.255260 -0.966864 -0.000002 -0.255291 -0.966864 -0.000002 -0.255291 -0.966864 -0.000002 -0.255291 0.000000 0.000000 1.000000 0.000000 0.000000 1.000000 0.000000 0.000000 1.000000 0.000000 0.000000 1.000000 0.000000 0.000000 1.000000 0.000000 0.000000 1.000000 0.714787 -0.000000 0.699342 0.714787 -0.000000 0.699342 0.714787 -0.000000 0.699342 0.714786 -0.000001 0.699343 0.714786 -0.000001 0.699343 0.714786 -0.000001 0.699343 -0.929377 0.000001 -0.369132 -0.929377 0.000001 -0.369132 -0.929377 0.000001 -0.369132 -0.929363 -0.000002 -0.369166 -0.929363 -0.000002 -0.369166 -0.929363 -0.000002 -0.369166 0.000000 0.000000 1.000000 0.000000 0.000000 1.000000 0.000000 0.000000 1.000000 0.000000 0.000000 1.000000 0.000000 0.000000 1.000000 0.000000 0.000000 1.000000 0.691387 -0.000000 0.722485 0.691387 -0.000000 0.722485 0.691387 -0.000000 0.722485 0.691386 -0.000000 0.722486 0.691386 -0.000000 0.722486 0.691386 -0.000000 0.722486 -0.907186 0.000001 -0.420730 -0.907186 0.000001 -0.420730 -0.907186 0.000001 -0.420730 -0.907173 -0.000002 -0.420759 -0.907173 -0.000002 -0.420759 -0.907173 -0.000002 -0.420759 0.000000 0.000000 1.000000 0.000000 0.000000 1.000000 0.000000 0.000000 1.000000 0.000000 0.000000 1.000000 0.000000 0.000000 1.000000 0.000000 0.000000 1.000000 0.668818 0.000000 0.743427 0.668818 0.000000 0.743427 0.668818 0.000000 0.743427 0.668813 -0.000000 0.743431 0.668813 -0.000000 0.743431 0.668812 -0.000000 0.743431 -0.883440 0.000000 -0.468544 -0.883440 0.000000 -0.468544 -0.883440 0.000000 -0.468544 -0.883426 -0.000002 -0.468570 -0.883426 -0.000002 -0.468570 -0.883426 -0.000002 -0.468570 </float_array>
          <technique_common>
            <accessor source="#wall_006-Normal0-array" count="750" stride="3">
              <param name="X" type="float" />
              <param name="Y" type="float" />
              <param name="Z" type="float" />
            </accessor>
          </technique_common>
        </source>
        <source id="wall_006-UV0">
          <float_array id="wall_006-UV0-array" count="872">
0.726635 0.000281
0.711285 0.019533
0.289214 0.019533
0.273864 0.000281
0.919633 0.704862
0.080304 0.704862
0.080304 0.627266
0.919633 0.627266
0.111388 0.627266
0.893808 0.627267
0.893808 0.704863
0.111388 0.704862
0.726635 0.000281
0.711285 0.019533
0.289214 0.019533
0.273864 0.000281
0.919633 0.704862
0.080304 0.704862
0.080304 0.627266
0.919633 0.627266
0.111388 0.627266
0.893808 0.627267
0.893808 0.704863
0.111388 0.704862
0.726635 0.000281
0.711285 0.019533
0.289214 0.019533
0.273864 0.000281
0.919633 0.704862
0.080304 0.704862
0.080304 0.627266
0.919633 0.627266
0.111388 0.627266
0.893808 0.627267
0.893808 0.704863
0.111388 0.704862
0.726635 0.000281
0.711285 0.019533
0.289214 0.019533
0.273864 0.000281
0.919633 0.704862
0.080304 0.704862
0.080304 0.627266
0.919633 0.627266
0.111388 0.627266
0.893808 0.627267
0.893808 0.704863
0.111388 0.704862
-0.226262 0.722659
-0.226262 0.713530
1.251017 0.713530
1.251017 0.722660
1.062904 0.609148
1.062904 0.619941
-0.043622 0.619941
-0.043622 0.609148
1.103485 0.628216
-0.084203 0.628216
1.103485 0.703974
-0.084203 0.703974
-0.043622 0.713530
1.062904 0.713530
-0.052320 0.297997
-0.052320 0.297997
-0.052320 0.297997
-0.052320 0.297997
1.251017 0.609148
1.251017 0.619941
-0.226262 0.619941
-0.226262 0.609148
1.210436 0.628216
-0.185681 0.628216
1.210436 0.703974
-0.185681 0.703974
-0.043622 0.722659
1.062904 0.722659
-0.052320 0.297997
-0.052320 0.297997
-0.052320 0.297997
-0.052320 0.297997
1.234436 0.166523
1.049798 0.297997
-0.052320 0.297997
-0.236957 0.166523
-0.226262 0.722659
-0.226262 0.713530
1.251017 0.713530
1.251017 0.722660
1.062904 0.609148
1.062904 0.619941
-0.043622 0.619941
-0.043622 0.609148
1.103485 0.628216
-0.084203 0.628216
1.103485 0.703974
-0.084203 0.703974
-0.043622 0.713530
1.062904 0.713530
-0.052320 0.297997
-0.052320 0.297997
-0.052320 0.297997
-0.052320 0.297997
1.251017 0.609148
1.251017 0.619941
-0.226262 0.619941
-0.226262 0.609148
1.210436 0.628216
-0.185681 0.628216
1.210436 0.703974
-0.185681 0.703974
-0.043622 0.722659
1.062904 0.722659
-0.052320 0.297997
-0.052320 0.297997
-0.052320 0.297997
-0.052320 0.297997
1.234436 0.166523
1.049798 0.297997
-0.052320 0.297997
-0.236957 0.166523
-0.226262 0.722659
-0.226262 0.713530
1.251017 0.713530
1.251017 0.722660
1.062904 0.609148
1.062904 0.619941
-0.043622 0.619941
-0.043622 0.609148
1.103485 0.628216
-0.084203 0.628216
1.103485 0.703974
-0.084203 0.703974
-0.043622 0.713530
1.062904 0.713530
-0.052320 0.297997
-0.052320 0.297997
-0.052320 0.297997
-0.052320 0.297997
1.251017 0.609148
1.251017 0.619941
-0.226262 0.619941
-0.226262 0.609148
1.210436 0.628216
-0.185681 0.628216
1.210436 0.703974
-0.185681 0.703974
-0.043622 0.722659
1.062904 0.722659
-0.052320 0.297997
-0.052320 0.297997
-0.052320 0.297997
-0.052320 0.297997
1.234436 0.166523
1.049798 0.297997
-0.052320 0.297997
-0.236957 0.166523
-0.226262 0.722659
-0.226262 0.713530
1.251017 0.713530
1.251017 0.722660
1.062904 0.609148
1.062904 0.619941
-0.043622 0.619941
-0.043622 0.609148
1.103485 0.628216
-0.084203 0.628216
1.103485 0.703974
-0.084203 0.703974
-0.043622 0.713530
1.062904 0.713530
-0.052320 0.297997
-0.052320 0.297997
-0.052320 0.297997
-0.052320 0.297997
1.251017 0.609148
1.251017 0.619941
-0.226262 0.619941
-0.226262 0.609148
1.210436 0.628216
-0.185681 0.628216
1.210436 0.703974
-0.185681 0.703974
-0.043622 0.722659
1.062904 0.722659
-0.052320 0.297997
-0.052320 0.297997
-0.052320 0.297997
-0.052320 0.297997
1.234436 0.166523
1.049798 0.297997
-0.052320 0.297997
-0.236957 0.166523
0.634099 0.721940
0.860446 0.721941
0.860445 1.000498
0.634099 1.000497
0.634099 0.721940
0.860446 0.721941
0.860445 1.000498
0.634099 1.000497
0.634099 0.721940
0.860446 0.721941
0.860445 1.000498
0.634099 1.000497
0.634099 0.721940
0.860446 0.721941
0.860445 1.000498
0.634099 1.000497
  1.284708 0.106592 1.284708 0.151866 -0.310498 0.151866 -0.310498 0.106592 1.284708 0.165359 -0.310498 0.165359 -0.310498 0.093099 1.284708 0.093099 -0.310498 0.093099 1.284708 0.093099 1.284708 0.165359 -0.310498 0.165359 1.284708 0.106592 1.284708 0.151866 -0.310498 0.151866 -0.310498 0.106592 1.284708 0.165359 -0.310498 0.165359 -0.310498 0.093099 1.284708 0.093099 -0.310498 0.093099 1.284708 0.093099 1.284708 0.165359 -0.310498 0.165359 1.284708 0.106592 1.284708 0.151866 -0.310498 0.151866 -0.310498 0.106592 1.284708 0.165359 -0.310498 0.165359 -0.310498 0.093099 1.284708 0.093099 -0.310498 0.093099 1.284708 0.093099 1.284708 0.165359 -0.310498 0.165359 1.284708 0.106592 1.284708 0.151866 -0.310498 0.151866 -0.310498 0.106592 1.284708 0.165359 -0.310498 0.165359 -0.310498 0.093099 1.284708 0.093099 -0.310498 0.093099 1.284708 0.093099 1.284708 0.165359 -0.310498 0.165359 1.284708 0.106592 1.284708 0.151866 -0.310498 0.151866 -0.310498 0.106592 1.284708 0.165359 -0.310498 0.165359 -0.310498 0.093099 1.284708 0.093099 -0.310498 0.093099 1.284708 0.093099 1.284708 0.165359 -0.310498 0.165359 1.284708 0.106592 1.284708 0.151866 -0.310498 0.151866 -0.310498 0.106592 1.284708 0.165359 -0.310498 0.165359 -0.310498 0.093099 1.284708 0.093099 -0.310498 0.093099 1.284708 0.093099 1.284708 0.165359 -0.310498 0.165359 1.284708 0.106592 1.284708 0.151866 -0.310498 0.151866 -0.310498 0.106592 1.284708 0.165359 -0.310498 0.165359 -0.310498 0.093099 1.284708 0.093099 -0.310498 0.093099 1.284708 0.093099 1.284708 0.165359 -0.310498 0.165359 1.284708 0.106592 1.284708 0.151866 -0.310498 0.151866 -0.310498 0.106592 1.284708 0.165359 -0.310498 0.165359 -0.310498 0.093099 1.284708 0.093099 -0.310498 0.093099 1.284708 0.093099 1.284708 0.165359 -0.310498 0.165359 1.284708 0.106592 1.284708 0.151866 -0.310498 0.151866 -0.310498 0.106592 1.284708 0.165359 -0.310498 0.165359 -0.310498 0.093099 1.284708 0.093099 -0.310498 0.093099 1.284708 0.093099 1.284708 0.165359 -0.310498 0.165359 1.284708 0.106592 1.284708 0.151866 -0.310498 0.151866 -0.310498 0.106592 1.284708 0.165359 -0.310498 0.165359 -0.310498 0.093099 1.284708 0.093099 -0.310498 0.093099 1.284708 0.093099 1.284708 0.165359 -0.310498 0.165359 1.284708 0.106592 1.284708 0.151866 -0.310498 0.151866 -0.310498 0.106592 1.284708 0.165359 -0.310498 0.165359 -0.310498 0.093099 1.284708 0.093099 -0.310498 0.093099 1.284708 0.093099 1.284708 0.165359 -0.310498 0.165359 1.284708 0.106592 1.284708 0.151866 -0.310498 0.151866 -0.310498 0.106592 1.284708 0.165359 -0.310498 0.165359 -0.310498 0.093099 1.284708 0.093099 -0.310498 0.093099 1.284708 0.093099 1.284708 0.165359 -0.310498 0.165359 1.284708 0.106592 1.284708 0.151866 -0.310498 0.151866 -0.310498 0.106592 1.284708 0.165359 -0.310498 0.165359 -0.310498 0.093099 1.284708 0.093099 -0.310498 0.093099 1.284708 0.093099 1.284708 0.165359 -0.310498 0.165359 1.284708 0.106592 1.284708 0.151866 -0.310498 0.151866 -0.310498 0.106592 1.284708 0.165359 -0.310498 0.165359 -0.310498 0.093099 1.284708 0.093099 -0.310498 0.093099 1.284708 0.093099 1.284708 0.165359 -0.310498 0.165359 1.284708 0.106592 1.284708 0.151866 -0.310498 0.151866 -0.310498 0.106592 1.284708 0.165359 -0.310498 0.165359 -0.310498 0.093099 1.284708 0.093099 -0.310498 0.093099 1.284708 0.093099 1.284708 0.165359 -0.310498 0.165359 1.284708 0.106592 1.284708 0.151866 -0.310498 0.151866 -0.310498 0.106592 1.284708 0.165359 -0.310498 0.165359 -0.310498 0.093099 1.284708 0.093099 -0.310498 0.093099 1.284708 0.093099 1.284708 0.165359 -0.310498 0.165359 1.284708 0.106592 1.284708 0.151866 -0.310498 0.151866 -0.310498 0.106592 1.284708 0.165359 -0.310498 0.165359 -0.310498 0.093099 1.284708 0.093099 -0.310498 0.093099 1.284708 0.093099 1.284708 0.165359 -0.310498 0.165359 1.284708 0.106592 1.284708 0.151866 -0.310498 0.151866 -0.310498 0.106592 1.284708 0.165359 -0.310498 0.165359 -0.310498 0.093099 1.284708 0.093099 -0.310498 0.093099 1.284708 0.093099 1.284708 0.165359 -0.310498 0.165359 1.284708 0.106592 1.284708 0.151866 -0.310498 0.151866 -0.310498 0.106592 1.284708 0.165359 -0.310498 0.165359 -0.310498 0.093099 1.284708 0.093099 -0.310498 0.093099 1.284708 0.093099 1.284708 0.165359 -0.310498 0.165359 </float_array>
          <technique_common>
            <accessor source="#wall_006-UV0-array" count="436" stride="2">
              <param name="S" type="float" />
              <param name="T" type="float" />
            </accessor>
          </technique_common>
        </source>
        <vertices id="wall_006-VERTEX">
          <input semantic="POSITION" source="#wall_006-POSITION" />
        </vertices>
        <triangles count="250" material="engineroom_beams_01_engineroom_machinery_02_phong1SG">
          <input semantic="VERTEX" offset="0" source="#wall_006-VERTEX" />
          <input semantic="NORMAL" offset="1" source="#wall_006-Normal0" />
          <input semantic="TEXCOORD" offset="2" set="0" source="#wall_006-UV0" />
          <p> 1 0 2 65 1 3 66 2 0 66 3 0 2 4 1 1 5 2 4 6 6 3 7 7 66 8 4 66 9 4 65 10 5 4 11 6 6 12 10 5 13 11 1 14 8 1 15 8 2 16 9 6 17 10 2 18 14 66 19 15 67 20 12 67 21 12 7 22 13 2 23 14 3 24 18 8 25 19 67 26 16 67 27 16 66 28 17 3 29 18 9 30 22 6 31 23 2 32 20 2 33 20 7 34 21 9 35 22 7 36 26 67 37 27 68 38 24 68 39 24 10 40 25 7 41 26 8 42 30 11 43 31 68 44 28 68 45 28 67 46 29 8 47 30 12 48 34 9 49 35 7 50 32 7 51 32 10 52 33 12 53 34 10 54 38 68 55 39 65 56 36 65 57 36 1 58 37 10 59 38 11 60 42 4 61 43 65 62 40 65 63 40 68 64 41 11 65 42 5 66 46 12 67 47 10 68 44 10 69 44 1 70 45 5 71 46 31 72 50 23 73 51 18 74 48 18 75 48 17 76 49 31 77 50 56 78 52 55 79 53 52 80 54 56 81 52 52 82 54 61 83 55 55 84 53 59 85 56 24 86 57 55 87 53 24 88 57 52 89 54 25 90 59 24 91 57 59 92 56 59 93 56 19 94 58 25 95 59 19 96 58 20 97 61 26 98 60 26 99 60 25 100 59 19 101 58 58 102 64 56 103 65 61 104 62 61 105 62 60 106 63 58 107 64 14 108 68 58 109 69 60 110 66 60 111 66 28 112 67 14 113 68 15 114 71 14 115 68 28 116 67 28 117 67 29 118 70 15 119 71 16 120 73 15 121 71 29 122 70 29 123 70 30 124 72 16 125 73 30 126 72 31 127 50 17 128 49 17 129 49 16 130 73 30 131 72 20 132 61 21 133 75 27 134 74 27 135 74 26 136 60 20 137 61 69 138 76 22 139 77 13 140 78 69 141 76 13 142 78 56 143 79 21 144 82 18 145 83 23 146 80 23 147 80 27 148 81 21 149 82 41 150 86 32 151 87 23 152 84 23 153 84 31 154 85 41 155 86 69 156 88 52 157 89 53 158 90 61 159 88 53 160 90 37 161 91 52 162 89 24 163 92 33 164 93 52 165 89 33 166 93 53 167 90 34 168 95 33 169 93 24 170 92 24 171 92 25 172 94 34 173 95 25 174 94 26 175 97 35 176 96 35 177 96 34 178 95 25 179 94 60 180 100 61 181 101 37 182 98 37 183 98 62 184 99 60 185 100 28 186 104 60 187 105 62 188 102 62 189 102 38 190 103 28 191 104 29 192 107 28 193 104 38 194 103 38 195 103 39 196 106 29 197 107 30 198 109 29 199 107 39 200 106 39 201 106 40 202 108 30 203 109 40 204 108 41 205 86 31 206 85 31 207 85 30 208 109 40 209 108 26 210 97 27 211 111 36 212 110 36 213 110 35 214 96 26 215 97 37 216 112 54 217 113 22 218 114 37 219 112 22 220 114 69 221 115 27 222 118 23 223 119 32 224 116 32 225 116 36 226 117 27 227 118 51 228 122 42 229 123 32 230 120 32 231 120 41 232 121 51 233 122 37 234 124 53 235 125 0 236 126 37 237 124 0 238 126 64 239 127 53 240 125 33 241 128 43 242 129 53 243 125 43 244 129 0 245 126 44 246 131 43 247 129 33 248 128 33 249 128 34 250 130 44 251 131 34 252 130 35 253 133 45 254 132 45 255 132 44 256 131 34 257 130 62 258 136 37 259 137 64 260 134 64 261 134 63 262 135 62 263 136 38 264 140 62 265 141 63 266 138 63 267 138 48 268 139 38 269 140 39 270 143 38 271 140 48 272 139 48 273 139 49 274 142 39 275 143 40 276 145 39 277 143 49 278 142 49 279 142 50 280 144 40 281 145 50 282 144 51 283 122 41 284 121 41 285 121 40 286 145 50 287 144 35 288 133 36 289 147 46 290 146 46 291 146 45 292 132 35 293 133 47 294 148 57 295 149 54 296 150 47 297 148 54 298 150 37 299 151 36 300 154 32 301 155 42 302 152 42 303 152 46 304 153 36 305 154 17 306 158 18 307 159 42 308 156 42 309 156 51 310 157 17 311 158 47 312 160 0 313 161 55 314 162 64 315 160 55 316 162 56 317 163 0 318 161 43 319 164 59 320 165 0 321 161 59 322 165 55 323 162 19 324 167 59 325 165 43 326 164 43 327 164 44 328 166 19 329 167 44 330 166 45 331 169 20 332 168 20 333 168 19 334 167 44 335 166 63 336 172 64 337 173 56 338 170 56 339 170 58 340 171 63 341 172 48 342 176 63 343 177 58 344 174 58 345 174 14 346 175 48 347 176 49 348 179 48 349 176 14 350 175 14 351 175 15 352 178 49 353 179 50 354 181 49 355 179 15 356 178 15 357 178 16 358 180 50 359 181 16 360 180 17 361 158 51 362 157 51 363 157 50 364 181 16 365 180 45 366 169 46 367 183 21 368 182 21 369 182 20 370 168 45 371 169 56 372 184 13 373 185 57 374 186 56 375 184 57 376 186 47 377 187 46 378 190 42 379 191 18 380 188 18 381 188 21 382 189 46 383 190 71 384 194 70 385 195 5 386 192 5 387 192 6 388 193 71 389 194 72 390 198 71 391 199 6 392 196 6 393 196 9 394 197 72 395 198 73 396 202 72 397 203 9 398 200 9 399 200 12 400 201 73 401 202 70 402 206 73 403 207 12 404 204 12 405 204 5 406 205 70 407 206 76 408 210 74 409 211 75 410 208 75 411 208 77 412 209 76 413 210 79 414 214 78 415 215 75 416 212 75 417 212 74 418 213 79 419 214 81 420 218 80 421 219 76 422 216 76 423 216 77 424 217 81 425 218 84 426 222 82 427 223 83 428 220 83 429 220 85 430 221 84 431 222 87 432 226 86 433 227 83 434 224 83 435 224 82 436 225 87 437 226 78 438 230 79 439 231 84 440 228 84 441 228 85 442 229 78 443 230 90 444 234 88 445 235 89 446 232 89 447 232 91 448 233 90 449 234 93 450 238 92 451 239 89 452 236 89 453 236 88 454 237 93 455 238 95 456 242 94 457 243 90 458 240 90 459 240 91 460 241 95 461 242 98 462 246 96 463 247 97 464 244 97 465 244 99 466 245 98 467 246 94 468 250 95 469 251 97 470 248 97 471 248 96 472 249 94 473 250 86 474 254 87 475 255 98 476 252 98 477 252 99 478 253 86 479 254 102 480 258 100 481 259 101 482 256 101 483 256 103 484 257 102 485 258 105 486 262 104 487 263 101 488 260 101 489 260 100 490 261 105 491 262 92 492 266 93 493 267 102 494 264 102 495 264 103 496 265 92 497 266 108 498 270 106 499 271 107 500 268 107 501 268 109 502 269 108 503 270 111 504 274 110 505 275 107 506 272 107 507 272 106 508 273 111 509 274 113 510 278 112 511 279 108 512 276 108 513 276 109 514 277 113 515 278 116 516 282 114 517 283 115 518 280 115 519 280 117 520 281 116 521 282 112 522 286 113 523 287 115 524 284 115 525 284 114 526 285 112 527 286 104 528 290 105 529 291 116 530 288 116 531 288 117 532 289 104 533 290 120 534 294 118 535 295 119 536 292 119 537 292 121 538 293 120 539 294 123 540 298 122 541 299 119 542 296 119 543 296 118 544 297 123 545 298 110 546 302 111 547 303 120 548 300 120 549 300 121 550 301 110 551 302 126 552 306 124 553 307 125 554 304 125 555 304 127 556 305 126 557 306 129 558 310 128 559 311 125 560 308 125 561 308 124 562 309 129 563 310 122 564 314 123 565 315 126 566 312 126 567 312 127 568 313 122 569 314 132 570 318 130 571 319 131 572 316 131 573 316 133 574 317 132 575 318 135 576 322 134 577 323 131 578 320 131 579 320 130 580 321 135 581 322 128 582 326 129 583 327 132 584 324 132 585 324 133 586 325 128 587 326 138 588 330 136 589 331 137 590 328 137 591 328 139 592 329 138 593 330 141 594 334 140 595 335 137 596 332 137 597 332 136 598 333 141 599 334 134 600 338 135 601 339 138 602 336 138 603 336 139 604 337 134 605 338 144 606 342 142 607 343 143 608 340 143 609 340 145 610 341 144 611 342 147 612 346 146 613 347 143 614 344 143 615 344 142 616 345 147 617 346 140 618 350 141 619 351 144 620 348 144 621 348 145 622 349 140 623 350 150 624 354 148 625 355 149 626 352 149 627 352 151 628 353 150 629 354 153 630 358 152 631 359 149 632 356 149 633 356 148 634 357 153 635 358 146 636 362 147 637 363 150 638 360 150 639 360 151 640 361 146 641 362 156 642 366 154 643 367 155 644 364 155 645 364 157 646 365 156 647 366 159 648 370 158 649 371 155 650 368 155 651 368 154 652 369 159 653 370 152 654 374 153 655 375 156 656 372 156 657 372 157 658 373 152 659 374 162 660 378 160 661 379 161 662 376 161 663 376 163 664 377 162 665 378 165 666 382 164 667 383 161 668 380 161 669 380 160 670 381 165 671 382 167 672 386 166 673 387 162 674 384 162 675 384 163 676 385 167 677 386 170 678 390 168 679 391 169 680 388 169 681 388 171 682 389 170 683 390 166 684 394 167 685 395 169 686 392 169 687 392 168 688 393 166 689 394 158 690 398 159 691 399 170 692 396 170 693 396 171 694 397 158 695 398 174 696 402 172 697 403 173 698 400 173 699 400 175 700 401 174 701 402 177 702 406 176 703 407 173 704 404 173 705 404 172 706 405 177 707 406 164 708 410 165 709 411 174 710 408 174 711 408 175 712 409 164 713 410 180 714 414 178 715 415 179 716 412 179 717 412 181 718 413 180 719 414 183 720 418 182 721 419 179 722 416 179 723 416 178 724 417 183 725 418 176 726 422 177 727 423 180 728 420 180 729 420 181 730 421 176 731 422 186 732 426 184 733 427 185 734 424 185 735 424 187 736 425 186 737 426 189 738 430 188 739 431 185 740 428 185 741 428 184 742 429 189 743 430 182 744 434 183 745 435 186 746 432 186 747 432 187 748 433 182 749 434</p>
        </triangles>
      </mesh>
    </geometry>
  </library_geometries>
  <library_visual_scenes>
    <visual_scene id="" name="">
      <node name="wall_006" id="wall_006" layer="engineroom_walls_05_open" sid="wall_006">
        <matrix sid="matrix">1.000000 0.000000 0.000000 0.000000 0.000000 0.000000 1.000000 0.000000 0.000000 -1.000000 0.000000 0.000000 0.000000 0.000000 0.000000 1.000000</matrix>
        <instance_geometry url="#wall_006-lib">
          <bind_material>
            <technique_common>
              <instance_material symbol="engineroom_beams_01_engineroom_machinery_02_phong1SG" target="#engineroom_beams_01_engineroom_machinery_02_phong1SG" />
            </technique_common>
          </bind_material>
        </instance_geometry>
        <extra>
          <technique profile="FCOLLADA">
            <visibility>1.000000</visibility>
          </technique>
        </extra>
      </node>
      <extra>
        <technique profile="MAX3D">
          <frame_rate>30.000000</frame_rate>
        </technique>
        <technique profile="FCOLLADA">
          <start_time>0.000000</start_time>
          <end_time>3.333333</end_time>
        </technique>
      </extra>
    </visual_scene>
  </library_visual_scenes>
  <scene>
    <instance_visual_scene url="#">
    </instance_visual_scene>
  </scene>
</COLLADA>