<?xml version="1.0" encoding="utf-8"?>
<COLLADA xmlns="http://www.collada.org/2005/11/COLLADASchema" version="1.4.1">
  <asset>
    <contributor>
      <author></author>
      <authoring_tool>FBX COLLADA exporter</authoring_tool>
      <comments></comments>
    </contributor>
    <created>2012-07-30T21:21:47Z</created>
    <keywords></keywords>
    <modified>2012-07-30T21:21:47Z</modified>
    <revision></revision>
    <subject></subject>
    <title></title>
    <unit meter="0.010000" name="centimeter"></unit>
    <up_axis>Y_UP</up_axis>
  </asset>
  <library_images>
    <image id="file3-image" name="file3">
      <init_from>file://C:/Users/sindre/Desktop/Sindre/Amnesia - Freelance/Amnesia - Source/StaticObjects/teslabase/tesla_generic_sheet_metal_01.jpg</init_from>
    </image>
  </library_images>
  <library_materials>
    <material id="engineroom_atlas_01" name="engineroom_atlas_01">
      <instance_effect url="#engineroom_atlas_01-fx"/>
    </material>
  </library_materials>
  <library_effects>
    <effect id="engineroom_atlas_01-fx" name="engineroom_atlas_01">
      <profile_COMMON>
        <technique sid="standard">
          <lambert>
            <emission>
              <color sid="emission">0.000000  0.000000 0.000000 1.000000</color>
            </emission>
            <ambient>
              <color sid="ambient">0.000000  0.000000 0.000000 1.000000</color>
            </ambient>
            <diffuse>
              <texture texture="file3-image" texcoord="CHANNEL0">
                <extra>
                  <technique profile="MAYA">
                    <wrapU sid="wrapU0">TRUE</wrapU>
                    <wrapV sid="wrapV0">TRUE</wrapV>
                    <blend_mode>NONE</blend_mode>
                  </technique>
                </extra>
              </texture>
            </diffuse>
            <transparent opaque="RGB_ZERO">
              <color sid="transparent">0.000000  0.000000 0.000000 1.000000</color>
            </transparent>
            <transparency>
              <float sid="transparency">1.000000</float>
            </transparency>
          </lambert>
        </technique>
      </profile_COMMON>
    </effect>
  </library_effects>
  <library_geometries>
    <geometry id="pPlane8-lib" name="pPlane8Mesh">
      <mesh>
        <source id="pPlane8-POSITION">
          <float_array id="pPlane8-POSITION-array" count="12">
0.000000 0.000000 0.000000
800.000000 0.000000 0.000000
0.000000 800.000000 0.000000
800.000000 800.000000 0.000000
</float_array>
          <technique_common>
            <accessor source="#pPlane8-POSITION-array" count="4" stride="3">
              <param name="X" type="float"/>
              <param name="Y" type="float"/>
              <param name="Z" type="float"/>
            </accessor>
          </technique_common>
        </source>
        <source id="pPlane8-Normal0">
          <float_array id="pPlane8-Normal0-array" count="12">
0.000000 0.000000 1.000000
0.000000 0.000000 1.000000
0.000000 0.000000 1.000000
0.000000 0.000000 1.000000
</float_array>
          <technique_common>
            <accessor source="#pPlane8-Normal0-array" count="4" stride="3">
              <param name="X" type="float"/>
              <param name="Y" type="float"/>
              <param name="Z" type="float"/>
            </accessor>
          </technique_common>
        </source>
        <source id="pPlane8-UV0">
          <float_array id="pPlane8-UV0-array" count="8">
0.000000 0.000000
1.000000 0.000000
0.000000 1.000000
1.000000 1.000000
</float_array>
          <technique_common>
            <accessor source="#pPlane8-UV0-array" count="4" stride="2">
              <param name="S" type="float"/>
              <param name="T" type="float"/>
            </accessor>
          </technique_common>
        </source>
        <vertices id="pPlane8-VERTEX">
          <input semantic="POSITION" source="#pPlane8-POSITION"/>
          <input semantic="NORMAL" source="#pPlane8-Normal0"/>
        </vertices>
        <triangles count="2" material="engineroom_atlas_01">
          <input semantic="VERTEX" offset="0" source="#pPlane8-VERTEX"/>
          <input semantic="TEXCOORD" offset="1" set="0" source="#pPlane8-UV0"/>
          <p> 3 3 2 2 0 0 3 3 0 0 1 1</p>
        </triangles>
      </mesh>
    </geometry>
  </library_geometries>
  <library_visual_scenes>
    <visual_scene id="" name="">
      <node name="pPlane8" id="pPlane8" sid="pPlane8">
        <matrix sid="matrix">1.000000 0.000000 0.000000 0.000000 0.000000 1.000000 0.000000 0.000000 0.000000 0.000000 1.000000 0.000000 0.000000 0.000000 0.000000 1.000000</matrix>
        <instance_geometry url="#pPlane8-lib">
          <bind_material>
            <technique_common>
              <instance_material symbol="engineroom_atlas_01" target="#engineroom_atlas_01"/>
            </technique_common>
          </bind_material>
        </instance_geometry>
        <extra>
          <technique profile="FCOLLADA">
            <visibility>1.000000</visibility>
          </technique>
        </extra>
      </node>
      <extra>
        <technique profile="MAX3D">
          <frame_rate>24.000000</frame_rate>
        </technique>
        <technique profile="FCOLLADA">
          <start_time>0.041667</start_time>
          <end_time>2.000000</end_time>
        </technique>
      </extra>
    </visual_scene>
  </library_visual_scenes>
  <scene>
    <instance_visual_scene url="#"></instance_visual_scene>
  </scene>
</COLLADA>

