<?xml version="1.0" encoding="utf-8"?>
<COLLADA xmlns="http://www.collada.org/2005/11/COLLADASchema" version="1.4.1">
  <asset>
    <contributor>
      <author>Marc</author>
      <authoring_tool>OpenCOLLADA2008</authoring_tool>
      <comments>
			ColladaMaya export options: 
			bakeTransforms=0;relativePaths=0;copyTextures=0;exportTriangles=1;exportCgfxFileReferences=1;
			isSampling=0;curveConstrainSampling=1;removeStaticCurves=1;exportPolygonMeshes=1;exportLights=1;
			exportCameras=1;exportJointsAndSkin=1;exportAnimations=1;exportInvisibleNodes=0;exportDefaultCameras=0;
			exportTexCoords=1;exportNormals=1;exportNormalsPerVertex=1;exportVertexColors=1;exportVertexColorsPerVertex=1;
			exportTexTangents=0;exportTangents=0;exportReferencedMaterials=0;exportMaterialsOnly=0;
			exportXRefs=1;dereferenceXRefs=1;exportCameraAsLookat=0;cameraXFov=0;cameraYFov=1;doublePrecision=0
		</comments>
      <source_data>file:///F:/pig/Game/redist/static_objects/sewer/walls/sewer_wall_high_concave.DAE</source_data>
    </contributor>
    <created>2013-08-20T13:26:53</created>
    <modified>2013-08-20T13:26:53</modified>
    <unit name="meter" meter="1"/>
    <up_axis>Y_UP</up_axis>
  </asset>
  <library_materials>
    <material id="lambert1" name="lambert1">
      <instance_effect url="#lambert1-fx"/>
    </material>
    <material id="Material__139" name="Material__139">
      <instance_effect url="#Material__139-fx"/>
    </material>
    <material id="Material__1" name="Material__1">
      <instance_effect url="#Material__1-fx"/>
    </material>
  </library_materials>
  <library_effects>
    <effect id="Material__1-fx">
      <profile_COMMON>
        <newparam sid="Map__1_image-surface">
          <surface type="2D">
            <init_from>Map__1_image</init_from>
          </surface>
        </newparam>
        <newparam sid="Map__1_image-sampler">
          <sampler2D>
            <source>Map__1_image-surface</source>
          </sampler2D>
        </newparam>
        <technique sid="common">
          <phong>
            <emission>
              <color>0 0 0 1</color>
            </emission>
            <ambient>
              <color>0.588 0.588 0.588 1</color>
            </ambient>
            <diffuse>
              <texture texture="Map__1_image-sampler" texcoord="TEX0">
                <extra>
                  <technique profile="OpenCOLLADAMaya">
                    <blend_mode>NONE</blend_mode>
                    <coverageU>1</coverageU>
                    <coverageV>1</coverageV>
                    <fast>0</fast>
                    <mirrorU>0</mirrorU>
                    <mirrorV>0</mirrorV>
                    <noiseU>0</noiseU>
                    <noiseV>0</noiseV>
                    <offsetU>0</offsetU>
                    <offsetV>0</offsetV>
                    <repeatU>1</repeatU>
                    <repeatV>1</repeatV>
                    <rotateFrame>0</rotateFrame>
                    <rotateUV>0</rotateUV>
                    <stagger>0</stagger>
                    <translateFrameU>0</translateFrameU>
                    <translateFrameV>0</translateFrameV>
                    <wrapU>1</wrapU>
                    <wrapV>1</wrapV>
                  </technique>
                </extra>
              </texture>
            </diffuse>
            <specular>
              <color>0 0 0 1</color>
            </specular>
            <shininess>
              <float>2</float>
            </shininess>
            <reflective>
              <color>0 0 0 1</color>
            </reflective>
            <reflectivity>
              <float>0.5</float>
            </reflectivity>
            <transparent opaque="A_ONE">
              <texture texture="Map__1_image-sampler" texcoord="TEX1">
                <extra>
                  <technique profile="OpenCOLLADAMaya">
                    <blend_mode>NONE</blend_mode>
                    <coverageU>1</coverageU>
                    <coverageV>1</coverageV>
                    <fast>0</fast>
                    <mirrorU>0</mirrorU>
                    <mirrorV>0</mirrorV>
                    <noiseU>0</noiseU>
                    <noiseV>0</noiseV>
                    <offsetU>0</offsetU>
                    <offsetV>0</offsetV>
                    <repeatU>1</repeatU>
                    <repeatV>1</repeatV>
                    <rotateFrame>0</rotateFrame>
                    <rotateUV>0</rotateUV>
                    <stagger>0</stagger>
                    <translateFrameU>0</translateFrameU>
                    <translateFrameV>0</translateFrameV>
                    <wrapU>1</wrapU>
                    <wrapV>1</wrapV>
                  </technique>
                </extra>
              </texture>
            </transparent>
            <transparency>
              <float>1</float>
            </transparency>
          </phong>
        </technique>
      </profile_COMMON>
    </effect>
    <effect id="Material__139-fx">
      <profile_COMMON>
        <newparam sid="Map__17_image-surface">
          <surface type="2D">
            <init_from>Map__17_image</init_from>
          </surface>
        </newparam>
        <newparam sid="Map__17_image-sampler">
          <sampler2D>
            <source>Map__17_image-surface</source>
          </sampler2D>
        </newparam>
        <technique sid="common">
          <phong>
            <emission>
              <color>0 0 0 1</color>
            </emission>
            <ambient>
              <color>0.588 0.588 0.588 1</color>
            </ambient>
            <diffuse>
              <texture texture="Map__17_image-sampler" texcoord="TEX0">
                <extra>
                  <technique profile="OpenCOLLADAMaya">
                    <blend_mode>NONE</blend_mode>
                    <coverageU>1</coverageU>
                    <coverageV>1</coverageV>
                    <fast>0</fast>
                    <mirrorU>0</mirrorU>
                    <mirrorV>0</mirrorV>
                    <noiseU>0</noiseU>
                    <noiseV>0</noiseV>
                    <offsetU>0</offsetU>
                    <offsetV>0</offsetV>
                    <repeatU>1</repeatU>
                    <repeatV>1</repeatV>
                    <rotateFrame>0</rotateFrame>
                    <rotateUV>0</rotateUV>
                    <stagger>0</stagger>
                    <translateFrameU>0</translateFrameU>
                    <translateFrameV>0</translateFrameV>
                    <wrapU>1</wrapU>
                    <wrapV>1</wrapV>
                  </technique>
                </extra>
              </texture>
            </diffuse>
            <specular>
              <color>0 0 0 1</color>
            </specular>
            <shininess>
              <float>2</float>
            </shininess>
            <reflective>
              <color>0 0 0 1</color>
            </reflective>
            <reflectivity>
              <float>0.5</float>
            </reflectivity>
            <transparent opaque="A_ONE">
              <texture texture="Map__17_image-sampler" texcoord="TEX1">
                <extra>
                  <technique profile="OpenCOLLADAMaya">
                    <blend_mode>NONE</blend_mode>
                    <coverageU>1</coverageU>
                    <coverageV>1</coverageV>
                    <fast>0</fast>
                    <mirrorU>0</mirrorU>
                    <mirrorV>0</mirrorV>
                    <noiseU>0</noiseU>
                    <noiseV>0</noiseV>
                    <offsetU>0</offsetU>
                    <offsetV>0</offsetV>
                    <repeatU>1</repeatU>
                    <repeatV>1</repeatV>
                    <rotateFrame>0</rotateFrame>
                    <rotateUV>0</rotateUV>
                    <stagger>0</stagger>
                    <translateFrameU>0</translateFrameU>
                    <translateFrameV>0</translateFrameV>
                    <wrapU>1</wrapU>
                    <wrapV>1</wrapV>
                  </technique>
                </extra>
              </texture>
            </transparent>
            <transparency>
              <float>1</float>
            </transparency>
          </phong>
        </technique>
      </profile_COMMON>
    </effect>
    <effect id="lambert1-fx">
      <profile_COMMON>
        <technique sid="common">
          <lambert>
            <emission>
              <color>0 0 0 1</color>
            </emission>
            <ambient>
              <color>0 0 0 1</color>
            </ambient>
            <diffuse>
              <color>0.4 0.4 0.4 1</color>
            </diffuse>
            <transparent opaque="RGB_ZERO">
              <color>0 0 0 1</color>
            </transparent>
            <transparency>
              <float>1</float>
            </transparency>
          </lambert>
        </technique>
      </profile_COMMON>
    </effect>
  </library_effects>
  <library_images>
    <image id="Map__1_image" name="Map__1_image">
      <init_from>file:///F:/pig/Game/redist/static_objects/sewer/walls/wall_tunnel.dds</init_from>
      <extra>
        <technique profile="OpenCOLLADAMaya">
          <dgnode_type>kFile</dgnode_type>
          <image_sequence>0</image_sequence>
          <originalMayaNodeId>Map__1_image</originalMayaNodeId>
        </technique>
      </extra>
    </image>
    <image id="Map__17_image" name="Map__17_image">
      <init_from>file:///F:/pig/Game/redist/static_objects/tunnels/concrete_wall_small.dds</init_from>
      <extra>
        <technique profile="OpenCOLLADAMaya">
          <dgnode_type>kFile</dgnode_type>
          <image_sequence>0</image_sequence>
          <originalMayaNodeId>Map__17_image</originalMayaNodeId>
        </technique>
      </extra>
    </image>
  </library_images>
  <library_geometries>
    <geometry id="sewer_wall_high_support_concaveShape" name="sewer_wall_high_support_concaveShape">
      <mesh>
        <source id="sewer_wall_high_support_concaveShape-positions" name="sewer_wall_high_support_concaveShape-positions">
          <float_array id="sewer_wall_high_support_concaveShape-positions-array" count="1065">0.017161 3.813109 2 -0.362839 3.813109 2 0.037161 4.4 2 -0.362839 4.4 2 0.031647 3.833109 0.032461 -0.362839 3.813109 0 -0.362839 4.4 -0.362839 0.024858 4.4 0.028431 -0.362839 3.813109 1.5 -0.362839 3.908674 1 -0.362839 3.813109 0.5 0.037161 4.4 1.5 0.037161 4.4 1 0.037161 4.4 0.5 0.037161 3.833109 0.5 0.017161 3.908674 1 0.017161 3.813109 1.5 -0.362839 4.4 0.5 -0.362839 4.4 1 -0.362839 4.4 1.5 -0.362839 3.863166 1.333333 -0.362839 3.893722 1.166667 -0.362839 3.893722 0.8333331 -0.362839 3.863166 0.6666669 0.037161 4.4 1.333333 0.037161 4.4 1.166667 0.037161 4.4 0.8333331 0.037161 4.4 0.6666669 0.037161 3.883166 0.6666669 0.017161 3.893722 0.8333331 0.037161 3.913722 1.166667 0.017161 3.863166 1.333333 -0.362839 4.4 0.6666669 -0.362839 4.4 0.8333331 -0.362839 4.4 1.166667 -0.362839 4.4 1.333333 0.037161 4.301872 2 0.037161 3.911237 2 0.031647 3.911237 0.032461 0.024858 4.301872 0.028431 0.037161 3.911237 0.5 0.037161 4.301872 0.5 0.037161 4.011953 1 0.037161 4.31785 1 0.037161 4.301872 1.5 0.037161 3.911237 1.5 0.037161 3.999502 1.166667 0.037161 4.315351 1.166667 0.037161 4.310241 1.333333 0.037161 3.964668 1.333333 0.037161 3.964668 0.6666669 0.037161 4.310241 0.6666669 0.037161 4.315351 0.8333331 0.037161 3.999502 0.8333331 -0.003514 4.301872 2 -0.003514 3.911237 2 -0.003514 3.911237 0.5 -0.003514 4.301872 0.5 -0.003514 4.011953 1 -0.003514 4.31785 1 -0.003514 4.301872 1.5 -0.003514 3.911237 1.5 -0.003514 3.999502 1.166667 -0.003514 4.315351 1.166667 -0.003514 4.310241 1.333333 -0.003514 3.964668 1.333333 -0.003514 3.964668 0.6666669 -0.003514 4.310241 0.6666669 -0.003514 4.315351 0.8333331 -0.003514 3.999502 0.8333331 -0.35 3.506458 0.23 -0.35 3.526457 1.75 0.03 3.526457 1.75 0.035858 3.506458 0.235858 0.025 3.526458 0.025 0.03 3.506457 2 0.03 3.815771 1.75 0.05 3.815771 0.23 0.025 3.815771 0.025 0.05 3.815771 2 -0.35 3.815771 1.75 -0.35 3.815771 0.25 -0.35 3.815771 0 -0.35 3.815771 2 0 3.506457 1.8 0 3.506458 0.2 0 3.506457 2 -0.35 3.506457 1.8 -0.35 3.506458 0.2 -0.003514 4.301872 2 -0.003514 3.911237 2 -0.003514 3.911237 0.5 -0.003514 4.301872 0.5 -0.003514 4.011953 1 -0.003514 4.31785 1 -0.003514 4.301872 1.5 -0.003514 3.911237 1.5 -0.003514 3.999502 1.166667 -0.003514 4.315351 1.166667 -0.003514 4.310241 1.333333 -0.003514 3.964668 1.333333 -0.003514 3.964668 0.6666669 -0.003514 4.310241 0.6666669 -0.003514 4.315351 0.8333331 -0.003514 3.999502 0.8333331 -0.35 3.526458 0.25 0.05 3.526458 0.23 0.03 3.526458 0.25 0.015 3.506458 0.015 0.03 3.815771 0.25 -0.35 3.506457 1.77 0.05 3.526457 1.77 0.035858 3.506457 1.764142 0.05 3.526457 2 0.05 3.815771 1.77 0.037161 3.833109 2 0.021647 3.813109 0.022461 0.017161 3.813109 0.5 0.037161 3.928674 1 0.037161 3.833109 1.5 0.017161 3.863166 0.6666669 0.037161 3.913722 0.833333 0.017161 3.893722 1.166667 0.037161 3.883166 1.333333 0 3.813109 -0.362839 -0.362839 4.4 -0.362839 2 3.833109 0.037161 2 3.813109 -0.362839 2 4.4 -0.362839 2 4.4 0.037161 0.5 3.813109 -0.362839 1 3.908674 -0.362839 1.5 3.813109 -0.362839 0.5 4.4 0.037161 1 4.4 0.037161 1.5 4.4 0.037161 1.5 3.833109 0.037161 1 3.908674 0.017161 0.5 3.813109 0.017161 1.5 4.4 -0.362839 1 4.4 -0.362839 0.5 4.4 -0.362839 0.666667 3.863166 -0.362839 0.833333 3.893722 -0.362839 1.166667 3.893722 -0.362839 1.333333 3.863166 -0.362839 0.666667 4.4 0.037161 0.833333 4.4 0.037161 1.166667 4.4 0.037161 1.333333 4.4 0.037161 1.333333 3.883166 0.037161 1.166667 3.893722 0.017161 0.833333 3.913722 0.037161 0.666667 3.863166 0.017161 1.333333 4.4 -0.362839 1.166667 4.4 -0.362839 0.833333 4.4 -0.362839 0.666667 4.4 -0.362839 2 3.911237 0.037161 2 4.301872 0.037161 1.5 3.911237 0.037161 1.5 4.301872 0.037161 1 4.011953 0.037161 1 4.31785 0.037161 0.5 4.301872 0.037161 0.5 3.911237 0.037161 0.833333 3.999502 0.037161 0.833333 4.315351 0.037161 0.666667 4.310241 0.037161 0.666667 3.964668 0.037161 1.333333 3.964668 0.037161 1.333333 4.310241 0.037161 1.166667 4.315351 0.037161 1.166667 3.999502 0.037161 -0.001757 4.301872 -0.001757002 -0.001757 3.911237 -0.001756999 2 3.911237 -0.003514001 2 4.301872 -0.003513999 1.5 3.911237 -0.003514001 1.5 4.301872 -0.003513999 1 4.011953 -0.003513999 1 4.31785 -0.003513999 0.5 4.301872 -0.003513999 0.5 3.911237 -0.003514001 0.833333 3.999502 -0.003514001 0.833333 4.315351 -0.003513999 0.666667 4.310241 -0.003513999 0.666667 3.964668 -0.003514001 1.333333 3.964668 -0.003514001 1.333333 4.310241 -0.003513999 1.166667 4.315351 -0.003513999 1.166667 3.999502 -0.003514001 1.77 3.506458 -0.35 0.25 3.526457 -0.35 0.25 3.526457 0.03 1.764142 3.506458 0.035858 2 3.526458 0.05 0.25 3.815771 0.03 1.77 3.815771 0.05 2 3.815771 0.05 0.25 3.815771 -0.35 1.75 3.815771 -0.35 2 3.815771 -0.35 0 3.815771 -0.35 0.2 3.506457 0 1.8 3.506458 0 2 3.506458 0 0 3.506458 0 0.2 3.506457 -0.35 1.8 3.506458 -0.35 2 3.911237 -0.003514001 2 4.301872 -0.003513999 1.5 3.911237 -0.003514001 1.5 4.301872 -0.003513999 1 4.011953 -0.003513999 1 4.31785 -0.003513999 0.5 4.301872 -0.003513999 0.5 3.911237 -0.003514001 0.833333 3.999502 -0.003514001 0.833333 4.315351 -0.003513999 0.666667 4.310241 -0.003513999 0.666667 3.964668 -0.003514001 1.333333 3.964668 -0.003514001 1.333333 4.310241 -0.003513999 1.166667 4.315351 -0.003513999 1.166667 3.999502 -0.003514001 1.75 3.526458 -0.35 1.77 3.526458 0.05 1.75 3.526458 0.03 2 3.506458 0.03 1.75 3.815771 0.03 0.23 3.506457 -0.35 0.23 3.526457 0.05 0.235858 3.506457 0.035858 0.23 3.815771 0.05 2 3.813109 0.017161 1.5 3.813109 0.017161 1 3.928674 0.037161 0.5 3.833109 0.037161 1.333333 3.863166 0.017161 1.166667 3.913722 0.037161 0.833333 3.893722 0.017161 0.666667 3.883166 0.037161 -0.068452 5.358654 2 -0.368452 5.358654 2 -0.068452 5.658655 2 -0.368452 5.658655 2 -0.119379 4.391882 1.672599 -0.119379 4.391882 1.8274 -0.354481 4.391882 1.8274 -0.354481 4.391882 1.672599 -0.119379 5.363132 1.672599 -0.354481 5.363132 1.672599 -0.354481 5.363132 1.8274 -0.119379 5.363132 1.8274 -0.354481 4.634694 1.672599 -0.354481 4.877507 1.672599 -0.354481 5.120319 1.672599 -0.197031 5.120319 1.672599 -0.22218 4.877507 1.672599 -0.197031 4.634694 1.672599 -0.354481 5.120319 1.8274 -0.354481 4.877507 1.8274 -0.354481 4.634694 1.8274 -0.197031 4.634694 1.8274 -0.22218 4.877507 1.8274 -0.197031 5.120319 1.8274 -0.068452 5.595527 2 -0.068452 5.421782 2 -0.128452 5.595527 2 -0.128452 5.421782 2 -0.068452 5.358654 -0.068453 -0.368452 5.658655 -0.368453 -0.068452 5.658655 -0.068453 -0.068452 5.421782 -0.068453 -0.128452 5.595527 -0.128453 -0.128452 5.421782 -0.128453 -0.354481 4.634694 0.3274 -0.354481 4.877507 0.3274 -0.22218 4.877507 0.3274 -0.197031 4.634694 0.3274 -0.197031 4.634694 0.1726 -0.22218 4.877507 0.1726 -0.354481 4.877507 0.1726 -0.354481 4.634694 0.1726 -0.354481 5.120319 0.3274 -0.354481 5.363132 0.3274 -0.119379 5.363132 0.3274 -0.197031 5.120319 0.3274 -0.119379 4.391882 0.3274 -0.354481 4.391882 0.3274 -0.197031 5.120319 0.1726 -0.119379 5.363132 0.1726 -0.354481 5.363132 0.1726 -0.354481 5.120319 0.1726 -0.354481 4.391882 0.1726 -0.119379 4.391882 0.1726 -0.368452 5.358654 -0.368453 -0.068452 5.595527 -0.068453 -0.068452 5.358654 -0.068453 -0.368452 5.358654 -0.368453 -0.068452 5.658655 -0.068453 -0.368452 5.658655 -0.368453 0.327401 4.391882 -0.119379 0.1726 4.391882 -0.119379 0.1726 4.391882 -0.354481 0.327401 4.391882 -0.354481 0.327401 5.363132 -0.119379 0.327401 5.363132 -0.354481 0.1726 5.363132 -0.354481 0.1726 5.363132 -0.119379 0.327401 4.634694 -0.354481 0.327401 4.877507 -0.354481 0.327401 5.120319 -0.354481 0.327401 5.120319 -0.197031 0.327401 4.877507 -0.22218 0.327401 4.634694 -0.197031 0.1726 5.120319 -0.354481 0.1726 4.877507 -0.354481 0.1726 4.634694 -0.354481 0.1726 4.634694 -0.197031 0.1726 4.877507 -0.22218 0.1726 5.120319 -0.197031 -0.068452 5.595527 -0.068453 -0.068452 5.421782 -0.068453 -0.128452 5.595527 -0.128453 -0.128452 5.421782 -0.128453 2 5.358654 -0.06845201 2 5.658655 -0.368452 2 5.658655 -0.06845201 2 5.421782 -0.068452 2 5.595527 -0.128452 2 5.421782 -0.128452 1.6726 4.634694 -0.354481 1.6726 4.877507 -0.354481 1.6726 4.877507 -0.22218 1.6726 4.634694 -0.197031 1.8274 4.634694 -0.197031 1.8274 4.877507 -0.22218 1.8274 4.877507 -0.354481 1.8274 4.634694 -0.354481 1.6726 5.120319 -0.354481 1.6726 5.363132 -0.354481 1.6726 5.363132 -0.119379 1.6726 5.120319 -0.197031 1.6726 4.391882 -0.119379 1.6726 4.391882 -0.354481 1.8274 5.120319 -0.197031 1.8274 5.363132 -0.119379 1.8274 5.363132 -0.354481 1.8274 5.120319 -0.354481 1.8274 4.391882 -0.354481 1.8274 4.391882 -0.119379 2 5.358654 -0.368452 2 5.595527 -0.068452</float_array>
          <technique_common>
            <accessor source="#sewer_wall_high_support_concaveShape-positions-array" count="355" stride="3">
              <param name="X" type="float"/>
              <param name="Y" type="float"/>
              <param name="Z" type="float"/>
            </accessor>
          </technique_common>
        </source>
        <source id="sewer_wall_high_support_concaveShape-normals" name="sewer_wall_high_support_concaveShape-normals">
          <float_array id="sewer_wall_high_support_concaveShape-normals-array" count="1545">0.3811345 -0.9157242 0.1272236 -0.7074381 -0.7016858 0.08466478 -0.707586 -0.6898839 0.1529128 0.3772948 -0.8996088 0.2198922 0 0.9999999 0 0 0.9999999 0 0 0.9999999 0 0 0.9999999 0 -0.9999999 0 0 -0.9999999 0 0 0.2527248 -0.9675381 0 -0.8944271 -0.4472136 0 -0.710451 -0.700442 -0.0681206 0.3828135 -0.9127937 -0.1423427 0.3752362 -0.9017386 -0.2146287 -0.707586 -0.6837822 -0.1782246 -0.7074381 -0.6987631 -0.1061192 0.380169 -0.916765 -0.1225295 -0.4472136 -0.8944272 0 0.5978606 -0.8015988 -0.001466045 0.3794056 -0.9162188 0.1288196 -0.7104509 -0.6904333 0.1362399 0 0.9999999 0 0 0.9999999 0 0 0.9999999 0 0 0.9999999 0 0 0.9999999 0 0 0.9999999 0 0 0.9999999 0 0 0.9999999 0 0 1 0 0 1 0 0 0.9999999 0 0 0.9999999 0 -1 0 0 -0.9999999 0 0 -0.9999999 0 0 -0.9999999 0 0 -0.9999999 0 0 -0.9999999 0 0 0.3830617 -0.9237107 0.004711847 -0.7083645 -0.7055312 -0.02109843 0 0.9999999 0 0 0.9999999 0 -0.9999999 0 0 0.9999999 0 0 0.9999999 0 0 0.9999999 0 0 0.9999999 0 0 0.9999999 0 0 0.9216208 -0.3788692 -0.08410209 0.9232233 -0.3814909 -0.04607946 0.9999999 0 0 0.9996598 0 -0.02608054 0.9999621 0 -0.008694126 0.9998488 0 -0.01738834 0.9996598 0 -0.02608067 0.9440124 -0.3283416 0.03213005 0.9737256 -0.2274347 -0.01148419 0.9999304 0 -0.01179286 0.9999921 0 -0.00393104 0.9999999 0 0 0.9999999 0 0 0.9999999 0 0 0.9999999 0 0 0.9228216 -0.3808532 0.05788875 0.920756 -0.3774945 0.09851995 0.9999999 0 0 0.9999999 0 0 0.9238794 -0.3826834 0 0.8868338 -0.4532237 -0.09007889 0.9999999 0 0 0.9999999 0 0 0.9999999 0 0 0.9999999 0 0 0.9999999 0 0 0.9999999 0 0 0.9999999 0 0 0.9999999 0 0 0.944959 -0.3270425 0.009779708 1 0 0 0 -0.9996766 -0.02542565 0 -0.9990467 -0.04365231 0 -0.9993097 -0.03714876 0 -0.9997956 -0.02021015 0 0.9711578 0.2384375 0 0.9930034 0.1180857 0 0.9868676 0.1615309 0 0.9622847 0.2720443 0 -0.9999999 0 0 -0.9994406 0.03344357 0 -0.9998601 0.01672278 0 -0.9999999 0 0 0.9946963 -0.1028563 0 0.9999999 0 0 0.9999999 0 0 0.9786117 -0.2057158 0 -0.9993096 0.03714994 0 -0.9997956 0.02021014 0 -0.9996765 0.02542923 0 -0.9990467 0.04365231 0 0.9868675 -0.161532 0 0.9622846 -0.2720443 0 0.9711576 -0.2384386 0 0.9930034 -0.1180856 0 0.9999999 0 0 0.9786116 0.2057168 0 0.994696 0.1028578 0 0.9999999 0 0 -0.9998602 -0.01672259 0 -0.9999999 0 0 -0.9999999 0 0 -0.9994406 -0.03344638 0 -0.9999874 -0.004998579 0 -0.9999874 0.004996187 0 0.9996901 -0.02489429 0 0.9996901 0.02489425 0 -0.9999999 0 0 -0.9999999 0 0.2550987 -0.8938857 0.3686367 -0.005809533 -0.9238681 0.3826668 0 -0.9999999 0 0 -0.9999999 0 -0.003414987 -0.9074451 -0.4201566 0.3786377 -0.8896723 -0.2551793 0 -0.9999999 0 0.3428892 -0.9270253 0.1518259 0 -0.9999999 0 0.3826368 -0.9238499 0.009506147 -0.00286224 -0.342475 0.9395227 0.4633624 -0.1900604 0.8655475 0.2379813 0.3365567 0.9110952 0 0.8944272 0.4472136 0.2575743 -0.2940621 -0.9204254 0 -0.3826775 -0.923882 0 0 -0.9999999 0.505452 0 -0.8628547 0.9543768 -0.2385687 0.1795827 0.3679201 -0.3496295 0.8616228 0.4164528 0.8935621 0.1676716 0.5931531 0.7393285 0.3186893 0.9395197 -0.3424627 0.004682552 0.8655482 -0.1900603 -0.463361 0.9675385 0 -0.2527235 0.9999999 0 0 0 0.9999999 0 0 0.9999999 0 0 0.9999999 0 0 1 0 0 0.9999999 0 0 0.9999999 0 0.9999937 0 0.003501671 0.9999938 0 0.003501671 0.9999985 0 0.001750838 0.9999985 0 0.001750838 0.9999999 0 0 0.9999999 0 0 0.9999999 0 0 0.9999999 0 0 0.9999999 0 0 0.9999999 0 0 0.9999999 0 0 0.9999999 0 0 0.9999999 0 0 0.9999999 0 0 0.9999999 0 0 0.9999999 0 0 0.9999999 0 0 0.9999999 0 0 -0.1272231 -0.9157224 0.381139 -0.119791 -0.9927991 0 -0.2163967 -0.9763054 0 -0.2198907 -0.8996069 0.3773001 0 0.9999999 0 0 0.9999999 0 0 0.9999999 0 0 0.9999999 0 0 0 -0.9999999 0 0 -0.9999999 0 0 -0.9999999 0 0 -0.9999999 0.003790423 -0.939654 0.3421052 0 -1 0 0.09679616 -0.9953042 0 0.1470036 -0.8914512 0.428608 0.2146277 -0.9017349 0.3752453 0.2522176 -0.9676704 0 0.1501455 -0.9886639 0 0.1225298 -0.9167636 0.380172 0 -0.9999999 0 0 -0.8628562 0.5054495 -0.127633 -0.9163588 0.3794686 -0.1935925 -0.981082 0 0 0.9999999 0 0 0.9999999 0 0 0.9999999 0 0 0.9999999 0 0 0.9999999 0 0 0.9999999 0 0 0.9999999 0 0 0.9999999 0 0 0.9999999 0 0 0.9999999 0 0 0.9999999 0 0 0.9999999 0 0 0 -0.9999999 0 0 -0.9999999 0 0 -0.9999999 0 0 -0.9999999 0 0 -0.9999999 0 0 -0.9999999 0 0 -0.9999999 0 0 -0.9999999 0 0 -0.9999999 0 0 -0.9999999 0 0 -0.9999999 0 0 -0.9999999 -0.004712506 -0.9237106 0.3830618 0.02989076 -0.9995531 0 0 0.9999999 0 0 0.9999999 0 0 0 -0.9999999 0 0 -0.9999999 0 0 0.9999999 0 0 0.9999999 0 0 0.9999999 0 0 0.9999999 0 0 0.9999999 0.08410069 -0.3788622 0.9216238 0.04607973 -0.3814909 0.9232234 0 0 0.9999999 0 0 0.9999999 0 0 0.9999999 0 0 0.9999999 0 0 0.9999999 -0.03758595 -0.3810157 0.9238042 0 -0.3826835 0.9238796 0 0 0.9999999 0 0 0.9999999 0 0 0.9999999 0 0 0.9999999 0 0 0.9999999 0 0 0.9999999 -0.05788752 -0.3808484 0.9228237 -0.0985188 -0.3774922 0.9207572 0 0 0.9999999 0 0 0.9999999 -0.004569372 -0.3063114 0.9519204 0.08639237 -0.4533684 0.8871265 -0.005017407 0 0.9999874 -0.01003469 0 0.9999495 -0.009185581 0 0.9999578 -0.01837048 0 0.9998313 -0.01837039 0 0.9998312 -0.009185536 0 0.9999578 0 0 0.9999999 0 0 0.9999999 -0.009779959 -0.3270409 0.9449595 0 0 0.9999999 0.02542762 -0.9996766 0 0.04365179 -0.9990467 0 0.03714809 -0.9993097 0 0.02021071 -0.9997956 0 -0.238437 0.9711579 0 -0.1180857 0.9930034 0 -0.1615314 0.9868677 0 -0.2720434 0.9622849 0 0 -0.9999999 0 -0.03344497 -0.9994406 0 -0.01672248 -0.9998602 0 0 -0.9999999 0 0.1028577 0.994696 0 0 0.9999999 0 0 0.9999999 0 0.2057148 0.9786119 0 -0.03714808 -0.9993096 0 -0.02021071 -0.9997956 0 -0.02542699 -0.9996766 0 -0.04365181 -0.9990467 0 0.1615313 0.9868675 0 0.272043 0.9622851 0 0.2384365 0.9711581 0 0.1180864 0.9930034 0 -0.2057147 0.9786121 0 -0.1028572 0.9946962 0 0.0167226 -0.9998601 0 0.03344514 -0.9994406 0 0.004998096 -0.9999874 0 -0.004998701 -0.9999874 0 0.02489396 0.9996901 0 -0.02489392 0.9996901 0 0 -0.9999999 0 0 -0.9999999 0 -0.3773025 -0.8899568 0.2561633 -0.3826616 -0.9238703 -0.005809412 0 -0.9999999 0 0 -0.9999999 0 0.4201548 -0.907446 -0.003414028 0.2352467 -0.8735788 0.4260502 0 -0.9999999 0 0.005577089 -0.9076335 0.4197264 -0.9395219 -0.3424768 -0.002862189 -0.8655475 -0.1900588 0.4633628 -0.9675381 0 0.2527246 -0.9999999 0 0 0.920424 -0.294066 0.2575749 0.9238796 -0.3826835 0 0.7071067 0.7071067 0 0.7019562 0.5815195 0.4112086 -0.2562333 -0.2944854 0.9206643 0 -0.3826883 0.9238775 0 0 0.9999999 -0.5054498 0 0.862856 0.4259107 -0.198727 0.8826708 0.1598178 0.3436961 0.9253817 0 0.9999999 0 0 0.9999999 0 0 0.9999999 0 0 0.9999999 0 0 0.9999999 0 0 0.9999999 0 0 0 0.9999999 0 0 0.9999999 0 0 0.9999999 0 0 0.9999999 0 0 0.9999999 0 0 0.9999999 0 0 0.9999999 0 0 0.9999999 0 0 0.9999999 0 0 0.9999999 0 0 0.9999999 0 0 0.9999999 0 0 0.9999999 0 0 0.9999999 0.001167226 0 0.9999992 0.002334452 0 0.9999971 0.003501673 0 0.9999938 0.003501674 0 0.9999938 0 0 -0.9999999 0 0 -0.9999999 0 0 -0.9999999 0 0 -0.9999999 0 0 0.9999999 0 0 0.9999999 0 0 0.9999999 0 0 0.9999999 0.9994044 0.03450364 0 0.9994044 -0.03450431 0 0.9852667 0.1710248 0 0.9711332 0.238538 0 0 0 -0.9999999 0 0 -0.9999999 0 0 -0.9999999 0 0 -0.9999999 0 0 -1 0 0 -0.9999999 0 0 0.9999999 0 0 0.9999999 0 0 0.9999999 0 0 0.9999999 0 0 0.9999999 0 0 0.9999999 0.9524789 -0.3046042 0 0.9524786 -0.3046051 0 0.9711332 -0.2385372 0 0.9852667 -0.1710243 0 0.9524785 0.3046055 0 0.9524786 0.3046051 0 1 0 0 0.9999999 0 0 1 0 0 1 0 0 0 0.9999999 0 0 0.9999999 0 0 0.9999999 0 0 0.9999999 0 0 -0.9999999 0 0 -0.9999999 0 0 -0.9999999 0 0 -1 0 0 0.9999999 0 0 1 0 0 0.9999999 0 0 0.9999999 0 0.9999999 0 0 0.9999999 0 0 0.9999999 0 0 0.9999999 0 0 0.9999999 0 0 0.9999999 0 0 0.9999999 0 0 0.9999999 0 0 0 -0.9999999 0 0 -0.9999999 0 0 -0.9999999 0 0 -0.9999999 0 0 0 0.9999999 0 0 0.9999999 0 0 0.9999999 0 0 0.9999999 0 0 -0.9999999 0 0 -0.9999999 0 0 -0.9999999 0 0 -0.9999999 0.9994045 0.03450382 0 0.9711332 0.238538 0 0.9852667 0.1710247 0 0.9994045 -0.03450434 0 0 0 0.9999999 0 0 0.9999999 0 0 0.9999999 0 0 0.9999999 0 0 0.9999999 0 0 0.9999999 0 0 -0.9999999 0 0 -0.9999999 0 0 -0.9999999 0 0 -0.9999999 0 0 -0.9999999 0 0 -0.9999999 0.9524789 -0.3046042 0 0.9852667 -0.1710249 0 0.9711334 -0.2385374 0 0.9524792 -0.3046035 0 0.9524785 0.3046055 0 0.9524785 0.3046056 0 0.9999999 0 0 0.9999999 0 0 0.9999999 0 0 0.9999999 0 0 -0.9999999 0 0 -0.9999999 0 0 -0.9999999 0 0 -0.9999999 0 0 0 0.03450361 0.9994044 0 -0.03450439 0.9994045 0 0.1710244 0.9852668 0 0.238538 0.9711332 0.9999999 0 0 1 0 0 0.9999999 0 0 0.9999999 0 0 0.9999999 0 0 1 0 0 -0.9999999 0 0 -0.9999999 0 0 -0.9999999 0 0 -0.9999999 0 0 -0.9999999 0 0 -0.9999999 0 0 0 -0.3046052 0.9524786 0 -0.3046051 0.9524786 0 -0.238538 0.9711332 0 -0.1710249 0.9852667 0 0.3046055 0.9524785 0 0.3046059 0.9524784 0 0 0.9999999 0 0 0.9999999 0 0 0.9999999 0 0 1 0 0.9999999 0 0 0.9999999 0 0 0.9999999 0 0 0.9999999 0 0 -0.9999999 0 0 -0.9999999 0 0 -0.9999999 0 0 -0.9999999 0 0 0.9999999 0 0 1 0 0 0.9999999 0 0 0.9999999 0 0 0 0.9999999 0 0 0.9999999 0 0 0.9999999 0 0 0.9999999 0 0 0.9999999 0 0 1 0 0 0.9999999 0 0 0.9999999 0 -0.9999999 0 0 -0.9999999 0 0 -0.9999999 0 0 -0.9999999 0 -0.9999999 0 0 -0.9999999 0 0 -0.9999999 0 0 -0.9999999 0 0 0.9999999 0 0 0.9999999 0 0 0.9999999 0 0 0.9999999 0 0 0 0.03450364 0.9994044 0 0.2385377 0.9711333 0 0.1710243 0.9852667 0 -0.03450433 0.9994045 -0.9999999 0 0 -0.9999999 0 0 -0.9999999 0 0 -1 0 0 -0.9999999 0 0 -1 0 0 0.9999999 0 0 0.9999999 0 0 0.9999999 0 0 0.9999999 0 0 0.9999999 0 0 0.9999999 0 0 0 -0.3046048 0.9524788 0 -0.1710248 0.9852666 0 -0.2385376 0.9711331 0 -0.3046048 0.9524788 0 0.3046051 0.9524786 0 0.3046055 0.9524785</float_array>
          <technique_common>
            <accessor source="#sewer_wall_high_support_concaveShape-normals-array" count="515" stride="3">
              <param name="X" type="float"/>
              <param name="Y" type="float"/>
              <param name="Z" type="float"/>
            </accessor>
          </technique_common>
        </source>
        <source id="sewer_wall_high_support_concaveShape-UVSet0" name="sewer_wall_high_support_concaveShape-UVSet0">
          <float_array id="sewer_wall_high_support_concaveShape-UVSet0-array" count="960">0.66803 0.121268 0.58403 0.121272 0.584022 0 0.668016 0 0.666713 1 0.583376 1 0.583376 0.799984 0.666713 0.799984 0.247856 0.121271 0 0.121264 0 0 0.247861 0 0.418122 0.121274 0.334123 0.121273 0.334127 0 0.418123 0 0.754281 0 1 0 1.000019 0.12126 0.754298 0.121261 0.25002 1 0 1 0 0.799984 0.25002 0.799984 0.416699 1 0.33336 1 0.333359 0.799984 0.416699 0.799984 0.750052 0.799984 1 0.799984 1 1 0.750052 1 0.501075 0.121275 0.501073 0 0.500038 1 0.500038 0.799984 0.41704 0.328151 0.333381 0.328151 0.335826 0.17801 0.41837 0.17801 1 0.328151 0.751681 0.328151 0.749255 0.17801 1.00002 0.178006 0.668376 0.328151 0.584718 0.328151 0.58256 0.17801 0.665102 0.17801 0 0.17801 0.251672 0.17801 0.250074 0.328151 0 0.328151 0.500879 0.328151 0.500465 0.17801 0.333728 0.307841 0.417214 0.307841 0.416096 0.198239 0.331955 0.198239 0.751371 0.307841 1 0.307841 1.00002 0.198235 0.751996 0.198239 0.584544 0.307841 0.668029 0.307841 0.668974 0.198239 0.584834 0.198239 0.248931 0.198239 0 0.198239 0 0.307841 0.250384 0.307841 0.500879 0.307841 0.500465 0.198239 0.665577 0.137569 0.582761 0.137168 0.417402 0.386543 0.333918 0.376645 0.333918 0.550552 0.417402 0.550551 0.584634 0.373117 0.668234 0.373192 0.25161 0.137911 0 0.137911 1 0.360431 0.751352 0.360431 0.418169 0.137168 0.335352 0.137569 0.667868 0.376645 0.584379 0.386543 0.250437 0.360431 0 0.360431 1.00002 0.137907 0.749316 0.137911 0.751352 0.550553 1 0.550553 0 0.373309 0.250136 0.373275 0.584379 0.550551 0.667868 0.550552 0.333523 0.373191 0.417124 0.373117 0.751619 0.373274 1 0.373309 0 0.550553 0.250437 0.550553 0.500465 0.137399 0.500889 0.391386 0.500889 0.55055 0.500879 0.373091 1.000002 0.757356 0.786244 0.757356 0.747012 0.779327 1.000002 0.775738 0.724968 0.757356 0.60202 0.757356 0.737868 0.972214 1 0.972214 0.60202 0.799904 0.047369 0.739995 0.047369 0.582438 0.582389 0.582438 0.582389 0.753696 0.047369 0.753696 0.07412 0.582438 0.582389 0.582438 0.582389 0.753696 0.213756 0.756638 0 0.756638 0 0.799187 0.241094 0.799964 0.39798 0.756638 0.275032 0.756638 0 0.971496 0.238387 0.971496 0.39798 0.77502 0.60202 0.972214 0.39798 0.971496 0 0.148409 0 0.343875 1 0.343946 1 0.148481 0.753136 0.343877 0.753136 0.148411 0.50294 0.293483 0.50294 0.140418 0.252748 0.148409 0.252748 0.343875 0.419542 0.299712 0.419542 0.141668 0.336145 0.144223 0.336145 0.31714 0.669738 0.317142 0.669738 0.144224 0.586339 0.141669 0.586339 0.299713 1.000002 0.799904 0.739781 0.799991 0.757731 0.799991 0.60202 0.775738 0.07412 0.753696 0.762378 0.972214 0 0.77502 0.263236 0.799964 0.252988 0.77861 0.39798 0.799187 0.262896 0.971496 0.047369 0.596139 1.00002 0.119832 0.749328 0.119836 0.750049 0.120288 0.666408 0.120271 0.500276 0.120019 0.417941 0.120004 0.251598 0.119798 0 0.119798 0.666167 0.120173 0.583319 0.120148 0.582989 0.120004 0.500654 0.120019 0.41761 0.120148 0.334761 0.120173 0.33452 0.12027 0.250878 0.120288 0.66803 0.121268 0.58403 0.121272 0.584022 0 0.668016 0 0.666713 1 0.583376 1 0.583376 0.799984 0.666713 0.799984 0.247856 0.121271 0 0.121264 0 0 0.247861 0 0.418122 0.121274 0.334123 0.121273 0.334127 0 0.418123 0 0.754281 0 1 0 1.000019 0.12126 0.754298 0.121261 0.25002 1 0 1 0 0.799984 0.25002 0.799984 0.416699 1 0.33336 1 0.333359 0.799984 0.416699 0.799984 0.750052 0.799984 1 0.799984 1 1 0.750052 1 0.501075 0.121275 0.501073 0 0.500038 1 0.500038 0.799984 0.41704 0.328151 0.333381 0.328151 0.335826 0.17801 0.41837 0.17801 1 0.328151 0.751681 0.328151 0.749255 0.17801 1.00002 0.178006 0.668376 0.328151 0.584718 0.328151 0.58256 0.17801 0.665102 0.17801 0 0.17801 0.251672 0.17801 0.250074 0.328151 0 0.328151 0.500879 0.328151 0.500465 0.17801 0.333728 0.307841 0.417214 0.307841 0.416096 0.198239 0.331955 0.198239 0.751371 0.307841 1 0.307841 1.00002 0.198235 0.751996 0.198239 0.584544 0.307841 0.668029 0.307841 0.668974 0.198239 0.584834 0.198239 0.248931 0.198239 0 0.198239 0 0.307841 0.250384 0.307841 0.500879 0.307841 0.500465 0.198239 0.665577 0.137569 0.582761 0.137168 0.417402 0.386543 0.333918 0.376645 0.333918 0.550552 0.417402 0.550551 0.584634 0.373117 0.668234 0.373192 0.25161 0.137911 0 0.137911 1 0.360431 0.751352 0.360431 0.418169 0.137168 0.335352 0.137569 0.667868 0.376645 0.584379 0.386543 0.250437 0.360431 0 0.360431 1.00002 0.137907 0.749316 0.137911 0.751352 0.550553 1 0.550553 0 0.373309 0.250136 0.373275 0.584379 0.550551 0.667868 0.550552 0.333523 0.373191 0.417124 0.373117 0.751619 0.373274 1 0.373309 0 0.550553 0.250437 0.550553 0.500465 0.137399 0.500889 0.391386 0.500889 0.55055 0.500879 0.373091 1.000002 0.757356 0.786244 0.757356 0.747012 0.779327 1.000002 0.775738 0.724968 0.757356 0.60202 0.757356 0.737868 0.972214 1 0.972214 0.60202 0.799904 0.047369 0.739995 0.047369 0.582438 0.582389 0.582438 0.582389 0.753696 0.047369 0.753696 0.07412 0.582438 0.582389 0.582438 0.582389 0.753696 0.213756 0.756638 0 0.756638 0 0.799187 0.241094 0.799964 0.39798 0.756638 0.275032 0.756638 0 0.971496 0.238387 0.971496 0.39798 0.77502 0.60202 0.972214 0.39798 0.971496 0 0.148409 0 0.343875 1 0.343946 1 0.148481 0.753136 0.343877 0.753136 0.148411 0.50294 0.293483 0.50294 0.140418 0.252748 0.148409 0.252748 0.343875 0.419542 0.299712 0.419542 0.141668 0.336145 0.144223 0.336145 0.31714 0.669738 0.317142 0.669738 0.144224 0.586339 0.141669 0.586339 0.299713 1.000002 0.799904 0.739781 0.799991 0.757731 0.799991 0.60202 0.775738 0.07412 0.753696 0.762378 0.972214 0 0.77502 0.263236 0.799964 0.252988 0.77861 0.39798 0.799187 0.262896 0.971496 0.047369 0.596139 1.00002 0.119832 0.749328 0.119836 0.750049 0.120288 0.666408 0.120271 0.500276 0.120019 0.417941 0.120004 0.251598 0.119798 0 0.119798 0.666167 0.120173 0.583319 0.120148 0.582989 0.120004 0.500654 0.120019 0.41761 0.120148 0.334761 0.120173 0.33452 0.12027 0.250878 0.120288 1 0.125255 1 0.050574 1 0.87869 1 0.804009 1 0.199174 1 0.155915 0.152848 0.233822 0.344426 0.246611 0.344426 0.31182 0.130509 0.311114 0.130509 0.389511 0.344426 0.388805 0.344426 0.454014 0.152847 0.466803 0.536005 0.233822 0.730076 0.204404 0.777435 0.314497 0.558343 0.311114 -0.088581 0.314497 -0.041222 0.204404 0.558343 0.389511 0.777435 0.386128 0.730077 0.49622 0.536006 0.466803 -0.041223 0.49622 -0.088582 0.386128 1 0.788291 1 0.140973 2 0.125255 2 0.050574 2 0.87869 2 0.804009 2 0.788291 2 0.140973 2 0.199174 2 0.155915 1 0.773348 2 0.773348 0.152848 0.233822 0.344426 0.246611 0.344426 0.31182 0.130509 0.311114 0.130509 0.389511 0.344426 0.388805 0.344426 0.454014 0.152847 0.466803 0.536005 0.233822 0.730076 0.204404 0.777435 0.314497 0.558343 0.311114 -0.088581 0.314497 -0.041222 0.204404 0.558343 0.389511 0.777435 0.386128 0.730077 0.49622 0.536006 0.466803 -0.041223 0.49622 -0.088582 0.386128 1 0.125255 1 0.050574 1 0.87869 1 0.804009 1 0.199174 1 0.155915 0.152848 0.233822 0.344426 0.246611 0.344426 0.31182 0.130509 0.311114 0.130509 0.389511 0.344426 0.388805 0.344426 0.454014 0.152847 0.466803 0.536005 0.233822 0.730076 0.204404 0.777435 0.314497 0.558343 0.311114 -0.088581 0.314497 -0.041222 0.204404 0.558343 0.389511 0.777435 0.386128 0.730077 0.49622 0.536006 0.466803 -0.041223 0.49622 -0.088582 0.386128 1 0.788291 1 0.140973 2 0.125255 2 0.050574 2 0.87869 2 0.804009 2 0.788291 2 0.140973 2 0.199174 2 0.155915 1 0.773348 2 0.773348 0.152848 0.233822 0.344426 0.246611 0.344426 0.31182 0.130509 0.311114 0.130509 0.389511 0.344426 0.388805 0.344426 0.454014 0.152847 0.466803 0.536005 0.233822 0.730076 0.204404 0.777435 0.314497 0.558343 0.311114 -0.088581 0.314497 -0.041222 0.204404 0.558343 0.389511 0.777435 0.386128 0.730077 0.49622 0.536006 0.466803 -0.041223 0.49622 -0.088582 0.386128</float_array>
          <technique_common>
            <accessor source="#sewer_wall_high_support_concaveShape-UVSet0-array" count="480" stride="2">
              <param name="S" type="float"/>
              <param name="T" type="float"/>
            </accessor>
          </technique_common>
        </source>
        <vertices id="sewer_wall_high_support_concaveShape-vertices" name="sewer_wall_high_support_concaveShape-vertices">
          <input semantic="POSITION" source="#sewer_wall_high_support_concaveShape-positions"/>
        </vertices>
        <triangles material="sewer_wall_high_support_concaveSG" count="484">
          <input semantic="VERTEX" source="#sewer_wall_high_support_concaveShape-vertices" offset="0"/>
          <input semantic="NORMAL" source="#sewer_wall_high_support_concaveShape-normals" offset="1"/>
          <input semantic="TEXCOORD" source="#sewer_wall_high_support_concaveShape-UVSet0" offset="2" set="0"/>
          <p>29 0 1 22 1 2 23 2 3 23 2 3 120 3 0 29 0 1 33 4 5 26 5 6 27 6 7 27 6 7 32 7 4 33 4 5 22 1 74 33 8 77 32 9 76 32 9 76 23 2 75 22 1 74 0 10 9 1 11 10 8 12 11 8 12 11 16 13 8 0 10 9 31 14 13 20 15 14 21 16 15 21 16 15 122 17 12 31 14 13 5 18 17 116 19 18 117 20 19 117 20 19 10 21 16 5 18 17 3 22 21 2 23 22 11 24 23 11 24 23 19 25 20 3 22 21 35 26 25 24 27 26 25 28 27 25 28 27 34 29 24 35 26 25 7 30 29 6 31 30 17 32 31 17 32 31 13 33 28 7 30 29 1 11 82 3 34 93 19 35 92 19 35 92 8 12 83 1 11 82 20 15 86 35 36 97 34 37 96 34 37 96 21 16 87 20 15 86 6 38 102 5 18 89 10 21 88 10 21 88 17 39 103 6 38 102 15 40 32 9 41 33 22 1 2 22 1 2 29 0 1 15 40 32 10 21 16 117 20 19 120 3 0 120 3 0 23 2 3 10 21 16 18 42 34 12 43 35 26 5 6 26 5 6 33 4 5 18 42 34 13 33 28 17 32 31 32 7 4 32 7 4 27 6 7 13 33 28 9 41 105 18 44 106 33 8 77 33 8 77 22 1 74 9 41 105 17 39 103 10 21 88 23 2 75 23 2 75 32 9 76 17 39 103 16 13 8 8 12 11 20 15 14 20 15 14 31 14 13 16 13 8 9 41 33 15 40 32 122 17 12 122 17 12 21 16 15 9 41 33 19 25 20 11 24 23 24 27 26 24 27 26 35 26 25 19 25 20 12 43 35 18 42 34 34 29 24 34 29 24 25 28 27 12 43 35 8 12 83 19 35 92 35 36 97 35 36 97 20 15 86 8 12 83 18 44 106 9 41 105 21 16 87 21 16 87 34 37 96 18 44 106 47 45 36 25 46 99 24 47 98 24 47 98 48 48 37 47 45 36 49 49 38 123 50 85 30 51 84 30 51 84 46 52 39 49 49 38 7 53 101 13 54 100 41 55 41 41 55 41 39 56 40 7 53 101 14 57 91 4 58 90 38 59 43 38 59 43 40 60 42 14 57 91 27 61 79 26 62 78 52 63 45 52 63 45 51 64 44 27 61 79 121 65 73 28 66 72 50 67 47 50 67 47 53 68 46 121 65 73 115 69 81 119 70 80 45 71 49 45 71 49 37 72 48 115 69 81 11 73 95 2 74 94 36 75 51 36 75 51 44 76 50 11 73 95 43 77 52 12 78 107 25 46 99 25 46 99 47 45 36 43 77 52 46 52 39 30 51 84 118 79 104 118 79 104 42 80 53 46 52 39 45 71 49 119 70 80 123 50 85 123 50 85 49 49 38 45 71 49 48 48 37 24 47 98 11 73 95 11 73 95 44 76 50 48 48 37 13 54 100 27 61 79 51 64 44 51 64 44 41 55 41 13 54 100 28 66 72 14 57 91 40 60 42 40 60 42 50 67 47 28 66 72 118 79 104 121 65 73 53 68 46 53 68 46 42 80 53 118 79 104 26 62 78 12 78 107 43 77 52 43 77 52 52 63 45 26 62 78 47 81 36 48 82 37 64 83 54 64 83 54 63 84 55 47 81 36 49 85 38 46 86 39 62 87 56 62 87 56 65 88 57 49 85 38 39 89 40 41 90 41 57 91 58 57 91 58 174 92 59 39 89 40 40 93 42 38 94 43 175 95 60 175 95 60 56 96 61 40 93 42 51 97 44 52 98 45 68 99 62 68 99 62 67 100 63 51 97 44 53 101 46 50 102 47 66 103 64 66 103 64 69 104 65 53 101 46 37 105 48 45 106 49 61 107 66 61 107 66 55 108 67 37 105 48 44 109 50 36 110 51 54 111 68 54 111 68 60 112 69 44 109 50 43 113 52 47 81 36 63 84 55 63 84 55 59 114 70 43 113 52 46 86 39 42 115 53 58 116 71 58 116 71 62 87 56 46 86 39 45 106 49 49 85 38 65 88 57 65 88 57 61 107 66 45 106 49 48 82 37 44 109 50 60 112 69 60 112 69 64 83 54 48 82 37 41 90 41 51 97 44 67 100 63 67 100 63 57 91 58 41 90 41 50 102 47 40 93 42 56 96 61 56 96 61 66 103 64 50 102 47 42 115 53 53 101 46 69 104 65 69 104 65 58 116 71 42 115 53 52 98 45 43 113 52 59 114 70 59 114 70 68 99 62 52 98 45 88 117 108 85 118 109 73 119 110 73 119 110 70 120 111 88 117 108 84 121 125 87 122 126 110 123 160 110 123 160 112 124 162 84 121 125 85 118 112 207 125 113 108 126 157 108 126 157 73 119 110 85 118 112 86 127 129 84 121 130 112 124 162 112 124 162 75 128 133 86 127 129 105 129 154 107 130 156 109 131 159 109 131 159 81 132 115 105 129 154 72 133 128 71 134 127 80 135 131 80 135 131 76 136 132 72 133 128 106 137 155 74 138 116 78 139 134 78 139 134 77 140 114 106 137 155 113 141 163 111 142 161 114 143 164 114 143 164 79 144 135 113 141 163 77 140 117 78 139 118 82 145 119 77 140 117 82 145 119 81 132 120 109 131 158 77 140 117 81 132 120 79 146 121 114 147 165 76 148 122 79 146 121 76 148 122 80 149 123 79 146 121 80 149 123 83 150 124 175 151 138 174 152 139 92 153 141 92 153 141 91 154 140 175 151 138 101 155 150 91 154 140 92 153 141 92 153 141 102 156 151 101 155 150 104 157 153 101 155 150 102 156 151 102 156 151 103 158 152 104 157 153 93 159 142 104 157 153 103 158 152 103 158 152 94 160 143 93 159 142 93 159 142 94 160 143 98 161 147 98 161 147 97 162 146 93 159 142 97 162 146 98 161 147 99 163 148 99 163 148 100 164 149 97 162 146 100 164 149 99 163 148 95 165 144 95 165 144 96 166 145 100 164 149 96 166 145 95 165 144 89 167 136 89 167 136 90 168 137 96 166 145 73 119 110 106 137 155 107 130 156 73 119 110 107 130 156 105 129 154 105 129 154 70 120 111 73 119 110 108 126 157 74 138 116 106 137 155 106 137 155 73 119 110 108 126 157 107 130 156 106 137 155 77 140 114 77 140 114 109 131 159 107 130 156 72 133 128 111 142 161 112 124 162 110 123 160 71 134 127 72 133 128 72 133 128 112 124 162 110 123 160 112 124 162 111 142 161 113 141 163 113 141 163 75 128 133 112 124 162 111 142 161 72 133 128 76 136 132 76 136 132 114 143 164 111 142 161 116 19 166 4 58 90 14 57 91 14 57 91 117 20 167 116 19 166 117 20 168 14 57 91 28 66 72 28 66 72 120 3 169 117 20 168 15 40 170 118 79 104 30 51 84 30 51 84 122 17 171 15 40 170 16 13 172 119 70 80 115 69 81 115 69 81 0 10 173 16 13 172 120 3 174 28 66 72 121 65 73 121 65 73 29 0 175 120 3 174 29 0 176 121 65 73 118 79 104 118 79 104 15 40 177 29 0 176 122 17 178 30 51 84 123 50 85 123 50 85 31 14 179 122 17 178 31 14 180 123 50 85 119 70 80 119 70 80 16 13 181 31 14 180 151 169 183 144 170 184 145 171 185 145 171 185 239 172 182 151 169 183 155 173 187 148 174 188 149 175 189 149 175 189 154 176 186 155 173 187 144 177 256 155 178 259 154 179 258 154 179 258 145 180 257 144 177 256 116 181 191 124 182 192 130 183 193 130 183 193 138 184 190 116 181 191 153 185 195 142 186 196 143 187 197 143 187 197 241 188 194 153 185 195 127 189 199 235 190 200 236 191 201 236 191 201 132 192 198 127 189 199 125 193 203 7 194 204 133 195 205 133 195 205 141 196 202 125 193 203 157 197 207 146 198 208 147 199 209 147 199 209 156 200 206 157 197 207 129 201 211 128 202 212 139 203 213 139 203 213 135 204 210 129 201 211 124 205 264 125 206 275 141 207 274 141 207 274 130 208 265 124 205 264 142 209 268 157 210 279 156 211 278 156 211 278 143 212 269 142 209 268 128 213 284 127 214 271 132 215 270 132 215 270 139 216 285 128 213 284 137 217 214 131 218 215 144 170 184 144 170 184 151 169 183 137 217 214 132 192 198 236 191 201 239 172 182 239 172 182 145 171 185 132 192 198 140 219 216 134 220 217 148 174 188 148 174 188 155 173 187 140 219 216 135 204 210 139 203 213 154 176 186 154 176 186 149 175 189 135 204 210 131 221 287 140 222 288 155 178 259 155 178 259 144 177 256 131 221 287 139 216 285 132 215 270 145 180 257 145 180 257 154 179 258 139 216 285 138 184 190 130 183 193 142 186 196 142 186 196 153 185 195 138 184 190 131 218 215 137 217 214 241 188 194 241 188 194 143 187 197 131 218 215 141 196 202 133 195 205 146 198 208 146 198 208 157 197 207 141 196 202 134 220 217 140 219 216 156 200 206 156 200 206 147 199 209 134 220 217 130 208 265 141 207 274 157 210 279 157 210 279 142 209 268 130 208 265 140 222 288 131 221 287 143 212 269 143 212 269 156 211 278 140 222 288 167 223 218 147 224 281 146 225 280 146 225 280 168 226 219 167 223 218 169 227 220 242 228 267 152 229 266 152 229 266 166 230 221 169 227 220 129 231 283 135 232 282 161 233 223 161 233 223 159 234 222 129 231 283 136 235 273 126 236 272 158 237 225 158 237 225 160 238 224 136 235 273 149 239 261 148 240 260 172 241 227 172 241 227 171 242 226 149 239 261 240 243 255 150 244 254 170 245 229 170 245 229 173 246 228 240 243 255 4 247 263 238 248 262 165 249 231 165 249 231 38 250 230 4 247 263 133 251 277 7 252 276 39 253 233 39 253 233 164 254 232 133 251 277 163 255 234 134 256 289 147 224 281 147 224 281 167 223 218 163 255 234 166 230 221 152 229 266 237 257 286 237 257 286 162 258 235 166 230 221 165 249 231 238 248 262 242 228 267 242 228 267 169 227 220 165 249 231 168 226 219 146 225 280 133 251 277 133 251 277 164 254 232 168 226 219 135 232 282 149 239 261 171 242 226 171 242 226 161 233 223 135 232 282 150 244 254 136 235 273 160 238 224 160 238 224 170 245 229 150 244 254 237 257 286 240 243 255 173 246 228 173 246 228 162 258 235 237 257 286 148 240 260 134 256 289 163 255 234 163 255 234 172 241 227 148 240 260 167 259 218 168 260 219 186 261 236 186 261 236 185 262 237 167 259 218 169 263 220 166 264 221 184 265 238 184 265 238 187 266 239 169 263 220 159 267 222 161 268 223 179 269 240 179 269 240 177 270 241 159 267 222 160 271 224 158 272 225 176 273 242 176 273 242 178 274 243 160 271 224 171 275 226 172 276 227 190 277 244 190 277 244 189 278 245 171 275 226 173 279 228 170 280 229 188 281 246 188 281 246 191 282 247 173 279 228 38 94 230 165 283 231 183 284 248 183 284 248 175 95 249 38 94 230 164 285 232 39 89 233 174 92 250 174 92 250 182 286 251 164 285 232 163 287 234 167 259 218 185 262 237 185 262 237 181 288 252 163 287 234 166 264 221 162 289 235 180 290 253 180 290 253 184 265 238 166 264 221 165 283 231 169 263 220 187 266 239 187 266 239 183 284 248 165 283 231 168 260 219 164 285 232 182 286 251 182 286 251 186 261 236 168 260 219 161 268 223 171 275 226 189 278 245 189 278 245 179 269 240 161 268 223 170 280 229 160 271 224 178 274 243 178 274 243 188 281 246 170 280 229 162 289 235 173 279 228 191 282 247 191 282 247 180 290 253 162 289 235 172 276 227 163 287 234 181 288 252 181 288 252 190 277 244 172 276 227 209 291 290 205 292 291 195 293 292 195 293 292 192 294 293 209 291 290 204 295 307 208 296 308 231 297 342 231 297 342 233 298 344 204 295 307 205 292 294 206 299 295 229 300 339 229 300 339 195 293 292 205 292 294 207 125 311 204 295 312 233 298 344 233 298 344 108 126 315 207 125 311 226 301 336 228 302 338 230 303 341 230 303 341 201 304 297 226 301 336 194 305 310 193 306 309 200 307 313 200 307 313 197 308 314 194 305 310 227 309 337 196 310 298 199 311 316 199 311 316 198 312 296 227 309 337 74 138 345 232 313 343 234 314 346 234 314 346 78 139 317 74 138 345 198 315 299 199 316 300 202 317 301 198 315 299 202 317 301 201 318 302 230 319 340 198 315 299 201 318 302 78 139 303 234 314 347 197 308 304 78 139 303 197 308 304 200 307 305 78 139 303 200 307 305 203 320 306 210 321 320 211 322 321 213 323 323 213 323 323 212 324 322 210 321 320 222 325 332 212 324 322 213 323 323 213 323 323 223 326 333 222 325 332 225 327 335 222 325 332 223 326 333 223 326 333 224 328 334 225 327 335 214 329 324 225 327 335 224 328 334 224 328 334 215 330 325 214 329 324 214 329 324 215 330 325 219 331 329 219 331 329 218 332 328 214 329 324 218 332 328 219 331 329 220 333 330 220 333 330 221 334 331 218 332 328 221 334 331 220 333 330 216 335 326 216 335 326 217 336 327 221 334 331 217 336 327 216 335 326 174 337 318 174 337 318 175 338 319 217 336 327 195 293 292 227 309 337 228 302 338 195 293 292 228 302 338 226 301 336 226 301 336 192 294 293 195 293 292 229 300 339 196 310 298 227 309 337 227 309 337 195 293 292 229 300 339 228 302 338 227 309 337 198 312 296 198 312 296 230 303 341 228 302 338 194 305 310 232 313 343 233 298 344 231 297 342 193 306 309 194 305 310 194 305 310 233 298 344 231 297 342 233 298 344 232 313 343 74 138 345 74 138 345 108 126 315 233 298 344 232 313 343 194 305 310 197 308 314 197 308 314 234 314 346 232 313 343 235 190 348 126 236 272 136 235 273 136 235 273 236 191 349 235 190 348 236 191 350 136 235 273 150 244 254 150 244 254 239 172 351 236 191 350 137 217 352 237 257 286 152 229 266 152 229 266 241 188 353 137 217 352 138 184 354 238 248 262 4 247 263 4 247 263 116 181 355 138 184 354 239 172 356 150 244 254 240 243 255 240 243 255 151 169 357 239 172 356 151 169 358 240 243 255 237 257 286 237 257 286 137 217 359 151 169 358 241 188 360 152 229 266 242 228 267 242 228 267 153 185 361 241 188 360 153 185 362 242 228 267 238 248 262 238 248 262 138 184 363 153 185 362 256 339 371 259 340 372 260 341 373 260 341 373 255 342 370 256 339 371 265 343 375 262 344 376 263 345 377 263 345 377 264 346 374 265 343 375 259 347 372 265 348 375 264 349 374 264 349 374 260 350 373 259 347 372 252 351 379 251 352 380 258 353 381 258 353 381 257 354 378 252 351 379 257 354 378 258 353 381 259 340 372 259 340 372 256 339 371 257 354 378 247 355 382 250 356 383 255 342 370 255 342 370 260 341 373 247 355 382 254 357 385 253 358 386 261 359 387 261 359 387 266 360 384 254 357 385 266 360 384 261 359 387 262 344 376 262 344 376 265 343 375 266 360 384 249 361 388 248 362 389 264 346 374 264 346 374 263 345 377 249 361 388 251 363 380 254 364 385 266 365 384 266 365 384 258 366 381 251 363 380 258 366 381 266 365 384 265 348 375 265 348 375 259 347 372 258 366 381 248 367 389 247 368 382 260 350 373 260 350 373 264 349 374 248 367 389 243 369 364 271 370 392 274 371 397 274 371 397 268 372 391 243 369 364 274 373 397 276 374 399 270 375 369 270 375 369 268 376 391 274 373 397 243 377 364 244 378 365 297 379 393 297 379 393 271 380 392 243 377 364 246 381 366 245 382 367 273 383 395 273 383 395 272 384 394 246 381 366 269 385 368 270 386 369 276 387 399 276 387 399 275 388 398 269 385 368 245 389 367 267 390 390 298 391 396 298 391 396 273 392 395 245 389 367 267 393 390 269 394 400 275 395 401 275 395 401 298 396 396 267 393 390 278 397 403 277 398 402 280 399 405 280 399 405 279 400 404 278 397 403 282 401 407 281 402 406 284 403 409 284 403 409 283 404 408 282 401 407 279 405 404 280 406 405 281 407 406 281 407 406 282 408 407 279 405 404 286 409 411 285 410 410 288 411 413 288 411 413 287 412 412 286 409 411 285 410 410 278 397 403 279 400 404 279 400 404 288 411 413 285 410 410 289 413 414 280 399 405 277 398 402 277 398 402 290 414 415 289 413 414 292 415 417 291 416 416 294 417 419 294 417 419 293 418 418 292 415 417 291 416 416 282 401 407 283 404 408 283 404 408 294 417 419 291 416 416 295 419 420 284 403 409 281 402 406 281 402 406 296 420 421 295 419 420 287 421 412 288 422 413 291 423 416 291 423 416 292 424 417 287 421 412 288 422 413 279 405 404 282 408 407 282 408 407 291 423 416 288 422 413 296 425 421 281 407 406 280 406 405 280 406 405 289 426 414 296 425 421 312 427 429 315 428 430 316 429 431 316 429 431 311 430 428 312 427 429 321 431 433 318 432 434 319 433 435 319 433 435 320 434 432 321 431 433 315 435 430 321 436 433 320 437 432 320 437 432 316 438 431 315 435 430 308 439 437 307 440 438 314 441 439 314 441 439 313 442 436 308 439 437 313 442 436 314 441 439 315 428 430 315 428 430 312 427 429 313 442 436 303 443 440 306 444 441 311 430 428 311 430 428 316 429 431 303 443 440 310 445 443 309 446 444 317 447 445 317 447 445 322 448 442 310 445 443 322 448 442 317 447 445 318 432 434 318 432 434 321 431 433 322 448 442 305 449 446 304 450 447 320 434 432 320 434 432 319 433 435 305 449 446 307 451 438 310 452 443 322 453 442 322 453 442 314 454 439 307 451 438 314 454 439 322 453 442 321 436 433 321 436 433 315 435 430 314 454 439 304 455 447 303 456 440 316 438 431 316 438 431 320 437 432 304 455 447 299 457 422 327 458 450 330 459 455 330 459 455 324 460 449 299 457 422 330 461 455 332 462 457 326 463 427 326 463 427 324 464 449 330 461 455 299 465 422 300 466 423 353 467 451 353 467 451 327 468 450 299 465 422 302 469 424 301 470 425 329 471 453 329 471 453 328 472 452 302 469 424 325 473 426 326 474 427 332 475 457 332 475 457 331 476 456 325 473 426 301 477 425 323 478 448 354 479 454 354 479 454 329 480 453 301 477 425 323 481 448 325 482 458 331 483 459 331 483 459 354 484 454 323 481 448 334 485 461 333 486 460 336 487 463 336 487 463 335 488 462 334 485 461 338 489 465 337 490 464 340 491 467 340 491 467 339 492 466 338 489 465 335 493 462 336 494 463 337 495 464 337 495 464 338 496 465 335 493 462 342 497 469 341 498 468 344 499 471 344 499 471 343 500 470 342 497 469 341 498 468 334 485 461 335 488 462 335 488 462 344 499 471 341 498 468 345 501 472 336 487 463 333 486 460 333 486 460 346 502 473 345 501 472 348 503 475 347 504 474 350 505 477 350 505 477 349 506 476 348 503 475 347 504 474 338 489 465 339 492 466 339 492 466 350 505 477 347 504 474 351 507 478 340 491 467 337 490 464 337 490 464 352 508 479 351 507 478 343 509 470 344 510 471 347 511 474 347 511 474 348 512 475 343 509 470 344 510 471 335 493 462 338 496 465 338 496 465 347 511 474 344 510 471 352 513 479 337 495 464 336 494 463 336 494 463 345 514 472 352 513 479</p>
        </triangles>
      </mesh>
      <extra>
        <technique profile="OpenCOLLADAMaya">
          <originalMayaNodeId>sewer_wall_high_support_concaveShape</originalMayaNodeId>
          <double_sided>1</double_sided>
        </technique>
      </extra>
    </geometry>
    <geometry id="sewer_wall_high_concaveShape" name="sewer_wall_high_concaveShape">
      <mesh>
        <source id="sewer_wall_high_concaveShape-positions" name="sewer_wall_high_concaveShape-positions">
          <float_array id="sewer_wall_high_concaveShape-positions-array" count="150">0.2 2 0 0.17 3.506457 0 1.8 3.506458 -0.03 1.83 2 0 2 3.506458 0 2 2 0 0 2 0 0 3.506457 0 0.2 3.506457 -0.35 1.8 3.506458 -0.35 1.8 2 0 0.17 2 0 0.2 3.506457 -0.03 1.83 3.506458 0 1.8 2 0 0 2 2 -0.35 3.506457 2 -0.35 3.506458 0 0 2 0 -0.35 5.441719 2 -0.35 5.441719 0 0 2 0 0 3.506457 -0.35 2 3.506458 -0.35 2 2 0 0 5.441719 -0.35 2 5.441719 -0.35 -0.35 3.506458 -0.35 -0.35 5.441719 -0.35 0 2 1.8 0 3.506457 1.83 0 2 2 0 3.506457 2 0 2 1.8 -0.35 3.506457 1.8 0 2 1.83 -0.03 3.506457 1.8 5.6e-5 2 0.2 -0.349944 3.506457 0.2 -0.029944 3.506457 0.2 5.6e-5 2 0.17 5.6e-5 3.506457 0.17 5.6e-5 3.506457 0 5.6e-5 2 0 -0.35 5.441719 2 -0.35 6 2 2 5.441719 -0.35 -0.35 5.441719 -0.35 -0.35 6 -0.35 2 6 -0.35</float_array>
          <technique_common>
            <accessor source="#sewer_wall_high_concaveShape-positions-array" count="50" stride="3">
              <param name="X" type="float"/>
              <param name="Y" type="float"/>
              <param name="Z" type="float"/>
            </accessor>
          </technique_common>
        </source>
        <source id="sewer_wall_high_concaveShape-normals" name="sewer_wall_high_concaveShape-normals">
          <float_array id="sewer_wall_high_concaveShape-normals-array" count="162">0.7071066 0.01407872 0.7069666 0.9999999 0 0 0.7071238 0.008247324 0.7070416 -0.9999999 0 0 0 0 0 -0.7070941 0.0058323 0.7070956 -0.92386 0.007620243 0.3826545 -0.1873492 0.003730921 0.9822863 0 0 0.9999999 0 0 0.9999999 0 0 0.9999999 0.1873726 0.005275934 0.9822747 0.3826834 0 0.9238794 0 0 0.9999999 0 0 0.9999999 0.993493 0.1138939 0 0.9971174 0.07587389 0 0.9740564 0.2263055 0 0.9740564 0.2263055 0 0.9999999 0 0 0.9999999 0 0 0 0.1517478 0.9884192 0 0.04545019 0.9989666 0 0.2263056 0.9740564 0 0.2263055 0.9740564 0 0 0.9999999 0 0 0.9999999 0 0 0.9999999 0 0 0.9999999 0.9999999 0 0 0.9999999 0 0 0 0 -0.9999999 0 0 -0.9999999 0.7070419 0.008247319 -0.7071236 0.9998017 0.01991031 0 0.9822748 0.00527593 -0.1873725 0.9238796 0 -0.3826832 0.9999999 0 0 0.9999999 0 0 0.7070416 0.008247319 0.7071238 0 0 0.9999999 0.7069665 0.01407871 0.7071067 0.9822747 0.005275931 0.1873726 0.9999999 0 0 0.9999999 0 0 0.9238794 0 0.3826834 0.9999999 0 0 0.9999999 0 0 0.9999999 0 0 0.9999999 0 0 0 0 0.9999999 0 0 0.9999999 0 0 0.9999999 0 0 0.9999999</float_array>
          <technique_common>
            <accessor source="#sewer_wall_high_concaveShape-normals-array" count="54" stride="3">
              <param name="X" type="float"/>
              <param name="Y" type="float"/>
              <param name="Z" type="float"/>
            </accessor>
          </technique_common>
        </source>
        <source id="sewer_wall_high_concaveShape-UVSet0" name="sewer_wall_high_concaveShape-UVSet0">
          <float_array id="sewer_wall_high_concaveShape-UVSet0-array" count="108">0.050693 0.08827 0.139672 0.47004 0.860328 0.470505 0.949307 0.088735 0.956911 0.088735 0.94168 0.470505 0.043089 0.47004 0 0.47004 0 0.08827 1 0.088735 1 0.470505 0.043089 0.08827 0.05832 0.47004 0.956911 0.470505 0.949307 0.088735 0 0.4896 0.5 0.489647 0 0.086708 0.5 0.086708 0.5 1 0 1 0 0.489254 0.5 0.4896 0 0.086708 0.5 0.086708 0.5 1 0 1 -0.092433 1 -0.092433 0.488907 0.592291 0.489693 0.592291 1 0.050693 0.08827 0.139672 0.47004 0.043089 0.47004 0.050693 0.08827 0 0.47004 0 0.08827 0.043089 0.08827 0.05832 0.47004 0.050693 0.08827 0.139672 0.47004 0.05832 0.47004 0.043089 0.08827 0.043089 0.47004 0 0.47004 0 0.08827 0.495133 0.657223 0.993743 0.657223 0.497913 0.805267 0.993743 0.805267 0.495133 0.657223 0.993743 0.657223 0.993743 0.805267 0.497913 0.805267</float_array>
          <technique_common>
            <accessor source="#sewer_wall_high_concaveShape-UVSet0-array" count="54" stride="2">
              <param name="S" type="float"/>
              <param name="T" type="float"/>
            </accessor>
          </technique_common>
        </source>
        <vertices id="sewer_wall_high_concaveShape-vertices" name="sewer_wall_high_concaveShape-vertices">
          <input semantic="POSITION" source="#sewer_wall_high_concaveShape-positions"/>
        </vertices>
        <triangles material="sewer_wall_high_concaveSG" count="38">
          <input semantic="VERTEX" source="#sewer_wall_high_concaveShape-vertices" offset="0"/>
          <input semantic="NORMAL" source="#sewer_wall_high_concaveShape-normals" offset="1"/>
          <input semantic="TEXCOORD" source="#sewer_wall_high_concaveShape-UVSet0" offset="2" set="0"/>
          <p>0 0 0 8 1 1 12 2 12 9 3 2 10 4 3 14 5 14 14 5 14 2 6 5 9 3 2 13 7 13 3 8 4 5 9 9 5 9 9 4 10 10 13 7 13 11 11 11 1 12 6 7 13 7 7 13 7 6 14 8 11 11 11 12 2 12 1 12 6 11 11 11 11 11 11 0 0 0 12 2 12 14 5 14 3 8 4 13 7 13 13 7 13 2 6 5 14 5 14 17 15 16 16 16 15 15 17 17 15 17 17 18 18 18 17 15 16 16 16 15 17 15 16 20 19 19 20 19 19 19 20 20 16 16 15 23 21 22 22 22 21 21 23 23 21 23 23 24 24 24 23 21 22 22 22 21 23 21 22 26 25 25 26 25 25 25 26 26 22 22 21 22 22 21 25 26 26 28 27 27 28 27 27 27 28 28 22 22 21 20 19 19 17 15 16 27 29 29 27 29 29 28 30 30 20 19 19 33 31 31 34 32 32 36 33 38 36 33 38 29 34 34 33 31 31 35 35 37 30 36 33 32 37 35 32 37 35 31 38 36 35 35 37 36 33 38 30 36 33 35 35 37 35 35 37 29 34 34 36 33 38 39 39 41 38 40 40 37 41 39 40 42 42 43 43 45 42 44 44 42 44 44 41 45 43 40 42 42 39 39 41 37 41 39 40 42 42 40 42 42 41 45 43 39 39 41 47 46 47 48 47 49 45 48 48 45 48 48 44 49 46 47 46 47 47 50 51 46 51 50 49 52 53 49 52 53 48 53 52 47 50 51</p>
        </triangles>
      </mesh>
      <extra>
        <technique profile="OpenCOLLADAMaya">
          <originalMayaNodeId>sewer_wall_high_concaveShape</originalMayaNodeId>
          <double_sided>1</double_sided>
        </technique>
      </extra>
    </geometry>
  </library_geometries>
  <library_visual_scenes>
    <visual_scene id="VisualSceneNode" name="sewer_wall_high_concave">
      <node id="sewer_wall_high_support_concave" name="sewer_wall_high_support_concave" type="NODE">
        <translate sid="translate">0 0 0</translate>
        <rotate sid="rotateZ">0 0 1 0</rotate>
        <rotate sid="rotateY">0 1 0 0</rotate>
        <rotate sid="rotateX">1 0 0 0</rotate>
        <scale sid="scale">1 1 1</scale>
        <instance_geometry url="#sewer_wall_high_support_concaveShape">
          <bind_material>
            <technique_common>
              <instance_material symbol="sewer_wall_high_support_concaveSG" target="#Material__139">
                <bind_vertex_input semantic="TEX0" input_semantic="TEXCOORD" input_set="0"/>
                <bind_vertex_input semantic="TEX1" input_semantic="TEXCOORD" input_set="0"/>
              </instance_material>
            </technique_common>
          </bind_material>
        </instance_geometry>
        <extra>
          <technique profile="OpenCOLLADAMaya">
            <originalMayaNodeId>sewer_wall_high_support_concave</originalMayaNodeId>
          </technique>
        </extra>
      </node>
      <node id="sewer_wall_high_concave" name="sewer_wall_high_concave" type="NODE">
        <translate sid="translate">0 0 0</translate>
        <scale sid="scale">1 1 1</scale>
        <instance_geometry url="#sewer_wall_high_concaveShape">
          <bind_material>
            <technique_common>
              <instance_material symbol="sewer_wall_high_concaveSG" target="#Material__1">
                <bind_vertex_input semantic="TEX0" input_semantic="TEXCOORD" input_set="0"/>
                <bind_vertex_input semantic="TEX1" input_semantic="TEXCOORD" input_set="0"/>
              </instance_material>
            </technique_common>
          </bind_material>
        </instance_geometry>
        <extra>
          <technique profile="OpenCOLLADAMaya">
            <originalMayaNodeId>sewer_wall_high_concave</originalMayaNodeId>
          </technique>
        </extra>
      </node>
    </visual_scene>
  </library_visual_scenes>
  <scene>
    <instance_visual_scene url="#VisualSceneNode"/>
  </scene>
</COLLADA>