<?xml version="1.0" encoding="utf-8"?>
<COLLADA xmlns="http://www.collada.org/2005/11/COLLADASchema" version="1.4.1">
  <asset>
    <contributor>
      <author></author>
      <authoring_tool>FBX COLLADA exporter</authoring_tool>
      <comments></comments>
    </contributor>
    <created>2012-03-14T13:50:28Z</created>
    <keywords></keywords>
    <modified>2012-03-14T13:50:28Z</modified>
    <revision></revision>
    <subject></subject>
    <title></title>
    <unit meter="1.000000" name="centimeter"></unit>
    <up_axis>Z_UP</up_axis>
  </asset>
  <library_images>
    <image id="Map #1-image" name="Map #1">
      <init_from>file://D:\amnesia_raw\StaticObjects\sewers\wall_tunnel.psd</init_from>
    </image>
  </library_images>
  <library_materials>
    <material id="Material #1" name="Material #1">
      <instance_effect url="#Material #1-fx"/>
    </material>
  </library_materials>
  <library_effects>
    <effect id="Material #1-fx" name="Material #1">
      <profile_COMMON>
        <technique sid="standard">
          <phong>
            <emission>
              <color sid="emission">0.000000  0.000000 0.000000 1.000000</color>
            </emission>
            <ambient>
              <color sid="ambient">0.588000  0.588000 0.588000 1.000000</color>
            </ambient>
            <diffuse>
              <texture texture="Map #1-image" texcoord="CHANNEL0">
                <extra>
                  <technique profile="MAYA">
                    <wrapU sid="wrapU0">TRUE</wrapU>
                    <wrapV sid="wrapV0">TRUE</wrapV>
                    <blend_mode>ADD</blend_mode>
                  </technique>
                </extra>
              </texture>
            </diffuse>
            <specular>
              <color sid="specular">0.000000  0.000000 0.000000 1.000000</color>
            </specular>
            <shininess>
              <float sid="shininess">2.000000</float>
            </shininess>
            <reflective>
              <color sid="reflective">0.000000  0.000000 0.000000 1.000000</color>
            </reflective>
            <reflectivity>
              <float sid="reflectivity">1.000000</float>
            </reflectivity>
            <transparent opaque="RGB_ZERO">
              <color sid="transparent">1.000000  1.000000 1.000000 1.000000</color>
            </transparent>
            <transparency>
              <float sid="transparency">0.000000</float>
            </transparency>
          </phong>
        </technique>
      </profile_COMMON>
    </effect>
  </library_effects>
  <library_geometries>
    <geometry id="wall_half_height_small-lib" name="wall_half_height_smallMesh">
      <mesh>
        <source id="wall_half_height_small-POSITION">
          <float_array id="wall_half_height_small-POSITION-array" count="24">
0.175639 2.000000 3.287168
0.141012 2.000000 2.561858
0.000000 2.000000 2.000000
-0.000000 2.000000 4.000000
0.000000 0.000000 2.000000
-0.000000 0.000000 4.000000
0.175639 0.000000 3.287168
0.141012 0.000000 2.561858
</float_array>
          <technique_common>
            <accessor source="#wall_half_height_small-POSITION-array" count="8" stride="3">
              <param name="X" type="float"/>
              <param name="Y" type="float"/>
              <param name="Z" type="float"/>
            </accessor>
          </technique_common>
        </source>
        <source id="wall_half_height_small-Normal0">
          <float_array id="wall_half_height_small-Normal0-array" count="54">
-0.989244 0.000000 0.146274
-0.989244 0.000000 0.146274
-0.995305 0.000000 -0.096788
-0.995305 0.000000 -0.096788
-0.995305 0.000000 -0.096788
-0.989244 0.000000 0.146274
-0.969920 0.000000 0.243425
-0.969920 0.000000 0.243425
-0.989244 0.000000 0.146274
-0.989244 0.000000 0.146274
-0.989244 0.000000 0.146274
-0.969920 0.000000 0.243425
-0.970960 0.000000 -0.239241
-0.995305 0.000000 -0.096788
-0.995305 0.000000 -0.096788
-0.995305 0.000000 -0.096788
-0.970960 0.000000 -0.239241
-0.970960 0.000000 -0.239241
</float_array>
          <technique_common>
            <accessor source="#wall_half_height_small-Normal0-array" count="18" stride="3">
              <param name="X" type="float"/>
              <param name="Y" type="float"/>
              <param name="Z" type="float"/>
            </accessor>
          </technique_common>
        </source>
        <source id="wall_half_height_small-UV0">
          <float_array id="wall_half_height_small-UV0-array" count="16">
0.000000 0.500796
0.000000 0.323080
0.000000 0.141311
0.000000 -0.000000
0.500000 -0.000000
0.500000 0.500796
0.500000 0.323080
0.500000 0.141311
</float_array>
          <technique_common>
            <accessor source="#wall_half_height_small-UV0-array" count="8" stride="2">
              <param name="S" type="float"/>
              <param name="T" type="float"/>
            </accessor>
          </technique_common>
        </source>
        <vertices id="wall_half_height_small-VERTEX">
          <input semantic="POSITION" source="#wall_half_height_small-POSITION"/>
        </vertices>
        <triangles count="6" material="Material #1">
          <input semantic="VERTEX" offset="0" source="#wall_half_height_small-VERTEX"/>
          <input semantic="NORMAL" offset="1" source="#wall_half_height_small-Normal0"/>
          <input semantic="TEXCOORD" offset="2" set="0" source="#wall_half_height_small-UV0"/>
          <p> 1 0 2 7 1 7 6 2 6 6 3 6 0 4 1 1 5 2 2 6 3 4 7 4 7 8 7 7 9 7 1 10 2 2 11 3 3 12 0 0 13 1 6 14 6 6 15 6 5 16 5 3 17 0</p>
        </triangles>
      </mesh>
    </geometry>
  </library_geometries>
  <library_visual_scenes>
    <visual_scene id="" name="">
      <node name="wall_half_height_small" id="wall_half_height_small" layer="walls" sid="wall_half_height_small">
        <matrix sid="matrix">1.000000 0.000000 0.000000 0.000000 0.000000 1.000000 0.000000 0.000000 0.000000 0.000000 1.000000 0.000000 0.000000 0.000000 0.000000 1.000000</matrix>
        <instance_geometry url="#wall_half_height_small-lib">
          <bind_material>
            <technique_common>
              <instance_material symbol="Material #1" target="#Material #1"/>
            </technique_common>
          </bind_material>
        </instance_geometry>
        <extra>
          <technique profile="FCOLLADA">
            <visibility>1.000000</visibility>
          </technique>
        </extra>
      </node>
      <extra>
        <technique profile="MAX3D">
          <frame_rate>30.000000</frame_rate>
        </technique>
        <technique profile="FCOLLADA">
          <start_time>0.000000</start_time>
          <end_time>2.000000</end_time>
        </technique>
      </extra>
    </visual_scene>
  </library_visual_scenes>
  <scene>
    <instance_visual_scene url="#"></instance_visual_scene>
  </scene>
</COLLADA>

