<?xml version="1.0" encoding="utf-8"?>
<COLLADA xmlns="http://www.collada.org/2005/11/COLLADASchema" version="1.4.1">
  <asset><contributor><author></author><authoring_tool>FBX COLLADA exporter</authoring_tool><comments></comments></contributor><created>2018-01-23T23:49:58Z</created><keywords></keywords><modified>2018-01-23T23:49:58Z</modified><revision></revision><subject></subject><title></title><unit meter="0.010000" name="centimeter"></unit><up_axis>Y_UP</up_axis></asset>
  <library_images>
    <image id="file1-image" name="file1"><init_from>file://C:\Users\Nocturne\Documents\maya\projects\default\scenes\ether\cathedral\cathedral_default.dds</init_from></image>
  </library_images>
  <library_materials>
    <material id="blinn3" name="blinn3">
      <instance_effect url="#blinn3-fx"/>
    </material>
    <material id="blinn5" name="blinn5">
      <instance_effect url="#blinn5-fx"/>
    </material>
  </library_materials>
  <library_effects>
    <effect id="blinn3-fx" name="blinn3">
      <profile_COMMON>
        <technique sid="standard">
          <phong>
            <emission>
              <color sid="emission">0.000000  0.000000 0.000000 1.000000</color>
            </emission>
            <ambient>
              <color sid="ambient">0.000000  0.000000 0.000000 1.000000</color>
            </ambient>
            <diffuse>
              <texture texture="file1-image" texcoord="CHANNEL0">
                <extra>
                  <technique profile="MAYA">
                    <wrapU sid="wrapU0">TRUE</wrapU>
                    <wrapV sid="wrapV0">TRUE</wrapV>
                    <blend_mode>NONE</blend_mode>
                  </technique>
                </extra>
              </texture>
            </diffuse>
            <specular>
              <color sid="specular">0.500000  0.500000 0.500000 1.000000</color>
            </specular>
            <shininess>
              <float sid="shininess">2.000000</float>
            </shininess>
            <reflective>
              <color sid="reflective">0.000000  0.000000 0.000000 1.000000</color>
            </reflective>
            <reflectivity>
              <float sid="reflectivity">0.500000</float>
            </reflectivity>
            <transparent opaque="RGB_ZERO">
              <color sid="transparent">0.000000  0.000000 0.000000 1.000000</color>
            </transparent>
            <transparency>
              <float sid="transparency">1.000000</float>
            </transparency>
          </phong>
        </technique>
      </profile_COMMON>
    </effect>
    <effect id="blinn5-fx" name="blinn5">
      <profile_COMMON>
        <technique sid="standard">
          <phong>
            <emission>
              <color sid="emission">0.000000  0.000000 0.000000 1.000000</color>
            </emission>
            <ambient>
              <color sid="ambient">0.000000  0.000000 0.000000 1.000000</color>
            </ambient>
            <diffuse>
              <texture texture="file1-image" texcoord="CHANNEL0">
                <extra>
                  <technique profile="MAYA">
                    <wrapU sid="wrapU0">TRUE</wrapU>
                    <wrapV sid="wrapV0">TRUE</wrapV>
                    <blend_mode>NONE</blend_mode>
                  </technique>
                </extra>
              </texture>
            </diffuse>
            <specular>
              <color sid="specular">0.500000  0.500000 0.500000 1.000000</color>
            </specular>
            <shininess>
              <float sid="shininess">2.000000</float>
            </shininess>
            <reflective>
              <color sid="reflective">0.000000  0.000000 0.000000 1.000000</color>
            </reflective>
            <reflectivity>
              <float sid="reflectivity">0.500000</float>
            </reflectivity>
            <transparent opaque="RGB_ZERO">
              <texture texture="file1-image" texcoord="CHANNEL0">
                <extra>
                  <technique profile="MAYA">
                    <wrapU sid="wrapU0">TRUE</wrapU>
                    <wrapV sid="wrapV0">TRUE</wrapV>
                    <blend_mode>NONE</blend_mode>
                  </technique>
                </extra>
              </texture>
            </transparent>
            <transparency>
              <float sid="transparency">1.000000</float>
            </transparency>
          </phong>
        </technique>
      </profile_COMMON>
    </effect>
  </library_effects>
  <library_geometries>
    <geometry id="polySurface1-lib" name="polySurface1Mesh">
      <mesh>
        <source id="polySurface1-POSITION">
          <float_array id="polySurface1-POSITION-array" count="132">
-1.500000 0.000000 0.100000
-1.500000 0.665487 0.100000
-1.125000 1.905965 0.100000
-0.750000 2.546840 0.100000
-0.375000 3.027780 0.100000
0.000000 3.335387 0.100000
0.375000 3.027780 0.100000
0.750000 2.546840 0.100000
1.125000 1.905965 0.100000
1.500000 0.665487 0.100000
1.500000 0.000000 0.100000
1.500000 0.000000 0.100000
1.500000 0.665487 0.100000
1.125000 1.905965 0.100000
0.750000 2.546840 0.100000
0.375000 3.027780 0.100000
0.000000 3.335387 0.100000
-0.375000 3.027780 0.100000
-0.750000 2.546840 0.100000
-1.125000 1.905965 0.100000
-1.500000 0.665487 0.100000
-1.500000 0.000000 0.100000
-2.000000 0.000000 0.100000
-2.000000 4.000000 0.100000
2.000000 4.000000 0.100000
2.000000 0.000000 0.100000
1.125000 0.000000 -0.400000
0.750000 0.000000 -0.400000
1.500000 0.665487 -0.400000
1.125000 1.905965 -0.400000
1.500000 0.000000 -0.400000
0.750000 2.546840 -0.400000
0.375000 3.027780 -0.400000
0.375000 0.000000 -0.400000
0.000000 3.335387 -0.400000
0.000000 0.000000 -0.400000
-0.375000 3.027780 -0.400000
-0.375000 0.000000 -0.400000
-1.125000 1.905965 -0.400000
-1.500000 0.665487 -0.400000
-1.500000 0.000000 -0.400000
-1.125000 0.000000 -0.400000
-0.750000 2.546840 -0.400000
-0.750000 0.000000 -0.400000
</float_array>
          <technique_common>
            <accessor source="#polySurface1-POSITION-array" count="44" stride="3">
              <param name="X" type="float"/>
              <param name="Y" type="float"/>
              <param name="Z" type="float"/>
            </accessor>
          </technique_common>
        </source>
        <source id="polySurface1-Normal0">
          <float_array id="polySurface1-Normal0-array" count="441">
0.000000 0.000000 1.000000
0.000000 0.000000 1.000000
0.000000 0.000000 1.000000
0.000000 0.000000 1.000000
0.000000 0.000000 1.000000
0.000000 0.000000 1.000000
0.000000 0.000000 1.000000
0.000000 0.000000 1.000000
0.000000 0.000000 1.000000
0.000000 0.000000 1.000000
0.000000 0.000000 1.000000
0.000000 0.000000 1.000000
0.000000 0.000000 1.000000
0.000000 0.000000 1.000000
0.000000 0.000000 1.000000
0.000000 0.000000 1.000000
0.000000 0.000000 1.000000
0.000000 0.000000 1.000000
0.000000 0.000000 1.000000
0.000000 0.000000 1.000000
0.000000 0.000000 1.000000
0.000000 0.000000 1.000000
0.000000 0.000000 1.000000
0.000000 0.000000 1.000000
0.000000 0.000000 1.000000
0.000000 0.000000 1.000000
0.000000 0.000000 1.000000
0.000000 0.000000 1.000000
0.000000 0.000000 1.000000
0.000000 0.000000 1.000000
0.000000 0.000000 1.000000
0.000000 0.000000 1.000000
0.000000 0.000000 1.000000
0.000000 0.000000 1.000000
0.000000 0.000000 1.000000
0.000000 0.000000 1.000000
0.000000 0.000000 1.000000
0.000000 0.000000 1.000000
0.000000 0.000000 1.000000
0.000000 0.000000 1.000000
0.000000 0.000000 1.000000
0.000000 0.000000 1.000000
0.000000 0.000000 1.000000
0.000000 0.000000 1.000000
0.000000 0.000000 1.000000
0.000000 0.000000 1.000000
0.000000 0.000000 1.000000
0.000000 0.000000 1.000000
0.000000 0.000000 1.000000
0.000000 0.000000 1.000000
0.000000 0.000000 1.000000
0.000000 0.000000 1.000000
0.000000 0.000000 1.000000
0.000000 0.000000 1.000000
0.000000 0.000000 1.000000
0.000000 0.000000 1.000000
0.000000 0.000000 1.000000
0.000000 0.000000 1.000000
0.000000 0.000000 1.000000
0.000000 0.000000 1.000000
0.000000 0.000000 1.000000
0.000000 0.000000 1.000000
0.000000 0.000000 1.000000
0.000000 0.000000 1.000000
0.000000 0.000000 1.000000
0.000000 0.000000 1.000000
0.000000 0.000000 1.000000
0.000000 0.000000 1.000000
0.000000 0.000000 1.000000
0.000000 0.000000 1.000000
0.000000 0.000000 1.000000
0.000000 0.000000 1.000000
0.000000 0.000000 1.000000
0.000000 0.000000 1.000000
0.000000 0.000000 1.000000
0.000000 0.000000 1.000000
0.000000 0.000000 1.000000
0.000000 0.000000 1.000000
0.000000 0.000000 1.000000
0.000000 0.000000 1.000000
0.000000 0.000000 1.000000
0.000000 0.000000 1.000000
0.000000 0.000000 1.000000
0.000000 0.000000 1.000000
0.000000 0.000000 1.000000
0.000000 0.000000 1.000000
0.000000 0.000000 1.000000
0.741180 -0.671307 0.000000
0.689432 -0.724350 0.000000
0.263747 -0.964592 0.000000
0.263747 -0.964592 0.000000
0.689432 -0.724350 0.000000
-0.263747 -0.964592 0.000000
0.263747 -0.964592 0.000000
-0.263747 -0.964592 0.000000
-0.689432 -0.724350 0.000000
-0.689432 -0.724350 0.000000
-0.263747 -0.964592 0.000000
-0.741180 -0.671307 0.000000
-0.689432 -0.724350 0.000000
-0.741180 -0.671307 0.000000
-0.815036 -0.579410 0.000000
-0.815036 -0.579410 0.000000
-0.741180 -0.671307 0.000000
-0.839916 -0.542717 0.000000
-0.815036 -0.579410 0.000000
-0.839916 -0.542717 0.000000
-0.900027 -0.435834 0.000000
-0.900027 -0.435834 0.000000
-0.839916 -0.542717 0.000000
-0.931594 -0.363500 0.000000
-0.900027 -0.435834 0.000000
-0.931594 -0.363500 0.000000
-0.957218 -0.289369 0.000000
-0.957218 -0.289369 0.000000
-0.931594 -0.363500 0.000000
-0.957218 -0.289370 0.000000
-1.000000 0.000000 0.000000
-1.000000 0.000000 0.000000
-1.000000 0.000000 0.000000
-1.000000 0.000000 0.000000
-1.000000 0.000000 0.000000
-1.000000 0.000000 0.000000
1.000000 0.000000 0.000000
1.000000 0.000000 0.000000
1.000000 0.000000 0.000000
1.000000 0.000000 0.000000
1.000000 0.000000 0.000000
1.000000 0.000000 0.000000
0.957218 -0.289369 0.000000
0.957217 -0.289369 0.000000
0.931594 -0.363500 0.000000
0.931594 -0.363500 0.000000
0.957217 -0.289369 0.000000
0.900027 -0.435834 0.000000
0.931594 -0.363500 0.000000
0.900027 -0.435834 0.000000
0.839916 -0.542717 0.000000
0.839916 -0.542717 0.000000
0.900027 -0.435834 0.000000
0.815036 -0.579410 0.000000
0.839916 -0.542717 0.000000
0.815036 -0.579410 0.000000
0.741180 -0.671307 0.000000
0.741180 -0.671307 0.000000
0.815036 -0.579410 0.000000
0.689432 -0.724350 0.000000
</float_array>
          <technique_common>
            <accessor source="#polySurface1-Normal0-array" count="147" stride="3">
              <param name="X" type="float"/>
              <param name="Y" type="float"/>
              <param name="Z" type="float"/>
            </accessor>
          </technique_common>
        </source>
        <source id="polySurface1-UV0">
          <float_array id="polySurface1-UV0-array" count="118">
0.434560 0.503529
0.496480 0.503529
0.496480 0.998891
0.001118 0.998891
0.001118 0.503529
0.063039 0.503529
0.063039 0.585943
0.109479 0.739565
0.155919 0.818931
0.202359 0.878491
0.248799 0.916585
0.295239 0.878491
0.341680 0.818931
0.388120 0.739565
0.434560 0.585943
0.451642 0.115129
0.402623 0.277280
0.402623 0.028138
0.451642 0.028138
0.353604 0.361054
0.353604 0.028138
0.304585 0.423921
0.304585 0.028138
0.255566 0.464130
0.255566 0.028138
0.206547 0.423921
0.206547 0.028138
0.108509 0.277280
0.059490 0.115129
0.059490 0.028138
0.108509 0.028138
0.157528 0.361054
0.157528 0.028138
0.275169 0.790515
0.223962 0.790149
0.224546 0.737233
0.275407 0.737596
0.224784 0.684314
0.275992 0.684680
0.005976 0.795181
0.060606 0.795181
0.224888 0.629944
0.276733 0.630315
0.224714 0.572042
0.060607 0.721353
0.005977 0.721353
0.005976 0.721353
0.054776 0.721353
0.054776 0.795181
0.005976 0.795181
0.277807 0.572421
0.223753 0.503388
0.279833 0.503788
0.276198 0.994678
0.220118 0.994278
0.222146 0.902408
0.275239 0.902787
0.223220 0.844514
0.275065 0.844884
</float_array>
          <technique_common>
            <accessor source="#polySurface1-UV0-array" count="59" stride="2">
              <param name="S" type="float"/>
              <param name="T" type="float"/>
            </accessor>
          </technique_common>
        </source>
        <vertices id="polySurface1-VERTEX">
          <input semantic="POSITION" source="#polySurface1-POSITION"/>
        </vertices>
        <triangles count="49" material="blinn3"><input semantic="VERTEX" offset="0" source="#polySurface1-VERTEX"/><input semantic="NORMAL" offset="1" source="#polySurface1-Normal0"/><input semantic="TEXCOORD" offset="2" set="0" source="#polySurface1-UV0"/><p> 11 0 0 25 1 1 12 2 14 25 3 1 24 4 2 12 5 14 12 6 14 24 7 2 13 8 13 13 9 13 24 10 2 14 11 12 14 12 12 24 13 2 15 14 11 22 15 4 21 16 5 23 17 3 21 18 5 20 19 6 23 20 3 20 21 6 19 22 7 23 23 3 19 24 7 18 25 8 23 26 3 18 27 8 17 28 9 23 29 3 17 30 9 16 31 10 23 32 3 15 33 11 24 34 2 16 35 10 24 36 2 23 37 3 16 38 10 29 39 16 26 40 17 28 41 15 28 42 15 26 43 17 30 44 18 31 45 19 27 46 20 29 47 16 29 48 16 27 49 20 26 50 17 32 51 21 33 52 22 31 53 19 31 54 19 33 55 22 27 56 20 34 57 23 35 58 24 32 59 21 32 60 21 35 61 24 33 62 22 34 63 23 36 64 25 35 65 24 35 66 24 36 67 25 37 68 26 38 69 27 39 70 28 41 71 30 41 72 30 39 73 28 40 74 29 42 75 31 38 76 27 43 77 32 43 78 32 38 79 27 41 80 30 36 81 25 42 82 31 37 83 26 37 84 26 42 85 31 43 86 32 4 87 33 36 88 34 5 89 36 5 90 36 36 91 34 34 92 35 5 93 36 34 94 35 6 95 38 6 96 38 34 97 35 32 98 37 6 99 38 32 100 37 7 101 42 7 102 42 32 103 37 31 104 41 7 105 42 31 106 41 8 107 50 8 108 50 31 109 41 29 110 43 8 111 50 29 112 43 9 113 52 9 114 52 29 115 43 28 116 51 9 117 39 28 118 40 10 119 45 10 120 45 28 121 40 30 122 44 0 123 46 40 124 47 1 125 49 1 126 49 40 127 47 39 128 48 1 129 53 39 130 54 2 131 56 2 132 56 39 133 54 38 134 55 2 135 56 38 136 55 3 137 58 3 138 58 38 139 55 42 140 57 3 141 58 42 142 57 4 143 33 4 144 33 42 145 57 36 146 34</p></triangles>
      </mesh>
    </geometry>
    <geometry id="pCube2-lib" name="pCube2Mesh">
      <mesh>
        <source id="pCube2-POSITION">
          <float_array id="pCube2-POSITION-array" count="30">
-0.500000 -0.500000 0.605182
0.500000 -0.500000 0.605182
-0.500000 0.409879 0.233504
0.500000 0.409879 0.233504
-0.500000 0.500000 -1.000000
0.500000 0.500000 -1.000000
-0.500000 0.125796 0.418820
0.500000 0.125796 0.418820
-0.500000 -0.179577 0.467317
0.500000 -0.179577 0.467317
</float_array>
          <technique_common>
            <accessor source="#pCube2-POSITION-array" count="10" stride="3">
              <param name="X" type="float"/>
              <param name="Y" type="float"/>
              <param name="Z" type="float"/>
            </accessor>
          </technique_common>
        </source>
        <source id="pCube2-Normal0">
          <float_array id="pCube2-Normal0-array" count="72">
0.000000 0.395229 0.918583
0.000000 0.395229 0.918583
0.000000 0.317951 0.948107
0.000000 0.317951 0.948107
0.000000 0.395229 0.918583
0.000000 0.237940 0.971280
0.000000 0.997342 0.072867
0.000000 0.997342 0.072867
0.000000 0.997342 0.072867
0.000000 0.997342 0.072867
0.000000 0.997342 0.072867
0.000000 0.997342 0.072867
0.000000 0.292400 0.956296
0.000000 0.424828 0.905274
0.000000 0.546361 0.837550
0.000000 0.546361 0.837550
0.000000 0.424828 0.905274
0.000000 0.546361 0.837550
0.000000 0.317951 0.948107
0.000000 0.237940 0.971280
0.000000 0.292400 0.956296
0.000000 0.292400 0.956296
0.000000 0.237940 0.971280
0.000000 0.424828 0.905274
</float_array>
          <technique_common>
            <accessor source="#pCube2-Normal0-array" count="24" stride="3">
              <param name="X" type="float"/>
              <param name="Y" type="float"/>
              <param name="Z" type="float"/>
            </accessor>
          </technique_common>
        </source>
        <source id="pCube2-UV0">
          <float_array id="pCube2-UV0-array" count="28">
0.499573 0.999424
0.499573 0.444023
0.578045 0.996915
0.578045 0.444676
0.763227 0.001054
0.763227 0.998946
0.553957 0.996915
0.553957 0.444676
0.536298 0.996915
0.536298 0.444676
0.534085 0.444023
0.534085 0.999424
0.609201 1.000000
0.609201 0.000000
</float_array>
          <technique_common>
            <accessor source="#pCube2-UV0-array" count="14" stride="2">
              <param name="S" type="float"/>
              <param name="T" type="float"/>
            </accessor>
          </technique_common>
        </source>
        <vertices id="pCube2-VERTEX">
          <input semantic="POSITION" source="#pCube2-POSITION"/>
        </vertices>
        <triangles count="8" material="blinn3"><input semantic="VERTEX" offset="0" source="#pCube2-VERTEX"/><input semantic="NORMAL" offset="1" source="#pCube2-Normal0"/><input semantic="TEXCOORD" offset="2" set="0" source="#pCube2-UV0"/><p> 0 0 0 1 1 1 8 2 11 8 3 11 1 4 1 9 5 10 2 6 4 3 7 5 4 8 13 4 9 13 3 10 5 5 11 12 6 12 6 7 13 7 2 14 2 2 15 2 7 16 7 3 17 3 8 18 8 9 19 9 6 20 6 6 21 6 9 22 9 7 23 7</p></triangles>
      </mesh>
    </geometry>
    <geometry id="polySurface2-lib" name="polySurface2Mesh">
      <mesh>
        <source id="polySurface2-POSITION">
          <float_array id="polySurface2-POSITION-array" count="111">
-1.500000 0.000000 0.100000
-1.500000 4.000000 0.100000
1.500000 4.000000 0.100000
1.500000 0.000000 0.100000
1.500000 0.000000 0.100000
1.500000 4.000000 0.100000
1.125000 4.000000 0.100000
0.750000 4.000000 0.100000
0.375000 4.000000 0.100000
0.000000 4.000000 0.100000
-0.375000 4.000000 0.100000
-0.750000 4.000000 0.100000
-1.125000 4.000000 0.100000
-1.500000 4.000000 0.100000
-1.500000 0.000000 0.100000
-2.000000 0.000000 0.100000
-2.000000 4.000000 0.100000
2.000000 4.000000 0.100000
2.000000 0.000000 0.100000
1.125000 0.000000 -0.400000
0.750000 0.000000 -0.400000
1.500000 4.000000 -0.400000
1.125000 4.000000 -0.400000
1.500000 0.000000 -0.400000
0.750000 4.000000 -0.400000
0.375000 4.000000 -0.400000
0.375000 0.000000 -0.400000
0.000000 4.000000 -0.400000
0.000000 0.000000 -0.400000
-0.375000 4.000000 -0.400000
-0.375000 0.000000 -0.400000
-1.125000 4.000000 -0.400000
-1.500000 4.000000 -0.400000
-1.500000 0.000000 -0.400000
-1.125000 0.000000 -0.400000
-0.750000 4.000000 -0.400000
-0.750000 0.000000 -0.400000
</float_array>
          <technique_common>
            <accessor source="#polySurface2-POSITION-array" count="37" stride="3">
              <param name="X" type="float"/>
              <param name="Y" type="float"/>
              <param name="Z" type="float"/>
            </accessor>
          </technique_common>
        </source>
        <source id="polySurface2-Normal0">
          <float_array id="polySurface2-Normal0-array" count="297">
0.000000 0.000000 1.000000
0.000000 0.000000 1.000000
0.000000 0.000000 1.000000
0.000000 0.000000 1.000000
0.000000 0.000000 1.000000
0.000000 0.000000 1.000000
0.000000 0.000000 1.000000
0.000000 0.000000 1.000000
0.000000 0.000000 1.000000
0.000000 0.000000 1.000000
0.000000 0.000000 1.000000
0.000000 0.000000 1.000000
0.000000 0.000000 0.000000
0.000000 0.000000 0.000000
0.000000 0.000000 0.000000
0.000000 0.000000 0.000000
0.000000 0.000000 0.000000
0.000000 0.000000 0.000000
0.000000 0.000000 0.000000
0.000000 0.000000 0.000000
0.000000 0.000000 0.000000
0.000000 0.000000 0.000000
0.000000 0.000000 0.000000
0.000000 0.000000 0.000000
0.000000 0.000000 0.000000
0.000000 0.000000 0.000000
0.000000 0.000000 0.000000
0.000000 0.000000 0.000000
0.000000 0.000000 0.000000
0.000000 0.000000 0.000000
0.000000 0.000000 0.000000
0.000000 0.000000 0.000000
0.000000 0.000000 0.000000
0.000000 0.000000 0.000000
0.000000 0.000000 0.000000
0.000000 0.000000 0.000000
0.000000 0.000000 0.000000
0.000000 0.000000 0.000000
0.000000 0.000000 0.000000
0.000000 0.000000 1.000000
0.000000 0.000000 1.000000
0.000000 0.000000 1.000000
0.000000 0.000000 1.000000
0.000000 0.000000 1.000000
0.000000 0.000000 1.000000
0.000000 0.000000 1.000000
0.000000 0.000000 1.000000
0.000000 0.000000 1.000000
0.000000 0.000000 1.000000
0.000000 0.000000 1.000000
0.000000 0.000000 1.000000
0.000000 0.000000 1.000000
0.000000 0.000000 1.000000
0.000000 0.000000 1.000000
0.000000 0.000000 1.000000
0.000000 0.000000 1.000000
0.000000 0.000000 1.000000
0.000000 0.000000 1.000000
0.000000 0.000000 1.000000
0.000000 0.000000 1.000000
0.000000 0.000000 1.000000
0.000000 0.000000 1.000000
0.000000 0.000000 1.000000
0.000000 0.000000 1.000000
0.000000 0.000000 1.000000
0.000000 0.000000 1.000000
0.000000 0.000000 1.000000
0.000000 0.000000 1.000000
0.000000 0.000000 1.000000
0.000000 0.000000 1.000000
0.000000 0.000000 1.000000
0.000000 0.000000 1.000000
0.000000 0.000000 1.000000
0.000000 0.000000 1.000000
0.000000 0.000000 1.000000
0.000000 0.000000 1.000000
0.000000 0.000000 1.000000
0.000000 0.000000 1.000000
0.000000 0.000000 1.000000
0.000000 0.000000 1.000000
0.000000 0.000000 1.000000
0.000000 0.000000 1.000000
0.000000 0.000000 1.000000
0.000000 0.000000 1.000000
0.000000 0.000000 1.000000
0.000000 0.000000 1.000000
0.000000 0.000000 1.000000
-1.000000 0.000000 0.000000
-1.000000 0.000000 0.000000
-1.000000 0.000000 0.000000
-1.000000 0.000000 0.000000
-1.000000 0.000000 0.000000
-1.000000 0.000000 0.000000
1.000000 0.000000 0.000000
1.000000 0.000000 0.000000
1.000000 0.000000 0.000000
1.000000 0.000000 0.000000
1.000000 0.000000 0.000000
1.000000 0.000000 0.000000
</float_array>
          <technique_common>
            <accessor source="#polySurface2-Normal0-array" count="99" stride="3">
              <param name="X" type="float"/>
              <param name="Y" type="float"/>
              <param name="Z" type="float"/>
            </accessor>
          </technique_common>
        </source>
        <source id="polySurface2-UV0">
          <float_array id="polySurface2-UV0-array" count="82">
0.434030 0.503812
0.495512 0.503812
0.495512 0.995673
0.003651 0.995673
0.003651 0.503812
0.065134 0.503812
0.065134 0.995673
0.111246 0.995673
0.157358 0.995673
0.203470 0.995673
0.249582 0.995673
0.295694 0.995673
0.341806 0.995673
0.387918 0.995673
0.434030 0.995673
0.427639 0.475517
0.383223 0.475517
0.383223 0.008362
0.427639 0.008362
0.338807 0.475517
0.338807 0.008362
0.294392 0.475517
0.294392 0.008362
0.249976 0.475517
0.249976 0.008362
0.205560 0.475517
0.205560 0.008362
0.116729 0.475517
0.072313 0.475517
0.072313 0.008362
0.116729 0.008362
0.161144 0.475517
0.161144 0.008362
0.005976 0.999494
0.060606 0.999495
0.060607 0.511495
0.005977 0.511495
0.005976 0.511495
0.054776 0.511495
0.054776 0.999495
0.005976 0.999495
</float_array>
          <technique_common>
            <accessor source="#polySurface2-UV0-array" count="41" stride="2">
              <param name="S" type="float"/>
              <param name="T" type="float"/>
            </accessor>
          </technique_common>
        </source>
        <vertices id="polySurface2-VERTEX">
          <input semantic="POSITION" source="#polySurface2-POSITION"/>
        </vertices>
        <triangles count="33" material="blinn3"><input semantic="VERTEX" offset="0" source="#polySurface2-VERTEX"/><input semantic="NORMAL" offset="1" source="#polySurface2-Normal0"/><input semantic="TEXCOORD" offset="2" set="0" source="#polySurface2-UV0"/><p> 4 0 0 18 1 1 5 2 14 18 3 1 17 4 2 5 5 14 15 6 4 14 7 5 16 8 3 14 9 5 13 10 6 16 11 3 16 12 3 13 13 6 17 14 2 17 15 2 13 16 6 5 17 14 13 18 6 12 19 7 5 20 14 12 21 7 11 22 8 5 23 14 11 24 8 10 25 9 5 26 14 10 27 9 9 28 10 5 29 14 9 30 10 8 31 11 5 32 14 8 33 11 7 34 12 5 35 14 7 36 12 6 37 13 5 38 14 21 39 15 22 40 16 23 41 18 23 42 18 22 43 16 19 44 17 22 45 16 24 46 19 19 47 17 19 48 17 24 49 19 20 50 20 24 51 19 25 52 21 20 53 20 20 54 20 25 55 21 26 56 22 25 57 21 27 58 23 26 59 22 26 60 22 27 61 23 28 62 24 27 63 23 29 64 25 28 65 24 28 66 24 29 67 25 30 68 26 31 69 27 32 70 28 34 71 30 34 72 30 32 73 28 33 74 29 35 75 31 31 76 27 36 77 32 36 78 32 31 79 27 34 80 30 29 81 25 35 82 31 30 83 26 30 84 26 35 85 31 36 86 32 2 87 33 21 88 34 3 89 36 3 90 36 21 91 34 23 92 35 0 93 37 33 94 38 1 95 40 1 96 40 33 97 38 32 98 39</p></triangles>
      </mesh>
    </geometry>
    <geometry id="pCylinder1-lib" name="pCylinder1Mesh">
      <mesh>
        <source id="pCylinder1-POSITION">
          <float_array id="pCylinder1-POSITION-array" count="111">
0.632656 -0.972992 -0.866025
-0.367348 -0.972992 -0.866026
-0.867346 -0.972992 0.000000
-0.367348 -0.972992 0.866025
0.632656 -0.972992 0.866025
1.132651 -0.972992 0.000000
0.632656 -0.416134 -0.866025
-0.367348 -0.416134 -0.866026
-0.867346 -0.416134 0.000000
-0.367348 -0.416134 0.866025
0.632656 -0.416134 0.866025
1.132651 -0.416134 0.000000
5.919085 -0.263910 -0.866025
4.996152 -0.260300 -0.866026
4.534692 -0.258496 0.000000
4.996152 -0.260300 0.866025
5.919085 -0.263910 0.866025
6.380541 -0.265714 0.000000
11.174990 -0.181190 -0.866025
10.350720 -0.175882 -0.866026
9.938585 -0.173228 0.000000
10.350720 -0.175882 0.866025
11.174990 -0.181190 0.866025
11.587120 -0.183844 0.000000
15.497690 -0.125132 -0.866025
14.768960 -0.118712 -0.866026
14.404590 -0.115502 0.000000
14.768960 -0.118712 0.866025
15.497690 -0.125132 0.866025
15.862060 -0.128342 0.000000
19.990860 -0.089089 -0.866025
20.009140 -0.079715 -0.866026
20.018299 -0.075029 0.000000
20.009140 -0.079715 0.866025
19.990860 -0.089089 0.866025
19.981701 -0.093776 0.000000
20.000000 -0.084402 0.000000
</float_array>
          <technique_common>
            <accessor source="#pCylinder1-POSITION-array" count="37" stride="3">
              <param name="X" type="float"/>
              <param name="Y" type="float"/>
              <param name="Z" type="float"/>
            </accessor>
          </technique_common>
        </source>
        <source id="pCylinder1-Normal0">
          <float_array id="pCylinder1-Normal0-array" count="111">
0.654656 0.000000 -0.755927
-0.327327 0.000000 -0.944911
-0.981981 0.000000 -0.188981
-0.654655 0.000000 0.755928
0.327328 0.000000 0.944911
0.981981 0.000000 0.188981
0.189915 -0.212137 -0.958609
-0.441966 0.493457 -0.749110
-0.790165 0.594575 0.148728
-0.221940 0.479996 0.848732
0.391465 -0.222195 0.892964
0.558541 -0.823065 -0.102940
0.017119 -0.701650 -0.712316
-0.014187 0.702376 -0.711665
-0.024663 0.999696 0.000000
-0.014187 0.702390 0.711651
0.017118 -0.701634 0.712332
0.020037 -0.999799 0.000000
0.010419 -0.703476 -0.710643
-0.009764 0.703602 -0.710528
-0.014822 0.999890 0.000000
-0.009764 0.703621 0.710508
0.010418 -0.703455 0.710663
0.013891 -0.999904 0.000000
0.007973 -0.704080 -0.710076
-0.006480 0.704546 -0.709629
-0.011024 0.999939 0.000000
-0.006480 0.704570 0.709605
0.007973 -0.704051 0.710105
0.009798 -0.999952 0.000000
0.230878 -0.939855 -0.251730
0.387583 -0.334214 -0.859116
0.369508 0.929228 0.000000
0.387593 -0.334145 0.859139
0.230884 -0.939852 0.251736
0.238629 -0.971111 0.000000
0.456049 -0.889955 0.000000
</float_array>
          <technique_common>
            <accessor source="#pCylinder1-Normal0-array" count="37" stride="3">
              <param name="X" type="float"/>
              <param name="Y" type="float"/>
              <param name="Z" type="float"/>
            </accessor>
          </technique_common>
        </source>
        <source id="pCylinder1-UV0">
          <float_array id="pCylinder1-UV0-array" count="154">
0.779131 -0.021605
0.779131 1.021605
0.887156 1.021605
0.800736 -0.021605
0.800736 1.021605
0.822341 -0.021605
0.865144 0.281250
0.703107 0.281250
0.703107 0.718750
0.865144 0.718750
0.735515 0.281250
0.735515 0.718750
0.767922 0.281250
0.832158 0.357856
0.752586 0.357856
0.752586 0.642144
0.832158 0.642144
0.768501 0.357856
0.768501 0.642144
0.784415 0.357856
0.824461 0.417181
0.754307 0.417181
0.754307 0.582818
0.824461 0.582818
0.768337 0.417181
0.768337 0.582818
0.782368 0.417181
0.847799 0.390624
0.748777 0.390624
0.748777 0.609374
0.847799 0.609374
0.768581 0.390624
0.768581 0.609374
0.788386 0.390624
0.788386 0.609374
0.808190 0.390624
0.808190 0.609374
0.827995 0.390624
0.827995 0.609374
0.838492 0.582818
0.838492 0.417181
0.578125 0.708434
0.421875 0.708434
0.343750 0.843750
0.421875 0.979066
0.578125 0.979066
0.656250 0.843750
0.500000 0.837500
0.822341 1.021605
0.843946 -0.021605
0.843946 1.021605
0.865551 -0.021605
0.865551 1.021605
0.887156 -0.021605
0.908761 -0.021605
0.908761 1.021605
0.767922 0.718750
0.800329 0.281250
0.800329 0.718750
0.832737 0.281250
0.832737 0.718750
0.897552 0.281250
0.897552 0.718750
0.784415 0.642144
0.800329 0.357856
0.800329 0.642144
0.816244 0.357856
0.816244 0.642144
0.848073 0.357856
0.848073 0.642144
0.782368 0.582818
0.796399 0.417181
0.796399 0.582818
0.810430 0.417181
0.810430 0.582818
0.867604 0.390624
0.867604 0.609374
</float_array>
          <technique_common>
            <accessor source="#pCylinder1-UV0-array" count="77" stride="2">
              <param name="S" type="float"/>
              <param name="T" type="float"/>
            </accessor>
          </technique_common>
        </source>
        <vertices id="pCylinder1-VERTEX">
          <input semantic="POSITION" source="#pCylinder1-POSITION"/>
          <input semantic="NORMAL" source="#pCylinder1-Normal0"/>
        </vertices>
        <triangles count="66" material="blinn5"><input semantic="VERTEX" offset="0" source="#pCylinder1-VERTEX"/><input semantic="TEXCOORD" offset="1" set="0" source="#pCylinder1-UV0"/><p> 0 53 1 54 6 2 6 2 1 54 7 55 1 0 2 3 7 1 7 1 2 3 8 4 2 3 3 5 8 4 8 4 3 5 9 48 3 5 4 49 9 48 9 48 4 49 10 50 4 49 5 51 10 50 10 50 5 51 11 52 5 51 0 53 11 52 11 52 0 53 6 2 7 61 13 62 6 6 6 6 13 62 12 9 8 10 14 11 7 7 7 7 14 11 13 8 8 10 9 12 14 11 14 11 9 12 15 56 9 12 10 57 15 56 15 56 10 57 16 58 10 57 11 59 16 58 16 58 11 59 17 60 6 6 12 9 11 59 11 59 12 9 17 60 13 68 19 69 12 13 12 13 19 69 18 16 14 17 20 18 13 14 13 14 20 18 19 15 14 17 15 19 20 18 20 18 15 19 21 63 15 19 16 64 21 63 21 63 16 64 22 65 16 64 17 66 22 65 22 65 17 66 23 67 12 13 18 16 17 66 17 66 18 16 23 67 19 40 25 39 18 20 18 20 25 39 24 23 20 24 26 25 19 21 19 21 26 25 25 22 20 24 21 26 26 25 26 25 21 26 27 70 21 26 22 71 27 70 27 70 22 71 28 72 22 71 23 73 28 72 28 72 23 73 29 74 18 20 24 23 23 73 23 73 24 23 29 74 25 75 31 76 24 27 24 27 31 76 30 30 26 31 32 32 25 28 25 28 32 32 31 29 26 31 27 33 32 32 32 32 27 33 33 34 27 33 28 35 33 34 33 34 28 35 34 36 28 35 29 37 34 36 34 36 29 37 35 38 24 27 30 30 29 37 29 37 30 30 35 38 30 45 31 44 36 47 31 44 32 43 36 47 32 43 33 42 36 47 33 42 34 41 36 47 34 41 35 46 36 47 35 46 30 45 36 47</p></triangles>
      </mesh>
    </geometry>
    <geometry id="pCylinder2-lib" name="pCylinder2Mesh">
      <mesh>
        <source id="pCylinder2-POSITION">
          <float_array id="pCylinder2-POSITION-array" count="114">
0.632656 -0.972813 -0.866025
-0.367348 -0.972813 -0.866026
-0.867346 -0.972813 0.000000
-0.367348 -0.972813 0.866025
0.632656 -0.972813 0.866025
1.132651 -0.972813 0.000000
0.632656 -0.416134 -0.866025
-0.367348 -0.416134 -0.866026
-0.867346 -0.416134 0.000000
-0.367348 -0.416134 0.866025
0.632656 -0.416134 0.866025
1.132651 -0.416134 0.000000
5.919085 -0.263910 -0.866025
4.996152 -0.260300 -0.866026
4.534692 -0.258496 0.000000
4.996152 -0.260300 0.866025
5.919085 -0.263910 0.866025
6.380541 -0.265714 0.000000
11.174990 -0.181190 -0.866025
10.350720 -0.175882 -0.866026
9.938585 -0.173228 0.000000
10.350720 -0.175882 0.866025
11.174990 -0.181190 0.866025
11.587120 -0.183844 0.000000
15.497690 -0.125132 -0.866025
14.768960 -0.118712 -0.866026
14.404590 -0.115502 0.000000
14.768960 -0.118712 0.866025
15.497690 -0.125132 0.866025
15.862060 -0.128342 0.000000
19.990820 -0.089107 -0.869310
20.009180 -0.079698 -0.869311
20.018360 -0.074993 0.000000
20.009180 -0.079698 0.869310
19.990820 -0.089107 0.869310
19.981640 -0.093811 0.000000
0.132654 -0.972813 0.000000
20.000000 -0.084402 0.000000
</float_array>
          <technique_common>
            <accessor source="#pCylinder2-POSITION-array" count="38" stride="3">
              <param name="X" type="float"/>
              <param name="Y" type="float"/>
              <param name="Z" type="float"/>
            </accessor>
          </technique_common>
        </source>
        <source id="pCylinder2-Normal0">
          <float_array id="pCylinder2-Normal0-array" count="114">
0.612375 -0.353554 -0.707105
-0.327327 0.000000 -0.944911
-0.981981 0.000000 -0.188981
-0.654655 0.000000 0.755928
0.327328 0.000000 0.944911
0.918559 -0.353553 0.176775
0.189915 -0.212137 -0.958609
-0.441966 0.493457 -0.749110
-0.790165 0.594575 0.148728
-0.221940 0.479996 0.848732
0.391465 -0.222195 0.892964
0.558541 -0.823065 -0.102940
0.017119 -0.701650 -0.712316
-0.014187 0.702376 -0.711665
-0.024663 0.999696 0.000000
-0.014187 0.702390 0.711651
0.017118 -0.701634 0.712332
0.020037 -0.999799 0.000000
0.010419 -0.703476 -0.710643
-0.009764 0.703602 -0.710528
-0.014822 0.999890 0.000000
-0.009764 0.703621 0.710508
0.010418 -0.703455 0.710663
0.013891 -0.999904 0.000000
0.007671 -0.708518 -0.705651
-0.006605 0.700032 -0.714081
-0.011026 0.999939 0.000000
-0.006605 0.700055 0.714058
0.007671 -0.708489 0.705680
0.009792 -0.999952 0.000000
0.230803 -0.939848 -0.251827
0.385242 -0.348348 -0.854542
0.369576 0.929201 0.000000
0.385251 -0.348279 0.854566
0.230808 -0.939845 0.251833
0.238699 -0.971094 0.000000
0.000000 -1.000000 0.000000
0.456126 -0.889915 0.000000
</float_array>
          <technique_common>
            <accessor source="#pCylinder2-Normal0-array" count="38" stride="3">
              <param name="X" type="float"/>
              <param name="Y" type="float"/>
              <param name="Z" type="float"/>
            </accessor>
          </technique_common>
        </source>
        <source id="pCylinder2-UV0">
          <float_array id="pCylinder2-UV0-array" count="160">
0.578125 0.020934
0.656250 0.156250
0.779131 -0.021605
0.779131 1.021605
0.887156 1.021605
0.800736 -0.021605
0.800736 1.021605
0.822341 -0.021605
0.865144 0.281250
0.703107 0.281250
0.703107 0.718750
0.865144 0.718750
0.735515 0.281250
0.735515 0.718750
0.767922 0.281250
0.832158 0.357856
0.752586 0.357856
0.752586 0.642144
0.832158 0.642144
0.768501 0.357856
0.768501 0.642144
0.784415 0.357856
0.824461 0.417181
0.754307 0.417181
0.754307 0.582818
0.824461 0.582818
0.768337 0.417181
0.768337 0.582818
0.782368 0.417181
0.847799 0.390624
0.748777 0.390624
0.748777 0.609374
0.847799 0.609374
0.768581 0.390624
0.768581 0.609374
0.788386 0.390624
0.788386 0.609374
0.808190 0.390624
0.808190 0.609374
0.827995 0.390624
0.827995 0.609374
0.838492 0.582818
0.838492 0.417181
0.578125 0.708434
0.421875 0.708434
0.343750 0.843750
0.421875 0.979066
0.578125 0.979066
0.656250 0.843750
0.500000 0.150000
0.500000 0.837500
0.822341 1.021605
0.843946 -0.021605
0.843946 1.021605
0.865551 -0.021605
0.865551 1.021605
0.887156 -0.021605
0.908761 -0.021605
0.908761 1.021605
0.767922 0.718750
0.800329 0.281250
0.800329 0.718750
0.832737 0.281250
0.832737 0.718750
0.897552 0.281250
0.897552 0.718750
0.784415 0.642144
0.800329 0.357856
0.800329 0.642144
0.816244 0.357856
0.816244 0.642144
0.848073 0.357856
0.848073 0.642144
0.782368 0.582818
0.796399 0.417181
0.796399 0.582818
0.810430 0.417181
0.810430 0.582818
0.867604 0.390624
0.867604 0.609374
</float_array>
          <technique_common>
            <accessor source="#pCylinder2-UV0-array" count="80" stride="2">
              <param name="S" type="float"/>
              <param name="T" type="float"/>
            </accessor>
          </technique_common>
        </source>
        <vertices id="pCylinder2-VERTEX">
          <input semantic="POSITION" source="#pCylinder2-POSITION"/>
          <input semantic="NORMAL" source="#pCylinder2-Normal0"/>
        </vertices>
        <triangles count="67" material="blinn5"><input semantic="VERTEX" offset="0" source="#pCylinder2-VERTEX"/><input semantic="TEXCOORD" offset="1" set="0" source="#pCylinder2-UV0"/><p> 0 56 1 57 6 4 6 4 1 57 7 58 1 2 2 5 7 3 7 3 2 5 8 6 2 5 3 7 8 6 8 6 3 7 9 51 3 7 4 52 9 51 9 51 4 52 10 53 4 52 5 54 10 53 10 53 5 54 11 55 5 54 0 56 11 55 11 55 0 56 6 4 7 64 13 65 6 8 6 8 13 65 12 11 8 12 14 13 7 9 7 9 14 13 13 10 8 12 9 14 14 13 14 13 9 14 15 59 9 14 10 60 15 59 15 59 10 60 16 61 10 60 11 62 16 61 16 61 11 62 17 63 6 8 12 11 11 62 11 62 12 11 17 63 13 71 19 72 12 15 12 15 19 72 18 18 14 19 20 20 13 16 13 16 20 20 19 17 14 19 15 21 20 20 20 20 15 21 21 66 15 21 16 67 21 66 21 66 16 67 22 68 16 67 17 69 22 68 22 68 17 69 23 70 12 15 18 18 17 69 17 69 18 18 23 70 19 42 25 41 18 22 18 22 25 41 24 25 20 26 26 27 19 23 19 23 26 27 25 24 20 26 21 28 26 27 26 27 21 28 27 73 21 28 22 74 27 73 27 73 22 74 28 75 22 74 23 76 28 75 28 75 23 76 29 77 18 22 24 25 23 76 23 76 24 25 29 77 25 78 31 79 24 29 24 29 31 79 30 32 26 33 32 34 25 30 25 30 32 34 31 31 26 33 27 35 32 34 32 34 27 35 33 36 27 35 28 37 33 36 33 36 28 37 34 38 28 37 29 39 34 38 34 38 29 39 35 40 24 29 30 32 29 39 29 39 30 32 35 40 0 0 5 1 36 49 30 47 31 46 37 50 31 46 32 45 37 50 32 45 33 44 37 50 33 44 34 43 37 50 34 43 35 48 37 50 35 48 30 47 37 50</p></triangles>
      </mesh>
    </geometry>
  </library_geometries>
  <library_visual_scenes>
    <visual_scene id="cathedral_default_arch_big" name="cathedral_default_arch_big">
      <node name="pPlane1" id="pPlane1" sid="pPlane1"><matrix sid="matrix">400.000000 0.000000 0.000000 0.000000 0.000000 0.000000 -400.000000 200.000000 0.000000 100.000000 0.000000 0.000000 0.000000 0.000000 0.000000 1.000000</matrix><extra><technique profile="FCOLLADA"><visibility>1.000000</visibility></technique></extra></node>
      <node name="pCube1" id="pCube1" sid="pCube1"><matrix sid="matrix">300.000000 0.000000 0.000000 0.000000 0.000000 300.000000 0.000000 150.000000 0.000000 0.000000 100.000000 0.000000 0.000000 0.000000 0.000000 1.000000</matrix><extra><technique profile="FCOLLADA"><visibility>1.000000</visibility></technique></extra></node>
      <node name="polySurface1" id="polySurface1" sid="polySurface1"><matrix sid="matrix">100.000000 0.000000 0.000000 0.000000 0.000000 100.000000 0.000000 400.000000 0.000000 0.000000 100.000000 40.000000 0.000000 0.000000 0.000000 1.000000</matrix><instance_geometry url="#polySurface1-lib"><bind_material><technique_common><instance_material symbol="blinn3" target="#blinn3"/></technique_common></bind_material></instance_geometry><extra><technique profile="FCOLLADA"><visibility>1.000000</visibility></technique></extra></node>
      <node name="pCube2" id="pCube2" sid="pCube2"><matrix sid="matrix">400.000000 0.000000 0.000000 0.000000 0.000000 25.000000 0.000000 12.500000 0.000000 0.000000 50.000000 50.000000 0.000000 0.000000 0.000000 1.000000</matrix><instance_geometry url="#pCube2-lib"><bind_material><technique_common><instance_material symbol="blinn3" target="#blinn3"/></technique_common></bind_material></instance_geometry><extra><technique profile="FCOLLADA"><visibility>1.000000</visibility></technique></extra></node>
      <node name="polySurface2" id="polySurface2" sid="polySurface2"><matrix sid="matrix">100.000000 0.000000 0.000000 0.000000 0.000000 100.000000 0.000000 0.000000 0.000000 0.000000 100.000000 40.000000 0.000000 0.000000 0.000000 1.000000</matrix><instance_geometry url="#polySurface2-lib"><bind_material><technique_common><instance_material symbol="blinn3" target="#blinn3"/></technique_common></bind_material></instance_geometry><extra><technique profile="FCOLLADA"><visibility>1.000000</visibility></technique></extra></node>
      <node name="pCylinder1" id="pCylinder1" sid="pCylinder1"><matrix sid="matrix">7.500000 0.000000 0.000000 -150.000000 0.000000 800.000000 0.000000 800.000000 0.000000 0.000000 7.500000 53.641830 0.000000 0.000000 0.000000 1.000000</matrix><instance_geometry url="#pCylinder1-lib"><bind_material><technique_common><instance_material symbol="blinn5" target="#blinn5"/></technique_common></bind_material></instance_geometry><extra><technique profile="FCOLLADA"><visibility>1.000000</visibility></technique></extra></node>
      <node name="pCylinder2" id="pCylinder2" sid="pCylinder2"><matrix sid="matrix">-7.500000 0.000000 0.000000 150.000000 0.000000 800.000000 0.000000 800.000000 -0.000000 0.000000 -7.500000 53.641830 0.000000 0.000000 0.000000 1.000000</matrix><instance_geometry url="#pCylinder2-lib"><bind_material><technique_common><instance_material symbol="blinn5" target="#blinn5"/></technique_common></bind_material></instance_geometry><extra><technique profile="FCOLLADA"><visibility>1.000000</visibility></technique></extra></node>
      <extra><technique profile="MAX3D"><frame_rate>30.000000</frame_rate></technique><technique profile="FCOLLADA"><start_time>0.000000</start_time><end_time>1.000000</end_time></technique></extra>
    </visual_scene>
  </library_visual_scenes>
  <scene>
    <instance_visual_scene url="#cathedral_default_arch_big"></instance_visual_scene>
  </scene>
</COLLADA>
