<?xml version="1.0" encoding="utf-8"?>
<COLLADA xmlns="http://www.collada.org/2005/11/COLLADASchema" version="1.4.1">
  <asset>
    <contributor>
      <author></author>
      <authoring_tool>FBX COLLADA exporter</authoring_tool>
      <comments></comments>
    </contributor>
    <created>2012-06-07T21:00:57Z</created>
    <keywords></keywords>
    <modified>2012-06-07T21:00:57Z</modified>
    <revision></revision>
    <subject></subject>
    <title></title>
    <unit meter="1.000000" name="centimeter"></unit>
    <up_axis>Y_UP</up_axis>
  </asset>
  <library_images>
    <image id="temple_altar_01_Core1_tesla_structure_pillar_core_02_tesla_structure_interior_01_tesla_structure_platform_01_file1-image" name="temple_altar_01_Core1_tesla_structure_pillar_core_02_tesla_structure_interior_01_tesla_structure_platform_01_file1">
      <init_from>file://C:/Users/sindre/Desktop/Sindre/Amnesia - Freelance/Amnesia - Source/StaticObjects/teslabase/tesla_structure_pillar_core_01.tga</init_from>
    </image>
  </library_images>
  <library_materials>
    <material id="temple_altar_01_Core1_tesla_structure_pillar_core_02_tesla_structure_interior_01_tesla_structure_platform_01_tesla_structure_pillar_drum_01" name="temple_altar_01_Core1_tesla_structure_pillar_core_02_tesla_structure_interior_01_tesla_structure_platform_01_tesla_structure_pillar_drum_01">
      <instance_effect url="#temple_altar_01_Core1_tesla_structure_pillar_core_02_tesla_structure_interior_01_tesla_structure_platform_01_tesla_structure_pillar_drum_01-fx"/>
    </material>
  </library_materials>
  <library_effects>
    <effect id="temple_altar_01_Core1_tesla_structure_pillar_core_02_tesla_structure_interior_01_tesla_structure_platform_01_tesla_structure_pillar_drum_01-fx" name="temple_altar_01_Core1_tesla_structure_pillar_core_02_tesla_structure_interior_01_tesla_structure_platform_01_tesla_structure_pillar_drum_01">
      <profile_COMMON>
        <technique sid="standard">
          <lambert>
            <emission>
              <color sid="emission">0.000000  0.000000 0.000000 1.000000</color>
            </emission>
            <ambient>
              <color sid="ambient">0.000000  0.000000 0.000000 1.000000</color>
            </ambient>
            <diffuse>
              <texture texture="temple_altar_01_Core1_tesla_structure_pillar_core_02_tesla_structure_interior_01_tesla_structure_platform_01_file1-image" texcoord="CHANNEL0">
                <extra>
                  <technique profile="MAYA">
                    <wrapU sid="wrapU0">TRUE</wrapU>
                    <wrapV sid="wrapV0">TRUE</wrapV>
                    <blend_mode>NONE</blend_mode>
                  </technique>
                </extra>
              </texture>
            </diffuse>
            <transparent opaque="RGB_ZERO">
              <color sid="transparent">0.000000  0.000000 0.000000 1.000000</color>
            </transparent>
            <transparency>
              <float sid="transparency">1.000000</float>
            </transparency>
          </lambert>
        </technique>
      </profile_COMMON>
    </effect>
  </library_effects>
  <library_geometries>
    <geometry id="temple_modules_wall_large-lib" name="temple_modules_wall_largeMesh">
      <mesh>
        <source id="temple_modules_wall_large-POSITION">
          <float_array id="temple_modules_wall_large-POSITION-array" count="168">
675.000000 0.000000 0.000000
1075.000000 0.000000 0.000000
675.000000 350.000000 -100.000000
875.000000 0.000000 0.000000
1075.000000 350.000000 0.000000
1475.000000 350.000000 -100.000000
1475.000000 0.000000 0.000000
1275.000000 0.000000 0.000000
675.000000 400.000000 -100.000000
675.000000 400.000000 -400.000000
875.000000 400.000000 -400.000000
1075.000000 400.000000 -400.000000
1075.000000 400.000000 -100.000000
1075.000000 400.000000 0.000000
1475.000000 400.000000 -400.000000
1275.000000 400.000000 -400.000000
1475.000000 400.000000 -100.000000
675.000000 355.000000 -85.000000
675.000000 395.000000 -85.000000
1075.000000 355.000000 15.000000
1075.000000 395.000000 15.000000
1475.000000 355.000000 -85.000000
1475.000000 395.000000 -85.000000
875.000000 350.000000 -14.842843
889.842834 350.000000 0.000000
875.567322 355.000000 15.000000
860.000000 355.000000 -0.567305
889.842834 400.000000 0.000000
875.000000 400.000000 -14.842843
875.567322 395.000000 15.000000
860.000000 395.000000 -0.567305
1260.157104 350.000000 0.000000
1275.000000 350.000000 -14.842843
1290.000000 355.000000 -0.567305
1274.432739 355.000000 15.000000
1275.000000 400.000000 -14.842843
1260.157104 400.000000 0.000000
1290.000000 395.000000 -0.567305
1274.432739 395.000000 15.000000
868.251892 350.000000 -100.000000
875.000000 350.000000 -93.251884
860.000000 355.000000 -77.922516
852.922546 355.000000 -85.000000
875.000000 400.000000 -93.251884
1075.000000 400.000000 -103.374054
868.251892 400.000000 -100.000000
860.000000 395.000000 -77.922516
852.922546 395.000000 -85.000000
1275.000000 350.000000 -93.251884
1281.748169 350.000000 -100.000000
1290.000000 355.000000 -77.922516
1297.077515 355.000000 -85.000000
1281.748169 400.000000 -100.000000
1275.000000 400.000000 -93.251884
1290.000000 395.000000 -77.922516
1297.077515 395.000000 -85.000000
</float_array>
          <technique_common>
            <accessor source="#temple_modules_wall_large-POSITION-array" count="56" stride="3">
              <param name="X" type="float"/>
              <param name="Y" type="float"/>
              <param name="Z" type="float"/>
            </accessor>
          </technique_common>
        </source>
        <source id="temple_modules_wall_large-Normal0">
          <float_array id="temple_modules_wall_large-Normal0-array" count="828">
-0.040597 0.991876 0.120560
0.000000 1.000000 0.000000
0.000000 0.987087 0.160182
0.000000 1.000000 0.000000
-0.040597 0.991876 0.120560
0.000000 1.000000 -0.000000
-0.040597 0.991876 0.120560
0.000000 1.000000 0.000000
0.000000 1.000000 0.000000
0.000000 1.000000 0.000000
0.000000 1.000000 0.000000
0.000000 1.000000 -0.000000
0.000000 0.000000 1.000000
0.000000 0.000000 1.000000
0.000000 0.000000 1.000000
0.000000 0.000000 1.000000
0.000000 0.000000 1.000000
0.000000 0.000000 1.000000
0.000000 1.000000 0.000000
-0.055994 0.985094 0.162650
0.000000 0.987087 0.160183
0.000000 1.000000 -0.000000
-0.120559 0.991876 0.040597
0.000000 1.000000 0.000000
-0.055994 0.985094 0.162650
-0.120559 0.991876 0.040597
-0.162649 0.985094 0.055994
-0.120559 0.991876 0.040597
-0.055994 0.985094 0.162650
0.000000 1.000000 0.000000
0.040597 0.991876 0.120560
0.000000 1.000000 0.000000
0.000000 1.000000 -0.000001
0.000000 1.000000 0.000000
0.040597 0.991876 0.120560
0.000000 1.000000 0.000000
0.040597 0.991876 0.120560
0.000000 0.987087 0.160183
0.000000 1.000000 0.000000
0.000000 1.000000 0.000000
0.000000 1.000000 0.000000
0.000000 1.000000 -0.000001
0.000000 0.000000 1.000000
0.000000 0.000000 1.000000
0.000000 0.000000 1.000000
0.000000 0.000000 1.000000
0.000000 0.000000 1.000000
0.000000 0.000000 1.000000
0.055994 0.985094 0.162650
0.000000 1.000000 0.000000
0.000000 0.987087 0.160183
0.055994 0.985094 0.162650
0.120560 0.991876 0.040597
0.000000 1.000000 0.000000
0.000000 1.000000 0.000000
0.120560 0.991876 0.040597
0.000000 1.000000 -0.000001
0.120560 0.991876 0.040597
0.055994 0.985094 0.162650
0.162651 0.985094 0.055994
0.000000 0.000000 1.000000
0.000000 0.000000 1.000000
0.000000 0.000000 1.000000
0.000000 0.000000 1.000000
0.000000 0.000000 1.000000
0.000000 0.000000 1.000000
-1.000000 0.000000 0.000000
-1.000000 0.000000 0.000000
-1.000000 0.000000 0.000000
-1.000000 0.000000 0.000000
-1.000000 0.000000 0.000000
-1.000000 0.000000 0.000000
0.000000 0.000000 1.000000
0.000000 0.000000 1.000000
0.000000 0.000000 1.000000
0.000000 0.000000 1.000000
0.000000 0.000000 1.000000
0.000000 0.000000 1.000000
0.000000 0.000000 1.000000
0.000000 0.000000 1.000000
0.000000 0.000000 1.000000
0.000000 0.000000 1.000000
0.000000 0.000000 1.000000
0.000000 0.000000 1.000000
0.000000 0.000000 1.000000
0.000000 0.000000 1.000000
0.000000 0.000000 1.000000
0.000000 0.000000 1.000000
0.000000 0.000000 1.000000
0.000000 0.000000 1.000000
1.000000 0.000000 0.000000
1.000000 0.000000 0.000000
1.000000 0.000000 0.000000
1.000000 0.000000 0.000000
1.000000 0.000000 0.000000
1.000000 0.000000 0.000000
-0.080789 -0.967427 0.239913
0.000000 -0.948684 0.316227
0.000000 -0.948684 0.316227
0.000000 -0.948684 0.316227
-0.080789 -0.967427 0.239913
-0.080789 -0.967427 0.239913
-0.040597 0.991876 0.120560
0.000000 0.987087 0.160182
-0.080788 0.967427 0.239913
0.000000 0.948683 0.316228
-0.080788 0.967427 0.239913
0.000000 0.987087 0.160182
-0.242663 -0.966507 0.083539
-0.239912 -0.967427 0.080789
-0.242663 -0.966507 0.083539
-0.242663 -0.966507 0.083539
-0.239912 -0.967427 0.080789
-0.239912 -0.967427 0.080789
-0.239912 0.967427 0.080788
-0.162649 0.985094 0.055994
-0.120559 0.991876 0.040597
-0.162649 0.985094 0.055994
-0.239912 0.967427 0.080788
-0.242663 0.966507 0.083539
-0.083539 -0.966507 0.242665
0.000000 -0.948683 0.316228
-0.083539 -0.966507 0.242665
0.000000 -0.948683 0.316228
-0.083539 -0.966507 0.242665
0.000000 -0.948683 0.316228
0.000000 0.948683 0.316228
-0.055994 0.985094 0.162650
-0.083539 0.966507 0.242665
-0.055994 0.985094 0.162650
0.000000 0.948683 0.316228
0.000000 0.987087 0.160183
0.080788 -0.967427 0.239913
0.000000 -0.948684 0.316227
0.080788 -0.967427 0.239913
0.000000 -0.948684 0.316227
0.080788 -0.967427 0.239913
0.000000 -0.948684 0.316227
0.080788 0.967427 0.239914
0.000000 0.948683 0.316228
0.000000 0.987087 0.160183
0.000000 0.987087 0.160183
0.040597 0.991876 0.120560
0.080788 0.967427 0.239914
0.000000 -0.948683 0.316228
0.083540 -0.966507 0.242664
0.083540 -0.966507 0.242664
0.083540 -0.966507 0.242664
0.000000 -0.948683 0.316228
0.000000 -0.948683 0.316228
0.055994 0.985094 0.162650
0.000000 0.948683 0.316228
0.083540 0.966506 0.242665
0.000000 0.948683 0.316228
0.055994 0.985094 0.162650
0.000000 0.987087 0.160183
0.239913 -0.967427 0.080789
0.242665 -0.966506 0.083539
0.239913 -0.967427 0.080789
0.242665 -0.966506 0.083539
0.239913 -0.967427 0.080789
0.242665 -0.966506 0.083539
0.242665 0.966506 0.083540
0.239913 0.967427 0.080789
0.162651 0.985094 0.055994
0.162651 0.985094 0.055994
0.239913 0.967427 0.080789
0.120560 0.991876 0.040597
-0.083539 -0.966507 0.242665
-0.242663 -0.966507 0.083539
-0.242663 -0.966507 0.083539
-0.242663 -0.966507 0.083539
-0.083539 -0.966507 0.242665
-0.083539 -0.966507 0.242665
-0.707106 0.000000 0.707107
-0.707106 0.000000 0.707107
-0.707106 0.000000 0.707107
-0.707106 0.000000 0.707107
-0.707106 0.000000 0.707107
-0.707106 0.000000 0.707107
-0.242663 0.966507 0.083539
-0.055994 0.985094 0.162650
-0.162649 0.985094 0.055994
-0.055994 0.985094 0.162650
-0.242663 0.966507 0.083539
-0.083539 0.966507 0.242665
0.242665 -0.966506 0.083539
0.083540 -0.966507 0.242664
0.083540 -0.966507 0.242664
0.083540 -0.966507 0.242664
0.242665 -0.966506 0.083539
0.242665 -0.966506 0.083539
0.707108 0.000000 0.707106
0.707108 0.000000 0.707106
0.707108 0.000000 0.707106
0.707108 0.000000 0.707106
0.707108 0.000000 0.707106
0.707108 0.000000 0.707106
0.162651 0.985094 0.055994
0.055994 0.985094 0.162650
0.083540 0.966506 0.242665
0.162651 0.985094 0.055994
0.083540 0.966506 0.242665
0.242665 0.966506 0.083540
-0.706789 0.029974 0.706789
-0.706789 0.029974 0.706789
-0.706789 0.029974 0.706789
0.706788 0.029973 0.706790
0.706788 0.029973 0.706790
0.706788 0.029973 0.706790
0.000000 0.274721 0.961524
0.000000 0.274721 0.961524
0.000000 0.274721 0.961524
0.000000 0.274721 0.961524
0.000000 0.274721 0.961524
0.000000 0.274721 0.961524
-1.000000 0.000000 0.000000
-1.000000 0.000000 0.000000
-1.000000 0.000000 0.000000
1.000000 0.000000 0.000000
1.000000 0.000000 0.000000
1.000000 0.000000 0.000000
0.000000 0.274721 0.961524
0.000000 0.274721 0.961524
0.000000 0.274721 0.961524
0.000000 0.274721 0.961524
0.000000 0.274721 0.961524
0.000000 0.274721 0.961524
-0.239912 -0.967427 0.080789
-0.080789 -0.967427 0.239913
-0.080789 -0.967427 0.239913
-0.080789 -0.967427 0.239913
-0.239912 -0.967427 0.080789
-0.239912 -0.967427 0.080789
-0.707108 0.000000 0.707105
-0.707108 0.000000 0.707105
-0.707108 0.000000 0.707105
-0.707108 0.000000 0.707105
-0.707108 0.000000 0.707105
-0.707108 0.000000 0.707105
-0.080788 0.967427 0.239913
-0.120559 0.991876 0.040597
-0.040597 0.991876 0.120560
-0.120559 0.991876 0.040597
-0.080788 0.967427 0.239913
-0.239912 0.967427 0.080788
0.080788 -0.967427 0.239913
0.239913 -0.967427 0.080789
0.239913 -0.967427 0.080789
0.239913 -0.967427 0.080789
0.080788 -0.967427 0.239913
0.080788 -0.967427 0.239913
0.707105 0.000000 0.707108
0.707105 0.000000 0.707108
0.707105 0.000000 0.707108
0.707105 0.000000 0.707108
0.707105 0.000000 0.707108
0.707105 0.000000 0.707108
0.120560 0.991876 0.040597
0.239913 0.967427 0.080789
0.040597 0.991876 0.120560
0.040597 0.991876 0.120560
0.239913 0.967427 0.080789
0.080788 0.967427 0.239914
-0.694883 0.185141 0.694882
-0.694883 0.185141 0.694882
-0.694883 0.185141 0.694882
-0.120559 0.991876 0.040597
0.000000 1.000000 -0.000000
-0.040597 0.991876 0.120560
0.694880 0.185138 0.694885
0.694880 0.185138 0.694885
0.694880 0.185138 0.694885
0.040597 0.991876 0.120560
0.000000 1.000000 -0.000001
0.120560 0.991876 0.040597
</float_array>
          <technique_common>
            <accessor source="#temple_modules_wall_large-Normal0-array" count="276" stride="3">
              <param name="X" type="float"/>
              <param name="Y" type="float"/>
              <param name="Z" type="float"/>
            </accessor>
          </technique_common>
        </source>
        <source id="temple_modules_wall_large-UV0">
          <float_array id="temple_modules_wall_large-UV0-array" count="128">
0.500000 0.182532
0.625000 0.000000
0.509051 0.250000
0.509277 0.250000
0.509051 0.250000
0.625000 0.250000
0.625000 0.250000
0.625000 0.250000
0.500000 0.250000
0.500000 0.250000
0.500000 0.250000
0.500000 0.250000
0.509277 0.250000
0.509051 0.250000
0.509277 0.250000
0.509051 0.250000
0.509277 0.250000
0.500000 0.204956
0.375000 0.250000
0.375000 0.000000
0.500000 0.250000
0.500000 0.250000
0.502109 0.252812
0.625000 0.375000
0.375000 0.375000
0.500000 0.375000
0.375000 0.000000
0.375000 0.375000
0.375000 0.250000
0.625000 0.250000
0.501406 0.251874
0.500000 0.375000
0.625000 0.250000
0.500000 0.250000
0.375000 0.250000
0.375000 0.250000
0.500000 0.250000
0.500000 0.250000
0.375000 0.250000
0.500000 0.250000
0.500000 0.250000
0.375000 0.250000
0.500000 0.250000
0.375000 0.250000
0.375000 0.250000
0.500000 0.250000
0.495781 0.250000
0.500000 0.250000
0.495085 0.250000
0.500000 0.250000
0.500000 0.250000
0.495085 0.250000
0.500000 0.250000
0.495085 0.250000
0.500000 0.250000
0.495085 0.250000
0.495781 0.250000
0.500000 0.250000
0.500000 0.248727
0.500000 0.250000
0.495782 0.250000
0.500000 0.248727
0.495782 0.250000
0.500000 0.250000
</float_array>
          <technique_common>
            <accessor source="#temple_modules_wall_large-UV0-array" count="64" stride="2">
              <param name="S" type="float"/>
              <param name="T" type="float"/>
            </accessor>
          </technique_common>
        </source>
        <vertices id="temple_modules_wall_large-VERTEX">
          <input semantic="POSITION" source="#temple_modules_wall_large-POSITION"/>
        </vertices>
        <triangles count="92" material="temple_altar_01_Core1_tesla_structure_pillar_core_02_tesla_structure_interior_01_tesla_structure_platform_01_tesla_structure_pillar_drum_01">
          <input semantic="VERTEX" offset="0" source="#temple_modules_wall_large-VERTEX"/>
          <input semantic="NORMAL" offset="1" source="#temple_modules_wall_large-Normal0"/>
          <input semantic="TEXCOORD" offset="2" set="0" source="#temple_modules_wall_large-UV0"/>
          <p> 45 0 60 9 1 24 8 2 38 10 3 25 45 4 60 44 5 22 45 6 60 10 7 25 9 8 24 10 9 23 44 10 25 11 11 22 24 12 16 1 13 1 4 14 5 1 15 1 24 16 16 3 17 0 12 18 29 27 19 3 13 20 32 44 21 22 43 22 50 12 23 29 27 24 3 43 25 50 28 26 37 43 27 50 27 28 3 12 29 29 52 30 56 15 31 31 44 32 30 15 33 31 52 34 56 14 35 27 52 36 56 16 37 28 14 38 27 11 39 23 44 40 29 15 41 30 31 42 12 1 43 1 7 44 17 1 45 1 31 46 12 4 47 5 36 48 14 12 49 29 13 50 32 36 51 14 53 52 63 12 53 29 12 54 29 53 55 63 44 56 30 53 57 63 36 58 14 35 59 33 47 60 51 18 61 35 17 62 34 47 63 51 17 64 34 42 65 48 30 66 39 46 67 49 26 68 36 26 69 36 46 70 49 41 71 47 25 72 2 19 73 6 29 74 4 20 75 7 29 76 4 19 77 6 51 78 53 21 79 44 55 80 55 22 81 43 55 82 55 21 83 44 38 84 15 20 85 7 19 86 6 38 87 15 19 88 6 34 89 13 33 90 42 50 91 54 37 92 45 37 93 45 50 94 54 54 95 57 42 96 48 17 97 34 2 98 18 2 99 18 39 100 46 42 101 48 45 102 60 8 103 38 47 104 51 18 105 35 47 106 51 8 107 38 26 108 36 41 109 47 23 110 21 23 111 21 41 112 47 40 113 20 46 114 49 28 115 37 43 116 50 28 117 37 46 118 49 30 119 39 24 120 16 19 121 6 25 122 2 19 123 6 24 124 16 4 125 5 20 126 7 27 127 3 29 128 4 27 129 3 20 130 7 13 131 32 49 132 62 5 133 41 51 134 53 21 135 44 51 136 53 5 137 41 55 138 55 22 139 43 16 140 28 16 141 28 52 142 56 55 143 55 19 144 6 31 145 12 34 146 13 31 147 12 19 148 6 4 149 5 36 150 14 20 151 7 38 152 15 20 153 7 36 154 14 13 155 32 50 156 54 32 157 40 48 158 52 32 159 40 50 160 54 33 161 42 37 162 45 54 163 57 35 164 33 35 165 33 54 166 57 53 167 63 24 168 8 26 169 36 23 170 21 26 171 36 24 172 8 25 173 9 30 174 39 26 175 36 29 176 10 29 177 10 26 178 36 25 179 9 30 180 39 27 181 11 28 182 37 27 183 11 30 184 39 29 185 10 32 186 40 34 187 13 31 188 12 34 189 13 32 190 40 33 191 42 33 192 42 37 193 45 34 194 13 38 195 15 34 196 13 37 197 45 35 198 33 36 199 14 38 200 15 35 201 33 38 202 15 37 203 45 23 204 21 3 205 0 24 206 16 31 207 12 7 208 17 32 209 40 39 210 46 0 211 19 3 212 0 0 213 19 39 214 46 2 215 18 40 216 20 3 217 0 23 218 21 7 219 17 48 220 52 32 221 40 6 222 26 5 223 41 49 224 62 49 225 62 7 226 17 6 227 26 40 228 20 42 229 48 39 230 46 42 231 48 40 232 20 41 233 47 46 234 49 42 235 48 41 236 47 42 237 48 46 238 49 47 239 51 47 240 51 43 241 50 45 242 60 43 243 50 47 244 51 46 245 49 49 246 62 50 247 54 48 248 52 50 249 54 49 250 62 51 251 53 54 252 57 50 253 54 55 254 55 55 255 55 50 256 54 51 257 53 53 258 63 54 259 57 52 260 56 52 261 56 54 262 57 55 263 55 39 264 46 3 265 0 40 266 58 43 267 50 44 268 59 45 269 60 48 270 61 7 271 17 49 272 62 52 273 56 44 274 30 53 275 63</p>
        </triangles>
      </mesh>
    </geometry>
  </library_geometries>
  <library_visual_scenes>
    <visual_scene id="" name="">
      <node name="temple_modules_wall_large" id="temple_modules_wall_large" sid="temple_modules_wall_large">
        <matrix sid="matrix">0.010000 0.000000 0.000000 -6.750000 0.000000 0.010000 0.000000 0.000000 0.000000 0.000000 0.010000 0.000000 0.000000 0.000000 0.000000 1.000000</matrix>
        <instance_geometry url="#temple_modules_wall_large-lib">
          <bind_material>
            <technique_common>
              <instance_material symbol="temple_altar_01_Core1_tesla_structure_pillar_core_02_tesla_structure_interior_01_tesla_structure_platform_01_tesla_structure_pillar_drum_01" target="#temple_altar_01_Core1_tesla_structure_pillar_core_02_tesla_structure_interior_01_tesla_structure_platform_01_tesla_structure_pillar_drum_01"/>
            </technique_common>
          </bind_material>
        </instance_geometry>
        <extra>
          <technique profile="FCOLLADA">
            <visibility>1.000000</visibility>
          </technique>
        </extra>
      </node>
      <extra>
        <technique profile="MAX3D">
          <frame_rate>24.000000</frame_rate>
        </technique>
        <technique profile="FCOLLADA">
          <start_time>0.041667</start_time>
          <end_time>2.000000</end_time>
        </technique>
      </extra>
    </visual_scene>
  </library_visual_scenes>
  <scene>
    <instance_visual_scene url="#"></instance_visual_scene>
  </scene>
</COLLADA>

