<?xml version="1.0" encoding="utf-8"?>
<COLLADA xmlns="http://www.collada.org/2005/11/COLLADASchema" version="1.4.1">
  <asset>
    <contributor>
      <author></author>
      <authoring_tool>FBX COLLADA exporter</authoring_tool>
      <comments></comments>
    </contributor>
    <created>2012-06-20T11:17:47Z</created>
    <keywords></keywords>
    <modified>2012-06-20T11:17:47Z</modified>
    <revision></revision>
    <subject></subject>
    <title></title>
    <unit meter="1.000000" name="centimeter"></unit>
    <up_axis>Y_UP</up_axis>
  </asset>
  <library_images>
    <image id="Map #7-image" name="Map #7">
      <init_from>file://C:\Users\WesleyTack\Desktop\amnesia_raw\StaticObjects\factorybase\concrete_wall.psd</init_from>
    </image>
  </library_images>
  <library_materials>
    <material id="concrete_wall" name="concrete_wall">
      <instance_effect url="#concrete_wall-fx"/>
    </material>
  </library_materials>
  <library_effects>
    <effect id="concrete_wall-fx" name="concrete_wall">
      <profile_COMMON>
        <technique sid="standard">
          <phong>
            <emission>
              <color sid="emission">0.000000  0.000000 0.000000 1.000000</color>
            </emission>
            <ambient>
              <color sid="ambient">0.588235  0.588235 0.588235 1.000000</color>
            </ambient>
            <diffuse>
              <texture texture="Map #7-image" texcoord="CHANNEL0">
                <extra>
                  <technique profile="MAYA">
                    <wrapU sid="wrapU0">TRUE</wrapU>
                    <wrapV sid="wrapV0">TRUE</wrapV>
                    <blend_mode>ADD</blend_mode>
                  </technique>
                </extra>
              </texture>
            </diffuse>
            <specular>
              <color sid="specular">0.000000  0.000000 0.000000 1.000000</color>
            </specular>
            <shininess>
              <float sid="shininess">2.000000</float>
            </shininess>
            <reflective>
              <color sid="reflective">0.000000  0.000000 0.000000 1.000000</color>
            </reflective>
            <reflectivity>
              <float sid="reflectivity">1.000000</float>
            </reflectivity>
            <transparent opaque="RGB_ZERO">
              <color sid="transparent">1.000000  1.000000 1.000000 1.000000</color>
            </transparent>
            <transparency>
              <float sid="transparency">0.000000</float>
            </transparency>
          </phong>
        </technique>
      </profile_COMMON>
    </effect>
  </library_effects>
  <library_geometries>
    <geometry id="Box073-lib" name="Box073Mesh">
      <mesh>
        <source id="Box073-POSITION">
          <float_array id="Box073-POSITION-array" count="72">
-0.869564 -0.252487 0.000000
-0.869564 0.252486 0.000000
-1.204322 -0.302487 0.000000
-1.204322 0.302487 0.000000
-0.919564 0.302487 4.002044
-0.869564 -0.252487 4.002044
-1.204322 0.302487 4.002044
-1.204322 -0.302486 4.002044
-0.919564 -0.302487 0.000000
-0.919564 -0.302487 4.002044
-0.919564 0.302487 0.000000
-0.869564 0.252487 4.002044
0.880139 0.252487 0.000000
0.880139 -0.252486 0.000000
1.214897 0.302487 0.000000
1.214897 -0.302487 0.000000
0.930139 -0.302487 4.002044
0.880139 0.252487 4.002044
1.214897 -0.302487 4.002044
1.214897 0.302487 4.002044
0.930139 0.302487 0.000000
0.930139 0.302487 4.002044
0.930139 -0.302487 0.000000
0.880139 -0.252487 4.002044
</float_array>
          <technique_common>
            <accessor source="#Box073-POSITION-array" count="24" stride="3">
              <param name="X" type="float"/>
              <param name="Y" type="float"/>
              <param name="Z" type="float"/>
            </accessor>
          </technique_common>
        </source>
        <source id="Box073-Normal0">
          <float_array id="Box073-Normal0-array" count="216">
0.923879 -0.382684 0.000000
0.923880 0.382683 0.000000
0.923880 0.382683 0.000000
0.923880 0.382683 0.000000
0.923880 -0.382683 0.000000
0.923879 -0.382684 0.000000
0.382684 0.923879 -0.000000
0.000000 1.000000 -0.000000
0.000001 1.000000 -0.000000
0.000001 1.000000 -0.000000
0.382683 0.923879 -0.000000
0.382684 0.923879 -0.000000
-1.000000 0.000000 -0.000000
-1.000000 0.000000 -0.000000
-1.000000 0.000000 -0.000000
-1.000000 0.000000 -0.000000
-1.000000 0.000000 -0.000000
-1.000000 0.000000 -0.000000
-0.000000 -1.000000 0.000000
0.382683 -0.923880 0.000000
0.382684 -0.923880 0.000000
0.382684 -0.923880 0.000000
-0.000001 -1.000000 0.000000
-0.000000 -1.000000 0.000000
0.923880 -0.382683 0.000000
0.382684 -0.923880 0.000000
0.382683 -0.923880 0.000000
0.382683 -0.923880 0.000000
0.923879 -0.382684 0.000000
0.923880 -0.382683 0.000000
0.923880 0.382683 0.000000
0.382684 0.923879 -0.000000
0.382683 0.923879 -0.000000
0.382683 0.923879 -0.000000
0.923880 0.382683 0.000000
0.923880 0.382683 0.000000
-0.923879 0.382684 0.000000
-0.923880 -0.382683 0.000000
-0.923880 -0.382683 0.000000
-0.923880 -0.382683 0.000000
-0.923880 0.382683 0.000000
-0.923879 0.382684 0.000000
-0.382683 -0.923880 -0.000000
-0.000000 -1.000000 -0.000000
-0.000000 -1.000000 -0.000000
-0.000000 -1.000000 -0.000000
-0.382684 -0.923879 0.000000
-0.382683 -0.923880 -0.000000
1.000000 0.000000 0.000000
1.000000 0.000000 0.000000
1.000000 0.000000 0.000000
1.000000 0.000000 0.000000
1.000000 0.000000 0.000000
1.000000 0.000000 0.000000
0.000000 1.000000 0.000000
-0.382683 0.923880 0.000000
-0.382684 0.923879 0.000000
-0.382684 0.923879 0.000000
0.000000 1.000000 0.000000
0.000000 1.000000 0.000000
-0.923880 0.382683 0.000000
-0.382684 0.923879 0.000000
-0.382683 0.923880 0.000000
-0.382683 0.923880 0.000000
-0.923879 0.382684 0.000000
-0.923880 0.382683 0.000000
-0.923880 -0.382683 0.000000
-0.382683 -0.923880 -0.000000
-0.382684 -0.923879 0.000000
-0.382684 -0.923879 0.000000
-0.923880 -0.382683 0.000000
-0.923880 -0.382683 0.000000
</float_array>
          <technique_common>
            <accessor source="#Box073-Normal0-array" count="72" stride="3">
              <param name="X" type="float"/>
              <param name="Y" type="float"/>
              <param name="Z" type="float"/>
            </accessor>
          </technique_common>
        </source>
        <source id="Box073-UV0">
          <float_array id="Box073-UV0-array" count="56">
0.717874 0.517370
0.717874 0.381471
0.282126 0.381471
0.282126 0.311741
0.717874 0.311741
0.282126 0.163598
0.717874 0.163598
0.282126 0.517370
0.282126 0.393715
0.717874 0.393715
0.717874 0.599344
0.282126 0.599344
0.282126 0.529614
0.717874 0.529614
0.717874 0.517370
0.717874 0.381471
0.282126 0.381471
0.282126 0.311741
0.717874 0.311741
0.282126 0.163598
0.717874 0.163598
0.282126 0.517370
0.282126 0.393715
0.717874 0.393715
0.717874 0.599344
0.282126 0.599344
0.282126 0.529614
0.717874 0.529614
</float_array>
          <technique_common>
            <accessor source="#Box073-UV0-array" count="28" stride="2">
              <param name="S" type="float"/>
              <param name="T" type="float"/>
            </accessor>
          </technique_common>
        </source>
        <vertices id="Box073-VERTEX">
          <input semantic="POSITION" source="#Box073-POSITION"/>
        </vertices>
        <triangles count="24" material="concrete_wall">
          <input semantic="VERTEX" offset="0" source="#Box073-VERTEX"/>
          <input semantic="NORMAL" offset="1" source="#Box073-Normal0"/>
          <input semantic="TEXCOORD" offset="2" set="0" source="#Box073-UV0"/>
          <p> 0 0 7 1 1 8 11 2 9 11 3 9 5 4 0 0 5 7 10 6 2 3 7 3 6 8 4 6 9 4 4 10 1 10 11 2 3 12 3 2 13 5 7 14 6 7 15 6 6 16 4 3 17 3 2 18 11 8 19 12 9 20 13 9 21 13 7 22 10 2 23 11 5 24 0 9 25 13 8 26 12 8 27 12 0 28 7 5 29 0 1 30 8 10 31 2 4 32 1 4 33 1 11 34 9 1 35 8 12 36 21 13 37 22 23 38 23 23 39 23 17 40 14 12 41 21 22 42 16 15 43 17 18 44 18 18 45 18 16 46 15 22 47 16 15 48 17 14 49 19 19 50 20 19 51 20 18 52 18 15 53 17 14 54 25 20 55 26 21 56 27 21 57 27 19 58 24 14 59 25 17 60 14 21 61 27 20 62 26 20 63 26 12 64 21 17 65 14 13 66 22 22 67 16 16 68 15 16 69 15 23 70 23 13 71 22</p>
        </triangles>
      </mesh>
    </geometry>
  </library_geometries>
  <library_visual_scenes>
    <visual_scene id="" name="">
      <node name="Box073" id="Box073" layer="tunnel_pillars_narrow" sid="Box073">
        <matrix sid="matrix">1.000000 0.000000 0.000000 0.000000 0.000000 0.000000 1.000000 0.000000 0.000000 -1.000000 0.000000 0.000000 0.000000 0.000000 0.000000 1.000000</matrix>
        <instance_geometry url="#Box073-lib">
          <bind_material>
            <technique_common>
              <instance_material symbol="concrete_wall" target="#concrete_wall"/>
            </technique_common>
          </bind_material>
        </instance_geometry>
        <extra>
          <technique profile="FCOLLADA">
            <visibility>1.000000</visibility>
          </technique>
        </extra>
      </node>
      <extra>
        <technique profile="MAX3D">
          <frame_rate>30.000000</frame_rate>
        </technique>
        <technique profile="FCOLLADA">
          <start_time>0.000000</start_time>
          <end_time>3.333333</end_time>
        </technique>
      </extra>
    </visual_scene>
  </library_visual_scenes>
  <scene>
    <instance_visual_scene url="#"></instance_visual_scene>
  </scene>
</COLLADA>

