<?xml version="1.0" encoding="utf-8"?>
<COLLADA xmlns="http://www.collada.org/2005/11/COLLADASchema" version="1.4.1">
  <asset>
    <contributor>
      <author>Marc</author>
      <authoring_tool>OpenCOLLADA2008</authoring_tool>
      <comments>
			ColladaMaya export options: 
			bakeTransforms=1;relativePaths=1;copyTextures=0;exportTriangles=1;exportCgfxFileReferences=0;
			isSampling=0;curveConstrainSampling=0;removeStaticCurves=1;exportPolygonMeshes=1;exportLights=0;
			exportCameras=0;exportJointsAndSkin=1;exportAnimations=1;exportInvisibleNodes=0;exportDefaultCameras=0;
			exportTexCoords=1;exportNormals=1;exportNormalsPerVertex=0;exportVertexColors=1;exportVertexColorsPerVertex=0;
			exportTexTangents=0;exportTangents=0;exportReferencedMaterials=0;exportMaterialsOnly=0;
			exportXRefs=0;dereferenceXRefs=1;exportCameraAsLookat=0;cameraXFov=0;cameraYFov=0;doublePrecision=0
		</comments>
      <source_data>file:///F:/pig/Game/redist/static_objects/teslabase/tesla_props_giant_fuse_01_light_off.dae</source_data>
    </contributor>
    <created>2013-07-29T10:08:29</created>
    <modified>2013-07-29T10:08:29</modified>
    <unit name="meter" meter="1"/>
    <up_axis>Y_UP</up_axis>
  </asset>
  <library_materials>
    <material id="lambert1" name="lambert1">
      <instance_effect url="#lambert1-fx"/>
    </material>
    <material id="lambert1_1" name="lambert1_1">
      <instance_effect url="#lambert1-fx_1"/>
    </material>
    <material id="off1" name="off1">
      <instance_effect url="#off1-fx"/>
    </material>
    <material id="Core1_tesla_structure_pillar_core_02_tesla_structure_interior_01_tesla_structure_platform_01_tesla_structure_pillar_drum_01" name="Core1_tesla_structure_pillar_core_02_tesla_structure_interior_01_tesla_structure_platform_01_tesla_structure_pillar_drum_01">
      <instance_effect url="#Core1_tesla_structure_pillar_core_02_tesla_structure_interior_01_tesla_structure_platform_01_tesla_structure_pillar_drum_01-fx"/>
    </material>
  </library_materials>
  <library_effects>
    <effect id="Core1_tesla_structure_pillar_core_02_tesla_structure_interior_01_tesla_structure_platform_01_tesla_structure_pillar_drum_01-fx">
      <profile_COMMON>
        <newparam sid="Core1_tesla_structure_pillar_core_02_tesla_structure_interior_01_tesla_structure_platform_01_file1_image-surface">
          <surface type="2D">
            <init_from>Core1_tesla_structure_pillar_core_02_tesla_structure_interior_01_tesla_structure_platform_01_file1_image</init_from>
          </surface>
        </newparam>
        <newparam sid="Core1_tesla_structure_pillar_core_02_tesla_structure_interior_01_tesla_structure_platform_01_file1_image-sampler">
          <sampler2D>
            <source>Core1_tesla_structure_pillar_core_02_tesla_structure_interior_01_tesla_structure_platform_01_file1_image-surface</source>
          </sampler2D>
        </newparam>
        <technique sid="common">
          <lambert>
            <emission>
              <color>0 0 0 1</color>
            </emission>
            <ambient>
              <color>0 0 0 1</color>
            </ambient>
            <diffuse>
              <texture texture="Core1_tesla_structure_pillar_core_02_tesla_structure_interior_01_tesla_structure_platform_01_file1_image-sampler" texcoord="TEX0">
                <extra>
                  <technique profile="OpenCOLLADAMaya">
                    <blend_mode>NONE</blend_mode>
                    <coverageU>1</coverageU>
                    <coverageV>1</coverageV>
                    <fast>0</fast>
                    <mirrorU>0</mirrorU>
                    <mirrorV>0</mirrorV>
                    <noiseU>0</noiseU>
                    <noiseV>0</noiseV>
                    <offsetU>0</offsetU>
                    <offsetV>0</offsetV>
                    <repeatU>1</repeatU>
                    <repeatV>1</repeatV>
                    <rotateFrame>0</rotateFrame>
                    <rotateUV>0</rotateUV>
                    <stagger>0</stagger>
                    <translateFrameU>0</translateFrameU>
                    <translateFrameV>0</translateFrameV>
                    <wrapU>1</wrapU>
                    <wrapV>1</wrapV>
                  </technique>
                </extra>
              </texture>
            </diffuse>
            <transparent opaque="RGB_ZERO">
              <color>0 0 0 1</color>
            </transparent>
            <transparency>
              <float>1</float>
            </transparency>
          </lambert>
        </technique>
      </profile_COMMON>
    </effect>
    <effect id="lambert1-fx">
      <profile_COMMON>
        <technique sid="common">
          <lambert>
            <emission>
              <color>0 0 0 1</color>
            </emission>
            <ambient>
              <color>0 0 0 1</color>
            </ambient>
            <diffuse>
              <color>0.4 0.4 0.4 1</color>
            </diffuse>
            <transparent opaque="RGB_ZERO">
              <color>0 0 0 1</color>
            </transparent>
            <transparency>
              <float>1</float>
            </transparency>
          </lambert>
        </technique>
      </profile_COMMON>
    </effect>
    <effect id="lambert1-fx_1">
      <profile_COMMON>
        <technique sid="common">
          <lambert>
            <emission>
              <color>0 0 0 1</color>
            </emission>
            <ambient>
              <color>0 0 0 1</color>
            </ambient>
            <diffuse>
              <color>0.4 0.4 0.4 1</color>
            </diffuse>
            <transparent opaque="RGB_ZERO">
              <color>0 0 0 1</color>
            </transparent>
            <transparency>
              <float>1</float>
            </transparency>
          </lambert>
        </technique>
      </profile_COMMON>
    </effect>
    <effect id="off1-fx">
      <profile_COMMON>
        <newparam sid="file5_image-surface">
          <surface type="2D">
            <init_from>file5_image</init_from>
          </surface>
        </newparam>
        <newparam sid="file5_image-sampler">
          <sampler2D>
            <source>file5_image-surface</source>
          </sampler2D>
        </newparam>
        <technique sid="common">
          <lambert>
            <emission>
              <color>0 0 0 1</color>
            </emission>
            <ambient>
              <color>0 0 0 1</color>
            </ambient>
            <diffuse>
              <texture texture="file5_image-sampler" texcoord="TEX0">
                <extra>
                  <technique profile="OpenCOLLADAMaya">
                    <blend_mode>NONE</blend_mode>
                    <coverageU>1</coverageU>
                    <coverageV>1</coverageV>
                    <fast>0</fast>
                    <mirrorU>0</mirrorU>
                    <mirrorV>0</mirrorV>
                    <noiseU>0</noiseU>
                    <noiseV>0</noiseV>
                    <offsetU>0</offsetU>
                    <offsetV>0</offsetV>
                    <repeatU>1</repeatU>
                    <repeatV>1</repeatV>
                    <rotateFrame>0</rotateFrame>
                    <rotateUV>0</rotateUV>
                    <stagger>0</stagger>
                    <translateFrameU>0</translateFrameU>
                    <translateFrameV>0</translateFrameV>
                    <wrapU>1</wrapU>
                    <wrapV>1</wrapV>
                  </technique>
                </extra>
              </texture>
            </diffuse>
            <transparent opaque="RGB_ZERO">
              <color>0 0 0 1</color>
            </transparent>
            <transparency>
              <float>1</float>
            </transparency>
          </lambert>
        </technique>
      </profile_COMMON>
    </effect>
  </library_effects>
  <library_images>
    <image id="Core1_tesla_structure_pillar_core_02_tesla_structure_interior_01_tesla_structure_platform_01_file1_image" name="Core1_tesla_structure_pillar_core_02_tesla_structure_interior_01_tesla_structure_platform_01_file1_image">
      <init_from>./tesla_props_fuse_01.dds</init_from>
      <extra>
        <technique profile="OpenCOLLADAMaya">
          <dgnode_type>kFile</dgnode_type>
          <image_sequence>0</image_sequence>
          <originalMayaNodeId>Core1_tesla_structure_pillar_core_02_tesla_structure_interior_01_tesla_structure_platform_01_file1_image</originalMayaNodeId>
        </technique>
      </extra>
    </image>
    <image id="file5_image" name="file5_image">
      <init_from>./tesla_props_fuse_light_01.dds</init_from>
      <extra>
        <technique profile="OpenCOLLADAMaya">
          <dgnode_type>kFile</dgnode_type>
          <image_sequence>0</image_sequence>
          <originalMayaNodeId>file5_image</originalMayaNodeId>
        </technique>
      </extra>
    </image>
  </library_images>
  <library_geometries>
    <geometry id="polySurface97Shape" name="polySurface97Shape">
      <mesh>
        <source id="polySurface97Shape-positions" name="polySurface97Shape-positions">
          <float_array id="polySurface97Shape-positions-array" count="60">2.226769 -0.616915 2.697927 1.999999 -0.616915 2.733845 1.773229 -0.616915 2.697927 1.568657 -0.616915 2.593691 1.406307 -0.616915 2.431342 1.302072 -0.616915 2.22677 1.266154 -0.616915 1.999999 1.302072 -0.616915 1.773228 1.406307 -0.616915 1.568656 1.568657 -0.616915 1.406305 1.773229 -0.616915 1.302071 1.999999 -0.616915 1.266154 2.226769 -0.616915 1.302071 2.431343 -0.616915 1.406305 2.593691 -0.616915 1.568657 2.697927 -0.616915 1.773229 2.733844 -0.616915 1.999999 2.697927 -0.616915 2.22677 2.593691 -0.616915 2.431342 2.431343 -0.616915 2.593693</float_array>
          <technique_common>
            <accessor source="#polySurface97Shape-positions-array" count="20" stride="3">
              <param name="X" type="float"/>
              <param name="Y" type="float"/>
              <param name="Z" type="float"/>
            </accessor>
          </technique_common>
        </source>
        <source id="polySurface97Shape-normals" name="polySurface97Shape-normals">
          <float_array id="polySurface97Shape-normals-array" count="162">0 -1 0 0 -1 0 0 -1 0 0 -1 0 0 -1 0 0 -1 0 0 -1 0 0 -1 0 0 -1 0 0 -1 0 0 -1 0 0 -1 0 0 -1 0 0 -1 0 0 -1 0 0 -1 0 0 -1 0 0 -1 0 0 -1 0 0 -1 0 0 -1 0 0 -1 0 0 -1 0 0 -1 0 0 -1 0 0 -1 0 0 -1 0 0 -1 0 0 -1 0 0 -1 0 0 -1 0 0 -1 0 0 -1 0 0 -1 0 0 -1 0 0 -1 0 0 -1 0 0 -1 0 0 -1 0 0 -1 0 0 -1 0 0 -1 0 0 -1 0 0 -1 0 0 -1 0 0 -1 0 0 -1 0 0 -1 0 0 -1 0 0 -1 0 0 -1 0 0 -1 0 0 -1 0 0 -1 0</float_array>
          <technique_common>
            <accessor source="#polySurface97Shape-normals-array" count="54" stride="3">
              <param name="X" type="float"/>
              <param name="Y" type="float"/>
              <param name="Z" type="float"/>
            </accessor>
          </technique_common>
        </source>
        <source id="polySurface97Shape-polySurface97Shape-UVSet0" name="polySurface97Shape-polySurface97Shape-UVSet0">
          <float_array id="polySurface97Shape-polySurface97Shape-UVSet0-array" count="40">0.653892 0.973633 0.499999 0.998008 0.346107 0.973633 0.207278 0.902896 0.097104 0.792721 0.026367 0.653893 0.001992 0.5 0.026367 0.346106 0.097104 0.207279 0.207278 0.097103 0.346107 0.026366 0.499999 0.001992 0.653892 0.026366 0.792721 0.097103 0.902896 0.207279 0.973633 0.346107 0.998007 0.5 0.973633 0.653893 0.902896 0.792721 0.792721 0.902897</float_array>
          <technique_common>
            <accessor source="#polySurface97Shape-polySurface97Shape-UVSet0-array" count="20" stride="2">
              <param name="S" type="float"/>
              <param name="T" type="float"/>
            </accessor>
          </technique_common>
        </source>
        <vertices id="polySurface97Shape-vertices" name="polySurface97Shape-vertices">
          <input semantic="POSITION" source="#polySurface97Shape-positions"/>
        </vertices>
        <triangles material="off1SG" count="18">
          <input semantic="VERTEX" source="#polySurface97Shape-vertices" offset="0"/>
          <input semantic="NORMAL" source="#polySurface97Shape-normals" offset="1"/>
          <input semantic="TEXCOORD" source="#polySurface97Shape-polySurface97Shape-UVSet0" offset="2" set="0"/>
          <p>3 0 3 18 1 18 0 2 0 16 3 16 18 4 18 14 5 14 8 6 8 14 7 14 7 8 7 18 9 18 16 10 16 17 11 17 18 12 18 3 13 3 14 14 14 2 15 2 0 16 0 1 17 1 3 18 3 0 19 0 2 20 2 5 21 5 3 22 3 4 23 4 7 24 7 3 25 3 5 26 5 7 27 7 5 28 5 6 29 6 14 30 14 3 31 3 7 32 7 10 33 10 8 34 8 9 35 9 10 36 10 14 37 14 8 38 8 12 39 12 10 40 10 11 41 11 14 42 14 10 43 10 12 44 12 14 45 14 12 46 12 13 47 13 16 48 16 14 49 14 15 50 15 0 51 0 18 52 18 19 53 19</p>
        </triangles>
      </mesh>
      <extra>
        <technique profile="OpenCOLLADAMaya">
          <originalMayaNodeId>polySurface97Shape</originalMayaNodeId>
          <double_sided>1</double_sided>
        </technique>
      </extra>
    </geometry>
    <geometry id="polySurface107Shape" name="polySurface107Shape">
      <mesh>
        <source id="polySurface107Shape-positions" name="polySurface107Shape-positions">
          <float_array id="polySurface107Shape-positions-array" count="759">1.073842 -0.713126 1.699072 1.026179 -0.713126 2 1.073842 -0.713126 2.300927 1.212164 -0.713126 2.572397 1.427602 -0.713126 2.787838 1.69907 -0.713126 2.926158 1.999999 -0.713126 2.973821 2.300929 -0.713126 2.926158 2.572397 -0.713126 2.787838 2.787837 -0.713126 2.572397 2.926158 -0.713126 2.300927 2.97382 -0.713126 2 2.926158 -0.713126 1.699072 2.787837 -0.713126 1.427602 2.572397 -0.713126 1.21216 2.300929 -0.713126 1.07384 1.999999 -0.713126 1.026177 1.69907 -0.713126 1.07384 1.427602 -0.713126 1.21216 1.212162 -0.713126 1.4276 1.222956 -0.807004 1.747523 1.182971 -0.807004 1.999999 1.222956 -0.807004 2.252476 1.339009 -0.807004 2.480238 1.51976 -0.807004 2.660991 1.747524 -0.807004 2.777042 1.999999 -0.807004 2.817031 2.252475 -0.807004 2.777042 2.480237 -0.807004 2.660991 2.660992 -0.807004 2.480238 2.777041 -0.807004 2.252476 2.81703 -0.807004 1.999999 2.777041 -0.807004 1.747523 2.660992 -0.807004 1.519761 2.480237 -0.807004 1.339007 2.252475 -0.807004 1.222957 1.999999 -0.807004 1.182967 1.747524 -0.807004 1.222957 1.51976 -0.807004 1.339006 1.339008 -0.807004 1.519761 1.773229 -0.807004 2.697927 1.999999 -0.807004 2.733845 2.226769 -0.807004 2.697927 2.431343 -0.807004 2.593693 2.593691 -0.807004 2.431342 2.697927 -0.807004 2.22677 2.733844 -0.807004 1.999999 2.697927 -0.807004 1.773229 2.593691 -0.807004 1.568657 2.431343 -0.807004 1.406305 2.226769 -0.807004 1.302071 1.999999 -0.807004 1.266154 1.773229 -0.807004 1.302071 1.568657 -0.807004 1.406305 1.406307 -0.807004 1.568656 1.302072 -0.807004 1.773228 1.266154 -0.807004 1.999999 1.302072 -0.807004 2.22677 1.406307 -0.807004 2.431342 1.568657 -0.807004 2.593691 2.97382 -0.407738 2 2.926158 -0.407738 1.699072 2.787837 -0.407738 1.427602 2.572397 -0.407738 1.21216 2.300929 -0.407738 1.07384 1.999999 -0.407738 1.026177 1.69907 -0.407738 1.07384 1.427602 -0.407738 1.21216 1.212162 -0.407738 1.4276 1.073842 -0.407738 1.699072 1.026179 -0.407738 2 1.073842 -0.407738 2.300927 1.212164 -0.407738 2.572397 1.427602 -0.407738 2.787838 1.69907 -0.407738 2.926158 1.999999 -0.407738 2.973821 2.300929 -0.407738 2.926158 2.572397 -0.407738 2.787838 2.787837 -0.407738 2.572397 2.926158 -0.407738 2.300927 1.624341 0.307004 3.156157 1.999999 0.307004 3.215654 1.624341 -0.407738 3.156157 1.999999 -0.407738 3.215654 2.375657 0.307004 3.156157 2.375657 -0.407738 3.156157 2.714546 0.307004 2.983485 2.714546 -0.407738 2.983485 2.983488 0.307004 2.714543 2.983484 -0.407738 2.714543 3.156156 0.307004 2.375657 3.156156 -0.407738 2.375657 3.215654 0.307004 2 3.215654 -0.407738 2 3.156156 0.307004 1.624341 3.156156 -0.407738 1.624341 2.983488 0.307004 1.285456 2.983484 -0.407738 1.285456 2.714546 0.307004 1.016514 2.714546 -0.407738 1.016514 2.375657 0.307004 0.843843 2.375657 -0.407738 0.843843 1.999999 0.307004 0.784344 1.999999 -0.407738 0.784344 1.624341 0.307004 0.843843 1.624341 -0.407738 0.843843 1.285456 0.307004 1.016513 1.285456 -0.407738 1.016513 1.016512 0.307004 1.285455 1.016512 -0.407738 1.285455 0.843841 0.307004 1.624341 0.843841 -0.407738 1.624341 0.784346 0.307004 2 0.784346 -0.407738 2 0.843841 0.307004 2.375657 0.843841 -0.407738 2.375657 1.016513 0.307004 2.714543 1.016513 -0.407738 2.714543 1.285456 0.307004 2.983484 1.285456 -0.407738 2.983484 1.773229 -0.477562 2.697927 1.999999 -0.477562 2.733845 2.226769 -0.477562 2.697927 2.431343 -0.477562 2.593693 2.593691 -0.477562 2.431342 2.697927 -0.477562 2.22677 2.733844 -0.477562 1.999999 2.697927 -0.477562 1.773229 2.593691 -0.477562 1.568657 2.431343 -0.477562 1.406305 2.226769 -0.477562 1.302071 1.999999 -0.477562 1.266154 1.773229 -0.477562 1.302071 1.568657 -0.477562 1.406305 1.406307 -0.477562 1.568656 1.302072 -0.477562 1.773228 1.266154 -0.477562 1.999999 1.302072 -0.477562 2.22677 1.406307 -0.477562 2.431342 1.568657 -0.477562 2.593691 4 0 4 4 0 2 2 0 4 2 0 2 4 0.253057 4 2 0.253057 4 4 0.253057 2 3.755601 0 3.7556 2.244399 0 3.7556 2.244399 0 2.2444 3.755601 0 2.2444 3.755586 0.503057 3.755585 2.244399 0.503057 3.7556 2.244399 0.503057 2.2444 3.755601 0.503057 2.2444 2.542599 0.503057 3.4574 2.542599 0.503057 2.5426 3.457401 0.503057 2.5426 2.542599 -0.496944 3.4574 2.542599 -0.496944 2.5426 3.457401 -0.496944 2.5426 3.197094 0.503057 3.425302 3.333895 0.503057 3.333894 3.425303 0.503057 3.197092 3.457401 0.503057 3.035724 3.035725 0.503057 3.4574 3.457401 -0.496944 3.035724 3.425303 -0.496944 3.197092 3.333895 -0.496944 3.333894 3.197094 -0.496944 3.425302 3.035725 -0.496944 3.4574 0 0 4 0 0 2 0 0.253057 4 0 0.253057 2 0.2444 0 3.755601 0.2444 0 2.244399 1.7556 0 2.244399 1.7556 0 3.755601 0.244415 0.503057 3.755586 0.2444 0.503057 2.244399 1.7556 0.503057 2.244399 1.7556 0.503057 3.755601 0.5426 0.503057 2.542599 1.4574 0.503057 2.542599 1.4574 0.503057 3.457401 0.5426 -0.496944 2.542599 1.4574 -0.496944 2.542599 1.4574 -0.496944 3.457401 0.574699 0.503057 3.197094 0.666106 0.503057 3.333895 0.802908 0.503057 3.425303 0.964276 0.503057 3.457401 0.5426 0.503057 3.035725 0.964276 -0.496944 3.457401 0.802908 -0.496944 3.425303 0.666106 -0.496944 3.333895 0.574699 -0.496944 3.197094 0.5426 -0.496944 3.035725 0 0 0 2 0 0 0 0.253057 0 2 0.253057 0 0.244399 0 0.2444 1.755601 0 0.2444 1.755601 0 1.7556 0.244399 0 1.7556 0.244414 0.503057 0.244415 1.755601 0.503057 0.2444 1.755601 0.503057 1.7556 0.244399 0.503057 1.7556 1.457401 0.503057 0.5426 1.457401 0.503057 1.4574 0.542599 0.503057 1.4574 1.457401 -0.496944 0.5426 1.457401 -0.496944 1.4574 0.542599 -0.496944 1.4574 0.802907 0.503057 0.574699 0.666105 0.503057 0.666106 0.574697 0.503057 0.802908 0.542599 0.503057 0.964276 0.964275 0.503057 0.5426 0.542599 -0.496944 0.964276 0.574697 -0.496944 0.802908 0.666105 -0.496944 0.666106 0.802907 -0.496944 0.574699 0.964275 -0.496944 0.5426 4 0 0 4 0.253057 0 3.7556 0 0.244399 3.7556 0 1.755601 2.2444 0 1.755601 2.2444 0 0.244399 3.755585 0.503057 0.244414 3.7556 0.503057 1.755601 2.2444 0.503057 1.755601 2.2444 0.503057 0.244399 3.4574 0.503057 1.457401 2.5426 0.503057 1.457401 2.5426 0.503057 0.542599 3.4574 -0.496944 1.457401 2.5426 -0.496944 1.457401 2.5426 -0.496944 0.542599 3.425302 0.503057 0.802907 3.333894 0.503057 0.666105 3.197092 0.503057 0.574697 3.035724 0.503057 0.542599 3.4574 0.503057 0.964275 3.035724 -0.496944 0.542599 3.197092 -0.496944 0.574697 3.333894 -0.496944 0.666105 3.425302 -0.496944 0.802907 3.4574 -0.496944 0.964275</float_array>
          <technique_common>
            <accessor source="#polySurface107Shape-positions-array" count="253" stride="3">
              <param name="X" type="float"/>
              <param name="Y" type="float"/>
              <param name="Z" type="float"/>
            </accessor>
          </technique_common>
        </source>
        <source id="polySurface107Shape-normals" name="polySurface107Shape-normals">
          <float_array id="polySurface107Shape-normals-array" count="4104">-0.5137069 -0.8579658 0 -0.4800089 -0.8576489 -0.184472 -0.2573449 -0.9638638 -0.06884898 -0.5137069 -0.8579658 0 -0.2573449 -0.9638638 -0.06884898 -0.266048 -0.9639599 0 -0.2890242 -0.9527046 0.09391006 -0.5137069 -0.8579658 0 -0.266048 -0.9639599 0 -0.5137069 -0.8579658 0 -0.2890242 -0.9527046 0.09391006 -0.4885681 -0.8579631 0.158747 -0.2890242 -0.9527046 0.09391006 -0.142803 -0.9842981 0.103753 -0.4155991 -0.8579652 0.3019491 -0.4155991 -0.8579652 0.3019491 -0.4885681 -0.8579631 0.158747 -0.2890242 -0.9527046 0.09391006 -0.178627 -0.952705 0.245857 -0.4155991 -0.8579652 0.3019491 -0.142803 -0.9842981 0.103753 -0.4155991 -0.8579652 0.3019491 -0.178627 -0.952705 0.245857 -0.30195 -0.8579669 0.4155949 -0.178627 -0.952705 0.245857 -0.184469 -0.8576522 0.4800041 -0.30195 -0.8579669 0.4155949 -0.184469 -0.8576522 0.4800041 -0.178627 -0.952705 0.245857 -0.06884802 -0.9638644 0.2573431 -0.06884802 -0.9638644 0.2573431 0 -0.8579669 0.513705 -0.184469 -0.8576522 0.4800041 0 -0.8579669 0.513705 -0.06884802 -0.9638644 0.2573431 0 -0.9639592 0.2660501 0 -0.8579669 0.513705 0.06884802 -0.9638644 0.2573431 0.184469 -0.8576522 0.4800041 0.06884802 -0.9638644 0.2573431 0 -0.8579669 0.513705 0 -0.9639592 0.2660501 0.1563801 -0.9639593 0.2152391 0.184469 -0.8576522 0.4800041 0.06884802 -0.9638644 0.2573431 0.184469 -0.8576522 0.4800041 0.1563801 -0.9639593 0.2152391 0.3019479 -0.8579677 0.4155948 0.1563801 -0.9639593 0.2152391 0.223474 -0.9638639 0.145003 0.3995092 -0.8576503 0.3237721 0.3995092 -0.8576503 0.3237721 0.3019479 -0.8579677 0.4155948 0.1563801 -0.9639593 0.2152391 0.488564 -0.857966 0.158744 0.223474 -0.9638639 0.145003 0.2020421 -0.9771743 0.06564702 0.223474 -0.9638639 0.145003 0.488564 -0.857966 0.158744 0.3995092 -0.8576503 0.3237721 0.3534439 -0.9354557 0 0.488564 -0.857966 0.158744 0.2020421 -0.9771743 0.06564702 0.488564 -0.857966 0.158744 0.3534439 -0.9354557 0 0.5137069 -0.8579658 0 0.3534439 -0.9354557 0 0.488564 -0.857966 -0.158744 0.5137069 -0.8579658 0 0.488564 -0.857966 -0.158744 0.3534439 -0.9354557 0 0.2020421 -0.9771743 -0.06564702 0.488564 -0.857966 -0.158744 0.223474 -0.963864 -0.145002 0.3995101 -0.8576503 -0.3237711 0.223474 -0.963864 -0.145002 0.488564 -0.857966 -0.158744 0.2020421 -0.9771743 -0.06564702 0.3995101 -0.8576503 -0.3237711 0.178626 -0.9527051 -0.245857 0.301949 -0.8579671 -0.4155951 0.178626 -0.9527051 -0.245857 0.3995101 -0.8576503 -0.3237711 0.223474 -0.963864 -0.145002 0.178626 -0.9527051 -0.245857 0.058953 -0.973636 -0.220358 0.184468 -0.857653 -0.480003 0.184468 -0.857653 -0.480003 0.301949 -0.8579671 -0.4155951 0.178626 -0.9527051 -0.245857 0.058953 -0.973636 -0.220358 0 -0.963959 -0.266051 0 -0.8579669 -0.513705 0 -0.8579669 -0.513705 0.184468 -0.857653 -0.480003 0.058953 -0.973636 -0.220358 -0.058953 -0.973636 -0.220358 0 -0.8579669 -0.513705 0 -0.963959 -0.266051 0 -0.8579669 -0.513705 -0.058953 -0.973636 -0.220358 -0.184467 -0.8576532 -0.4800031 -0.184467 -0.8576532 -0.4800031 -0.178626 -0.9527051 -0.245857 -0.3019492 -0.8579665 -0.4155962 -0.178626 -0.9527051 -0.245857 -0.184467 -0.8576532 -0.4800031 -0.058953 -0.973636 -0.220358 -0.178626 -0.9527051 -0.245857 -0.399509 -0.857652 -0.323768 -0.3019492 -0.8579665 -0.4155962 -0.399509 -0.857652 -0.323768 -0.178626 -0.9527051 -0.245857 -0.223474 -0.963864 -0.145002 -0.4800089 -0.8576489 -0.184472 -0.399509 -0.857652 -0.323768 -0.223474 -0.963864 -0.145002 -0.4800089 -0.8576489 -0.184472 -0.223474 -0.963864 -0.145002 -0.2573449 -0.9638638 -0.06884898 0 -1 0 -0.2573449 -0.9638638 -0.06884898 0 -1 0 -0.2573449 -0.9638638 -0.06884898 0 -1 0 -0.266048 -0.9639599 0 0 -1 0 0 -1 0 -0.2890242 -0.9527046 0.09391006 -0.2890242 -0.9527046 0.09391006 -0.266048 -0.9639599 0 0 -1 0 0 -1 0 0 -1 0 -0.142803 -0.9842981 0.103753 -0.142803 -0.9842981 0.103753 -0.2890242 -0.9527046 0.09391006 0 -1 0 0 -1 0 -0.142803 -0.9842981 0.103753 0 -1 0 -0.142803 -0.9842981 0.103753 0 -1 0 -0.178627 -0.952705 0.245857 -0.178627 -0.952705 0.245857 0 -1 0 -0.06884802 -0.9638644 0.2573431 0 -1 0 -0.178627 -0.952705 0.245857 0 -1 0 -0.06884802 -0.9638644 0.2573431 0 -1 0 0 -0.9639592 0.2660501 0 -1 0 -0.06884802 -0.9638644 0.2573431 0 -1 0 0.06884802 -0.9638644 0.2573431 0 -0.9639592 0.2660501 0 -1 0 0.06884802 -0.9638644 0.2573431 0 -1 0 0 -1 0 0 -1 0 0 -1 0 0.1563801 -0.9639593 0.2152391 0.1563801 -0.9639593 0.2152391 0.06884802 -0.9638644 0.2573431 0 -1 0 0 -1 0 0.1563801 -0.9639593 0.2152391 0 -1 0 0.1563801 -0.9639593 0.2152391 0 -1 0 0.223474 -0.9638639 0.145003 0 -1 0 0.223474 -0.9638639 0.145003 0 -1 0 0.223474 -0.9638639 0.145003 0 -1 0 0.2020421 -0.9771743 0.06564702 0 -1 0 0.2020421 -0.9771743 0.06564702 0 -1 0 0.2020421 -0.9771743 0.06564702 0 -1 0 0.3534439 -0.9354557 0 0 -1 0 0.2020421 -0.9771743 -0.06564702 0.3534439 -0.9354557 0 0.2020421 -0.9771743 -0.06564702 0 -1 0 0 -1 0 0 -1 0 0.223474 -0.963864 -0.145002 0.2020421 -0.9771743 -0.06564702 0.223474 -0.963864 -0.145002 0 -1 0 0 -1 0 0.178626 -0.9527051 -0.245857 0.223474 -0.963864 -0.145002 0 -1 0 0.178626 -0.9527051 -0.245857 0 -1 0 0 -1 0 0.058953 -0.973636 -0.220358 0 -1 0 0 -1 0 0 -1 0 0.058953 -0.973636 -0.220358 0.178626 -0.9527051 -0.245857 0 -1 0 0.058953 -0.973636 -0.220358 0 -1 0 0.058953 -0.973636 -0.220358 0 -1 0 0 -0.963959 -0.266051 -0.058953 -0.973636 -0.220358 0 -1 0 0 -1 0 0 -1 0 -0.058953 -0.973636 -0.220358 0 -0.963959 -0.266051 -0.058953 -0.973636 -0.220358 0 -1 0 -0.178626 -0.9527051 -0.245857 0 -1 0 -0.058953 -0.973636 -0.220358 0 -1 0 -0.178626 -0.9527051 -0.245857 0 -1 0 -0.223474 -0.963864 -0.145002 0 -1 0 -0.178626 -0.9527051 -0.245857 0 -1 0 -0.223474 -0.963864 -0.145002 0 -1 0 -0.2573449 -0.9638638 -0.06884898 0 -1 0 -0.223474 -0.963864 -0.145002 0 -1 0 -0.2584459 0 0.9660258 -0.05272102 0 0.9986094 -0.3587298 0 0.9334415 -0.05272102 0 0.9986094 -0.2584459 0 0.9660258 0.05272002 0 0.9986094 -0.05272102 0 0.9986094 0.05272002 0 0.9986094 0.258445 0 0.966026 0.258445 0 0.966026 0.05272002 0 0.9986094 0.358726 0 0.9334429 0.258445 0 0.966026 0.358726 0 0.9334429 0.5443143 0 0.8388814 0.5443143 0 0.8388814 0.358726 0 0.9334429 0.6296213 0 0.7769023 0.6296213 0 0.7769023 0.8090189 0 0.5877829 0.5443143 0 0.8388814 0.8090189 0 0.5877829 0.6296213 0 0.7769023 0.8090185 0 0.5877833 0.8090189 0 0.5877829 0.9510573 0 0.3090151 0.9510579 0 0.309013 0.9510573 0 0.3090151 0.8090189 0 0.5877829 0.8090185 0 0.5877833 0.9510573 0 0.3090151 1 0 0 0.9510579 0 0.309013 1 0 0 0.9510573 0 0.3090151 1 0 0 1 0 0 0.9510573 0 -0.3090151 0.9510575 0 -0.3090138 0.9510573 0 -0.3090151 1 0 0 1 0 0 0.9510573 0 -0.3090151 0.8388814 0 -0.5443143 0.9510575 0 -0.3090138 0.8388814 0 -0.5443143 0.9510573 0 -0.3090151 0.7769041 0 -0.6296191 0.7769041 0 -0.6296191 0.5877851 0 -0.8090172 0.8388814 0 -0.5443143 0.5877851 0 -0.8090172 0.7769041 0 -0.6296191 0.5877869 0 -0.8090159 0.309016 0 -0.9510569 0.5877851 0 -0.8090172 0.5877869 0 -0.8090159 0.5877851 0 -0.8090172 0.309016 0 -0.9510569 0.309016 0 -0.9510569 -0.05272201 0 -0.9986092 0.05272201 0 -0.9986092 0.309016 0 -0.9510569 0.309016 0 -0.9510569 0.05272201 0 -0.9986092 0.309016 0 -0.9510569 -0.358728 0 -0.9334421 -0.2584471 0 -0.9660255 -0.05272201 0 -0.9986092 -0.05272201 0 -0.9986092 -0.2584471 0 -0.9660255 0.05272201 0 -0.9986092 -0.5877829 0 -0.8090189 -0.5877833 0 -0.8090185 -0.358728 0 -0.9334421 -0.358728 0 -0.9334421 -0.5877833 0 -0.8090185 -0.2584471 0 -0.9660255 -0.8090159 0 -0.5877869 -0.5877833 0 -0.8090185 -0.5877829 0 -0.8090189 -0.5877833 0 -0.8090185 -0.8090159 0 -0.5877869 -0.8090163 0 -0.5877863 -0.8090163 0 -0.5877863 -0.8090159 0 -0.5877869 -0.9334434 0 -0.3587251 -0.9660274 0 -0.2584401 -0.9334434 0 -0.3587251 -0.8090159 0 -0.5877869 -0.9334434 0 -0.3587251 -0.9660274 0 -0.2584401 -1 0 0 -1 0 0 -1 0 0 -0.9660274 0 -0.2584401 -0.9510579 0 0.309013 -0.9510575 0 0.3090138 -1 0 0 -0.9510579 0 0.309013 -1 0 0 -1 0 0 -0.9510575 0 0.3090138 -0.9510579 0 0.309013 -0.8388795 0 0.5443173 -0.7769009 0 0.6296229 -0.8388795 0 0.5443173 -0.9510579 0 0.309013 -0.8388795 0 0.5443173 -0.7769009 0 0.6296229 -0.6296191 0 0.7769041 -0.6296191 0 0.7769041 -0.7769009 0 0.6296229 -0.5443161 0 0.8388802 -0.6296191 0 0.7769041 -0.5443161 0 0.8388802 -0.3587298 0 0.9334415 -0.3587298 0 0.9334415 -0.5443161 0 0.8388802 -0.2584459 0 0.9660258 1 0 0 0.9660258 0 -0.2584459 1 0 0 0.9660258 0 -0.2584459 1 0 0 0.9334421 0 -0.358728 0.9334421 0 -0.358728 0.8388817 0 -0.5443138 0.9660258 0 -0.2584459 0.8388817 0 -0.5443138 0.9334421 0 -0.358728 0.7769049 0 -0.6296179 0.7769049 0 -0.6296179 0.6296229 0 -0.7769009 0.8388817 0 -0.5443138 0.6296229 0 -0.7769009 0.7769049 0 -0.6296179 0.5443173 0 -0.8388795 0.5443173 0 -0.8388795 0.2584459 0 -0.9660258 0.3587289 0 -0.9334418 0.5443173 0 -0.8388795 0.3587289 0 -0.9334418 0.6296229 0 -0.7769009 0.2584459 0 -0.9660258 -0.05272201 0 -0.9986092 0.05272102 0 -0.9986094 0.2584459 0 -0.9660258 0.05272102 0 -0.9986094 0.3587289 0 -0.9334418 -0.05272201 0 -0.9986092 -0.3587289 0 -0.9334418 -0.2584459 0 -0.9660258 -0.05272201 0 -0.9986092 -0.2584459 0 -0.9660258 0.05272102 0 -0.9986094 -0.3587289 0 -0.9334418 -0.6296218 0 -0.7769018 -0.5443161 0 -0.8388802 -0.3587289 0 -0.9334418 -0.5443161 0 -0.8388802 -0.2584459 0 -0.9660258 -0.8388829 0 -0.5443119 -0.7769049 0 -0.6296179 -0.6296218 0 -0.7769018 -0.7769049 0 -0.6296179 -0.5443161 0 -0.8388802 -0.6296218 0 -0.7769018 -0.9660255 0 -0.2584471 -0.9334426 0 -0.3587268 -0.8388829 0 -0.5443119 -0.9334426 0 -0.3587268 -0.7769049 0 -0.6296179 -0.8388829 0 -0.5443119 -0.9986092 0 0.05272301 -0.9986092 0 -0.05272201 -0.9660255 0 -0.2584471 -0.9986092 0 -0.05272201 -0.9334426 0 -0.3587268 -0.9660255 0 -0.2584471 -0.933441 0 0.358731 -0.9660246 0 0.2584499 -0.9986092 0 0.05272301 -0.9660246 0 0.2584499 -0.9986092 0 -0.05272201 -0.9986092 0 0.05272301 -0.7769058 0 0.6296168 -0.8388814 0 0.5443143 -0.933441 0 0.358731 -0.8388814 0 0.5443143 -0.9660246 0 0.2584499 -0.933441 0 0.358731 -0.544318 0 0.838879 -0.629624 0 0.7769 -0.7769058 0 0.6296168 -0.629624 0 0.7769 -0.8388814 0 0.5443143 -0.7769058 0 0.6296168 -0.629624 0 0.7769 -0.544318 0 0.838879 -0.3587289 0 0.9334418 -0.3587289 0 0.9334418 -0.544318 0 0.838879 -0.2584471 0 0.9660255 -0.3587289 0 0.9334418 -0.2584471 0 0.9660255 -0.05272102 0 0.9986094 -0.05272102 0 0.9986094 -0.2584471 0 0.9660255 0.05272102 0 0.9986094 -0.05272102 0 0.9986094 0.05272102 0 0.9986094 0.2584469 0 0.9660255 0.2584469 0 0.9660255 0.05272102 0 0.9986094 0.3587289 0 0.9334418 0.3587289 0 0.9334418 0.5443168 0 0.8388797 0.2584469 0 0.9660255 0.5443168 0 0.8388797 0.3587289 0 0.9334418 0.6296218 0 0.7769018 0.6296218 0 0.7769018 0.7769041 0 0.6296191 0.5443168 0 0.8388797 0.7769041 0 0.6296191 0.6296218 0 0.7769018 0.8388814 0 0.5443143 0.8388814 0 0.5443143 0.9510565 0 0.3090172 0.7769041 0 0.6296191 0.9510565 0 0.3090172 0.8388814 0 0.5443143 0.9510565 0 0.3090172 0.9510565 0 0.3090172 0.9510565 0 0.3090172 1 0 0 0.9510565 0 0.3090172 1 0 0 1 0 0 0 -1 0 0 -1 0 0 -1 0 0 -1 0 0 -1 0 0 -1 0 0 -1 0 0 -1 0 0 -1 0 0 -1 0 0 -1 0 0 -1 0 0 -1 0 0 -1 0 0 -1 0 0 -1 0 0 -1 0 0 -1 0 0 -1 0 0 -1 0 0 -1 0 0 -1 0 0 -1 0 0 -1 0 0 -1 0 0 -1 0 0 -1 0 0 -1 0 0 -1 0 0 -1 0 0 -1 0 0 -1 0 0 -1 0 0 -1 0 0 -1 0 0 -1 0 0 -1 0 0 -1 0 0 -1 0 0 -1 0 0 -1 0 0 -1 0 0 -1 0 0 -1 0 0 -1 0 0 -1 0 0 -1 0 0 -1 0 0 -1 0 0 -1 0 0 -1 0 0 -1 0 0 -1 0 0 -1 0 0 -1 0 0 -1 0 0 -1 0 0 -1 0 0 -1 0 0 -1 0 0 -1 0 0 -1 0 0 -1 0 0 -1 0 0 -1 0 0 -1 0 0 -1 0 0 -1 0 0 -1 0 0 -1 0 0 -1 0 0 -1 0 0 -1 0 0 -1 0 0 -1 0 0 -1 0 0 -1 0 0 -1 0 0 -1 0 0 -1 0 0 -1 0 0 -1 0 0 -1 0 0 -1 0 0 -1 0 0 -1 0 0 -1 0 0 -1 0 0 -1 0 0 -1 0 0 -1 0 0 -1 0 0 -1 0 0 -1 0 0 -1 0 0 -1 0 0 -1 0 0 -1 0 0 -1 0 0 -1 0 0 -1 0 0 -1 0 0 -1 0 0 -1 0 0 -1 0 0 -1 0 0 -1 0 0 -1 0 0 -1 0 0 -1 0 0 -1 0 0 -1 0 0 -1 0 0 -1 0 0 -1 0 0 -1 0 0 -1 0 0 -1 0 0 -1 0 0 -1 0 0.258449 0 -0.966025 0.05272201 0 -0.9986092 -0.05272201 0 -0.9986092 0.05272201 0 -0.9986092 0.258449 0 -0.966025 0.358731 0 -0.933441 -0.05272201 0 -0.9986092 -0.2584469 0 -0.9660255 -0.3587268 0 -0.9334426 -0.2584469 0 -0.9660255 -0.05272201 0 -0.9986092 0.05272201 0 -0.9986092 -0.3587268 0 -0.9334426 -0.544315 0 -0.838881 -0.6296229 0 -0.7769009 -0.544315 0 -0.838881 -0.3587268 0 -0.9334426 -0.2584469 0 -0.9660255 -0.6296229 0 -0.7769009 -0.544315 0 -0.838881 -0.7769049 0 -0.6296179 -0.6296229 0 -0.7769009 -0.7769049 0 -0.6296179 -0.8388802 0 -0.5443161 -0.8388802 0 -0.5443161 -0.7769049 0 -0.6296179 -0.933441 0 -0.358731 -0.8388802 0 -0.5443161 -0.933441 0 -0.358731 -0.9660255 0 -0.2584471 -0.9660255 0 -0.2584471 -0.933441 0 -0.358731 -0.9986094 0 -0.05272102 -0.9660255 0 -0.2584471 -0.9986094 0 -0.05272102 -0.9986094 0 0.05272102 -0.9986094 0 0.05272102 -0.9986094 0 -0.05272102 -0.9660255 0 0.2584471 -0.9986094 0 0.05272102 -0.9660255 0 0.2584471 -0.933441 0 0.358731 -0.933441 0 0.358731 -0.9660255 0 0.2584471 -0.838881 0 0.544315 -0.933441 0 0.358731 -0.838881 0 0.544315 -0.7769063 0 0.6296163 -0.7769063 0 0.6296163 -0.838881 0 0.544315 -0.629624 0 0.7769 -0.7769063 0 0.6296163 -0.629624 0 0.7769 -0.544315 0 0.838881 -0.629624 0 0.7769 -0.3587251 0 0.9334434 -0.544315 0 0.838881 -0.3587251 0 0.9334434 -0.258445 0 0.966026 -0.544315 0 0.838881 -0.3587251 0 0.9334434 -0.05272201 0 0.9986092 -0.258445 0 0.966026 -0.05272201 0 0.9986092 0.05272201 0 0.9986092 -0.258445 0 0.966026 -0.05272201 0 0.9986092 0.2584459 0 0.9660258 0.05272201 0 0.9986092 0.2584459 0 0.9660258 0.3587268 0 0.9334426 0.05272201 0 0.9986092 0.2584459 0 0.9660258 0.544315 0 0.838881 0.3587268 0 0.9334426 0.544315 0 0.838881 0.6296218 0 0.7769018 0.3587268 0 0.9334426 0.7769049 0 0.6296179 0.8388814 0 0.5443143 0.6296218 0 0.7769018 0.7769049 0 0.6296179 0.6296218 0 0.7769018 0.544315 0 0.838881 0.8388814 0 0.5443143 0.9334418 0 0.3587289 0.966025 0 0.258449 0.9334418 0 0.3587289 0.8388814 0 0.5443143 0.7769049 0 0.6296179 0.966025 0 0.258449 0.9986092 0 0.05272301 0.9986092 0 -0.05272301 0.9986092 0 0.05272301 0.966025 0 0.258449 0.9334418 0 0.3587289 0.9334418 0 -0.3587289 0.9986092 0 -0.05272301 0.966025 0 -0.258449 0.966025 0 -0.258449 0.9986092 0 -0.05272301 0.9986092 0 0.05272301 0.9334418 0 -0.3587289 0.8388802 0 -0.5443161 0.7769023 0 -0.6296213 0.8388802 0 -0.5443161 0.9334418 0 -0.3587289 0.966025 0 -0.258449 0.7769023 0 -0.6296213 0.6296202 0 -0.7769032 0.5443173 0 -0.8388795 0.6296202 0 -0.7769032 0.7769023 0 -0.6296213 0.8388802 0 -0.5443161 0.5443173 0 -0.8388795 0.358731 0 -0.933441 0.258449 0 -0.966025 0.358731 0 -0.933441 0.5443173 0 -0.8388795 0.6296202 0 -0.7769032 0 -1 0 0 -1 0 0 -1 0 0 -1 0 0 -1 0 0 -1 0 0 -1 0 0 -1 0 0 -1 0 0 -1 0 0 -1 0 0 -1 0 0 0 1 0 0 1 0 0 1 0 0 1 0 0 1 0 0 1 1 0 0 1 0 0 1 0 0 1 0 0 1 0 0 1 0 0 0 -1 0 0 -1 0 0 -1 0 0 -1 0 0 -1 0 0 -1 0 0 -1 0 0 -1 0 0 -1 0 0 -1 0 0 -1 0 0 -1 0 0 0 -1 0 0 -1 0 0 -1 0 0 -1 0 0 -1 0 0 -1 1 0 0 1 0 0 1 0 0 1 0 0 1 0 0 1 0 0 0 0 1 0 0 1 0 0 1 0 0 1 0 0 1 0 0 1 -1 0 0 -1 0 0 -1 0 0 -1 0 0 -1 0 0 -1 0 0 0 -1 0 0 -1 0 0 -1 0 0 -1 0 0 -1 0 0 -1 0 0 -1 0 0 -1 0 0 -1 0 0 -1 0 0 -1 0 0 -1 0 0 -1 0 0 -1 0 0 -1 0 0 -1 0 0 -1 0 0 -1 0 0 -1 0 0 -1 0 0 -1 0 0 -1 0 0 -1 0 0 -1 0 0 0 1 0.09801698 0 0.9951848 0.09801599 0 0.9951849 0.09801698 0 0.9951848 0 0 1 0 0 1 -1 0 0 -1 0 0 -1 0 0 -1 0 0 -1 0 0 -1 0 0 0 0 -1 0 0 -1 0 0 -1 0 0 -1 0 0 -1 0 0 -1 0.997865 0 0.06531 1 0 0 0.9914325 0 0.1306201 1 0 0 0.997865 0 0.06531 1 0 0 0 -1 0 0 -1 0 0 -1 0 0 -1 0 0 -1 0 0 -1 0 0 -1 0 0 -1 0 0 -1 0 0.9471734 0 0.3207221 0.9914325 0 0.1306201 0.8965379 0 0.4429669 0.9914325 0 0.1306201 0.9471734 0 0.3207221 0.997865 0 0.06531 0.7523401 0 0.658775 0.8965379 0 0.4429669 0.658776 0 0.7523391 0.8965379 0 0.4429669 0.7523401 0 0.658775 0.9471734 0 0.3207221 0.4429682 0 0.8965373 0.658776 0 0.7523391 0.3207209 0 0.9471738 0.658776 0 0.7523391 0.4429682 0 0.8965373 0.7523401 0 0.658775 0.09801698 0 0.9951848 0.3207209 0 0.9471738 0.09801599 0 0.9951849 0.3207209 0 0.9471738 0.09801698 0 0.9951848 0.4429682 0 0.8965373 0 -1 0 0 -1 0 0 -1 0 0 -1 0 0 -1 0 0 -1 0 0 -1 0 0 -1 0 0 -1 0 0 -1 0 0 -1 0 0 -1 0 0 -1 0 0 -1 0 0 -1 0 0 -1 0 0 -1 0 0 -1 0 0 -1 0 0 -1 0 0 -1 0 0 -1 0 0 -1 0 0 -1 0 0 -1 0 0 -1 0 0 -1 0 0 -1 0 0 -1 0 0 -1 0 0 -1 0 0 -1 0 0 -1 0 -1 0 0 -1 0 0 -1 0 0 -1 0 0 -1 0 0 -1 0 0 0 0 1 0 0 1 0 0 1 0 0 1 0 0 1 0 0 1 0 -1 0 0 -1 0 0 -1 0 0 -1 0 0 -1 0 0 -1 0 0 -1 0 0 -1 0 0 -1 0 0 -1 0 0 -1 0 0 -1 0 1 0 0 1 0 0 1 0 0 1 0 0 1 0 0 1 0 0 0 0 1 0 0 1 0 0 1 0 0 1 0 0 1 0 0 1 -1 0 0 -1 0 0 -1 0 0 -1 0 0 -1 0 0 -1 0 0 0 0 -1 0 0 -1 0 0 -1 0 0 -1 0 0 -1 0 0 -1 0 -1 0 0 -1 0 0 -1 0 0 -1 0 0 -1 0 0 -1 0 0 -1 0 0 -1 0 0 -1 0 0 -1 0 0 -1 0 0 -1 0 0 -1 0 0 -1 0 0 -1 0 0 -1 0 0 -1 0 0 -1 0 0 -1 0 0 -1 0 0 -1 0 0 -1 0 0 -1 0 0 -1 0 -1 0 0 -0.9951847 0 0.09801796 -0.9951847 0 0.09801796 -0.9951847 0 0.09801796 -1 0 0 -1 0 0 0 0 -1 0 0 -1 0 0 -1 0 0 -1 0 0 -1 0 0 -1 1 0 0 1 0 0 1 0 0 1 0 0 1 0 0 1 0 0 -0.1306201 0 0.9914325 -0.06531 0 0.997865 0 0 1 0 0 1 -0.06531 0 0.997865 0 0 1 0 -1 0 0 -1 0 0 -1 0 0 -1 0 0 -1 0 0 -1 0 0 -1 0 0 -1 0 0 -1 0 -0.320723 0 0.9471731 -0.1306201 0 0.9914325 -0.4429682 0 0.8965373 -0.1306201 0 0.9914325 -0.320723 0 0.9471731 -0.06531 0 0.997865 -0.658776 0 0.7523391 -0.4429682 0 0.8965373 -0.7523397 0 0.6587755 -0.4429682 0 0.8965373 -0.658776 0 0.7523391 -0.320723 0 0.9471731 -0.9471734 0 0.3207221 -0.8965379 0 0.4429669 -0.7523397 0 0.6587755 -0.658776 0 0.7523391 -0.7523397 0 0.6587755 -0.8965379 0 0.4429669 -0.9951847 0 0.09801796 -0.9951847 0 0.09801796 -0.9471734 0 0.3207221 -0.8965379 0 0.4429669 -0.9471734 0 0.3207221 -0.9951847 0 0.09801796 0 -1 0 0 -1 0 0 -1 0 0 -1 0 0 -1 0 0 -1 0 0 -1 0 0 -1 0 0 -1 0 0 -1 0 0 -1 0 0 -1 0 0 -1 0 0 -1 0 0 -1 0 0 -1 0 0 -1 0 0 -1 0 0 -1 0 0 -1 0 0 -1 0 0 -1 0 0 -1 0 0 -1 0 0 -1 0 0 -1 0 0 -1 0 0 -1 0 0 -1 0 0 -1 0 0 -1 0 0 -1 0 0 -1 0 0 0 -1 0 0 -1 0 0 -1 0 0 -1 0 0 -1 0 0 -1 -1 0 0 -1 0 0 -1 0 0 -1 0 0 -1 0 0 -1 0 0 0 -1 0 0 -1 0 0 -1 0 0 -1 0 0 -1 0 0 -1 0 0 -1 0 0 -1 0 0 -1 0 0 -1 0 0 -1 0 0 -1 0 0 0 1 0 0 1 0 0 1 0 0 1 0 0 1 0 0 1 -1 0 0 -1 0 0 -1 0 0 -1 0 0 -1 0 0 -1 0 0 0 0 -1 0 0 -1 0 0 -1 0 0 -1 0 0 -1 0 0 -1 1 0 0 1 0 0 1 0 0 1 0 0 1 0 0 1 0 0 0 -1 0 0 -1 0 0 -1 0 0 -1 0 0 -1 0 0 -1 0 0 -1 0 0 -1 0 0 -1 0 0 -1 0 0 -1 0 0 -1 0 0 -1 0 0 -1 0 0 -1 0 0 -1 0 0 -1 0 0 -1 0 0 -1 0 0 -1 0 0 -1 0 0 -1 0 0 -1 0 0 -1 0 0 0 -1 0 0 -1 -0.09801796 0 -0.9951847 -0.09801796 0 -0.9951847 -0.09801796 0 -0.9951847 0 0 -1 1 0 0 1 0 0 1 0 0 1 0 0 1 0 0 1 0 0 0 0 1 0 0 1 0 0 1 0 0 1 0 0 1 0 0 1 -0.9914325 0 -0.1306201 -0.997865 0 -0.06531 -1 0 0 -1 0 0 -1 0 0 -0.997865 0 -0.06531 0 -1 0 0 -1 0 0 -1 0 0 -1 0 0 -1 0 0 -1 0 0 -1 0 0 -1 0 0 -1 0 -0.8965383 0 -0.4429662 -0.9471734 0 -0.3207221 -0.9914325 0 -0.1306201 -0.997865 0 -0.06531 -0.9914325 0 -0.1306201 -0.9471734 0 -0.3207221 -0.658775 0 -0.7523401 -0.7523401 0 -0.658775 -0.8965383 0 -0.4429662 -0.9471734 0 -0.3207221 -0.8965383 0 -0.4429662 -0.7523401 0 -0.658775 -0.7523401 0 -0.658775 -0.658775 0 -0.7523401 -0.4429662 0 -0.8965383 -0.4429662 0 -0.8965383 -0.658775 0 -0.7523401 -0.3207221 0 -0.9471734 -0.4429662 0 -0.8965383 -0.3207221 0 -0.9471734 -0.09801796 0 -0.9951847 -0.09801796 0 -0.9951847 -0.3207221 0 -0.9471734 -0.09801796 0 -0.9951847 0 -1 0 0 -1 0 0 -1 0 0 -1 0 0 -1 0 0 -1 0 0 -1 0 0 -1 0 0 -1 0 0 -1 0 0 -1 0 0 -1 0 0 -1 0 0 -1 0 0 -1 0 0 -1 0 0 -1 0 0 -1 0 0 -1 0 0 -1 0 0 -1 0 0 -1 0 0 -1 0 0 -1 0 0 -1 0 0 -1 0 0 -1 0 0 -1 0 0 -1 0 0 -1 0 0 -1 0 0 -1 0 0 -1 0 1 0 0 1 0 0 1 0 0 1 0 0 1 0 0 1 0 0 0 0 -1 0 0 -1 0 0 -1 0 0 -1 0 0 -1 0 0 -1 0 -1 0 0 -1 0 0 -1 0 0 -1 0 0 -1 0 0 -1 0 0 -1 0 0 -1 0 0 -1 0 0 -1 0 0 -1 0 0 -1 0 -1 0 0 -1 0 0 -1 0 0 -1 0 0 -1 0 0 -1 0 0 0 0 -1 0 0 -1 0 0 -1 0 0 -1 0 0 -1 0 0 -1 1 0 0 1 0 0 1 0 0 1 0 0 1 0 0 1 0 0 0 0 1 0 0 1 0 0 1 0 0 1 0 0 1 0 0 1 0 -1 0 0 -1 0 0 -1 0 0 -1 0 0 -1 0 0 -1 0 0 -1 0 0 -1 0 0 -1 0 0 -1 0 0 -1 0 0 -1 0 0 -1 0 0 -1 0 0 -1 0 0 -1 0 0 -1 0 0 -1 0 0 -1 0 0 -1 0 0 -1 0 0 -1 0 0 -1 0 0 -1 0 1 0 0 1 0 0 0.9951847 0 -0.09801796 1 0 0 0.9951847 0 -0.09801796 0.9951847 0 -0.09801796 0 0 1 0 0 1 0 0 1 0 0 1 0 0 1 0 0 1 -1 0 0 -1 0 0 -1 0 0 -1 0 0 -1 0 0 -1 0 0 0 0 -1 0 0 -1 0.06531 0 -0.997865 0.06531 0 -0.997865 0 0 -1 0.1306201 0 -0.9914325 0 -1 0 0 -1 0 0 -1 0 0 -1 0 0 -1 0 0 -1 0 0 -1 0 0 -1 0 0 -1 0 0.06531 0 -0.997865 0.1306201 0 -0.9914325 0.3207221 0 -0.9471734 0.3207221 0 -0.9471734 0.1306201 0 -0.9914325 0.4429662 0 -0.8965383 0.3207221 0 -0.9471734 0.4429662 0 -0.8965383 0.658775 0 -0.7523401 0.658775 0 -0.7523401 0.4429662 0 -0.8965383 0.7523401 0 -0.658775 0.8965383 0 -0.4429662 0.7523401 0 -0.658775 0.9471734 0 -0.3207221 0.7523401 0 -0.658775 0.8965383 0 -0.4429662 0.658775 0 -0.7523401 0.9951847 0 -0.09801796 0.9471734 0 -0.3207221 0.9951847 0 -0.09801796 0.9471734 0 -0.3207221 0.9951847 0 -0.09801796 0.8965383 0 -0.4429662 0 -1 0 0 -1 0 0 -1 0 0 -1 0 0 -1 0 0 -1 0 0 -1 0 0 -1 0 0 -1 0 0 -1 0 0 -1 0 0 -1 0 0 -1 0 0 -1 0 0 -1 0 0 -1 0 0 -1 0 0 -1 0 0 -1 0 0 -1 0 0 -1 0</float_array>
          <technique_common>
            <accessor source="#polySurface107Shape-normals-array" count="1368" stride="3">
              <param name="X" type="float"/>
              <param name="Y" type="float"/>
              <param name="Z" type="float"/>
            </accessor>
          </technique_common>
        </source>
        <source id="polySurface107Shape-polySurface107Shape-UVSet0" name="polySurface107Shape-polySurface107Shape-UVSet0">
          <float_array id="polySurface107Shape-polySurface107Shape-UVSet0-array" count="1044">0.301171 0.824633 0.294927 0.864052 0.275394 0.857705 0.280632 0.824633 0.294927 0.785215 0.275394 0.791561 0.276808 0.749655 0.260193 0.761726 0.248588 0.721434 0.236516 0.73805 0.206681 0.722848 0.213028 0.703315 0.173609 0.697072 0.173609 0.71761 0.134191 0.703315 0.140538 0.722848 0.098631 0.721434 0.110703 0.73805 0.070411 0.749655 0.087026 0.761726 0.052292 0.785215 0.071825 0.791561 0.046049 0.824633 0.066587 0.824633 0.052292 0.864051 0.071825 0.857705 0.070411 0.899612 0.087026 0.88754 0.098631 0.927832 0.110703 0.911217 0.134191 0.945951 0.140538 0.926418 0.173609 0.952194 0.173609 0.931656 0.213028 0.945951 0.206681 0.926418 0.248588 0.927832 0.236516 0.911217 0.276809 0.899612 0.260193 0.88754 0.265031 0.854338 0.269736 0.824633 0.265031 0.794928 0.251377 0.768132 0.230111 0.746865 0.203314 0.733212 0.173609 0.728507 0.143905 0.733212 0.117108 0.746865 0.095842 0.768132 0.082188 0.794928 0.077483 0.824633 0.082188 0.854338 0.095842 0.881135 0.117108 0.902401 0.143905 0.916055 0.173609 0.92076 0.203314 0.916055 0.230111 0.902401 0.251377 0.881135 0.393872 0.004983 0.447755 0.004983 0.447755 0.107502 0.393873 0.107502 0.33999 0.004983 0.33999 0.107502 0.291381 0.004983 0.291382 0.107502 0.252806 0.004983 0.252806 0.107502 0.204197 0.004983 0.204197 0.107502 0.150315 0.004983 0.150315 0.107502 0.096432 0.004983 0.096432 0.107502 0.047824 0.004983 0.047824 0.107502 0.009248 0.004983 0.009248 0.107502 0.934871 0.004986 0.98348 0.004986 0.983479 0.107506 0.93487 0.107505 0.880989 0.004985 0.880988 0.107505 0.827106 0.004985 0.827105 0.107504 0.778497 0.004984 0.778496 0.107504 0.739921 0.004984 0.73992 0.107503 0.691313 0.004983 0.691313 0.107503 0.63743 0.004983 0.63743 0.107503 0.583547 0.107503 0.583547 0.004983 0.534939 0.004983 0.534939 0.107502 0.496363 0.004983 0.496363 0.107502 0.044797 0.313662 0.044798 0.345745 0.012239 0.345746 0.012239 0.313663 0.044797 0.28472 0.012238 0.284721 0.044796 0.261751 0.012238 0.261752 0.044796 0.23281 0.012238 0.23281 0.044797 0.200727 0.012239 0.200727 0.044797 0.168644 0.012239 0.168644 0.044797 0.139702 0.012239 0.139702 0.044797 0.116733 0.012239 0.116733 0.044807 0.667866 0.044807 0.696808 0.012248 0.696808 0.012248 0.667866 0.044807 0.635783 0.012248 0.635783 0.044807 0.6037 0.012248 0.6037 0.044807 0.574758 0.012248 0.574758 0.044807 0.551789 0.012248 0.55179 0.044805 0.522846 0.012247 0.522848 0.044803 0.490763 0.012245 0.490765 0.044801 0.45868 0.012243 0.458682 0.0448 0.429739 0.012241 0.42974 0.044799 0.40677 0.012241 0.406771 0.044799 0.377828 0.01224 0.377829 0.214821 0.69471 0.172455 0.687999 0.172455 0.653953 0.225341 0.66233 0.130089 0.69471 0.119568 0.66233 0.091871 0.714183 0.071858 0.686639 0.06154 0.744514 0.033996 0.724502 0.042067 0.782732 0.009687 0.772211 0.035357 0.825098 0.00131 0.825098 0.042067 0.867464 0.009687 0.877985 0.06154 0.905682 0.033996 0.925694 0.091871 0.936013 0.071858 0.963557 0.130089 0.955487 0.119568 0.987866 0.172455 0.962196 0.172455 0.996243 0.214821 0.955487 0.225341 0.987866 0.253039 0.936013 0.273051 0.963557 0.28337 0.905683 0.310914 0.925694 0.302843 0.867464 0.335223 0.877985 0.309553 0.825098 0.343599 0.825098 0.302843 0.782732 0.335223 0.772211 0.283369 0.744514 0.310914 0.724502 0.253039 0.714183 0.273051 0.686639 0.432927 0.922543 0.432927 0.948339 0.397071 0.948339 0.397072 0.922543 0.468782 0.922543 0.468782 0.948339 0.501129 0.922543 0.501129 0.948339 0.526798 0.922543 0.526798 0.948339 0.559142 0.922543 0.559144 0.948339 0.594998 0.922542 0.595 0.948338 0.630853 0.922541 0.630856 0.948337 0.663199 0.922541 0.663201 0.948337 0.688869 0.92254 0.688871 0.948336 0.721215 0.922539 0.721217 0.948335 0.757071 0.922539 0.757072 0.948335 0.792926 0.922538 0.792927 0.948334 0.825271 0.922538 0.825273 0.948334 0.85094 0.922537 0.850943 0.948333 0.883285 0.922536 0.88329 0.948332 0.919141 0.922535 0.919145 0.948331 0.954997 0.922533 0.955001 0.948329 0.987342 0.922532 0.987346 0.948328 0.364726 0.922543 0.364726 0.948339 0.339056 0.948339 0.339056 0.922543 0.500161 0.971931 0.660389 0.971931 0.640809 0.98841 0.519741 0.98841 0.820616 0.971932 0.801035 0.988411 0.679968 0.98841 0.980842 0.971937 0.820616 0.95487 0.980843 0.954874 0.660389 0.954868 0.961262 0.988415 0.840195 0.988412 0.480582 0.98841 0.359514 0.98841 0.339934 0.971931 0.058976 0.500516 0.17859 0.500516 0.17859 0.540113 0.058976 0.540113 0.058976 0.548422 0.17859 0.548423 0.17859 0.588019 0.058976 0.588019 0.058976 0.403049 0.17859 0.403043 0.17859 0.442639 0.058976 0.442645 0.058976 0.450868 0.17859 0.450861 0.17859 0.490458 0.058976 0.490464 0.053263 0.389062 0.053262 0.258237 0.079077 0.284053 0.079077 0.326743 0.184088 0.258237 0.158272 0.284053 0.184088 0.389063 0.158272 0.363248 0.115582 0.363248 0.195678 0.426336 0.344996 0.426336 0.344996 0.502956 0.195678 0.502956 0.344996 0.509002 0.344996 0.651141 0.195679 0.651141 0.195678 0.509002 0.344996 0.113911 0.344996 0.25605 0.195678 0.25605 0.195678 0.113911 0.344996 0.264112 0.344996 0.340731 0.195679 0.340731 0.195678 0.264112 0.113714 0.250659 0.051108 0.188053 0.051108 0.114839 0.186928 0.114839 0.186928 0.250659 0.344996 0.365804 0.195678 0.365804 0.344996 0.380007 0.195679 0.380007 0.344996 0.401263 0.195678 0.401263 0.081856 0.340713 0.089769 0.352556 0.101613 0.360469 0.089756 0.245893 0.069445 0.232322 0.055874 0.212011 0.500161 0.971931 0.660389 0.971931 0.640809 0.98841 0.519741 0.98841 0.820616 0.971932 0.801035 0.988411 0.679968 0.98841 0.980842 0.971937 0.820616 0.95487 0.980843 0.954874 0.660389 0.954868 0.961262 0.988415 0.840195 0.988412 0.480582 0.98841 0.359514 0.98841 0.339934 0.971931 0.058976 0.500516 0.17859 0.500516 0.17859 0.540113 0.058976 0.540113 0.058976 0.548422 0.17859 0.548423 0.17859 0.588019 0.058976 0.588019 0.058976 0.403049 0.17859 0.403043 0.17859 0.442639 0.058976 0.442645 0.058976 0.450868 0.17859 0.450861 0.17859 0.490458 0.058976 0.490464 0.053263 0.389062 0.053262 0.258237 0.079077 0.284053 0.079077 0.326743 0.184088 0.258237 0.158272 0.284053 0.184088 0.389063 0.158272 0.363248 0.115582 0.363248 0.195678 0.426336 0.344996 0.426336 0.344996 0.502956 0.195678 0.502956 0.344996 0.509002 0.344996 0.651141 0.195679 0.651141 0.195678 0.509002 0.344996 0.113911 0.344996 0.25605 0.195678 0.25605 0.195678 0.113911 0.344996 0.264112 0.344996 0.340731 0.195679 0.340731 0.195678 0.264112 0.113714 0.250659 0.051108 0.188053 0.051108 0.114839 0.186928 0.114839 0.186928 0.250659 0.344996 0.365804 0.195678 0.365804 0.344996 0.380007 0.195679 0.380007 0.344996 0.401263 0.195678 0.401263 0.081856 0.340713 0.089769 0.352556 0.101613 0.360469 0.089756 0.245893 0.069445 0.232322 0.055874 0.212011 0.500161 0.971931 0.660389 0.971931 0.640809 0.98841 0.519741 0.98841 0.820616 0.971932 0.801035 0.988411 0.679968 0.98841 0.980842 0.971937 0.820616 0.95487 0.980843 0.954874 0.660389 0.954868 0.961262 0.988415 0.840195 0.988412 0.480582 0.98841 0.359514 0.98841 0.339934 0.971931 0.058976 0.500516 0.17859 0.500516 0.17859 0.540113 0.058976 0.540113 0.058976 0.548422 0.17859 0.548423 0.17859 0.588019 0.058976 0.588019 0.058976 0.403049 0.17859 0.403043 0.17859 0.442639 0.058976 0.442645 0.058976 0.450868 0.17859 0.450861 0.17859 0.490458 0.058976 0.490464 0.053263 0.389062 0.053262 0.258237 0.079077 0.284053 0.079077 0.326743 0.184088 0.258237 0.158272 0.284053 0.184088 0.389063 0.158272 0.363248 0.115582 0.363248 0.195678 0.426336 0.344996 0.426336 0.344996 0.502956 0.195678 0.502956 0.344996 0.509002 0.344996 0.651141 0.195679 0.651141 0.195678 0.509002 0.344996 0.113911 0.344996 0.25605 0.195678 0.25605 0.195678 0.113911 0.344996 0.264112 0.344996 0.340731 0.195679 0.340731 0.195678 0.264112 0.113714 0.250659 0.051108 0.188053 0.051108 0.114839 0.186928 0.114839 0.186928 0.250659 0.344996 0.365804 0.195678 0.365804 0.344996 0.380007 0.195679 0.380007 0.344996 0.401263 0.195678 0.401263 0.081856 0.340713 0.089769 0.352556 0.101613 0.360469 0.089756 0.245893 0.069445 0.232322 0.055874 0.212011 0.500161 0.971931 0.660389 0.971931 0.640809 0.98841 0.519741 0.98841 0.820616 0.971932 0.801035 0.988411 0.679968 0.98841 0.980842 0.971937 0.820616 0.95487 0.980843 0.954874 0.660389 0.954868 0.961262 0.988415 0.840195 0.988412 0.480582 0.98841 0.359514 0.98841 0.339934 0.971931 0.058976 0.500516 0.17859 0.500516 0.17859 0.540113 0.058976 0.540113 0.058976 0.548422 0.17859 0.548423 0.17859 0.588019 0.058976 0.588019 0.058976 0.403049 0.17859 0.403043 0.17859 0.442639 0.058976 0.442645 0.058976 0.450868 0.17859 0.450861 0.17859 0.490458 0.058976 0.490464 0.053263 0.389062 0.053262 0.258237 0.079077 0.284053 0.079077 0.326743 0.184088 0.258237 0.158272 0.284053 0.184088 0.389063 0.158272 0.363248 0.115582 0.363248 0.195678 0.426336 0.344996 0.426336 0.344996 0.502956 0.195678 0.502956 0.344996 0.509002 0.344996 0.651141 0.195679 0.651141 0.195678 0.509002 0.344996 0.113911 0.344996 0.25605 0.195678 0.25605 0.195678 0.113911 0.344996 0.264112 0.344996 0.340731 0.195679 0.340731 0.195678 0.264112 0.113714 0.250659 0.051108 0.188053 0.051108 0.114839 0.186928 0.114839 0.186928 0.250659 0.344996 0.365804 0.195678 0.365804 0.344996 0.380007 0.195679 0.380007 0.344996 0.401263 0.195678 0.401263 0.081856 0.340713 0.089769 0.352556 0.101613 0.360469 0.089756 0.245893 0.069445 0.232322 0.055874 0.212011</float_array>
          <technique_common>
            <accessor source="#polySurface107Shape-polySurface107Shape-UVSet0-array" count="522" stride="2">
              <param name="S" type="float"/>
              <param name="T" type="float"/>
            </accessor>
          </technique_common>
        </source>
        <vertices id="polySurface107Shape-vertices" name="polySurface107Shape-vertices">
          <input semantic="POSITION" source="#polySurface107Shape-positions"/>
        </vertices>
        <triangles material="Core1_tesla_structure_pillar_core_02_tesla_structure_interior_01_tesla_structure_platform_01_tesla_structure_pillar_drum_01SG" count="456">
          <input semantic="VERTEX" source="#polySurface107Shape-vertices" offset="0"/>
          <input semantic="NORMAL" source="#polySurface107Shape-normals" offset="1"/>
          <input semantic="TEXCOORD" source="#polySurface107Shape-polySurface107Shape-UVSet0" offset="2" set="0"/>
          <p>1 0 0 0 1 1 20 2 2 1 3 0 20 4 2 21 5 3 22 6 5 1 7 0 21 8 3 1 9 0 22 10 5 2 11 4 22 12 5 23 13 7 3 14 6 3 15 6 2 16 4 22 17 5 24 18 9 3 19 6 23 20 7 3 21 6 24 22 9 4 23 8 24 24 9 5 25 11 4 26 8 5 27 11 24 28 9 25 29 10 25 30 10 6 31 12 5 32 11 6 33 12 25 34 10 26 35 13 6 36 12 27 37 15 7 38 14 27 39 15 6 40 12 26 41 13 28 42 17 7 43 14 27 44 15 7 45 14 28 46 17 8 47 16 28 48 17 29 49 19 9 50 18 9 51 18 8 52 16 28 53 17 10 54 20 29 55 19 30 56 21 29 57 19 10 58 20 9 59 18 31 60 23 10 61 20 30 62 21 10 63 20 31 64 23 11 65 22 31 66 23 12 67 24 11 68 22 12 69 24 31 70 23 32 71 25 12 72 24 33 73 27 13 74 26 33 75 27 12 76 24 32 77 25 13 78 26 34 79 29 14 80 28 34 81 29 13 82 26 33 83 27 34 84 29 35 85 31 15 86 30 15 87 30 14 88 28 34 89 29 35 90 31 36 91 33 16 92 32 16 93 32 15 94 30 35 95 31 37 96 35 16 97 32 36 98 33 16 99 32 37 100 35 17 101 34 17 102 34 38 103 37 18 104 36 38 105 37 17 106 34 37 107 35 38 108 37 19 109 38 18 110 36 19 111 38 38 112 37 39 113 39 0 114 1 19 115 38 39 116 39 0 117 1 39 118 39 20 119 2 56 120 41 20 121 2 55 122 40 20 123 2 56 124 41 21 125 3 56 126 41 57 127 42 22 128 5 22 129 5 21 130 3 56 131 41 57 132 42 58 133 43 23 134 7 23 135 7 22 136 5 57 137 42 59 138 44 23 139 7 58 140 43 23 141 7 59 142 44 24 143 9 24 144 9 40 145 45 25 146 10 40 147 45 24 148 9 59 149 44 25 150 10 41 151 46 26 152 13 41 153 46 25 154 10 40 155 45 27 156 15 26 157 13 41 158 46 27 159 15 41 160 46 42 161 47 42 162 47 43 163 48 28 164 17 28 165 17 27 166 15 42 167 47 44 168 49 28 169 17 43 170 48 28 171 17 44 172 49 29 173 19 45 174 50 29 175 19 44 176 49 29 177 19 45 178 50 30 179 21 46 180 51 30 181 21 45 182 50 30 183 21 46 184 51 31 185 23 46 186 51 32 187 25 31 188 23 32 189 25 46 190 51 47 191 52 47 192 52 33 193 27 32 194 25 33 195 27 47 196 52 48 197 53 34 198 29 33 199 27 48 200 53 34 201 29 48 202 53 49 203 54 35 204 31 49 205 54 50 206 55 49 207 54 35 208 31 34 209 29 51 210 56 35 211 31 50 212 55 35 213 31 51 214 56 36 215 33 37 216 35 51 217 56 52 218 57 51 219 56 37 220 35 36 221 33 37 222 35 53 223 58 38 224 37 53 225 58 37 226 35 52 227 57 38 228 37 54 229 59 39 230 39 54 231 59 38 232 37 53 233 58 39 234 39 55 235 40 20 236 2 55 237 40 39 238 39 54 239 59 82 240 62 81 241 60 80 242 61 81 243 60 82 244 62 83 245 63 81 246 60 83 247 63 84 248 64 84 249 64 83 250 63 85 251 65 84 252 64 85 253 65 86 254 66 86 255 66 85 256 65 87 257 67 87 258 67 88 259 68 86 260 66 88 261 68 87 262 67 89 263 69 88 264 68 91 265 71 90 266 70 91 267 71 88 268 68 89 269 69 91 270 71 92 271 72 90 272 70 92 273 72 91 274 71 93 275 73 92 276 72 95 277 75 94 278 74 95 279 75 92 280 72 93 281 73 95 282 75 96 283 76 94 284 74 96 285 76 95 286 75 97 287 77 97 288 77 98 289 78 96 290 76 98 291 78 97 292 77 99 293 79 101 294 83 98 295 81 99 296 82 98 297 81 101 298 83 100 299 80 103 300 85 102 301 84 101 302 83 101 303 83 102 304 84 100 305 80 105 306 87 104 307 86 103 308 85 103 309 85 104 310 86 102 311 84 107 312 89 106 313 88 105 314 87 105 315 87 106 316 88 104 317 86 109 318 91 106 319 88 107 320 89 106 321 88 109 322 91 108 323 90 108 324 90 109 325 91 110 326 92 111 327 93 110 328 92 109 329 91 110 330 92 111 331 93 112 332 94 113 333 95 112 334 94 111 335 93 115 336 96 114 337 97 112 338 94 115 339 96 112 340 94 113 341 95 114 342 97 115 343 96 116 344 98 117 345 99 116 346 98 115 347 96 116 348 98 117 349 99 118 350 100 118 351 100 117 352 99 119 353 101 118 354 100 119 355 101 80 356 61 80 357 61 119 358 101 82 359 62 11 360 104 61 361 102 60 362 103 61 363 102 11 364 104 12 365 105 12 366 105 62 367 106 61 368 102 62 369 106 12 370 105 13 371 107 13 372 107 63 373 108 62 374 106 63 375 108 13 376 107 14 377 109 14 378 109 15 379 111 64 380 110 14 381 109 64 382 110 63 383 108 15 384 111 16 385 113 65 386 112 15 387 111 65 388 112 64 389 110 16 390 113 17 391 115 66 392 114 16 393 113 66 394 114 65 395 112 17 396 115 18 397 117 67 398 116 17 399 115 67 400 116 66 401 114 19 402 119 68 403 118 18 404 117 68 405 118 67 406 116 18 407 117 0 408 123 69 409 120 19 410 122 69 411 120 68 412 121 19 413 122 1 414 125 70 415 124 0 416 123 70 417 124 69 418 120 0 419 123 2 420 127 71 421 126 1 422 125 71 423 126 70 424 124 1 425 125 3 426 129 72 427 128 2 428 127 72 429 128 71 430 126 2 431 127 4 432 131 73 433 130 3 434 129 73 435 130 72 436 128 3 437 129 73 438 130 4 439 131 74 440 132 74 441 132 4 442 131 5 443 133 74 444 132 5 445 133 75 446 134 75 447 134 5 448 133 6 449 135 75 450 134 6 451 135 76 452 136 76 453 136 6 454 135 7 455 137 7 456 137 77 457 138 76 458 136 77 459 138 7 460 137 8 461 139 8 462 139 78 463 140 77 464 138 78 465 140 8 466 139 9 467 141 9 468 141 79 469 142 78 470 140 79 471 142 9 472 141 10 473 143 79 474 142 10 475 143 11 476 104 79 477 142 11 478 104 60 479 103 82 480 147 75 481 145 83 482 146 75 483 145 82 484 147 74 485 144 85 486 149 83 487 146 75 488 145 85 489 149 75 490 145 76 491 148 77 492 150 85 493 149 76 494 148 85 495 149 77 496 150 87 497 151 78 498 152 87 499 151 77 500 150 87 501 151 78 502 152 89 503 153 79 504 154 89 505 153 78 506 152 89 507 153 79 508 154 91 509 155 60 510 156 91 511 155 79 512 154 91 513 155 60 514 156 93 515 157 61 516 158 93 517 157 60 518 156 93 519 157 61 520 158 95 521 159 97 522 161 95 523 159 61 524 158 97 525 161 61 526 158 62 527 160 99 528 163 97 529 161 62 530 160 99 531 163 62 532 160 63 533 162 101 534 165 63 535 162 64 536 164 63 537 162 101 538 165 99 539 163 65 540 166 101 541 165 64 542 164 101 543 165 65 544 166 103 545 167 65 546 166 66 547 168 105 548 169 65 549 166 105 550 169 103 551 167 105 552 169 66 553 168 107 554 171 66 555 168 67 556 170 107 557 171 107 558 171 68 559 172 109 560 173 68 561 172 107 562 171 67 563 170 109 564 173 69 565 174 111 566 175 69 567 174 109 568 173 68 569 172 69 570 174 113 571 177 111 572 175 113 573 177 69 574 174 70 575 176 115 576 179 70 577 176 71 578 178 70 579 176 115 580 179 113 581 177 117 582 181 71 583 178 72 584 180 71 585 178 117 586 181 115 587 179 72 588 180 73 589 182 119 590 183 72 591 180 119 592 183 117 593 181 119 594 183 74 595 144 82 596 147 74 597 144 119 598 183 73 599 182 40 600 186 121 601 184 41 602 185 121 603 184 40 604 186 120 605 187 41 606 185 122 607 188 42 608 189 122 609 188 41 610 185 121 611 184 42 612 189 123 613 190 43 614 191 123 615 190 42 616 189 122 617 188 43 618 191 123 619 190 124 620 192 43 621 191 124 622 192 44 623 193 44 624 193 124 625 192 125 626 194 44 627 193 125 628 194 45 629 195 45 630 195 125 631 194 126 632 196 45 633 195 126 634 196 46 635 197 46 636 197 126 637 196 127 638 198 46 639 197 127 640 198 47 641 199 47 642 199 127 643 198 128 644 200 47 645 199 128 646 200 48 647 201 48 648 201 128 649 200 129 650 202 48 651 201 129 652 202 49 653 203 129 654 202 130 655 204 49 656 203 130 657 204 50 658 205 49 659 203 130 660 204 131 661 206 50 662 205 131 663 206 51 664 207 50 665 205 131 666 206 132 667 208 51 668 207 132 669 208 52 670 209 51 671 207 132 672 208 133 673 210 52 674 209 133 675 210 53 676 211 52 677 209 134 678 212 54 679 213 53 680 211 134 681 212 53 682 211 133 683 210 54 684 213 135 685 214 55 686 215 135 687 214 54 688 213 134 689 212 55 690 215 136 691 216 56 692 217 136 693 216 55 694 215 135 695 214 57 696 219 56 697 217 137 698 218 137 699 218 56 700 217 136 701 216 57 702 219 138 703 220 58 704 221 138 705 220 57 706 219 137 707 218 58 708 224 139 709 222 59 710 223 139 711 222 58 712 224 138 713 225 59 714 223 120 715 187 40 716 186 120 717 187 59 718 223 139 719 222 143 720 226 141 721 227 150 722 228 143 723 226 150 724 228 149 725 229 141 726 227 140 727 230 147 728 231 141 729 227 147 730 231 150 731 232 144 732 234 145 733 235 142 734 233 144 735 234 142 736 233 140 737 230 146 738 236 144 739 234 140 740 230 140 741 230 141 742 227 146 743 236 147 744 238 142 745 233 148 746 237 140 747 230 142 748 233 147 749 238 142 750 241 143 751 226 148 752 240 148 753 240 143 754 226 149 755 239 148 756 243 151 757 245 147 758 242 151 759 245 148 760 243 152 761 244 153 762 248 152 763 249 148 764 246 148 765 246 149 766 247 153 767 248 154 768 252 153 769 253 149 770 250 154 771 252 149 772 250 150 773 251 151 774 256 150 775 254 147 776 255 150 777 254 151 778 256 154 779 257 152 780 259 165 781 261 151 782 258 165 783 261 152 784 259 155 785 260 152 786 259 153 787 262 156 788 263 152 789 259 156 790 263 155 791 260 153 792 262 154 793 264 157 794 265 153 795 262 157 796 265 156 797 263 154 798 264 151 799 258 164 800 266 154 801 264 164 802 266 157 803 265 155 804 269 170 805 267 165 806 268 170 807 267 155 808 269 158 809 270 158 810 274 155 811 271 159 812 273 155 813 271 156 814 272 159 815 273 160 816 277 159 817 278 156 818 275 160 819 277 156 820 275 157 821 276 166 822 281 157 823 279 164 824 280 157 825 279 166 826 281 160 827 282 159 828 286 170 829 284 158 830 285 170 831 284 159 832 286 166 833 283 166 834 283 159 835 286 160 836 287 167 837 289 164 838 280 163 839 288 164 840 280 167 841 289 166 842 281 168 843 291 163 844 288 162 845 290 163 846 288 168 847 291 167 848 289 169 849 293 162 850 290 161 851 292 162 852 290 169 853 293 168 854 291 170 855 267 161 856 292 165 857 268 161 858 292 170 859 267 169 860 293 151 861 258 165 862 261 161 863 294 151 864 258 161 865 294 162 866 295 151 867 258 162 868 295 163 869 296 151 870 258 163 871 296 164 872 266 167 873 297 169 874 299 166 875 283 169 876 299 167 877 297 168 878 298 170 879 284 166 880 283 169 881 299 143 882 300 142 883 301 178 884 302 143 885 300 178 886 302 177 887 303 175 888 305 142 889 301 171 890 304 142 891 301 175 892 305 178 893 306 173 894 308 172 895 307 171 896 304 172 897 307 173 898 308 174 899 309 145 900 310 173 901 308 171 902 304 145 903 310 171 904 304 142 905 301 171 906 304 172 907 307 175 908 312 175 909 312 172 910 307 176 911 311 143 912 300 176 913 314 172 914 315 176 915 314 143 916 300 177 917 313 179 918 319 176 919 317 180 920 318 176 921 317 179 922 319 175 923 316 181 924 322 180 925 323 176 926 320 181 927 322 176 928 320 177 929 321 182 930 326 177 931 324 178 932 325 177 933 324 182 934 326 181 935 327 178 936 328 175 937 329 179 938 330 178 939 328 179 940 330 182 941 331 180 942 333 193 943 335 179 944 332 193 945 335 180 946 333 183 947 334 180 948 333 181 949 336 184 950 337 180 951 333 184 952 337 183 953 334 181 954 336 182 955 338 185 956 339 181 957 336 185 958 339 184 959 337 182 960 338 179 961 332 192 962 340 182 963 338 192 964 340 185 965 339 183 966 343 198 967 341 193 968 342 198 969 341 183 970 343 186 971 344 187 972 347 186 973 348 183 974 345 187 975 347 183 976 345 184 977 346 188 978 351 184 979 349 185 980 350 184 981 349 188 982 351 187 983 352 192 984 354 194 985 355 185 986 353 185 987 353 194 988 355 188 989 356 187 990 360 198 991 358 186 992 359 198 993 358 187 994 360 194 995 357 187 996 360 188 997 361 194 998 357 195 999 363 192 1000 354 191 1001 362 192 1002 354 195 1003 363 194 1004 355 196 1005 365 191 1006 362 190 1007 364 191 1008 362 196 1009 365 195 1010 363 189 1011 366 197 1012 367 190 1013 364 196 1014 365 190 1015 364 197 1016 367 193 1017 342 198 1018 341 189 1019 366 197 1020 367 189 1021 366 198 1022 341 179 1023 332 193 1024 335 189 1025 368 179 1026 332 189 1027 368 190 1028 369 179 1029 332 190 1030 369 191 1031 370 179 1032 332 191 1033 370 192 1034 340 197 1035 373 195 1036 371 196 1037 372 195 1038 371 197 1039 373 194 1040 357 198 1041 358 194 1042 357 197 1043 373 206 1044 376 143 1045 374 172 1046 375 143 1047 374 206 1048 376 205 1049 377 172 1050 375 199 1051 378 203 1052 379 172 1053 375 203 1054 379 206 1055 380 200 1056 381 199 1057 378 201 1058 382 200 1059 381 201 1060 382 202 1061 383 174 1062 384 199 1063 378 172 1064 375 199 1065 378 174 1066 384 201 1067 382 200 1068 381 203 1069 386 199 1070 378 203 1071 386 200 1072 381 204 1073 385 204 1074 388 143 1075 374 205 1076 387 200 1077 389 143 1078 374 204 1079 388 207 1080 393 204 1081 391 208 1082 392 204 1083 391 207 1084 393 203 1085 390 209 1086 396 204 1087 394 205 1088 395 204 1089 394 209 1090 396 208 1091 397 205 1092 398 206 1093 399 210 1094 400 205 1095 398 210 1096 400 209 1097 401 207 1098 404 210 1099 405 206 1100 402 206 1101 402 203 1102 403 207 1103 404 208 1104 407 221 1105 409 207 1106 406 221 1107 409 208 1108 407 211 1109 408 208 1110 407 209 1111 410 212 1112 411 208 1113 407 212 1114 411 211 1115 408 209 1116 410 210 1117 412 213 1118 413 209 1119 410 213 1120 413 212 1121 411 210 1122 412 207 1123 406 220 1124 414 210 1125 412 220 1126 414 213 1127 413 211 1128 417 214 1129 418 226 1130 415 226 1131 415 221 1132 416 211 1133 417 215 1134 421 211 1135 419 212 1136 420 211 1137 419 215 1138 421 214 1139 422 213 1140 424 216 1141 425 212 1142 423 212 1143 423 216 1144 425 215 1145 426 220 1146 428 222 1147 429 213 1148 427 216 1149 430 213 1150 427 222 1151 429 226 1152 432 215 1153 434 222 1154 431 215 1155 434 216 1156 435 222 1157 431 215 1158 434 226 1159 432 214 1160 433 219 1161 436 223 1162 437 220 1163 428 222 1164 429 220 1165 428 223 1166 437 218 1167 438 224 1168 439 219 1169 436 223 1170 437 219 1171 436 224 1172 439 224 1173 439 218 1174 438 225 1175 441 225 1176 441 218 1177 438 217 1178 440 225 1179 441 217 1180 440 226 1181 415 226 1182 415 217 1183 440 221 1184 416 207 1185 406 221 1186 409 217 1187 442 207 1188 406 217 1189 442 218 1190 443 207 1191 406 218 1192 443 219 1193 444 207 1194 406 219 1195 444 220 1196 414 226 1197 432 222 1198 431 225 1199 447 223 1200 445 225 1201 447 222 1202 431 225 1203 447 223 1204 445 224 1205 446 143 1206 448 200 1207 449 232 1208 450 143 1209 448 232 1210 450 231 1211 451 200 1212 449 227 1213 452 229 1214 453 200 1215 449 229 1216 453 232 1217 454 228 1218 456 146 1219 457 141 1220 455 141 1221 455 227 1222 452 228 1223 456 202 1224 458 227 1225 452 200 1226 449 227 1227 452 202 1228 458 228 1229 456 229 1230 460 141 1231 455 230 1232 459 227 1233 452 141 1234 455 229 1235 460 230 1236 462 143 1237 448 231 1238 461 141 1239 463 143 1240 448 230 1241 462 230 1242 465 233 1243 467 229 1244 464 233 1245 467 230 1246 465 234 1247 466 230 1248 468 231 1249 469 235 1250 470 230 1251 468 235 1252 470 234 1253 471 236 1254 474 235 1255 475 231 1256 472 231 1257 472 232 1258 473 236 1259 474 233 1260 478 236 1261 479 232 1262 476 233 1263 478 232 1264 476 229 1265 477 234 1266 481 247 1267 483 233 1268 480 247 1269 483 234 1270 481 237 1271 482 234 1272 481 235 1273 484 238 1274 485 234 1275 481 238 1276 485 237 1277 482 235 1278 484 236 1279 486 239 1280 487 235 1281 484 239 1282 487 238 1283 485 236 1284 486 233 1285 480 246 1286 488 236 1287 486 246 1288 488 239 1289 487 237 1290 491 240 1291 492 252 1292 489 237 1293 491 252 1294 489 247 1295 490 241 1296 495 237 1297 493 238 1298 494 237 1299 493 241 1300 495 240 1301 496 241 1302 500 238 1303 497 242 1304 499 238 1305 497 239 1306 498 242 1307 499 242 1308 504 239 1309 501 248 1310 503 248 1311 503 239 1312 501 246 1313 502 241 1314 508 252 1315 506 240 1316 507 248 1317 505 241 1318 508 242 1319 509 252 1320 506 241 1321 508 248 1322 505 248 1323 503 246 1324 502 249 1325 511 249 1326 511 246 1327 502 245 1328 510 249 1329 511 245 1330 510 250 1331 513 250 1332 513 245 1333 510 244 1334 512 251 1335 515 244 1336 512 243 1337 514 244 1338 512 251 1339 515 250 1340 513 252 1341 489 243 1342 514 247 1343 490 243 1344 514 252 1345 489 251 1346 515 233 1347 480 247 1348 483 243 1349 516 233 1350 480 243 1351 516 244 1352 517 233 1353 480 244 1354 517 245 1355 518 233 1356 480 245 1357 518 246 1358 488 249 1359 519 251 1360 521 248 1361 505 251 1362 521 249 1363 519 250 1364 520 252 1365 506 248 1366 505 251 1367 521</p>
        </triangles>
      </mesh>
      <extra>
        <technique profile="OpenCOLLADAMaya">
          <originalMayaNodeId>polySurface107Shape</originalMayaNodeId>
          <double_sided>1</double_sided>
        </technique>
      </extra>
    </geometry>
  </library_geometries>
  <library_visual_scenes>
    <visual_scene id="VisualSceneNode" name="tesla_props_giant_fuse_01_light_off">
      <node id="polySurface97" name="polySurface97" type="NODE">
        <matrix sid="transform">1 0 0 0 0 1 0 0 0 0 1 0 0 0 0 1</matrix>
        <instance_geometry url="#polySurface97Shape">
          <bind_material>
            <technique_common>
              <instance_material symbol="off1SG" target="#off1">
                <bind_vertex_input semantic="TEX0" input_semantic="TEXCOORD" input_set="0"/>
              </instance_material>
            </technique_common>
          </bind_material>
        </instance_geometry>
        <extra>
          <technique profile="OpenCOLLADAMaya">
            <originalMayaNodeId>polySurface97</originalMayaNodeId>
          </technique>
        </extra>
      </node>
      <node id="polySurface107" name="polySurface107" type="NODE">
        <matrix sid="transform">1 0 0 0 0 1 0 0 0 0 1 0 0 0 0 1</matrix>
        <instance_geometry url="#polySurface107Shape">
          <bind_material>
            <technique_common>
              <instance_material symbol="Core1_tesla_structure_pillar_core_02_tesla_structure_interior_01_tesla_structure_platform_01_tesla_structure_pillar_drum_01SG" target="#Core1_tesla_structure_pillar_core_02_tesla_structure_interior_01_tesla_structure_platform_01_tesla_structure_pillar_drum_01">
                <bind_vertex_input semantic="TEX0" input_semantic="TEXCOORD" input_set="0"/>
              </instance_material>
            </technique_common>
          </bind_material>
        </instance_geometry>
        <extra>
          <technique profile="OpenCOLLADAMaya">
            <originalMayaNodeId>polySurface107</originalMayaNodeId>
          </technique>
        </extra>
      </node>
    </visual_scene>
  </library_visual_scenes>
  <scene>
    <instance_visual_scene url="#VisualSceneNode"/>
  </scene>
</COLLADA>