<?xml version="1.0" encoding="utf-8"?>
<COLLADA xmlns="http://www.collada.org/2005/11/COLLADASchema" version="1.4.1">
  <asset>
    <contributor>
      <author></author>
      <authoring_tool>FBX COLLADA exporter</authoring_tool>
      <comments></comments>
    </contributor>
    <created>2012-02-23T18:15:09Z</created>
    <keywords></keywords>
    <modified>2012-02-23T18:15:09Z</modified>
    <revision></revision>
    <subject></subject>
    <title></title>
    <unit meter="1.000000" name="centimeter"></unit>
    <up_axis>Y_UP</up_axis>
  </asset>
  <library_images>
    <image id="Map #11-image" name="Map #11">
      <init_from>file://C:\Users\WesleyTack\Desktop\amnesia_raw\StaticObjects\factorybase\factory_corridor.jpg</init_from>
    </image>
    <image id="Map #10-image" name="Map #10">
      <init_from>file://C:\Users\WesleyTack\Desktop\amnesia_raw\StaticObjects\factorybase\factory_corridor_01.jpg</init_from>
    </image>
  </library_images>
  <library_materials>
    <material id="factory_corridor" name="factory_corridor">
      <instance_effect url="#factory_corridor-fx"/>
    </material>
    <material id="factory_corridor_01" name="factory_corridor_01">
      <instance_effect url="#factory_corridor_01-fx"/>
    </material>
  </library_materials>
  <library_effects>
    <effect id="factory_corridor-fx" name="factory_corridor">
      <profile_COMMON>
        <technique sid="standard">
          <phong>
            <emission>
              <color sid="emission">0.000000  0.000000 0.000000 1.000000</color>
            </emission>
            <ambient>
              <color sid="ambient">0.588235  0.588235 0.588235 1.000000</color>
            </ambient>
            <diffuse>
              <texture texture="Map #11-image" texcoord="CHANNEL0">
                <extra>
                  <technique profile="MAYA">
                    <wrapU sid="wrapU0">TRUE</wrapU>
                    <wrapV sid="wrapV0">TRUE</wrapV>
                    <blend_mode>ADD</blend_mode>
                  </technique>
                </extra>
              </texture>
            </diffuse>
            <specular>
              <color sid="specular">0.000000  0.000000 0.000000 1.000000</color>
            </specular>
            <shininess>
              <float sid="shininess">2.000000</float>
            </shininess>
            <reflective>
              <color sid="reflective">0.000000  0.000000 0.000000 1.000000</color>
            </reflective>
            <reflectivity>
              <float sid="reflectivity">1.000000</float>
            </reflectivity>
            <transparent opaque="RGB_ZERO">
              <color sid="transparent">1.000000  1.000000 1.000000 1.000000</color>
            </transparent>
            <transparency>
              <float sid="transparency">0.000000</float>
            </transparency>
          </phong>
        </technique>
      </profile_COMMON>
    </effect>
    <effect id="factory_corridor_01-fx" name="factory_corridor_01">
      <profile_COMMON>
        <technique sid="standard">
          <phong>
            <emission>
              <color sid="emission">0.000000  0.000000 0.000000 1.000000</color>
            </emission>
            <ambient>
              <color sid="ambient">0.588235  0.588235 0.588235 1.000000</color>
            </ambient>
            <diffuse>
              <texture texture="Map #10-image" texcoord="CHANNEL0">
                <extra>
                  <technique profile="MAYA">
                    <wrapU sid="wrapU0">TRUE</wrapU>
                    <wrapV sid="wrapV0">TRUE</wrapV>
                    <blend_mode>ADD</blend_mode>
                  </technique>
                </extra>
              </texture>
            </diffuse>
            <specular>
              <color sid="specular">0.000000  0.000000 0.000000 1.000000</color>
            </specular>
            <shininess>
              <float sid="shininess">2.000000</float>
            </shininess>
            <reflective>
              <color sid="reflective">0.000000  0.000000 0.000000 1.000000</color>
            </reflective>
            <reflectivity>
              <float sid="reflectivity">1.000000</float>
            </reflectivity>
            <transparent opaque="RGB_ZERO">
              <color sid="transparent">1.000000  1.000000 1.000000 1.000000</color>
            </transparent>
            <transparency>
              <float sid="transparency">0.000000</float>
            </transparency>
          </phong>
        </technique>
      </profile_COMMON>
    </effect>
  </library_effects>
  <library_geometries>
    <geometry id="Object038-lib" name="Object038Mesh">
      <mesh>
        <source id="Object038-POSITION">
          <float_array id="Object038-POSITION-array" count="120">
2.000000 -0.000013 4.000000
-2.000000 -0.000011 4.000000
1.035940 -0.000012 4.000000
-1.116308 -0.000012 4.000000
2.000000 -0.000013 0.000000
2.000000 -0.000013 3.196306
-2.000000 -0.000011 3.196306
-2.000000 -0.000012 0.000000
-2.000000 -0.000011 2.717738
-2.000000 -0.000011 2.200127
-2.000000 -0.000011 1.108375
-0.926052 -0.000012 2.717738
2.000000 -0.000013 1.108375
2.000000 -0.000013 2.200127
2.000000 -0.000013 2.717737
0.965130 -0.000012 1.108375
0.985798 -0.000012 2.200127
0.898002 0.048615 2.717737
0.965130 -0.000012 0.000000
0.895599 0.049988 3.219987
0.968091 -0.000012 3.299584
1.030949 -0.000012 2.717737
-0.845067 -0.000012 3.262994
-0.787429 0.049988 3.204851
-0.825219 0.049494 2.717738
0.950650 -0.000012 3.170243
-0.865567 -0.000012 3.146775
-0.780700 0.215258 3.196306
0.861068 0.215258 3.196306
-0.780700 0.215258 2.717737
0.861068 0.215258 2.717738
-0.888134 -0.000012 1.108375
-0.910183 -0.000012 2.200127
-0.888134 -0.000012 0.000000
0.903194 -0.000012 2.120171
-0.784063 -0.000012 2.120171
0.903569 0.048195 2.200127
-0.813256 0.049494 2.200127
0.861068 0.215258 2.200127
-0.780700 0.215258 2.200127
</float_array>
          <technique_common>
            <accessor source="#Object038-POSITION-array" count="40" stride="3">
              <param name="X" type="float"/>
              <param name="Y" type="float"/>
              <param name="Z" type="float"/>
            </accessor>
          </technique_common>
        </source>
        <source id="Object038-Normal0">
          <float_array id="Object038-Normal0-array" count="468">
-0.000000 -1.000000 0.000000
0.160730 -0.984445 0.070946
0.218776 -0.975758 -0.005785
0.218776 -0.975758 -0.005785
-0.000000 -1.000000 0.000000
-0.000000 -1.000000 0.000000
-0.000000 -1.000000 0.000000
-0.202258 -0.976039 0.080242
-0.000000 -1.000000 0.000000
-0.000000 -1.000000 0.000000
-0.000000 -1.000000 0.000000
-0.000000 -1.000000 0.000000
-0.000000 -1.000000 0.000000
-0.364880 -0.930977 0.012025
-0.165202 -0.986172 -0.013159
-0.165202 -0.986172 -0.013159
-0.000000 -1.000000 0.000000
-0.000000 -1.000000 0.000000
0.774396 -0.632687 -0.004239
0.967496 -0.252727 0.008922
0.994033 -0.090303 -0.061191
0.994033 -0.090303 -0.061191
0.829046 -0.551285 -0.093636
0.774396 -0.632687 -0.004239
-0.000000 -1.000000 0.000000
-0.000000 -1.000000 0.000000
-0.000000 -1.000000 0.000000
-0.000000 -1.000000 0.000000
-0.000000 -1.000000 0.000000
-0.000000 -1.000000 0.000000
-0.000000 -1.000000 0.000000
-0.000000 -1.000000 0.000000
0.160730 -0.984445 0.070946
0.160730 -0.984445 0.070946
-0.000000 -1.000000 0.000000
-0.000000 -1.000000 0.000000
-0.000000 -1.000000 0.000000
0.177044 -0.983707 -0.031230
-0.000000 -1.000000 0.000000
-0.000000 -1.000000 0.000000
-0.000000 -1.000000 0.000000
-0.000000 -1.000000 0.000000
-0.000000 -1.000000 0.000000
-0.165202 -0.986172 -0.013159
-0.202258 -0.976039 0.080242
-0.202258 -0.976039 0.080242
-0.000000 -1.000000 0.000000
-0.000000 -1.000000 0.000000
-0.000000 -1.000000 0.000000
-0.000000 -1.000000 0.000000
-0.000000 -1.000000 0.000000
-0.000000 -1.000000 0.000000
-0.000000 -1.000000 0.000000
-0.000000 -1.000000 0.000000
-0.815761 -0.577558 0.030985
-0.978863 -0.204519 0.000000
-0.976577 -0.215163 -0.001619
-0.976577 -0.215163 -0.001619
-0.757983 -0.652019 -0.018272
-0.815761 -0.577558 0.030985
-0.757983 -0.652019 -0.018272
-0.976577 -0.215163 -0.001619
-0.636781 -0.157744 0.754736
-0.636781 -0.157744 0.754736
-0.499508 -0.718042 0.484673
-0.757983 -0.652019 -0.018272
-0.499508 -0.718042 0.484673
-0.202258 -0.976039 0.080242
-0.165202 -0.986172 -0.013159
-0.165202 -0.986172 -0.013159
-0.757983 -0.652019 -0.018272
-0.499508 -0.718042 0.484673
-0.757983 -0.652019 -0.018272
-0.165202 -0.986172 -0.013159
-0.364880 -0.930977 0.012025
-0.364880 -0.930977 0.012025
-0.815761 -0.577558 0.030985
-0.757983 -0.652019 -0.018272
0.496717 -0.690528 0.525778
0.652408 -0.128132 0.746958
0.967496 -0.252727 0.008922
0.967496 -0.252727 0.008922
0.774396 -0.632687 -0.004239
0.496717 -0.690528 0.525778
0.829046 -0.551285 -0.093636
0.303239 -0.951814 -0.045781
0.218776 -0.975758 -0.005785
0.218776 -0.975758 -0.005785
0.774396 -0.632687 -0.004239
0.829046 -0.551285 -0.093636
0.774396 -0.632687 -0.004239
0.218776 -0.975758 -0.005785
0.160730 -0.984445 0.070946
0.160730 -0.984445 0.070946
0.496717 -0.690528 0.525778
0.774396 -0.632687 -0.004239
-0.815761 -0.577558 0.030985
-0.364880 -0.930977 0.012025
-0.121114 -0.992504 0.016331
0.177044 -0.983707 -0.031230
0.303239 -0.951814 -0.045781
0.829046 -0.551285 -0.093636
-0.000000 -1.000000 0.000000
0.303239 -0.951814 -0.045781
0.177044 -0.983707 -0.031230
-0.000000 -1.000000 0.000000
-0.000000 -1.000000 0.000000
0.218776 -0.975758 -0.005785
0.218776 -0.975758 -0.005785
0.303239 -0.951814 -0.045781
-0.000000 -1.000000 0.000000
-0.000000 -1.000000 0.000000
-0.121114 -0.992504 0.016331
-0.364880 -0.930977 0.012025
-0.000000 -1.000000 0.000000
-0.000000 -1.000000 0.000000
-0.121114 -0.992504 0.016331
-0.121114 -0.992504 0.016331
-0.000000 -1.000000 0.000000
-0.000000 -1.000000 0.000000
-0.000000 -1.000000 0.000000
-0.000000 -1.000000 0.000000
-0.000000 -1.000000 0.000000
-0.000000 -1.000000 0.000000
-0.000000 -1.000000 0.000000
-0.000000 -1.000000 0.000000
-0.000000 -1.000000 0.000000
-0.068144 -0.976714 0.203435
0.049449 -0.969422 0.240367
0.049449 -0.969422 0.240367
-0.000000 -1.000000 0.000000
-0.000000 -1.000000 0.000000
0.049449 -0.969422 0.240367
0.160730 -0.984445 0.070946
-0.000000 -1.000000 0.000000
-0.000000 -1.000000 0.000000
-0.202258 -0.976039 0.080242
-0.068144 -0.976714 0.203435
0.049449 -0.969422 0.240367
-0.068144 -0.976714 0.203435
-0.499508 -0.718042 0.484673
-0.499508 -0.718042 0.484673
0.496717 -0.690528 0.525778
0.049449 -0.969422 0.240367
0.496717 -0.690528 0.525778
-0.499508 -0.718042 0.484673
-0.636781 -0.157744 0.754736
-0.636781 -0.157744 0.754736
0.652408 -0.128132 0.746958
0.496717 -0.690528 0.525778
-0.499508 -0.718042 0.484673
-0.068144 -0.976714 0.203435
-0.202258 -0.976039 0.080242
0.160730 -0.984445 0.070946
0.049449 -0.969422 0.240367
0.496717 -0.690528 0.525778
</float_array>
          <technique_common>
            <accessor source="#Object038-Normal0-array" count="156" stride="3">
              <param name="X" type="float"/>
              <param name="Y" type="float"/>
              <param name="Z" type="float"/>
            </accessor>
          </technique_common>
        </source>
        <source id="Object038-UV0">
          <float_array id="Object038-UV0-array" count="84">
0.711135 0.679279
0.000004 0.679435
-0.000020 0.550032
0.266860 0.680801
1.000000 0.277094
1.000007 0.550032
0.744609 0.550070
0.738174 0.277132
-0.000116 0.000000
0.271131 0.000378
0.220923 1.000000
0.709881 0.805365
0.716937 0.550134
0.309356 0.802712
0.299742 0.679757
0.758985 1.000000
1.000000 0.799076
0.734627 0.792500
0.755622 0.680036
0.999994 0.679434
0.000000 0.277094
0.272735 0.277126
0.000000 0.799076
0.286235 0.816189
0.000000 1.000000
0.740114 -0.000102
1.000000 -0.000000
0.280563 0.787515
0.740052 0.825583
1.000000 1.000000
0.342404 0.799107
0.681182 0.799344
0.339484 0.678979
0.337473 0.549460
0.680116 0.550324
0.680679 0.680595
0.721474 0.527166
0.300186 0.529609
0.268810 0.549756
0.293012 0.549616
0.706359 0.591372
0.300968 0.590556
</float_array>
          <technique_common>
            <accessor source="#Object038-UV0-array" count="42" stride="2">
              <param name="S" type="float"/>
              <param name="T" type="float"/>
            </accessor>
          </technique_common>
        </source>
        <vertices id="Object038-VERTEX">
          <input semantic="POSITION" source="#Object038-POSITION"/>
        </vertices>
        <triangles count="52" material="factory_corridor">
          <input semantic="VERTEX" offset="0" source="#Object038-VERTEX"/>
          <input semantic="NORMAL" offset="1" source="#Object038-Normal0"/>
          <input semantic="TEXCOORD" offset="2" set="0" source="#Object038-UV0"/>
          <p> 9 0 2 32 1 38 11 2 3 11 3 3 8 4 1 9 5 2 13 6 5 16 7 6 15 8 7 15 9 7 12 10 4 13 11 5 5 12 16 25 13 17 21 14 18 21 15 18 14 16 19 5 17 16 24 18 14 29 19 32 27 20 30 27 21 30 23 22 13 24 23 14 7 24 8 33 25 9 31 26 21 31 27 21 10 28 20 7 29 8 10 30 20 31 31 21 32 32 38 32 33 38 9 34 2 10 35 20 6 36 22 22 37 23 3 38 10 3 39 10 1 40 24 6 41 22 14 42 19 21 43 18 16 44 6 16 45 6 13 46 5 14 47 19 18 48 25 4 49 26 12 50 4 12 51 4 15 52 7 18 53 25 19 54 11 28 55 31 30 56 35 30 57 35 17 58 0 19 59 11 17 60 0 30 61 35 38 62 34 38 63 34 36 64 12 17 65 0 36 66 12 16 67 6 21 68 18 21 69 18 17 70 0 36 71 12 17 72 0 21 73 18 25 74 17 25 75 17 19 76 11 17 77 0 37 78 39 39 79 33 29 80 32 29 81 32 24 82 14 37 83 39 23 84 13 26 85 27 11 86 3 11 87 3 24 88 14 23 89 13 24 90 14 11 91 3 32 92 38 32 93 38 37 94 39 24 95 14 19 96 11 25 97 17 20 98 28 22 99 23 26 100 27 23 101 13 6 102 22 26 103 27 22 104 23 6 105 22 8 106 1 11 107 3 11 108 3 26 109 27 6 110 22 5 111 16 20 112 28 25 113 17 0 114 29 2 115 15 20 116 28 20 117 28 5 118 16 0 119 29 18 120 25 15 121 7 31 122 21 31 123 21 33 124 9 18 125 25 15 126 7 34 127 36 35 128 37 35 129 37 31 130 21 15 131 7 35 132 37 32 133 38 31 134 21 15 135 7 16 136 6 34 137 36 35 138 37 34 139 36 36 140 12 36 141 12 37 142 39 35 143 37 37 144 39 36 145 12 38 146 40 38 147 40 39 148 41 37 149 39 36 150 12 34 151 36 16 152 6 32 153 38 35 154 37 37 155 39</p>
        </triangles>
      </mesh>
    </geometry>
    <geometry id="Object039-lib" name="Object039Mesh">
      <mesh>
        <source id="Object039-POSITION">
          <float_array id="Object039-POSITION-array" count="75">
1.035940 -0.000012 4.000000
-1.116308 -0.000012 4.000000
0.588157 0.049988 3.288302
0.320215 -0.000012 3.418193
0.040901 -0.000012 3.442783
-0.238412 -0.000012 3.439219
-0.516492 -0.000012 3.379336
0.895599 0.049988 3.219987
0.968091 -0.000012 3.299584
-0.845067 -0.000012 3.262994
-0.787429 0.049988 3.204851
0.598295 -0.000012 3.376498
0.314529 0.049988 3.350213
0.040901 0.049988 3.364094
-0.232727 0.049988 3.363351
-0.506355 0.049988 3.291079
-0.781377 0.215251 2.200127
0.861239 0.215251 2.200127
-0.780700 0.215258 3.196306
0.861068 0.215258 3.196306
0.587440 0.215258 3.272525
0.313812 0.215258 3.321435
0.040184 0.215258 3.335285
-0.233444 0.215258 3.321435
-0.507072 0.215258 3.272525
</float_array>
          <technique_common>
            <accessor source="#Object039-POSITION-array" count="25" stride="3">
              <param name="X" type="float"/>
              <param name="Y" type="float"/>
              <param name="Z" type="float"/>
            </accessor>
          </technique_common>
        </source>
        <source id="Object039-Normal0">
          <float_array id="Object039-Normal0-array" count="342">
-0.000000 -1.000000 0.000000
-0.006167 -0.961748 -0.273865
-0.000000 -1.000000 0.000000
-0.176243 -0.551036 -0.815658
-0.119931 -0.538598 -0.833984
-0.127716 -0.157814 -0.979175
-0.127716 -0.157814 -0.979175
-0.221916 -0.093617 -0.970561
-0.176243 -0.551036 -0.815658
-0.119931 -0.538598 -0.833984
-0.010544 -0.563332 -0.826163
0.000101 -0.171691 -0.985151
0.000101 -0.171691 -0.985151
-0.127716 -0.157814 -0.979175
-0.119931 -0.538598 -0.833984
-0.010544 -0.563332 -0.826163
0.086166 -0.587927 -0.804312
0.096784 -0.231614 -0.967981
0.096784 -0.231614 -0.967981
0.000101 -0.171691 -0.985151
-0.010544 -0.563332 -0.826163
0.086166 -0.587927 -0.804312
0.229394 -0.550093 -0.802980
0.255656 -0.121940 -0.959047
0.255656 -0.121940 -0.959047
0.096784 -0.231614 -0.967981
0.086166 -0.587927 -0.804312
-0.160141 -0.656375 -0.737242
-0.042583 -0.977891 -0.204735
-0.044827 -0.968533 -0.244815
-0.044827 -0.968533 -0.244815
-0.176243 -0.551036 -0.815658
-0.160141 -0.656375 -0.737242
0.247270 -0.558407 -0.791858
0.229394 -0.550093 -0.802980
0.068726 -0.967492 -0.243385
0.068726 -0.967492 -0.243385
0.084074 -0.967757 -0.237441
0.247270 -0.558407 -0.791858
-0.176243 -0.551036 -0.815658
-0.044827 -0.968533 -0.244815
-0.043572 -0.954046 -0.296476
-0.043572 -0.954046 -0.296476
-0.119931 -0.538598 -0.833984
-0.176243 -0.551036 -0.815658
-0.119931 -0.538598 -0.833984
-0.043572 -0.954046 -0.296476
-0.006167 -0.961748 -0.273865
-0.006167 -0.961748 -0.273865
-0.010544 -0.563332 -0.826163
-0.119931 -0.538598 -0.833984
-0.010544 -0.563332 -0.826163
-0.006167 -0.961748 -0.273865
0.028678 -0.963122 -0.267533
0.028678 -0.963122 -0.267533
0.086166 -0.587927 -0.804312
-0.010544 -0.563332 -0.826163
0.086166 -0.587927 -0.804312
0.028678 -0.963122 -0.267533
0.068726 -0.967492 -0.243385
0.068726 -0.967492 -0.243385
0.229394 -0.550093 -0.802980
0.086166 -0.587927 -0.804312
-0.176243 -0.551036 -0.815658
-0.221916 -0.093617 -0.970561
-0.229840 -0.155267 -0.960763
-0.229840 -0.155267 -0.960763
-0.160141 -0.656375 -0.737242
-0.176243 -0.551036 -0.815658
0.247270 -0.558407 -0.791858
0.267840 -0.060621 -0.961554
0.255656 -0.121940 -0.959047
0.255656 -0.121940 -0.959047
0.229394 -0.550093 -0.802980
0.247270 -0.558407 -0.791858
-0.000000 -1.000000 0.000000
0.084074 -0.967757 -0.237441
0.068726 -0.967492 -0.243385
-0.000000 -1.000000 0.000000
0.068726 -0.967492 -0.243385
0.028678 -0.963122 -0.267533
-0.000000 -1.000000 0.000000
0.028678 -0.963122 -0.267533
-0.006167 -0.961748 -0.273865
-0.043572 -0.954046 -0.296476
-0.044827 -0.968533 -0.244815
-0.000000 -1.000000 0.000000
-0.006167 -0.961748 -0.273865
-0.043572 -0.954046 -0.296476
-0.000000 -1.000000 0.000000
-0.044827 -0.968533 -0.244815
-0.042583 -0.977891 -0.204735
-0.000000 -1.000000 0.000000
0.000000 -1.000000 0.000000
0.000000 -1.000000 0.000000
0.000000 -1.000000 0.000000
0.000000 -1.000000 0.000000
0.000000 -1.000000 0.000000
0.000000 -1.000000 0.000000
0.000000 -1.000000 -0.000001
0.000000 -1.000000 -0.000001
0.000000 -1.000000 -0.000001
-0.000000 -1.000000 0.000000
-0.000000 -1.000000 0.000000
-0.000000 -1.000000 0.000000
0.000000 -1.000000 0.000000
0.000000 -1.000000 0.000000
0.000000 -1.000000 0.000000
0.000000 -1.000000 0.000007
0.000000 -1.000000 0.000007
0.000000 -1.000000 0.000007
-0.000000 -1.000000 0.000007
-0.000000 -1.000000 0.000007
-0.000000 -1.000000 0.000007
</float_array>
          <technique_common>
            <accessor source="#Object039-Normal0-array" count="114" stride="3">
              <param name="X" type="float"/>
              <param name="Y" type="float"/>
              <param name="Z" type="float"/>
            </accessor>
          </technique_common>
        </source>
        <source id="Object039-UV0">
          <float_array id="Object039-UV0-array" count="74">
0.220923 1.000000
0.728256 0.808412
0.301560 0.805521
0.510218 0.860702
0.649387 0.824540
0.578902 0.835862
0.510336 0.840677
0.441198 0.842082
0.372380 0.825625
0.758985 1.000000
0.287561 0.817575
0.744722 0.829171
0.649959 0.845738
0.370684 0.845367
0.580045 0.854425
0.440328 0.860117
0.652274 0.883939
0.671479 0.877662
0.589269 0.894449
0.573492 0.900888
0.510782 0.901715
0.501748 0.899989
0.438610 0.897643
0.423375 0.902745
0.360116 0.887628
0.349024 0.882414
0.284775 0.862131
0.739085 0.858933
0.695666 0.799676
0.284728 0.799676
0.353218 0.818738
0.421708 0.830971
0.490197 0.834435
0.558687 0.830971
0.627177 0.818738
0.695656 0.550534
0.284737 0.550534
</float_array>
          <technique_common>
            <accessor source="#Object039-UV0-array" count="37" stride="2">
              <param name="S" type="float"/>
              <param name="T" type="float"/>
            </accessor>
          </technique_common>
        </source>
        <vertices id="Object039-VERTEX">
          <input semantic="POSITION" source="#Object039-POSITION"/>
        </vertices>
        <triangles count="38" material="factory_corridor_01">
          <input semantic="VERTEX" offset="0" source="#Object039-VERTEX"/>
          <input semantic="NORMAL" offset="1" source="#Object039-Normal0"/>
          <input semantic="TEXCOORD" offset="2" set="0" source="#Object039-UV0"/>
          <p> 1 0 0 4 1 3 0 2 9 2 3 4 12 4 5 21 5 18 21 6 18 20 7 16 2 8 4 12 9 5 13 10 6 22 11 20 22 12 20 21 13 19 12 14 5 13 15 6 14 16 7 23 17 22 23 18 22 22 19 21 13 20 6 14 21 7 15 22 8 24 23 24 24 24 24 23 25 23 14 26 7 7 27 1 8 28 11 11 29 12 11 30 12 2 31 4 7 32 1 10 33 2 15 34 8 6 35 13 6 36 13 9 37 10 10 38 2 2 39 4 11 40 12 3 41 14 3 42 14 12 43 5 2 44 4 12 45 5 3 46 14 4 47 3 4 48 3 13 49 6 12 50 5 13 51 6 4 52 3 5 53 15 5 54 15 14 55 7 13 56 6 14 57 7 5 58 15 6 59 13 6 60 13 15 61 8 14 62 7 2 63 4 20 64 17 19 65 27 19 66 27 7 67 1 2 68 4 10 69 2 18 70 26 24 71 25 24 72 25 15 73 8 10 74 2 1 75 0 9 76 10 6 77 13 1 78 0 6 79 13 5 80 15 1 81 0 5 82 15 4 83 3 3 84 14 11 85 12 0 86 9 4 87 3 3 88 14 0 89 9 11 90 12 8 91 11 0 92 9 19 93 29 20 94 30 21 95 31 21 96 31 22 97 32 23 98 33 23 99 33 24 100 34 18 101 28 21 102 31 23 103 33 18 104 28 19 105 29 21 106 31 18 107 28 19 108 29 18 109 28 16 110 35 17 111 36 19 112 29 16 113 35</p>
        </triangles>
      </mesh>
    </geometry>
  </library_geometries>
  <library_visual_scenes>
    <visual_scene id="" name="">
      <node name="Object038" id="Object038" layer="factory_corridor_02" sid="Object038">
        <matrix sid="matrix">1.000000 0.000000 0.000000 0.000000 0.000000 0.000000 1.000000 0.000000 0.000000 -1.000000 0.000000 0.000000 0.000000 0.000000 0.000000 1.000000</matrix>
        <instance_geometry url="#Object038-lib">
          <bind_material>
            <technique_common>
              <instance_material symbol="factory_corridor" target="#factory_corridor"/>
            </technique_common>
          </bind_material>
        </instance_geometry>
        <extra>
          <technique profile="FCOLLADA">
            <visibility>1.000000</visibility>
          </technique>
        </extra>
      </node>
      <node name="Object039" id="Object039" layer="factory_corridor_02" sid="Object039">
        <matrix sid="matrix">1.000000 0.000000 0.000000 0.000000 0.000000 0.000000 1.000000 0.000000 0.000000 -1.000000 0.000000 0.000000 0.000000 0.000000 0.000000 1.000000</matrix>
        <instance_geometry url="#Object039-lib">
          <bind_material>
            <technique_common>
              <instance_material symbol="factory_corridor_01" target="#factory_corridor_01"/>
            </technique_common>
          </bind_material>
        </instance_geometry>
        <extra>
          <technique profile="FCOLLADA">
            <visibility>1.000000</visibility>
          </technique>
        </extra>
      </node>
      <extra>
        <technique profile="MAX3D">
          <frame_rate>30.000000</frame_rate>
        </technique>
        <technique profile="FCOLLADA">
          <start_time>0.000000</start_time>
          <end_time>3.333333</end_time>
        </technique>
      </extra>
    </visual_scene>
  </library_visual_scenes>
  <scene>
    <instance_visual_scene url="#"></instance_visual_scene>
  </scene>
</COLLADA>

