<?xml version="1.0" encoding="utf-8"?>
<COLLADA xmlns="http://www.collada.org/2005/11/COLLADASchema" version="1.4.1">
  <asset>
    <contributor>
      <author></author>
      <authoring_tool>FBX COLLADA exporter</authoring_tool>
      <comments></comments>
    </contributor>
    <created>2012-04-20T21:48:33Z</created>
    <keywords></keywords>
    <modified>2012-04-20T21:48:33Z</modified>
    <revision></revision>
    <subject></subject>
    <title></title>
    <unit meter="1.000000" name="centimeter"></unit>
    <up_axis>Y_UP</up_axis>
  </asset>
  <library_images>
    <image id="Map #35-image" name="Map #35">
      <init_from>file://C:\Users\WesleyTack\Desktop\amnesia_raw\StaticObjects\factorybase\fac_off_wallpaper.psd</init_from>
    </image>
    <image id="Map #36-image" name="Map #36">
      <init_from>file://C:\Users\WesleyTack\Desktop\amnesia_raw\StaticObjects\cellarbase\barrel_wood.jpg</init_from>
    </image>
    <image id="Map #38-image" name="Map #38">
      <init_from>file://C:\Users\WesleyTack\Desktop\amnesia_raw\StaticObjects\factorybase\factory_corridor_01_wood.jpg</init_from>
    </image>
  </library_images>
  <library_materials>
    <material id="_14 - Default" name="_14 - Default">
      <instance_effect url="#_14 - Default-fx"/>
    </material>
    <material id="_15 - Default" name="_15 - Default">
      <instance_effect url="#_15 - Default-fx"/>
    </material>
    <material id="_17 - Default" name="_17 - Default">
      <instance_effect url="#_17 - Default-fx"/>
    </material>
  </library_materials>
  <library_effects>
    <effect id="_14 - Default-fx" name="_14 - Default">
      <profile_COMMON>
        <technique sid="standard">
          <phong>
            <emission>
              <color sid="emission">0.000000  0.000000 0.000000 1.000000</color>
            </emission>
            <ambient>
              <color sid="ambient">0.588235  0.588235 0.588235 1.000000</color>
            </ambient>
            <diffuse>
              <texture texture="Map #35-image" texcoord="CHANNEL0">
                <extra>
                  <technique profile="MAYA">
                    <wrapU sid="wrapU0">TRUE</wrapU>
                    <wrapV sid="wrapV0">TRUE</wrapV>
                    <blend_mode>ADD</blend_mode>
                  </technique>
                </extra>
              </texture>
            </diffuse>
            <specular>
              <color sid="specular">0.000000  0.000000 0.000000 1.000000</color>
            </specular>
            <shininess>
              <float sid="shininess">2.000000</float>
            </shininess>
            <reflective>
              <color sid="reflective">0.000000  0.000000 0.000000 1.000000</color>
            </reflective>
            <reflectivity>
              <float sid="reflectivity">1.000000</float>
            </reflectivity>
            <transparent opaque="RGB_ZERO">
              <color sid="transparent">1.000000  1.000000 1.000000 1.000000</color>
            </transparent>
            <transparency>
              <float sid="transparency">0.000000</float>
            </transparency>
          </phong>
        </technique>
      </profile_COMMON>
    </effect>
    <effect id="_15 - Default-fx" name="_15 - Default">
      <profile_COMMON>
        <technique sid="standard">
          <phong>
            <emission>
              <color sid="emission">0.000000  0.000000 0.000000 1.000000</color>
            </emission>
            <ambient>
              <color sid="ambient">0.588235  0.588235 0.588235 1.000000</color>
            </ambient>
            <diffuse>
              <texture texture="Map #36-image" texcoord="CHANNEL0">
                <extra>
                  <technique profile="MAYA">
                    <wrapU sid="wrapU0">TRUE</wrapU>
                    <wrapV sid="wrapV0">TRUE</wrapV>
                    <blend_mode>ADD</blend_mode>
                  </technique>
                </extra>
              </texture>
            </diffuse>
            <specular>
              <color sid="specular">0.000000  0.000000 0.000000 1.000000</color>
            </specular>
            <shininess>
              <float sid="shininess">2.000000</float>
            </shininess>
            <reflective>
              <color sid="reflective">0.000000  0.000000 0.000000 1.000000</color>
            </reflective>
            <reflectivity>
              <float sid="reflectivity">1.000000</float>
            </reflectivity>
            <transparent opaque="RGB_ZERO">
              <color sid="transparent">1.000000  1.000000 1.000000 1.000000</color>
            </transparent>
            <transparency>
              <float sid="transparency">0.000000</float>
            </transparency>
          </phong>
        </technique>
      </profile_COMMON>
    </effect>
    <effect id="_17 - Default-fx" name="_17 - Default">
      <profile_COMMON>
        <technique sid="standard">
          <phong>
            <emission>
              <color sid="emission">0.000000  0.000000 0.000000 1.000000</color>
            </emission>
            <ambient>
              <color sid="ambient">0.588235  0.588235 0.588235 1.000000</color>
            </ambient>
            <diffuse>
              <texture texture="Map #38-image" texcoord="CHANNEL0">
                <extra>
                  <technique profile="MAYA">
                    <wrapU sid="wrapU0">TRUE</wrapU>
                    <wrapV sid="wrapV0">TRUE</wrapV>
                    <blend_mode>ADD</blend_mode>
                  </technique>
                </extra>
              </texture>
            </diffuse>
            <specular>
              <color sid="specular">0.000000  0.000000 0.000000 1.000000</color>
            </specular>
            <shininess>
              <float sid="shininess">2.000000</float>
            </shininess>
            <reflective>
              <color sid="reflective">0.000000  0.000000 0.000000 1.000000</color>
            </reflective>
            <reflectivity>
              <float sid="reflectivity">1.000000</float>
            </reflectivity>
            <transparent opaque="RGB_ZERO">
              <color sid="transparent">1.000000  1.000000 1.000000 1.000000</color>
            </transparent>
            <transparency>
              <float sid="transparency">0.000000</float>
            </transparency>
          </phong>
        </technique>
      </profile_COMMON>
    </effect>
  </library_effects>
  <library_geometries>
    <geometry id="Object157-lib" name="Object157Mesh">
      <mesh>
        <source id="Object157-POSITION">
          <float_array id="Object157-POSITION-array" count="30">
-2.000000 -0.000000 4.000000
2.000000 -0.000000 4.000000
-2.000000 -0.000000 1.616578
2.000000 -0.000000 1.616578
0.868700 -0.000000 4.000000
-0.868700 -0.000000 4.000000
-0.868700 -0.000000 1.616578
0.868700 -0.000000 1.616578
-0.868700 -0.000000 3.404166
0.868700 -0.000000 3.404166
</float_array>
          <technique_common>
            <accessor source="#Object157-POSITION-array" count="10" stride="3">
              <param name="X" type="float"/>
              <param name="Y" type="float"/>
              <param name="Z" type="float"/>
            </accessor>
          </technique_common>
        </source>
        <source id="Object157-Normal0">
          <float_array id="Object157-Normal0-array" count="72">
0.000000 -1.000000 -0.000000
0.000000 -1.000000 -0.000000
0.000000 -1.000000 -0.000000
0.000000 -1.000000 -0.000000
0.000000 -1.000000 -0.000000
0.000000 -1.000000 -0.000000
0.000000 -1.000000 -0.000000
0.000000 -1.000000 -0.000000
0.000000 -1.000000 -0.000000
-0.000000 -1.000000 -0.000000
-0.000000 -1.000000 -0.000000
-0.000000 -1.000000 -0.000000
0.000000 -1.000000 -0.000000
0.000000 -1.000000 -0.000000
0.000000 -1.000000 -0.000000
0.000000 -1.000000 -0.000000
0.000000 -1.000000 -0.000000
0.000000 -1.000000 -0.000000
0.000000 -1.000000 -0.000000
0.000000 -1.000000 -0.000000
0.000000 -1.000000 -0.000000
0.000000 -1.000000 -0.000000
0.000000 -1.000000 -0.000000
0.000000 -1.000000 -0.000000
</float_array>
          <technique_common>
            <accessor source="#Object157-Normal0-array" count="24" stride="3">
              <param name="X" type="float"/>
              <param name="Y" type="float"/>
              <param name="Z" type="float"/>
            </accessor>
          </technique_common>
        </source>
        <source id="Object157-UV0">
          <float_array id="Object157-UV0-array" count="20">
0.998282 0.403997
0.998282 0.997804
0.001718 0.997805
0.001718 0.403997
0.716429 0.997805
0.283571 0.997805
0.283571 0.403997
0.716429 0.403997
0.283571 0.849358
0.716429 0.849358
</float_array>
          <technique_common>
            <accessor source="#Object157-UV0-array" count="10" stride="2">
              <param name="S" type="float"/>
              <param name="T" type="float"/>
            </accessor>
          </technique_common>
        </source>
        <vertices id="Object157-VERTEX">
          <input semantic="POSITION" source="#Object157-POSITION"/>
        </vertices>
        <triangles count="8" material="_14 - Default">
          <input semantic="VERTEX" offset="0" source="#Object157-VERTEX"/>
          <input semantic="NORMAL" offset="1" source="#Object157-Normal0"/>
          <input semantic="TEXCOORD" offset="2" set="0" source="#Object157-UV0"/>
          <p> 5 0 5 8 1 8 9 2 9 9 3 9 4 4 4 5 5 5 0 6 2 2 7 3 6 8 6 0 9 2 6 10 6 8 11 8 5 12 5 0 13 2 8 14 8 3 15 0 1 16 1 4 17 4 3 18 0 4 19 4 9 20 9 7 21 7 3 22 0 9 23 9</p>
        </triangles>
      </mesh>
    </geometry>
    <geometry id="Object158-lib" name="Object158Mesh">
      <mesh>
        <source id="Object158-POSITION">
          <float_array id="Object158-POSITION-array" count="234">
-2.000000 -0.000000 0.000000
2.000000 -0.000000 0.000000
2.000000 -0.000000 1.499395
-2.000000 -0.000000 1.499395
-2.000000 -0.000000 1.620378
-2.000000 -0.066979 1.620378
-2.000000 -0.066979 1.499395
2.000000 -0.066979 1.499395
2.000000 -0.066979 1.620378
2.000000 -0.000000 1.620378
-0.857467 -0.000000 0.000000
0.857467 -0.000000 0.000000
0.974035 -0.000000 1.499395
-0.958722 -0.000000 1.499395
0.974035 -0.000000 1.620378
-0.958722 -0.000000 1.620378
0.974035 -0.066979 1.620378
-0.958722 -0.066979 1.620378
-0.958722 -0.066979 1.499395
0.974035 -0.066979 1.499395
0.857467 -0.000000 1.363589
-0.857467 -0.000000 1.363589
2.000000 -0.000000 3.879017
2.000000 -0.066979 3.879017
2.000000 -0.066979 4.000000
-2.000000 -0.066979 4.000000
-2.000000 -0.066979 3.879018
-2.000000 -0.000000 3.879018
-2.000000 -0.000000 0.120983
-2.000000 -0.066979 0.120983
-2.000000 -0.066979 0.000000
2.000000 -0.066979 0.000000
2.000000 -0.066979 0.120983
2.000000 -0.000000 0.120983
-1.097496 -0.096266 1.316577
1.097496 -0.096266 1.316577
-1.097496 0.211723 1.316577
1.097496 0.211723 1.316577
-1.097496 -0.096266 1.416577
1.097496 -0.096266 1.416577
-1.097496 0.211723 1.416577
1.097496 0.211723 1.416577
1.085937 -0.126461 1.316577
1.063334 -0.154167 1.316577
1.032066 -0.164521 1.316577
-1.032066 -0.164521 1.316577
-1.062988 -0.154167 1.316577
-1.087246 -0.126461 1.316577
-1.087246 -0.126461 1.416577
-1.062988 -0.154167 1.416577
-1.032066 -0.164521 1.416577
1.032066 -0.164521 1.416577
1.063334 -0.154167 1.416577
1.085937 -0.126461 1.416577
0.824179 -0.088487 1.415719
0.974179 -0.088487 1.415719
0.824179 0.211513 1.415719
0.974179 0.211513 1.415719
0.824179 -0.088487 3.309380
0.974179 -0.088487 3.309380
0.824179 0.211513 3.309380
0.974179 0.211513 3.309380
1.077320 -0.104964 3.306284
1.077320 -0.104964 3.506284
1.077320 0.211513 3.306284
1.077320 0.211513 3.506284
-1.072680 -0.104964 3.306285
-1.072680 -0.104964 3.506285
-1.072680 0.211513 3.306285
-1.072680 0.211513 3.506285
-0.958939 -0.088584 1.415719
-0.808939 -0.088584 1.415719
-0.958939 0.211416 1.415719
-0.808939 0.211416 1.415719
-0.958939 -0.088584 3.309380
-0.808939 -0.088584 3.309380
-0.958939 0.211416 3.309380
-0.808939 0.211416 3.309380
</float_array>
          <technique_common>
            <accessor source="#Object158-POSITION-array" count="78" stride="3">
              <param name="X" type="float"/>
              <param name="Y" type="float"/>
              <param name="Z" type="float"/>
            </accessor>
          </technique_common>
        </source>
        <source id="Object158-Normal0">
          <float_array id="Object158-Normal0-array" count="756">
0.000000 -1.000000 -0.000000
0.000000 -1.000000 -0.000000
0.000000 -1.000000 -0.000000
0.000000 -1.000000 -0.000000
0.000000 -1.000000 -0.000000
0.000000 -1.000000 -0.000000
0.000000 -1.000000 -0.000000
0.000000 -1.000000 -0.000000
0.000000 -1.000000 -0.000000
-0.000000 -1.000000 -0.000000
-0.000000 -1.000000 -0.000000
-0.000000 -1.000000 -0.000000
0.000000 -1.000000 -0.000000
0.000000 -1.000000 -0.000000
0.000000 -1.000000 -0.000000
0.000000 -1.000000 -0.000000
0.000000 -1.000000 -0.000000
0.000000 -1.000000 -0.000000
0.000000 -1.000000 -0.000000
0.000000 -1.000000 -0.000000
0.000000 -1.000000 -0.000000
0.000000 -1.000000 -0.000000
0.000000 -1.000000 -0.000000
0.000000 -1.000000 -0.000000
0.000000 -1.000000 0.000000
0.000000 -1.000000 0.000000
0.000000 -1.000000 0.000000
0.000000 -1.000000 0.000000
0.000000 -1.000000 0.000000
0.000000 -1.000000 0.000000
0.000000 -1.000000 0.000000
0.000000 -1.000000 0.000000
0.000000 -1.000000 0.000000
0.000000 -1.000000 0.000000
0.000000 -1.000000 0.000000
0.000000 -1.000000 0.000000
0.000000 0.000000 1.000000
0.000000 0.000000 1.000000
0.000000 0.000000 1.000000
0.000000 0.000000 1.000000
0.000000 0.000000 1.000000
0.000000 0.000000 1.000000
0.000000 0.000000 1.000000
0.000000 0.000000 1.000000
0.000000 0.000000 1.000000
0.000000 0.000000 1.000000
0.000000 0.000000 1.000000
0.000000 0.000000 1.000000
0.000000 0.000000 -1.000000
0.000000 0.000000 -1.000000
0.000000 0.000000 -1.000000
0.000000 0.000000 -1.000000
0.000000 0.000000 -1.000000
0.000000 0.000000 -1.000000
0.000000 0.000000 -1.000000
0.000000 0.000000 -1.000000
0.000000 0.000000 -1.000000
0.000000 0.000000 -1.000000
0.000000 0.000000 -1.000000
0.000000 0.000000 -1.000000
0.000000 -1.000000 0.000000
0.000000 -1.000000 0.000000
0.000000 -1.000000 0.000000
0.000000 -1.000000 0.000000
0.000000 -1.000000 0.000000
0.000000 -1.000000 0.000000
-0.000000 0.000000 -1.000000
-0.000000 0.000000 -1.000000
-0.000000 0.000000 -1.000000
-0.000000 0.000000 -1.000000
-0.000000 0.000000 -1.000000
-0.000000 0.000000 -1.000000
0.000000 -1.000000 0.000000
0.000000 -1.000000 0.000000
0.000000 -1.000000 0.000000
0.000000 -1.000000 0.000000
0.000000 -1.000000 0.000000
0.000000 -1.000000 0.000000
0.000000 0.000000 1.000000
0.000000 0.000000 1.000000
0.000000 0.000000 1.000000
0.000000 0.000000 1.000000
0.000000 0.000000 1.000000
0.000000 0.000000 1.000000
0.000000 0.000000 -1.000000
0.000000 0.000000 -1.000000
0.000000 0.000000 -1.000000
0.000000 0.000000 -1.000000
0.000000 0.000000 -1.000000
0.000000 0.000000 -1.000000
0.000000 0.000000 -1.000000
0.000000 0.000000 -1.000000
0.000000 0.000000 -1.000000
0.000000 0.000000 -1.000000
0.000000 0.000000 -1.000000
0.000000 0.000000 -1.000000
0.000000 0.000000 -1.000000
0.000000 0.000000 -1.000000
0.000000 0.000000 -1.000000
0.000000 0.000000 -1.000000
0.000000 0.000000 -1.000000
0.000000 0.000000 -1.000000
0.000000 0.000000 -1.000000
0.000000 0.000000 -1.000000
0.000000 0.000000 -1.000000
0.000000 0.000000 -1.000000
0.000000 0.000000 -1.000000
0.000000 0.000000 -1.000000
0.000000 0.000000 1.000000
0.000000 0.000000 1.000000
0.000000 0.000000 1.000000
0.000000 0.000000 1.000000
0.000000 0.000000 1.000000
0.000000 0.000000 1.000000
0.000000 0.000000 1.000000
0.000000 0.000000 1.000000
0.000000 0.000000 1.000000
0.000000 0.000000 1.000000
0.000000 0.000000 1.000000
0.000000 0.000000 1.000000
0.000000 0.000000 1.000000
0.000000 0.000000 1.000000
0.000000 0.000000 1.000000
0.000000 0.000000 1.000000
0.000000 0.000000 1.000000
0.000000 0.000000 1.000000
0.000000 0.000000 1.000000
0.000000 0.000000 1.000000
0.000000 0.000000 1.000000
0.000000 0.000000 1.000000
0.000000 0.000000 1.000000
0.000000 0.000000 1.000000
0.159199 -0.987247 -0.000001
0.159202 -0.987246 -0.000000
-0.160842 -0.986980 0.000001
-0.160842 -0.986980 0.000001
-0.160844 -0.986980 0.000000
0.159199 -0.987247 -0.000001
0.983340 -0.181778 0.000000
1.000000 0.000000 0.000000
1.000000 0.000000 0.000000
1.000000 0.000000 0.000000
0.983340 -0.181778 0.000000
0.983340 -0.181778 0.000000
-1.000000 0.000000 0.000000
-0.986644 -0.162889 0.000000
-0.986644 -0.162889 0.000000
-0.986644 -0.162889 0.000000
-1.000000 0.000000 0.000000
-1.000000 0.000000 0.000000
0.983340 -0.181778 0.000000
0.983340 -0.181778 0.000000
0.865348 -0.501171 0.000000
0.865348 -0.501171 0.000000
0.865348 -0.501171 0.000000
0.983340 -0.181778 0.000000
0.865348 -0.501171 0.000000
0.865348 -0.501171 0.000000
0.567217 -0.823569 0.000000
0.567217 -0.823569 0.000000
0.567215 -0.823570 -0.000001
0.865348 -0.501171 0.000000
0.567215 -0.823570 -0.000001
0.567217 -0.823569 0.000000
0.159202 -0.987246 -0.000000
0.159202 -0.987246 -0.000000
0.159199 -0.987247 -0.000001
0.567215 -0.823570 -0.000001
-0.986644 -0.162889 0.000000
-0.986644 -0.162889 0.000000
-0.866232 -0.499642 0.000000
-0.866232 -0.499642 0.000000
-0.866232 -0.499642 0.000000
-0.986644 -0.162889 0.000000
-0.866232 -0.499642 0.000000
-0.866232 -0.499642 0.000000
-0.554180 -0.832397 0.000000
-0.554180 -0.832397 0.000000
-0.554178 -0.832398 0.000001
-0.866232 -0.499642 0.000000
-0.554178 -0.832398 0.000001
-0.554180 -0.832397 0.000000
-0.160844 -0.986980 0.000000
-0.160844 -0.986980 0.000000
-0.160842 -0.986980 0.000001
-0.554178 -0.832398 0.000001
0.000000 -1.000000 0.000000
0.000000 -1.000000 0.000000
0.000000 -1.000000 0.000000
0.000000 -1.000000 0.000000
0.000000 -1.000000 0.000000
0.000000 -1.000000 0.000000
1.000000 0.000000 0.000000
1.000000 0.000000 0.000000
1.000000 0.000000 0.000000
1.000000 0.000000 0.000000
1.000000 0.000000 0.000000
1.000000 0.000000 0.000000
-1.000000 0.000000 0.000000
-1.000000 0.000000 0.000000
-1.000000 0.000000 0.000000
-1.000000 0.000000 0.000000
-1.000000 0.000000 0.000000
-1.000000 0.000000 0.000000
1.000000 0.000000 0.000000
1.000000 0.000000 0.000000
1.000000 0.000000 0.000000
1.000000 0.000000 0.000000
1.000000 0.000000 0.000000
1.000000 0.000000 0.000000
-1.000000 0.000000 0.000000
-1.000000 0.000000 0.000000
-1.000000 0.000000 0.000000
-1.000000 0.000000 0.000000
-1.000000 0.000000 0.000000
-1.000000 0.000000 0.000000
0.000000 -1.000000 0.000000
0.000000 -1.000000 0.000000
0.000000 -1.000000 0.000000
0.000000 -1.000000 0.000000
0.000000 -1.000000 0.000000
0.000000 -1.000000 0.000000
0.000000 0.000000 1.000000
0.000000 0.000000 1.000000
0.000000 0.000000 1.000000
0.000000 0.000000 1.000000
0.000000 0.000000 1.000000
0.000000 0.000000 1.000000
-0.000000 0.000000 -1.000000
-0.000000 0.000000 -1.000000
-0.000000 0.000000 -1.000000
-0.000000 0.000000 -1.000000
-0.000000 0.000000 -1.000000
-0.000000 0.000000 -1.000000
0.000000 -1.000000 0.000000
0.000000 -1.000000 0.000000
0.000000 -1.000000 0.000000
0.000000 -1.000000 0.000000
0.000000 -1.000000 0.000000
0.000000 -1.000000 0.000000
1.000000 0.000000 0.000000
1.000000 0.000000 0.000000
1.000000 0.000000 0.000000
1.000000 0.000000 0.000000
1.000000 0.000000 0.000000
1.000000 0.000000 0.000000
-1.000000 0.000000 0.000000
-1.000000 0.000000 0.000000
-1.000000 0.000000 0.000000
-1.000000 0.000000 0.000000
-1.000000 0.000000 0.000000
-1.000000 0.000000 0.000000
</float_array>
          <technique_common>
            <accessor source="#Object158-Normal0-array" count="252" stride="3">
              <param name="X" type="float"/>
              <param name="Y" type="float"/>
              <param name="Z" type="float"/>
            </accessor>
          </technique_common>
        </source>
        <source id="Object158-UV0">
          <float_array id="Object158-UV0-array" count="236">
0.000000 0.000000
1.000000 0.000000
0.553589 0.018427
0.569999 0.018427
1.000000 0.375000
0.000000 0.375000
0.569999 0.998427
0.523948 0.018427
0.553589 0.998427
0.523948 0.998427
0.507538 0.998427
0.507538 0.018427
0.285633 0.000000
0.714367 0.000000
0.743708 0.374831
0.260320 0.375000
0.507538 0.269788
0.507538 0.743314
0.569999 0.269788
0.569999 0.743314
0.553589 0.269788
0.553589 0.743313
0.523948 0.743313
0.523948 0.269788
0.714367 0.341035
0.285633 0.341035
0.792272 0.018427
0.808682 0.018427
0.808682 0.998427
0.762631 0.018427
0.792272 0.998427
0.762631 0.998427
0.214083 0.018427
0.230492 0.018427
0.230492 0.998427
0.184442 0.018427
0.214083 0.998427
0.184442 0.998427
0.717561 0.820819
0.644651 0.820819
0.644651 0.301203
0.717561 0.301203
0.522553 0.820819
0.515404 0.818392
0.508846 0.812650
0.506395 0.805330
0.622336 0.828592
0.622336 0.224908
0.622336 0.755682
0.622336 0.151999
0.646008 0.151999
0.646008 0.224908
0.622336 0.232057
0.646008 0.232057
0.646008 0.755682
0.646008 0.828592
0.646008 0.748534
0.622336 0.748534
0.724709 0.303939
0.731268 0.309290
0.733719 0.316692
0.733719 0.805330
0.731268 0.812650
0.724709 0.818392
0.622336 0.238615
0.646008 0.238615
0.622336 0.734655
0.622336 0.246018
0.646008 0.741975
0.622336 0.741975
0.506395 0.316692
0.508846 0.309290
0.515404 0.303939
0.522553 0.301203
0.595462 0.301203
0.595462 0.820819
0.646008 0.246017
0.646008 0.734655
0.770236 0.280027
0.805746 0.280027
0.805746 0.729810
0.770236 0.729810
0.091391 0.424624
0.162409 0.424624
0.162409 0.874407
0.091391 0.874407
0.504225 0.469877
0.575243 0.469877
0.575243 0.919661
0.504225 0.919661
0.683022 0.234869
0.683022 0.163851
0.730368 0.163851
0.730368 0.234869
0.683022 0.743835
0.730368 0.743835
0.730368 0.814853
0.683022 0.814853
0.339674 0.251623
0.410693 0.251623
0.410693 0.760588
0.339674 0.760588
0.422007 0.194552
0.493025 0.194552
0.493025 0.703517
0.422007 0.703517
0.860949 0.281900
0.896459 0.281900
0.896459 0.731683
0.860949 0.731683
0.256136 0.262429
0.327155 0.262429
0.327155 0.712213
0.256136 0.712213
0.174118 0.230951
0.245136 0.230951
0.245136 0.680734
0.174118 0.680734
</float_array>
          <technique_common>
            <accessor source="#Object158-UV0-array" count="118" stride="2">
              <param name="S" type="float"/>
              <param name="T" type="float"/>
            </accessor>
          </technique_common>
        </source>
        <vertices id="Object158-VERTEX">
          <input semantic="POSITION" source="#Object158-POSITION"/>
        </vertices>
        <triangles count="84" material="_15 - Default">
          <input semantic="VERTEX" offset="0" source="#Object158-VERTEX"/>
          <input semantic="NORMAL" offset="1" source="#Object158-Normal0"/>
          <input semantic="TEXCOORD" offset="2" set="0" source="#Object158-UV0"/>
          <p> 11 0 13 20 1 24 21 2 25 21 3 25 10 4 12 11 5 13 1 6 1 2 7 4 12 8 14 1 9 1 12 10 14 20 11 24 11 12 13 1 13 1 20 14 24 3 15 5 0 16 0 10 17 12 3 18 5 10 19 12 21 20 25 13 21 15 3 22 5 21 23 25 5 24 8 6 25 9 18 26 22 18 27 22 17 28 21 5 29 8 7 30 7 8 31 2 16 32 20 16 33 20 19 34 23 7 35 7 4 36 6 5 37 8 17 38 21 17 39 21 15 40 19 4 41 6 8 42 2 9 43 3 14 44 18 14 45 18 16 46 20 8 47 2 2 48 11 7 49 7 19 50 23 19 51 23 12 52 16 2 53 11 6 54 9 3 55 10 13 56 17 13 57 17 18 58 22 6 59 9 26 60 26 23 61 30 24 62 31 24 63 31 25 64 29 26 65 26 27 66 27 22 67 28 23 68 30 23 69 30 26 70 26 27 71 27 32 72 32 29 73 36 30 74 37 30 75 37 31 76 35 32 77 32 33 78 33 28 79 34 29 80 36 29 81 36 32 82 32 33 83 33 34 84 38 36 85 39 37 86 40 37 87 40 35 88 41 42 89 58 37 90 40 42 91 58 43 92 59 37 93 40 43 94 59 44 95 60 37 96 40 44 97 60 45 98 61 37 99 40 45 100 61 46 101 62 37 102 40 46 103 62 47 104 63 34 105 38 37 106 40 47 107 63 53 108 72 39 109 73 41 110 74 52 111 71 53 112 72 41 113 74 51 114 70 52 115 71 41 116 74 50 117 45 51 118 70 41 119 74 49 120 44 50 121 45 41 122 74 48 123 43 49 124 44 41 125 74 38 126 42 48 127 43 41 128 74 38 129 42 41 130 74 40 131 75 44 132 67 51 133 76 50 134 77 50 135 77 45 136 66 44 137 67 35 138 47 37 139 49 41 140 50 41 141 50 39 142 51 35 143 47 36 144 46 34 145 48 38 146 54 38 147 54 40 148 55 36 149 46 35 150 47 39 151 51 53 152 53 53 153 53 42 154 52 35 155 47 42 156 52 53 157 53 52 158 65 52 159 65 43 160 64 42 161 52 43 162 64 52 163 65 51 164 76 51 165 76 44 166 67 43 167 64 38 168 54 34 169 48 47 170 57 47 171 57 48 172 56 38 173 54 48 174 56 47 175 57 46 176 69 46 177 69 49 178 68 48 179 56 49 180 68 46 181 69 45 182 66 45 183 66 50 184 77 49 185 68 54 186 78 55 187 79 59 188 80 59 189 80 58 190 81 54 191 78 55 192 82 57 193 83 61 194 84 61 195 84 59 196 85 55 197 82 56 198 86 54 199 87 58 200 88 58 201 88 60 202 89 56 203 86 62 204 90 64 205 91 65 206 92 65 207 92 63 208 93 62 209 90 66 210 94 67 211 95 69 212 96 69 213 96 68 214 97 66 215 94 62 216 90 63 217 93 67 218 95 67 219 95 66 220 94 62 221 90 63 222 98 65 223 99 69 224 100 69 225 100 67 226 101 63 227 98 64 228 102 62 229 103 66 230 104 66 231 104 68 232 105 64 233 102 70 234 106 71 235 107 75 236 108 75 237 108 74 238 109 70 239 106 71 240 110 73 241 111 77 242 112 77 243 112 75 244 113 71 245 110 72 246 114 70 247 115 74 248 116 74 249 116 76 250 117 72 251 114</p>
        </triangles>
      </mesh>
    </geometry>
    <geometry id="Plane003-lib" name="Plane003Mesh">
      <mesh>
        <source id="Plane003-POSITION">
          <float_array id="Plane003-POSITION-array" count="12">
-0.825871 1.408964 -0.144775
0.836590 1.408964 -0.144775
-0.825871 3.321837 -0.144775
0.836590 3.321837 -0.144775
</float_array>
          <technique_common>
            <accessor source="#Plane003-POSITION-array" count="4" stride="3">
              <param name="X" type="float"/>
              <param name="Y" type="float"/>
              <param name="Z" type="float"/>
            </accessor>
          </technique_common>
        </source>
        <source id="Plane003-Normal0">
          <float_array id="Plane003-Normal0-array" count="18">
0.000000 0.000000 1.000000
0.000000 0.000000 1.000000
0.000000 0.000000 1.000000
0.000000 0.000000 1.000000
0.000000 0.000000 1.000000
0.000000 0.000000 1.000000
</float_array>
          <technique_common>
            <accessor source="#Plane003-Normal0-array" count="6" stride="3">
              <param name="X" type="float"/>
              <param name="Y" type="float"/>
              <param name="Z" type="float"/>
            </accessor>
          </technique_common>
        </source>
        <source id="Plane003-UV0">
          <float_array id="Plane003-UV0-array" count="8">
0.292473 0.091590
0.683990 0.091590
0.292473 0.562909
0.683990 0.562909
</float_array>
          <technique_common>
            <accessor source="#Plane003-UV0-array" count="4" stride="2">
              <param name="S" type="float"/>
              <param name="T" type="float"/>
            </accessor>
          </technique_common>
        </source>
        <vertices id="Plane003-VERTEX">
          <input semantic="POSITION" source="#Plane003-POSITION"/>
        </vertices>
        <triangles count="2" material="_17 - Default">
          <input semantic="VERTEX" offset="0" source="#Plane003-VERTEX"/>
          <input semantic="NORMAL" offset="1" source="#Plane003-Normal0"/>
          <input semantic="TEXCOORD" offset="2" set="0" source="#Plane003-UV0"/>
          <p> 0 0 0 1 1 1 3 2 3 3 3 3 2 4 2 0 5 0</p>
        </triangles>
      </mesh>
    </geometry>
  </library_geometries>
  <library_visual_scenes>
    <visual_scene id="" name="">
      <node name="Object157" id="Object157" layer="factory_office_01_window" sid="Object157">
        <matrix sid="matrix">1.000000 0.000000 0.000000 0.000000 0.000000 0.000000 1.000000 0.000000 0.000000 -1.000000 0.000000 0.000000 0.000000 0.000000 0.000000 1.000000</matrix>
        <instance_geometry url="#Object157-lib">
          <bind_material>
            <technique_common>
              <instance_material symbol="_14 - Default" target="#_14 - Default"/>
            </technique_common>
          </bind_material>
        </instance_geometry>
        <extra>
          <technique profile="FCOLLADA">
            <visibility>1.000000</visibility>
          </technique>
        </extra>
      </node>
      <node name="Object158" id="Object158" layer="factory_office_01_window" sid="Object158">
        <matrix sid="matrix">1.000000 0.000000 0.000000 0.000000 0.000000 0.000000 1.000000 0.000000 0.000000 -1.000000 0.000000 0.000000 0.000000 0.000000 0.000000 1.000000</matrix>
        <instance_geometry url="#Object158-lib">
          <bind_material>
            <technique_common>
              <instance_material symbol="_15 - Default" target="#_15 - Default"/>
            </technique_common>
          </bind_material>
        </instance_geometry>
        <extra>
          <technique profile="FCOLLADA">
            <visibility>1.000000</visibility>
          </technique>
        </extra>
      </node>
      <node name="Plane003" id="Plane003" layer="factory_office_01_window" sid="Plane003">
        <matrix sid="matrix">1.000000 0.000000 0.000000 0.000000 0.000000 1.000000 -0.000000 0.000000 0.000000 0.000000 1.000000 0.000000 0.000000 0.000000 0.000000 1.000000</matrix>
        <instance_geometry url="#Plane003-lib">
          <bind_material>
            <technique_common>
              <instance_material symbol="_17 - Default" target="#_17 - Default"/>
            </technique_common>
          </bind_material>
        </instance_geometry>
        <extra>
          <technique profile="FCOLLADA">
            <visibility>1.000000</visibility>
          </technique>
        </extra>
      </node>
      <extra>
        <technique profile="MAX3D">
          <frame_rate>30.000000</frame_rate>
        </technique>
        <technique profile="FCOLLADA">
          <start_time>0.000000</start_time>
          <end_time>6.666667</end_time>
        </technique>
      </extra>
    </visual_scene>
  </library_visual_scenes>
  <scene>
    <instance_visual_scene url="#"></instance_visual_scene>
  </scene>
</COLLADA>

