<?xml version="1.0" encoding="utf-8"?>
<COLLADA xmlns="http://www.collada.org/2005/11/COLLADASchema" version="1.4.1">
  <asset>
    <contributor>
      <author></author>
      <authoring_tool>FBX COLLADA exporter</authoring_tool>
      <comments></comments>
    </contributor>
    <created>2012-02-29T23:22:29Z</created>
    <keywords></keywords>
    <modified>2012-02-29T23:22:29Z</modified>
    <revision></revision>
    <subject></subject>
    <title></title>
    <unit meter="1.000000" name="centimeter"></unit>
    <up_axis>Y_UP</up_axis>
  </asset>
  <library_images>
    <image id="Map #13-image" name="Map #13">
      <init_from>file://C:\Users\WesleyTack\Desktop\amnesia_raw\StaticObjects\factorybase\factory_corridor_white.jpg</init_from>
    </image>
  </library_images>
  <library_materials>
    <material id="factory_corridor_white" name="factory_corridor_white">
      <instance_effect url="#factory_corridor_white-fx"/>
    </material>
  </library_materials>
  <library_effects>
    <effect id="factory_corridor_white-fx" name="factory_corridor_white">
      <profile_COMMON>
        <technique sid="standard">
          <phong>
            <emission>
              <color sid="emission">0.000000  0.000000 0.000000 1.000000</color>
            </emission>
            <ambient>
              <color sid="ambient">0.588235  0.588235 0.588235 1.000000</color>
            </ambient>
            <diffuse>
              <texture texture="Map #13-image" texcoord="CHANNEL0">
                <extra>
                  <technique profile="MAYA">
                    <wrapU sid="wrapU0">TRUE</wrapU>
                    <wrapV sid="wrapV0">TRUE</wrapV>
                    <blend_mode>ADD</blend_mode>
                  </technique>
                </extra>
              </texture>
            </diffuse>
            <specular>
              <color sid="specular">0.000000  0.000000 0.000000 1.000000</color>
            </specular>
            <shininess>
              <float sid="shininess">2.000000</float>
            </shininess>
            <reflective>
              <color sid="reflective">0.000000  0.000000 0.000000 1.000000</color>
            </reflective>
            <reflectivity>
              <float sid="reflectivity">1.000000</float>
            </reflectivity>
            <transparent opaque="RGB_ZERO">
              <color sid="transparent">1.000000  1.000000 1.000000 1.000000</color>
            </transparent>
            <transparency>
              <float sid="transparency">0.000000</float>
            </transparency>
          </phong>
        </technique>
      </profile_COMMON>
    </effect>
  </library_effects>
  <library_geometries>
    <geometry id="Box089-lib" name="Box089Mesh">
      <mesh>
        <source id="Box089-POSITION">
          <float_array id="Box089-POSITION-array" count="9">
-2.000000 2.000000 0.000000
-2.000000 0.000000 0.000000
2.000000 0.000000 0.000000
</float_array>
          <technique_common>
            <accessor source="#Box089-POSITION-array" count="3" stride="3">
              <param name="X" type="float"/>
              <param name="Y" type="float"/>
              <param name="Z" type="float"/>
            </accessor>
          </technique_common>
        </source>
        <source id="Box089-Normal0">
          <float_array id="Box089-Normal0-array" count="9">
0.000000 0.000000 -1.000000
0.000000 0.000000 -1.000000
0.000000 0.000000 -1.000000
</float_array>
          <technique_common>
            <accessor source="#Box089-Normal0-array" count="3" stride="3">
              <param name="X" type="float"/>
              <param name="Y" type="float"/>
              <param name="Z" type="float"/>
            </accessor>
          </technique_common>
        </source>
        <source id="Box089-UV0">
          <float_array id="Box089-UV0-array" count="6">
1.000000 1.000000
1.000000 0.500000
0.000000 0.500000
</float_array>
          <technique_common>
            <accessor source="#Box089-UV0-array" count="3" stride="2">
              <param name="S" type="float"/>
              <param name="T" type="float"/>
            </accessor>
          </technique_common>
        </source>
        <vertices id="Box089-VERTEX">
          <input semantic="POSITION" source="#Box089-POSITION"/>
        </vertices>
        <triangles count="1" material="factory_corridor_white">
          <input semantic="VERTEX" offset="0" source="#Box089-VERTEX"/>
          <input semantic="NORMAL" offset="1" source="#Box089-Normal0"/>
          <input semantic="TEXCOORD" offset="2" set="0" source="#Box089-UV0"/>
          <p> 1 0 1 0 1 0 2 2 2</p>
        </triangles>
      </mesh>
    </geometry>
  </library_geometries>
  <library_visual_scenes>
    <visual_scene id="" name="">
      <node name="Box089" id="Box089" layer="factory_corridor_01_angle" sid="Box089">
        <matrix sid="matrix">-1.000000 0.000000 0.000000 0.000000 0.000000 1.000000 -0.000000 0.000000 -0.000000 -0.000000 -1.000000 0.000000 0.000000 0.000000 0.000000 1.000000</matrix>
        <instance_geometry url="#Box089-lib">
          <bind_material>
            <technique_common>
              <instance_material symbol="factory_corridor_white" target="#factory_corridor_white"/>
            </technique_common>
          </bind_material>
        </instance_geometry>
        <extra>
          <technique profile="FCOLLADA">
            <visibility>1.000000</visibility>
          </technique>
        </extra>
      </node>
      <extra>
        <technique profile="MAX3D">
          <frame_rate>30.000000</frame_rate>
        </technique>
        <technique profile="FCOLLADA">
          <start_time>0.000000</start_time>
          <end_time>3.333333</end_time>
        </technique>
      </extra>
    </visual_scene>
  </library_visual_scenes>
  <scene>
    <instance_visual_scene url="#"></instance_visual_scene>
  </scene>
</COLLADA>

