<?xml version="1.0" encoding="utf-8"?>
<COLLADA xmlns="http://www.collada.org/2005/11/COLLADASchema" version="1.4.1">
  <asset>
    <contributor>
      <author></author>
      <authoring_tool>FBX COLLADA exporter</authoring_tool>
      <comments></comments>
    </contributor>
    <created>2012-09-05T13:49:21Z</created>
    <keywords></keywords>
    <modified>2012-09-05T13:49:21Z</modified>
    <revision></revision>
    <subject></subject>
    <title></title>
    <unit meter="1.000000" name="centimeter"></unit>
    <up_axis>Y_UP</up_axis>
  </asset>
  <library_images>
    <image id="Map #11-image" name="Map #11">
      <init_from>file://C:\Users\WesleyTack\Desktop\amnesia_raw\StaticObjects\factorybase\factory_corridor.jpg</init_from>
    </image>
    <image id="Map #10-image" name="Map #10">
      <init_from>file://C:\Users\WesleyTack\Desktop\amnesia_raw\StaticObjects\factorybase\factory_facade.psd</init_from>
    </image>
  </library_images>
  <library_materials>
    <material id="factory_corridor" name="factory_corridor">
      <instance_effect url="#factory_corridor-fx"/>
    </material>
    <material id="_03 - Default" name="_03 - Default">
      <instance_effect url="#_03 - Default-fx"/>
    </material>
  </library_materials>
  <library_effects>
    <effect id="factory_corridor-fx" name="factory_corridor">
      <profile_COMMON>
        <technique sid="standard">
          <phong>
            <emission>
              <color sid="emission">0.000000  0.000000 0.000000 1.000000</color>
            </emission>
            <ambient>
              <color sid="ambient">0.588235  0.588235 0.588235 1.000000</color>
            </ambient>
            <diffuse>
              <texture texture="Map #11-image" texcoord="CHANNEL0">
                <extra>
                  <technique profile="MAYA">
                    <wrapU sid="wrapU0">TRUE</wrapU>
                    <wrapV sid="wrapV0">TRUE</wrapV>
                    <blend_mode>ADD</blend_mode>
                  </technique>
                </extra>
              </texture>
            </diffuse>
            <specular>
              <color sid="specular">0.000000  0.000000 0.000000 1.000000</color>
            </specular>
            <shininess>
              <float sid="shininess">2.000000</float>
            </shininess>
            <reflective>
              <color sid="reflective">0.000000  0.000000 0.000000 1.000000</color>
            </reflective>
            <reflectivity>
              <float sid="reflectivity">1.000000</float>
            </reflectivity>
            <transparent opaque="RGB_ZERO">
              <color sid="transparent">1.000000  1.000000 1.000000 1.000000</color>
            </transparent>
            <transparency>
              <float sid="transparency">0.000000</float>
            </transparency>
          </phong>
        </technique>
      </profile_COMMON>
    </effect>
    <effect id="_03 - Default-fx" name="_03 - Default">
      <profile_COMMON>
        <technique sid="standard">
          <phong>
            <emission>
              <color sid="emission">0.000000  0.000000 0.000000 1.000000</color>
            </emission>
            <ambient>
              <color sid="ambient">0.588235  0.588235 0.588235 1.000000</color>
            </ambient>
            <diffuse>
              <texture texture="Map #10-image" texcoord="CHANNEL0">
                <extra>
                  <technique profile="MAYA">
                    <wrapU sid="wrapU0">TRUE</wrapU>
                    <wrapV sid="wrapV0">TRUE</wrapV>
                    <blend_mode>ADD</blend_mode>
                  </technique>
                </extra>
              </texture>
            </diffuse>
            <specular>
              <color sid="specular">0.000000  0.000000 0.000000 1.000000</color>
            </specular>
            <shininess>
              <float sid="shininess">2.000000</float>
            </shininess>
            <reflective>
              <color sid="reflective">0.000000  0.000000 0.000000 1.000000</color>
            </reflective>
            <reflectivity>
              <float sid="reflectivity">1.000000</float>
            </reflectivity>
            <transparent opaque="RGB_ZERO">
              <color sid="transparent">1.000000  1.000000 1.000000 1.000000</color>
            </transparent>
            <transparency>
              <float sid="transparency">0.000000</float>
            </transparency>
          </phong>
        </technique>
      </profile_COMMON>
    </effect>
  </library_effects>
  <library_geometries>
    <geometry id="Box025-lib" name="Box025Mesh">
      <mesh>
        <source id="Box025-POSITION">
          <float_array id="Box025-POSITION-array" count="36">
-2.000000 -0.500000 0.000000
2.000000 -0.500000 0.000000
-2.000000 -0.500000 4.000000
2.000000 -0.500000 4.000000
-1.008700 -0.500000 0.000000
1.008700 -0.500000 0.000000
1.008700 -0.500000 4.000000
-1.008700 -0.500000 4.000000
2.000000 -0.500000 3.000000
-2.000000 -0.500000 3.000000
1.008700 -0.500000 3.000000
-1.008700 -0.500000 3.000000
</float_array>
          <technique_common>
            <accessor source="#Box025-POSITION-array" count="12" stride="3">
              <param name="X" type="float"/>
              <param name="Y" type="float"/>
              <param name="Z" type="float"/>
            </accessor>
          </technique_common>
        </source>
        <source id="Box025-Normal0">
          <float_array id="Box025-Normal0-array" count="90">
0.000000 -1.000000 0.000000
0.000000 -1.000000 0.000000
0.000000 -1.000000 0.000000
0.000000 -1.000000 0.000000
0.000000 -1.000000 0.000000
0.000000 -1.000000 0.000000
0.000000 -1.000000 0.000000
0.000000 -1.000000 0.000000
0.000000 -1.000000 0.000000
0.000000 -1.000000 0.000000
0.000000 -1.000000 0.000000
0.000000 -1.000000 0.000000
0.000000 -1.000000 0.000000
0.000000 -1.000000 0.000000
0.000000 -1.000000 0.000000
0.000000 -1.000000 0.000000
0.000000 -1.000000 0.000000
0.000000 -1.000000 0.000000
0.000000 -1.000000 0.000000
0.000000 -1.000000 0.000000
0.000000 -1.000000 0.000000
0.000000 -1.000000 0.000000
0.000000 -1.000000 0.000000
0.000000 -1.000000 0.000000
0.000000 -1.000000 0.000000
0.000000 -1.000000 0.000000
0.000000 -1.000000 0.000000
0.000000 -1.000000 0.000000
0.000000 -1.000000 0.000000
0.000000 -1.000000 0.000000
</float_array>
          <technique_common>
            <accessor source="#Box025-Normal0-array" count="30" stride="3">
              <param name="X" type="float"/>
              <param name="Y" type="float"/>
              <param name="Z" type="float"/>
            </accessor>
          </technique_common>
        </source>
        <source id="Box025-UV0">
          <float_array id="Box025-UV0-array" count="24">
0.002533 0.003635
0.996868 0.003635
0.002533 0.997611
0.996868 0.997611
0.750447 0.997611
0.248954 0.997611
0.996868 0.749117
0.002533 0.749117
0.248954 0.003635
0.750447 0.003635
0.750447 0.749117
0.248954 0.749117
</float_array>
          <technique_common>
            <accessor source="#Box025-UV0-array" count="12" stride="2">
              <param name="S" type="float"/>
              <param name="T" type="float"/>
            </accessor>
          </technique_common>
        </source>
        <vertices id="Box025-VERTEX">
          <input semantic="POSITION" source="#Box025-POSITION"/>
        </vertices>
        <triangles count="10" material="factory_corridor">
          <input semantic="VERTEX" offset="0" source="#Box025-VERTEX"/>
          <input semantic="NORMAL" offset="1" source="#Box025-Normal0"/>
          <input semantic="TEXCOORD" offset="2" set="0" source="#Box025-UV0"/>
          <p> 1 0 1 8 1 6 10 2 10 10 3 10 5 4 9 1 5 1 2 6 2 9 7 7 11 8 11 11 9 11 7 10 5 2 11 2 6 12 4 7 13 5 11 14 11 11 15 11 10 16 10 6 17 4 3 18 3 6 19 4 10 20 10 10 21 10 8 22 6 3 23 3 0 24 0 4 25 8 11 26 11 11 27 11 9 28 7 0 29 0</p>
        </triangles>
      </mesh>
    </geometry>
    <geometry id="Object002-lib" name="Object002Mesh">
      <mesh>
        <source id="Object002-POSITION">
          <float_array id="Object002-POSITION-array" count="60">
-1.008700 0.000000 0.000000
1.008700 0.000000 0.000000
1.008700 0.000000 2.999927
-1.008700 0.000000 2.999927
-1.008700 -0.500000 0.000000
1.008700 -0.500000 0.000000
1.008700 -0.500000 3.000000
-1.008700 -0.500000 3.000000
2.000000 0.252258 0.000000
-2.000000 0.252258 0.000000
2.000000 0.252258 4.000000
-2.000000 0.252259 4.000000
-1.069867 0.252258 4.000000
1.069867 0.252258 4.000000
1.069867 0.252258 0.000000
-1.069867 0.252258 0.000000
2.000000 0.252258 3.080000
-2.000000 0.252259 3.080000
-1.069867 0.252258 3.080000
1.069867 0.252258 3.080000
</float_array>
          <technique_common>
            <accessor source="#Object002-POSITION-array" count="20" stride="3">
              <param name="X" type="float"/>
              <param name="Y" type="float"/>
              <param name="Z" type="float"/>
            </accessor>
          </technique_common>
        </source>
        <source id="Object002-Normal0">
          <float_array id="Object002-Normal0-array" count="144">
-1.000000 0.000000 0.000000
-1.000000 0.000000 0.000000
-1.000000 0.000000 0.000000
-1.000000 0.000000 0.000000
-1.000000 0.000000 0.000000
-1.000000 0.000000 0.000000
1.000000 0.000000 -0.000000
1.000000 0.000000 -0.000000
1.000000 0.000000 -0.000000
1.000000 -0.000000 -0.000000
1.000000 -0.000000 -0.000000
1.000000 -0.000000 -0.000000
0.000000 -0.000146 -1.000000
0.000000 -0.000146 -1.000000
0.000000 -0.000146 -1.000000
0.000000 -0.000146 -1.000000
0.000000 -0.000146 -1.000000
0.000000 -0.000146 -1.000000
0.000000 1.000000 -0.000000
0.000000 1.000000 -0.000000
0.000000 1.000000 -0.000000
0.000000 1.000000 -0.000000
0.000000 1.000000 -0.000000
0.000000 1.000000 -0.000000
0.000000 1.000000 -0.000000
0.000000 1.000000 -0.000000
0.000000 1.000000 -0.000000
0.000000 1.000000 -0.000000
0.000000 1.000000 -0.000000
0.000000 1.000000 -0.000000
0.000000 1.000000 -0.000000
0.000000 1.000000 -0.000000
0.000000 1.000000 -0.000000
0.000000 1.000000 -0.000000
0.000000 1.000000 -0.000000
0.000000 1.000000 -0.000000
0.000000 1.000000 -0.000000
0.000000 1.000000 -0.000000
0.000000 1.000000 -0.000000
0.000000 1.000000 -0.000000
0.000000 1.000000 -0.000000
0.000000 1.000000 -0.000000
0.000000 1.000000 -0.000000
0.000000 1.000000 -0.000000
0.000000 1.000000 -0.000000
0.000000 1.000000 -0.000000
0.000000 1.000000 -0.000000
0.000000 1.000000 -0.000000
</float_array>
          <technique_common>
            <accessor source="#Object002-Normal0-array" count="48" stride="3">
              <param name="X" type="float"/>
              <param name="Y" type="float"/>
              <param name="Z" type="float"/>
            </accessor>
          </technique_common>
        </source>
        <source id="Object002-UV0">
          <float_array id="Object002-UV0-array" count="44">
0.372893 -0.002671
0.372893 0.749087
0.628028 0.749087
0.628028 -0.002671
0.247597 0.624655
0.753324 0.624655
0.247597 -0.002671
0.753324 -0.002671
0.753324 0.749106
0.247597 0.749106
0.000000 0.000000
1.000000 0.000000
0.000000 1.000000
1.000000 1.000000
0.767467 1.000000
0.232533 1.000000
0.232533 0.000000
0.767467 0.000000
0.000000 0.770000
1.000000 0.770000
0.767467 0.770000
0.232533 0.770000
</float_array>
          <technique_common>
            <accessor source="#Object002-UV0-array" count="22" stride="2">
              <param name="S" type="float"/>
              <param name="T" type="float"/>
            </accessor>
          </technique_common>
        </source>
        <vertices id="Object002-VERTEX">
          <input semantic="POSITION" source="#Object002-POSITION"/>
        </vertices>
        <triangles count="16" material="_03 - Default">
          <input semantic="VERTEX" offset="0" source="#Object002-VERTEX"/>
          <input semantic="NORMAL" offset="1" source="#Object002-Normal0"/>
          <input semantic="TEXCOORD" offset="2" set="0" source="#Object002-UV0"/>
          <p> 5 0 7 6 1 8 2 2 2 2 3 2 1 4 3 5 5 7 7 6 9 4 7 6 0 8 0 0 9 0 3 10 1 7 11 9 6 12 8 7 13 9 3 14 4 3 15 4 2 16 5 6 17 8 9 18 11 17 19 19 18 20 20 18 21 20 15 22 17 9 23 11 10 24 12 16 25 18 19 26 21 19 27 21 13 28 15 10 29 12 12 30 14 13 31 15 19 32 21 19 33 21 18 34 20 12 35 14 11 36 13 12 37 14 18 38 20 18 39 20 17 40 19 11 41 13 8 42 10 14 43 16 19 44 21 19 45 21 16 46 18 8 47 10</p>
        </triangles>
      </mesh>
    </geometry>
  </library_geometries>
  <library_visual_scenes>
    <visual_scene id="" name="">
      <node name="Box025" id="Box025" layer="secret_wall_factory" sid="Box025">
        <matrix sid="matrix">1.000000 0.000000 0.000000 0.000000 0.000000 0.000000 1.000000 0.000000 0.000000 -1.000000 0.000000 0.000000 0.000000 0.000000 0.000000 1.000000</matrix>
        <instance_geometry url="#Box025-lib">
          <bind_material>
            <technique_common>
              <instance_material symbol="factory_corridor" target="#factory_corridor"/>
            </technique_common>
          </bind_material>
        </instance_geometry>
        <extra>
          <technique profile="FCOLLADA">
            <visibility>1.000000</visibility>
          </technique>
        </extra>
      </node>
      <node name="Object002" id="Object002" layer="secret_wall_factory" sid="Object002">
        <matrix sid="matrix">1.000000 0.000000 0.000000 0.000000 0.000000 0.000000 1.000000 0.000000 0.000000 -1.000000 0.000000 0.000000 0.000000 0.000000 0.000000 1.000000</matrix>
        <instance_geometry url="#Object002-lib">
          <bind_material>
            <technique_common>
              <instance_material symbol="_03 - Default" target="#_03 - Default"/>
            </technique_common>
          </bind_material>
        </instance_geometry>
        <extra>
          <technique profile="FCOLLADA">
            <visibility>1.000000</visibility>
          </technique>
        </extra>
      </node>
      <extra>
        <technique profile="MAX3D">
          <frame_rate>30.000000</frame_rate>
        </technique>
        <technique profile="FCOLLADA">
          <start_time>0.000000</start_time>
          <end_time>3.333333</end_time>
        </technique>
      </extra>
    </visual_scene>
  </library_visual_scenes>
  <scene>
    <instance_visual_scene url="#"></instance_visual_scene>
  </scene>
</COLLADA>

