﻿<?xml version="1.0" encoding="utf-8"?>
<COLLADA xmlns="http://www.collada.org/2005/11/COLLADASchema" version="1.4.1">
  <asset>
    <contributor>
      <author>marc</author>
      <authoring_tool>Maya7.0 | ColladaMaya v3.05B</authoring_tool>
      <comments>ColladaMaya export options: bakeTransforms=0;exportPolygonMeshes=1;bakeLighting=0;isSampling=0;
curveConstrainSampling=0;removeStaticCurves=1;exportCameraAsLookat=0;
exportLights=1;exportCameras=1;exportJointsAndSkin=1;
exportAnimations=1;exportTriangles=1;exportInvisibleNodes=0;
exportNormals=1;exportTexCoords=1;
exportVertexColors=1;exportVertexColorsAnimation=0;exportTangents=0;
exportTexTangents=0;exportConstraints=1;exportPhysics=1;exportXRefs=1;
dereferenceXRefs=0;cameraXFov=0;cameraYFov=1</comments>
      <source_data>file:///E:/lux/work_static_objects/castlebase/castlebase_railing2.mb</source_data>
    </contributor>
    <created>2009-03-20T09:10:08Z</created>
    <modified>2009-03-20T09:10:08Z</modified>
    <up_axis>Y_UP</up_axis>
    <hpl2scaling />
  </asset>
  <library_physics_scenes>
    <physics_scene id="MayaNativePhysicsScene">
      <technique_common>
        <gravity>0 -980 0</gravity>
        <time_step>0.083</time_step>
      </technique_common>
    </physics_scene>
  </library_physics_scenes>
  <library_images>
    <image id="file1" name="file1">
      <init_from>file:///E:/lux/redist/static_objects/castlebase/stairs/castlebase_railing.dds</init_from>
      <extra>
        <technique profile="MAYA">
          <dgnode_type>kFile</dgnode_type>
          <image_sequence>0</image_sequence>
        </technique>
      </extra>
    </image>
  </library_images>
  <library_materials>
    <material id="lambert1" name="lambert1">
      <instance_effect url="#lambert1-fx" />
    </material>
  </library_materials>
  <library_effects>
    <effect id="lambert1-fx">
      <profile_COMMON>
        <newparam sid="file1-surface">
          <surface type="2D">
            <init_from>file1</init_from>
            <format>A8R8G8B8</format>
          </surface>
        </newparam>
        <newparam sid="file1-sampler">
          <sampler2D>
            <source>file1-surface</source>
            <wrap_s>WRAP</wrap_s>
            <wrap_t>WRAP</wrap_t>
            <minfilter>NONE</minfilter>
            <magfilter>NONE</magfilter>
            <mipfilter>NONE</mipfilter>
          </sampler2D>
        </newparam>
        <technique sid="common">
          <lambert>
            <emission>
              <color>0 0 0 1</color>
            </emission>
            <ambient>
              <color>0 0 0 1</color>
            </ambient>
            <diffuse>
              <texture texture="file1-sampler" texcoord="TEX0">
                <extra>
                  <technique profile="MAYA">
                    <wrapU>1</wrapU>
                    <wrapV>1</wrapV>
                    <mirrorU>0</mirrorU>
                    <mirrorV>0</mirrorV>
                    <coverageU>1</coverageU>
                    <coverageV>1</coverageV>
                    <translateFrameU>0</translateFrameU>
                    <translateFrameV>0</translateFrameV>
                    <rotateFrame>0</rotateFrame>
                    <stagger>0</stagger>
                    <fast>0</fast>
                    <repeatU>1</repeatU>
                    <repeatV>1</repeatV>
                    <offsetU>0</offsetU>
                    <offsetV>0</offsetV>
                    <rotateUV>0</rotateUV>
                    <noiseU>0</noiseU>
                    <noiseV>0</noiseV>
                    <blend_mode>NONE</blend_mode>
                  </technique>
                </extra>
              </texture>
            </diffuse>
            <transparent opaque="RGB_ZERO">
              <color>0 0 0 1</color>
            </transparent>
            <transparency>
              <float>1</float>
            </transparency>
          </lambert>
          <extra>
            <technique profile="FCOLLADA" />
          </extra>
        </technique>
      </profile_COMMON>
    </effect>
  </library_effects>
  <library_geometries>
    <geometry id="polySurfaceShape20" name="polySurfaceShape20">
      <mesh>
        <source id="polySurfaceShape20-positions" name="position">
          <float_array id="polySurfaceShape20-positions-array" count="1008">-0.344594 0 2 0.342613 0 2 -0.125991 0.25 2 0.124009 0.25 2 -0.125991 0.25 -2 0.124009 0.25 -2 -0.344594 0 -2 0.342613 0 -2 -0.282153 0.145088 2 -0.282153 0.145088 -2 0.280172 0.145088 2 0.280172 0.145088 -2 0.20209 0.1875 2 0.20209 0.1875 -2 0.311392 0.0625 -2 0.311392 0.0625 2 -0.313373 0.0625 -2 -0.313373 0.0625 2 -0.204072 0.1875 2 -0.204072 0.1875 -2 -0.18508 0.226785 -2 -0.18508 0.226785 2 -0.344594 0.037276 2 -0.344594 0.037276 -2 0.344594 0.037276 -2 0.344594 0.037276 2 0.183099 0.226785 2 0.183099 0.226785 -2 -0.168315 0.99415 2 0.166334 0.99415 2 0.166334 0.99415 -2 -0.168315 0.99415 -2 -0.125991 1.24415 -2 0.124009 1.24415 -2 -0.125991 1.24415 2 0.124009 1.24415 2 -0.225577 1.111 -2 -0.190926 1.19586 -2 -0.225577 1.111 2 -0.190925 1.19586 2 0.223596 1.111 -2 0.188944 1.19586 -2 0.223596 1.111 2 0.188943 1.19586 2 -0.178854 1.06128 2 -0.178855 1.06128 -2 0.176873 1.06128 -2 0.176872 1.06128 2 -0.376879 0 -0.248705 0.374898 0 -0.248705 -0.252286 0.254871 -0.248705 0.250305 0.254871 -0.248705 -0.252286 0.254871 -0.751295 0.250305 0.254871 -0.751295 -0.376879 0 -0.751295 0.374898 0 -0.751295 0.149602 1.00109 1.43762 0.149602 1.00109 1.56238 0.061386 1.00109 1.65059 -0.063367 1.00109 1.65059 -0.151583 1.00109 1.56238 -0.151583 1.00109 1.43762 -0.063367 1.00109 1.34941 0.061386 1.00109 1.34941 0.098788 0.906759 1.45867 0.098788 0.906759 1.54133 0.040339 0.906759 1.59978 -0.04232 0.906759 1.59978 -0.10077 0.906759 1.54133 -0.10077 0.906759 1.45867 -0.04232 0.906759 1.40022 0.040339 0.906759 1.40022 0.098788 0.399777 1.45867 0.098788 0.399777 1.54133 0.040339 0.399777 1.59978 -0.04232 0.399776 1.59978 -0.10077 0.399777 1.54133 -0.10077 0.399777 1.45867 -0.04232 0.399777 1.40022 0.040339 0.399777 1.40022 0.161982 0.524435 1.4325 0.161982 0.524435 1.56751 0.066514 0.524435 1.66297 -0.068496 0.524435 1.66297 -0.163963 0.524435 1.56751 -0.163963 0.524435 1.4325 -0.068496 0.524435 1.33703 0.066514 0.524435 1.33703 0.161982 0.626806 1.4325 0.161982 0.626806 1.56751 0.066514 0.626806 1.66297 -0.068496 0.626806 1.66297 -0.163963 0.626806 1.56751 -0.163963 0.626806 1.4325 -0.068496 0.626806 1.33703 0.066514 0.626806 1.33703 0.098788 0.821475 1.45867 0.098788 0.821475 1.54133 0.040339 0.821475 1.59978 -0.04232 0.821475 1.59978 -0.10077 0.821475 1.54133 -0.10077 0.821475 1.45867 -0.04232 0.821475 1.40022 0.040339 0.821475 1.40022 0.18424 0.237354 1.42328 0.18424 0.237354 1.57673 0.075734 0.237354 1.68523 -0.077715 0.237354 1.68523 -0.186222 0.237354 1.57673 -0.186222 0.237354 1.42328 -0.077715 0.237354 1.31477 0.075734 0.237354 1.31477 0.098788 0.339401 1.45867 0.098788 0.339401 1.54133 0.040339 0.339401 1.59978 -0.04232 0.339401 1.59978 -0.10077 0.339401 1.54133 -0.10077 0.339401 1.45867 -0.04232 0.339401 1.40022 0.040339 0.339401 1.40022 0.149602 1.00109 0.437624 0.149602 1.00109 0.562378 0.061386 1.00109 0.650593 -0.063367 1.00109 0.650593 -0.151583 1.00109 0.562378 -0.151583 1.00109 0.437624 -0.063367 1.00109 0.349409 0.061386 1.00109 0.349409 0.098788 0.906759 0.458671 0.098788 0.906759 0.541331 0.040339 0.906759 0.59978 -0.04232 0.906759 0.59978 -0.10077 0.906759 0.541331 -0.10077 0.906759 0.458671 -0.04232 0.906759 0.400222 0.040339 0.906759 0.400222 0.098788 0.399777 0.458671 0.098788 0.399777 0.541331 0.040339 0.399777 0.59978 -0.04232 0.399776 0.59978 -0.10077 0.399777 0.541331 -0.10077 0.399777 0.458671 -0.04232 0.399777 0.400222 0.040339 0.399777 0.400222 0.161982 0.524435 0.432495 0.161982 0.524435 0.567506 0.066514 0.524435 0.662973 -0.068496 0.524435 0.662973 -0.163963 0.524435 0.567506 -0.163963 0.524435 0.432496 -0.068496 0.524435 0.337029 0.066514 0.524435 0.337029 0.161982 0.626806 0.432495 0.161982 0.626806 0.567506 0.066514 0.626806 0.662973 -0.068496 0.626806 0.662973 -0.163963 0.626806 0.567506 -0.163963 0.626806 0.432496 -0.068496 0.626806 0.337029 0.066514 0.626806 0.337029 0.098788 0.821475 0.458671 0.098788 0.821475 0.541331 0.040339 0.821475 0.59978 -0.04232 0.821475 0.59978 -0.10077 0.821475 0.541331 -0.10077 0.821475 0.458671 -0.04232 0.821475 0.400222 0.040339 0.821475 0.400222 0.181511 0.237354 0.424406 0.181511 0.237354 0.575596 0.074604 0.237354 0.682503 -0.076585 0.237354 0.682503 -0.183493 0.237354 0.575596 -0.183493 0.237354 0.424406 -0.076585 0.237354 0.317499 0.074604 0.237354 0.317499 0.098788 0.339401 0.458671 0.098788 0.339401 0.541331 0.040339 0.339401 0.59978 -0.04232 0.339401 0.59978 -0.10077 0.339401 0.541331 -0.10077 0.339401 0.458671 -0.04232 0.339401 0.400222 0.040339 0.339401 0.400222 0.149602 1.00109 -0.562376 0.149602 1.00109 -0.437622 0.061386 1.00109 -0.349407 -0.063367 1.00109 -0.349407 -0.151583 1.00109 -0.437622 -0.151583 1.00109 -0.562376 -0.063367 1.00109 -0.650591 0.061386 1.00109 -0.650591 0.098788 0.906759 -0.541329 0.098788 0.906759 -0.458669 0.040339 0.906759 -0.40022 -0.04232 0.906759 -0.40022 -0.10077 0.906759 -0.458669 -0.10077 0.906759 -0.541329 -0.04232 0.906759 -0.599778 0.040339 0.906759 -0.599778 0.098788 0.399777 -0.541329 0.098788 0.399777 -0.458669 0.040339 0.399777 -0.40022 -0.04232 0.399776 -0.40022 -0.10077 0.399777 -0.458669 -0.10077 0.399777 -0.541329 -0.04232 0.399777 -0.599778 0.040339 0.399777 -0.599778 0.161982 0.524435 -0.567505 0.161982 0.524435 -0.432494 0.066514 0.524435 -0.337027 -0.068496 0.524435 -0.337027 -0.163963 0.524435 -0.432494 -0.163963 0.524435 -0.567504 -0.068496 0.524435 -0.662971 0.066514 0.524435 -0.662971 0.161982 0.626806 -0.567505 0.161982 0.626806 -0.432494 0.066514 0.626806 -0.337027 -0.068496 0.626806 -0.337027 -0.163963 0.626806 -0.432494 -0.163963 0.626806 -0.567504 -0.068496 0.626806 -0.662971 0.066514 0.626806 -0.662971 0.098788 0.821475 -0.541329 0.098788 0.821475 -0.458669 0.040339 0.821475 -0.40022 -0.04232 0.821475 -0.40022 -0.10077 0.821475 -0.458669 -0.10077 0.821475 -0.541329 -0.04232 0.821475 -0.599778 0.040339 0.821475 -0.599778 0.18424 0.237354 -0.576724 0.18424 0.237354 -0.423274 0.075734 0.237354 -0.314768 -0.077715 0.237354 -0.314768 -0.186222 0.237354 -0.423274 -0.186222 0.237354 -0.576724 -0.077715 0.237354 -0.68523 0.075734 0.237354 -0.68523 0.098788 0.339401 -0.541329 0.098788 0.339401 -0.458669 0.040339 0.339401 -0.40022 -0.04232 0.339401 -0.40022 -0.10077 0.339401 -0.458669 -0.10077 0.339401 -0.541329 -0.04232 0.339401 -0.599778 0.040339 0.339401 -0.599778 0.149602 1.00109 -1.56238 0.149602 1.00109 -1.43762 0.061386 1.00109 -1.34941 -0.063367 1.00109 -1.34941 -0.151583 1.00109 -1.43762 -0.151583 1.00109 -1.56238 -0.063367 1.00109 -1.65059 0.061386 1.00109 -1.65059 0.098788 0.906759 -1.54133 0.098788 0.906759 -1.45867 0.040339 0.906759 -1.40022 -0.04232 0.906759 -1.40022 -0.10077 0.906759 -1.45867 -0.10077 0.906759 -1.54133 -0.04232 0.906759 -1.59978 0.040339 0.906759 -1.59978 0.098788 0.399777 -1.54133 0.098788 0.399777 -1.45867 0.040339 0.399777 -1.40022 -0.04232 0.399776 -1.40022 -0.10077 0.399777 -1.45867 -0.10077 0.399777 -1.54133 -0.04232 0.399777 -1.59978 0.040339 0.399777 -1.59978 0.161982 0.524435 -1.5675 0.161982 0.524435 -1.43249 0.066514 0.524435 -1.33703 -0.068496 0.524435 -1.33703 -0.163963 0.524435 -1.43249 -0.163963 0.524435 -1.5675 -0.068496 0.524435 -1.66297 0.066514 0.524435 -1.66297 0.161982 0.626806 -1.5675 0.161982 0.626806 -1.43249 0.066514 0.626806 -1.33703 -0.068496 0.626806 -1.33703 -0.163963 0.626806 -1.43249 -0.163963 0.626806 -1.5675 -0.068496 0.626806 -1.66297 0.066514 0.626806 -1.66297 0.098788 0.821475 -1.54133 0.098788 0.821475 -1.45867 0.040339 0.821475 -1.40022 -0.04232 0.821475 -1.40022 -0.10077 0.821475 -1.45867 -0.10077 0.821475 -1.54133 -0.04232 0.821475 -1.59978 0.040339 0.821475 -1.59978 0.178782 0.237354 -1.57446 0.178782 0.237354 -1.42553 0.073473 0.237354 -1.32023 -0.075455 0.237354 -1.32023 -0.180764 0.237354 -1.42553 -0.180764 0.237354 -1.57446 -0.075455 0.237354 -1.67977 0.073473 0.237354 -1.67977 0.098788 0.339401 -1.54133 0.098788 0.339401 -1.45867 0.040339 0.339401 -1.40022 -0.04232 0.339401 -1.40022 -0.10077 0.339401 -1.45867 -0.10077 0.339401 -1.54133 -0.04232 0.339401 -1.59978 0.040339 0.339401 -1.59978 -0.376879 0 -1.2487 0.374898 0 -1.2487 -0.252286 0.254871 -1.2487 0.250305 0.254871 -1.2487 -0.252286 0.254871 -1.7513 0.250305 0.254871 -1.7513 -0.376879 0 -1.7513 0.374898 0 -1.7513 -0.376879 0 0.751295 0.374898 0 0.751295 -0.252286 0.254871 0.751295 0.250305 0.254871 0.751295 -0.252286 0.254871 0.248705 0.250305 0.254871 0.248705 -0.376879 0 0.248705 0.374898 0 0.248705 -0.376879 0 1.7513 0.374898 0 1.7513 -0.252286 0.254871 1.7513 0.250305 0.254871 1.7513 -0.252286 0.254871 1.2487 0.250305 0.254871 1.2487 -0.376879 0 1.2487 0.374898 0 1.2487</float_array>
          <technique_common>
            <accessor source="#polySurfaceShape20-positions-array" count="336" stride="3">
              <param name="X" type="float" />
              <param name="Y" type="float" />
              <param name="Z" type="float" />
            </accessor>
          </technique_common>
        </source>
        <source id="polySurfaceShape20-normals" name="normal">
          <float_array id="polySurfaceShape20-normals-array" count="1740">0 0 1 0 0 1 0 0 1 0 0 1 0 0 1 0 0 1 0 0 1 0 0 1 0 0 1 0 0 1 0 0 1 0 0 1 0 0 1 0 0 1 -0.186082 0.982534 0 0.186081 0.982534 0 0.186081 0.982534 0 -0.186082 0.982534 0 0 0 -1 0 0 -1 0 0 -1 0 0 -1 0 0 -1 0 0 -1 0 0 -1 0 0 -1 0 0 -1 0 0 -1 0 0 -1 0 0 -1 0 0 -1 0 0 -1 0.679752 0.733442 0 0.679752 0.733442 0 -0.935395 0.353605 0 -0.935395 0.353605 0 -0.753573 0.657364 0 -0.753573 0.657364 0 -0.477307 0.878737 0 -0.477307 0.878737 0 0.998591 -0.053073 0 0.998591 -0.053073 0 0.907287 0.420511 0 0.907287 0.420511 0 0.753572 0.657365 0 0.753572 0.657365 0 0.477304 0.878738 0 0.477304 0.878738 0 0.935395 0.353605 0 0.935395 0.353605 0 -1 0 0 -1 0 0 -0.902341 0.431023 0 -0.902341 0.431023 0 -0.679751 0.733443 0 -0.679751 0.733443 0 -0.900318 0.435233 0 -0.900318 0.435233 0 -0.628439 0.777859 0 -0.628439 0.777859 0 0.604932 0.796277 0 0.604932 0.796277 0 0.900321 0.435228 0 0.900321 0.435228 0 0 -1 0 0 -1 0 0 -1 0 0 -1 0 -0.314317 0.949318 0 -0.314317 0.949318 0 0.314318 0.949318 0 0.314318 0.949318 0 -0.983244 -0.182297 0 -0.983244 -0.182297 0 -0.790294 0.612727 0 -0.790294 0.612727 0 0 0 1 0 0 1 0 0 1 0 0 1 0.983244 -0.182297 0 0.983244 -0.182297 0 0.790294 0.612728 0 0.790294 0.612728 0 -0.649966 -0.759964 0 -0.649966 -0.759964 0 -0.898249 -0.439487 0 -0.898249 -0.439487 0 0 0 1 0 0 1 0 0 1 0 0 1 0 0 1 0.649969 -0.759961 0 0.649969 -0.759961 0 0.89825 -0.439485 0 0.89825 -0.439485 0 0 0 1 0 0 1 0 0 1 0 0 1 0 0 1 -0.000004 0.000000 -1 -0.000004 0.000000 -1 -0.000004 0.000000 -1 -0.000004 0.000000 -1 -0.000004 0.000000 -1 0.000001 0.000000 -1 0.000001 0.000000 -1 0.000001 0.000000 -1 0.000001 0.000000 -1 0.000001 0.000000 -1 0 0 -1 0 0 -1 0 0 -1 0 0 -1 0 0 1 0 0 1 0 0 1 0 0 1 0 1 0 0 1 0 0 1 0 0 1 0 0 0 -1 0 0 -1 0 0 -1 0 0 -1 0.898399 0.439181 0 0.898399 0.439181 0 0.898399 0.439181 0 0.898399 0.439181 0 -0.898398 0.439182 0 -0.898398 0.439182 0 -0.898398 0.439182 0 -0.898398 0.439182 0 0.798115 -0.503709 0.33059 0.798115 -0.503708 -0.33059 0.798115 -0.503708 -0.33059 0.798115 -0.503709 0.33059 0.33059 -0.503708 0.798115 0.33059 -0.503708 0.798115 -0.33059 -0.503709 0.798115 -0.33059 -0.503709 0.798115 -0.798115 -0.503708 0.33059 -0.798115 -0.503708 0.33059 -0.798116 -0.503708 -0.33059 -0.798116 -0.503708 -0.33059 -0.33059 -0.503708 -0.798115 -0.33059 -0.503708 -0.798115 0.33059 -0.503708 -0.798115 0.33059 -0.503708 -0.798115 0.809963 -0.481043 0.335497 0.809962 -0.481043 -0.335498 0.894438 -0.250437 -0.370489 0.894438 -0.250436 0.370488 0.335498 -0.481043 0.809962 0.370489 -0.250436 0.894438 -0.335498 -0.481043 0.809962 -0.370489 -0.250437 0.894438 -0.809963 -0.481043 0.335497 -0.894439 -0.250437 0.370488 -0.809963 -0.481043 -0.335497 -0.894439 -0.250436 -0.370488 -0.335498 -0.481043 -0.809962 -0.370489 -0.250437 -0.894438 0.335497 -0.481043 -0.809963 0.370488 -0.250437 -0.894439 0.910618 0.168825 -0.377191 0.910618 0.168825 0.37719 0.37719 0.168825 0.910618 -0.377191 0.168825 0.910618 -0.910618 0.168825 0.37719 -0.910618 0.168825 -0.37719 -0.377191 0.168825 -0.910618 0.37719 0.168825 -0.910618 0.871639 0.331499 -0.361045 0.871639 0.331499 0.361045 0.361045 0.331499 0.871639 -0.361045 0.331499 0.871639 -0.871639 0.331499 0.361044 -0.87164 0.331499 -0.361045 -0.361045 0.331499 -0.871639 0.361044 0.331499 -0.87164 0.92388 0 0.382683 0.923879 0 -0.382684 0.923879 0 -0.382684 0.92388 0 0.382683 0.382684 0 0.923879 0.382684 0 0.923879 -0.382684 0 0.923879 -0.382684 0 0.923879 -0.92388 0 0.382683 -0.92388 0 0.382683 -0.923879 0 -0.382684 -0.923879 0 -0.382684 -0.382683 0 -0.92388 -0.382683 0 -0.92388 0.382683 0 -0.92388 0.382683 0 -0.92388 0.684541 0.671569 0.283546 0.684541 0.671569 -0.283546 0.684541 0.671569 -0.283546 0.684541 0.671569 0.283546 0.283546 0.671569 0.684541 0.283546 0.671569 0.684541 -0.283546 0.671569 0.684541 -0.283546 0.671569 0.684541 -0.684541 0.671569 0.283546 -0.684541 0.671569 0.283546 -0.684541 0.671569 -0.283546 -0.684541 0.671569 -0.283546 -0.283546 0.671569 -0.684541 -0.283546 0.671569 -0.684541 0.283546 0.671569 -0.684541 0.283546 0.671569 -0.684541 0.92388 0 0.382683 0.92388 0 -0.382684 0.92388 0 -0.382684 0.92388 0 0.382683 0.382684 0 0.923879 0.382684 0 0.923879 -0.382684 0 0.923879 -0.382684 0 0.923879 -0.92388 0 0.382683 -0.92388 0 0.382683 -0.923879 0 -0.382684 -0.923879 0 -0.382684 -0.382683 0 -0.92388 -0.382683 0 -0.92388 0.382684 0 -0.92388 0.382684 0 -0.92388 0.798115 -0.503708 0.33059 0.798115 -0.503708 -0.33059 0.798115 -0.503708 -0.33059 0.798115 -0.503708 0.33059 0.33059 -0.503708 0.798115 0.33059 -0.503708 0.798115 -0.33059 -0.503708 0.798115 -0.33059 -0.503708 0.798115 -0.798115 -0.503708 0.33059 -0.798115 -0.503708 0.33059 -0.798115 -0.503708 -0.33059 -0.798115 -0.503708 -0.33059 -0.33059 -0.503708 -0.798115 -0.33059 -0.503708 -0.798115 0.33059 -0.503708 -0.798115 0.33059 -0.503708 -0.798115 0.809963 -0.481043 0.335497 0.809962 -0.481043 -0.335498 0.894438 -0.250437 -0.370489 0.894438 -0.250436 0.370488 0.335498 -0.481043 0.809963 0.370489 -0.250436 0.894438 -0.335498 -0.481043 0.809962 -0.370489 -0.250437 0.894438 -0.809963 -0.481043 0.335497 -0.894439 -0.250437 0.370488 -0.809963 -0.481043 -0.335497 -0.894439 -0.250437 -0.370488 -0.335498 -0.481043 -0.809962 -0.370489 -0.250437 -0.894438 0.335497 -0.481043 -0.809963 0.370488 -0.250437 -0.894438 0.910618 0.168825 -0.377191 0.910618 0.168825 0.37719 0.37719 0.168825 0.910618 -0.377191 0.168825 0.910618 -0.910618 0.168825 0.37719 -0.910618 0.168825 -0.37719 -0.377191 0.168825 -0.910618 0.37719 0.168825 -0.910618 0.871639 0.331499 -0.361045 0.871639 0.331498 0.361045 0.361045 0.331499 0.871639 -0.361045 0.331499 0.871639 -0.87164 0.331499 0.361044 -0.87164 0.331499 -0.361044 -0.361045 0.331499 -0.871639 0.361044 0.331499 -0.87164 0.92388 0 0.382683 0.92388 0 -0.382683 0.92388 0 -0.382683 0.92388 0 0.382683 0.382683 0 0.92388 0.382683 0 0.92388 -0.382683 0 0.92388 -0.382683 0 0.92388 -0.92388 0 0.382683 -0.92388 0 0.382683 -0.92388 0 -0.382683 -0.92388 0 -0.382683 -0.382683 0 -0.92388 -0.382683 0 -0.92388 0.382684 0 -0.92388 0.382684 0 -0.92388 0.694454 0.659537 0.287652 0.694454 0.659537 -0.287652 0.694454 0.659537 -0.287652 0.694454 0.659537 0.287652 0.287652 0.659537 0.694454 0.287652 0.659537 0.694454 -0.287652 0.659537 0.694454 -0.287652 0.659537 0.694454 -0.694454 0.659537 0.287652 -0.694454 0.659537 0.287652 -0.694454 0.659537 -0.287652 -0.694454 0.659537 -0.287652 -0.287652 0.659537 -0.694454 -0.287652 0.659537 -0.694454 0.287652 0.659537 -0.694454 0.287652 0.659537 -0.694454 0.92388 0 0.382684 0.92388 0 -0.382683 0.92388 0 -0.382683 0.92388 0 0.382684 0.382683 0 0.92388 0.382683 0 0.92388 -0.382683 0 0.92388 -0.382683 0 0.92388 -0.92388 0 0.382683 -0.92388 0 0.382683 -0.92388 0 -0.382684 -0.92388 0 -0.382684 -0.382683 0 -0.92388 -0.382683 0 -0.92388 0.382683 0 -0.92388 0.382683 0 -0.92388 0.798115 -0.503708 0.33059 0.798115 -0.503708 -0.33059 0.798115 -0.503708 -0.33059 0.798115 -0.503708 0.33059 0.33059 -0.503708 0.798115 0.33059 -0.503708 0.798115 -0.33059 -0.503708 0.798115 -0.33059 -0.503708 0.798115 -0.798115 -0.503708 0.33059 -0.798115 -0.503708 0.33059 -0.798115 -0.503708 -0.33059 -0.798115 -0.503708 -0.33059 -0.33059 -0.503708 -0.798115 -0.33059 -0.503708 -0.798115 0.33059 -0.503708 -0.798115 0.33059 -0.503708 -0.798115 0.809963 -0.481043 0.335497 0.809962 -0.481043 -0.335498 0.894438 -0.250437 -0.370489 0.894438 -0.250436 0.370488 0.335498 -0.481043 0.809963 0.370489 -0.250436 0.894438 -0.335498 -0.481043 0.809962 -0.370489 -0.250437 0.894438 -0.809963 -0.481043 0.335497 -0.894439 -0.250437 0.370488 -0.809963 -0.481043 -0.335497 -0.894439 -0.250437 -0.370488 -0.335498 -0.481043 -0.809962 -0.370489 -0.250437 -0.894438 0.335497 -0.481043 -0.809963 0.370488 -0.250437 -0.894438 0.910618 0.168825 -0.377191 0.910618 0.168825 0.37719 0.37719 0.168825 0.910618 -0.377191 0.168825 0.910618 -0.910618 0.168825 0.37719 -0.910618 0.168825 -0.37719 -0.377191 0.168825 -0.910618 0.37719 0.168825 -0.910618 0.871639 0.331499 -0.361045 0.871639 0.331498 0.361045 0.361045 0.331499 0.871639 -0.361045 0.331499 0.871639 -0.87164 0.331499 0.361044 -0.87164 0.331499 -0.361044 -0.361045 0.331499 -0.871639 0.361045 0.331499 -0.87164 0.92388 0 0.382683 0.92388 0 -0.382683 0.92388 0 -0.382683 0.92388 0 0.382683 0.382683 0 0.92388 0.382683 0 0.92388 -0.382683 0 0.92388 -0.382683 0 0.92388 -0.92388 0 0.382683 -0.92388 0 0.382683 -0.92388 0 -0.382683 -0.92388 0 -0.382683 -0.382683 0 -0.92388 -0.382683 0 -0.92388 0.382684 0 -0.92388 0.382684 0 -0.92388 0.684541 0.671569 0.283546 0.684541 0.671569 -0.283546 0.684541 0.671569 -0.283546 0.684541 0.671569 0.283546 0.283546 0.671569 0.684541 0.283546 0.671569 0.684541 -0.283546 0.671569 0.684541 -0.283546 0.671569 0.684541 -0.684541 0.671569 0.283546 -0.684541 0.671569 0.283546 -0.684541 0.671569 -0.283546 -0.684541 0.671569 -0.283546 -0.283546 0.671569 -0.684541 -0.283546 0.671569 -0.684541 0.283546 0.671569 -0.684541 0.283546 0.671569 -0.684541 0.92388 0 0.382683 0.92388 0 -0.382683 0.92388 0 -0.382683 0.92388 0 0.382683 0.382683 0 0.92388 0.382683 0 0.92388 -0.382683 0 0.92388 -0.382683 0 0.92388 -0.92388 0 0.382684 -0.92388 0 0.382684 -0.92388 0 -0.382683 -0.92388 0 -0.382683 -0.382684 0 -0.92388 -0.382684 0 -0.92388 0.382683 0 -0.92388 0.382683 0 -0.92388 0.798115 -0.503708 0.33059 0.798115 -0.503708 -0.33059 0.798115 -0.503708 -0.33059 0.798115 -0.503708 0.33059 0.33059 -0.503708 0.798115 0.33059 -0.503708 0.798115 -0.33059 -0.503708 0.798115 -0.33059 -0.503708 0.798115 -0.798115 -0.503708 0.33059 -0.798115 -0.503708 0.33059 -0.798115 -0.503708 -0.33059 -0.798115 -0.503708 -0.33059 -0.330591 -0.503708 -0.798115 -0.330591 -0.503708 -0.798115 0.33059 -0.503708 -0.798115 0.33059 -0.503708 -0.798115 0.809963 -0.481043 0.335498 0.809962 -0.481043 -0.335498 0.894438 -0.250437 -0.370489 0.894438 -0.250436 0.370489 0.335498 -0.481043 0.809963 0.370489 -0.250436 0.894438 -0.335498 -0.481043 0.809962 -0.370489 -0.250437 0.894438 -0.809963 -0.481043 0.335497 -0.894439 -0.250437 0.370488 -0.809963 -0.481043 -0.335497 -0.894439 -0.250437 -0.370488 -0.335498 -0.481043 -0.809962 -0.370489 -0.250437 -0.894438 0.335497 -0.481043 -0.809962 0.370488 -0.250437 -0.894439 0.910618 0.168825 -0.377191 0.910618 0.168825 0.377191 0.37719 0.168825 0.910618 -0.377191 0.168825 0.910618 -0.910618 0.168825 0.37719 -0.910618 0.168825 -0.37719 -0.377191 0.168825 -0.910618 0.37719 0.168825 -0.910618 0.871639 0.331499 -0.361045 0.871639 0.331498 0.361045 0.361045 0.331498 0.871639 -0.361045 0.331499 0.871639 -0.871639 0.331499 0.361045 -0.87164 0.331499 -0.361044 -0.361045 0.331499 -0.871639 0.361045 0.331499 -0.871639 0.923879 0 0.382684 0.92388 0 -0.382683 0.92388 0 -0.382683 0.923879 0 0.382684 0.382683 0 0.92388 0.382683 0 0.92388 -0.382683 0 0.92388 -0.382683 0 0.92388 -0.923879 0 0.382684 -0.923879 0 0.382684 -0.92388 0 -0.382683 -0.92388 0 -0.382683 -0.382684 0 -0.923879 -0.382684 0 -0.923879 0.382684 0 -0.923879 0.382684 0 -0.923879 0.704468 0.646976 0.2918 0.704468 0.646976 -0.2918 0.704468 0.646976 -0.2918 0.704468 0.646976 0.2918 0.2918 0.646976 0.704468 0.2918 0.646976 0.704468 -0.2918 0.646976 0.704468 -0.2918 0.646976 0.704468 -0.704468 0.646976 0.2918 -0.704468 0.646976 0.2918 -0.704468 0.646976 -0.2918 -0.704468 0.646976 -0.2918 -0.2918 0.646976 -0.704468 -0.2918 0.646976 -0.704468 0.291801 0.646976 -0.704468 0.291801 0.646976 -0.704468 0.923879 0 0.382684 0.92388 0 -0.382683 0.92388 0 -0.382683 0.923879 0 0.382684 0.382683 0 0.92388 0.382683 0 0.92388 -0.382683 0 0.92388 -0.382683 0 0.92388 -0.923879 0 0.382684 -0.923879 0 0.382684 -0.92388 0 -0.382683 -0.92388 0 -0.382683 -0.382683 0 -0.92388 -0.382683 0 -0.92388 0.382684 0 -0.923879 0.382684 0 -0.923879 0 0 1 0 0 1 0 0 1 0 0 1 0 1 0 0 1 0 0 1 0 0 1 0 0 0 -1 0 0 -1 0 0 -1 0 0 -1 0.898399 0.439181 0 0.898399 0.439181 0 0.898399 0.439181 0 0.898399 0.439181 0 -0.898398 0.439182 0 -0.898398 0.439182 0 -0.898398 0.439182 0 -0.898398 0.439182 0 0 0 1 0 0 1 0 0 1 0 0 1 0 1 0 0 1 0 0 1 0 0 1 0 0 0 -1 0 0 -1 0 0 -1 0 0 -1 0.898399 0.439181 0 0.898399 0.439181 0 0.898399 0.439181 0 0.898399 0.439181 0 -0.898398 0.439182 0 -0.898398 0.439182 0 -0.898398 0.439182 0 -0.898398 0.439182 0 0 0 1 0 0 1 0 0 1 0 0 1 0 1 0 0 1 0 0 1 0 0 1 0 0 0 -1 0 0 -1 0 0 -1 0 0 -1 0.898399 0.439181 0 0.898399 0.439181 0 0.898399 0.439181 0 0.898399 0.439181 0 -0.898398 0.439182 0 -0.898398 0.439182 0 -0.898398 0.439182 0 -0.898398 0.439182 0</float_array>
          <technique_common>
            <accessor source="#polySurfaceShape20-normals-array" count="580" stride="3">
              <param name="X" type="float" />
              <param name="Y" type="float" />
              <param name="Z" type="float" />
            </accessor>
          </technique_common>
        </source>
        <source id="polySurfaceShape20-map1" name="map1">
          <float_array id="polySurfaceShape20-map1-array" count="1196">0.756547 0.247472 0.756547 0.021154 0.768824 0.020502 0.777131 0.031436 0.804329 0.041718 0.818297 0.067433 0.831234 0.073687 0.83888 0.093147 0.83888 0.175479 0.831234 0.194939 0.818297 0.201194 0.804329 0.226908 0.777131 0.23719 0.768824 0.247472 0.268302 1 0.116271 0.999998 0.11646 -0.000002 0.268414 0.000003 0.840192 0.175479 0.840192 0.093147 0.847837 0.073687 0.860775 0.067433 0.874742 0.041718 0.901941 0.031436 0.910248 0.020502 0.922524 0.021154 0.922524 0.247472 0.910248 0.247472 0.901941 0.23719 0.874742 0.226908 0.860775 0.201194 0.847837 0.194939 0.089014 0.999996 0.089139 -0.000003 0.362998 0.000007 0.363049 1.00001 0.337108 1.00001 0.337085 0.000006 0.315212 1.00001 0.315222 0.000005 0.000189 0.999991 0.000178 -0.000009 0.009914 -0.000008 0.009915 0.999991 0.046887 0.999993 0.046929 -0.000006 0.069052 -0.000004 0.068958 0.999995 0.020813 0.999992 0.020818 -0.000007 0.384098 0.000007 0.384157 1.00001 0.374602 1.00001 0.374551 0.000007 0.295345 0.000005 0.295297 1.00001 0.115525 0.999311 0.115525 -0.000689 0.287327 -0.000689 0.287327 0.999311 0.282784 1.0006 0.282696 1.99064 0.196329 1.99063 0.196417 1.00059 0.327916 1.0006 0.32792 1.99064 0.3048 1.99064 0.30484 1.0006 0.544289 0.200738 0.544289 0.069236 0.675792 0.069236 0.675792 0.200738 0.151197 1.99063 0.151193 1.00059 0.174313 1.00059 0.174273 1.99063 0.369063 1.0006 0.369151 1.99064 0.344645 1.99064 0.344602 1.0006 0.650389 0.234895 0.605754 0.253122 0.579601 0.221009 0.110049 1.99063 0.109961 1.00059 0.134468 1.00059 0.13451 1.99063 0.579601 0.048965 0.605754 0.016852 0.650389 0.035079 0.542282 0.200739 0.506971 0.22101 0.480818 0.253122 0.436183 0.234895 0.41078 0.200739 0.480818 0.016852 0.506971 0.048965 0.542282 0.069236 0.41078 0.069236 0.436183 0.035079 0.023681 1.99064 0.023593 1.0006 0.409938 0.410766 0.409938 0.565622 0.356574 0.539957 0.356574 0.436431 0.73472 0.457348 0.864981 0.457348 0.864981 0.577658 0.73472 0.577658 0.356574 0.539957 0.356574 0.436431 0.409938 0.410766 0.409938 0.565622 0.936379 0.457517 0.936379 0.577489 0.663322 0.577272 0.663323 0.457734 0.391825 0.538051 0.391825 0.448252 0.446944 0.448252 0.446944 0.538051 0.391825 0.627851 0.446943 0.627851 0.391825 0.71765 0.446944 0.71765 0.391825 0.807449 0.446943 0.807449 0.391825 0.897248 0.446944 0.897248 0.391825 0.987048 0.446944 0.987047 0.391825 0.358453 0.391825 0.268654 0.446943 0.268654 0.446944 0.358453 0.978546 0.716759 0.978546 0.806209 0.872776 0.806209 0.872776 0.716759 0.978546 0.627308 0.872776 0.627308 0.978546 0.537858 0.872776 0.537858 0.978546 0.448408 0.872776 0.448408 0.978545 0.358958 0.872776 0.358958 0.978545 0.269508 0.872776 0.269508 0.978546 0.895659 0.978546 0.985109 0.872776 0.98511 0.872776 0.895659 0.785916 0.806209 0.785916 0.716759 0.785916 0.627308 0.785916 0.537858 0.785916 0.448408 0.785916 0.358958 0.785916 0.269508 0.785916 0.985109 0.785916 0.895659 0.620745 0.806209 0.620744 0.716759 0.620745 0.627308 0.620745 0.537858 0.620745 0.448408 0.620745 0.358958 0.620745 0.269508 0.620744 0.985109 0.620745 0.895659 0.604718 0.716289 0.604718 0.805166 0.50352 0.805166 0.50352 0.716289 0.604718 0.627411 0.50352 0.627411 0.604718 0.538534 0.50352 0.538534 0.604718 0.449656 0.50352 0.449656 0.604718 0.360779 0.50352 0.360779 0.604718 0.271901 0.50352 0.271901 0.604718 0.894043 0.604718 0.982921 0.50352 0.982921 0.50352 0.894043 0.446944 0.71765 0.446943 0.807449 0.391825 0.807449 0.391825 0.71765 0.446943 0.627851 0.391825 0.627851 0.446944 0.538051 0.391825 0.538051 0.446944 0.448252 0.391825 0.448252 0.446944 0.358453 0.391825 0.358453 0.446943 0.268654 0.391825 0.268654 0.446944 0.897248 0.446944 0.987047 0.391825 0.987048 0.391825 0.897248 0.604718 0.716289 0.604718 0.805166 0.50352 0.805166 0.50352 0.716288 0.604718 0.627411 0.50352 0.627411 0.604718 0.538534 0.50352 0.538534 0.604718 0.449656 0.50352 0.449656 0.604718 0.360779 0.50352 0.360779 0.604718 0.271901 0.50352 0.271901 0.604718 0.894043 0.604718 0.982921 0.50352 0.982921 0.503521 0.894043 0.391825 0.538051 0.391825 0.448252 0.446944 0.448252 0.446944 0.538051 0.391825 0.627851 0.446943 0.627851 0.391825 0.71765 0.446944 0.71765 0.391825 0.807449 0.446943 0.807449 0.391825 0.897248 0.446944 0.897248 0.391825 0.987048 0.446944 0.987047 0.391825 0.358453 0.391825 0.268654 0.446943 0.268654 0.446944 0.358453 0.978546 0.716759 0.978546 0.806209 0.872776 0.806209 0.872776 0.716759 0.978546 0.627308 0.872776 0.627308 0.978546 0.537858 0.872776 0.537858 0.978546 0.448408 0.872776 0.448408 0.978545 0.358958 0.872776 0.358958 0.978545 0.269508 0.872776 0.269508 0.978546 0.895659 0.978546 0.985109 0.872776 0.98511 0.872776 0.895659 0.785916 0.806209 0.785916 0.716759 0.785916 0.627308 0.785916 0.537858 0.785916 0.448408 0.785916 0.358958 0.785916 0.269508 0.785916 0.985109 0.785916 0.895659 0.620745 0.806209 0.620744 0.716759 0.620745 0.627308 0.620745 0.537858 0.620745 0.448408 0.620745 0.358958 0.620745 0.269508 0.620744 0.985109 0.620745 0.895659 0.604718 0.716289 0.604718 0.805166 0.50352 0.805166 0.50352 0.716289 0.604718 0.627411 0.50352 0.627411 0.604718 0.538534 0.50352 0.538534 0.604718 0.449656 0.50352 0.449656 0.604718 0.360779 0.50352 0.360779 0.604718 0.271901 0.50352 0.271901 0.604718 0.894043 0.604718 0.982921 0.50352 0.982921 0.50352 0.894043 0.446944 0.71765 0.446943 0.807449 0.391825 0.807449 0.391825 0.71765 0.446943 0.627851 0.391825 0.627851 0.446944 0.538051 0.391825 0.538051 0.446944 0.448252 0.391825 0.448252 0.446944 0.358453 0.391825 0.358453 0.446943 0.268654 0.391825 0.268654 0.446944 0.897248 0.446944 0.987047 0.391825 0.987048 0.391825 0.897248 0.604718 0.716289 0.604718 0.805166 0.50352 0.805166 0.50352 0.716288 0.604718 0.627411 0.50352 0.627411 0.604718 0.538534 0.50352 0.538534 0.604718 0.449656 0.50352 0.449656 0.604718 0.360779 0.50352 0.360779 0.604718 0.271901 0.50352 0.271901 0.604718 0.894043 0.604718 0.982921 0.50352 0.982921 0.503521 0.894043 0.391825 0.538051 0.391825 0.448252 0.446944 0.448252 0.446944 0.538051 0.391825 0.627851 0.446943 0.627851 0.391825 0.71765 0.446944 0.71765 0.391825 0.807449 0.446943 0.807449 0.391825 0.897248 0.446944 0.897248 0.391825 0.987048 0.446944 0.987047 0.391825 0.358453 0.391825 0.268654 0.446943 0.268654 0.446944 0.358453 0.978546 0.716759 0.978546 0.806209 0.872776 0.806209 0.872776 0.716759 0.978546 0.627308 0.872776 0.627308 0.978546 0.537858 0.872776 0.537858 0.978546 0.448408 0.872776 0.448408 0.978545 0.358958 0.872776 0.358958 0.978545 0.269508 0.872776 0.269508 0.978546 0.895659 0.978546 0.985109 0.872776 0.98511 0.872776 0.895659 0.785916 0.806209 0.785916 0.716759 0.785916 0.627308 0.785916 0.537858 0.785916 0.448408 0.785916 0.358958 0.785916 0.269508 0.785916 0.985109 0.785916 0.895659 0.620745 0.806209 0.620744 0.716759 0.620745 0.627308 0.620745 0.537858 0.620745 0.448408 0.620745 0.358958 0.620745 0.269508 0.620744 0.985109 0.620745 0.895659 0.604718 0.716289 0.604718 0.805166 0.50352 0.805166 0.50352 0.716289 0.604718 0.627411 0.50352 0.627411 0.604718 0.538534 0.50352 0.538534 0.604718 0.449656 0.50352 0.449656 0.604718 0.360779 0.50352 0.360779 0.604718 0.271901 0.50352 0.271901 0.604718 0.894043 0.604718 0.982921 0.50352 0.982921 0.50352 0.894043 0.446944 0.71765 0.446943 0.807449 0.391825 0.807449 0.391825 0.71765 0.446943 0.627851 0.391825 0.627851 0.446944 0.538051 0.391825 0.538051 0.446944 0.448252 0.391825 0.448252 0.446944 0.358453 0.391825 0.358453 0.446943 0.268654 0.391825 0.268654 0.446944 0.897248 0.446944 0.987047 0.391825 0.987048 0.391825 0.897248 0.604718 0.716289 0.604718 0.805166 0.50352 0.805166 0.50352 0.716288 0.604718 0.627411 0.50352 0.627411 0.604718 0.538534 0.50352 0.538534 0.604718 0.449656 0.50352 0.449656 0.604718 0.360779 0.50352 0.360779 0.604718 0.271901 0.50352 0.271901 0.604718 0.894043 0.604718 0.982921 0.50352 0.982921 0.503521 0.894043 0.391825 0.538051 0.391825 0.448252 0.446944 0.448252 0.446944 0.538051 0.391825 0.627851 0.446943 0.627851 0.391825 0.71765 0.446944 0.71765 0.391825 0.807449 0.446943 0.807449 0.391825 0.897248 0.446944 0.897248 0.391825 0.987048 0.446944 0.987047 0.391825 0.358453 0.391825 0.268654 0.446943 0.268654 0.446944 0.358453 0.978546 0.716759 0.978546 0.806209 0.872776 0.806209 0.872776 0.716759 0.978546 0.627308 0.872776 0.627308 0.978546 0.537858 0.872776 0.537858 0.978546 0.448408 0.872776 0.448408 0.978545 0.358958 0.872776 0.358958 0.978545 0.269508 0.872776 0.269508 0.978546 0.895659 0.978546 0.985109 0.872776 0.98511 0.872776 0.895659 0.785916 0.806209 0.785916 0.716759 0.785916 0.627308 0.785916 0.537858 0.785916 0.448408 0.785916 0.358958 0.785916 0.269508 0.785916 0.985109 0.785916 0.895659 0.620745 0.806209 0.620744 0.716759 0.620745 0.627308 0.620745 0.537858 0.620745 0.448408 0.620745 0.358958 0.620745 0.269508 0.620744 0.985109 0.620745 0.895659 0.604718 0.716289 0.604718 0.805166 0.50352 0.805166 0.50352 0.716289 0.604718 0.627411 0.50352 0.627411 0.604718 0.538534 0.50352 0.538534 0.604718 0.449656 0.50352 0.449656 0.604718 0.360779 0.50352 0.360779 0.604718 0.271901 0.50352 0.271901 0.604718 0.894043 0.604718 0.982921 0.50352 0.982921 0.50352 0.894043 0.446944 0.71765 0.446943 0.807449 0.391825 0.807449 0.391825 0.71765 0.446943 0.627851 0.391825 0.627851 0.446944 0.538051 0.391825 0.538051 0.446944 0.448252 0.391825 0.448252 0.446944 0.358453 0.391825 0.358453 0.446943 0.268654 0.391825 0.268654 0.446944 0.897248 0.446944 0.987047 0.391825 0.987048 0.391825 0.897248 0.604718 0.716289 0.604718 0.805166 0.50352 0.805166 0.50352 0.716288 0.604718 0.627411 0.50352 0.627411 0.604718 0.538534 0.50352 0.538534 0.604718 0.449656 0.50352 0.449656 0.604718 0.360779 0.50352 0.360779 0.604718 0.271901 0.50352 0.271901 0.604718 0.894043 0.604718 0.982921 0.50352 0.982921 0.503521 0.894043 0.409938 0.410766 0.409938 0.565622 0.356574 0.539957 0.356574 0.436431 0.73472 0.35626 0.864981 0.35626 0.864981 0.476569 0.73472 0.476569 0.356574 0.539957 0.356574 0.436431 0.409938 0.410766 0.409938 0.565622 0.936379 0.356429 0.936379 0.4764 0.663322 0.476184 0.663323 0.356645 0.409938 0.410766 0.409938 0.565622 0.356574 0.539957 0.356574 0.436431 0.73472 0.570689 0.864981 0.57069 0.864981 0.690999 0.73472 0.690999 0.356574 0.539957 0.356574 0.436431 0.409938 0.410766 0.409938 0.565622 0.936379 0.570859 0.936379 0.69083 0.663322 0.690614 0.663323 0.571075 0.409938 0.410766 0.409938 0.565622 0.356574 0.539957 0.356574 0.436431 0.73472 0.714664 0.864981 0.714664 0.864981 0.834974 0.73472 0.834974 0.356574 0.539957 0.356574 0.436431 0.409938 0.410766 0.409938 0.565622 0.936379 0.714833 0.936379 0.834805 0.663322 0.834588 0.663323 0.71505</float_array>
          <technique_common>
            <accessor source="#polySurfaceShape20-map1-array" count="598" stride="2">
              <param name="S" type="float" />
              <param name="T" type="float" />
            </accessor>
          </technique_common>
        </source>
        <vertices id="polySurfaceShape20-vertices">
          <input semantic="POSITION" source="#polySurfaceShape20-positions" />
        </vertices>
        <triangles material="initialShadingGroup" count="576">
          <input semantic="VERTEX" source="#polySurfaceShape20-vertices" offset="0" />
          <input semantic="NORMAL" source="#polySurfaceShape20-normals" offset="1" />
          <input semantic="TEXCOORD" source="#polySurfaceShape20-map1" offset="2" set="0" />
          <p>0 0 0 1 1 1 22 13 13 22 13 13 1 1 1 17 12 12 17 12 12 1 1 1 8 11 11 8 11 11 1 1 1 18 10 10 1 1 1 25 2 2 18 10 10 25 2 2 15 3 3 18 10 10 15 3 3 10 4 4 18 10 10 10 4 4 12 5 5 18 10 10 12 5 5 26 6 6 18 10 10 26 6 6 3 7 7 18 10 10 18 10 10 3 7 7 21 9 9 3 7 7 2 8 8 21 9 9 2 14 14 3 15 15 4 17 17 3 15 15 5 16 16 4 17 17 6 26 26 23 27 27 7 25 25 23 27 27 16 28 28 7 25 25 16 28 28 9 29 29 7 25 25 9 29 29 19 30 30 7 25 25 7 25 25 19 30 30 24 24 24 24 24 24 19 30 30 14 23 23 14 23 23 19 30 30 11 22 22 11 22 22 19 30 30 13 21 21 13 21 21 19 30 30 27 20 20 27 20 20 19 30 30 5 19 19 19 30 30 20 31 31 5 19 19 4 18 18 5 19 19 20 31 31 26 32 32 27 33 33 3 15 15 27 33 33 5 16 16 3 15 15 16 34 34 17 35 35 9 37 37 17 35 35 8 36 36 9 37 37 9 37 37 8 36 36 19 39 39 8 36 36 18 38 38 19 39 39 1 40 40 7 41 41 25 43 43 7 41 41 24 42 42 25 43 43 10 44 44 11 45 45 12 47 47 11 45 45 13 46 46 12 47 47 15 48 48 14 49 49 10 44 44 14 49 49 11 45 45 10 44 44 6 50 50 0 51 51 23 53 53 0 51 51 22 52 52 23 53 53 20 54 54 21 55 55 4 17 17 21 55 55 2 14 14 4 17 17 19 56 39 18 57 38 20 54 54 18 57 38 21 55 55 20 54 54 23 53 53 22 52 52 16 59 34 22 52 52 17 58 35 16 59 34 25 43 43 24 42 42 15 61 48 24 42 42 14 60 49 15 61 48 12 62 47 13 63 46 26 32 32 13 63 46 27 33 33 26 32 32 0 64 56 6 65 57 1 67 59 6 65 57 7 66 58 1 67 59 32 68 60 34 69 61 33 71 63 34 69 61 35 70 62 33 71 63 36 72 64 38 73 65 37 75 67 38 73 65 39 74 66 37 75 67 28 76 68 29 77 69 34 79 71 29 77 69 35 78 70 34 79 71 42 80 72 40 81 73 43 83 75 40 81 73 41 82 74 43 83 75 31 84 76 28 85 77 45 87 79 28 85 77 44 86 78 45 87 79 28 88 68 34 89 71 44 92 82 34 89 71 39 90 80 44 92 82 39 90 80 38 91 81 44 92 82 34 69 61 32 68 60 39 74 66 32 68 60 37 75 67 39 74 66 29 93 83 30 94 84 47 96 86 30 94 84 46 95 85 47 96 86 33 71 63 35 70 62 41 82 74 35 70 62 43 83 75 41 82 74 29 98 69 47 99 87 35 97 70 35 97 70 47 99 87 43 101 89 47 99 87 42 100 88 43 101 89 31 102 90 45 103 91 32 106 94 32 106 94 45 103 91 37 105 93 45 103 91 36 104 92 37 105 93 30 109 97 33 110 98 46 108 96 33 110 98 41 111 99 46 108 96 40 107 95 46 108 96 41 111 99 30 113 97 31 114 90 33 112 98 33 112 98 31 114 90 32 115 94 45 87 79 44 86 78 36 72 64 44 86 78 38 73 65 36 72 64 47 96 86 46 95 85 42 80 72 46 95 85 40 81 73 42 80 72 30 94 84 29 93 83 31 84 101 29 93 83 28 85 100 31 84 101 48 116 102 49 117 103 50 119 105 49 117 103 51 118 104 50 119 105 50 120 106 51 121 107 52 123 109 51 121 107 53 122 108 52 123 109 55 126 112 54 127 113 53 125 111 52 124 110 53 125 111 54 127 113 49 128 114 55 129 115 51 131 107 55 129 115 53 130 108 51 131 107 54 132 116 48 133 117 52 135 109 48 133 117 50 134 106 52 135 109 56 138 120 57 139 121 64 137 119 65 136 118 64 137 119 57 139 121 57 139 121 58 141 123 65 136 118 66 140 122 65 136 118 58 141 123 58 141 123 59 143 125 66 140 122 67 142 124 66 140 122 59 143 125 59 143 125 60 145 127 67 142 124 68 144 126 67 142 124 60 145 127 60 145 127 61 147 129 68 144 126 69 146 128 68 144 126 61 147 129 61 147 129 62 149 131 69 146 128 70 148 130 69 146 128 62 149 131 62 149 134 63 151 135 70 148 133 71 150 132 70 148 133 63 151 135 63 151 135 56 138 120 71 150 132 64 137 119 71 150 132 56 138 120 80 154 138 81 155 139 72 153 137 73 152 136 72 153 137 81 155 139 81 155 139 82 157 141 73 152 136 74 156 140 73 152 136 82 157 141 82 157 141 83 159 143 74 156 140 75 158 142 74 156 140 83 159 143 83 159 143 84 161 145 75 158 142 76 160 144 75 158 142 84 161 145 84 161 145 85 163 147 76 160 144 77 162 146 76 160 144 85 163 147 85 163 147 86 165 149 77 162 146 78 164 148 77 162 146 86 165 149 86 165 152 87 167 153 78 164 151 79 166 150 78 164 151 87 167 153 87 167 153 80 154 138 79 166 150 72 153 137 79 166 150 80 154 138 81 155 139 80 154 138 89 169 155 80 154 138 88 168 154 89 169 155 82 157 141 81 155 139 90 170 156 81 155 139 89 169 155 90 170 156 83 159 143 82 157 141 91 171 157 82 157 141 90 170 156 91 171 157 84 161 145 83 159 143 92 172 158 83 159 143 91 171 157 92 172 158 85 163 147 84 161 145 93 173 159 84 161 145 92 172 158 93 173 159 86 165 149 85 163 147 94 174 160 85 163 147 93 173 159 94 174 160 87 167 153 86 165 152 95 175 162 86 165 152 94 174 161 95 175 162 80 154 138 87 167 153 88 168 154 87 167 153 95 175 162 88 168 154 89 169 155 88 168 154 97 177 164 88 168 154 96 176 163 97 177 164 90 170 156 89 169 155 98 178 165 89 169 155 97 177 164 98 178 165 91 171 157 90 170 156 99 179 166 90 170 156 98 178 165 99 179 166 92 172 158 91 171 157 100 180 167 91 171 157 99 179 166 100 180 167 93 173 159 92 172 158 101 181 168 92 172 158 100 180 167 101 181 168 94 174 160 93 173 159 102 182 169 93 173 159 101 181 168 102 182 169 95 175 162 94 174 161 103 183 171 94 174 161 102 182 170 103 183 171 88 168 154 95 175 162 96 176 163 95 175 162 103 183 171 96 176 163 97 184 172 96 185 173 65 187 175 96 185 173 64 186 174 65 187 175 98 188 176 97 184 172 66 189 177 97 184 172 65 187 175 66 189 177 99 190 178 98 188 176 67 191 179 98 188 176 66 189 177 67 191 179 100 192 180 99 190 178 68 193 181 99 190 178 67 191 179 68 193 181 101 194 182 100 192 180 69 195 183 100 192 180 68 193 181 69 195 183 102 196 184 101 194 182 70 197 185 101 194 182 69 195 183 70 197 185 103 198 186 102 196 187 71 199 189 102 196 187 70 197 188 71 199 189 96 185 173 103 198 186 64 186 174 103 198 186 71 199 189 64 186 174 105 200 190 104 201 191 113 203 193 104 201 191 112 202 192 113 203 193 106 204 194 105 200 190 114 205 195 105 200 190 113 203 193 114 205 195 107 206 196 106 204 194 115 207 197 106 204 194 114 205 195 115 207 197 108 208 198 107 206 196 116 209 199 107 206 196 115 207 197 116 209 199 109 210 200 108 208 198 117 211 201 108 208 198 116 209 199 117 211 201 110 212 202 109 210 200 118 213 203 109 210 200 117 211 201 118 213 203 111 214 204 110 212 205 119 215 207 110 212 205 118 213 206 119 215 207 104 201 191 111 214 204 112 202 192 111 214 204 119 215 207 112 202 192 113 216 208 112 217 209 73 219 211 112 217 209 72 218 210 73 219 211 114 220 212 113 216 208 74 221 213 113 216 208 73 219 211 74 221 213 115 222 214 114 220 212 75 223 215 114 220 212 74 221 213 75 223 215 116 224 216 115 222 214 76 225 217 115 222 214 75 223 215 76 225 217 117 226 218 116 224 216 77 227 219 116 224 216 76 225 217 77 227 219 118 228 220 117 226 218 78 229 221 117 226 218 77 227 219 78 229 221 119 230 222 118 228 223 79 231 225 118 228 223 78 229 224 79 231 225 112 217 209 119 230 222 72 218 210 119 230 222 79 231 225 72 218 210 120 234 228 121 235 229 128 233 227 129 232 226 128 233 227 121 235 229 121 235 229 122 237 231 129 232 226 130 236 230 129 232 226 122 237 231 122 237 231 123 239 233 130 236 230 131 238 232 130 236 230 123 239 233 123 239 233 124 241 235 131 238 232 132 240 234 131 238 232 124 241 235 124 241 235 125 243 237 132 240 234 133 242 236 132 240 234 125 243 237 125 243 237 126 245 239 133 242 236 134 244 238 133 242 236 126 245 239 126 245 242 127 247 243 134 244 241 135 246 240 134 244 241 127 247 243 127 247 243 120 234 228 135 246 240 128 233 227 135 246 240 120 234 228 144 250 246 145 251 247 136 249 245 137 248 244 136 249 245 145 251 247 145 251 247 146 253 249 137 248 244 138 252 248 137 248 244 146 253 249 146 253 249 147 255 251 138 252 248 139 254 250 138 252 248 147 255 251 147 255 251 148 257 253 139 254 250 140 256 252 139 254 250 148 257 253 148 257 253 149 259 255 140 256 252 141 258 254 140 256 252 149 259 255 149 259 255 150 261 257 141 258 254 142 260 256 141 258 254 150 261 257 150 261 260 151 263 261 142 260 259 143 262 258 142 260 259 151 263 261 151 263 261 144 250 246 143 262 258 136 249 245 143 262 258 144 250 246 145 251 247 144 250 246 153 265 263 144 250 246 152 264 262 153 265 263 146 253 249 145 251 247 154 266 264 145 251 247 153 265 263 154 266 264 147 255 251 146 253 249 155 267 265 146 253 249 154 266 264 155 267 265 148 257 253 147 255 251 156 268 266 147 255 251 155 267 265 156 268 266 149 259 255 148 257 253 157 269 267 148 257 253 156 268 266 157 269 267 150 261 257 149 259 255 158 270 268 149 259 255 157 269 267 158 270 268 151 263 261 150 261 260 159 271 270 150 261 260 158 270 269 159 271 270 144 250 246 151 263 261 152 264 262 151 263 261 159 271 270 152 264 262 153 265 263 152 264 262 161 273 272 152 264 262 160 272 271 161 273 272 154 266 264 153 265 263 162 274 273 153 265 263 161 273 272 162 274 273 155 267 265 154 266 264 163 275 274 154 266 264 162 274 273 163 275 274 156 268 266 155 267 265 164 276 275 155 267 265 163 275 274 164 276 275 157 269 267 156 268 266 165 277 276 156 268 266 164 276 275 165 277 276 158 270 268 157 269 267 166 278 277 157 269 267 165 277 276 166 278 277 159 271 270 158 270 269 167 279 279 158 270 269 166 278 278 167 279 279 152 264 262 159 271 270 160 272 271 159 271 270 167 279 279 160 272 271 161 280 280 160 281 281 129 283 283 160 281 281 128 282 282 129 283 283 162 284 284 161 280 280 130 285 285 161 280 280 129 283 283 130 285 285 163 286 286 162 284 284 131 287 287 162 284 284 130 285 285 131 287 287 164 288 288 163 286 286 132 289 289 163 286 286 131 287 287 132 289 289 165 290 290 164 288 288 133 291 291 164 288 288 132 289 289 133 291 291 166 292 292 165 290 290 134 293 293 165 290 290 133 291 291 134 293 293 167 294 294 166 292 295 135 295 297 166 292 295 134 293 296 135 295 297 160 281 281 167 294 294 128 282 282 167 294 294 135 295 297 128 282 282 169 296 298 168 297 299 177 299 301 168 297 299 176 298 300 177 299 301 170 300 302 169 296 298 178 301 303 169 296 298 177 299 301 178 301 303 171 302 304 170 300 302 179 303 305 170 300 302 178 301 303 179 303 305 172 304 306 171 302 304 180 305 307 171 302 304 179 303 305 180 305 307 173 306 308 172 304 306 181 307 309 172 304 306 180 305 307 181 307 309 174 308 310 173 306 308 182 309 311 173 306 308 181 307 309 182 309 311 175 310 312 174 308 313 183 311 315 174 308 313 182 309 314 183 311 315 168 297 299 175 310 312 176 298 300 175 310 312 183 311 315 176 298 300 177 312 316 176 313 317 137 315 319 176 313 317 136 314 318 137 315 319 178 316 320 177 312 316 138 317 321 177 312 316 137 315 319 138 317 321 179 318 322 178 316 320 139 319 323 178 316 320 138 317 321 139 319 323 180 320 324 179 318 322 140 321 325 179 318 322 139 319 323 140 321 325 181 322 326 180 320 324 141 323 327 180 320 324 140 321 325 141 323 327 182 324 328 181 322 326 142 325 329 181 322 326 141 323 327 142 325 329 183 326 330 182 324 331 143 327 333 182 324 331 142 325 332 143 327 333 176 313 317 183 326 330 136 314 318 183 326 330 143 327 333 136 314 318 184 330 336 185 331 337 192 329 335 193 328 334 192 329 335 185 331 337 185 331 337 186 333 339 193 328 334 194 332 338 193 328 334 186 333 339 186 333 339 187 335 341 194 332 338 195 334 340 194 332 338 187 335 341 187 335 341 188 337 343 195 334 340 196 336 342 195 334 340 188 337 343 188 337 343 189 339 345 196 336 342 197 338 344 196 336 342 189 339 345 189 339 345 190 341 347 197 338 344 198 340 346 197 338 344 190 341 347 190 341 350 191 343 351 198 340 349 199 342 348 198 340 349 191 343 351 191 343 351 184 330 336 199 342 348 192 329 335 199 342 348 184 330 336 208 346 354 209 347 355 200 345 353 201 344 352 200 345 353 209 347 355 209 347 355 210 349 357 201 344 352 202 348 356 201 344 352 210 349 357 210 349 357 211 351 359 202 348 356 203 350 358 202 348 356 211 351 359 211 351 359 212 353 361 203 350 358 204 352 360 203 350 358 212 353 361 212 353 361 213 355 363 204 352 360 205 354 362 204 352 360 213 355 363 213 355 363 214 357 365 205 354 362 206 356 364 205 354 362 214 357 365 214 357 368 215 359 369 206 356 367 207 358 366 206 356 367 215 359 369 215 359 369 208 346 354 207 358 366 200 345 353 207 358 366 208 346 354 209 347 355 208 346 354 217 361 371 208 346 354 216 360 370 217 361 371 210 349 357 209 347 355 218 362 372 209 347 355 217 361 371 218 362 372 211 351 359 210 349 357 219 363 373 210 349 357 218 362 372 219 363 373 212 353 361 211 351 359 220 364 374 211 351 359 219 363 373 220 364 374 213 355 363 212 353 361 221 365 375 212 353 361 220 364 374 221 365 375 214 357 365 213 355 363 222 366 376 213 355 363 221 365 375 222 366 376 215 359 369 214 357 368 223 367 378 214 357 368 222 366 377 223 367 378 208 346 354 215 359 369 216 360 370 215 359 369 223 367 378 216 360 370 217 361 371 216 360 370 225 369 380 216 360 370 224 368 379 225 369 380 218 362 372 217 361 371 226 370 381 217 361 371 225 369 380 226 370 381 219 363 373 218 362 372 227 371 382 218 362 372 226 370 381 227 371 382 220 364 374 219 363 373 228 372 383 219 363 373 227 371 382 228 372 383 221 365 375 220 364 374 229 373 384 220 364 374 228 372 383 229 373 384 222 366 376 221 365 375 230 374 385 221 365 375 229 373 384 230 374 385 223 367 378 222 366 377 231 375 387 222 366 377 230 374 386 231 375 387 216 360 370 223 367 378 224 368 379 223 367 378 231 375 387 224 368 379 225 376 388 224 377 389 193 379 391 224 377 389 192 378 390 193 379 391 226 380 392 225 376 388 194 381 393 225 376 388 193 379 391 194 381 393 227 382 394 226 380 392 195 383 395 226 380 392 194 381 393 195 383 395 228 384 396 227 382 394 196 385 397 227 382 394 195 383 395 196 385 397 229 386 398 228 384 396 197 387 399 228 384 396 196 385 397 197 387 399 230 388 400 229 386 398 198 389 401 229 386 398 197 387 399 198 389 401 231 390 402 230 388 403 199 391 405 230 388 403 198 389 404 199 391 405 224 377 389 231 390 402 192 378 390 231 390 402 199 391 405 192 378 390 233 392 406 232 393 407 241 395 409 232 393 407 240 394 408 241 395 409 234 396 410 233 392 406 242 397 411 233 392 406 241 395 409 242 397 411 235 398 412 234 396 410 243 399 413 234 396 410 242 397 411 243 399 413 236 400 414 235 398 412 244 401 415 235 398 412 243 399 413 244 401 415 237 402 416 236 400 414 245 403 417 236 400 414 244 401 415 245 403 417 238 404 418 237 402 416 246 405 419 237 402 416 245 403 417 246 405 419 239 406 420 238 404 421 247 407 423 238 404 421 246 405 422 247 407 423 232 393 407 239 406 420 240 394 408 239 406 420 247 407 423 240 394 408 241 408 424 240 409 425 201 411 427 240 409 425 200 410 426 201 411 427 242 412 428 241 408 424 202 413 429 241 408 424 201 411 427 202 413 429 243 414 430 242 412 428 203 415 431 242 412 428 202 413 429 203 415 431 244 416 432 243 414 430 204 417 433 243 414 430 203 415 431 204 417 433 245 418 434 244 416 432 205 419 435 244 416 432 204 417 433 205 419 435 246 420 436 245 418 434 206 421 437 245 418 434 205 419 435 206 421 437 247 422 438 246 420 439 207 423 441 246 420 439 206 421 440 207 423 441 240 409 425 247 422 438 200 410 426 247 422 438 207 423 441 200 410 426 248 426 444 249 427 445 256 425 443 257 424 442 256 425 443 249 427 445 249 427 445 250 429 447 257 424 442 258 428 446 257 424 442 250 429 447 250 429 447 251 431 449 258 428 446 259 430 448 258 428 446 251 431 449 251 431 449 252 433 451 259 430 448 260 432 450 259 430 448 252 433 451 252 433 451 253 435 453 260 432 450 261 434 452 260 432 450 253 435 453 253 435 453 254 437 455 261 434 452 262 436 454 261 434 452 254 437 455 254 437 458 255 439 459 262 436 457 263 438 456 262 436 457 255 439 459 255 439 459 248 426 444 263 438 456 256 425 443 263 438 456 248 426 444 272 442 462 273 443 463 264 441 461 265 440 460 264 441 461 273 443 463 273 443 463 274 445 465 265 440 460 266 444 464 265 440 460 274 445 465 274 445 465 275 447 467 266 444 464 267 446 466 266 444 464 275 447 467 275 447 467 276 449 469 267 446 466 268 448 468 267 446 466 276 449 469 276 449 469 277 451 471 268 448 468 269 450 470 268 448 468 277 451 471 277 451 471 278 453 473 269 450 470 270 452 472 269 450 470 278 453 473 278 453 476 279 455 477 270 452 475 271 454 474 270 452 475 279 455 477 279 455 477 272 442 462 271 454 474 264 441 461 271 454 474 272 442 462 273 443 463 272 442 462 281 457 479 272 442 462 280 456 478 281 457 479 274 445 465 273 443 463 282 458 480 273 443 463 281 457 479 282 458 480 275 447 467 274 445 465 283 459 481 274 445 465 282 458 480 283 459 481 276 449 469 275 447 467 284 460 482 275 447 467 283 459 481 284 460 482 277 451 471 276 449 469 285 461 483 276 449 469 284 460 482 285 461 483 278 453 473 277 451 471 286 462 484 277 451 471 285 461 483 286 462 484 279 455 477 278 453 476 287 463 486 278 453 476 286 462 485 287 463 486 272 442 462 279 455 477 280 456 478 279 455 477 287 463 486 280 456 478 281 457 479 280 456 478 289 465 488 280 456 478 288 464 487 289 465 488 282 458 480 281 457 479 290 466 489 281 457 479 289 465 488 290 466 489 283 459 481 282 458 480 291 467 490 282 458 480 290 466 489 291 467 490 284 460 482 283 459 481 292 468 491 283 459 481 291 467 490 292 468 491 285 461 483 284 460 482 293 469 492 284 460 482 292 468 491 293 469 492 286 462 484 285 461 483 294 470 493 285 461 483 293 469 492 294 470 493 287 463 486 286 462 485 295 471 495 286 462 485 294 470 494 295 471 495 280 456 478 287 463 486 288 464 487 287 463 486 295 471 495 288 464 487 289 472 496 288 473 497 257 475 499 288 473 497 256 474 498 257 475 499 290 476 500 289 472 496 258 477 501 289 472 496 257 475 499 258 477 501 291 478 502 290 476 500 259 479 503 290 476 500 258 477 501 259 479 503 292 480 504 291 478 502 260 481 505 291 478 502 259 479 503 260 481 505 293 482 506 292 480 504 261 483 507 292 480 504 260 481 505 261 483 507 294 484 508 293 482 506 262 485 509 293 482 506 261 483 507 262 485 509 295 486 510 294 484 511 263 487 513 294 484 511 262 485 512 263 487 513 288 473 497 295 486 510 256 474 498 295 486 510 263 487 513 256 474 498 297 488 514 296 489 515 305 491 517 296 489 515 304 490 516 305 491 517 298 492 518 297 488 514 306 493 519 297 488 514 305 491 517 306 493 519 299 494 520 298 492 518 307 495 521 298 492 518 306 493 519 307 495 521 300 496 522 299 494 520 308 497 523 299 494 520 307 495 521 308 497 523 301 498 524 300 496 522 309 499 525 300 496 522 308 497 523 309 499 525 302 500 526 301 498 524 310 501 527 301 498 524 309 499 525 310 501 527 303 502 528 302 500 529 311 503 531 302 500 529 310 501 530 311 503 531 296 489 515 303 502 528 304 490 516 303 502 528 311 503 531 304 490 516 305 504 532 304 505 533 265 507 535 304 505 533 264 506 534 265 507 535 306 508 536 305 504 532 266 509 537 305 504 532 265 507 535 266 509 537 307 510 538 306 508 536 267 511 539 306 508 536 266 509 537 267 511 539 308 512 540 307 510 538 268 513 541 307 510 538 267 511 539 268 513 541 309 514 542 308 512 540 269 515 543 308 512 540 268 513 541 269 515 543 310 516 544 309 514 542 270 517 545 309 514 542 269 515 543 270 517 545 311 518 546 310 516 547 271 519 549 310 516 547 270 517 548 271 519 549 304 505 533 311 518 546 264 506 534 311 518 546 271 519 549 264 506 534 312 520 550 313 521 551 314 523 553 313 521 551 315 522 552 314 523 553 314 524 554 315 525 555 316 527 557 315 525 555 317 526 556 316 527 557 319 530 560 318 531 561 317 529 559 316 528 558 317 529 559 318 531 561 313 532 562 319 533 563 315 535 555 319 533 563 317 534 556 315 535 555 318 536 564 312 537 565 316 539 557 312 537 565 314 538 554 316 539 557 320 540 566 321 541 567 322 543 569 321 541 567 323 542 568 322 543 569 322 544 570 323 545 571 324 547 573 323 545 571 325 546 572 324 547 573 327 550 576 326 551 577 325 549 575 324 548 574 325 549 575 326 551 577 321 552 578 327 553 579 323 555 571 327 553 579 325 554 572 323 555 571 326 556 580 320 557 581 324 559 573 320 557 581 322 558 570 324 559 573 328 560 582 329 561 583 330 563 585 329 561 583 331 562 584 330 563 585 330 564 586 331 565 587 332 567 589 331 565 587 333 566 588 332 567 589 335 570 592 334 571 593 333 569 591 332 568 590 333 569 591 334 571 593 329 572 594 335 573 595 331 575 587 335 573 595 333 574 588 331 575 587 334 576 596 328 577 597 332 579 589 328 577 597 330 578 586 332 579 589</p>
        </triangles>
      </mesh>
      <extra>
        <technique profile="MAYA">
          <double_sided>1</double_sided>
        </technique>
      </extra>
    </geometry>
  </library_geometries>
  <library_visual_scenes>
    <visual_scene id="VisualSceneNode" name="castlebase_railing2">
      <node id="polySurface14" name="polySurface14" type="NODE">
        <rotate sid="rotateZ">0 0 1 0</rotate>
        <rotate sid="rotateY">0 1 0 0</rotate>
        <rotate sid="rotateX">1 0 0 0</rotate>
        <instance_geometry url="#polySurfaceShape20">
          <bind_material>
            <technique_common>
              <instance_material symbol="initialShadingGroup" target="#lambert1">
                <bind_vertex_input semantic="TEX0" input_semantic="TEXCOORD" input_set="0" />
              </instance_material>
            </technique_common>
          </bind_material>
        </instance_geometry>
      </node>
      <extra>
        <technique profile="FCOLLADA">
          <start_time>0.041666</start_time>
          <end_time>2</end_time>
        </technique>
      </extra>
    </visual_scene>
  </library_visual_scenes>
  <scene>
    <instance_physics_scene url="#MayaNativePhysicsScene" />
    <instance_visual_scene url="#VisualSceneNode" />
  </scene>
</COLLADA>